# index of html fragments. Provides additional information for sorting files. DO NOT REMOVE.
#File Name                                       year processing   category      files          events     energy       mass      mass2       labo
xs_hzha03pyth6156hzbq_e206.5_mxxx_mxxx_ca0_1l_e1        2000      va0e1      HIGGS        150          143947      206.5          -          -       cern
xs_hzha03pyth6156hzcq_e206.5_mxxx_mxxx_ca0_1l_e1        2000      va0e1      HIGGS        150          142348      206.5        105          -       cern
xs_hzhahphmwatn_e206.5_mxxx_ca0_1l_e1           2000      va0e1      HIGGS         10           19991      206.5          -          -       cern
xs_hzhahphmwawa_e206.5_mxxx_ca0_1l_e1           2000      va0e1      HIGGS         10           12866      206.5          -          -       cern
xs_hzhahphmwawa_e206.5_mxxx_mxxx_ca0_1l_e1        2000      va0e1      HIGGS          4            7159      206.5        100          -       cern
