*
*   Nickname     : xs_hzhahphmwatn_e206.5_m60_ca0_1l_e1
*   Generic Name : //CERN/DELPHI/P02_SIMD/XSDST/HZHAHPHMWATN/E206.5/CERN/SUMT/C001-1
*   Description  :  Extended Short DST simulation a0e1 done at ecms=206.5 , CERN
*---
*   Comments     : in total 1998 events in 1 files time stamp: Thu Apr 25 15:10:07 2002
*---
*
*
*
*
*
FILE = /castor/cern.ch/delphi/MCprod/cern/hzha/va0e/206.5/hzha_hphm_watn_e206.5_60_50.xsdst ! RUN = 50 ! NEVT = 1998
