*
*   Nickname     : xs_hzhahphmwawa_e206.5_m70_ca0_1l_e1
*   Generic Name : //CERN/DELPHI/P02_SIMD/XSDST/HZHAHPHMWAWA/E206.5/CERN/SUMT/C001-1
*   Description  :  Extended Short DST simulation a0e1 done at ecms=206.5 , CERN
*---
*   Comments     : in total 1992 events in 1 files time stamp: Sat May  4 22:10:15 2002
*---
*
*
*
*
*
FILE = /castor/cern.ch/delphi/MCprod/cern/hzha/va0e/206.5/hzha_hphm_wawa_e206.5_70_50.xsdst ! RUN = 50 ! NEVT = 1992
