*
*   Nickname     : xs_hzhahphmwawa_e206.5_m80_m50_ca0_1l_e1
*   Generic Name : //CERN/DELPHI/P02_SIMD/XSDST/HZHAHPHMWAWA/E206.5/CERN/SUMT/C001-1
*   Description  :  Extended Short DST simulation a0e1 done at ecms=206.5 , CERN
*---
*   Comments     : in total 1997 events in 1 files time stamp: Wed May  8 06:11:06 2002
*---
*
*
*
*
*
FILE = /castor/cern.ch/delphi/MCprod/cern/hzha/va0e/206.5/hzha_hphm_wawa_e206.5_80_50_2.xsdst ! RUN = 2 ! NEVT = 1997
