*
*   Nickname     : xs_hzha03pyth6156hgmm_e206.5_m55.0_ca0_1l_u1
*   Generic Name : //CERN/DELPHI/P02_SIMD/XSDST/HZHA03PYTH6156HGMM/E206.5/CERN/SUMT/C001-4
*   Description  : XShortDst HZHA03 H->gluglu, Z->mu+mu-  Extended Short DST simulation a0u1 done at ecms=206.5 , CERN
*---
*   Comments     : in total 2000 events in 4 files time stamp: Mon Mar 25 01:10:34 2002
*---
*
*
*
*
*
FILE = /castor/cern.ch/delphi/MCprod/cern/hzha03pyth6156/va0u/206.5/hzha03pyth6156_hgmm_206.5_55.0_85509.xsdst ! RUN = 85509 ! NEVT = 500
FILE = /castor/cern.ch/delphi/MCprod/cern/hzha03pyth6156/va0u/206.5/hzha03pyth6156_hgmm_206.5_55.0_85510.xsdst ! RUN = 85510 ! NEVT = 500
FILE = /castor/cern.ch/delphi/MCprod/cern/hzha03pyth6156/va0u/206.5/hzha03pyth6156_hgmm_206.5_55.0_85511.xsdst ! RUN = 85511 ! NEVT = 500
FILE = /castor/cern.ch/delphi/MCprod/cern/hzha03pyth6156/va0u/206.5/hzha03pyth6156_hgmm_206.5_55.0_85512.xsdst ! RUN = 85512 ! NEVT = 500
