*
*   Nickname     : xs_hzha03pyth6156hcee_e206.5_m47.5_ca0_1l_u1
*   Generic Name : //CERN/DELPHI/P02_SIMD/XSDST/HZHA03PYTH6156HCEE/E206.5/CERN/SUMT/C001-4
*   Description  :  Extended Short DST simulation a0u1 done at ecms=206.5 , CERN
*---
*   Comments     : in total 1997 events in 4 files time stamp: Tue Mar 26 12:14:30 2002
*---
*
*
*
*
*
FILE = /castor/cern.ch/delphi/MCprod/cern/hzha03pyth6156/va0u/206.5/hzha03pyth6156_hcee_206.5_47.5_84775.xsdst ! RUN = 84775 ! NEVT = 499
FILE = /castor/cern.ch/delphi/MCprod/cern/hzha03pyth6156/va0u/206.5/hzha03pyth6156_hcee_206.5_47.5_84776.xsdst ! RUN = 84776 ! NEVT = 499
FILE = /castor/cern.ch/delphi/MCprod/cern/hzha03pyth6156/va0u/206.5/hzha03pyth6156_hcee_206.5_47.5_84777.xsdst ! RUN = 84777 ! NEVT = 500
FILE = /castor/cern.ch/delphi/MCprod/cern/hzha03pyth6156/va0u/206.5/hzha03pyth6156_hcee_206.5_47.5_84778.xsdst ! RUN = 84778 ! NEVT = 499
