*
*   Nickname     : xs_hzha03pyth6156hcqq_e206.5_m55.0_ca0_1l_u1
*   Generic Name : //CERN/DELPHI/P02_SIMD/XSDST/HZHA03PYTH6156HCQQ/E206.5/CERN/SUMT/C001-4
*   Description  :  Extended Short DST simulation a0u1 done at ecms=206.5 , CERN
*---
*   Comments     : in total 1998 events in 4 files time stamp: Sat Mar 30 01:11:54 2002
*---
*
*
*
*
*
FILE = /castor/cern.ch/delphi/MCprod/cern/hzha03pyth6156/va0u/206.5/hzha03pyth6156_hcqq_206.5_55.0_85545.xsdst ! RUN = 85545 ! NEVT = 500
FILE = /castor/cern.ch/delphi/MCprod/cern/hzha03pyth6156/va0u/206.5/hzha03pyth6156_hcqq_206.5_55.0_85546.xsdst ! RUN = 85546 ! NEVT = 500
FILE = /castor/cern.ch/delphi/MCprod/cern/hzha03pyth6156/va0u/206.5/hzha03pyth6156_hcqq_206.5_55.0_85547.xsdst ! RUN = 85547 ! NEVT = 499
FILE = /castor/cern.ch/delphi/MCprod/cern/hzha03pyth6156/va0u/206.5/hzha03pyth6156_hcqq_206.5_55.0_85548.xsdst ! RUN = 85548 ! NEVT = 499
