*
*   Nickname     : xs_hzha03pyth6156hsmm_e206.5_m47.5_ca0_1l_u1
*   Generic Name : //CERN/DELPHI/P02_SIMD/XSDST/HZHA03PYTH6156HSMM/E206.5/CERN/SUMT/C001-4
*   Description  : XShortDst HZHA03 H->ssbar, Z->mu+mu-  Extended Short DST simulation a0u1 done at ecms=206.5 , CERN
*---
*   Comments     : in total 1997 events in 4 files time stamp: Sat Mar 23 22:10:27 2002
*---
*
*
*
*
*
FILE = /castor/cern.ch/delphi/MCprod/cern/hzha03pyth6156/va0u/206.5/hzha03pyth6156_hsmm_206.5_47.5_84751.xsdst ! RUN = 84751 ! NEVT = 500
FILE = /castor/cern.ch/delphi/MCprod/cern/hzha03pyth6156/va0u/206.5/hzha03pyth6156_hsmm_206.5_47.5_84752.xsdst ! RUN = 84752 ! NEVT = 499
FILE = /castor/cern.ch/delphi/MCprod/cern/hzha03pyth6156/va0u/206.5/hzha03pyth6156_hsmm_206.5_47.5_84753.xsdst ! RUN = 84753 ! NEVT = 498
FILE = /castor/cern.ch/delphi/MCprod/cern/hzha03pyth6156/va0u/206.5/hzha03pyth6156_hsmm_206.5_47.5_84754.xsdst ! RUN = 84754 ! NEVT = 500
