*
*   Nickname     : xs_hzha03pyth6156hsmm_e206.5_m90.0_ca0_1l_u1
*   Generic Name : //CERN/DELPHI/P02_SIMD/XSDST/HZHA03PYTH6156HSMM/E206.5/CERN/SUMT/C001-4
*   Description  : XShortDst HZHA03 H->ssbar, Z->mu+mu-  Extended Short DST simulation a0u1 done at ecms=206.5 , CERN
*---
*   Comments     : in total 1999 events in 4 files time stamp: Sun Mar 24 06:10:20 2002
*---
*
*
*
*
*
FILE = /castor/cern.ch/delphi/MCprod/cern/hzha03pyth6156/va0u/206.5/hzha03pyth6156_hsmm_206.5_90.0_89001.xsdst ! RUN = 89001 ! NEVT = 500
FILE = /castor/cern.ch/delphi/MCprod/cern/hzha03pyth6156/va0u/206.5/hzha03pyth6156_hsmm_206.5_90.0_89002.xsdst ! RUN = 89002 ! NEVT = 500
FILE = /castor/cern.ch/delphi/MCprod/cern/hzha03pyth6156/va0u/206.5/hzha03pyth6156_hsmm_206.5_90.0_89003.xsdst ! RUN = 89003 ! NEVT = 499
FILE = /castor/cern.ch/delphi/MCprod/cern/hzha03pyth6156/va0u/206.5/hzha03pyth6156_hsmm_206.5_90.0_89004.xsdst ! RUN = 89004 ! NEVT = 500
