*
*   Nickname     : xs_hzha03pyth6156hcmm_e206.5_m67.5_ca0_1l_u1
*   Generic Name : //CERN/DELPHI/P02_SIMD/XSDST/HZHA03PYTH6156HCMM/E206.5/CERN/SUMT/C001-4
*   Description  :  Extended Short DST simulation a0u1 done at ecms=206.5 , CERN
*---
*   Comments     : in total 1999 events in 4 files time stamp: Sun Mar 24 15:10:54 2002
*---
*
*
*
*
*
FILE = /castor/cern.ch/delphi/MCprod/cern/hzha03pyth6156/va0u/206.5/hzha03pyth6156_hcmm_206.5_67.5_86755.xsdst ! RUN = 86755 ! NEVT = 500
FILE = /castor/cern.ch/delphi/MCprod/cern/hzha03pyth6156/va0u/206.5/hzha03pyth6156_hcmm_206.5_67.5_86756.xsdst ! RUN = 86756 ! NEVT = 500
FILE = /castor/cern.ch/delphi/MCprod/cern/hzha03pyth6156/va0u/206.5/hzha03pyth6156_hcmm_206.5_67.5_86757.xsdst ! RUN = 86757 ! NEVT = 500
FILE = /castor/cern.ch/delphi/MCprod/cern/hzha03pyth6156/va0u/206.5/hzha03pyth6156_hcmm_206.5_67.5_86758.xsdst ! RUN = 86758 ! NEVT = 499
