*
*   Nickname     : xs_hzha03pyth6156hgee_e206.5_m55.0_ca0_1l_u1
*   Generic Name : //CERN/DELPHI/P02_SIMD/XSDST/HZHA03PYTH6156HGEE/E206.5/CERN/SUMT/C001-4
*   Description  : XShortDst HZHA03 H->gluglu, Z->e+e-  Extended Short DST simulation a0u1 done at ecms=206.5 , CERN
*---
*   Comments     : in total 1998 events in 4 files time stamp: Wed Mar 27 15:13:06 2002
*---
*
*
*
*
*
FILE = /castor/cern.ch/delphi/MCprod/cern/hzha03pyth6156/va0u/206.5/hzha03pyth6156_hgee_206.5_55.0_85529.xsdst ! RUN = 85529 ! NEVT = 500
FILE = /castor/cern.ch/delphi/MCprod/cern/hzha03pyth6156/va0u/206.5/hzha03pyth6156_hgee_206.5_55.0_85530.xsdst ! RUN = 85530 ! NEVT = 500
FILE = /castor/cern.ch/delphi/MCprod/cern/hzha03pyth6156/va0u/206.5/hzha03pyth6156_hgee_206.5_55.0_85531.xsdst ! RUN = 85531 ! NEVT = 499
FILE = /castor/cern.ch/delphi/MCprod/cern/hzha03pyth6156/va0u/206.5/hzha03pyth6156_hgee_206.5_55.0_85532.xsdst ! RUN = 85532 ! NEVT = 499
