*
*   Nickname     : xs_hzha03pyth6156hzmu_e206.5_m114_ca0_1l_u1
*   Generic Name : //CERN/DELPHI/P02_SIMD/XSDST/HZHA03PYTH6156HZMU/E206.5/CERN/SUMT/C001-10
*   Description  : XShortDst HZHA03  e+e- --> HZ (H ->  any  Z -> mu+mu-) Extended Short DST simulation a0_u1 done at ecms=206.5 , CERN
*---
*   Comments     : in total 4999 events in 10 files time stamp: Tue Aug 21 18:11:05 2001
*---
*
*
*
*
*
FILE = /castor/cern.ch/delphi/MCprod/cern/hzha03pyth6156/va0u/206.5/hzha03pyth6156_hzmu_206.5_114_21531.xsdst ! RUN = 21531 ! NEVT = 500
FILE = /castor/cern.ch/delphi/MCprod/cern/hzha03pyth6156/va0u/206.5/hzha03pyth6156_hzmu_206.5_114_21532.xsdst ! RUN = 21532 ! NEVT = 499
FILE = /castor/cern.ch/delphi/MCprod/cern/hzha03pyth6156/va0u/206.5/hzha03pyth6156_hzmu_206.5_114_21533.xsdst ! RUN = 21533 ! NEVT = 500
FILE = /castor/cern.ch/delphi/MCprod/cern/hzha03pyth6156/va0u/206.5/hzha03pyth6156_hzmu_206.5_114_21534.xsdst ! RUN = 21534 ! NEVT = 500
FILE = /castor/cern.ch/delphi/MCprod/cern/hzha03pyth6156/va0u/206.5/hzha03pyth6156_hzmu_206.5_114_21535.xsdst ! RUN = 21535 ! NEVT = 500
FILE = /castor/cern.ch/delphi/MCprod/cern/hzha03pyth6156/va0u/206.5/hzha03pyth6156_hzmu_206.5_114_21536.xsdst ! RUN = 21536 ! NEVT = 500
FILE = /castor/cern.ch/delphi/MCprod/cern/hzha03pyth6156/va0u/206.5/hzha03pyth6156_hzmu_206.5_114_21537.xsdst ! RUN = 21537 ! NEVT = 500
FILE = /castor/cern.ch/delphi/MCprod/cern/hzha03pyth6156/va0u/206.5/hzha03pyth6156_hzmu_206.5_114_21538.xsdst ! RUN = 21538 ! NEVT = 500
FILE = /castor/cern.ch/delphi/MCprod/cern/hzha03pyth6156/va0u/206.5/hzha03pyth6156_hzmu_206.5_114_21539.xsdst ! RUN = 21539 ! NEVT = 500
FILE = /castor/cern.ch/delphi/MCprod/cern/hzha03pyth6156/va0u/206.5/hzha03pyth6156_hzmu_206.5_114_21540.xsdst ! RUN = 21540 ! NEVT = 500
