*
*   Nickname     : xs_hzha03pyth6156hcqq_e206.5_m45.0_ca0_1l_u1
*   Generic Name : //CERN/DELPHI/P02_SIMD/XSDST/HZHA03PYTH6156HCQQ/E206.5/CERN/SUMT/C001-4
*   Description  :  Extended Short DST simulation a0u1 done at ecms=206.5 , CERN
*---
*   Comments     : in total 1997 events in 4 files time stamp: Fri Mar 29 12:14:07 2002
*---
*
*
*
*
*
FILE = /castor/cern.ch/delphi/MCprod/cern/hzha03pyth6156/va0u/206.5/hzha03pyth6156_hcqq_206.5_45.0_84545.xsdst ! RUN = 84545 ! NEVT = 498
FILE = /castor/cern.ch/delphi/MCprod/cern/hzha03pyth6156/va0u/206.5/hzha03pyth6156_hcqq_206.5_45.0_84546.xsdst ! RUN = 84546 ! NEVT = 500
FILE = /castor/cern.ch/delphi/MCprod/cern/hzha03pyth6156/va0u/206.5/hzha03pyth6156_hcqq_206.5_45.0_84547.xsdst ! RUN = 84547 ! NEVT = 500
FILE = /castor/cern.ch/delphi/MCprod/cern/hzha03pyth6156/va0u/206.5/hzha03pyth6156_hcqq_206.5_45.0_84548.xsdst ! RUN = 84548 ! NEVT = 499
