*
*   Nickname     : xs_hzha03pyth6156hgqq_e206.5_m45.0_ca0_1l_u1
*   Generic Name : //CERN/DELPHI/P02_SIMD/XSDST/HZHA03PYTH6156HGQQ/E206.5/CERN/SUMT/C001-4
*   Description  : XShortDst HZHA03 H->gluglu, Z->qqbar  Extended Short DST simulation a0u1 done at ecms=206.5 , CERN
*---
*   Comments     : in total 1999 events in 4 files time stamp: Sat Mar 30 15:19:23 2002
*---
*
*
*
*
*
FILE = /castor/cern.ch/delphi/MCprod/cern/hzha03pyth6156/va0u/206.5/hzha03pyth6156_hgqq_206.5_45.0_84549.xsdst ! RUN = 84549 ! NEVT = 499
FILE = /castor/cern.ch/delphi/MCprod/cern/hzha03pyth6156/va0u/206.5/hzha03pyth6156_hgqq_206.5_45.0_84550.xsdst ! RUN = 84550 ! NEVT = 500
FILE = /castor/cern.ch/delphi/MCprod/cern/hzha03pyth6156/va0u/206.5/hzha03pyth6156_hgqq_206.5_45.0_84551.xsdst ! RUN = 84551 ! NEVT = 500
FILE = /castor/cern.ch/delphi/MCprod/cern/hzha03pyth6156/va0u/206.5/hzha03pyth6156_hgqq_206.5_45.0_84552.xsdst ! RUN = 84552 ! NEVT = 500
