*
*   Nickname     : xs_hzha03pyth6156hzmu_e206.5_m115_ca0_1l_u1
*   Generic Name : //CERN/DELPHI/P02_SIMD/XSDST/HZHA03PYTH6156HZMU/E206.5/CERN/SUMT/C001-10
*   Description  : XShortDst HZHA03  e+e- --> HZ (H ->  any  Z -> mu+mu-) Extended Short DST simulation a0_u1 done at ecms=206.5 , CERN
*---
*   Comments     : in total 5000 events in 10 files time stamp: Tue Aug 21 20:11:40 2001
*---
*
*
*
*
*
FILE = /castor/cern.ch/delphi/MCprod/cern/hzha03pyth6156/va0u/206.5/hzha03pyth6156_hzmu_206.5_115_21631.xsdst ! RUN = 21631 ! NEVT = 500
FILE = /castor/cern.ch/delphi/MCprod/cern/hzha03pyth6156/va0u/206.5/hzha03pyth6156_hzmu_206.5_115_21632.xsdst ! RUN = 21632 ! NEVT = 500
FILE = /castor/cern.ch/delphi/MCprod/cern/hzha03pyth6156/va0u/206.5/hzha03pyth6156_hzmu_206.5_115_21633.xsdst ! RUN = 21633 ! NEVT = 500
FILE = /castor/cern.ch/delphi/MCprod/cern/hzha03pyth6156/va0u/206.5/hzha03pyth6156_hzmu_206.5_115_21634.xsdst ! RUN = 21634 ! NEVT = 500
FILE = /castor/cern.ch/delphi/MCprod/cern/hzha03pyth6156/va0u/206.5/hzha03pyth6156_hzmu_206.5_115_21635.xsdst ! RUN = 21635 ! NEVT = 500
FILE = /castor/cern.ch/delphi/MCprod/cern/hzha03pyth6156/va0u/206.5/hzha03pyth6156_hzmu_206.5_115_21636.xsdst ! RUN = 21636 ! NEVT = 500
FILE = /castor/cern.ch/delphi/MCprod/cern/hzha03pyth6156/va0u/206.5/hzha03pyth6156_hzmu_206.5_115_21637.xsdst ! RUN = 21637 ! NEVT = 500
FILE = /castor/cern.ch/delphi/MCprod/cern/hzha03pyth6156/va0u/206.5/hzha03pyth6156_hzmu_206.5_115_21638.xsdst ! RUN = 21638 ! NEVT = 500
FILE = /castor/cern.ch/delphi/MCprod/cern/hzha03pyth6156/va0u/206.5/hzha03pyth6156_hzmu_206.5_115_21639.xsdst ! RUN = 21639 ! NEVT = 500
FILE = /castor/cern.ch/delphi/MCprod/cern/hzha03pyth6156/va0u/206.5/hzha03pyth6156_hzmu_206.5_115_21640.xsdst ! RUN = 21640 ! NEVT = 500
