*
*   Nickname     : xs_hzha03pyth6156hgqq_e206.5_m47.5_ca0_1l_u1
*   Generic Name : //CERN/DELPHI/P02_SIMD/XSDST/HZHA03PYTH6156HGQQ/E206.5/CERN/SUMT/C001-4
*   Description  : XShortDst HZHA03 H->gluglu, Z->qqbar  Extended Short DST simulation a0u1 done at ecms=206.5 , CERN
*---
*   Comments     : in total 1997 events in 4 files time stamp: Sat Mar 30 15:20:41 2002
*---
*
*
*
*
*
FILE = /castor/cern.ch/delphi/MCprod/cern/hzha03pyth6156/va0u/206.5/hzha03pyth6156_hgqq_206.5_47.5_84799.xsdst ! RUN = 84799 ! NEVT = 499
FILE = /castor/cern.ch/delphi/MCprod/cern/hzha03pyth6156/va0u/206.5/hzha03pyth6156_hgqq_206.5_47.5_84800.xsdst ! RUN = 84800 ! NEVT = 498
FILE = /castor/cern.ch/delphi/MCprod/cern/hzha03pyth6156/va0u/206.5/hzha03pyth6156_hgqq_206.5_47.5_84801.xsdst ! RUN = 84801 ! NEVT = 500
FILE = /castor/cern.ch/delphi/MCprod/cern/hzha03pyth6156/va0u/206.5/hzha03pyth6156_hgqq_206.5_47.5_84802.xsdst ! RUN = 84802 ! NEVT = 500
