*
*   Nickname     : xs_hzha03pyth6156hcqq_e206.5_m105.0_ca0_1l_u1
*   Generic Name : //CERN/DELPHI/P02_SIMD/XSDST/HZHA03PYTH6156HCQQ/E206.5/CERN/SUMT/C001-4
*   Description  :  Extended Short DST simulation a0u1 done at ecms=206.5 , CERN
*---
*   Comments     : in total 1999 events in 4 files time stamp: Sat Mar 30 10:12:09 2002
*---
*
*
*
*
*
FILE = /castor/cern.ch/delphi/MCprod/cern/hzha03pyth6156/va0u/206.5/hzha03pyth6156_hcqq_206.5_105.0_90545.xsdst ! RUN = 90545 ! NEVT = 500
FILE = /castor/cern.ch/delphi/MCprod/cern/hzha03pyth6156/va0u/206.5/hzha03pyth6156_hcqq_206.5_105.0_90546.xsdst ! RUN = 90546 ! NEVT = 500
FILE = /castor/cern.ch/delphi/MCprod/cern/hzha03pyth6156/va0u/206.5/hzha03pyth6156_hcqq_206.5_105.0_90547.xsdst ! RUN = 90547 ! NEVT = 500
FILE = /castor/cern.ch/delphi/MCprod/cern/hzha03pyth6156/va0u/206.5/hzha03pyth6156_hcqq_206.5_105.0_90548.xsdst ! RUN = 90548 ! NEVT = 499
