*
*   Nickname     : xs_hzha03pyth6156hsee_e206.5_m45.0_ca0_1l_u1
*   Generic Name : //CERN/DELPHI/P02_SIMD/XSDST/HZHA03PYTH6156HSEE/E206.5/CERN/SUMT/C001-4
*   Description  : XShortDst HZHA03 H->ssbar, Z->e+e-  Extended Short DST simulation a0u1 done at ecms=206.5 , CERN
*---
*   Comments     : in total 1998 events in 4 files time stamp: Mon Mar 25 18:11:03 2002
*---
*
*
*
*
*
FILE = /castor/cern.ch/delphi/MCprod/cern/hzha03pyth6156/va0u/206.5/hzha03pyth6156_hsee_206.5_45.0_84521.xsdst ! RUN = 84521 ! NEVT = 500
FILE = /castor/cern.ch/delphi/MCprod/cern/hzha03pyth6156/va0u/206.5/hzha03pyth6156_hsee_206.5_45.0_84522.xsdst ! RUN = 84522 ! NEVT = 500
FILE = /castor/cern.ch/delphi/MCprod/cern/hzha03pyth6156/va0u/206.5/hzha03pyth6156_hsee_206.5_45.0_84523.xsdst ! RUN = 84523 ! NEVT = 499
FILE = /castor/cern.ch/delphi/MCprod/cern/hzha03pyth6156/va0u/206.5/hzha03pyth6156_hsee_206.5_45.0_84524.xsdst ! RUN = 84524 ! NEVT = 499
