*
*   Nickname     : xs_hzha03pyth6156hattbb_e201.6_m30_m170_c99_1l_e1
*   Generic Name : //CERN/DELPHI/P02_SIMD/XSDST/HZHA03PYTH6156HATTBB/E201.6/CERN/SUMT/C001-5
*   Description  :  Extended Short DST simulation 99_e1 done at ecms=201.6 , CERN
*---
*   Comments     : in total 2496 events in 5 files time stamp: Sat Nov 10 19:04:46 2001
*---
*
*
*
*
*
FILE = /castor/cern.ch/delphi/MCprod/cern/hzha03pyth6156/v99e/201.6/hzha03pyth6156_hattbb_201.6_30_170_31211.xsdst ! RUN = 31211 ! NEVT = 500
FILE = /castor/cern.ch/delphi/MCprod/cern/hzha03pyth6156/v99e/201.6/hzha03pyth6156_hattbb_201.6_30_170_31212.xsdst ! RUN = 31212 ! NEVT = 498
FILE = /castor/cern.ch/delphi/MCprod/cern/hzha03pyth6156/v99e/201.6/hzha03pyth6156_hattbb_201.6_30_170_31213.xsdst ! RUN = 31213 ! NEVT = 499
FILE = /castor/cern.ch/delphi/MCprod/cern/hzha03pyth6156/v99e/201.6/hzha03pyth6156_hattbb_201.6_30_170_31214.xsdst ! RUN = 31214 ! NEVT = 500
FILE = /castor/cern.ch/delphi/MCprod/cern/hzha03pyth6156/v99e/201.6/hzha03pyth6156_hattbb_201.6_30_170_31215.xsdst ! RUN = 31215 ! NEVT = 499
