*
*   Nickname     : xs_hzha03pyth6156habbtt_e199.5_m70_m110_c99_1l_e1
*   Generic Name : //CERN/DELPHI/P02_SIMD/XSDST/HZHA03PYTH6156HABBTT/E199.5/CERN/SUMT/C001-5
*   Description  :  Extended Short DST simulation 99_e1 done at ecms=199.5 , CERN
*---
*   Comments     : in total 2499 events in 5 files time stamp: Sun Nov 11 11:02:55 2001
*---
*
*
*
*
*
FILE = /castor/cern.ch/delphi/MCprod/cern/hzha03pyth6156/v99e/199.5/hzha03pyth6156_habbtt_199.5_70_110_32391.xsdst ! RUN = 32391 ! NEVT = 499
FILE = /castor/cern.ch/delphi/MCprod/cern/hzha03pyth6156/v99e/199.5/hzha03pyth6156_habbtt_199.5_70_110_32392.xsdst ! RUN = 32392 ! NEVT = 500
FILE = /castor/cern.ch/delphi/MCprod/cern/hzha03pyth6156/v99e/199.5/hzha03pyth6156_habbtt_199.5_70_110_32393.xsdst ! RUN = 32393 ! NEVT = 500
FILE = /castor/cern.ch/delphi/MCprod/cern/hzha03pyth6156/v99e/199.5/hzha03pyth6156_habbtt_199.5_70_110_32394.xsdst ! RUN = 32394 ! NEVT = 500
FILE = /castor/cern.ch/delphi/MCprod/cern/hzha03pyth6156/v99e/199.5/hzha03pyth6156_habbtt_199.5_70_110_32395.xsdst ! RUN = 32395 ! NEVT = 500
