*
*   Nickname     : xs_hzha03pyth6156habbtt_e195.5_m70_m100_c99_1l_e1
*   Generic Name : //CERN/DELPHI/P02_SIMD/XSDST/HZHA03PYTH6156HABBTT/E195.5/CERN/SUMT/C001-5
*   Description  :  Extended Short DST simulation 99_e1 done at ecms=195.5 , CERN
*---
*   Comments     : in total 2495 events in 5 files time stamp: Mon Nov 12 07:27:05 2001
*---
*
*
*
*
*
FILE = /castor/cern.ch/delphi/MCprod/cern/hzha03pyth6156/v99e/195.5/hzha03pyth6156_habbtt_195.5_70_100_34381.xsdst ! RUN = 34381 ! NEVT = 500
FILE = /castor/cern.ch/delphi/MCprod/cern/hzha03pyth6156/v99e/195.5/hzha03pyth6156_habbtt_195.5_70_100_34382.xsdst ! RUN = 34382 ! NEVT = 498
FILE = /castor/cern.ch/delphi/MCprod/cern/hzha03pyth6156/v99e/195.5/hzha03pyth6156_habbtt_195.5_70_100_34383.xsdst ! RUN = 34383 ! NEVT = 499
FILE = /castor/cern.ch/delphi/MCprod/cern/hzha03pyth6156/v99e/195.5/hzha03pyth6156_habbtt_195.5_70_100_34384.xsdst ! RUN = 34384 ! NEVT = 499
FILE = /castor/cern.ch/delphi/MCprod/cern/hzha03pyth6156/v99e/195.5/hzha03pyth6156_habbtt_195.5_70_100_34385.xsdst ! RUN = 34385 ! NEVT = 499
