*   Nickname :     xs_hzha03pyth6156ha4t_e195.5_m50_m110_c99_1l_e1
*   Generic Name : //CERN/DELPHI/P02_SIMD/XSDST/HZHA03PYTH6156HA4T/E195.5/CERN/SUMT/C001-2
*   Description :   Extended Short DST simulation 99e  done at ecm=195.5 GeV , CERN
*   Comments :     in total 1998 events in 2 files, time stamp: Mon Nov 11 4:12:31 2002
*
*
*
FILE = /castor/cern.ch/delphi/MCprod/cern/hzha03pyth6156/v99e/195.5/hzha03pyth6156_ha4t_195.5_50_110_6105.xsdst ! RUN = 6105 ! NEVT = 998
FILE = /castor/cern.ch/delphi/MCprod/cern/hzha03pyth6156/v99e/195.5/hzha03pyth6156_ha4t_195.5_50_110_6106.xsdst ! RUN = 6106 ! NEVT = 1000
