*
*   Nickname     : xs_hzha03pyth6156hattbb_e199.5_m85_m85_c99_1l_e1
*   Generic Name : //CERN/DELPHI/P02_SIMD/XSDST/HZHA03PYTH6156HATTBB/E199.5/CERN/SUMT/C001-5
*   Description  :  Extended Short DST simulation 99_e1 done at ecms=199.5 , CERN
*---
*   Comments     : in total 2499 events in 5 files time stamp: Sun Nov 11 11:03:04 2001
*---
*
*
*
*
*
FILE = /castor/cern.ch/delphi/MCprod/cern/hzha03pyth6156/v99e/199.5/hzha03pyth6156_hattbb_199.5_85_85_33441.xsdst ! RUN = 33441 ! NEVT = 500
FILE = /castor/cern.ch/delphi/MCprod/cern/hzha03pyth6156/v99e/199.5/hzha03pyth6156_hattbb_199.5_85_85_33442.xsdst ! RUN = 33442 ! NEVT = 499
FILE = /castor/cern.ch/delphi/MCprod/cern/hzha03pyth6156/v99e/199.5/hzha03pyth6156_hattbb_199.5_85_85_33443.xsdst ! RUN = 33443 ! NEVT = 500
FILE = /castor/cern.ch/delphi/MCprod/cern/hzha03pyth6156/v99e/199.5/hzha03pyth6156_hattbb_199.5_85_85_33444.xsdst ! RUN = 33444 ! NEVT = 500
FILE = /castor/cern.ch/delphi/MCprod/cern/hzha03pyth6156/v99e/199.5/hzha03pyth6156_hattbb_199.5_85_85_33445.xsdst ! RUN = 33445 ! NEVT = 500
