*
*   Nickname     : xs_hzha03pyth6156habbtt_e199.5_m70_m80_c99_1l_e1
*   Generic Name : //CERN/DELPHI/P02_SIMD/XSDST/HZHA03PYTH6156HABBTT/E199.5/CERN/SUMT/C001-5
*   Description  :  Extended Short DST simulation 99_e1 done at ecms=199.5 , CERN
*---
*   Comments     : in total 2499 events in 5 files time stamp: Sun Nov 11 04:42:13 2001
*---
*
*
*
*
*
FILE = /castor/cern.ch/delphi/MCprod/cern/hzha03pyth6156/v99e/199.5/hzha03pyth6156_habbtt_199.5_70_80_32351.xsdst ! RUN = 32351 ! NEVT = 500
FILE = /castor/cern.ch/delphi/MCprod/cern/hzha03pyth6156/v99e/199.5/hzha03pyth6156_habbtt_199.5_70_80_32352.xsdst ! RUN = 32352 ! NEVT = 500
FILE = /castor/cern.ch/delphi/MCprod/cern/hzha03pyth6156/v99e/199.5/hzha03pyth6156_habbtt_199.5_70_80_32353.xsdst ! RUN = 32353 ! NEVT = 500
FILE = /castor/cern.ch/delphi/MCprod/cern/hzha03pyth6156/v99e/199.5/hzha03pyth6156_habbtt_199.5_70_80_32354.xsdst ! RUN = 32354 ! NEVT = 500
FILE = /castor/cern.ch/delphi/MCprod/cern/hzha03pyth6156/v99e/199.5/hzha03pyth6156_habbtt_199.5_70_80_32355.xsdst ! RUN = 32355 ! NEVT = 499
