*   Nickname :     xs_hzha03pyth6156ha4t_e199.5_m11_m11_c99_1l_e1
*   Generic Name : //CERN/DELPHI/P02_SIMD/XSDST/HZHA03PYTH6156HA4T/E199.5/CERN/SUMT/C001-2
*   Description :   Extended Short DST simulation 99e  done at ecm=199.5 GeV , CERN
*   Comments :     in total 950 events in 2 files, time stamp: Fri Mar 7 20:34:35 2003
*
*
*
FILE = /castor/cern.ch/delphi/MCprod/cern/hzha03pyth6156/v99e/199.5/hzha03pyth6156_ha4t_199.5_11_11_1215.xsdst ! RUN = 1215 ! NEVT = 238
FILE = /castor/cern.ch/delphi/MCprod/cern/hzha03pyth6156/v99e/199.5/hzha03pyth6156_ha4t_199.5_11_11_1216.xsdst ! RUN = 1216 ! NEVT = 712
