*
*   Nickname     : xs_hzha03pyth6156hattbb_e195.5_m60_m80_c99_1l_e1
*   Generic Name : //CERN/DELPHI/P02_SIMD/XSDST/HZHA03PYTH6156HATTBB/E195.5/CERN/SUMT/C001-5
*   Description  :  Extended Short DST simulation 99_e1 done at ecms=195.5 , CERN
*---
*   Comments     : in total 2497 events in 5 files time stamp: Mon Nov 12 17:20:12 2001
*---
*
*
*
*
*
FILE = /castor/cern.ch/delphi/MCprod/cern/hzha03pyth6156/v99e/195.5/hzha03pyth6156_hattbb_195.5_60_80_35311.xsdst ! RUN = 35311 ! NEVT = 498
FILE = /castor/cern.ch/delphi/MCprod/cern/hzha03pyth6156/v99e/195.5/hzha03pyth6156_hattbb_195.5_60_80_35312.xsdst ! RUN = 35312 ! NEVT = 500
FILE = /castor/cern.ch/delphi/MCprod/cern/hzha03pyth6156/v99e/195.5/hzha03pyth6156_hattbb_195.5_60_80_35313.xsdst ! RUN = 35313 ! NEVT = 499
FILE = /castor/cern.ch/delphi/MCprod/cern/hzha03pyth6156/v99e/195.5/hzha03pyth6156_hattbb_195.5_60_80_35314.xsdst ! RUN = 35314 ! NEVT = 500
FILE = /castor/cern.ch/delphi/MCprod/cern/hzha03pyth6156/v99e/195.5/hzha03pyth6156_hattbb_195.5_60_80_35315.xsdst ! RUN = 35315 ! NEVT = 500
