*   Nickname :     xs_hzha03pyth6156ha4t_e199.5_m11_m50_c99_1l_e1
*   Generic Name : //CERN/DELPHI/P02_SIMD/XSDST/HZHA03PYTH6156HA4T/E199.5/CERN/SUMT/C001-2
*   Description :   Extended Short DST simulation 99e  done at ecm=199.5 GeV , CERN
*   Comments :     in total 2000 events in 2 files, time stamp: Fri Mar 7 20:34:36 2003
*
*
*
FILE = /castor/cern.ch/delphi/MCprod/cern/hzha03pyth6156/v99e/199.5/hzha03pyth6156_ha4t_199.5_11_50_1605.xsdst ! RUN = 1605 ! NEVT = 1000
FILE = /castor/cern.ch/delphi/MCprod/cern/hzha03pyth6156/v99e/199.5/hzha03pyth6156_ha4t_199.5_11_50_1606.xsdst ! RUN = 1606 ! NEVT = 1000
