*
*   Nickname     : xs_hzha03pyth6156hattbb_e201.6_m70_m90_c99_1l_e1
*   Generic Name : //CERN/DELPHI/P02_SIMD/XSDST/HZHA03PYTH6156HATTBB/E201.6/CERN/SUMT/C001-5
*   Description  :  Extended Short DST simulation 99_e1 done at ecms=201.6 , CERN
*---
*   Comments     : in total 2496 events in 5 files time stamp: Sat Nov 10 19:05:37 2001
*---
*
*
*
*
*
FILE = /castor/cern.ch/delphi/MCprod/cern/hzha03pyth6156/v99e/201.6/hzha03pyth6156_hattbb_201.6_70_90_31391.xsdst ! RUN = 31391 ! NEVT = 499
FILE = /castor/cern.ch/delphi/MCprod/cern/hzha03pyth6156/v99e/201.6/hzha03pyth6156_hattbb_201.6_70_90_31392.xsdst ! RUN = 31392 ! NEVT = 500
FILE = /castor/cern.ch/delphi/MCprod/cern/hzha03pyth6156/v99e/201.6/hzha03pyth6156_hattbb_201.6_70_90_31393.xsdst ! RUN = 31393 ! NEVT = 499
FILE = /castor/cern.ch/delphi/MCprod/cern/hzha03pyth6156/v99e/201.6/hzha03pyth6156_hattbb_201.6_70_90_31394.xsdst ! RUN = 31394 ! NEVT = 499
FILE = /castor/cern.ch/delphi/MCprod/cern/hzha03pyth6156/v99e/201.6/hzha03pyth6156_hattbb_201.6_70_90_31395.xsdst ! RUN = 31395 ! NEVT = 499
