*
*   Nickname     : xs_hzha03pyth6156hattbb_e199.5_m50_m70_c99_1l_e1
*   Generic Name : //CERN/DELPHI/P02_SIMD/XSDST/HZHA03PYTH6156HATTBB/E199.5/CERN/SUMT/C001-5
*   Description  :  Extended Short DST simulation 99_e1 done at ecms=199.5 , CERN
*---
*   Comments     : in total 2498 events in 5 files time stamp: Sun Nov 11 11:04:26 2001
*---
*
*
*
*
*
FILE = /castor/cern.ch/delphi/MCprod/cern/hzha03pyth6156/v99e/199.5/hzha03pyth6156_hattbb_199.5_50_70_33251.xsdst ! RUN = 33251 ! NEVT = 499
FILE = /castor/cern.ch/delphi/MCprod/cern/hzha03pyth6156/v99e/199.5/hzha03pyth6156_hattbb_199.5_50_70_33252.xsdst ! RUN = 33252 ! NEVT = 500
FILE = /castor/cern.ch/delphi/MCprod/cern/hzha03pyth6156/v99e/199.5/hzha03pyth6156_hattbb_199.5_50_70_33253.xsdst ! RUN = 33253 ! NEVT = 499
FILE = /castor/cern.ch/delphi/MCprod/cern/hzha03pyth6156/v99e/199.5/hzha03pyth6156_hattbb_199.5_50_70_33254.xsdst ! RUN = 33254 ! NEVT = 500
FILE = /castor/cern.ch/delphi/MCprod/cern/hzha03pyth6156/v99e/199.5/hzha03pyth6156_hattbb_199.5_50_70_33255.xsdst ! RUN = 33255 ! NEVT = 500
