*
*   Nickname     : xs_hzha03pyth6156habbtt_e199.5_m40_m50_c99_1l_e1
*   Generic Name : //CERN/DELPHI/P02_SIMD/XSDST/HZHA03PYTH6156HABBTT/E199.5/CERN/SUMT/C001-5
*   Description  :  Extended Short DST simulation 99_e1 done at ecms=199.5 , CERN
*---
*   Comments     : in total 2499 events in 5 files time stamp: Sun Nov 11 11:03:16 2001
*---
*
*
*
*
*
FILE = /castor/cern.ch/delphi/MCprod/cern/hzha03pyth6156/v99e/199.5/hzha03pyth6156_habbtt_199.5_40_50_32221.xsdst ! RUN = 32221 ! NEVT = 499
FILE = /castor/cern.ch/delphi/MCprod/cern/hzha03pyth6156/v99e/199.5/hzha03pyth6156_habbtt_199.5_40_50_32222.xsdst ! RUN = 32222 ! NEVT = 500
FILE = /castor/cern.ch/delphi/MCprod/cern/hzha03pyth6156/v99e/199.5/hzha03pyth6156_habbtt_199.5_40_50_32223.xsdst ! RUN = 32223 ! NEVT = 500
FILE = /castor/cern.ch/delphi/MCprod/cern/hzha03pyth6156/v99e/199.5/hzha03pyth6156_habbtt_199.5_40_50_32224.xsdst ! RUN = 32224 ! NEVT = 500
FILE = /castor/cern.ch/delphi/MCprod/cern/hzha03pyth6156/v99e/199.5/hzha03pyth6156_habbtt_199.5_40_50_32225.xsdst ! RUN = 32225 ! NEVT = 500
