*   Nickname :     xs_hzha03pyth6156hzvs_e188.6_m30_c98_1l_e1
*   Generic Name : //CERN/DELPHI/P02_SIMD/XSDST/HZHA03PYTH6156HZVS/E188.6/CERN/SUMT/C001-2
*   Description :  HZHA03  e+e- --> hZ -> nu nu s s Extended Short DST simulation 98e  done at ecm=188.6 GeV , CERN
*---
*   Comments :     in total 2000 events in 2 files, time stamp: Sat Aug 31 12:24:14 2002
*---
*
*
*
FILE = /castor/cern.ch/delphi/MCprod/cern/hzha03pyth6156/v98e/188.6/hzha03pyth6156_hzvs_188.6_30_3302.xsdst ! RUN = 3302 ! NEVT = 1000
FILE = /castor/cern.ch/delphi/MCprod/cern/hzha03pyth6156/v98e/188.6/hzha03pyth6156_hzvs_188.6_30_3303.xsdst ! RUN = 3303 ! NEVT = 1000
