*   Nickname :     xs_hzha03pyth6156ha4g_e188.6_m50_m4_c98_1l_e1
*   Generic Name : //CERN/DELPHI/P02_SIMD/XSDST/HZHA03PYTH6156HA4G/E188.6/CERN/SUMT/C001-2
*   Description :   Extended Short DST simulation 98e  done at ecm=188.6 GeV , CERN
*   Comments :     in total 1999 events in 2 files, time stamp: Tue Sep 17 12:51:55 2002
*
*
*
FILE = /castor/cern.ch/delphi/MCprod/cern/hzha03pyth6156/v98e/188.6/hzha03pyth6156_hA4g_188.6_50_4_5041.xsdst ! RUN = 5041 ! NEVT = 1000
FILE = /castor/cern.ch/delphi/MCprod/cern/hzha03pyth6156/v98e/188.6/hzha03pyth6156_hA4g_188.6_50_4_5042.xsdst ! RUN = 5042 ! NEVT = 999
