*
*   Nickname     : xs_hzha03pyth6156hinvmu_e206.5_m100_ra0_1l_u1
*   Generic Name : //CERN/DELPHI/P02_SIMD/XSDST/HZHA03PYTH6156HINVMU/E206.5/RAL/SUMT/C001-4
*   Description  :  Extended Short DST simulation a0_u1 done at ecms=206.5 , RAL
*---
*   Comments     : in total 2000 events in 4 files time stamp: Wed Sep 12 13:11:53 2001
*---
*
*
*
*
*
FILE = /castor/cern.ch/delphi/MCprod/ral/hzha03pyth6156/va0u/206.5/hzha03pyth6156_hinvmu_206.5_100_40140.xsdst ! RUN = 40140 ! NEVT = 500
FILE = /castor/cern.ch/delphi/MCprod/ral/hzha03pyth6156/va0u/206.5/hzha03pyth6156_hinvmu_206.5_100_40141.xsdst ! RUN = 40141 ! NEVT = 500
FILE = /castor/cern.ch/delphi/MCprod/ral/hzha03pyth6156/va0u/206.5/hzha03pyth6156_hinvmu_206.5_100_40142.xsdst ! RUN = 40142 ! NEVT = 500
FILE = /castor/cern.ch/delphi/MCprod/ral/hzha03pyth6156/va0u/206.5/hzha03pyth6156_hinvmu_206.5_100_40143.xsdst ! RUN = 40143 ! NEVT = 500
