*   Nickname :     xs_hzha03pyth6156hzcq_e199.5_m70_m8_c99_1l_e1
*   Generic Name : //CERN/DELPHI/P02_SIMD/XSDST/HZHA03PYTH6156HZCQ/E199.5/CERN/SUMT/C001-10
*   Description :   Extended Short DST simulation 99e  done at ecm=199.5 GeV , CERN
*   Comments :     in total 9354 events in 10 files, time stamp: Sat Mai 17 4:13:51 2003
*
*
*
FILE = /castor/cern.ch/delphi/MCprod/cern/hzha03pyth6156/v99e/199.5/hzha03pyth6156_hzcq_199.5_70_8_7088.xsdst ! RUN = 7088 ! NEVT = 1000
FILE = /castor/cern.ch/delphi/MCprod/cern/hzha03pyth6156/v99e/199.5/hzha03pyth6156_hzcq_199.5_70_8_7089.xsdst ! RUN = 7089 ! NEVT = 999
FILE = /castor/cern.ch/delphi/MCprod/cern/hzha03pyth6156/v99e/199.5/hzha03pyth6156_hzcq_199.5_70_8_7090.xsdst ! RUN = 7090 ! NEVT = 1000
FILE = /castor/cern.ch/delphi/MCprod/cern/hzha03pyth6156/v99e/199.5/hzha03pyth6156_hzcq_199.5_70_8_7091.xsdst ! RUN = 7091 ! NEVT = 999
FILE = /castor/cern.ch/delphi/MCprod/cern/hzha03pyth6156/v99e/199.5/hzha03pyth6156_hzcq_199.5_70_8_7092.xsdst ! RUN = 7092 ! NEVT = 358
FILE = /castor/cern.ch/delphi/MCprod/cern/hzha03pyth6156/v99e/199.5/hzha03pyth6156_hzcq_199.5_70_8_7093.xsdst ! RUN = 7093 ! NEVT = 999
FILE = /castor/cern.ch/delphi/MCprod/cern/hzha03pyth6156/v99e/199.5/hzha03pyth6156_hzcq_199.5_70_8_7094.xsdst ! RUN = 7094 ! NEVT = 1000
FILE = /castor/cern.ch/delphi/MCprod/cern/hzha03pyth6156/v99e/199.5/hzha03pyth6156_hzcq_199.5_70_8_7095.xsdst ! RUN = 7095 ! NEVT = 1000
FILE = /castor/cern.ch/delphi/MCprod/cern/hzha03pyth6156/v99e/199.5/hzha03pyth6156_hzcq_199.5_70_8_7096.xsdst ! RUN = 7096 ! NEVT = 1000
FILE = /castor/cern.ch/delphi/MCprod/cern/hzha03pyth6156/v99e/199.5/hzha03pyth6156_hzcq_199.5_70_8_7097.xsdst ! RUN = 7097 ! NEVT = 999
