*
*   Nickname     : xs_hzha03pyth6156hcnn_e199.5_m60.0_k99_1l_e1
*   Generic Name : //CERN/DELPHI/P02_SIMD/XSDST/HZHA03PYTH6156HCNN/E199.5/KARLSRUHE/SUMT/C001-5
*   Description  :  Extended Short DST simulation 99_e1 done at ecms=199.5 , Karlsruhe
*---
*   Comments     : in total 1999 events in 5 files time stamp: Thu Jan 10 17:48:14 2002
*---
*
*
*
*
*
FILE = /castor/cern.ch/delphi/MCprod/karlsruhe/hzha03pyth6156/v99e/199.5/hzha03pyth6156_hcnn_199.5_60.0_7321.xsdst ! RUN = 7321 ! NEVT = 400
FILE = /castor/cern.ch/delphi/MCprod/karlsruhe/hzha03pyth6156/v99e/199.5/hzha03pyth6156_hcnn_199.5_60.0_7322.xsdst ! RUN = 7322 ! NEVT = 400
FILE = /castor/cern.ch/delphi/MCprod/karlsruhe/hzha03pyth6156/v99e/199.5/hzha03pyth6156_hcnn_199.5_60.0_7323.xsdst ! RUN = 7323 ! NEVT = 399
FILE = /castor/cern.ch/delphi/MCprod/karlsruhe/hzha03pyth6156/v99e/199.5/hzha03pyth6156_hcnn_199.5_60.0_7324.xsdst ! RUN = 7324 ! NEVT = 400
FILE = /castor/cern.ch/delphi/MCprod/karlsruhe/hzha03pyth6156/v99e/199.5/hzha03pyth6156_hcnn_199.5_60.0_7325.xsdst ! RUN = 7325 ! NEVT = 400
