*
*   Nickname     : xs_hzha03pyth6156hgmm_e195.5_m82.5_k99_1l_e1
*   Generic Name : //CERN/DELPHI/P02_SIMD/XSDST/HZHA03PYTH6156HGMM/E195.5/KARLSRUHE/SUMT/C001-5
*   Description  : XShortDst HZHA03 H->gluglu, Z->mu+mu-  Extended Short DST simulation 99_e1 done at ecms=195.5 , Karlsruhe
*---
*   Comments     : in total 2000 events in 5 files time stamp: Wed Dec 12 13:10:53 2001
*---
*
*
*
*
*
FILE = /castor/cern.ch/delphi/MCprod/karlsruhe/hzha03pyth6156/v99e/195.5/hzha03pyth6156_hgmm_195.5_82.5_3181.xsdst ! RUN = 3181 ! NEVT = 400
FILE = /castor/cern.ch/delphi/MCprod/karlsruhe/hzha03pyth6156/v99e/195.5/hzha03pyth6156_hgmm_195.5_82.5_3182.xsdst ! RUN = 3182 ! NEVT = 400
FILE = /castor/cern.ch/delphi/MCprod/karlsruhe/hzha03pyth6156/v99e/195.5/hzha03pyth6156_hgmm_195.5_82.5_3183.xsdst ! RUN = 3183 ! NEVT = 400
FILE = /castor/cern.ch/delphi/MCprod/karlsruhe/hzha03pyth6156/v99e/195.5/hzha03pyth6156_hgmm_195.5_82.5_3184.xsdst ! RUN = 3184 ! NEVT = 400
FILE = /castor/cern.ch/delphi/MCprod/karlsruhe/hzha03pyth6156/v99e/195.5/hzha03pyth6156_hgmm_195.5_82.5_3185.xsdst ! RUN = 3185 ! NEVT = 400
