*
*   Nickname     : xs_hzha03pyth6156hcee_e191.6_m55.0_c99_1l_e1
*   Generic Name : //CERN/DELPHI/P02_SIMD/XSDST/HZHA03PYTH6156HCEE/E191.6/CERN/SUMT/C001-4
*   Description  :  Extended Short DST simulation 99_e1 done at ecms=191.6 , CERN
*---
*   Comments     : in total 1996 events in 4 files time stamp: Fri Nov 16 02:35:14 2001
*---
*
*
*
*
*
FILE = /castor/cern.ch/delphi/MCprod/cern/hzha03pyth6156/v99e/191.6/hzha03pyth6156_hcee_191.6_55.0_48505.xsdst ! RUN = 48505 ! NEVT = 497
FILE = /castor/cern.ch/delphi/MCprod/cern/hzha03pyth6156/v99e/191.6/hzha03pyth6156_hcee_191.6_55.0_48506.xsdst ! RUN = 48506 ! NEVT = 500
FILE = /castor/cern.ch/delphi/MCprod/cern/hzha03pyth6156/v99e/191.6/hzha03pyth6156_hcee_191.6_55.0_48507.xsdst ! RUN = 48507 ! NEVT = 500
FILE = /castor/cern.ch/delphi/MCprod/cern/hzha03pyth6156/v99e/191.6/hzha03pyth6156_hcee_191.6_55.0_48508.xsdst ! RUN = 48508 ! NEVT = 499
