*
*   Nickname     : xs_hzha03pyth6156hsee_e201.6_m75.0_r99_1l_e1
*   Generic Name : //CERN/DELPHI/P02_SIMD/XSDST/HZHA03PYTH6156HSEE/E201.6/RAL/SUMT/C001-4
*   Description  : XShortDst HZHA03 H->ssbar, Z->e+e-  Extended Short DST simulation 99_e1 done at ecms=201.6 , RAL
*---
*   Comments     : in total 1994 events in 4 files time stamp: Thu Nov 15 08:22:26 2001
*---
*
*
*
*
*
FILE = /castor/cern.ch/delphi/MCprod/ral/hzha03pyth6156/v99e/201.6/hzha03pyth6156_hsee_201.6_75.0_47501.xsdst ! RUN = 47501 ! NEVT = 497
FILE = /castor/cern.ch/delphi/MCprod/ral/hzha03pyth6156/v99e/201.6/hzha03pyth6156_hsee_201.6_75.0_47502.xsdst ! RUN = 47502 ! NEVT = 499
FILE = /castor/cern.ch/delphi/MCprod/ral/hzha03pyth6156/v99e/201.6/hzha03pyth6156_hsee_201.6_75.0_47503.xsdst ! RUN = 47503 ! NEVT = 499
FILE = /castor/cern.ch/delphi/MCprod/ral/hzha03pyth6156/v99e/201.6/hzha03pyth6156_hsee_201.6_75.0_47504.xsdst ! RUN = 47504 ! NEVT = 499
