*
*   Nickname     : xs_hzha03pyth6156hsee_e191.6_m95.0_c99_1l_e1
*   Generic Name : //CERN/DELPHI/P02_SIMD/XSDST/HZHA03PYTH6156HSEE/E191.6/CERN/SUMT/C001-4
*   Description  : XShortDst HZHA03 H->ssbar, Z->e+e-  Extended Short DST simulation 99_e1 done at ecms=191.6 , CERN
*---
*   Comments     : in total 1998 events in 4 files time stamp: Fri Nov 16 02:36:08 2001
*---
*
*
*
*
*
FILE = /castor/cern.ch/delphi/MCprod/cern/hzha03pyth6156/v99e/191.6/hzha03pyth6156_hsee_191.6_95.0_52501.xsdst ! RUN = 52501 ! NEVT = 498
FILE = /castor/cern.ch/delphi/MCprod/cern/hzha03pyth6156/v99e/191.6/hzha03pyth6156_hsee_191.6_95.0_52502.xsdst ! RUN = 52502 ! NEVT = 500
FILE = /castor/cern.ch/delphi/MCprod/cern/hzha03pyth6156/v99e/191.6/hzha03pyth6156_hsee_191.6_95.0_52503.xsdst ! RUN = 52503 ! NEVT = 500
FILE = /castor/cern.ch/delphi/MCprod/cern/hzha03pyth6156/v99e/191.6/hzha03pyth6156_hsee_191.6_95.0_52504.xsdst ! RUN = 52504 ! NEVT = 500
