*
*   Nickname     : xs_hzha03pyth6156hsee_e195.5_m115.0_c99_1l_e1
*   Generic Name : //CERN/DELPHI/P02_SIMD/XSDST/HZHA03PYTH6156HSEE/E195.5/CERN/SUMT/C001-4
*   Description  : XShortDst HZHA03 H->ssbar, Z->e+e-  Extended Short DST simulation 99_e1 done at ecms=195.5 , CERN
*---
*   Comments     : in total 1997 events in 4 files time stamp: Thu Nov 15 10:29:15 2001
*---
*
*
*
*
*
FILE = /castor/cern.ch/delphi/MCprod/cern/hzha03pyth6156/v99e/195.5/hzha03pyth6156_hsee_195.5_115.0_53501.xsdst ! RUN = 53501 ! NEVT = 500
FILE = /castor/cern.ch/delphi/MCprod/cern/hzha03pyth6156/v99e/195.5/hzha03pyth6156_hsee_195.5_115.0_53502.xsdst ! RUN = 53502 ! NEVT = 499
FILE = /castor/cern.ch/delphi/MCprod/cern/hzha03pyth6156/v99e/195.5/hzha03pyth6156_hsee_195.5_115.0_53503.xsdst ! RUN = 53503 ! NEVT = 499
FILE = /castor/cern.ch/delphi/MCprod/cern/hzha03pyth6156/v99e/195.5/hzha03pyth6156_hsee_195.5_115.0_53504.xsdst ! RUN = 53504 ! NEVT = 499
