*
*   Nickname     : xs_hzha03pyth6156hgqq_e199.5_m42.5_r99_1l_e1
*   Generic Name : //CERN/DELPHI/P02_SIMD/XSDST/HZHA03PYTH6156HGQQ/E199.5/RAL/SUMT/C001-4
*   Description  : XShortDst HZHA03 H->gluglu, Z->qqbar  Extended Short DST simulation 99_e1 done at ecms=199.5 , RAL
*---
*   Comments     : in total 1999 events in 4 files time stamp: Wed Nov 28 22:58:27 2001
*---
*
*
*
*
*
FILE = /castor/cern.ch/delphi/MCprod/ral/hzha03pyth6156/v99e/199.5/hzha03pyth6156_hgqq_199.5_42.5_85259.xsdst ! RUN = 85259 ! NEVT = 500
FILE = /castor/cern.ch/delphi/MCprod/ral/hzha03pyth6156/v99e/199.5/hzha03pyth6156_hgqq_199.5_42.5_85260.xsdst ! RUN = 85260 ! NEVT = 500
FILE = /castor/cern.ch/delphi/MCprod/ral/hzha03pyth6156/v99e/199.5/hzha03pyth6156_hgqq_199.5_42.5_85261.xsdst ! RUN = 85261 ! NEVT = 499
FILE = /castor/cern.ch/delphi/MCprod/ral/hzha03pyth6156/v99e/199.5/hzha03pyth6156_hgqq_199.5_42.5_85262.xsdst ! RUN = 85262 ! NEVT = 500
