*
*   Nickname     : xs_hzha03pyth6156hcee_e195.5_m115.0_c99_1l_e1
*   Generic Name : //CERN/DELPHI/P02_SIMD/XSDST/HZHA03PYTH6156HCEE/E195.5/CERN/SUMT/C001-4
*   Description  :  Extended Short DST simulation 99_e1 done at ecms=195.5 , CERN
*---
*   Comments     : in total 1994 events in 4 files time stamp: Thu Nov 15 18:36:10 2001
*---
*
*
*
*
*
FILE = /castor/cern.ch/delphi/MCprod/cern/hzha03pyth6156/v99e/195.5/hzha03pyth6156_hcee_195.5_115.0_53505.xsdst ! RUN = 53505 ! NEVT = 500
FILE = /castor/cern.ch/delphi/MCprod/cern/hzha03pyth6156/v99e/195.5/hzha03pyth6156_hcee_195.5_115.0_53506.xsdst ! RUN = 53506 ! NEVT = 498
FILE = /castor/cern.ch/delphi/MCprod/cern/hzha03pyth6156/v99e/195.5/hzha03pyth6156_hcee_195.5_115.0_53507.xsdst ! RUN = 53507 ! NEVT = 499
FILE = /castor/cern.ch/delphi/MCprod/cern/hzha03pyth6156/v99e/195.5/hzha03pyth6156_hcee_195.5_115.0_53508.xsdst ! RUN = 53508 ! NEVT = 497
