*
*   Nickname     : xs_hzha03pyth6156hgqq_e199.5_m40.0_r99_1l_e1
*   Generic Name : //CERN/DELPHI/P02_SIMD/XSDST/HZHA03PYTH6156HGQQ/E199.5/RAL/SUMT/C001-4
*   Description  : XShortDst HZHA03 H->gluglu, Z->qqbar  Extended Short DST simulation 99_e1 done at ecms=199.5 , RAL
*---
*   Comments     : in total 2000 events in 4 files time stamp: Wed Nov 28 23:01:29 2001
*---
*
*
*
*
*
FILE = /castor/cern.ch/delphi/MCprod/ral/hzha03pyth6156/v99e/199.5/hzha03pyth6156_hgqq_199.5_40.0_85009.xsdst ! RUN = 85009 ! NEVT = 500
FILE = /castor/cern.ch/delphi/MCprod/ral/hzha03pyth6156/v99e/199.5/hzha03pyth6156_hgqq_199.5_40.0_85010.xsdst ! RUN = 85010 ! NEVT = 500
FILE = /castor/cern.ch/delphi/MCprod/ral/hzha03pyth6156/v99e/199.5/hzha03pyth6156_hgqq_199.5_40.0_85011.xsdst ! RUN = 85011 ! NEVT = 500
FILE = /castor/cern.ch/delphi/MCprod/ral/hzha03pyth6156/v99e/199.5/hzha03pyth6156_hgqq_199.5_40.0_85012.xsdst ! RUN = 85012 ! NEVT = 500
