*
*   Nickname     : xs_hzha03pyth6156hsmm_e195.5_m105.0_k99_1l_e1
*   Generic Name : //CERN/DELPHI/P02_SIMD/XSDST/HZHA03PYTH6156HSMM/E195.5/KARLSRUHE/SUMT/C001-5
*   Description  : XShortDst HZHA03 H->ssbar, Z->mu+mu-  Extended Short DST simulation 99_e1 done at ecms=195.5 , Karlsruhe
*---
*   Comments     : in total 1999 events in 5 files time stamp: Mon Dec 17 23:22:34 2001
*---
*
*
*
*
*
FILE = /castor/cern.ch/delphi/MCprod/karlsruhe/hzha03pyth6156/v99e/195.5/hzha03pyth6156_hsmm_195.5_105.0_3846.xsdst ! RUN = 3846 ! NEVT = 400
FILE = /castor/cern.ch/delphi/MCprod/karlsruhe/hzha03pyth6156/v99e/195.5/hzha03pyth6156_hsmm_195.5_105.0_3847.xsdst ! RUN = 3847 ! NEVT = 400
FILE = /castor/cern.ch/delphi/MCprod/karlsruhe/hzha03pyth6156/v99e/195.5/hzha03pyth6156_hsmm_195.5_105.0_3848.xsdst ! RUN = 3848 ! NEVT = 399
FILE = /castor/cern.ch/delphi/MCprod/karlsruhe/hzha03pyth6156/v99e/195.5/hzha03pyth6156_hsmm_195.5_105.0_3849.xsdst ! RUN = 3849 ! NEVT = 400
FILE = /castor/cern.ch/delphi/MCprod/karlsruhe/hzha03pyth6156/v99e/195.5/hzha03pyth6156_hsmm_195.5_105.0_3850.xsdst ! RUN = 3850 ! NEVT = 400
