*
*   Nickname     : xs_hzha03pyth6156hsqq_e201.6_m70.0_r99_1l_e1
*   Generic Name : //CERN/DELPHI/P02_SIMD/XSDST/HZHA03PYTH6156HSQQ/E201.6/RAL/SUMT/C001-4
*   Description  : XShortDst HZHA03 H->ssbar, Z->qqbar  Extended Short DST simulation 99_e1 done at ecms=201.6 , RAL
*---
*   Comments     : in total 1999 events in 4 files time stamp: Sat Nov 24 10:42:46 2001
*---
*
*
*
*
*
FILE = /castor/cern.ch/delphi/MCprod/ral/hzha03pyth6156/v99e/201.6/hzha03pyth6156_hsqq_201.6_70.0_87001.xsdst ! RUN = 87001 ! NEVT = 500
FILE = /castor/cern.ch/delphi/MCprod/ral/hzha03pyth6156/v99e/201.6/hzha03pyth6156_hsqq_201.6_70.0_87002.xsdst ! RUN = 87002 ! NEVT = 499
FILE = /castor/cern.ch/delphi/MCprod/ral/hzha03pyth6156/v99e/201.6/hzha03pyth6156_hsqq_201.6_70.0_87003.xsdst ! RUN = 87003 ! NEVT = 500
FILE = /castor/cern.ch/delphi/MCprod/ral/hzha03pyth6156/v99e/201.6/hzha03pyth6156_hsqq_201.6_70.0_87004.xsdst ! RUN = 87004 ! NEVT = 500
