*
*   Nickname     : xs_hzha03pyth6156hgmm_e199.5_m110.0_k99_1l_e1
*   Generic Name : //CERN/DELPHI/P02_SIMD/XSDST/HZHA03PYTH6156HGMM/E199.5/KARLSRUHE/SUMT/C001-5
*   Description  : XShortDst HZHA03 H->gluglu, Z->mu+mu-  Extended Short DST simulation 99_e1 done at ecms=199.5 , Karlsruhe
*---
*   Comments     : in total 2000 events in 5 files time stamp: Wed Dec 12 13:10:59 2001
*---
*
*
*
*
*
FILE = /castor/cern.ch/delphi/MCprod/karlsruhe/hzha03pyth6156/v99e/199.5/hzha03pyth6156_hgmm_199.5_110.0_3391.xsdst ! RUN = 3391 ! NEVT = 400
FILE = /castor/cern.ch/delphi/MCprod/karlsruhe/hzha03pyth6156/v99e/199.5/hzha03pyth6156_hgmm_199.5_110.0_3392.xsdst ! RUN = 3392 ! NEVT = 400
FILE = /castor/cern.ch/delphi/MCprod/karlsruhe/hzha03pyth6156/v99e/199.5/hzha03pyth6156_hgmm_199.5_110.0_3393.xsdst ! RUN = 3393 ! NEVT = 400
FILE = /castor/cern.ch/delphi/MCprod/karlsruhe/hzha03pyth6156/v99e/199.5/hzha03pyth6156_hgmm_199.5_110.0_3394.xsdst ! RUN = 3394 ! NEVT = 400
FILE = /castor/cern.ch/delphi/MCprod/karlsruhe/hzha03pyth6156/v99e/199.5/hzha03pyth6156_hgmm_199.5_110.0_3395.xsdst ! RUN = 3395 ! NEVT = 400
