*
*   Nickname     : xs_hzha03pyth6156hsqq_e195.5_m62.5_k99_1l_e1
*   Generic Name : //CERN/DELPHI/P02_SIMD/XSDST/HZHA03PYTH6156HSQQ/E195.5/KARLSRUHE/SUMT/C001-5
*   Description  : XShortDst HZHA03 H->ssbar, Z->qqbar  Extended Short DST simulation 99_e1 done at ecms=195.5 , Karlsruhe
*---
*   Comments     : in total 1998 events in 5 files time stamp: Mon Jan 28 18:13:03 2002
*---
*
*
*
*
*
FILE = /castor/cern.ch/delphi/MCprod/karlsruhe/hzha03pyth6156/v99e/195.5/hzha03pyth6156_hsqq_195.5_62.5_9496.xsdst ! RUN = 9496 ! NEVT = 399
FILE = /castor/cern.ch/delphi/MCprod/karlsruhe/hzha03pyth6156/v99e/195.5/hzha03pyth6156_hsqq_195.5_62.5_9497.xsdst ! RUN = 9497 ! NEVT = 400
FILE = /castor/cern.ch/delphi/MCprod/karlsruhe/hzha03pyth6156/v99e/195.5/hzha03pyth6156_hsqq_195.5_62.5_9498.xsdst ! RUN = 9498 ! NEVT = 400
FILE = /castor/cern.ch/delphi/MCprod/karlsruhe/hzha03pyth6156/v99e/195.5/hzha03pyth6156_hsqq_195.5_62.5_9499.xsdst ! RUN = 9499 ! NEVT = 400
FILE = /castor/cern.ch/delphi/MCprod/karlsruhe/hzha03pyth6156/v99e/195.5/hzha03pyth6156_hsqq_195.5_62.5_9500.xsdst ! RUN = 9500 ! NEVT = 399
