*
*   Nickname     : xs_hzha03pyth6156hcmm_e195.5_m75.0_k99_1l_e1
*   Generic Name : //CERN/DELPHI/P02_SIMD/XSDST/HZHA03PYTH6156HCMM/E195.5/KARLSRUHE/SUMT/C001-5
*   Description  :  Extended Short DST simulation 99_e1 done at ecms=195.5 , Karlsruhe
*---
*   Comments     : in total 1887 events in 5 files time stamp: Thu Dec 20 16:07:23 2001
*---
*
*
*
*
*
FILE = /castor/cern.ch/delphi/MCprod/karlsruhe/hzha03pyth6156/v99e/195.5/hzha03pyth6156_hcmm_195.5_75.0_4406.xsdst ! RUN = 4406 ! NEVT = 400
FILE = /castor/cern.ch/delphi/MCprod/karlsruhe/hzha03pyth6156/v99e/195.5/hzha03pyth6156_hcmm_195.5_75.0_4407.xsdst ! RUN = 4407 ! NEVT = 399
FILE = /castor/cern.ch/delphi/MCprod/karlsruhe/hzha03pyth6156/v99e/195.5/hzha03pyth6156_hcmm_195.5_75.0_4408.xsdst ! RUN = 4408 ! NEVT = 400
FILE = /castor/cern.ch/delphi/MCprod/karlsruhe/hzha03pyth6156/v99e/195.5/hzha03pyth6156_hcmm_195.5_75.0_4409.xsdst ! RUN = 4409 ! NEVT = 288
FILE = /castor/cern.ch/delphi/MCprod/karlsruhe/hzha03pyth6156/v99e/195.5/hzha03pyth6156_hcmm_195.5_75.0_4410.xsdst ! RUN = 4410 ! NEVT = 400
