*
*   Nickname     : xs_hzha03pyth6156hcnn_e195.5_m105.0_k99_1l_e1
*   Generic Name : //CERN/DELPHI/P02_SIMD/XSDST/HZHA03PYTH6156HCNN/E195.5/KARLSRUHE/SUMT/C001-5
*   Description  :  Extended Short DST simulation 99_e1 done at ecms=195.5 , Karlsruhe
*---
*   Comments     : in total 2000 events in 5 files time stamp: Thu Jan 10 14:53:41 2002
*---
*
*
*
*
*
FILE = /castor/cern.ch/delphi/MCprod/karlsruhe/hzha03pyth6156/v99e/195.5/hzha03pyth6156_hcnn_195.5_105.0_7256.xsdst ! RUN = 7256 ! NEVT = 400
FILE = /castor/cern.ch/delphi/MCprod/karlsruhe/hzha03pyth6156/v99e/195.5/hzha03pyth6156_hcnn_195.5_105.0_7257.xsdst ! RUN = 7257 ! NEVT = 400
FILE = /castor/cern.ch/delphi/MCprod/karlsruhe/hzha03pyth6156/v99e/195.5/hzha03pyth6156_hcnn_195.5_105.0_7258.xsdst ! RUN = 7258 ! NEVT = 400
FILE = /castor/cern.ch/delphi/MCprod/karlsruhe/hzha03pyth6156/v99e/195.5/hzha03pyth6156_hcnn_195.5_105.0_7259.xsdst ! RUN = 7259 ! NEVT = 400
FILE = /castor/cern.ch/delphi/MCprod/karlsruhe/hzha03pyth6156/v99e/195.5/hzha03pyth6156_hcnn_195.5_105.0_7260.xsdst ! RUN = 7260 ! NEVT = 400
