*
*   Nickname     : xs_hzha03pyth6156hsqq_e199.5_m90.0_r99_1l_e1
*   Generic Name : //CERN/DELPHI/P02_SIMD/XSDST/HZHA03PYTH6156HSQQ/E199.5/RAL/SUMT/C001-4
*   Description  : XShortDst HZHA03 H->ssbar, Z->qqbar  Extended Short DST simulation 99_e1 done at ecms=199.5 , RAL
*---
*   Comments     : in total 1999 events in 4 files time stamp: Mon Nov 26 16:45:11 2001
*---
*
*
*
*
*
FILE = /castor/cern.ch/delphi/MCprod/ral/hzha03pyth6156/v99e/199.5/hzha03pyth6156_hsqq_199.5_90.0_90001.xsdst ! RUN = 90001 ! NEVT = 500
FILE = /castor/cern.ch/delphi/MCprod/ral/hzha03pyth6156/v99e/199.5/hzha03pyth6156_hsqq_199.5_90.0_90002.xsdst ! RUN = 90002 ! NEVT = 500
FILE = /castor/cern.ch/delphi/MCprod/ral/hzha03pyth6156/v99e/199.5/hzha03pyth6156_hsqq_199.5_90.0_90003.xsdst ! RUN = 90003 ! NEVT = 500
FILE = /castor/cern.ch/delphi/MCprod/ral/hzha03pyth6156/v99e/199.5/hzha03pyth6156_hsqq_199.5_90.0_90004.xsdst ! RUN = 90004 ! NEVT = 499
