*
*   Nickname     : xs_hzha03pyth6156hcmm_e191.6_m112.5_k99_1l_e1
*   Generic Name : //CERN/DELPHI/P02_SIMD/XSDST/HZHA03PYTH6156HCMM/E191.6/KARLSRUHE/SUMT/C001-5
*   Description  :  Extended Short DST simulation 99_e1 done at ecms=191.6 , Karlsruhe
*---
*   Comments     : in total 2000 events in 5 files time stamp: Wed Dec 19 16:09:31 2001
*---
*
*
*
*
*
FILE = /castor/cern.ch/delphi/MCprod/karlsruhe/hzha03pyth6156/v99e/191.6/hzha03pyth6156_hcmm_191.6_112.5_4326.xsdst ! RUN = 4326 ! NEVT = 400
FILE = /castor/cern.ch/delphi/MCprod/karlsruhe/hzha03pyth6156/v99e/191.6/hzha03pyth6156_hcmm_191.6_112.5_4327.xsdst ! RUN = 4327 ! NEVT = 400
FILE = /castor/cern.ch/delphi/MCprod/karlsruhe/hzha03pyth6156/v99e/191.6/hzha03pyth6156_hcmm_191.6_112.5_4328.xsdst ! RUN = 4328 ! NEVT = 400
FILE = /castor/cern.ch/delphi/MCprod/karlsruhe/hzha03pyth6156/v99e/191.6/hzha03pyth6156_hcmm_191.6_112.5_4329.xsdst ! RUN = 4329 ! NEVT = 400
FILE = /castor/cern.ch/delphi/MCprod/karlsruhe/hzha03pyth6156/v99e/191.6/hzha03pyth6156_hcmm_191.6_112.5_4330.xsdst ! RUN = 4330 ! NEVT = 400
