*
*   Nickname     : xs_hzha03pyth6156hgnn_e199.5_m90.0_k99_1l_e1
*   Generic Name : //CERN/DELPHI/P02_SIMD/XSDST/HZHA03PYTH6156HGNN/E199.5/KARLSRUHE/SUMT/C001-5
*   Description  : XShortDst HZHA03 H->gluglu, Z->nunubar  Extended Short DST simulation 99_e1 done at ecms=199.5 , Karlsruhe
*---
*   Comments     : in total 2000 events in 5 files time stamp: Wed Jan  9 12:09:02 2002
*---
*
*
*
*
*
FILE = /castor/cern.ch/delphi/MCprod/karlsruhe/hzha03pyth6156/v99e/199.5/hzha03pyth6156_hgnn_199.5_90.0_5521.xsdst ! RUN = 5521 ! NEVT = 400
FILE = /castor/cern.ch/delphi/MCprod/karlsruhe/hzha03pyth6156/v99e/199.5/hzha03pyth6156_hgnn_199.5_90.0_5522.xsdst ! RUN = 5522 ! NEVT = 400
FILE = /castor/cern.ch/delphi/MCprod/karlsruhe/hzha03pyth6156/v99e/199.5/hzha03pyth6156_hgnn_199.5_90.0_5523.xsdst ! RUN = 5523 ! NEVT = 400
FILE = /castor/cern.ch/delphi/MCprod/karlsruhe/hzha03pyth6156/v99e/199.5/hzha03pyth6156_hgnn_199.5_90.0_5524.xsdst ! RUN = 5524 ! NEVT = 400
FILE = /castor/cern.ch/delphi/MCprod/karlsruhe/hzha03pyth6156/v99e/199.5/hzha03pyth6156_hgnn_199.5_90.0_5525.xsdst ! RUN = 5525 ! NEVT = 400
