*
*   Nickname     : xs_hzha03pyth6156hcmm_e201.6_m115.0_k99_1l_e1
*   Generic Name : //CERN/DELPHI/P02_SIMD/XSDST/HZHA03PYTH6156HCMM/E201.6/KARLSRUHE/SUMT/C001-5
*   Description  :  Extended Short DST simulation 99_e1 done at ecms=201.6 , Karlsruhe
*---
*   Comments     : in total 2000 events in 5 files time stamp: Sun Dec 23 20:13:06 2001
*---
*
*
*
*
*
FILE = /castor/cern.ch/delphi/MCprod/karlsruhe/hzha03pyth6156/v99e/201.6/hzha03pyth6156_hcmm_201.6_115.0_4796.xsdst ! RUN = 4796 ! NEVT = 400
FILE = /castor/cern.ch/delphi/MCprod/karlsruhe/hzha03pyth6156/v99e/201.6/hzha03pyth6156_hcmm_201.6_115.0_4797.xsdst ! RUN = 4797 ! NEVT = 400
FILE = /castor/cern.ch/delphi/MCprod/karlsruhe/hzha03pyth6156/v99e/201.6/hzha03pyth6156_hcmm_201.6_115.0_4798.xsdst ! RUN = 4798 ! NEVT = 400
FILE = /castor/cern.ch/delphi/MCprod/karlsruhe/hzha03pyth6156/v99e/201.6/hzha03pyth6156_hcmm_201.6_115.0_4799.xsdst ! RUN = 4799 ! NEVT = 400
FILE = /castor/cern.ch/delphi/MCprod/karlsruhe/hzha03pyth6156/v99e/201.6/hzha03pyth6156_hcmm_201.6_115.0_4800.xsdst ! RUN = 4800 ! NEVT = 400
