*
*   Nickname     : xs_hzha03pyth6156hsee_e199.5_m95.0_r99_1l_e1
*   Generic Name : //CERN/DELPHI/P02_SIMD/XSDST/HZHA03PYTH6156HSEE/E199.5/RAL/SUMT/C001-4
*   Description  : XShortDst HZHA03 H->ssbar, Z->e+e-  Extended Short DST simulation 99_e1 done at ecms=199.5 , RAL
*---
*   Comments     : in total 1994 events in 4 files time stamp: Fri Nov 16 10:31:00 2001
*---
*
*
*
*
*
FILE = /castor/cern.ch/delphi/MCprod/ral/hzha03pyth6156/v99e/199.5/hzha03pyth6156_hsee_199.5_95.0_50501.xsdst ! RUN = 50501 ! NEVT = 500
FILE = /castor/cern.ch/delphi/MCprod/ral/hzha03pyth6156/v99e/199.5/hzha03pyth6156_hsee_199.5_95.0_50502.xsdst ! RUN = 50502 ! NEVT = 498
FILE = /castor/cern.ch/delphi/MCprod/ral/hzha03pyth6156/v99e/199.5/hzha03pyth6156_hsee_199.5_95.0_50503.xsdst ! RUN = 50503 ! NEVT = 498
FILE = /castor/cern.ch/delphi/MCprod/ral/hzha03pyth6156/v99e/199.5/hzha03pyth6156_hsee_199.5_95.0_50504.xsdst ! RUN = 50504 ! NEVT = 498
