*
*   Nickname     : xs_hzha03pyth6156hsqq_e201.6_m85.0_r99_1l_e1
*   Generic Name : //CERN/DELPHI/P02_SIMD/XSDST/HZHA03PYTH6156HSQQ/E201.6/RAL/SUMT/C001-4
*   Description  : XShortDst HZHA03 H->ssbar, Z->qqbar  Extended Short DST simulation 99_e1 done at ecms=201.6 , RAL
*---
*   Comments     : in total 2000 events in 4 files time stamp: Sat Nov 24 12:45:19 2001
*---
*
*
*
*
*
FILE = /castor/cern.ch/delphi/MCprod/ral/hzha03pyth6156/v99e/201.6/hzha03pyth6156_hsqq_201.6_85.0_88501.xsdst ! RUN = 88501 ! NEVT = 500
FILE = /castor/cern.ch/delphi/MCprod/ral/hzha03pyth6156/v99e/201.6/hzha03pyth6156_hsqq_201.6_85.0_88502.xsdst ! RUN = 88502 ! NEVT = 500
FILE = /castor/cern.ch/delphi/MCprod/ral/hzha03pyth6156/v99e/201.6/hzha03pyth6156_hsqq_201.6_85.0_88503.xsdst ! RUN = 88503 ! NEVT = 500
FILE = /castor/cern.ch/delphi/MCprod/ral/hzha03pyth6156/v99e/201.6/hzha03pyth6156_hsqq_201.6_85.0_88504.xsdst ! RUN = 88504 ! NEVT = 500
