*
*   Nickname     : xs_hzha03pyth6156hgee_e195.5_m50.0_c99_1l_e1
*   Generic Name : //CERN/DELPHI/P02_SIMD/XSDST/HZHA03PYTH6156HGEE/E195.5/CERN/SUMT/C001-4
*   Description  : XShortDst HZHA03 H->gluglu, Z->e+e-  Extended Short DST simulation 99_e1 done at ecms=195.5 , CERN
*---
*   Comments     : in total 1999 events in 4 files time stamp: Thu Nov 15 18:35:50 2001
*---
*
*
*
*
*
FILE = /castor/cern.ch/delphi/MCprod/cern/hzha03pyth6156/v99e/195.5/hzha03pyth6156_hgee_195.5_50.0_47009.xsdst ! RUN = 47009 ! NEVT = 500
FILE = /castor/cern.ch/delphi/MCprod/cern/hzha03pyth6156/v99e/195.5/hzha03pyth6156_hgee_195.5_50.0_47010.xsdst ! RUN = 47010 ! NEVT = 499
FILE = /castor/cern.ch/delphi/MCprod/cern/hzha03pyth6156/v99e/195.5/hzha03pyth6156_hgee_195.5_50.0_47011.xsdst ! RUN = 47011 ! NEVT = 500
FILE = /castor/cern.ch/delphi/MCprod/cern/hzha03pyth6156/v99e/195.5/hzha03pyth6156_hgee_195.5_50.0_47012.xsdst ! RUN = 47012 ! NEVT = 500
