*
*   Nickname     : xs_hzha03pyth6156hsqq_e195.5_m45.0_k99_1l_e1
*   Generic Name : //CERN/DELPHI/P02_SIMD/XSDST/HZHA03PYTH6156HSQQ/E195.5/KARLSRUHE/SUMT/C001-5
*   Description  : XShortDst HZHA03 H->ssbar, Z->qqbar  Extended Short DST simulation 99_e1 done at ecms=195.5 , Karlsruhe
*---
*   Comments     : in total 1999 events in 5 files time stamp: Mon Jan 28 18:13:01 2002
*---
*
*
*
*
*
FILE = /castor/cern.ch/delphi/MCprod/karlsruhe/hzha03pyth6156/v99e/195.5/hzha03pyth6156_hsqq_195.5_45.0_9461.xsdst ! RUN = 9461 ! NEVT = 399
FILE = /castor/cern.ch/delphi/MCprod/karlsruhe/hzha03pyth6156/v99e/195.5/hzha03pyth6156_hsqq_195.5_45.0_9462.xsdst ! RUN = 9462 ! NEVT = 400
FILE = /castor/cern.ch/delphi/MCprod/karlsruhe/hzha03pyth6156/v99e/195.5/hzha03pyth6156_hsqq_195.5_45.0_9463.xsdst ! RUN = 9463 ! NEVT = 400
FILE = /castor/cern.ch/delphi/MCprod/karlsruhe/hzha03pyth6156/v99e/195.5/hzha03pyth6156_hsqq_195.5_45.0_9464.xsdst ! RUN = 9464 ! NEVT = 400
FILE = /castor/cern.ch/delphi/MCprod/karlsruhe/hzha03pyth6156/v99e/195.5/hzha03pyth6156_hsqq_195.5_45.0_9465.xsdst ! RUN = 9465 ! NEVT = 400
