*
*   Nickname     : xs_hzha03pyth6156hgnn_e195.5_m102.5_k99_1l_e1
*   Generic Name : //CERN/DELPHI/P02_SIMD/XSDST/HZHA03PYTH6156HGNN/E195.5/KARLSRUHE/SUMT/C001-5
*   Description  : XShortDst HZHA03 H->gluglu, Z->nunubar  Extended Short DST simulation 99_e1 done at ecms=195.5 , Karlsruhe
*---
*   Comments     : in total 2000 events in 5 files time stamp: Tue Jan  8 19:54:55 2002
*---
*
*
*
*
*
FILE = /castor/cern.ch/delphi/MCprod/karlsruhe/hzha03pyth6156/v99e/195.5/hzha03pyth6156_hgnn_195.5_102.5_5391.xsdst ! RUN = 5391 ! NEVT = 400
FILE = /castor/cern.ch/delphi/MCprod/karlsruhe/hzha03pyth6156/v99e/195.5/hzha03pyth6156_hgnn_195.5_102.5_5392.xsdst ! RUN = 5392 ! NEVT = 400
FILE = /castor/cern.ch/delphi/MCprod/karlsruhe/hzha03pyth6156/v99e/195.5/hzha03pyth6156_hgnn_195.5_102.5_5393.xsdst ! RUN = 5393 ! NEVT = 400
FILE = /castor/cern.ch/delphi/MCprod/karlsruhe/hzha03pyth6156/v99e/195.5/hzha03pyth6156_hgnn_195.5_102.5_5394.xsdst ! RUN = 5394 ! NEVT = 400
FILE = /castor/cern.ch/delphi/MCprod/karlsruhe/hzha03pyth6156/v99e/195.5/hzha03pyth6156_hgnn_195.5_102.5_5395.xsdst ! RUN = 5395 ! NEVT = 400
