*
*   Nickname     : xs_hzha03pyth6156hsee_e201.6_m42.5_r99_1l_e1
*   Generic Name : //CERN/DELPHI/P02_SIMD/XSDST/HZHA03PYTH6156HSEE/E201.6/RAL/SUMT/C001-4
*   Description  : XShortDst HZHA03 H->ssbar, Z->e+e-  Extended Short DST simulation 99_e1 done at ecms=201.6 , RAL
*---
*   Comments     : in total 1996 events in 4 files time stamp: Thu Nov 15 00:23:29 2001
*---
*
*
*
*
*
FILE = /castor/cern.ch/delphi/MCprod/ral/hzha03pyth6156/v99e/201.6/hzha03pyth6156_hsee_201.6_42.5_44251.xsdst ! RUN = 44251 ! NEVT = 498
FILE = /castor/cern.ch/delphi/MCprod/ral/hzha03pyth6156/v99e/201.6/hzha03pyth6156_hsee_201.6_42.5_44252.xsdst ! RUN = 44252 ! NEVT = 499
FILE = /castor/cern.ch/delphi/MCprod/ral/hzha03pyth6156/v99e/201.6/hzha03pyth6156_hsee_201.6_42.5_44253.xsdst ! RUN = 44253 ! NEVT = 499
FILE = /castor/cern.ch/delphi/MCprod/ral/hzha03pyth6156/v99e/201.6/hzha03pyth6156_hsee_201.6_42.5_44254.xsdst ! RUN = 44254 ! NEVT = 500
