*
*   Nickname     : xs_hzha03pyth6156hgee_e201.6_m57.5_r99_1l_e1
*   Generic Name : //CERN/DELPHI/P02_SIMD/XSDST/HZHA03PYTH6156HGEE/E201.6/RAL/SUMT/C001-2
*   Description  : XShortDst HZHA03 H->gluglu, Z->e+e-  Extended Short DST simulation 99_e1 done at ecms=201.6 , RAL
*---
*   Comments     : in total 1000 events in 2 files time stamp: Thu Dec  6 19:23:45 2001
*---
*
*
*
*
*
FILE = /castor/cern.ch/delphi/MCprod/ral/hzha03pyth6156/v99e/201.6/hzha03pyth6156_hgee_201.6_57.5_45759.xsdst ! RUN = 45759 ! NEVT = 500
FILE = /castor/cern.ch/delphi/MCprod/ral/hzha03pyth6156/v99e/201.6/hzha03pyth6156_hgee_201.6_57.5_45760.xsdst ! RUN = 45760 ! NEVT = 500
