*
*   Nickname     : xs_hzha03pyth6156hgqq_e199.5_m50.0_r99_1l_e1
*   Generic Name : //CERN/DELPHI/P02_SIMD/XSDST/HZHA03PYTH6156HGQQ/E199.5/RAL/SUMT/C001-4
*   Description  : XShortDst HZHA03 H->gluglu, Z->qqbar  Extended Short DST simulation 99_e1 done at ecms=199.5 , RAL
*---
*   Comments     : in total 2000 events in 4 files time stamp: Thu Nov 29 01:53:35 2001
*---
*
*
*
*
*
FILE = /castor/cern.ch/delphi/MCprod/ral/hzha03pyth6156/v99e/199.5/hzha03pyth6156_hgqq_199.5_50.0_86009.xsdst ! RUN = 86009 ! NEVT = 500
FILE = /castor/cern.ch/delphi/MCprod/ral/hzha03pyth6156/v99e/199.5/hzha03pyth6156_hgqq_199.5_50.0_86010.xsdst ! RUN = 86010 ! NEVT = 500
FILE = /castor/cern.ch/delphi/MCprod/ral/hzha03pyth6156/v99e/199.5/hzha03pyth6156_hgqq_199.5_50.0_86011.xsdst ! RUN = 86011 ! NEVT = 500
FILE = /castor/cern.ch/delphi/MCprod/ral/hzha03pyth6156/v99e/199.5/hzha03pyth6156_hgqq_199.5_50.0_86012.xsdst ! RUN = 86012 ! NEVT = 500
