*
*   Nickname     : xs_hzha03pyth6156hcnn_e195.5_m107.5_k99_1l_e1
*   Generic Name : //CERN/DELPHI/P02_SIMD/XSDST/HZHA03PYTH6156HCNN/E195.5/KARLSRUHE/SUMT/C001-5
*   Description  :  Extended Short DST simulation 99_e1 done at ecms=195.5 , Karlsruhe
*---
*   Comments     : in total 2000 events in 5 files time stamp: Thu Jan 10 14:41:33 2002
*---
*
*
*
*
*
FILE = /castor/cern.ch/delphi/MCprod/karlsruhe/hzha03pyth6156/v99e/195.5/hzha03pyth6156_hcnn_195.5_107.5_7261.xsdst ! RUN = 7261 ! NEVT = 400
FILE = /castor/cern.ch/delphi/MCprod/karlsruhe/hzha03pyth6156/v99e/195.5/hzha03pyth6156_hcnn_195.5_107.5_7262.xsdst ! RUN = 7262 ! NEVT = 400
FILE = /castor/cern.ch/delphi/MCprod/karlsruhe/hzha03pyth6156/v99e/195.5/hzha03pyth6156_hcnn_195.5_107.5_7263.xsdst ! RUN = 7263 ! NEVT = 400
FILE = /castor/cern.ch/delphi/MCprod/karlsruhe/hzha03pyth6156/v99e/195.5/hzha03pyth6156_hcnn_195.5_107.5_7264.xsdst ! RUN = 7264 ! NEVT = 400
FILE = /castor/cern.ch/delphi/MCprod/karlsruhe/hzha03pyth6156/v99e/195.5/hzha03pyth6156_hcnn_195.5_107.5_7265.xsdst ! RUN = 7265 ! NEVT = 400
