*
*   Nickname     : xs_hzha03pyth6156hsee_e199.5_m87.5_r99_1l_e1
*   Generic Name : //CERN/DELPHI/P02_SIMD/XSDST/HZHA03PYTH6156HSEE/E199.5/RAL/SUMT/C001-4
*   Description  : XShortDst HZHA03 H->ssbar, Z->e+e-  Extended Short DST simulation 99_e1 done at ecms=199.5 , RAL
*---
*   Comments     : in total 1998 events in 4 files time stamp: Fri Nov 16 06:53:01 2001
*---
*
*
*
*
*
FILE = /castor/cern.ch/delphi/MCprod/ral/hzha03pyth6156/v99e/199.5/hzha03pyth6156_hsee_199.5_87.5_49751.xsdst ! RUN = 49751 ! NEVT = 499
FILE = /castor/cern.ch/delphi/MCprod/ral/hzha03pyth6156/v99e/199.5/hzha03pyth6156_hsee_199.5_87.5_49752.xsdst ! RUN = 49752 ! NEVT = 500
FILE = /castor/cern.ch/delphi/MCprod/ral/hzha03pyth6156/v99e/199.5/hzha03pyth6156_hsee_199.5_87.5_49753.xsdst ! RUN = 49753 ! NEVT = 500
FILE = /castor/cern.ch/delphi/MCprod/ral/hzha03pyth6156/v99e/199.5/hzha03pyth6156_hsee_199.5_87.5_49754.xsdst ! RUN = 49754 ! NEVT = 499
