*
*   Nickname     : xs_hzha03pyth6156hsqq_e201.6_m102.5_r99_1l_e1
*   Generic Name : //CERN/DELPHI/P02_SIMD/XSDST/HZHA03PYTH6156HSQQ/E201.6/RAL/SUMT/C001-4
*   Description  : XShortDst HZHA03 H->ssbar, Z->qqbar  Extended Short DST simulation 99_e1 done at ecms=201.6 , RAL
*---
*   Comments     : in total 1997 events in 4 files time stamp: Sat Nov 24 12:42:25 2001
*---
*
*
*
*
*
FILE = /castor/cern.ch/delphi/MCprod/ral/hzha03pyth6156/v99e/201.6/hzha03pyth6156_hsqq_201.6_102.5_90251.xsdst ! RUN = 90251 ! NEVT = 499
FILE = /castor/cern.ch/delphi/MCprod/ral/hzha03pyth6156/v99e/201.6/hzha03pyth6156_hsqq_201.6_102.5_90252.xsdst ! RUN = 90252 ! NEVT = 500
FILE = /castor/cern.ch/delphi/MCprod/ral/hzha03pyth6156/v99e/201.6/hzha03pyth6156_hsqq_201.6_102.5_90253.xsdst ! RUN = 90253 ! NEVT = 499
FILE = /castor/cern.ch/delphi/MCprod/ral/hzha03pyth6156/v99e/201.6/hzha03pyth6156_hsqq_201.6_102.5_90254.xsdst ! RUN = 90254 ! NEVT = 499
