*
*   Nickname     : xs_hzha03pyth6156hwqqqqnn_e199.5_m107.5_r99_1l_e1
*   Generic Name : //CERN/DELPHI/P02_SIMD/XSDST/HZHA03PYTH6156HWQQQQNN/E199.5/RAL/SUMT/C001-12
*   Description  :  Extended Short DST simulation 99e1 done at ecms=199.5 , RAL
*---
*   Comments     : in total 5999 events in 12 files time stamp: Mon Aug  5 01:15:42 2002
*---
*
*
*
*
*
FILE = /castor/cern.ch/delphi/MCprod/ral/hzha03pyth6156/v99e/199.5/hzha03pyth6156_hwqqqqnn_199.5_107.5_21751.xsdst ! RUN = 21751 ! NEVT = 499
FILE = /castor/cern.ch/delphi/MCprod/ral/hzha03pyth6156/v99e/199.5/hzha03pyth6156_hwqqqqnn_199.5_107.5_21752.xsdst ! RUN = 21752 ! NEVT = 500
FILE = /castor/cern.ch/delphi/MCprod/ral/hzha03pyth6156/v99e/199.5/hzha03pyth6156_hwqqqqnn_199.5_107.5_21753.xsdst ! RUN = 21753 ! NEVT = 500
FILE = /castor/cern.ch/delphi/MCprod/ral/hzha03pyth6156/v99e/199.5/hzha03pyth6156_hwqqqqnn_199.5_107.5_21754.xsdst ! RUN = 21754 ! NEVT = 500
FILE = /castor/cern.ch/delphi/MCprod/ral/hzha03pyth6156/v99e/199.5/hzha03pyth6156_hwqqqqnn_199.5_107.5_21756.xsdst ! RUN = 21756 ! NEVT = 500
FILE = /castor/cern.ch/delphi/MCprod/ral/hzha03pyth6156/v99e/199.5/hzha03pyth6156_hwqqqqnn_199.5_107.5_21757.xsdst ! RUN = 21757 ! NEVT = 500
FILE = /castor/cern.ch/delphi/MCprod/ral/hzha03pyth6156/v99e/199.5/hzha03pyth6156_hwqqqqnn_199.5_107.5_21759.xsdst ! RUN = 21759 ! NEVT = 500
FILE = /castor/cern.ch/delphi/MCprod/ral/hzha03pyth6156/v99e/199.5/hzha03pyth6156_hwqqqqnn_199.5_107.5_21760.xsdst ! RUN = 21760 ! NEVT = 500
FILE = /castor/cern.ch/delphi/MCprod/ral/hzha03pyth6156/v99e/199.5/hzha03pyth6156_hwqqqqnn_199.5_107.5_21762.xsdst ! RUN = 21762 ! NEVT = 500
FILE = /castor/cern.ch/delphi/MCprod/ral/hzha03pyth6156/v99e/199.5/hzha03pyth6156_hwqqqqnn_199.5_107.5_21763.xsdst ! RUN = 21763 ! NEVT = 500
FILE = /castor/cern.ch/delphi/MCprod/ral/hzha03pyth6156/v99e/199.5/hzha03pyth6156_hwqqqqnn_199.5_107.5_21764.xsdst ! RUN = 21764 ! NEVT = 500
FILE = /castor/cern.ch/delphi/MCprod/ral/hzha03pyth6156/v99e/199.5/hzha03pyth6156_hwqqqqnn_199.5_107.5_21765.xsdst ! RUN = 21765 ! NEVT = 500
