*
*   Nickname     : xs_hzha03pyth6156hwqqlnqq_e199.5_m107.5_r99_1l_e1
*   Generic Name : //CERN/DELPHI/P02_SIMD/XSDST/HZHA03PYTH6156HWQQLNQQ/E199.5/RAL/SUMT/C001-13
*   Description  :  Extended Short DST simulation 99e1 done at ecms=199.5 , RAL
*---
*   Comments     : in total 6497 events in 13 files time stamp: Mon Aug  5 06:15:53 2002
*---
*
*
*
*
*
FILE = /castor/cern.ch/delphi/MCprod/ral/hzha03pyth6156/v99e/199.5/hzha03pyth6156_hwqqlnqq_199.5_107.5_22751.xsdst ! RUN = 22751 ! NEVT = 499
FILE = /castor/cern.ch/delphi/MCprod/ral/hzha03pyth6156/v99e/199.5/hzha03pyth6156_hwqqlnqq_199.5_107.5_22752.xsdst ! RUN = 22752 ! NEVT = 500
FILE = /castor/cern.ch/delphi/MCprod/ral/hzha03pyth6156/v99e/199.5/hzha03pyth6156_hwqqlnqq_199.5_107.5_22753.xsdst ! RUN = 22753 ! NEVT = 500
FILE = /castor/cern.ch/delphi/MCprod/ral/hzha03pyth6156/v99e/199.5/hzha03pyth6156_hwqqlnqq_199.5_107.5_22754.xsdst ! RUN = 22754 ! NEVT = 500
FILE = /castor/cern.ch/delphi/MCprod/ral/hzha03pyth6156/v99e/199.5/hzha03pyth6156_hwqqlnqq_199.5_107.5_22755.xsdst ! RUN = 22755 ! NEVT = 500
FILE = /castor/cern.ch/delphi/MCprod/ral/hzha03pyth6156/v99e/199.5/hzha03pyth6156_hwqqlnqq_199.5_107.5_22756.xsdst ! RUN = 22756 ! NEVT = 500
FILE = /castor/cern.ch/delphi/MCprod/ral/hzha03pyth6156/v99e/199.5/hzha03pyth6156_hwqqlnqq_199.5_107.5_22759.xsdst ! RUN = 22759 ! NEVT = 499
FILE = /castor/cern.ch/delphi/MCprod/ral/hzha03pyth6156/v99e/199.5/hzha03pyth6156_hwqqlnqq_199.5_107.5_22760.xsdst ! RUN = 22760 ! NEVT = 500
FILE = /castor/cern.ch/delphi/MCprod/ral/hzha03pyth6156/v99e/199.5/hzha03pyth6156_hwqqlnqq_199.5_107.5_22761.xsdst ! RUN = 22761 ! NEVT = 499
FILE = /castor/cern.ch/delphi/MCprod/ral/hzha03pyth6156/v99e/199.5/hzha03pyth6156_hwqqlnqq_199.5_107.5_22762.xsdst ! RUN = 22762 ! NEVT = 500
FILE = /castor/cern.ch/delphi/MCprod/ral/hzha03pyth6156/v99e/199.5/hzha03pyth6156_hwqqlnqq_199.5_107.5_22763.xsdst ! RUN = 22763 ! NEVT = 500
FILE = /castor/cern.ch/delphi/MCprod/ral/hzha03pyth6156/v99e/199.5/hzha03pyth6156_hwqqlnqq_199.5_107.5_22764.xsdst ! RUN = 22764 ! NEVT = 500
FILE = /castor/cern.ch/delphi/MCprod/ral/hzha03pyth6156/v99e/199.5/hzha03pyth6156_hwqqlnqq_199.5_107.5_22765.xsdst ! RUN = 22765 ! NEVT = 500
