*
*   Nickname     : xs_hzha03pyth6156hwqqqqqq_e201.6_m102.5_r99_1l_e1
*   Generic Name : //CERN/DELPHI/P02_SIMD/XSDST/HZHA03PYTH6156HWQQQQQQ/E201.6/RAL/SUMT/C001-11
*   Description  :  Extended Short DST simulation 99e1 done at ecms=201.6 , RAL
*---
*   Comments     : in total 5498 events in 11 files time stamp: Tue Aug  6 01:15:08 2002
*---
*
*
*
*
*
FILE = /castor/cern.ch/delphi/MCprod/ral/hzha03pyth6156/v99e/201.6/hzha03pyth6156_hwqqqqqq_201.6_102.5_30251.xsdst ! RUN = 30251 ! NEVT = 499
FILE = /castor/cern.ch/delphi/MCprod/ral/hzha03pyth6156/v99e/201.6/hzha03pyth6156_hwqqqqqq_201.6_102.5_30253.xsdst ! RUN = 30253 ! NEVT = 500
FILE = /castor/cern.ch/delphi/MCprod/ral/hzha03pyth6156/v99e/201.6/hzha03pyth6156_hwqqqqqq_201.6_102.5_30254.xsdst ! RUN = 30254 ! NEVT = 500
FILE = /castor/cern.ch/delphi/MCprod/ral/hzha03pyth6156/v99e/201.6/hzha03pyth6156_hwqqqqqq_201.6_102.5_30255.xsdst ! RUN = 30255 ! NEVT = 499
FILE = /castor/cern.ch/delphi/MCprod/ral/hzha03pyth6156/v99e/201.6/hzha03pyth6156_hwqqqqqq_201.6_102.5_30256.xsdst ! RUN = 30256 ! NEVT = 500
FILE = /castor/cern.ch/delphi/MCprod/ral/hzha03pyth6156/v99e/201.6/hzha03pyth6156_hwqqqqqq_201.6_102.5_30257.xsdst ! RUN = 30257 ! NEVT = 500
FILE = /castor/cern.ch/delphi/MCprod/ral/hzha03pyth6156/v99e/201.6/hzha03pyth6156_hwqqqqqq_201.6_102.5_30258.xsdst ! RUN = 30258 ! NEVT = 500
FILE = /castor/cern.ch/delphi/MCprod/ral/hzha03pyth6156/v99e/201.6/hzha03pyth6156_hwqqqqqq_201.6_102.5_30260.xsdst ! RUN = 30260 ! NEVT = 500
FILE = /castor/cern.ch/delphi/MCprod/ral/hzha03pyth6156/v99e/201.6/hzha03pyth6156_hwqqqqqq_201.6_102.5_30262.xsdst ! RUN = 30262 ! NEVT = 500
FILE = /castor/cern.ch/delphi/MCprod/ral/hzha03pyth6156/v99e/201.6/hzha03pyth6156_hwqqqqqq_201.6_102.5_30263.xsdst ! RUN = 30263 ! NEVT = 500
FILE = /castor/cern.ch/delphi/MCprod/ral/hzha03pyth6156/v99e/201.6/hzha03pyth6156_hwqqqqqq_201.6_102.5_30264.xsdst ! RUN = 30264 ! NEVT = 500
