*
*   Nickname     : xs_hzha03pyth6156hwqqqqnn_e201.6_m105.0_r99_1l_e1
*   Generic Name : //CERN/DELPHI/P02_SIMD/XSDST/HZHA03PYTH6156HWQQQQNN/E201.6/RAL/SUMT/C001-12
*   Description  :  Extended Short DST simulation 99e1 done at ecms=201.6 , RAL
*---
*   Comments     : in total 5614 events in 12 files time stamp: Tue Aug  6 01:15:07 2002
*---
*
*
*
*
*
FILE = /castor/cern.ch/delphi/MCprod/ral/hzha03pyth6156/v99e/201.6/hzha03pyth6156_hwqqqqnn_201.6_105.0_31501.xsdst ! RUN = 31501 ! NEVT = 500
FILE = /castor/cern.ch/delphi/MCprod/ral/hzha03pyth6156/v99e/201.6/hzha03pyth6156_hwqqqqnn_201.6_105.0_31502.xsdst ! RUN = 31502 ! NEVT = 500
FILE = /castor/cern.ch/delphi/MCprod/ral/hzha03pyth6156/v99e/201.6/hzha03pyth6156_hwqqqqnn_201.6_105.0_31503.xsdst ! RUN = 31503 ! NEVT = 114
FILE = /castor/cern.ch/delphi/MCprod/ral/hzha03pyth6156/v99e/201.6/hzha03pyth6156_hwqqqqnn_201.6_105.0_31504.xsdst ! RUN = 31504 ! NEVT = 500
FILE = /castor/cern.ch/delphi/MCprod/ral/hzha03pyth6156/v99e/201.6/hzha03pyth6156_hwqqqqnn_201.6_105.0_31506.xsdst ! RUN = 31506 ! NEVT = 500
FILE = /castor/cern.ch/delphi/MCprod/ral/hzha03pyth6156/v99e/201.6/hzha03pyth6156_hwqqqqnn_201.6_105.0_31507.xsdst ! RUN = 31507 ! NEVT = 500
FILE = /castor/cern.ch/delphi/MCprod/ral/hzha03pyth6156/v99e/201.6/hzha03pyth6156_hwqqqqnn_201.6_105.0_31508.xsdst ! RUN = 31508 ! NEVT = 500
FILE = /castor/cern.ch/delphi/MCprod/ral/hzha03pyth6156/v99e/201.6/hzha03pyth6156_hwqqqqnn_201.6_105.0_31509.xsdst ! RUN = 31509 ! NEVT = 500
FILE = /castor/cern.ch/delphi/MCprod/ral/hzha03pyth6156/v99e/201.6/hzha03pyth6156_hwqqqqnn_201.6_105.0_31510.xsdst ! RUN = 31510 ! NEVT = 500
FILE = /castor/cern.ch/delphi/MCprod/ral/hzha03pyth6156/v99e/201.6/hzha03pyth6156_hwqqqqnn_201.6_105.0_31511.xsdst ! RUN = 31511 ! NEVT = 500
FILE = /castor/cern.ch/delphi/MCprod/ral/hzha03pyth6156/v99e/201.6/hzha03pyth6156_hwqqqqnn_201.6_105.0_31512.xsdst ! RUN = 31512 ! NEVT = 500
FILE = /castor/cern.ch/delphi/MCprod/ral/hzha03pyth6156/v99e/201.6/hzha03pyth6156_hwqqqqnn_201.6_105.0_31513.xsdst ! RUN = 31513 ! NEVT = 500
