*
*   Nickname     : xs_hzha03pyth6156hwqqqqqq_e201.6_m112.5_r99_1l_e1
*   Generic Name : //CERN/DELPHI/P02_SIMD/XSDST/HZHA03PYTH6156HWQQQQQQ/E201.6/RAL/SUMT/C001-14
*   Description  :  Extended Short DST simulation 99e1 done at ecms=201.6 , RAL
*---
*   Comments     : in total 6995 events in 14 files time stamp: Tue Aug  6 07:08:17 2002
*---
*
*
*
*
*
FILE = /castor/cern.ch/delphi/MCprod/ral/hzha03pyth6156/v99e/201.6/hzha03pyth6156_hwqqqqqq_201.6_112.5_31251.xsdst ! RUN = 31251 ! NEVT = 500
FILE = /castor/cern.ch/delphi/MCprod/ral/hzha03pyth6156/v99e/201.6/hzha03pyth6156_hwqqqqqq_201.6_112.5_31252.xsdst ! RUN = 31252 ! NEVT = 499
FILE = /castor/cern.ch/delphi/MCprod/ral/hzha03pyth6156/v99e/201.6/hzha03pyth6156_hwqqqqqq_201.6_112.5_31254.xsdst ! RUN = 31254 ! NEVT = 499
FILE = /castor/cern.ch/delphi/MCprod/ral/hzha03pyth6156/v99e/201.6/hzha03pyth6156_hwqqqqqq_201.6_112.5_31255.xsdst ! RUN = 31255 ! NEVT = 500
FILE = /castor/cern.ch/delphi/MCprod/ral/hzha03pyth6156/v99e/201.6/hzha03pyth6156_hwqqqqqq_201.6_112.5_31256.xsdst ! RUN = 31256 ! NEVT = 499
FILE = /castor/cern.ch/delphi/MCprod/ral/hzha03pyth6156/v99e/201.6/hzha03pyth6156_hwqqqqqq_201.6_112.5_31257.xsdst ! RUN = 31257 ! NEVT = 500
FILE = /castor/cern.ch/delphi/MCprod/ral/hzha03pyth6156/v99e/201.6/hzha03pyth6156_hwqqqqqq_201.6_112.5_31258.xsdst ! RUN = 31258 ! NEVT = 500
FILE = /castor/cern.ch/delphi/MCprod/ral/hzha03pyth6156/v99e/201.6/hzha03pyth6156_hwqqqqqq_201.6_112.5_31259.xsdst ! RUN = 31259 ! NEVT = 500
FILE = /castor/cern.ch/delphi/MCprod/ral/hzha03pyth6156/v99e/201.6/hzha03pyth6156_hwqqqqqq_201.6_112.5_31260.xsdst ! RUN = 31260 ! NEVT = 498
FILE = /castor/cern.ch/delphi/MCprod/ral/hzha03pyth6156/v99e/201.6/hzha03pyth6156_hwqqqqqq_201.6_112.5_31261.xsdst ! RUN = 31261 ! NEVT = 500
FILE = /castor/cern.ch/delphi/MCprod/ral/hzha03pyth6156/v99e/201.6/hzha03pyth6156_hwqqqqqq_201.6_112.5_31262.xsdst ! RUN = 31262 ! NEVT = 500
FILE = /castor/cern.ch/delphi/MCprod/ral/hzha03pyth6156/v99e/201.6/hzha03pyth6156_hwqqqqqq_201.6_112.5_31263.xsdst ! RUN = 31263 ! NEVT = 500
FILE = /castor/cern.ch/delphi/MCprod/ral/hzha03pyth6156/v99e/201.6/hzha03pyth6156_hwqqqqqq_201.6_112.5_31264.xsdst ! RUN = 31264 ! NEVT = 500
FILE = /castor/cern.ch/delphi/MCprod/ral/hzha03pyth6156/v99e/201.6/hzha03pyth6156_hwqqqqqq_201.6_112.5_31265.xsdst ! RUN = 31265 ! NEVT = 500
