# index of html fragments. Provides additional information for sorting files. DO NOT REMOVE.
#File Name                                       year processing   category      files          events     energy       mass      mass2       labo
xs_bhwide101_e191.6_c99_1l_e1                   1999      v99e1      2FERM        334          998772      191.6          -          -       cern
xs_bhwide101_e195.5_c99_1l_e1                   1999      v99e1      2FERM        334          999209      195.5          -          -       cern
xs_bhwide101_e199.5_c99_1l_e1                   1999      v99e1      2FERM        335         1002765      199.5          -          -       cern
xs_bhwide101_e201.6_c99_1l_e1                   1999      v99e1      2FERM        335          998306      201.6          -          -       cern
xs_bhwide101_e91.25_c99_1l_e1                   1999      v99e1      2FERM         33           98423      91.25          -          -       cern
xs_kk2f4143mumu_e191.6_l99_1l_e1                1999      v99e1      2FERM         20           99997      191.6          -          -       lyon
xs_kk2f4143mumu_e195.5_l99_1l_e1                1999      v99e1      2FERM         20           99995      195.5          -          -       lyon
xs_kk2f4143mumu_e199.5_l99_1l_e1                1999      v99e1      2FERM         20           95175      199.5          -          -       lyon
xs_kk2f4143mumu_e201.6_l99_1l_e1                1999      v99e1      2FERM         23          110526      201.6          -          -       lyon
xs_kk2f4143mumu_e91.25_l99_1l_e1                1999      v99e1      2FERM         11          104998      91.25          -          -       lyon
xs_kk2f4143qq_e191.6_r99_1l_e1                  1999      v99e1      2FERM        995          990962      191.6          -          -       ruth
xs_kk2f4143qq_e195.5_l99_1l_e1                  1999      v99e1      2FERM       1000          998148      195.5          -          -       lyon
xs_kk2f4143qq_e199.5_c99_1l_e1                  1999      v99e1      2FERM       1003          998110      199.5          -          -       cern
xs_kk2f4143qq_e201.6_l99_1l_e1                  1999      v99e1      2FERM       1000          997579      201.6          -          -       lyon
xs_kk2f4143qq_e91.25_l99_1l_e1                  1999      v99e1      2FERM        299          298736      91.25          -          -       lyon
xs_kk2f4143qqstrip_e191.6_r99_1l_e1             1999      v99e1      2FERM        100          980683      191.6          -          -       ruth
xs_kk2f4143qqstrip_e195.5_l99_1l_e1             1999      v99e1      2FERM        100          991959      195.5          -          -       lyon
xs_kk2f4143qqstrip_e199.5_c99_1l_e1             1999      v99e1      2FERM        101          992010      199.5          -          -       cern
xs_kk2f4143qqstrip_e201.6_l99_1l_e1             1999      v99e1      2FERM        100          986822      201.6          -          -       lyon
xs_kk2f4144qqar_e191.6_r99_1l_e1                1999      v99e1      2FERM        524          520550      191.6          -          -       ruth
xs_kk2f4144qqar_e195.5_l99_1l_e1                1999      v99e1      2FERM        495          492782      195.5          -          -       lyon
xs_kk2f4144qqar_e199.5_c99_1l_e1                1999      v99e1      2FERM        968          965424      199.5          -          -       cern
xs_kk2f4144qqar_e201.6_l99_1l_e1                1999      v99e1      2FERM        481          479227      201.6          -          -       lyon
xs_kk2f4144qqar_e91.25_c99_1l_e1                1999      v99e1      2FERM         73          218981      91.25          -          -       cern
xs_kk2f4144tthl_e191.6_c99_1l_e1                1999      v99e1      2FERM         39          194955      191.6          -          -       cern
xs_kk2f4144tthl_e195.5_c99_1l_e1                1999      v99e1      2FERM         40          195745      195.5          -          -       cern
xs_kk2f4144tthl_e199.5_c99_1l_e1                1999      v99e1      2FERM         40          199946      199.5          -          -       cern
xs_kk2f4144tthl_e201.6_c99_1l_e1                1999      v99e1      2FERM         40          199940      201.6          -          -       cern
xs_kk2f4144tthl_e91.25_c99_1l_e1                1999      v99e1      2FERM          6           29994      91.25          -          -       cern
xs_kk2f4145qqhw_e199.5_c99_1l_e1                1999      v99e1      2FERM        993          980350      199.5          -          -       cern
xs_kk2f4145qqhw_e91.25_l99_1l_e1                1999      v99e1      2FERM         70          205223      91.25          -          -       lyon
xs_kk2f4145qqpybe321_e191.6_c99_1l_e1           1999      v99e1      2FERM         50           49968      191.6          -          -       cern
xs_kk2f4145qqpybe321_e195.5_c99_1l_e1           1999      v99e1      2FERM         50           49972      195.5          -          -       cern
xs_kk2f4145qqpybe321_e199.5_c99_1l_e1           1999      v99e1      2FERM         50           49973      199.5          -          -       cern
xs_kk2f4145qqpybe321_e201.6_c99_1l_e1           1999      v99e1      2FERM         48           47825      201.6          -          -       cern
xs_kk2f4145qqpybe321_e91.25_c99_1l_e1           1999      v99e1      2FERM         66          197597      91.25          -          -       cern
xs_kk2f4145qqpybe32_e199.5_c99_1l_e1            1999      v99e1      2FERM        100           99944      199.5          -          -       cern
xs_kk2f4145qqpybe32_e91.25_c99_1l_e1            1999      v99e1      2FERM         65          194972      91.25          -          -       cern
xs_kk2f4146qqardcy_e191.6_c99_1l_e1             1999      v99e1      2FERM         69          167281      191.6          -          -       cern
xs_kk2f4146qqardcy_e195.5_c99_1l_e1             1999      v99e1      2FERM         54          127006      195.5          -          -       cern
xs_kk2f4146qqardcy_e199.5_c99_1l_e1             1999      v99e1      2FERM        126          255334      199.5          -          -       cern
xs_kk2f4146qqardcy_e201.6_c99_1l_e1             1999      v99e1      2FERM         40           78992      201.6          -          -       cern
xs_kk2f4146qqardcy_e91.25_c99_1l_e1             1999      v99e1      2FERM        143          421345      91.25          -          -       cern
xs_kk2f4146qqpydcy_e91.25_c99_1l_e1             1999      v99e1      2FERM         64          186789      91.25          -          -       cern
xs_koralz402vvkz_e191.6_r99_1l_e1               1999      v99e1      2FERM          1           14006      191.6          -          -       ruth
xs_koralz402vvkz_e196.0_r99_1l_e1               1999      v99e1      2FERM          4           64649      196.0          -          -       ruth
xs_koralz402vvkz_e200.0_r99_1l_e1               1999      v99e1      2FERM          2           34208      200.0          -          -       ruth
xs_koralz402vvkz_e202.0_r99_1l_e1               1999      v99e1      2FERM          1           17491      202.0          -          -       ruth
xs_koralz42kora_e191.6_r99_1l_e1                1999      v99e1      2FERM          1            4929      191.6          -          -       ruth
xs_koralz42kora_e196.0_r99_1l_e1                1999      v99e1      2FERM          3           16223      196.0          -          -       ruth
xs_koralz42kora_e200.0_r99_1l_e1                1999      v99e1      2FERM          5           37480      200.0          -          -       ruth
xs_koralz42kora_e202.0_r99_1l_e1                1999      v99e1      2FERM          4           35215      202.0          -          -       ruth
xs_qedbk23eegg_e196.0_r99_1l_e1                 1999      v99e1       EEGG          4           23563      196.0          -          -       ruth
xs_qedbk23eegg_e200.0_r99_1l_e1                 1999      v99e1       EEGG          6           33904      200.0          -          -       ruth
xs_qedbk23eegg_e202.0_r99_1l_e1                 1999      v99e1       EEGG          2           11737      202.0          -          -       ruth
xs_qqps_e91.25_c99_1l_e1                        1999      v99e1      2FERM        272          409586      91.25          -          -       cern
xs_teegg71cmpt_e191.6_c99_1l_e1                 1999      v99e1    UNKNOWN          2            4057      191.6          -          -       CERN
xs_teegg71cmpt_e191.6_r99_1l_e1                 1999      v99e1      2FERM          4           26397      191.6          -          -       ruth
xs_teegg71cmpt_e195.5_c99_1l_e1                 1999      v99e1    UNKNOWN          4            8102      195.5          -          -       CERN
xs_teegg71cmpt_e196.0_r99_1l_e1                 1999      v99e1      2FERM         16          102173      196.0          -          -       ruth
xs_teegg71cmpt_e199.5_c99_1l_e1                 1999      v99e1    UNKNOWN          4            8120      199.5          -          -       CERN
xs_teegg71cmpt_e200.0_r99_1l_e1                 1999      v99e1      2FERM         16          102428      200.0          -          -       ruth
xs_teegg71cmpt_e201.6_c99_1l_e1                 1999      v99e1    UNKNOWN          4            8054      201.6          -          -       CERN
xs_teegg71cmpt_e202.0_r99_1l_e1                 1999      v99e1      2FERM          8           48797      202.0          -          -       ruth
xs_teegg71hard_e195.5_c99_1l_e1                 1999      v99e1    UNKNOWN         20           31940      195.5          -          -       CERN
xs_teegg71soft_e195.5_c99_1l_e1                 1999      v99e1    UNKNOWN         20           34499      195.5          -          -       CERN
