*
*   Nickname     : xs_bhwide101_e195.5_c99_1l_e1
*   Generic Name : //CERN/DELPHI/P02_SIMD/XSDST/BHWIDE101/E195.5/CERN/SUMT/C001-334
*   Description  :  Extended Short DST simulation 99_e1 done at ecms=195.5 , CERN
*---
*   Comments     : in total 999209 events in 334 files time stamp: Sun Aug 12 08:16:55 2001
*---
*
*
*
*
*
FILE = /castor/cern.ch/delphi/MCprod/cern/bhwide101/v99e/195.5/bhwide101_195.5_10535.xsdst ! RUN = 10535 ! NEVT = 3000
FILE = /castor/cern.ch/delphi/MCprod/cern/bhwide101/v99e/195.5/bhwide101_195.5_10536.xsdst ! RUN = 10536 ! NEVT = 3000
FILE = /castor/cern.ch/delphi/MCprod/cern/bhwide101/v99e/195.5/bhwide101_195.5_10537.xsdst ! RUN = 10537 ! NEVT = 3000
FILE = /castor/cern.ch/delphi/MCprod/cern/bhwide101/v99e/195.5/bhwide101_195.5_10538.xsdst ! RUN = 10538 ! NEVT = 3000
FILE = /castor/cern.ch/delphi/MCprod/cern/bhwide101/v99e/195.5/bhwide101_195.5_10539.xsdst ! RUN = 10539 ! NEVT = 3000
FILE = /castor/cern.ch/delphi/MCprod/cern/bhwide101/v99e/195.5/bhwide101_195.5_10540.xsdst ! RUN = 10540 ! NEVT = 3000
FILE = /castor/cern.ch/delphi/MCprod/cern/bhwide101/v99e/195.5/bhwide101_195.5_10541.xsdst ! RUN = 10541 ! NEVT = 3000
FILE = /castor/cern.ch/delphi/MCprod/cern/bhwide101/v99e/195.5/bhwide101_195.5_10542.xsdst ! RUN = 10542 ! NEVT = 2999
FILE = /castor/cern.ch/delphi/MCprod/cern/bhwide101/v99e/195.5/bhwide101_195.5_10543.xsdst ! RUN = 10543 ! NEVT = 3000
FILE = /castor/cern.ch/delphi/MCprod/cern/bhwide101/v99e/195.5/bhwide101_195.5_10544.xsdst ! RUN = 10544 ! NEVT = 3000
FILE = /castor/cern.ch/delphi/MCprod/cern/bhwide101/v99e/195.5/bhwide101_195.5_10545.xsdst ! RUN = 10545 ! NEVT = 2999
FILE = /castor/cern.ch/delphi/MCprod/cern/bhwide101/v99e/195.5/bhwide101_195.5_10546.xsdst ! RUN = 10546 ! NEVT = 3000
FILE = /castor/cern.ch/delphi/MCprod/cern/bhwide101/v99e/195.5/bhwide101_195.5_10547.xsdst ! RUN = 10547 ! NEVT = 3000
FILE = /castor/cern.ch/delphi/MCprod/cern/bhwide101/v99e/195.5/bhwide101_195.5_10548.xsdst ! RUN = 10548 ! NEVT = 3000
FILE = /castor/cern.ch/delphi/MCprod/cern/bhwide101/v99e/195.5/bhwide101_195.5_10549.xsdst ! RUN = 10549 ! NEVT = 3000
FILE = /castor/cern.ch/delphi/MCprod/cern/bhwide101/v99e/195.5/bhwide101_195.5_10550.xsdst ! RUN = 10550 ! NEVT = 3000
FILE = /castor/cern.ch/delphi/MCprod/cern/bhwide101/v99e/195.5/bhwide101_195.5_10551.xsdst ! RUN = 10551 ! NEVT = 3000
FILE = /castor/cern.ch/delphi/MCprod/cern/bhwide101/v99e/195.5/bhwide101_195.5_10552.xsdst ! RUN = 10552 ! NEVT = 3000
FILE = /castor/cern.ch/delphi/MCprod/cern/bhwide101/v99e/195.5/bhwide101_195.5_10553.xsdst ! RUN = 10553 ! NEVT = 3000
FILE = /castor/cern.ch/delphi/MCprod/cern/bhwide101/v99e/195.5/bhwide101_195.5_10554.xsdst ! RUN = 10554 ! NEVT = 3000
FILE = /castor/cern.ch/delphi/MCprod/cern/bhwide101/v99e/195.5/bhwide101_195.5_10555.xsdst ! RUN = 10555 ! NEVT = 3000
FILE = /castor/cern.ch/delphi/MCprod/cern/bhwide101/v99e/195.5/bhwide101_195.5_10556.xsdst ! RUN = 10556 ! NEVT = 3000
FILE = /castor/cern.ch/delphi/MCprod/cern/bhwide101/v99e/195.5/bhwide101_195.5_10557.xsdst ! RUN = 10557 ! NEVT = 3000
FILE = /castor/cern.ch/delphi/MCprod/cern/bhwide101/v99e/195.5/bhwide101_195.5_10558.xsdst ! RUN = 10558 ! NEVT = 3000
FILE = /castor/cern.ch/delphi/MCprod/cern/bhwide101/v99e/195.5/bhwide101_195.5_10559.xsdst ! RUN = 10559 ! NEVT = 3000
FILE = /castor/cern.ch/delphi/MCprod/cern/bhwide101/v99e/195.5/bhwide101_195.5_10560.xsdst ! RUN = 10560 ! NEVT = 3000
FILE = /castor/cern.ch/delphi/MCprod/cern/bhwide101/v99e/195.5/bhwide101_195.5_10561.xsdst ! RUN = 10561 ! NEVT = 3000
FILE = /castor/cern.ch/delphi/MCprod/cern/bhwide101/v99e/195.5/bhwide101_195.5_10562.xsdst ! RUN = 10562 ! NEVT = 3000
FILE = /castor/cern.ch/delphi/MCprod/cern/bhwide101/v99e/195.5/bhwide101_195.5_10563.xsdst ! RUN = 10563 ! NEVT = 3000
FILE = /castor/cern.ch/delphi/MCprod/cern/bhwide101/v99e/195.5/bhwide101_195.5_10564.xsdst ! RUN = 10564 ! NEVT = 3000
FILE = /castor/cern.ch/delphi/MCprod/cern/bhwide101/v99e/195.5/bhwide101_195.5_10565.xsdst ! RUN = 10565 ! NEVT = 3000
FILE = /castor/cern.ch/delphi/MCprod/cern/bhwide101/v99e/195.5/bhwide101_195.5_10566.xsdst ! RUN = 10566 ! NEVT = 3000
FILE = /castor/cern.ch/delphi/MCprod/cern/bhwide101/v99e/195.5/bhwide101_195.5_10567.xsdst ! RUN = 10567 ! NEVT = 3000
FILE = /castor/cern.ch/delphi/MCprod/cern/bhwide101/v99e/195.5/bhwide101_195.5_10568.xsdst ! RUN = 10568 ! NEVT = 2999
FILE = /castor/cern.ch/delphi/MCprod/cern/bhwide101/v99e/195.5/bhwide101_195.5_10569.xsdst ! RUN = 10569 ! NEVT = 3000
FILE = /castor/cern.ch/delphi/MCprod/cern/bhwide101/v99e/195.5/bhwide101_195.5_10570.xsdst ! RUN = 10570 ! NEVT = 3000
FILE = /castor/cern.ch/delphi/MCprod/cern/bhwide101/v99e/195.5/bhwide101_195.5_10571.xsdst ! RUN = 10571 ! NEVT = 3000
FILE = /castor/cern.ch/delphi/MCprod/cern/bhwide101/v99e/195.5/bhwide101_195.5_10572.xsdst ! RUN = 10572 ! NEVT = 3000
FILE = /castor/cern.ch/delphi/MCprod/cern/bhwide101/v99e/195.5/bhwide101_195.5_10573.xsdst ! RUN = 10573 ! NEVT = 3000
FILE = /castor/cern.ch/delphi/MCprod/cern/bhwide101/v99e/195.5/bhwide101_195.5_10574.xsdst ! RUN = 10574 ! NEVT = 3000
FILE = /castor/cern.ch/delphi/MCprod/cern/bhwide101/v99e/195.5/bhwide101_195.5_10575.xsdst ! RUN = 10575 ! NEVT = 3000
FILE = /castor/cern.ch/delphi/MCprod/cern/bhwide101/v99e/195.5/bhwide101_195.5_10576.xsdst ! RUN = 10576 ! NEVT = 3000
FILE = /castor/cern.ch/delphi/MCprod/cern/bhwide101/v99e/195.5/bhwide101_195.5_10577.xsdst ! RUN = 10577 ! NEVT = 3000
FILE = /castor/cern.ch/delphi/MCprod/cern/bhwide101/v99e/195.5/bhwide101_195.5_10578.xsdst ! RUN = 10578 ! NEVT = 3000
FILE = /castor/cern.ch/delphi/MCprod/cern/bhwide101/v99e/195.5/bhwide101_195.5_10579.xsdst ! RUN = 10579 ! NEVT = 3000
FILE = /castor/cern.ch/delphi/MCprod/cern/bhwide101/v99e/195.5/bhwide101_195.5_10580.xsdst ! RUN = 10580 ! NEVT = 3000
FILE = /castor/cern.ch/delphi/MCprod/cern/bhwide101/v99e/195.5/bhwide101_195.5_10581.xsdst ! RUN = 10581 ! NEVT = 3000
FILE = /castor/cern.ch/delphi/MCprod/cern/bhwide101/v99e/195.5/bhwide101_195.5_10582.xsdst ! RUN = 10582 ! NEVT = 3000
FILE = /castor/cern.ch/delphi/MCprod/cern/bhwide101/v99e/195.5/bhwide101_195.5_10583.xsdst ! RUN = 10583 ! NEVT = 3000
FILE = /castor/cern.ch/delphi/MCprod/cern/bhwide101/v99e/195.5/bhwide101_195.5_10584.xsdst ! RUN = 10584 ! NEVT = 3000
FILE = /castor/cern.ch/delphi/MCprod/cern/bhwide101/v99e/195.5/bhwide101_195.5_10585.xsdst ! RUN = 10585 ! NEVT = 3000
FILE = /castor/cern.ch/delphi/MCprod/cern/bhwide101/v99e/195.5/bhwide101_195.5_10586.xsdst ! RUN = 10586 ! NEVT = 3000
FILE = /castor/cern.ch/delphi/MCprod/cern/bhwide101/v99e/195.5/bhwide101_195.5_10587.xsdst ! RUN = 10587 ! NEVT = 3000
FILE = /castor/cern.ch/delphi/MCprod/cern/bhwide101/v99e/195.5/bhwide101_195.5_10588.xsdst ! RUN = 10588 ! NEVT = 3000
FILE = /castor/cern.ch/delphi/MCprod/cern/bhwide101/v99e/195.5/bhwide101_195.5_10589.xsdst ! RUN = 10589 ! NEVT = 3000
FILE = /castor/cern.ch/delphi/MCprod/cern/bhwide101/v99e/195.5/bhwide101_195.5_10590.xsdst ! RUN = 10590 ! NEVT = 3000
FILE = /castor/cern.ch/delphi/MCprod/cern/bhwide101/v99e/195.5/bhwide101_195.5_10591.xsdst ! RUN = 10591 ! NEVT = 3000
FILE = /castor/cern.ch/delphi/MCprod/cern/bhwide101/v99e/195.5/bhwide101_195.5_10592.xsdst ! RUN = 10592 ! NEVT = 3000
FILE = /castor/cern.ch/delphi/MCprod/cern/bhwide101/v99e/195.5/bhwide101_195.5_10593.xsdst ! RUN = 10593 ! NEVT = 3000
FILE = /castor/cern.ch/delphi/MCprod/cern/bhwide101/v99e/195.5/bhwide101_195.5_10594.xsdst ! RUN = 10594 ! NEVT = 3000
FILE = /castor/cern.ch/delphi/MCprod/cern/bhwide101/v99e/195.5/bhwide101_195.5_10595.xsdst ! RUN = 10595 ! NEVT = 2999
FILE = /castor/cern.ch/delphi/MCprod/cern/bhwide101/v99e/195.5/bhwide101_195.5_10596.xsdst ! RUN = 10596 ! NEVT = 3000
FILE = /castor/cern.ch/delphi/MCprod/cern/bhwide101/v99e/195.5/bhwide101_195.5_10597.xsdst ! RUN = 10597 ! NEVT = 3000
FILE = /castor/cern.ch/delphi/MCprod/cern/bhwide101/v99e/195.5/bhwide101_195.5_10598.xsdst ! RUN = 10598 ! NEVT = 3000
FILE = /castor/cern.ch/delphi/MCprod/cern/bhwide101/v99e/195.5/bhwide101_195.5_10599.xsdst ! RUN = 10599 ! NEVT = 3000
FILE = /castor/cern.ch/delphi/MCprod/cern/bhwide101/v99e/195.5/bhwide101_195.5_10600.xsdst ! RUN = 10600 ! NEVT = 3000
FILE = /castor/cern.ch/delphi/MCprod/cern/bhwide101/v99e/195.5/bhwide101_195.5_10601.xsdst ! RUN = 10601 ! NEVT = 3000
FILE = /castor/cern.ch/delphi/MCprod/cern/bhwide101/v99e/195.5/bhwide101_195.5_10602.xsdst ! RUN = 10602 ! NEVT = 3000
FILE = /castor/cern.ch/delphi/MCprod/cern/bhwide101/v99e/195.5/bhwide101_195.5_10603.xsdst ! RUN = 10603 ! NEVT = 3000
FILE = /castor/cern.ch/delphi/MCprod/cern/bhwide101/v99e/195.5/bhwide101_195.5_10604.xsdst ! RUN = 10604 ! NEVT = 2999
FILE = /castor/cern.ch/delphi/MCprod/cern/bhwide101/v99e/195.5/bhwide101_195.5_10605.xsdst ! RUN = 10605 ! NEVT = 3000
FILE = /castor/cern.ch/delphi/MCprod/cern/bhwide101/v99e/195.5/bhwide101_195.5_10606.xsdst ! RUN = 10606 ! NEVT = 3000
FILE = /castor/cern.ch/delphi/MCprod/cern/bhwide101/v99e/195.5/bhwide101_195.5_10607.xsdst ! RUN = 10607 ! NEVT = 3000
FILE = /castor/cern.ch/delphi/MCprod/cern/bhwide101/v99e/195.5/bhwide101_195.5_10608.xsdst ! RUN = 10608 ! NEVT = 3000
FILE = /castor/cern.ch/delphi/MCprod/cern/bhwide101/v99e/195.5/bhwide101_195.5_10609.xsdst ! RUN = 10609 ! NEVT = 3000
FILE = /castor/cern.ch/delphi/MCprod/cern/bhwide101/v99e/195.5/bhwide101_195.5_10610.xsdst ! RUN = 10610 ! NEVT = 3000
FILE = /castor/cern.ch/delphi/MCprod/cern/bhwide101/v99e/195.5/bhwide101_195.5_10611.xsdst ! RUN = 10611 ! NEVT = 3000
FILE = /castor/cern.ch/delphi/MCprod/cern/bhwide101/v99e/195.5/bhwide101_195.5_10612.xsdst ! RUN = 10612 ! NEVT = 3000
FILE = /castor/cern.ch/delphi/MCprod/cern/bhwide101/v99e/195.5/bhwide101_195.5_10613.xsdst ! RUN = 10613 ! NEVT = 3000
FILE = /castor/cern.ch/delphi/MCprod/cern/bhwide101/v99e/195.5/bhwide101_195.5_10614.xsdst ! RUN = 10614 ! NEVT = 3000
FILE = /castor/cern.ch/delphi/MCprod/cern/bhwide101/v99e/195.5/bhwide101_195.5_10615.xsdst ! RUN = 10615 ! NEVT = 3000
FILE = /castor/cern.ch/delphi/MCprod/cern/bhwide101/v99e/195.5/bhwide101_195.5_10616.xsdst ! RUN = 10616 ! NEVT = 3000
FILE = /castor/cern.ch/delphi/MCprod/cern/bhwide101/v99e/195.5/bhwide101_195.5_10617.xsdst ! RUN = 10617 ! NEVT = 3000
FILE = /castor/cern.ch/delphi/MCprod/cern/bhwide101/v99e/195.5/bhwide101_195.5_10618.xsdst ! RUN = 10618 ! NEVT = 3000
FILE = /castor/cern.ch/delphi/MCprod/cern/bhwide101/v99e/195.5/bhwide101_195.5_10619.xsdst ! RUN = 10619 ! NEVT = 3000
FILE = /castor/cern.ch/delphi/MCprod/cern/bhwide101/v99e/195.5/bhwide101_195.5_10620.xsdst ! RUN = 10620 ! NEVT = 3000
FILE = /castor/cern.ch/delphi/MCprod/cern/bhwide101/v99e/195.5/bhwide101_195.5_10621.xsdst ! RUN = 10621 ! NEVT = 3000
FILE = /castor/cern.ch/delphi/MCprod/cern/bhwide101/v99e/195.5/bhwide101_195.5_10622.xsdst ! RUN = 10622 ! NEVT = 3000
FILE = /castor/cern.ch/delphi/MCprod/cern/bhwide101/v99e/195.5/bhwide101_195.5_10623.xsdst ! RUN = 10623 ! NEVT = 3000
FILE = /castor/cern.ch/delphi/MCprod/cern/bhwide101/v99e/195.5/bhwide101_195.5_10624.xsdst ! RUN = 10624 ! NEVT = 3000
FILE = /castor/cern.ch/delphi/MCprod/cern/bhwide101/v99e/195.5/bhwide101_195.5_10625.xsdst ! RUN = 10625 ! NEVT = 3000
FILE = /castor/cern.ch/delphi/MCprod/cern/bhwide101/v99e/195.5/bhwide101_195.5_10626.xsdst ! RUN = 10626 ! NEVT = 3000
FILE = /castor/cern.ch/delphi/MCprod/cern/bhwide101/v99e/195.5/bhwide101_195.5_10627.xsdst ! RUN = 10627 ! NEVT = 2999
FILE = /castor/cern.ch/delphi/MCprod/cern/bhwide101/v99e/195.5/bhwide101_195.5_10628.xsdst ! RUN = 10628 ! NEVT = 3000
FILE = /castor/cern.ch/delphi/MCprod/cern/bhwide101/v99e/195.5/bhwide101_195.5_10629.xsdst ! RUN = 10629 ! NEVT = 3000
FILE = /castor/cern.ch/delphi/MCprod/cern/bhwide101/v99e/195.5/bhwide101_195.5_10630.xsdst ! RUN = 10630 ! NEVT = 3000
FILE = /castor/cern.ch/delphi/MCprod/cern/bhwide101/v99e/195.5/bhwide101_195.5_10631.xsdst ! RUN = 10631 ! NEVT = 3000
FILE = /castor/cern.ch/delphi/MCprod/cern/bhwide101/v99e/195.5/bhwide101_195.5_10632.xsdst ! RUN = 10632 ! NEVT = 3000
FILE = /castor/cern.ch/delphi/MCprod/cern/bhwide101/v99e/195.5/bhwide101_195.5_10633.xsdst ! RUN = 10633 ! NEVT = 3000
FILE = /castor/cern.ch/delphi/MCprod/cern/bhwide101/v99e/195.5/bhwide101_195.5_10634.xsdst ! RUN = 10634 ! NEVT = 3000
FILE = /castor/cern.ch/delphi/MCprod/cern/bhwide101/v99e/195.5/bhwide101_195.5_10635.xsdst ! RUN = 10635 ! NEVT = 3000
FILE = /castor/cern.ch/delphi/MCprod/cern/bhwide101/v99e/195.5/bhwide101_195.5_10636.xsdst ! RUN = 10636 ! NEVT = 3000
FILE = /castor/cern.ch/delphi/MCprod/cern/bhwide101/v99e/195.5/bhwide101_195.5_10637.xsdst ! RUN = 10637 ! NEVT = 3000
FILE = /castor/cern.ch/delphi/MCprod/cern/bhwide101/v99e/195.5/bhwide101_195.5_10638.xsdst ! RUN = 10638 ! NEVT = 3000
FILE = /castor/cern.ch/delphi/MCprod/cern/bhwide101/v99e/195.5/bhwide101_195.5_10639.xsdst ! RUN = 10639 ! NEVT = 3000
FILE = /castor/cern.ch/delphi/MCprod/cern/bhwide101/v99e/195.5/bhwide101_195.5_10640.xsdst ! RUN = 10640 ! NEVT = 3000
FILE = /castor/cern.ch/delphi/MCprod/cern/bhwide101/v99e/195.5/bhwide101_195.5_10641.xsdst ! RUN = 10641 ! NEVT = 3000
FILE = /castor/cern.ch/delphi/MCprod/cern/bhwide101/v99e/195.5/bhwide101_195.5_10642.xsdst ! RUN = 10642 ! NEVT = 3000
FILE = /castor/cern.ch/delphi/MCprod/cern/bhwide101/v99e/195.5/bhwide101_195.5_10643.xsdst ! RUN = 10643 ! NEVT = 3000
FILE = /castor/cern.ch/delphi/MCprod/cern/bhwide101/v99e/195.5/bhwide101_195.5_10644.xsdst ! RUN = 10644 ! NEVT = 3000
FILE = /castor/cern.ch/delphi/MCprod/cern/bhwide101/v99e/195.5/bhwide101_195.5_10645.xsdst ! RUN = 10645 ! NEVT = 3000
FILE = /castor/cern.ch/delphi/MCprod/cern/bhwide101/v99e/195.5/bhwide101_195.5_10646.xsdst ! RUN = 10646 ! NEVT = 2998
FILE = /castor/cern.ch/delphi/MCprod/cern/bhwide101/v99e/195.5/bhwide101_195.5_10647.xsdst ! RUN = 10647 ! NEVT = 3000
FILE = /castor/cern.ch/delphi/MCprod/cern/bhwide101/v99e/195.5/bhwide101_195.5_10648.xsdst ! RUN = 10648 ! NEVT = 3000
FILE = /castor/cern.ch/delphi/MCprod/cern/bhwide101/v99e/195.5/bhwide101_195.5_10649.xsdst ! RUN = 10649 ! NEVT = 3000
FILE = /castor/cern.ch/delphi/MCprod/cern/bhwide101/v99e/195.5/bhwide101_195.5_10650.xsdst ! RUN = 10650 ! NEVT = 3000
FILE = /castor/cern.ch/delphi/MCprod/cern/bhwide101/v99e/195.5/bhwide101_195.5_10651.xsdst ! RUN = 10651 ! NEVT = 3000
FILE = /castor/cern.ch/delphi/MCprod/cern/bhwide101/v99e/195.5/bhwide101_195.5_10652.xsdst ! RUN = 10652 ! NEVT = 2999
FILE = /castor/cern.ch/delphi/MCprod/cern/bhwide101/v99e/195.5/bhwide101_195.5_10653.xsdst ! RUN = 10653 ! NEVT = 3000
FILE = /castor/cern.ch/delphi/MCprod/cern/bhwide101/v99e/195.5/bhwide101_195.5_10654.xsdst ! RUN = 10654 ! NEVT = 3000
FILE = /castor/cern.ch/delphi/MCprod/cern/bhwide101/v99e/195.5/bhwide101_195.5_10655.xsdst ! RUN = 10655 ! NEVT = 3000
FILE = /castor/cern.ch/delphi/MCprod/cern/bhwide101/v99e/195.5/bhwide101_195.5_10656.xsdst ! RUN = 10656 ! NEVT = 3000
FILE = /castor/cern.ch/delphi/MCprod/cern/bhwide101/v99e/195.5/bhwide101_195.5_10657.xsdst ! RUN = 10657 ! NEVT = 3000
FILE = /castor/cern.ch/delphi/MCprod/cern/bhwide101/v99e/195.5/bhwide101_195.5_10658.xsdst ! RUN = 10658 ! NEVT = 3000
FILE = /castor/cern.ch/delphi/MCprod/cern/bhwide101/v99e/195.5/bhwide101_195.5_10659.xsdst ! RUN = 10659 ! NEVT = 3000
FILE = /castor/cern.ch/delphi/MCprod/cern/bhwide101/v99e/195.5/bhwide101_195.5_10660.xsdst ! RUN = 10660 ! NEVT = 3000
FILE = /castor/cern.ch/delphi/MCprod/cern/bhwide101/v99e/195.5/bhwide101_195.5_10661.xsdst ! RUN = 10661 ! NEVT = 3000
FILE = /castor/cern.ch/delphi/MCprod/cern/bhwide101/v99e/195.5/bhwide101_195.5_10662.xsdst ! RUN = 10662 ! NEVT = 3000
FILE = /castor/cern.ch/delphi/MCprod/cern/bhwide101/v99e/195.5/bhwide101_195.5_10663.xsdst ! RUN = 10663 ! NEVT = 3000
FILE = /castor/cern.ch/delphi/MCprod/cern/bhwide101/v99e/195.5/bhwide101_195.5_10664.xsdst ! RUN = 10664 ! NEVT = 3000
FILE = /castor/cern.ch/delphi/MCprod/cern/bhwide101/v99e/195.5/bhwide101_195.5_10665.xsdst ! RUN = 10665 ! NEVT = 3000
FILE = /castor/cern.ch/delphi/MCprod/cern/bhwide101/v99e/195.5/bhwide101_195.5_10666.xsdst ! RUN = 10666 ! NEVT = 3000
FILE = /castor/cern.ch/delphi/MCprod/cern/bhwide101/v99e/195.5/bhwide101_195.5_10667.xsdst ! RUN = 10667 ! NEVT = 3000
FILE = /castor/cern.ch/delphi/MCprod/cern/bhwide101/v99e/195.5/bhwide101_195.5_10668.xsdst ! RUN = 10668 ! NEVT = 3000
FILE = /castor/cern.ch/delphi/MCprod/cern/bhwide101/v99e/195.5/bhwide101_195.5_10669.xsdst ! RUN = 10669 ! NEVT = 3000
FILE = /castor/cern.ch/delphi/MCprod/cern/bhwide101/v99e/195.5/bhwide101_195.5_10670.xsdst ! RUN = 10670 ! NEVT = 3000
FILE = /castor/cern.ch/delphi/MCprod/cern/bhwide101/v99e/195.5/bhwide101_195.5_10671.xsdst ! RUN = 10671 ! NEVT = 3000
FILE = /castor/cern.ch/delphi/MCprod/cern/bhwide101/v99e/195.5/bhwide101_195.5_10672.xsdst ! RUN = 10672 ! NEVT = 3000
FILE = /castor/cern.ch/delphi/MCprod/cern/bhwide101/v99e/195.5/bhwide101_195.5_10673.xsdst ! RUN = 10673 ! NEVT = 3000
FILE = /castor/cern.ch/delphi/MCprod/cern/bhwide101/v99e/195.5/bhwide101_195.5_10674.xsdst ! RUN = 10674 ! NEVT = 3000
FILE = /castor/cern.ch/delphi/MCprod/cern/bhwide101/v99e/195.5/bhwide101_195.5_10675.xsdst ! RUN = 10675 ! NEVT = 3000
FILE = /castor/cern.ch/delphi/MCprod/cern/bhwide101/v99e/195.5/bhwide101_195.5_10676.xsdst ! RUN = 10676 ! NEVT = 2999
FILE = /castor/cern.ch/delphi/MCprod/cern/bhwide101/v99e/195.5/bhwide101_195.5_10677.xsdst ! RUN = 10677 ! NEVT = 3000
FILE = /castor/cern.ch/delphi/MCprod/cern/bhwide101/v99e/195.5/bhwide101_195.5_10678.xsdst ! RUN = 10678 ! NEVT = 3000
FILE = /castor/cern.ch/delphi/MCprod/cern/bhwide101/v99e/195.5/bhwide101_195.5_10679.xsdst ! RUN = 10679 ! NEVT = 2999
FILE = /castor/cern.ch/delphi/MCprod/cern/bhwide101/v99e/195.5/bhwide101_195.5_10680.xsdst ! RUN = 10680 ! NEVT = 3000
FILE = /castor/cern.ch/delphi/MCprod/cern/bhwide101/v99e/195.5/bhwide101_195.5_10681.xsdst ! RUN = 10681 ! NEVT = 3000
FILE = /castor/cern.ch/delphi/MCprod/cern/bhwide101/v99e/195.5/bhwide101_195.5_10682.xsdst ! RUN = 10682 ! NEVT = 3000
FILE = /castor/cern.ch/delphi/MCprod/cern/bhwide101/v99e/195.5/bhwide101_195.5_10683.xsdst ! RUN = 10683 ! NEVT = 3000
FILE = /castor/cern.ch/delphi/MCprod/cern/bhwide101/v99e/195.5/bhwide101_195.5_10684.xsdst ! RUN = 10684 ! NEVT = 2999
FILE = /castor/cern.ch/delphi/MCprod/cern/bhwide101/v99e/195.5/bhwide101_195.5_10685.xsdst ! RUN = 10685 ! NEVT = 2999
FILE = /castor/cern.ch/delphi/MCprod/cern/bhwide101/v99e/195.5/bhwide101_195.5_10686.xsdst ! RUN = 10686 ! NEVT = 3000
FILE = /castor/cern.ch/delphi/MCprod/cern/bhwide101/v99e/195.5/bhwide101_195.5_10687.xsdst ! RUN = 10687 ! NEVT = 3000
FILE = /castor/cern.ch/delphi/MCprod/cern/bhwide101/v99e/195.5/bhwide101_195.5_10688.xsdst ! RUN = 10688 ! NEVT = 3000
FILE = /castor/cern.ch/delphi/MCprod/cern/bhwide101/v99e/195.5/bhwide101_195.5_10689.xsdst ! RUN = 10689 ! NEVT = 3000
FILE = /castor/cern.ch/delphi/MCprod/cern/bhwide101/v99e/195.5/bhwide101_195.5_10690.xsdst ! RUN = 10690 ! NEVT = 3000
FILE = /castor/cern.ch/delphi/MCprod/cern/bhwide101/v99e/195.5/bhwide101_195.5_10691.xsdst ! RUN = 10691 ! NEVT = 3000
FILE = /castor/cern.ch/delphi/MCprod/cern/bhwide101/v99e/195.5/bhwide101_195.5_10692.xsdst ! RUN = 10692 ! NEVT = 3000
FILE = /castor/cern.ch/delphi/MCprod/cern/bhwide101/v99e/195.5/bhwide101_195.5_10693.xsdst ! RUN = 10693 ! NEVT = 3000
FILE = /castor/cern.ch/delphi/MCprod/cern/bhwide101/v99e/195.5/bhwide101_195.5_10694.xsdst ! RUN = 10694 ! NEVT = 3000
FILE = /castor/cern.ch/delphi/MCprod/cern/bhwide101/v99e/195.5/bhwide101_195.5_10695.xsdst ! RUN = 10695 ! NEVT = 3000
FILE = /castor/cern.ch/delphi/MCprod/cern/bhwide101/v99e/195.5/bhwide101_195.5_10696.xsdst ! RUN = 10696 ! NEVT = 3000
FILE = /castor/cern.ch/delphi/MCprod/cern/bhwide101/v99e/195.5/bhwide101_195.5_10697.xsdst ! RUN = 10697 ! NEVT = 3000
FILE = /castor/cern.ch/delphi/MCprod/cern/bhwide101/v99e/195.5/bhwide101_195.5_10698.xsdst ! RUN = 10698 ! NEVT = 3000
FILE = /castor/cern.ch/delphi/MCprod/cern/bhwide101/v99e/195.5/bhwide101_195.5_10699.xsdst ! RUN = 10699 ! NEVT = 3000
FILE = /castor/cern.ch/delphi/MCprod/cern/bhwide101/v99e/195.5/bhwide101_195.5_10700.xsdst ! RUN = 10700 ! NEVT = 3000
FILE = /castor/cern.ch/delphi/MCprod/cern/bhwide101/v99e/195.5/bhwide101_195.5_10701.xsdst ! RUN = 10701 ! NEVT = 3000
FILE = /castor/cern.ch/delphi/MCprod/cern/bhwide101/v99e/195.5/bhwide101_195.5_10702.xsdst ! RUN = 10702 ! NEVT = 3000
FILE = /castor/cern.ch/delphi/MCprod/cern/bhwide101/v99e/195.5/bhwide101_195.5_10703.xsdst ! RUN = 10703 ! NEVT = 3000
FILE = /castor/cern.ch/delphi/MCprod/cern/bhwide101/v99e/195.5/bhwide101_195.5_10704.xsdst ! RUN = 10704 ! NEVT = 3000
FILE = /castor/cern.ch/delphi/MCprod/cern/bhwide101/v99e/195.5/bhwide101_195.5_10705.xsdst ! RUN = 10705 ! NEVT = 3000
FILE = /castor/cern.ch/delphi/MCprod/cern/bhwide101/v99e/195.5/bhwide101_195.5_10706.xsdst ! RUN = 10706 ! NEVT = 3000
FILE = /castor/cern.ch/delphi/MCprod/cern/bhwide101/v99e/195.5/bhwide101_195.5_10707.xsdst ! RUN = 10707 ! NEVT = 3000
FILE = /castor/cern.ch/delphi/MCprod/cern/bhwide101/v99e/195.5/bhwide101_195.5_10708.xsdst ! RUN = 10708 ! NEVT = 2999
FILE = /castor/cern.ch/delphi/MCprod/cern/bhwide101/v99e/195.5/bhwide101_195.5_10709.xsdst ! RUN = 10709 ! NEVT = 3000
FILE = /castor/cern.ch/delphi/MCprod/cern/bhwide101/v99e/195.5/bhwide101_195.5_10710.xsdst ! RUN = 10710 ! NEVT = 3000
FILE = /castor/cern.ch/delphi/MCprod/cern/bhwide101/v99e/195.5/bhwide101_195.5_10711.xsdst ! RUN = 10711 ! NEVT = 3000
FILE = /castor/cern.ch/delphi/MCprod/cern/bhwide101/v99e/195.5/bhwide101_195.5_10712.xsdst ! RUN = 10712 ! NEVT = 3000
FILE = /castor/cern.ch/delphi/MCprod/cern/bhwide101/v99e/195.5/bhwide101_195.5_10713.xsdst ! RUN = 10713 ! NEVT = 3000
FILE = /castor/cern.ch/delphi/MCprod/cern/bhwide101/v99e/195.5/bhwide101_195.5_10714.xsdst ! RUN = 10714 ! NEVT = 3000
FILE = /castor/cern.ch/delphi/MCprod/cern/bhwide101/v99e/195.5/bhwide101_195.5_10715.xsdst ! RUN = 10715 ! NEVT = 3000
FILE = /castor/cern.ch/delphi/MCprod/cern/bhwide101/v99e/195.5/bhwide101_195.5_10716.xsdst ! RUN = 10716 ! NEVT = 3000
FILE = /castor/cern.ch/delphi/MCprod/cern/bhwide101/v99e/195.5/bhwide101_195.5_10717.xsdst ! RUN = 10717 ! NEVT = 3000
FILE = /castor/cern.ch/delphi/MCprod/cern/bhwide101/v99e/195.5/bhwide101_195.5_10718.xsdst ! RUN = 10718 ! NEVT = 3000
FILE = /castor/cern.ch/delphi/MCprod/cern/bhwide101/v99e/195.5/bhwide101_195.5_10719.xsdst ! RUN = 10719 ! NEVT = 3000
FILE = /castor/cern.ch/delphi/MCprod/cern/bhwide101/v99e/195.5/bhwide101_195.5_10720.xsdst ! RUN = 10720 ! NEVT = 3000
FILE = /castor/cern.ch/delphi/MCprod/cern/bhwide101/v99e/195.5/bhwide101_195.5_10721.xsdst ! RUN = 10721 ! NEVT = 3000
FILE = /castor/cern.ch/delphi/MCprod/cern/bhwide101/v99e/195.5/bhwide101_195.5_10722.xsdst ! RUN = 10722 ! NEVT = 3000
FILE = /castor/cern.ch/delphi/MCprod/cern/bhwide101/v99e/195.5/bhwide101_195.5_10723.xsdst ! RUN = 10723 ! NEVT = 3000
FILE = /castor/cern.ch/delphi/MCprod/cern/bhwide101/v99e/195.5/bhwide101_195.5_10724.xsdst ! RUN = 10724 ! NEVT = 3000
FILE = /castor/cern.ch/delphi/MCprod/cern/bhwide101/v99e/195.5/bhwide101_195.5_10725.xsdst ! RUN = 10725 ! NEVT = 3000
FILE = /castor/cern.ch/delphi/MCprod/cern/bhwide101/v99e/195.5/bhwide101_195.5_10726.xsdst ! RUN = 10726 ! NEVT = 3000
FILE = /castor/cern.ch/delphi/MCprod/cern/bhwide101/v99e/195.5/bhwide101_195.5_10727.xsdst ! RUN = 10727 ! NEVT = 3000
FILE = /castor/cern.ch/delphi/MCprod/cern/bhwide101/v99e/195.5/bhwide101_195.5_10728.xsdst ! RUN = 10728 ! NEVT = 3000
FILE = /castor/cern.ch/delphi/MCprod/cern/bhwide101/v99e/195.5/bhwide101_195.5_10729.xsdst ! RUN = 10729 ! NEVT = 3000
FILE = /castor/cern.ch/delphi/MCprod/cern/bhwide101/v99e/195.5/bhwide101_195.5_10730.xsdst ! RUN = 10730 ! NEVT = 3000
FILE = /castor/cern.ch/delphi/MCprod/cern/bhwide101/v99e/195.5/bhwide101_195.5_10731.xsdst ! RUN = 10731 ! NEVT = 3000
FILE = /castor/cern.ch/delphi/MCprod/cern/bhwide101/v99e/195.5/bhwide101_195.5_10732.xsdst ! RUN = 10732 ! NEVT = 3000
FILE = /castor/cern.ch/delphi/MCprod/cern/bhwide101/v99e/195.5/bhwide101_195.5_10733.xsdst ! RUN = 10733 ! NEVT = 3000
FILE = /castor/cern.ch/delphi/MCprod/cern/bhwide101/v99e/195.5/bhwide101_195.5_10734.xsdst ! RUN = 10734 ! NEVT = 3000
FILE = /castor/cern.ch/delphi/MCprod/cern/bhwide101/v99e/195.5/bhwide101_195.5_10735.xsdst ! RUN = 10735 ! NEVT = 3000
FILE = /castor/cern.ch/delphi/MCprod/cern/bhwide101/v99e/195.5/bhwide101_195.5_10736.xsdst ! RUN = 10736 ! NEVT = 3000
FILE = /castor/cern.ch/delphi/MCprod/cern/bhwide101/v99e/195.5/bhwide101_195.5_10737.xsdst ! RUN = 10737 ! NEVT = 3000
FILE = /castor/cern.ch/delphi/MCprod/cern/bhwide101/v99e/195.5/bhwide101_195.5_10738.xsdst ! RUN = 10738 ! NEVT = 3000
FILE = /castor/cern.ch/delphi/MCprod/cern/bhwide101/v99e/195.5/bhwide101_195.5_10739.xsdst ! RUN = 10739 ! NEVT = 3000
FILE = /castor/cern.ch/delphi/MCprod/cern/bhwide101/v99e/195.5/bhwide101_195.5_10740.xsdst ! RUN = 10740 ! NEVT = 2999
FILE = /castor/cern.ch/delphi/MCprod/cern/bhwide101/v99e/195.5/bhwide101_195.5_10741.xsdst ! RUN = 10741 ! NEVT = 3000
FILE = /castor/cern.ch/delphi/MCprod/cern/bhwide101/v99e/195.5/bhwide101_195.5_10742.xsdst ! RUN = 10742 ! NEVT = 3000
FILE = /castor/cern.ch/delphi/MCprod/cern/bhwide101/v99e/195.5/bhwide101_195.5_10743.xsdst ! RUN = 10743 ! NEVT = 3000
FILE = /castor/cern.ch/delphi/MCprod/cern/bhwide101/v99e/195.5/bhwide101_195.5_10744.xsdst ! RUN = 10744 ! NEVT = 3000
FILE = /castor/cern.ch/delphi/MCprod/cern/bhwide101/v99e/195.5/bhwide101_195.5_10745.xsdst ! RUN = 10745 ! NEVT = 3000
FILE = /castor/cern.ch/delphi/MCprod/cern/bhwide101/v99e/195.5/bhwide101_195.5_10746.xsdst ! RUN = 10746 ! NEVT = 3000
FILE = /castor/cern.ch/delphi/MCprod/cern/bhwide101/v99e/195.5/bhwide101_195.5_10747.xsdst ! RUN = 10747 ! NEVT = 3000
FILE = /castor/cern.ch/delphi/MCprod/cern/bhwide101/v99e/195.5/bhwide101_195.5_10748.xsdst ! RUN = 10748 ! NEVT = 3000
FILE = /castor/cern.ch/delphi/MCprod/cern/bhwide101/v99e/195.5/bhwide101_195.5_10749.xsdst ! RUN = 10749 ! NEVT = 3000
FILE = /castor/cern.ch/delphi/MCprod/cern/bhwide101/v99e/195.5/bhwide101_195.5_10750.xsdst ! RUN = 10750 ! NEVT = 3000
FILE = /castor/cern.ch/delphi/MCprod/cern/bhwide101/v99e/195.5/bhwide101_195.5_10751.xsdst ! RUN = 10751 ! NEVT = 3000
FILE = /castor/cern.ch/delphi/MCprod/cern/bhwide101/v99e/195.5/bhwide101_195.5_10752.xsdst ! RUN = 10752 ! NEVT = 3000
FILE = /castor/cern.ch/delphi/MCprod/cern/bhwide101/v99e/195.5/bhwide101_195.5_10753.xsdst ! RUN = 10753 ! NEVT = 2999
FILE = /castor/cern.ch/delphi/MCprod/cern/bhwide101/v99e/195.5/bhwide101_195.5_10754.xsdst ! RUN = 10754 ! NEVT = 3000
FILE = /castor/cern.ch/delphi/MCprod/cern/bhwide101/v99e/195.5/bhwide101_195.5_10755.xsdst ! RUN = 10755 ! NEVT = 3000
FILE = /castor/cern.ch/delphi/MCprod/cern/bhwide101/v99e/195.5/bhwide101_195.5_10756.xsdst ! RUN = 10756 ! NEVT = 3000
FILE = /castor/cern.ch/delphi/MCprod/cern/bhwide101/v99e/195.5/bhwide101_195.5_10757.xsdst ! RUN = 10757 ! NEVT = 3000
FILE = /castor/cern.ch/delphi/MCprod/cern/bhwide101/v99e/195.5/bhwide101_195.5_10758.xsdst ! RUN = 10758 ! NEVT = 3000
FILE = /castor/cern.ch/delphi/MCprod/cern/bhwide101/v99e/195.5/bhwide101_195.5_10759.xsdst ! RUN = 10759 ! NEVT = 3000
FILE = /castor/cern.ch/delphi/MCprod/cern/bhwide101/v99e/195.5/bhwide101_195.5_10760.xsdst ! RUN = 10760 ! NEVT = 3000
FILE = /castor/cern.ch/delphi/MCprod/cern/bhwide101/v99e/195.5/bhwide101_195.5_10761.xsdst ! RUN = 10761 ! NEVT = 3000
FILE = /castor/cern.ch/delphi/MCprod/cern/bhwide101/v99e/195.5/bhwide101_195.5_10762.xsdst ! RUN = 10762 ! NEVT = 3000
FILE = /castor/cern.ch/delphi/MCprod/cern/bhwide101/v99e/195.5/bhwide101_195.5_10763.xsdst ! RUN = 10763 ! NEVT = 3000
FILE = /castor/cern.ch/delphi/MCprod/cern/bhwide101/v99e/195.5/bhwide101_195.5_10764.xsdst ! RUN = 10764 ! NEVT = 3000
FILE = /castor/cern.ch/delphi/MCprod/cern/bhwide101/v99e/195.5/bhwide101_195.5_10765.xsdst ! RUN = 10765 ! NEVT = 3000
FILE = /castor/cern.ch/delphi/MCprod/cern/bhwide101/v99e/195.5/bhwide101_195.5_10766.xsdst ! RUN = 10766 ! NEVT = 3000
FILE = /castor/cern.ch/delphi/MCprod/cern/bhwide101/v99e/195.5/bhwide101_195.5_10767.xsdst ! RUN = 10767 ! NEVT = 3000
FILE = /castor/cern.ch/delphi/MCprod/cern/bhwide101/v99e/195.5/bhwide101_195.5_10768.xsdst ! RUN = 10768 ! NEVT = 3000
FILE = /castor/cern.ch/delphi/MCprod/cern/bhwide101/v99e/195.5/bhwide101_195.5_10769.xsdst ! RUN = 10769 ! NEVT = 3000
FILE = /castor/cern.ch/delphi/MCprod/cern/bhwide101/v99e/195.5/bhwide101_195.5_10770.xsdst ! RUN = 10770 ! NEVT = 3000
FILE = /castor/cern.ch/delphi/MCprod/cern/bhwide101/v99e/195.5/bhwide101_195.5_10771.xsdst ! RUN = 10771 ! NEVT = 3000
FILE = /castor/cern.ch/delphi/MCprod/cern/bhwide101/v99e/195.5/bhwide101_195.5_10772.xsdst ! RUN = 10772 ! NEVT = 3000
FILE = /castor/cern.ch/delphi/MCprod/cern/bhwide101/v99e/195.5/bhwide101_195.5_10773.xsdst ! RUN = 10773 ! NEVT = 3000
FILE = /castor/cern.ch/delphi/MCprod/cern/bhwide101/v99e/195.5/bhwide101_195.5_10774.xsdst ! RUN = 10774 ! NEVT = 3000
FILE = /castor/cern.ch/delphi/MCprod/cern/bhwide101/v99e/195.5/bhwide101_195.5_10775.xsdst ! RUN = 10775 ! NEVT = 3000
FILE = /castor/cern.ch/delphi/MCprod/cern/bhwide101/v99e/195.5/bhwide101_195.5_10776.xsdst ! RUN = 10776 ! NEVT = 3000
FILE = /castor/cern.ch/delphi/MCprod/cern/bhwide101/v99e/195.5/bhwide101_195.5_10777.xsdst ! RUN = 10777 ! NEVT = 3000
FILE = /castor/cern.ch/delphi/MCprod/cern/bhwide101/v99e/195.5/bhwide101_195.5_10778.xsdst ! RUN = 10778 ! NEVT = 3000
FILE = /castor/cern.ch/delphi/MCprod/cern/bhwide101/v99e/195.5/bhwide101_195.5_10779.xsdst ! RUN = 10779 ! NEVT = 3000
FILE = /castor/cern.ch/delphi/MCprod/cern/bhwide101/v99e/195.5/bhwide101_195.5_10780.xsdst ! RUN = 10780 ! NEVT = 3000
FILE = /castor/cern.ch/delphi/MCprod/cern/bhwide101/v99e/195.5/bhwide101_195.5_10781.xsdst ! RUN = 10781 ! NEVT = 3000
FILE = /castor/cern.ch/delphi/MCprod/cern/bhwide101/v99e/195.5/bhwide101_195.5_10782.xsdst ! RUN = 10782 ! NEVT = 3000
FILE = /castor/cern.ch/delphi/MCprod/cern/bhwide101/v99e/195.5/bhwide101_195.5_10783.xsdst ! RUN = 10783 ! NEVT = 3000
FILE = /castor/cern.ch/delphi/MCprod/cern/bhwide101/v99e/195.5/bhwide101_195.5_10784.xsdst ! RUN = 10784 ! NEVT = 3000
FILE = /castor/cern.ch/delphi/MCprod/cern/bhwide101/v99e/195.5/bhwide101_195.5_10785.xsdst ! RUN = 10785 ! NEVT = 3000
FILE = /castor/cern.ch/delphi/MCprod/cern/bhwide101/v99e/195.5/bhwide101_195.5_10786.xsdst ! RUN = 10786 ! NEVT = 3000
FILE = /castor/cern.ch/delphi/MCprod/cern/bhwide101/v99e/195.5/bhwide101_195.5_10787.xsdst ! RUN = 10787 ! NEVT = 3000
FILE = /castor/cern.ch/delphi/MCprod/cern/bhwide101/v99e/195.5/bhwide101_195.5_10788.xsdst ! RUN = 10788 ! NEVT = 3000
FILE = /castor/cern.ch/delphi/MCprod/cern/bhwide101/v99e/195.5/bhwide101_195.5_10789.xsdst ! RUN = 10789 ! NEVT = 3000
FILE = /castor/cern.ch/delphi/MCprod/cern/bhwide101/v99e/195.5/bhwide101_195.5_10790.xsdst ! RUN = 10790 ! NEVT = 2999
FILE = /castor/cern.ch/delphi/MCprod/cern/bhwide101/v99e/195.5/bhwide101_195.5_10791.xsdst ! RUN = 10791 ! NEVT = 3000
FILE = /castor/cern.ch/delphi/MCprod/cern/bhwide101/v99e/195.5/bhwide101_195.5_10792.xsdst ! RUN = 10792 ! NEVT = 3000
FILE = /castor/cern.ch/delphi/MCprod/cern/bhwide101/v99e/195.5/bhwide101_195.5_10793.xsdst ! RUN = 10793 ! NEVT = 3000
FILE = /castor/cern.ch/delphi/MCprod/cern/bhwide101/v99e/195.5/bhwide101_195.5_10794.xsdst ! RUN = 10794 ! NEVT = 3000
FILE = /castor/cern.ch/delphi/MCprod/cern/bhwide101/v99e/195.5/bhwide101_195.5_10795.xsdst ! RUN = 10795 ! NEVT = 3000
FILE = /castor/cern.ch/delphi/MCprod/cern/bhwide101/v99e/195.5/bhwide101_195.5_10796.xsdst ! RUN = 10796 ! NEVT = 3000
FILE = /castor/cern.ch/delphi/MCprod/cern/bhwide101/v99e/195.5/bhwide101_195.5_10797.xsdst ! RUN = 10797 ! NEVT = 3000
FILE = /castor/cern.ch/delphi/MCprod/cern/bhwide101/v99e/195.5/bhwide101_195.5_10798.xsdst ! RUN = 10798 ! NEVT = 3000
FILE = /castor/cern.ch/delphi/MCprod/cern/bhwide101/v99e/195.5/bhwide101_195.5_10799.xsdst ! RUN = 10799 ! NEVT = 3000
FILE = /castor/cern.ch/delphi/MCprod/cern/bhwide101/v99e/195.5/bhwide101_195.5_10800.xsdst ! RUN = 10800 ! NEVT = 3000
FILE = /castor/cern.ch/delphi/MCprod/cern/bhwide101/v99e/195.5/bhwide101_195.5_10801.xsdst ! RUN = 10801 ! NEVT = 3000
FILE = /castor/cern.ch/delphi/MCprod/cern/bhwide101/v99e/195.5/bhwide101_195.5_10802.xsdst ! RUN = 10802 ! NEVT = 3000
FILE = /castor/cern.ch/delphi/MCprod/cern/bhwide101/v99e/195.5/bhwide101_195.5_10803.xsdst ! RUN = 10803 ! NEVT = 3000
FILE = /castor/cern.ch/delphi/MCprod/cern/bhwide101/v99e/195.5/bhwide101_195.5_10804.xsdst ! RUN = 10804 ! NEVT = 3000
FILE = /castor/cern.ch/delphi/MCprod/cern/bhwide101/v99e/195.5/bhwide101_195.5_10805.xsdst ! RUN = 10805 ! NEVT = 3000
FILE = /castor/cern.ch/delphi/MCprod/cern/bhwide101/v99e/195.5/bhwide101_195.5_10806.xsdst ! RUN = 10806 ! NEVT = 3000
FILE = /castor/cern.ch/delphi/MCprod/cern/bhwide101/v99e/195.5/bhwide101_195.5_10807.xsdst ! RUN = 10807 ! NEVT = 3000
FILE = /castor/cern.ch/delphi/MCprod/cern/bhwide101/v99e/195.5/bhwide101_195.5_10808.xsdst ! RUN = 10808 ! NEVT = 3000
FILE = /castor/cern.ch/delphi/MCprod/cern/bhwide101/v99e/195.5/bhwide101_195.5_10809.xsdst ! RUN = 10809 ! NEVT = 3000
FILE = /castor/cern.ch/delphi/MCprod/cern/bhwide101/v99e/195.5/bhwide101_195.5_10810.xsdst ! RUN = 10810 ! NEVT = 3000
FILE = /castor/cern.ch/delphi/MCprod/cern/bhwide101/v99e/195.5/bhwide101_195.5_10811.xsdst ! RUN = 10811 ! NEVT = 2999
FILE = /castor/cern.ch/delphi/MCprod/cern/bhwide101/v99e/195.5/bhwide101_195.5_10812.xsdst ! RUN = 10812 ! NEVT = 3000
FILE = /castor/cern.ch/delphi/MCprod/cern/bhwide101/v99e/195.5/bhwide101_195.5_10813.xsdst ! RUN = 10813 ! NEVT = 3000
FILE = /castor/cern.ch/delphi/MCprod/cern/bhwide101/v99e/195.5/bhwide101_195.5_10814.xsdst ! RUN = 10814 ! NEVT = 3000
FILE = /castor/cern.ch/delphi/MCprod/cern/bhwide101/v99e/195.5/bhwide101_195.5_10815.xsdst ! RUN = 10815 ! NEVT = 3000
FILE = /castor/cern.ch/delphi/MCprod/cern/bhwide101/v99e/195.5/bhwide101_195.5_10816.xsdst ! RUN = 10816 ! NEVT = 3000
FILE = /castor/cern.ch/delphi/MCprod/cern/bhwide101/v99e/195.5/bhwide101_195.5_10817.xsdst ! RUN = 10817 ! NEVT = 3000
FILE = /castor/cern.ch/delphi/MCprod/cern/bhwide101/v99e/195.5/bhwide101_195.5_10818.xsdst ! RUN = 10818 ! NEVT = 3000
FILE = /castor/cern.ch/delphi/MCprod/cern/bhwide101/v99e/195.5/bhwide101_195.5_10819.xsdst ! RUN = 10819 ! NEVT = 3000
FILE = /castor/cern.ch/delphi/MCprod/cern/bhwide101/v99e/195.5/bhwide101_195.5_10820.xsdst ! RUN = 10820 ! NEVT = 3000
FILE = /castor/cern.ch/delphi/MCprod/cern/bhwide101/v99e/195.5/bhwide101_195.5_10821.xsdst ! RUN = 10821 ! NEVT = 3000
FILE = /castor/cern.ch/delphi/MCprod/cern/bhwide101/v99e/195.5/bhwide101_195.5_10822.xsdst ! RUN = 10822 ! NEVT = 3000
FILE = /castor/cern.ch/delphi/MCprod/cern/bhwide101/v99e/195.5/bhwide101_195.5_10823.xsdst ! RUN = 10823 ! NEVT = 3000
FILE = /castor/cern.ch/delphi/MCprod/cern/bhwide101/v99e/195.5/bhwide101_195.5_10824.xsdst ! RUN = 10824 ! NEVT = 2999
FILE = /castor/cern.ch/delphi/MCprod/cern/bhwide101/v99e/195.5/bhwide101_195.5_10825.xsdst ! RUN = 10825 ! NEVT = 3000
FILE = /castor/cern.ch/delphi/MCprod/cern/bhwide101/v99e/195.5/bhwide101_195.5_10826.xsdst ! RUN = 10826 ! NEVT = 2999
FILE = /castor/cern.ch/delphi/MCprod/cern/bhwide101/v99e/195.5/bhwide101_195.5_10827.xsdst ! RUN = 10827 ! NEVT = 2999
FILE = /castor/cern.ch/delphi/MCprod/cern/bhwide101/v99e/195.5/bhwide101_195.5_10828.xsdst ! RUN = 10828 ! NEVT = 2999
FILE = /castor/cern.ch/delphi/MCprod/cern/bhwide101/v99e/195.5/bhwide101_195.5_10829.xsdst ! RUN = 10829 ! NEVT = 3000
FILE = /castor/cern.ch/delphi/MCprod/cern/bhwide101/v99e/195.5/bhwide101_195.5_10830.xsdst ! RUN = 10830 ! NEVT = 3000
FILE = /castor/cern.ch/delphi/MCprod/cern/bhwide101/v99e/195.5/bhwide101_195.5_10831.xsdst ! RUN = 10831 ! NEVT = 233
FILE = /castor/cern.ch/delphi/MCprod/cern/bhwide101/v99e/195.5/bhwide101_195.5_10832.xsdst ! RUN = 10832 ! NEVT = 3000
FILE = /castor/cern.ch/delphi/MCprod/cern/bhwide101/v99e/195.5/bhwide101_195.5_10833.xsdst ! RUN = 10833 ! NEVT = 3000
FILE = /castor/cern.ch/delphi/MCprod/cern/bhwide101/v99e/195.5/bhwide101_195.5_10834.xsdst ! RUN = 10834 ! NEVT = 3000
FILE = /castor/cern.ch/delphi/MCprod/cern/bhwide101/v99e/195.5/bhwide101_195.5_10835.xsdst ! RUN = 10835 ! NEVT = 3000
FILE = /castor/cern.ch/delphi/MCprod/cern/bhwide101/v99e/195.5/bhwide101_195.5_10836.xsdst ! RUN = 10836 ! NEVT = 3000
FILE = /castor/cern.ch/delphi/MCprod/cern/bhwide101/v99e/195.5/bhwide101_195.5_10837.xsdst ! RUN = 10837 ! NEVT = 3000
FILE = /castor/cern.ch/delphi/MCprod/cern/bhwide101/v99e/195.5/bhwide101_195.5_10838.xsdst ! RUN = 10838 ! NEVT = 2999
FILE = /castor/cern.ch/delphi/MCprod/cern/bhwide101/v99e/195.5/bhwide101_195.5_10839.xsdst ! RUN = 10839 ! NEVT = 3000
FILE = /castor/cern.ch/delphi/MCprod/cern/bhwide101/v99e/195.5/bhwide101_195.5_10840.xsdst ! RUN = 10840 ! NEVT = 3000
FILE = /castor/cern.ch/delphi/MCprod/cern/bhwide101/v99e/195.5/bhwide101_195.5_10841.xsdst ! RUN = 10841 ! NEVT = 3000
FILE = /castor/cern.ch/delphi/MCprod/cern/bhwide101/v99e/195.5/bhwide101_195.5_10842.xsdst ! RUN = 10842 ! NEVT = 3000
FILE = /castor/cern.ch/delphi/MCprod/cern/bhwide101/v99e/195.5/bhwide101_195.5_10843.xsdst ! RUN = 10843 ! NEVT = 3000
FILE = /castor/cern.ch/delphi/MCprod/cern/bhwide101/v99e/195.5/bhwide101_195.5_10844.xsdst ! RUN = 10844 ! NEVT = 3000
FILE = /castor/cern.ch/delphi/MCprod/cern/bhwide101/v99e/195.5/bhwide101_195.5_10845.xsdst ! RUN = 10845 ! NEVT = 3000
FILE = /castor/cern.ch/delphi/MCprod/cern/bhwide101/v99e/195.5/bhwide101_195.5_10846.xsdst ! RUN = 10846 ! NEVT = 3000
FILE = /castor/cern.ch/delphi/MCprod/cern/bhwide101/v99e/195.5/bhwide101_195.5_10847.xsdst ! RUN = 10847 ! NEVT = 3000
FILE = /castor/cern.ch/delphi/MCprod/cern/bhwide101/v99e/195.5/bhwide101_195.5_10848.xsdst ! RUN = 10848 ! NEVT = 3000
FILE = /castor/cern.ch/delphi/MCprod/cern/bhwide101/v99e/195.5/bhwide101_195.5_10849.xsdst ! RUN = 10849 ! NEVT = 2999
FILE = /castor/cern.ch/delphi/MCprod/cern/bhwide101/v99e/195.5/bhwide101_195.5_10850.xsdst ! RUN = 10850 ! NEVT = 3000
FILE = /castor/cern.ch/delphi/MCprod/cern/bhwide101/v99e/195.5/bhwide101_195.5_10851.xsdst ! RUN = 10851 ! NEVT = 3000
FILE = /castor/cern.ch/delphi/MCprod/cern/bhwide101/v99e/195.5/bhwide101_195.5_10852.xsdst ! RUN = 10852 ! NEVT = 3000
FILE = /castor/cern.ch/delphi/MCprod/cern/bhwide101/v99e/195.5/bhwide101_195.5_10853.xsdst ! RUN = 10853 ! NEVT = 3000
FILE = /castor/cern.ch/delphi/MCprod/cern/bhwide101/v99e/195.5/bhwide101_195.5_10854.xsdst ! RUN = 10854 ! NEVT = 3000
FILE = /castor/cern.ch/delphi/MCprod/cern/bhwide101/v99e/195.5/bhwide101_195.5_10855.xsdst ! RUN = 10855 ! NEVT = 3000
FILE = /castor/cern.ch/delphi/MCprod/cern/bhwide101/v99e/195.5/bhwide101_195.5_10856.xsdst ! RUN = 10856 ! NEVT = 3000
FILE = /castor/cern.ch/delphi/MCprod/cern/bhwide101/v99e/195.5/bhwide101_195.5_10857.xsdst ! RUN = 10857 ! NEVT = 3000
FILE = /castor/cern.ch/delphi/MCprod/cern/bhwide101/v99e/195.5/bhwide101_195.5_10858.xsdst ! RUN = 10858 ! NEVT = 3000
FILE = /castor/cern.ch/delphi/MCprod/cern/bhwide101/v99e/195.5/bhwide101_195.5_10859.xsdst ! RUN = 10859 ! NEVT = 3000
FILE = /castor/cern.ch/delphi/MCprod/cern/bhwide101/v99e/195.5/bhwide101_195.5_10860.xsdst ! RUN = 10860 ! NEVT = 3000
FILE = /castor/cern.ch/delphi/MCprod/cern/bhwide101/v99e/195.5/bhwide101_195.5_10861.xsdst ! RUN = 10861 ! NEVT = 3000
FILE = /castor/cern.ch/delphi/MCprod/cern/bhwide101/v99e/195.5/bhwide101_195.5_10862.xsdst ! RUN = 10862 ! NEVT = 3000
FILE = /castor/cern.ch/delphi/MCprod/cern/bhwide101/v99e/195.5/bhwide101_195.5_10863.xsdst ! RUN = 10863 ! NEVT = 3000
FILE = /castor/cern.ch/delphi/MCprod/cern/bhwide101/v99e/195.5/bhwide101_195.5_10864.xsdst ! RUN = 10864 ! NEVT = 3000
FILE = /castor/cern.ch/delphi/MCprod/cern/bhwide101/v99e/195.5/bhwide101_195.5_10865.xsdst ! RUN = 10865 ! NEVT = 3000
FILE = /castor/cern.ch/delphi/MCprod/cern/bhwide101/v99e/195.5/bhwide101_195.5_10866.xsdst ! RUN = 10866 ! NEVT = 3000
FILE = /castor/cern.ch/delphi/MCprod/cern/bhwide101/v99e/195.5/bhwide101_195.5_10867.xsdst ! RUN = 10867 ! NEVT = 3000
FILE = /castor/cern.ch/delphi/MCprod/cern/bhwide101/v99e/195.5/bhwide101_195.5_10868.xsdst ! RUN = 10868 ! NEVT = 3000
