*
*   Nickname     : xs_bhwide101_e201.6_c99_1l_e1
*   Generic Name : //CERN/DELPHI/P02_SIMD/XSDST/BHWIDE101/E201.6/CERN/SUMT/C001-335
*   Description  :  Extended Short DST simulation 99_e1 done at ecms=201.6 , CERN
*---
*   Comments     : in total 998306 events in 335 files time stamp: Tue Aug 14 08:16:16 2001
*---
*
*
*
*
*
FILE = /castor/cern.ch/delphi/MCprod/cern/bhwide101/v99e/201.6/bhwide101_201.6_11210.xsdst ! RUN = 11210 ! NEVT = 3000
FILE = /castor/cern.ch/delphi/MCprod/cern/bhwide101/v99e/201.6/bhwide101_201.6_11211.xsdst ! RUN = 11211 ! NEVT = 3000
FILE = /castor/cern.ch/delphi/MCprod/cern/bhwide101/v99e/201.6/bhwide101_201.6_11212.xsdst ! RUN = 11212 ! NEVT = 3000
FILE = /castor/cern.ch/delphi/MCprod/cern/bhwide101/v99e/201.6/bhwide101_201.6_11213.xsdst ! RUN = 11213 ! NEVT = 3000
FILE = /castor/cern.ch/delphi/MCprod/cern/bhwide101/v99e/201.6/bhwide101_201.6_11214.xsdst ! RUN = 11214 ! NEVT = 3000
FILE = /castor/cern.ch/delphi/MCprod/cern/bhwide101/v99e/201.6/bhwide101_201.6_11215.xsdst ! RUN = 11215 ! NEVT = 3000
FILE = /castor/cern.ch/delphi/MCprod/cern/bhwide101/v99e/201.6/bhwide101_201.6_11216.xsdst ! RUN = 11216 ! NEVT = 3000
FILE = /castor/cern.ch/delphi/MCprod/cern/bhwide101/v99e/201.6/bhwide101_201.6_11217.xsdst ! RUN = 11217 ! NEVT = 2999
FILE = /castor/cern.ch/delphi/MCprod/cern/bhwide101/v99e/201.6/bhwide101_201.6_11218.xsdst ! RUN = 11218 ! NEVT = 3000
FILE = /castor/cern.ch/delphi/MCprod/cern/bhwide101/v99e/201.6/bhwide101_201.6_11219.xsdst ! RUN = 11219 ! NEVT = 2999
FILE = /castor/cern.ch/delphi/MCprod/cern/bhwide101/v99e/201.6/bhwide101_201.6_11220.xsdst ! RUN = 11220 ! NEVT = 3000
FILE = /castor/cern.ch/delphi/MCprod/cern/bhwide101/v99e/201.6/bhwide101_201.6_11221.xsdst ! RUN = 11221 ! NEVT = 3000
FILE = /castor/cern.ch/delphi/MCprod/cern/bhwide101/v99e/201.6/bhwide101_201.6_11222.xsdst ! RUN = 11222 ! NEVT = 3000
FILE = /castor/cern.ch/delphi/MCprod/cern/bhwide101/v99e/201.6/bhwide101_201.6_11223.xsdst ! RUN = 11223 ! NEVT = 3000
FILE = /castor/cern.ch/delphi/MCprod/cern/bhwide101/v99e/201.6/bhwide101_201.6_11224.xsdst ! RUN = 11224 ! NEVT = 3000
FILE = /castor/cern.ch/delphi/MCprod/cern/bhwide101/v99e/201.6/bhwide101_201.6_11225.xsdst ! RUN = 11225 ! NEVT = 3000
FILE = /castor/cern.ch/delphi/MCprod/cern/bhwide101/v99e/201.6/bhwide101_201.6_11226.xsdst ! RUN = 11226 ! NEVT = 3000
FILE = /castor/cern.ch/delphi/MCprod/cern/bhwide101/v99e/201.6/bhwide101_201.6_11227.xsdst ! RUN = 11227 ! NEVT = 3000
FILE = /castor/cern.ch/delphi/MCprod/cern/bhwide101/v99e/201.6/bhwide101_201.6_11228.xsdst ! RUN = 11228 ! NEVT = 3000
FILE = /castor/cern.ch/delphi/MCprod/cern/bhwide101/v99e/201.6/bhwide101_201.6_11229.xsdst ! RUN = 11229 ! NEVT = 3000
FILE = /castor/cern.ch/delphi/MCprod/cern/bhwide101/v99e/201.6/bhwide101_201.6_11230.xsdst ! RUN = 11230 ! NEVT = 3000
FILE = /castor/cern.ch/delphi/MCprod/cern/bhwide101/v99e/201.6/bhwide101_201.6_11231.xsdst ! RUN = 11231 ! NEVT = 3000
FILE = /castor/cern.ch/delphi/MCprod/cern/bhwide101/v99e/201.6/bhwide101_201.6_11232.xsdst ! RUN = 11232 ! NEVT = 3000
FILE = /castor/cern.ch/delphi/MCprod/cern/bhwide101/v99e/201.6/bhwide101_201.6_11233.xsdst ! RUN = 11233 ! NEVT = 3000
FILE = /castor/cern.ch/delphi/MCprod/cern/bhwide101/v99e/201.6/bhwide101_201.6_11234.xsdst ! RUN = 11234 ! NEVT = 3000
FILE = /castor/cern.ch/delphi/MCprod/cern/bhwide101/v99e/201.6/bhwide101_201.6_11235.xsdst ! RUN = 11235 ! NEVT = 3000
FILE = /castor/cern.ch/delphi/MCprod/cern/bhwide101/v99e/201.6/bhwide101_201.6_11236.xsdst ! RUN = 11236 ! NEVT = 3000
FILE = /castor/cern.ch/delphi/MCprod/cern/bhwide101/v99e/201.6/bhwide101_201.6_11237.xsdst ! RUN = 11237 ! NEVT = 3000
FILE = /castor/cern.ch/delphi/MCprod/cern/bhwide101/v99e/201.6/bhwide101_201.6_11238.xsdst ! RUN = 11238 ! NEVT = 3000
FILE = /castor/cern.ch/delphi/MCprod/cern/bhwide101/v99e/201.6/bhwide101_201.6_11239.xsdst ! RUN = 11239 ! NEVT = 3000
FILE = /castor/cern.ch/delphi/MCprod/cern/bhwide101/v99e/201.6/bhwide101_201.6_11240.xsdst ! RUN = 11240 ! NEVT = 3000
FILE = /castor/cern.ch/delphi/MCprod/cern/bhwide101/v99e/201.6/bhwide101_201.6_11241.xsdst ! RUN = 11241 ! NEVT = 3000
FILE = /castor/cern.ch/delphi/MCprod/cern/bhwide101/v99e/201.6/bhwide101_201.6_11242.xsdst ! RUN = 11242 ! NEVT = 3000
FILE = /castor/cern.ch/delphi/MCprod/cern/bhwide101/v99e/201.6/bhwide101_201.6_11243.xsdst ! RUN = 11243 ! NEVT = 3000
FILE = /castor/cern.ch/delphi/MCprod/cern/bhwide101/v99e/201.6/bhwide101_201.6_11244.xsdst ! RUN = 11244 ! NEVT = 3000
FILE = /castor/cern.ch/delphi/MCprod/cern/bhwide101/v99e/201.6/bhwide101_201.6_11245.xsdst ! RUN = 11245 ! NEVT = 3000
FILE = /castor/cern.ch/delphi/MCprod/cern/bhwide101/v99e/201.6/bhwide101_201.6_11246.xsdst ! RUN = 11246 ! NEVT = 3000
FILE = /castor/cern.ch/delphi/MCprod/cern/bhwide101/v99e/201.6/bhwide101_201.6_11247.xsdst ! RUN = 11247 ! NEVT = 3000
FILE = /castor/cern.ch/delphi/MCprod/cern/bhwide101/v99e/201.6/bhwide101_201.6_11248.xsdst ! RUN = 11248 ! NEVT = 3000
FILE = /castor/cern.ch/delphi/MCprod/cern/bhwide101/v99e/201.6/bhwide101_201.6_11249.xsdst ! RUN = 11249 ! NEVT = 3000
FILE = /castor/cern.ch/delphi/MCprod/cern/bhwide101/v99e/201.6/bhwide101_201.6_11250.xsdst ! RUN = 11250 ! NEVT = 3000
FILE = /castor/cern.ch/delphi/MCprod/cern/bhwide101/v99e/201.6/bhwide101_201.6_11251.xsdst ! RUN = 11251 ! NEVT = 3000
FILE = /castor/cern.ch/delphi/MCprod/cern/bhwide101/v99e/201.6/bhwide101_201.6_11252.xsdst ! RUN = 11252 ! NEVT = 2999
FILE = /castor/cern.ch/delphi/MCprod/cern/bhwide101/v99e/201.6/bhwide101_201.6_11253.xsdst ! RUN = 11253 ! NEVT = 3000
FILE = /castor/cern.ch/delphi/MCprod/cern/bhwide101/v99e/201.6/bhwide101_201.6_11254.xsdst ! RUN = 11254 ! NEVT = 3000
FILE = /castor/cern.ch/delphi/MCprod/cern/bhwide101/v99e/201.6/bhwide101_201.6_11255.xsdst ! RUN = 11255 ! NEVT = 3000
FILE = /castor/cern.ch/delphi/MCprod/cern/bhwide101/v99e/201.6/bhwide101_201.6_11256.xsdst ! RUN = 11256 ! NEVT = 3000
FILE = /castor/cern.ch/delphi/MCprod/cern/bhwide101/v99e/201.6/bhwide101_201.6_11257.xsdst ! RUN = 11257 ! NEVT = 779
FILE = /castor/cern.ch/delphi/MCprod/cern/bhwide101/v99e/201.6/bhwide101_201.6_11258.xsdst ! RUN = 11258 ! NEVT = 3000
FILE = /castor/cern.ch/delphi/MCprod/cern/bhwide101/v99e/201.6/bhwide101_201.6_11259.xsdst ! RUN = 11259 ! NEVT = 3000
FILE = /castor/cern.ch/delphi/MCprod/cern/bhwide101/v99e/201.6/bhwide101_201.6_11260.xsdst ! RUN = 11260 ! NEVT = 3000
FILE = /castor/cern.ch/delphi/MCprod/cern/bhwide101/v99e/201.6/bhwide101_201.6_11261.xsdst ! RUN = 11261 ! NEVT = 3000
FILE = /castor/cern.ch/delphi/MCprod/cern/bhwide101/v99e/201.6/bhwide101_201.6_11262.xsdst ! RUN = 11262 ! NEVT = 3000
FILE = /castor/cern.ch/delphi/MCprod/cern/bhwide101/v99e/201.6/bhwide101_201.6_11263.xsdst ! RUN = 11263 ! NEVT = 3000
FILE = /castor/cern.ch/delphi/MCprod/cern/bhwide101/v99e/201.6/bhwide101_201.6_11264.xsdst ! RUN = 11264 ! NEVT = 3000
FILE = /castor/cern.ch/delphi/MCprod/cern/bhwide101/v99e/201.6/bhwide101_201.6_11265.xsdst ! RUN = 11265 ! NEVT = 3000
FILE = /castor/cern.ch/delphi/MCprod/cern/bhwide101/v99e/201.6/bhwide101_201.6_11266.xsdst ! RUN = 11266 ! NEVT = 3000
FILE = /castor/cern.ch/delphi/MCprod/cern/bhwide101/v99e/201.6/bhwide101_201.6_11267.xsdst ! RUN = 11267 ! NEVT = 3000
FILE = /castor/cern.ch/delphi/MCprod/cern/bhwide101/v99e/201.6/bhwide101_201.6_11268.xsdst ! RUN = 11268 ! NEVT = 3000
FILE = /castor/cern.ch/delphi/MCprod/cern/bhwide101/v99e/201.6/bhwide101_201.6_11269.xsdst ! RUN = 11269 ! NEVT = 3000
FILE = /castor/cern.ch/delphi/MCprod/cern/bhwide101/v99e/201.6/bhwide101_201.6_11270.xsdst ! RUN = 11270 ! NEVT = 3000
FILE = /castor/cern.ch/delphi/MCprod/cern/bhwide101/v99e/201.6/bhwide101_201.6_11271.xsdst ! RUN = 11271 ! NEVT = 3000
FILE = /castor/cern.ch/delphi/MCprod/cern/bhwide101/v99e/201.6/bhwide101_201.6_11272.xsdst ! RUN = 11272 ! NEVT = 3000
FILE = /castor/cern.ch/delphi/MCprod/cern/bhwide101/v99e/201.6/bhwide101_201.6_11273.xsdst ! RUN = 11273 ! NEVT = 3000
FILE = /castor/cern.ch/delphi/MCprod/cern/bhwide101/v99e/201.6/bhwide101_201.6_11274.xsdst ! RUN = 11274 ! NEVT = 3000
FILE = /castor/cern.ch/delphi/MCprod/cern/bhwide101/v99e/201.6/bhwide101_201.6_11275.xsdst ! RUN = 11275 ! NEVT = 3000
FILE = /castor/cern.ch/delphi/MCprod/cern/bhwide101/v99e/201.6/bhwide101_201.6_11276.xsdst ! RUN = 11276 ! NEVT = 3000
FILE = /castor/cern.ch/delphi/MCprod/cern/bhwide101/v99e/201.6/bhwide101_201.6_11277.xsdst ! RUN = 11277 ! NEVT = 3000
FILE = /castor/cern.ch/delphi/MCprod/cern/bhwide101/v99e/201.6/bhwide101_201.6_11278.xsdst ! RUN = 11278 ! NEVT = 3000
FILE = /castor/cern.ch/delphi/MCprod/cern/bhwide101/v99e/201.6/bhwide101_201.6_11279.xsdst ! RUN = 11279 ! NEVT = 3000
FILE = /castor/cern.ch/delphi/MCprod/cern/bhwide101/v99e/201.6/bhwide101_201.6_11280.xsdst ! RUN = 11280 ! NEVT = 3000
FILE = /castor/cern.ch/delphi/MCprod/cern/bhwide101/v99e/201.6/bhwide101_201.6_11281.xsdst ! RUN = 11281 ! NEVT = 3000
FILE = /castor/cern.ch/delphi/MCprod/cern/bhwide101/v99e/201.6/bhwide101_201.6_11282.xsdst ! RUN = 11282 ! NEVT = 3000
FILE = /castor/cern.ch/delphi/MCprod/cern/bhwide101/v99e/201.6/bhwide101_201.6_11283.xsdst ! RUN = 11283 ! NEVT = 3000
FILE = /castor/cern.ch/delphi/MCprod/cern/bhwide101/v99e/201.6/bhwide101_201.6_11284.xsdst ! RUN = 11284 ! NEVT = 2999
FILE = /castor/cern.ch/delphi/MCprod/cern/bhwide101/v99e/201.6/bhwide101_201.6_11285.xsdst ! RUN = 11285 ! NEVT = 3000
FILE = /castor/cern.ch/delphi/MCprod/cern/bhwide101/v99e/201.6/bhwide101_201.6_11286.xsdst ! RUN = 11286 ! NEVT = 3000
FILE = /castor/cern.ch/delphi/MCprod/cern/bhwide101/v99e/201.6/bhwide101_201.6_11287.xsdst ! RUN = 11287 ! NEVT = 3000
FILE = /castor/cern.ch/delphi/MCprod/cern/bhwide101/v99e/201.6/bhwide101_201.6_11288.xsdst ! RUN = 11288 ! NEVT = 3000
FILE = /castor/cern.ch/delphi/MCprod/cern/bhwide101/v99e/201.6/bhwide101_201.6_11289.xsdst ! RUN = 11289 ! NEVT = 3000
FILE = /castor/cern.ch/delphi/MCprod/cern/bhwide101/v99e/201.6/bhwide101_201.6_11290.xsdst ! RUN = 11290 ! NEVT = 3000
FILE = /castor/cern.ch/delphi/MCprod/cern/bhwide101/v99e/201.6/bhwide101_201.6_11291.xsdst ! RUN = 11291 ! NEVT = 3000
FILE = /castor/cern.ch/delphi/MCprod/cern/bhwide101/v99e/201.6/bhwide101_201.6_11292.xsdst ! RUN = 11292 ! NEVT = 3000
FILE = /castor/cern.ch/delphi/MCprod/cern/bhwide101/v99e/201.6/bhwide101_201.6_11293.xsdst ! RUN = 11293 ! NEVT = 3000
FILE = /castor/cern.ch/delphi/MCprod/cern/bhwide101/v99e/201.6/bhwide101_201.6_11294.xsdst ! RUN = 11294 ! NEVT = 3000
FILE = /castor/cern.ch/delphi/MCprod/cern/bhwide101/v99e/201.6/bhwide101_201.6_11295.xsdst ! RUN = 11295 ! NEVT = 3000
FILE = /castor/cern.ch/delphi/MCprod/cern/bhwide101/v99e/201.6/bhwide101_201.6_11296.xsdst ! RUN = 11296 ! NEVT = 3000
FILE = /castor/cern.ch/delphi/MCprod/cern/bhwide101/v99e/201.6/bhwide101_201.6_11297.xsdst ! RUN = 11297 ! NEVT = 3000
FILE = /castor/cern.ch/delphi/MCprod/cern/bhwide101/v99e/201.6/bhwide101_201.6_11298.xsdst ! RUN = 11298 ! NEVT = 3000
FILE = /castor/cern.ch/delphi/MCprod/cern/bhwide101/v99e/201.6/bhwide101_201.6_11299.xsdst ! RUN = 11299 ! NEVT = 3000
FILE = /castor/cern.ch/delphi/MCprod/cern/bhwide101/v99e/201.6/bhwide101_201.6_11300.xsdst ! RUN = 11300 ! NEVT = 3000
FILE = /castor/cern.ch/delphi/MCprod/cern/bhwide101/v99e/201.6/bhwide101_201.6_11301.xsdst ! RUN = 11301 ! NEVT = 3000
FILE = /castor/cern.ch/delphi/MCprod/cern/bhwide101/v99e/201.6/bhwide101_201.6_11302.xsdst ! RUN = 11302 ! NEVT = 3000
FILE = /castor/cern.ch/delphi/MCprod/cern/bhwide101/v99e/201.6/bhwide101_201.6_11303.xsdst ! RUN = 11303 ! NEVT = 2999
FILE = /castor/cern.ch/delphi/MCprod/cern/bhwide101/v99e/201.6/bhwide101_201.6_11304.xsdst ! RUN = 11304 ! NEVT = 3000
FILE = /castor/cern.ch/delphi/MCprod/cern/bhwide101/v99e/201.6/bhwide101_201.6_11305.xsdst ! RUN = 11305 ! NEVT = 3000
FILE = /castor/cern.ch/delphi/MCprod/cern/bhwide101/v99e/201.6/bhwide101_201.6_11306.xsdst ! RUN = 11306 ! NEVT = 3000
FILE = /castor/cern.ch/delphi/MCprod/cern/bhwide101/v99e/201.6/bhwide101_201.6_11307.xsdst ! RUN = 11307 ! NEVT = 3000
FILE = /castor/cern.ch/delphi/MCprod/cern/bhwide101/v99e/201.6/bhwide101_201.6_11308.xsdst ! RUN = 11308 ! NEVT = 3000
FILE = /castor/cern.ch/delphi/MCprod/cern/bhwide101/v99e/201.6/bhwide101_201.6_11309.xsdst ! RUN = 11309 ! NEVT = 3000
FILE = /castor/cern.ch/delphi/MCprod/cern/bhwide101/v99e/201.6/bhwide101_201.6_11310.xsdst ! RUN = 11310 ! NEVT = 3000
FILE = /castor/cern.ch/delphi/MCprod/cern/bhwide101/v99e/201.6/bhwide101_201.6_11311.xsdst ! RUN = 11311 ! NEVT = 3000
FILE = /castor/cern.ch/delphi/MCprod/cern/bhwide101/v99e/201.6/bhwide101_201.6_11312.xsdst ! RUN = 11312 ! NEVT = 3000
FILE = /castor/cern.ch/delphi/MCprod/cern/bhwide101/v99e/201.6/bhwide101_201.6_11313.xsdst ! RUN = 11313 ! NEVT = 3000
FILE = /castor/cern.ch/delphi/MCprod/cern/bhwide101/v99e/201.6/bhwide101_201.6_11314.xsdst ! RUN = 11314 ! NEVT = 3000
FILE = /castor/cern.ch/delphi/MCprod/cern/bhwide101/v99e/201.6/bhwide101_201.6_11315.xsdst ! RUN = 11315 ! NEVT = 3000
FILE = /castor/cern.ch/delphi/MCprod/cern/bhwide101/v99e/201.6/bhwide101_201.6_11316.xsdst ! RUN = 11316 ! NEVT = 3000
FILE = /castor/cern.ch/delphi/MCprod/cern/bhwide101/v99e/201.6/bhwide101_201.6_11317.xsdst ! RUN = 11317 ! NEVT = 3000
FILE = /castor/cern.ch/delphi/MCprod/cern/bhwide101/v99e/201.6/bhwide101_201.6_11318.xsdst ! RUN = 11318 ! NEVT = 3000
FILE = /castor/cern.ch/delphi/MCprod/cern/bhwide101/v99e/201.6/bhwide101_201.6_11319.xsdst ! RUN = 11319 ! NEVT = 3000
FILE = /castor/cern.ch/delphi/MCprod/cern/bhwide101/v99e/201.6/bhwide101_201.6_11320.xsdst ! RUN = 11320 ! NEVT = 3000
FILE = /castor/cern.ch/delphi/MCprod/cern/bhwide101/v99e/201.6/bhwide101_201.6_11321.xsdst ! RUN = 11321 ! NEVT = 3000
FILE = /castor/cern.ch/delphi/MCprod/cern/bhwide101/v99e/201.6/bhwide101_201.6_11322.xsdst ! RUN = 11322 ! NEVT = 3000
FILE = /castor/cern.ch/delphi/MCprod/cern/bhwide101/v99e/201.6/bhwide101_201.6_11323.xsdst ! RUN = 11323 ! NEVT = 3000
FILE = /castor/cern.ch/delphi/MCprod/cern/bhwide101/v99e/201.6/bhwide101_201.6_11324.xsdst ! RUN = 11324 ! NEVT = 3000
FILE = /castor/cern.ch/delphi/MCprod/cern/bhwide101/v99e/201.6/bhwide101_201.6_11325.xsdst ! RUN = 11325 ! NEVT = 3000
FILE = /castor/cern.ch/delphi/MCprod/cern/bhwide101/v99e/201.6/bhwide101_201.6_11326.xsdst ! RUN = 11326 ! NEVT = 3000
FILE = /castor/cern.ch/delphi/MCprod/cern/bhwide101/v99e/201.6/bhwide101_201.6_11327.xsdst ! RUN = 11327 ! NEVT = 3000
FILE = /castor/cern.ch/delphi/MCprod/cern/bhwide101/v99e/201.6/bhwide101_201.6_11328.xsdst ! RUN = 11328 ! NEVT = 3000
FILE = /castor/cern.ch/delphi/MCprod/cern/bhwide101/v99e/201.6/bhwide101_201.6_11329.xsdst ! RUN = 11329 ! NEVT = 3000
FILE = /castor/cern.ch/delphi/MCprod/cern/bhwide101/v99e/201.6/bhwide101_201.6_11330.xsdst ! RUN = 11330 ! NEVT = 3000
FILE = /castor/cern.ch/delphi/MCprod/cern/bhwide101/v99e/201.6/bhwide101_201.6_11331.xsdst ! RUN = 11331 ! NEVT = 3000
FILE = /castor/cern.ch/delphi/MCprod/cern/bhwide101/v99e/201.6/bhwide101_201.6_11332.xsdst ! RUN = 11332 ! NEVT = 3000
FILE = /castor/cern.ch/delphi/MCprod/cern/bhwide101/v99e/201.6/bhwide101_201.6_11333.xsdst ! RUN = 11333 ! NEVT = 3000
FILE = /castor/cern.ch/delphi/MCprod/cern/bhwide101/v99e/201.6/bhwide101_201.6_11334.xsdst ! RUN = 11334 ! NEVT = 3000
FILE = /castor/cern.ch/delphi/MCprod/cern/bhwide101/v99e/201.6/bhwide101_201.6_11335.xsdst ! RUN = 11335 ! NEVT = 3000
FILE = /castor/cern.ch/delphi/MCprod/cern/bhwide101/v99e/201.6/bhwide101_201.6_11336.xsdst ! RUN = 11336 ! NEVT = 3000
FILE = /castor/cern.ch/delphi/MCprod/cern/bhwide101/v99e/201.6/bhwide101_201.6_11337.xsdst ! RUN = 11337 ! NEVT = 3000
FILE = /castor/cern.ch/delphi/MCprod/cern/bhwide101/v99e/201.6/bhwide101_201.6_11338.xsdst ! RUN = 11338 ! NEVT = 3000
FILE = /castor/cern.ch/delphi/MCprod/cern/bhwide101/v99e/201.6/bhwide101_201.6_11339.xsdst ! RUN = 11339 ! NEVT = 2999
FILE = /castor/cern.ch/delphi/MCprod/cern/bhwide101/v99e/201.6/bhwide101_201.6_11340.xsdst ! RUN = 11340 ! NEVT = 3000
FILE = /castor/cern.ch/delphi/MCprod/cern/bhwide101/v99e/201.6/bhwide101_201.6_11341.xsdst ! RUN = 11341 ! NEVT = 3000
FILE = /castor/cern.ch/delphi/MCprod/cern/bhwide101/v99e/201.6/bhwide101_201.6_11342.xsdst ! RUN = 11342 ! NEVT = 3000
FILE = /castor/cern.ch/delphi/MCprod/cern/bhwide101/v99e/201.6/bhwide101_201.6_11343.xsdst ! RUN = 11343 ! NEVT = 3000
FILE = /castor/cern.ch/delphi/MCprod/cern/bhwide101/v99e/201.6/bhwide101_201.6_11344.xsdst ! RUN = 11344 ! NEVT = 3000
FILE = /castor/cern.ch/delphi/MCprod/cern/bhwide101/v99e/201.6/bhwide101_201.6_11345.xsdst ! RUN = 11345 ! NEVT = 3000
FILE = /castor/cern.ch/delphi/MCprod/cern/bhwide101/v99e/201.6/bhwide101_201.6_11346.xsdst ! RUN = 11346 ! NEVT = 3000
FILE = /castor/cern.ch/delphi/MCprod/cern/bhwide101/v99e/201.6/bhwide101_201.6_11347.xsdst ! RUN = 11347 ! NEVT = 3000
FILE = /castor/cern.ch/delphi/MCprod/cern/bhwide101/v99e/201.6/bhwide101_201.6_11348.xsdst ! RUN = 11348 ! NEVT = 3000
FILE = /castor/cern.ch/delphi/MCprod/cern/bhwide101/v99e/201.6/bhwide101_201.6_11349.xsdst ! RUN = 11349 ! NEVT = 3000
FILE = /castor/cern.ch/delphi/MCprod/cern/bhwide101/v99e/201.6/bhwide101_201.6_11350.xsdst ! RUN = 11350 ! NEVT = 3000
FILE = /castor/cern.ch/delphi/MCprod/cern/bhwide101/v99e/201.6/bhwide101_201.6_11351.xsdst ! RUN = 11351 ! NEVT = 2999
FILE = /castor/cern.ch/delphi/MCprod/cern/bhwide101/v99e/201.6/bhwide101_201.6_11352.xsdst ! RUN = 11352 ! NEVT = 3000
FILE = /castor/cern.ch/delphi/MCprod/cern/bhwide101/v99e/201.6/bhwide101_201.6_11353.xsdst ! RUN = 11353 ! NEVT = 3000
FILE = /castor/cern.ch/delphi/MCprod/cern/bhwide101/v99e/201.6/bhwide101_201.6_11354.xsdst ! RUN = 11354 ! NEVT = 3000
FILE = /castor/cern.ch/delphi/MCprod/cern/bhwide101/v99e/201.6/bhwide101_201.6_11355.xsdst ! RUN = 11355 ! NEVT = 3000
FILE = /castor/cern.ch/delphi/MCprod/cern/bhwide101/v99e/201.6/bhwide101_201.6_11356.xsdst ! RUN = 11356 ! NEVT = 2999
FILE = /castor/cern.ch/delphi/MCprod/cern/bhwide101/v99e/201.6/bhwide101_201.6_11357.xsdst ! RUN = 11357 ! NEVT = 3000
FILE = /castor/cern.ch/delphi/MCprod/cern/bhwide101/v99e/201.6/bhwide101_201.6_11358.xsdst ! RUN = 11358 ! NEVT = 3000
FILE = /castor/cern.ch/delphi/MCprod/cern/bhwide101/v99e/201.6/bhwide101_201.6_11359.xsdst ! RUN = 11359 ! NEVT = 3000
FILE = /castor/cern.ch/delphi/MCprod/cern/bhwide101/v99e/201.6/bhwide101_201.6_11360.xsdst ! RUN = 11360 ! NEVT = 3000
FILE = /castor/cern.ch/delphi/MCprod/cern/bhwide101/v99e/201.6/bhwide101_201.6_11361.xsdst ! RUN = 11361 ! NEVT = 3000
FILE = /castor/cern.ch/delphi/MCprod/cern/bhwide101/v99e/201.6/bhwide101_201.6_11362.xsdst ! RUN = 11362 ! NEVT = 3000
FILE = /castor/cern.ch/delphi/MCprod/cern/bhwide101/v99e/201.6/bhwide101_201.6_11363.xsdst ! RUN = 11363 ! NEVT = 3000
FILE = /castor/cern.ch/delphi/MCprod/cern/bhwide101/v99e/201.6/bhwide101_201.6_11364.xsdst ! RUN = 11364 ! NEVT = 3000
FILE = /castor/cern.ch/delphi/MCprod/cern/bhwide101/v99e/201.6/bhwide101_201.6_11365.xsdst ! RUN = 11365 ! NEVT = 3000
FILE = /castor/cern.ch/delphi/MCprod/cern/bhwide101/v99e/201.6/bhwide101_201.6_11366.xsdst ! RUN = 11366 ! NEVT = 3000
FILE = /castor/cern.ch/delphi/MCprod/cern/bhwide101/v99e/201.6/bhwide101_201.6_11367.xsdst ! RUN = 11367 ! NEVT = 3000
FILE = /castor/cern.ch/delphi/MCprod/cern/bhwide101/v99e/201.6/bhwide101_201.6_11368.xsdst ! RUN = 11368 ! NEVT = 3000
FILE = /castor/cern.ch/delphi/MCprod/cern/bhwide101/v99e/201.6/bhwide101_201.6_11369.xsdst ! RUN = 11369 ! NEVT = 3000
FILE = /castor/cern.ch/delphi/MCprod/cern/bhwide101/v99e/201.6/bhwide101_201.6_11370.xsdst ! RUN = 11370 ! NEVT = 3000
FILE = /castor/cern.ch/delphi/MCprod/cern/bhwide101/v99e/201.6/bhwide101_201.6_11371.xsdst ! RUN = 11371 ! NEVT = 2999
FILE = /castor/cern.ch/delphi/MCprod/cern/bhwide101/v99e/201.6/bhwide101_201.6_11372.xsdst ! RUN = 11372 ! NEVT = 3000
FILE = /castor/cern.ch/delphi/MCprod/cern/bhwide101/v99e/201.6/bhwide101_201.6_11373.xsdst ! RUN = 11373 ! NEVT = 3000
FILE = /castor/cern.ch/delphi/MCprod/cern/bhwide101/v99e/201.6/bhwide101_201.6_11374.xsdst ! RUN = 11374 ! NEVT = 3000
FILE = /castor/cern.ch/delphi/MCprod/cern/bhwide101/v99e/201.6/bhwide101_201.6_11375.xsdst ! RUN = 11375 ! NEVT = 3000
FILE = /castor/cern.ch/delphi/MCprod/cern/bhwide101/v99e/201.6/bhwide101_201.6_11376.xsdst ! RUN = 11376 ! NEVT = 3000
FILE = /castor/cern.ch/delphi/MCprod/cern/bhwide101/v99e/201.6/bhwide101_201.6_11377.xsdst ! RUN = 11377 ! NEVT = 3000
FILE = /castor/cern.ch/delphi/MCprod/cern/bhwide101/v99e/201.6/bhwide101_201.6_11378.xsdst ! RUN = 11378 ! NEVT = 3000
FILE = /castor/cern.ch/delphi/MCprod/cern/bhwide101/v99e/201.6/bhwide101_201.6_11379.xsdst ! RUN = 11379 ! NEVT = 3000
FILE = /castor/cern.ch/delphi/MCprod/cern/bhwide101/v99e/201.6/bhwide101_201.6_11380.xsdst ! RUN = 11380 ! NEVT = 3000
FILE = /castor/cern.ch/delphi/MCprod/cern/bhwide101/v99e/201.6/bhwide101_201.6_11381.xsdst ! RUN = 11381 ! NEVT = 3000
FILE = /castor/cern.ch/delphi/MCprod/cern/bhwide101/v99e/201.6/bhwide101_201.6_11382.xsdst ! RUN = 11382 ! NEVT = 3000
FILE = /castor/cern.ch/delphi/MCprod/cern/bhwide101/v99e/201.6/bhwide101_201.6_11383.xsdst ! RUN = 11383 ! NEVT = 3000
FILE = /castor/cern.ch/delphi/MCprod/cern/bhwide101/v99e/201.6/bhwide101_201.6_11384.xsdst ! RUN = 11384 ! NEVT = 3000
FILE = /castor/cern.ch/delphi/MCprod/cern/bhwide101/v99e/201.6/bhwide101_201.6_11385.xsdst ! RUN = 11385 ! NEVT = 3000
FILE = /castor/cern.ch/delphi/MCprod/cern/bhwide101/v99e/201.6/bhwide101_201.6_11386.xsdst ! RUN = 11386 ! NEVT = 3000
FILE = /castor/cern.ch/delphi/MCprod/cern/bhwide101/v99e/201.6/bhwide101_201.6_11387.xsdst ! RUN = 11387 ! NEVT = 3000
FILE = /castor/cern.ch/delphi/MCprod/cern/bhwide101/v99e/201.6/bhwide101_201.6_11388.xsdst ! RUN = 11388 ! NEVT = 3000
FILE = /castor/cern.ch/delphi/MCprod/cern/bhwide101/v99e/201.6/bhwide101_201.6_11389.xsdst ! RUN = 11389 ! NEVT = 3000
FILE = /castor/cern.ch/delphi/MCprod/cern/bhwide101/v99e/201.6/bhwide101_201.6_11390.xsdst ! RUN = 11390 ! NEVT = 3000
FILE = /castor/cern.ch/delphi/MCprod/cern/bhwide101/v99e/201.6/bhwide101_201.6_11391.xsdst ! RUN = 11391 ! NEVT = 3000
FILE = /castor/cern.ch/delphi/MCprod/cern/bhwide101/v99e/201.6/bhwide101_201.6_11392.xsdst ! RUN = 11392 ! NEVT = 3000
FILE = /castor/cern.ch/delphi/MCprod/cern/bhwide101/v99e/201.6/bhwide101_201.6_11393.xsdst ! RUN = 11393 ! NEVT = 3000
FILE = /castor/cern.ch/delphi/MCprod/cern/bhwide101/v99e/201.6/bhwide101_201.6_11394.xsdst ! RUN = 11394 ! NEVT = 3000
FILE = /castor/cern.ch/delphi/MCprod/cern/bhwide101/v99e/201.6/bhwide101_201.6_11395.xsdst ! RUN = 11395 ! NEVT = 3000
FILE = /castor/cern.ch/delphi/MCprod/cern/bhwide101/v99e/201.6/bhwide101_201.6_11396.xsdst ! RUN = 11396 ! NEVT = 3000
FILE = /castor/cern.ch/delphi/MCprod/cern/bhwide101/v99e/201.6/bhwide101_201.6_11397.xsdst ! RUN = 11397 ! NEVT = 3000
FILE = /castor/cern.ch/delphi/MCprod/cern/bhwide101/v99e/201.6/bhwide101_201.6_11398.xsdst ! RUN = 11398 ! NEVT = 3000
FILE = /castor/cern.ch/delphi/MCprod/cern/bhwide101/v99e/201.6/bhwide101_201.6_11399.xsdst ! RUN = 11399 ! NEVT = 3000
FILE = /castor/cern.ch/delphi/MCprod/cern/bhwide101/v99e/201.6/bhwide101_201.6_11400.xsdst ! RUN = 11400 ! NEVT = 3000
FILE = /castor/cern.ch/delphi/MCprod/cern/bhwide101/v99e/201.6/bhwide101_201.6_11401.xsdst ! RUN = 11401 ! NEVT = 2999
FILE = /castor/cern.ch/delphi/MCprod/cern/bhwide101/v99e/201.6/bhwide101_201.6_11402.xsdst ! RUN = 11402 ! NEVT = 3000
FILE = /castor/cern.ch/delphi/MCprod/cern/bhwide101/v99e/201.6/bhwide101_201.6_11403.xsdst ! RUN = 11403 ! NEVT = 2999
FILE = /castor/cern.ch/delphi/MCprod/cern/bhwide101/v99e/201.6/bhwide101_201.6_11404.xsdst ! RUN = 11404 ! NEVT = 3000
FILE = /castor/cern.ch/delphi/MCprod/cern/bhwide101/v99e/201.6/bhwide101_201.6_11405.xsdst ! RUN = 11405 ! NEVT = 3000
FILE = /castor/cern.ch/delphi/MCprod/cern/bhwide101/v99e/201.6/bhwide101_201.6_11406.xsdst ! RUN = 11406 ! NEVT = 3000
FILE = /castor/cern.ch/delphi/MCprod/cern/bhwide101/v99e/201.6/bhwide101_201.6_11407.xsdst ! RUN = 11407 ! NEVT = 2999
FILE = /castor/cern.ch/delphi/MCprod/cern/bhwide101/v99e/201.6/bhwide101_201.6_11408.xsdst ! RUN = 11408 ! NEVT = 3000
FILE = /castor/cern.ch/delphi/MCprod/cern/bhwide101/v99e/201.6/bhwide101_201.6_11409.xsdst ! RUN = 11409 ! NEVT = 3000
FILE = /castor/cern.ch/delphi/MCprod/cern/bhwide101/v99e/201.6/bhwide101_201.6_11410.xsdst ! RUN = 11410 ! NEVT = 3000
FILE = /castor/cern.ch/delphi/MCprod/cern/bhwide101/v99e/201.6/bhwide101_201.6_11411.xsdst ! RUN = 11411 ! NEVT = 3000
FILE = /castor/cern.ch/delphi/MCprod/cern/bhwide101/v99e/201.6/bhwide101_201.6_11412.xsdst ! RUN = 11412 ! NEVT = 3000
FILE = /castor/cern.ch/delphi/MCprod/cern/bhwide101/v99e/201.6/bhwide101_201.6_11413.xsdst ! RUN = 11413 ! NEVT = 2999
FILE = /castor/cern.ch/delphi/MCprod/cern/bhwide101/v99e/201.6/bhwide101_201.6_11414.xsdst ! RUN = 11414 ! NEVT = 3000
FILE = /castor/cern.ch/delphi/MCprod/cern/bhwide101/v99e/201.6/bhwide101_201.6_11415.xsdst ! RUN = 11415 ! NEVT = 3000
FILE = /castor/cern.ch/delphi/MCprod/cern/bhwide101/v99e/201.6/bhwide101_201.6_11416.xsdst ! RUN = 11416 ! NEVT = 3000
FILE = /castor/cern.ch/delphi/MCprod/cern/bhwide101/v99e/201.6/bhwide101_201.6_11417.xsdst ! RUN = 11417 ! NEVT = 3000
FILE = /castor/cern.ch/delphi/MCprod/cern/bhwide101/v99e/201.6/bhwide101_201.6_11418.xsdst ! RUN = 11418 ! NEVT = 3000
FILE = /castor/cern.ch/delphi/MCprod/cern/bhwide101/v99e/201.6/bhwide101_201.6_11419.xsdst ! RUN = 11419 ! NEVT = 2999
FILE = /castor/cern.ch/delphi/MCprod/cern/bhwide101/v99e/201.6/bhwide101_201.6_11420.xsdst ! RUN = 11420 ! NEVT = 3000
FILE = /castor/cern.ch/delphi/MCprod/cern/bhwide101/v99e/201.6/bhwide101_201.6_11421.xsdst ! RUN = 11421 ! NEVT = 3000
FILE = /castor/cern.ch/delphi/MCprod/cern/bhwide101/v99e/201.6/bhwide101_201.6_11422.xsdst ! RUN = 11422 ! NEVT = 3000
FILE = /castor/cern.ch/delphi/MCprod/cern/bhwide101/v99e/201.6/bhwide101_201.6_11423.xsdst ! RUN = 11423 ! NEVT = 3000
FILE = /castor/cern.ch/delphi/MCprod/cern/bhwide101/v99e/201.6/bhwide101_201.6_11424.xsdst ! RUN = 11424 ! NEVT = 3000
FILE = /castor/cern.ch/delphi/MCprod/cern/bhwide101/v99e/201.6/bhwide101_201.6_11425.xsdst ! RUN = 11425 ! NEVT = 3000
FILE = /castor/cern.ch/delphi/MCprod/cern/bhwide101/v99e/201.6/bhwide101_201.6_11426.xsdst ! RUN = 11426 ! NEVT = 3000
FILE = /castor/cern.ch/delphi/MCprod/cern/bhwide101/v99e/201.6/bhwide101_201.6_11427.xsdst ! RUN = 11427 ! NEVT = 3000
FILE = /castor/cern.ch/delphi/MCprod/cern/bhwide101/v99e/201.6/bhwide101_201.6_11428.xsdst ! RUN = 11428 ! NEVT = 3000
FILE = /castor/cern.ch/delphi/MCprod/cern/bhwide101/v99e/201.6/bhwide101_201.6_11429.xsdst ! RUN = 11429 ! NEVT = 3000
FILE = /castor/cern.ch/delphi/MCprod/cern/bhwide101/v99e/201.6/bhwide101_201.6_11430.xsdst ! RUN = 11430 ! NEVT = 3000
FILE = /castor/cern.ch/delphi/MCprod/cern/bhwide101/v99e/201.6/bhwide101_201.6_11431.xsdst ! RUN = 11431 ! NEVT = 3000
FILE = /castor/cern.ch/delphi/MCprod/cern/bhwide101/v99e/201.6/bhwide101_201.6_11432.xsdst ! RUN = 11432 ! NEVT = 2999
FILE = /castor/cern.ch/delphi/MCprod/cern/bhwide101/v99e/201.6/bhwide101_201.6_11433.xsdst ! RUN = 11433 ! NEVT = 2999
FILE = /castor/cern.ch/delphi/MCprod/cern/bhwide101/v99e/201.6/bhwide101_201.6_11434.xsdst ! RUN = 11434 ! NEVT = 3000
FILE = /castor/cern.ch/delphi/MCprod/cern/bhwide101/v99e/201.6/bhwide101_201.6_11435.xsdst ! RUN = 11435 ! NEVT = 3000
FILE = /castor/cern.ch/delphi/MCprod/cern/bhwide101/v99e/201.6/bhwide101_201.6_11436.xsdst ! RUN = 11436 ! NEVT = 3000
FILE = /castor/cern.ch/delphi/MCprod/cern/bhwide101/v99e/201.6/bhwide101_201.6_11437.xsdst ! RUN = 11437 ! NEVT = 2999
FILE = /castor/cern.ch/delphi/MCprod/cern/bhwide101/v99e/201.6/bhwide101_201.6_11438.xsdst ! RUN = 11438 ! NEVT = 3000
FILE = /castor/cern.ch/delphi/MCprod/cern/bhwide101/v99e/201.6/bhwide101_201.6_11439.xsdst ! RUN = 11439 ! NEVT = 3000
FILE = /castor/cern.ch/delphi/MCprod/cern/bhwide101/v99e/201.6/bhwide101_201.6_11440.xsdst ! RUN = 11440 ! NEVT = 2999
FILE = /castor/cern.ch/delphi/MCprod/cern/bhwide101/v99e/201.6/bhwide101_201.6_11441.xsdst ! RUN = 11441 ! NEVT = 3000
FILE = /castor/cern.ch/delphi/MCprod/cern/bhwide101/v99e/201.6/bhwide101_201.6_11442.xsdst ! RUN = 11442 ! NEVT = 2999
FILE = /castor/cern.ch/delphi/MCprod/cern/bhwide101/v99e/201.6/bhwide101_201.6_11443.xsdst ! RUN = 11443 ! NEVT = 3000
FILE = /castor/cern.ch/delphi/MCprod/cern/bhwide101/v99e/201.6/bhwide101_201.6_11444.xsdst ! RUN = 11444 ! NEVT = 3000
FILE = /castor/cern.ch/delphi/MCprod/cern/bhwide101/v99e/201.6/bhwide101_201.6_11445.xsdst ! RUN = 11445 ! NEVT = 2999
FILE = /castor/cern.ch/delphi/MCprod/cern/bhwide101/v99e/201.6/bhwide101_201.6_11446.xsdst ! RUN = 11446 ! NEVT = 3000
FILE = /castor/cern.ch/delphi/MCprod/cern/bhwide101/v99e/201.6/bhwide101_201.6_11447.xsdst ! RUN = 11447 ! NEVT = 3000
FILE = /castor/cern.ch/delphi/MCprod/cern/bhwide101/v99e/201.6/bhwide101_201.6_11448.xsdst ! RUN = 11448 ! NEVT = 3000
FILE = /castor/cern.ch/delphi/MCprod/cern/bhwide101/v99e/201.6/bhwide101_201.6_11449.xsdst ! RUN = 11449 ! NEVT = 3000
FILE = /castor/cern.ch/delphi/MCprod/cern/bhwide101/v99e/201.6/bhwide101_201.6_11450.xsdst ! RUN = 11450 ! NEVT = 3000
FILE = /castor/cern.ch/delphi/MCprod/cern/bhwide101/v99e/201.6/bhwide101_201.6_11451.xsdst ! RUN = 11451 ! NEVT = 2999
FILE = /castor/cern.ch/delphi/MCprod/cern/bhwide101/v99e/201.6/bhwide101_201.6_11452.xsdst ! RUN = 11452 ! NEVT = 3000
FILE = /castor/cern.ch/delphi/MCprod/cern/bhwide101/v99e/201.6/bhwide101_201.6_11453.xsdst ! RUN = 11453 ! NEVT = 3000
FILE = /castor/cern.ch/delphi/MCprod/cern/bhwide101/v99e/201.6/bhwide101_201.6_11454.xsdst ! RUN = 11454 ! NEVT = 3000
FILE = /castor/cern.ch/delphi/MCprod/cern/bhwide101/v99e/201.6/bhwide101_201.6_11455.xsdst ! RUN = 11455 ! NEVT = 3000
FILE = /castor/cern.ch/delphi/MCprod/cern/bhwide101/v99e/201.6/bhwide101_201.6_11456.xsdst ! RUN = 11456 ! NEVT = 3000
FILE = /castor/cern.ch/delphi/MCprod/cern/bhwide101/v99e/201.6/bhwide101_201.6_11457.xsdst ! RUN = 11457 ! NEVT = 3000
FILE = /castor/cern.ch/delphi/MCprod/cern/bhwide101/v99e/201.6/bhwide101_201.6_11458.xsdst ! RUN = 11458 ! NEVT = 3000
FILE = /castor/cern.ch/delphi/MCprod/cern/bhwide101/v99e/201.6/bhwide101_201.6_11459.xsdst ! RUN = 11459 ! NEVT = 2999
FILE = /castor/cern.ch/delphi/MCprod/cern/bhwide101/v99e/201.6/bhwide101_201.6_11460.xsdst ! RUN = 11460 ! NEVT = 3000
FILE = /castor/cern.ch/delphi/MCprod/cern/bhwide101/v99e/201.6/bhwide101_201.6_11461.xsdst ! RUN = 11461 ! NEVT = 1415
FILE = /castor/cern.ch/delphi/MCprod/cern/bhwide101/v99e/201.6/bhwide101_201.6_11462.xsdst ! RUN = 11462 ! NEVT = 3000
FILE = /castor/cern.ch/delphi/MCprod/cern/bhwide101/v99e/201.6/bhwide101_201.6_11463.xsdst ! RUN = 11463 ! NEVT = 3000
FILE = /castor/cern.ch/delphi/MCprod/cern/bhwide101/v99e/201.6/bhwide101_201.6_11464.xsdst ! RUN = 11464 ! NEVT = 3000
FILE = /castor/cern.ch/delphi/MCprod/cern/bhwide101/v99e/201.6/bhwide101_201.6_11465.xsdst ! RUN = 11465 ! NEVT = 3000
FILE = /castor/cern.ch/delphi/MCprod/cern/bhwide101/v99e/201.6/bhwide101_201.6_11466.xsdst ! RUN = 11466 ! NEVT = 3000
FILE = /castor/cern.ch/delphi/MCprod/cern/bhwide101/v99e/201.6/bhwide101_201.6_11467.xsdst ! RUN = 11467 ! NEVT = 3000
FILE = /castor/cern.ch/delphi/MCprod/cern/bhwide101/v99e/201.6/bhwide101_201.6_11468.xsdst ! RUN = 11468 ! NEVT = 3000
FILE = /castor/cern.ch/delphi/MCprod/cern/bhwide101/v99e/201.6/bhwide101_201.6_11469.xsdst ! RUN = 11469 ! NEVT = 3000
FILE = /castor/cern.ch/delphi/MCprod/cern/bhwide101/v99e/201.6/bhwide101_201.6_11470.xsdst ! RUN = 11470 ! NEVT = 3000
FILE = /castor/cern.ch/delphi/MCprod/cern/bhwide101/v99e/201.6/bhwide101_201.6_11471.xsdst ! RUN = 11471 ! NEVT = 3000
FILE = /castor/cern.ch/delphi/MCprod/cern/bhwide101/v99e/201.6/bhwide101_201.6_11472.xsdst ! RUN = 11472 ! NEVT = 3000
FILE = /castor/cern.ch/delphi/MCprod/cern/bhwide101/v99e/201.6/bhwide101_201.6_11473.xsdst ! RUN = 11473 ! NEVT = 3000
FILE = /castor/cern.ch/delphi/MCprod/cern/bhwide101/v99e/201.6/bhwide101_201.6_11474.xsdst ! RUN = 11474 ! NEVT = 2999
FILE = /castor/cern.ch/delphi/MCprod/cern/bhwide101/v99e/201.6/bhwide101_201.6_11475.xsdst ! RUN = 11475 ! NEVT = 3000
FILE = /castor/cern.ch/delphi/MCprod/cern/bhwide101/v99e/201.6/bhwide101_201.6_11476.xsdst ! RUN = 11476 ! NEVT = 3000
FILE = /castor/cern.ch/delphi/MCprod/cern/bhwide101/v99e/201.6/bhwide101_201.6_11477.xsdst ! RUN = 11477 ! NEVT = 3000
FILE = /castor/cern.ch/delphi/MCprod/cern/bhwide101/v99e/201.6/bhwide101_201.6_11478.xsdst ! RUN = 11478 ! NEVT = 3000
FILE = /castor/cern.ch/delphi/MCprod/cern/bhwide101/v99e/201.6/bhwide101_201.6_11479.xsdst ! RUN = 11479 ! NEVT = 3000
FILE = /castor/cern.ch/delphi/MCprod/cern/bhwide101/v99e/201.6/bhwide101_201.6_11480.xsdst ! RUN = 11480 ! NEVT = 3000
FILE = /castor/cern.ch/delphi/MCprod/cern/bhwide101/v99e/201.6/bhwide101_201.6_11481.xsdst ! RUN = 11481 ! NEVT = 3000
FILE = /castor/cern.ch/delphi/MCprod/cern/bhwide101/v99e/201.6/bhwide101_201.6_11482.xsdst ! RUN = 11482 ! NEVT = 3000
FILE = /castor/cern.ch/delphi/MCprod/cern/bhwide101/v99e/201.6/bhwide101_201.6_11483.xsdst ! RUN = 11483 ! NEVT = 141
FILE = /castor/cern.ch/delphi/MCprod/cern/bhwide101/v99e/201.6/bhwide101_201.6_11484.xsdst ! RUN = 11484 ! NEVT = 3000
FILE = /castor/cern.ch/delphi/MCprod/cern/bhwide101/v99e/201.6/bhwide101_201.6_11485.xsdst ! RUN = 11485 ! NEVT = 3000
FILE = /castor/cern.ch/delphi/MCprod/cern/bhwide101/v99e/201.6/bhwide101_201.6_11486.xsdst ! RUN = 11486 ! NEVT = 3000
FILE = /castor/cern.ch/delphi/MCprod/cern/bhwide101/v99e/201.6/bhwide101_201.6_11487.xsdst ! RUN = 11487 ! NEVT = 3000
FILE = /castor/cern.ch/delphi/MCprod/cern/bhwide101/v99e/201.6/bhwide101_201.6_11488.xsdst ! RUN = 11488 ! NEVT = 3000
FILE = /castor/cern.ch/delphi/MCprod/cern/bhwide101/v99e/201.6/bhwide101_201.6_11489.xsdst ! RUN = 11489 ! NEVT = 3000
FILE = /castor/cern.ch/delphi/MCprod/cern/bhwide101/v99e/201.6/bhwide101_201.6_11490.xsdst ! RUN = 11490 ! NEVT = 3000
FILE = /castor/cern.ch/delphi/MCprod/cern/bhwide101/v99e/201.6/bhwide101_201.6_11491.xsdst ! RUN = 11491 ! NEVT = 3000
FILE = /castor/cern.ch/delphi/MCprod/cern/bhwide101/v99e/201.6/bhwide101_201.6_11492.xsdst ! RUN = 11492 ! NEVT = 3000
FILE = /castor/cern.ch/delphi/MCprod/cern/bhwide101/v99e/201.6/bhwide101_201.6_11493.xsdst ! RUN = 11493 ! NEVT = 3000
FILE = /castor/cern.ch/delphi/MCprod/cern/bhwide101/v99e/201.6/bhwide101_201.6_11494.xsdst ! RUN = 11494 ! NEVT = 3000
FILE = /castor/cern.ch/delphi/MCprod/cern/bhwide101/v99e/201.6/bhwide101_201.6_11495.xsdst ! RUN = 11495 ! NEVT = 3000
FILE = /castor/cern.ch/delphi/MCprod/cern/bhwide101/v99e/201.6/bhwide101_201.6_11496.xsdst ! RUN = 11496 ! NEVT = 3000
FILE = /castor/cern.ch/delphi/MCprod/cern/bhwide101/v99e/201.6/bhwide101_201.6_11497.xsdst ! RUN = 11497 ! NEVT = 3000
FILE = /castor/cern.ch/delphi/MCprod/cern/bhwide101/v99e/201.6/bhwide101_201.6_11498.xsdst ! RUN = 11498 ! NEVT = 3000
FILE = /castor/cern.ch/delphi/MCprod/cern/bhwide101/v99e/201.6/bhwide101_201.6_11499.xsdst ! RUN = 11499 ! NEVT = 2999
FILE = /castor/cern.ch/delphi/MCprod/cern/bhwide101/v99e/201.6/bhwide101_201.6_11500.xsdst ! RUN = 11500 ! NEVT = 3000
FILE = /castor/cern.ch/delphi/MCprod/cern/bhwide101/v99e/201.6/bhwide101_201.6_11501.xsdst ! RUN = 11501 ! NEVT = 3000
FILE = /castor/cern.ch/delphi/MCprod/cern/bhwide101/v99e/201.6/bhwide101_201.6_11502.xsdst ! RUN = 11502 ! NEVT = 3000
FILE = /castor/cern.ch/delphi/MCprod/cern/bhwide101/v99e/201.6/bhwide101_201.6_11503.xsdst ! RUN = 11503 ! NEVT = 3000
FILE = /castor/cern.ch/delphi/MCprod/cern/bhwide101/v99e/201.6/bhwide101_201.6_11504.xsdst ! RUN = 11504 ! NEVT = 2999
FILE = /castor/cern.ch/delphi/MCprod/cern/bhwide101/v99e/201.6/bhwide101_201.6_11505.xsdst ! RUN = 11505 ! NEVT = 3000
FILE = /castor/cern.ch/delphi/MCprod/cern/bhwide101/v99e/201.6/bhwide101_201.6_11506.xsdst ! RUN = 11506 ! NEVT = 3000
FILE = /castor/cern.ch/delphi/MCprod/cern/bhwide101/v99e/201.6/bhwide101_201.6_11507.xsdst ! RUN = 11507 ! NEVT = 3000
FILE = /castor/cern.ch/delphi/MCprod/cern/bhwide101/v99e/201.6/bhwide101_201.6_11508.xsdst ! RUN = 11508 ! NEVT = 2999
FILE = /castor/cern.ch/delphi/MCprod/cern/bhwide101/v99e/201.6/bhwide101_201.6_11509.xsdst ! RUN = 11509 ! NEVT = 2999
FILE = /castor/cern.ch/delphi/MCprod/cern/bhwide101/v99e/201.6/bhwide101_201.6_11510.xsdst ! RUN = 11510 ! NEVT = 3000
FILE = /castor/cern.ch/delphi/MCprod/cern/bhwide101/v99e/201.6/bhwide101_201.6_11511.xsdst ! RUN = 11511 ! NEVT = 3000
FILE = /castor/cern.ch/delphi/MCprod/cern/bhwide101/v99e/201.6/bhwide101_201.6_11512.xsdst ! RUN = 11512 ! NEVT = 3000
FILE = /castor/cern.ch/delphi/MCprod/cern/bhwide101/v99e/201.6/bhwide101_201.6_11513.xsdst ! RUN = 11513 ! NEVT = 3000
FILE = /castor/cern.ch/delphi/MCprod/cern/bhwide101/v99e/201.6/bhwide101_201.6_11514.xsdst ! RUN = 11514 ! NEVT = 3000
FILE = /castor/cern.ch/delphi/MCprod/cern/bhwide101/v99e/201.6/bhwide101_201.6_11515.xsdst ! RUN = 11515 ! NEVT = 3000
FILE = /castor/cern.ch/delphi/MCprod/cern/bhwide101/v99e/201.6/bhwide101_201.6_11516.xsdst ! RUN = 11516 ! NEVT = 3000
FILE = /castor/cern.ch/delphi/MCprod/cern/bhwide101/v99e/201.6/bhwide101_201.6_11517.xsdst ! RUN = 11517 ! NEVT = 3000
FILE = /castor/cern.ch/delphi/MCprod/cern/bhwide101/v99e/201.6/bhwide101_201.6_11518.xsdst ! RUN = 11518 ! NEVT = 3000
FILE = /castor/cern.ch/delphi/MCprod/cern/bhwide101/v99e/201.6/bhwide101_201.6_11519.xsdst ! RUN = 11519 ! NEVT = 3000
FILE = /castor/cern.ch/delphi/MCprod/cern/bhwide101/v99e/201.6/bhwide101_201.6_11520.xsdst ! RUN = 11520 ! NEVT = 2999
FILE = /castor/cern.ch/delphi/MCprod/cern/bhwide101/v99e/201.6/bhwide101_201.6_11521.xsdst ! RUN = 11521 ! NEVT = 3000
FILE = /castor/cern.ch/delphi/MCprod/cern/bhwide101/v99e/201.6/bhwide101_201.6_11522.xsdst ! RUN = 11522 ! NEVT = 3000
FILE = /castor/cern.ch/delphi/MCprod/cern/bhwide101/v99e/201.6/bhwide101_201.6_11523.xsdst ! RUN = 11523 ! NEVT = 3000
FILE = /castor/cern.ch/delphi/MCprod/cern/bhwide101/v99e/201.6/bhwide101_201.6_11524.xsdst ! RUN = 11524 ! NEVT = 3000
FILE = /castor/cern.ch/delphi/MCprod/cern/bhwide101/v99e/201.6/bhwide101_201.6_11525.xsdst ! RUN = 11525 ! NEVT = 3000
FILE = /castor/cern.ch/delphi/MCprod/cern/bhwide101/v99e/201.6/bhwide101_201.6_11526.xsdst ! RUN = 11526 ! NEVT = 3000
FILE = /castor/cern.ch/delphi/MCprod/cern/bhwide101/v99e/201.6/bhwide101_201.6_11527.xsdst ! RUN = 11527 ! NEVT = 3000
FILE = /castor/cern.ch/delphi/MCprod/cern/bhwide101/v99e/201.6/bhwide101_201.6_11528.xsdst ! RUN = 11528 ! NEVT = 3000
FILE = /castor/cern.ch/delphi/MCprod/cern/bhwide101/v99e/201.6/bhwide101_201.6_11529.xsdst ! RUN = 11529 ! NEVT = 3000
FILE = /castor/cern.ch/delphi/MCprod/cern/bhwide101/v99e/201.6/bhwide101_201.6_11530.xsdst ! RUN = 11530 ! NEVT = 3000
FILE = /castor/cern.ch/delphi/MCprod/cern/bhwide101/v99e/201.6/bhwide101_201.6_11531.xsdst ! RUN = 11531 ! NEVT = 3000
FILE = /castor/cern.ch/delphi/MCprod/cern/bhwide101/v99e/201.6/bhwide101_201.6_11532.xsdst ! RUN = 11532 ! NEVT = 3000
FILE = /castor/cern.ch/delphi/MCprod/cern/bhwide101/v99e/201.6/bhwide101_201.6_11533.xsdst ! RUN = 11533 ! NEVT = 3000
FILE = /castor/cern.ch/delphi/MCprod/cern/bhwide101/v99e/201.6/bhwide101_201.6_11534.xsdst ! RUN = 11534 ! NEVT = 3000
FILE = /castor/cern.ch/delphi/MCprod/cern/bhwide101/v99e/201.6/bhwide101_201.6_11535.xsdst ! RUN = 11535 ! NEVT = 3000
FILE = /castor/cern.ch/delphi/MCprod/cern/bhwide101/v99e/201.6/bhwide101_201.6_11536.xsdst ! RUN = 11536 ! NEVT = 3000
FILE = /castor/cern.ch/delphi/MCprod/cern/bhwide101/v99e/201.6/bhwide101_201.6_11537.xsdst ! RUN = 11537 ! NEVT = 3000
FILE = /castor/cern.ch/delphi/MCprod/cern/bhwide101/v99e/201.6/bhwide101_201.6_11538.xsdst ! RUN = 11538 ! NEVT = 3000
FILE = /castor/cern.ch/delphi/MCprod/cern/bhwide101/v99e/201.6/bhwide101_201.6_11539.xsdst ! RUN = 11539 ! NEVT = 3000
FILE = /castor/cern.ch/delphi/MCprod/cern/bhwide101/v99e/201.6/bhwide101_201.6_11540.xsdst ! RUN = 11540 ! NEVT = 3000
FILE = /castor/cern.ch/delphi/MCprod/cern/bhwide101/v99e/201.6/bhwide101_201.6_11541.xsdst ! RUN = 11541 ! NEVT = 3000
FILE = /castor/cern.ch/delphi/MCprod/cern/bhwide101/v99e/201.6/bhwide101_201.6_11542.xsdst ! RUN = 11542 ! NEVT = 2999
FILE = /castor/cern.ch/delphi/MCprod/cern/bhwide101/v99e/201.6/bhwide101_201.6_11543.xsdst ! RUN = 11543 ! NEVT = 3000
FILE = /castor/cern.ch/delphi/MCprod/cern/bhwide101/v99e/201.6/bhwide101_201.6_11544.xsdst ! RUN = 11544 ! NEVT = 3000
