*
*   Nickname     : xs_kk2f4146qqardcy_e199.5_c99_1l_e1
*   Generic Name : //CERN/DELPHI/P02_SIMD/XSDST/KK2F4146QQARDCY/E199.5/CERN/SUMT/C001-126
*   Description  :  Extended Short DST simulation 99e1 done at ecms=199.5 , CERN
*---
*   Comments     : in total 255334 events in 126 files time stamp: Wed Aug 14 01:14:13 2002
*---
*
*
*
*
*
FILE = /castor/cern.ch/delphi/MCprod/cern/kk2f4146/v99e/199.5/kk2f4146_qqardcy_199.5_73201.xsdst ! RUN = 73201 ! NEVT = 999
FILE = /castor/cern.ch/delphi/MCprod/cern/kk2f4146/v99e/199.5/kk2f4146_qqardcy_199.5_73202.xsdst ! RUN = 73202 ! NEVT = 1000
FILE = /castor/cern.ch/delphi/MCprod/cern/kk2f4146/v99e/199.5/kk2f4146_qqardcy_199.5_73203.xsdst ! RUN = 73203 ! NEVT = 999
FILE = /castor/cern.ch/delphi/MCprod/cern/kk2f4146/v99e/199.5/kk2f4146_qqardcy_199.5_73204.xsdst ! RUN = 73204 ! NEVT = 1000
FILE = /castor/cern.ch/delphi/MCprod/cern/kk2f4146/v99e/199.5/kk2f4146_qqardcy_199.5_73205.xsdst ! RUN = 73205 ! NEVT = 1000
FILE = /castor/cern.ch/delphi/MCprod/cern/kk2f4146/v99e/199.5/kk2f4146_qqardcy_199.5_73206.xsdst ! RUN = 73206 ! NEVT = 1000
FILE = /castor/cern.ch/delphi/MCprod/cern/kk2f4146/v99e/199.5/kk2f4146_qqardcy_199.5_73207.xsdst ! RUN = 73207 ! NEVT = 998
FILE = /castor/cern.ch/delphi/MCprod/cern/kk2f4146/v99e/199.5/kk2f4146_qqardcy_199.5_73208.xsdst ! RUN = 73208 ! NEVT = 1000
FILE = /castor/cern.ch/delphi/MCprod/cern/kk2f4146/v99e/199.5/kk2f4146_qqardcy_199.5_73209.xsdst ! RUN = 73209 ! NEVT = 998
FILE = /castor/cern.ch/delphi/MCprod/cern/kk2f4146/v99e/199.5/kk2f4146_qqardcy_199.5_73210.xsdst ! RUN = 73210 ! NEVT = 1000
FILE = /castor/cern.ch/delphi/MCprod/cern/kk2f4146/v99e/199.5/kk2f4146_qqardcy_199.5_73211.xsdst ! RUN = 73211 ! NEVT = 998
FILE = /castor/cern.ch/delphi/MCprod/cern/kk2f4146/v99e/199.5/kk2f4146_qqardcy_199.5_73212.xsdst ! RUN = 73212 ! NEVT = 998
FILE = /castor/cern.ch/delphi/MCprod/cern/kk2f4146/v99e/199.5/kk2f4146_qqardcy_199.5_73213.xsdst ! RUN = 73213 ! NEVT = 998
FILE = /castor/cern.ch/delphi/MCprod/cern/kk2f4146/v99e/199.5/kk2f4146_qqardcy_199.5_73214.xsdst ! RUN = 73214 ! NEVT = 999
FILE = /castor/cern.ch/delphi/MCprod/cern/kk2f4146/v99e/199.5/kk2f4146_qqardcy_199.5_73215.xsdst ! RUN = 73215 ! NEVT = 1000
FILE = /castor/cern.ch/delphi/MCprod/cern/kk2f4146/v99e/199.5/kk2f4146_qqardcy_199.5_73216.xsdst ! RUN = 73216 ! NEVT = 1000
FILE = /castor/cern.ch/delphi/MCprod/cern/kk2f4146/v99e/199.5/kk2f4146_qqardcy_199.5_73217.xsdst ! RUN = 73217 ! NEVT = 998
FILE = /castor/cern.ch/delphi/MCprod/cern/kk2f4146/v99e/199.5/kk2f4146_qqardcy_199.5_73218.xsdst ! RUN = 73218 ! NEVT = 1000
FILE = /castor/cern.ch/delphi/MCprod/cern/kk2f4146/v99e/199.5/kk2f4146_qqardcy_199.5_73219.xsdst ! RUN = 73219 ! NEVT = 1000
FILE = /castor/cern.ch/delphi/MCprod/cern/kk2f4146/v99e/199.5/kk2f4146_qqardcy_199.5_73220.xsdst ! RUN = 73220 ! NEVT = 999
FILE = /castor/cern.ch/delphi/MCprod/cern/kk2f4146/v99e/199.5/kk2f4146_qqardcy_199.5_73221.xsdst ! RUN = 73221 ! NEVT = 999
FILE = /castor/cern.ch/delphi/MCprod/cern/kk2f4146/v99e/199.5/kk2f4146_qqardcy_199.5_73222.xsdst ! RUN = 73222 ! NEVT = 999
FILE = /castor/cern.ch/delphi/MCprod/cern/kk2f4146/v99e/199.5/kk2f4146_qqardcy_199.5_73223.xsdst ! RUN = 73223 ! NEVT = 1000
FILE = /castor/cern.ch/delphi/MCprod/cern/kk2f4146/v99e/199.5/kk2f4146_qqardcy_199.5_73224.xsdst ! RUN = 73224 ! NEVT = 1000
FILE = /castor/cern.ch/delphi/MCprod/cern/kk2f4146/v99e/199.5/kk2f4146_qqardcy_199.5_73225.xsdst ! RUN = 73225 ! NEVT = 999
FILE = /castor/cern.ch/delphi/MCprod/cern/kk2f4146/v99e/199.5/kk2f4146_qqardcy_199.5_73226.xsdst ! RUN = 73226 ! NEVT = 999
FILE = /castor/cern.ch/delphi/MCprod/cern/kk2f4146/v99e/199.5/kk2f4146_qqardcy_199.5_73227.xsdst ! RUN = 73227 ! NEVT = 1000
FILE = /castor/cern.ch/delphi/MCprod/cern/kk2f4146/v99e/199.5/kk2f4146_qqardcy_199.5_73228.xsdst ! RUN = 73228 ! NEVT = 999
FILE = /castor/cern.ch/delphi/MCprod/cern/kk2f4146/v99e/199.5/kk2f4146_qqardcy_199.5_73229.xsdst ! RUN = 73229 ! NEVT = 1000
FILE = /castor/cern.ch/delphi/MCprod/cern/kk2f4146/v99e/199.5/kk2f4146_qqardcy_199.5_73230.xsdst ! RUN = 73230 ! NEVT = 999
FILE = /castor/cern.ch/delphi/MCprod/cern/kk2f4146/v99e/199.5/kk2f4146_qqardcy_199.5_73231.xsdst ! RUN = 73231 ! NEVT = 1000
FILE = /castor/cern.ch/delphi/MCprod/cern/kk2f4146/v99e/199.5/kk2f4146_qqardcy_199.5_73232.xsdst ! RUN = 73232 ! NEVT = 1000
FILE = /castor/cern.ch/delphi/MCprod/cern/kk2f4146/v99e/199.5/kk2f4146_qqardcy_199.5_73233.xsdst ! RUN = 73233 ! NEVT = 997
FILE = /castor/cern.ch/delphi/MCprod/cern/kk2f4146/v99e/199.5/kk2f4146_qqardcy_199.5_73234.xsdst ! RUN = 73234 ! NEVT = 999
FILE = /castor/cern.ch/delphi/MCprod/cern/kk2f4146/v99e/199.5/kk2f4146_qqardcy_199.5_73235.xsdst ! RUN = 73235 ! NEVT = 999
FILE = /castor/cern.ch/delphi/MCprod/cern/kk2f4146/v99e/199.5/kk2f4146_qqardcy_199.5_73236.xsdst ! RUN = 73236 ! NEVT = 999
FILE = /castor/cern.ch/delphi/MCprod/cern/kk2f4146/v99e/199.5/kk2f4146_qqardcy_199.5_73237.xsdst ! RUN = 73237 ! NEVT = 999
FILE = /castor/cern.ch/delphi/MCprod/cern/kk2f4146/v99e/199.5/kk2f4146_qqardcy_199.5_73238.xsdst ! RUN = 73238 ! NEVT = 999
FILE = /castor/cern.ch/delphi/MCprod/cern/kk2f4146/v99e/199.5/kk2f4146_qqardcy_199.5_73239.xsdst ! RUN = 73239 ! NEVT = 999
FILE = /castor/cern.ch/delphi/MCprod/cern/kk2f4146/v99e/199.5/kk2f4146_qqardcy_199.5_73240.xsdst ! RUN = 73240 ! NEVT = 1000
FILE = /castor/cern.ch/delphi/MCprod/cern/kk2f4146/v99e/199.5/kk2f4146_qqardcy_199.5_73241.xsdst ! RUN = 73241 ! NEVT = 999
FILE = /castor/cern.ch/delphi/MCprod/cern/kk2f4146/v99e/199.5/kk2f4146_qqardcy_199.5_73242.xsdst ! RUN = 73242 ! NEVT = 998
FILE = /castor/cern.ch/delphi/MCprod/cern/kk2f4146/v99e/199.5/kk2f4146_qqardcy_199.5_73243.xsdst ! RUN = 73243 ! NEVT = 999
FILE = /castor/cern.ch/delphi/MCprod/cern/kk2f4146/v99e/199.5/kk2f4146_qqardcy_199.5_73244.xsdst ! RUN = 73244 ! NEVT = 999
FILE = /castor/cern.ch/delphi/MCprod/cern/kk2f4146/v99e/199.5/kk2f4146_qqardcy_199.5_73245.xsdst ! RUN = 73245 ! NEVT = 1000
FILE = /castor/cern.ch/delphi/MCprod/cern/kk2f4146/v99e/199.5/kk2f4146_qqardcy_199.5_73246.xsdst ! RUN = 73246 ! NEVT = 139
FILE = /castor/cern.ch/delphi/MCprod/cern/kk2f4146/v99e/199.5/kk2f4146_qqardcy_199.5_73247.xsdst ! RUN = 73247 ! NEVT = 1000
FILE = /castor/cern.ch/delphi/MCprod/cern/kk2f4146/v99e/199.5/kk2f4146_qqardcy_199.5_73248.xsdst ! RUN = 73248 ! NEVT = 998
FILE = /castor/cern.ch/delphi/MCprod/cern/kk2f4146/v99e/199.5/kk2f4146_qqardcy_199.5_73249.xsdst ! RUN = 73249 ! NEVT = 998
FILE = /castor/cern.ch/delphi/MCprod/cern/kk2f4146/v99e/199.5/kk2f4146_qqardcy_199.5_73250.xsdst ! RUN = 73250 ! NEVT = 1000
FILE = /castor/cern.ch/delphi/MCprod/cern/kk2f4146/v99e/199.5/kk2f4146_qqardcy_199.5_73251.xsdst ! RUN = 73251 ! NEVT = 998
FILE = /castor/cern.ch/delphi/MCprod/cern/kk2f4146/v99e/199.5/kk2f4146_qqardcy_199.5_73252.xsdst ! RUN = 73252 ! NEVT = 1000
FILE = /castor/cern.ch/delphi/MCprod/cern/kk2f4146/v99e/199.5/kk2f4146_qqardcy_199.5_73253.xsdst ! RUN = 73253 ! NEVT = 1000
FILE = /castor/cern.ch/delphi/MCprod/cern/kk2f4146/v99e/199.5/kk2f4146_qqardcy_199.5_73256.xsdst ! RUN = 73256 ! NEVT = 1000
FILE = /castor/cern.ch/delphi/MCprod/cern/kk2f4146/v99e/199.5/kk2f4146_qqardcy_199.5_73257.xsdst ! RUN = 73257 ! NEVT = 1000
FILE = /castor/cern.ch/delphi/MCprod/cern/kk2f4146/v99e/199.5/kk2f4146_qqardcy_199.5_73261.xsdst ! RUN = 73261 ! NEVT = 999
FILE = /castor/cern.ch/delphi/MCprod/cern/kk2f4146/v99e/199.5/kk2f4146_qqardcy_199.5_73262.xsdst ! RUN = 73262 ! NEVT = 1000
FILE = /castor/cern.ch/delphi/MCprod/cern/kk2f4146/v99e/199.5/kk2f4146_qqardcy_199.5_74201.xsdst ! RUN = 74201 ! NEVT = 2999
FILE = /castor/cern.ch/delphi/MCprod/cern/kk2f4146/v99e/199.5/kk2f4146_qqardcy_199.5_74202.xsdst ! RUN = 74202 ! NEVT = 2998
FILE = /castor/cern.ch/delphi/MCprod/cern/kk2f4146/v99e/199.5/kk2f4146_qqardcy_199.5_74203.xsdst ! RUN = 74203 ! NEVT = 3000
FILE = /castor/cern.ch/delphi/MCprod/cern/kk2f4146/v99e/199.5/kk2f4146_qqardcy_199.5_74204.xsdst ! RUN = 74204 ! NEVT = 2998
FILE = /castor/cern.ch/delphi/MCprod/cern/kk2f4146/v99e/199.5/kk2f4146_qqardcy_199.5_74205.xsdst ! RUN = 74205 ! NEVT = 2997
FILE = /castor/cern.ch/delphi/MCprod/cern/kk2f4146/v99e/199.5/kk2f4146_qqardcy_199.5_74206.xsdst ! RUN = 74206 ! NEVT = 2998
FILE = /castor/cern.ch/delphi/MCprod/cern/kk2f4146/v99e/199.5/kk2f4146_qqardcy_199.5_74207.xsdst ! RUN = 74207 ! NEVT = 2996
FILE = /castor/cern.ch/delphi/MCprod/cern/kk2f4146/v99e/199.5/kk2f4146_qqardcy_199.5_74208.xsdst ! RUN = 74208 ! NEVT = 2999
FILE = /castor/cern.ch/delphi/MCprod/cern/kk2f4146/v99e/199.5/kk2f4146_qqardcy_199.5_74209.xsdst ! RUN = 74209 ! NEVT = 2995
FILE = /castor/cern.ch/delphi/MCprod/cern/kk2f4146/v99e/199.5/kk2f4146_qqardcy_199.5_74210.xsdst ! RUN = 74210 ! NEVT = 2998
FILE = /castor/cern.ch/delphi/MCprod/cern/kk2f4146/v99e/199.5/kk2f4146_qqardcy_199.5_74216.xsdst ! RUN = 74216 ! NEVT = 2999
FILE = /castor/cern.ch/delphi/MCprod/cern/kk2f4146/v99e/199.5/kk2f4146_qqardcy_199.5_74217.xsdst ! RUN = 74217 ! NEVT = 2999
FILE = /castor/cern.ch/delphi/MCprod/cern/kk2f4146/v99e/199.5/kk2f4146_qqardcy_199.5_74218.xsdst ! RUN = 74218 ! NEVT = 2999
FILE = /castor/cern.ch/delphi/MCprod/cern/kk2f4146/v99e/199.5/kk2f4146_qqardcy_199.5_74219.xsdst ! RUN = 74219 ! NEVT = 2999
FILE = /castor/cern.ch/delphi/MCprod/cern/kk2f4146/v99e/199.5/kk2f4146_qqardcy_199.5_74220.xsdst ! RUN = 74220 ! NEVT = 3000
FILE = /castor/cern.ch/delphi/MCprod/cern/kk2f4146/v99e/199.5/kk2f4146_qqardcy_199.5_74221.xsdst ! RUN = 74221 ! NEVT = 1774
FILE = /castor/cern.ch/delphi/MCprod/cern/kk2f4146/v99e/199.5/kk2f4146_qqardcy_199.5_74222.xsdst ! RUN = 74222 ! NEVT = 3000
FILE = /castor/cern.ch/delphi/MCprod/cern/kk2f4146/v99e/199.5/kk2f4146_qqardcy_199.5_74223.xsdst ! RUN = 74223 ! NEVT = 2999
FILE = /castor/cern.ch/delphi/MCprod/cern/kk2f4146/v99e/199.5/kk2f4146_qqardcy_199.5_74224.xsdst ! RUN = 74224 ! NEVT = 2997
FILE = /castor/cern.ch/delphi/MCprod/cern/kk2f4146/v99e/199.5/kk2f4146_qqardcy_199.5_74225.xsdst ! RUN = 74225 ! NEVT = 1478
FILE = /castor/cern.ch/delphi/MCprod/cern/kk2f4146/v99e/199.5/kk2f4146_qqardcy_199.5_74226.xsdst ! RUN = 74226 ! NEVT = 2999
FILE = /castor/cern.ch/delphi/MCprod/cern/kk2f4146/v99e/199.5/kk2f4146_qqardcy_199.5_74227.xsdst ! RUN = 74227 ! NEVT = 2997
FILE = /castor/cern.ch/delphi/MCprod/cern/kk2f4146/v99e/199.5/kk2f4146_qqardcy_199.5_74228.xsdst ! RUN = 74228 ! NEVT = 2999
FILE = /castor/cern.ch/delphi/MCprod/cern/kk2f4146/v99e/199.5/kk2f4146_qqardcy_199.5_74229.xsdst ! RUN = 74229 ! NEVT = 3000
FILE = /castor/cern.ch/delphi/MCprod/cern/kk2f4146/v99e/199.5/kk2f4146_qqardcy_199.5_74230.xsdst ! RUN = 74230 ! NEVT = 3000
FILE = /castor/cern.ch/delphi/MCprod/cern/kk2f4146/v99e/199.5/kk2f4146_qqardcy_199.5_74231.xsdst ! RUN = 74231 ! NEVT = 3000
FILE = /castor/cern.ch/delphi/MCprod/cern/kk2f4146/v99e/199.5/kk2f4146_qqardcy_199.5_74232.xsdst ! RUN = 74232 ! NEVT = 2996
FILE = /castor/cern.ch/delphi/MCprod/cern/kk2f4146/v99e/199.5/kk2f4146_qqardcy_199.5_74233.xsdst ! RUN = 74233 ! NEVT = 2998
FILE = /castor/cern.ch/delphi/MCprod/cern/kk2f4146/v99e/199.5/kk2f4146_qqardcy_199.5_74234.xsdst ! RUN = 74234 ! NEVT = 2998
FILE = /castor/cern.ch/delphi/MCprod/cern/kk2f4146/v99e/199.5/kk2f4146_qqardcy_199.5_74235.xsdst ! RUN = 74235 ! NEVT = 2997
FILE = /castor/cern.ch/delphi/MCprod/cern/kk2f4146/v99e/199.5/kk2f4146_qqardcy_199.5_74236.xsdst ! RUN = 74236 ! NEVT = 2999
FILE = /castor/cern.ch/delphi/MCprod/cern/kk2f4146/v99e/199.5/kk2f4146_qqardcy_199.5_74237.xsdst ! RUN = 74237 ! NEVT = 2997
FILE = /castor/cern.ch/delphi/MCprod/cern/kk2f4146/v99e/199.5/kk2f4146_qqardcy_199.5_74238.xsdst ! RUN = 74238 ! NEVT = 2998
FILE = /castor/cern.ch/delphi/MCprod/cern/kk2f4146/v99e/199.5/kk2f4146_qqardcy_199.5_74239.xsdst ! RUN = 74239 ! NEVT = 2999
FILE = /castor/cern.ch/delphi/MCprod/cern/kk2f4146/v99e/199.5/kk2f4146_qqardcy_199.5_74240.xsdst ! RUN = 74240 ! NEVT = 2998
FILE = /castor/cern.ch/delphi/MCprod/cern/kk2f4146/v99e/199.5/kk2f4146_qqardcy_199.5_74245.xsdst ! RUN = 74245 ! NEVT = 357
FILE = /castor/cern.ch/delphi/MCprod/cern/kk2f4146/v99e/199.5/kk2f4146_qqardcy_199.5_74246.xsdst ! RUN = 74246 ! NEVT = 2999
FILE = /castor/cern.ch/delphi/MCprod/cern/kk2f4146/v99e/199.5/kk2f4146_qqardcy_199.5_74247.xsdst ! RUN = 74247 ! NEVT = 3000
FILE = /castor/cern.ch/delphi/MCprod/cern/kk2f4146/v99e/199.5/kk2f4146_qqardcy_199.5_74248.xsdst ! RUN = 74248 ! NEVT = 3000
FILE = /castor/cern.ch/delphi/MCprod/cern/kk2f4146/v99e/199.5/kk2f4146_qqardcy_199.5_74249.xsdst ! RUN = 74249 ! NEVT = 2998
FILE = /castor/cern.ch/delphi/MCprod/cern/kk2f4146/v99e/199.5/kk2f4146_qqardcy_199.5_74250.xsdst ! RUN = 74250 ! NEVT = 2999
FILE = /castor/cern.ch/delphi/MCprod/cern/kk2f4146/v99e/199.5/kk2f4146_qqardcy_199.5_74251.xsdst ! RUN = 74251 ! NEVT = 2999
FILE = /castor/cern.ch/delphi/MCprod/cern/kk2f4146/v99e/199.5/kk2f4146_qqardcy_199.5_74252.xsdst ! RUN = 74252 ! NEVT = 3000
FILE = /castor/cern.ch/delphi/MCprod/cern/kk2f4146/v99e/199.5/kk2f4146_qqardcy_199.5_74253.xsdst ! RUN = 74253 ! NEVT = 2999
FILE = /castor/cern.ch/delphi/MCprod/cern/kk2f4146/v99e/199.5/kk2f4146_qqardcy_199.5_74254.xsdst ! RUN = 74254 ! NEVT = 728
FILE = /castor/cern.ch/delphi/MCprod/cern/kk2f4146/v99e/199.5/kk2f4146_qqardcy_199.5_74255.xsdst ! RUN = 74255 ! NEVT = 2998
FILE = /castor/cern.ch/delphi/MCprod/cern/kk2f4146/v99e/199.5/kk2f4146_qqardcy_199.5_74271.xsdst ! RUN = 74271 ! NEVT = 2999
FILE = /castor/cern.ch/delphi/MCprod/cern/kk2f4146/v99e/199.5/kk2f4146_qqardcy_199.5_74272.xsdst ! RUN = 74272 ! NEVT = 2998
FILE = /castor/cern.ch/delphi/MCprod/cern/kk2f4146/v99e/199.5/kk2f4146_qqardcy_199.5_74273.xsdst ! RUN = 74273 ! NEVT = 2999
FILE = /castor/cern.ch/delphi/MCprod/cern/kk2f4146/v99e/199.5/kk2f4146_qqardcy_199.5_74274.xsdst ! RUN = 74274 ! NEVT = 2998
FILE = /castor/cern.ch/delphi/MCprod/cern/kk2f4146/v99e/199.5/kk2f4146_qqardcy_199.5_74275.xsdst ! RUN = 74275 ! NEVT = 2996
FILE = /castor/cern.ch/delphi/MCprod/cern/kk2f4146/v99e/199.5/kk2f4146_qqardcy_199.5_74276.xsdst ! RUN = 74276 ! NEVT = 3000
FILE = /castor/cern.ch/delphi/MCprod/cern/kk2f4146/v99e/199.5/kk2f4146_qqardcy_199.5_74277.xsdst ! RUN = 74277 ! NEVT = 2998
FILE = /castor/cern.ch/delphi/MCprod/cern/kk2f4146/v99e/199.5/kk2f4146_qqardcy_199.5_74278.xsdst ! RUN = 74278 ! NEVT = 2997
FILE = /castor/cern.ch/delphi/MCprod/cern/kk2f4146/v99e/199.5/kk2f4146_qqardcy_199.5_74279.xsdst ! RUN = 74279 ! NEVT = 2999
FILE = /castor/cern.ch/delphi/MCprod/cern/kk2f4146/v99e/199.5/kk2f4146_qqardcy_199.5_74280.xsdst ! RUN = 74280 ! NEVT = 3000
FILE = /castor/cern.ch/delphi/MCprod/cern/kk2f4146/v99e/199.5/kk2f4146_qqardcy_199.5_74281.xsdst ! RUN = 74281 ! NEVT = 2999
FILE = /castor/cern.ch/delphi/MCprod/cern/kk2f4146/v99e/199.5/kk2f4146_qqardcy_199.5_74282.xsdst ! RUN = 74282 ! NEVT = 2999
FILE = /castor/cern.ch/delphi/MCprod/cern/kk2f4146/v99e/199.5/kk2f4146_qqardcy_199.5_74283.xsdst ! RUN = 74283 ! NEVT = 3000
FILE = /castor/cern.ch/delphi/MCprod/cern/kk2f4146/v99e/199.5/kk2f4146_qqardcy_199.5_74284.xsdst ! RUN = 74284 ! NEVT = 3000
FILE = /castor/cern.ch/delphi/MCprod/cern/kk2f4146/v99e/199.5/kk2f4146_qqardcy_199.5_74285.xsdst ! RUN = 74285 ! NEVT = 2999
FILE = /castor/cern.ch/delphi/MCprod/cern/kk2f4146/v99e/199.5/kk2f4146_qqardcy_199.5_74287.xsdst ! RUN = 74287 ! NEVT = 2999
FILE = /castor/cern.ch/delphi/MCprod/cern/kk2f4146/v99e/199.5/kk2f4146_qqardcy_199.5_74288.xsdst ! RUN = 74288 ! NEVT = 2998
FILE = /castor/cern.ch/delphi/MCprod/cern/kk2f4146/v99e/199.5/kk2f4146_qqardcy_199.5_74289.xsdst ! RUN = 74289 ! NEVT = 2997
FILE = /castor/cern.ch/delphi/MCprod/cern/kk2f4146/v99e/199.5/kk2f4146_qqardcy_199.5_74290.xsdst ! RUN = 74290 ! NEVT = 2998
FILE = /castor/cern.ch/delphi/MCprod/cern/kk2f4146/v99e/199.5/kk2f4146_qqardcy_199.5_74296.xsdst ! RUN = 74296 ! NEVT = 2998
FILE = /castor/cern.ch/delphi/MCprod/cern/kk2f4146/v99e/199.5/kk2f4146_qqardcy_199.5_74297.xsdst ! RUN = 74297 ! NEVT = 3000
FILE = /castor/cern.ch/delphi/MCprod/cern/kk2f4146/v99e/199.5/kk2f4146_qqardcy_199.5_74298.xsdst ! RUN = 74298 ! NEVT = 2995
FILE = /castor/cern.ch/delphi/MCprod/cern/kk2f4146/v99e/199.5/kk2f4146_qqardcy_199.5_74299.xsdst ! RUN = 74299 ! NEVT = 2998
