*
*   Nickname     : xs_kk2f4143qq_e91.25_l99_1l_e1
*   Generic Name : //CERN/DELPHI/P01_SIMD/XSDST/KK2F4143QQ/E91.25/LYON/SUMT/C001-299
*   Description  :  Extended Short DST simulation 99_e1 done at ecms=91.25 , Lyon
*---
*   Comments     : in total 298736 events in 299 files time stamp: Mon Dec 10 23:17:54 2001
*---
*
*
*
*
*
FILE = /castor/cern.ch/delphi/MCprod/lyon/kk2f4143/v99e/91.25/kk2f4143_qq_91.25_1101.xsdst ! RUN = 1101 ! NEVT = 1000
FILE = /castor/cern.ch/delphi/MCprod/lyon/kk2f4143/v99e/91.25/kk2f4143_qq_91.25_1102.xsdst ! RUN = 1102 ! NEVT = 1000
FILE = /castor/cern.ch/delphi/MCprod/lyon/kk2f4143/v99e/91.25/kk2f4143_qq_91.25_1103.xsdst ! RUN = 1103 ! NEVT = 1000
FILE = /castor/cern.ch/delphi/MCprod/lyon/kk2f4143/v99e/91.25/kk2f4143_qq_91.25_1104.xsdst ! RUN = 1104 ! NEVT = 999
FILE = /castor/cern.ch/delphi/MCprod/lyon/kk2f4143/v99e/91.25/kk2f4143_qq_91.25_1105.xsdst ! RUN = 1105 ! NEVT = 1000
FILE = /castor/cern.ch/delphi/MCprod/lyon/kk2f4143/v99e/91.25/kk2f4143_qq_91.25_1106.xsdst ! RUN = 1106 ! NEVT = 1000
FILE = /castor/cern.ch/delphi/MCprod/lyon/kk2f4143/v99e/91.25/kk2f4143_qq_91.25_1107.xsdst ! RUN = 1107 ! NEVT = 1000
FILE = /castor/cern.ch/delphi/MCprod/lyon/kk2f4143/v99e/91.25/kk2f4143_qq_91.25_1108.xsdst ! RUN = 1108 ! NEVT = 999
FILE = /castor/cern.ch/delphi/MCprod/lyon/kk2f4143/v99e/91.25/kk2f4143_qq_91.25_1109.xsdst ! RUN = 1109 ! NEVT = 1000
FILE = /castor/cern.ch/delphi/MCprod/lyon/kk2f4143/v99e/91.25/kk2f4143_qq_91.25_1110.xsdst ! RUN = 1110 ! NEVT = 1000
FILE = /castor/cern.ch/delphi/MCprod/lyon/kk2f4143/v99e/91.25/kk2f4143_qq_91.25_1111.xsdst ! RUN = 1111 ! NEVT = 999
FILE = /castor/cern.ch/delphi/MCprod/lyon/kk2f4143/v99e/91.25/kk2f4143_qq_91.25_1112.xsdst ! RUN = 1112 ! NEVT = 1000
FILE = /castor/cern.ch/delphi/MCprod/lyon/kk2f4143/v99e/91.25/kk2f4143_qq_91.25_1113.xsdst ! RUN = 1113 ! NEVT = 1000
FILE = /castor/cern.ch/delphi/MCprod/lyon/kk2f4143/v99e/91.25/kk2f4143_qq_91.25_1114.xsdst ! RUN = 1114 ! NEVT = 1000
FILE = /castor/cern.ch/delphi/MCprod/lyon/kk2f4143/v99e/91.25/kk2f4143_qq_91.25_1115.xsdst ! RUN = 1115 ! NEVT = 1000
FILE = /castor/cern.ch/delphi/MCprod/lyon/kk2f4143/v99e/91.25/kk2f4143_qq_91.25_1116.xsdst ! RUN = 1116 ! NEVT = 1000
FILE = /castor/cern.ch/delphi/MCprod/lyon/kk2f4143/v99e/91.25/kk2f4143_qq_91.25_1117.xsdst ! RUN = 1117 ! NEVT = 1000
FILE = /castor/cern.ch/delphi/MCprod/lyon/kk2f4143/v99e/91.25/kk2f4143_qq_91.25_1118.xsdst ! RUN = 1118 ! NEVT = 1000
FILE = /castor/cern.ch/delphi/MCprod/lyon/kk2f4143/v99e/91.25/kk2f4143_qq_91.25_1119.xsdst ! RUN = 1119 ! NEVT = 1000
FILE = /castor/cern.ch/delphi/MCprod/lyon/kk2f4143/v99e/91.25/kk2f4143_qq_91.25_1120.xsdst ! RUN = 1120 ! NEVT = 1000
FILE = /castor/cern.ch/delphi/MCprod/lyon/kk2f4143/v99e/91.25/kk2f4143_qq_91.25_1121.xsdst ! RUN = 1121 ! NEVT = 1000
FILE = /castor/cern.ch/delphi/MCprod/lyon/kk2f4143/v99e/91.25/kk2f4143_qq_91.25_1122.xsdst ! RUN = 1122 ! NEVT = 1000
FILE = /castor/cern.ch/delphi/MCprod/lyon/kk2f4143/v99e/91.25/kk2f4143_qq_91.25_1123.xsdst ! RUN = 1123 ! NEVT = 1000
FILE = /castor/cern.ch/delphi/MCprod/lyon/kk2f4143/v99e/91.25/kk2f4143_qq_91.25_1124.xsdst ! RUN = 1124 ! NEVT = 1000
FILE = /castor/cern.ch/delphi/MCprod/lyon/kk2f4143/v99e/91.25/kk2f4143_qq_91.25_1125.xsdst ! RUN = 1125 ! NEVT = 1000
FILE = /castor/cern.ch/delphi/MCprod/lyon/kk2f4143/v99e/91.25/kk2f4143_qq_91.25_1126.xsdst ! RUN = 1126 ! NEVT = 1000
FILE = /castor/cern.ch/delphi/MCprod/lyon/kk2f4143/v99e/91.25/kk2f4143_qq_91.25_1127.xsdst ! RUN = 1127 ! NEVT = 1000
FILE = /castor/cern.ch/delphi/MCprod/lyon/kk2f4143/v99e/91.25/kk2f4143_qq_91.25_1128.xsdst ! RUN = 1128 ! NEVT = 1000
FILE = /castor/cern.ch/delphi/MCprod/lyon/kk2f4143/v99e/91.25/kk2f4143_qq_91.25_1129.xsdst ! RUN = 1129 ! NEVT = 1000
FILE = /castor/cern.ch/delphi/MCprod/lyon/kk2f4143/v99e/91.25/kk2f4143_qq_91.25_1130.xsdst ! RUN = 1130 ! NEVT = 1000
FILE = /castor/cern.ch/delphi/MCprod/lyon/kk2f4143/v99e/91.25/kk2f4143_qq_91.25_1131.xsdst ! RUN = 1131 ! NEVT = 1000
FILE = /castor/cern.ch/delphi/MCprod/lyon/kk2f4143/v99e/91.25/kk2f4143_qq_91.25_1132.xsdst ! RUN = 1132 ! NEVT = 1000
FILE = /castor/cern.ch/delphi/MCprod/lyon/kk2f4143/v99e/91.25/kk2f4143_qq_91.25_1133.xsdst ! RUN = 1133 ! NEVT = 1000
FILE = /castor/cern.ch/delphi/MCprod/lyon/kk2f4143/v99e/91.25/kk2f4143_qq_91.25_1134.xsdst ! RUN = 1134 ! NEVT = 1000
FILE = /castor/cern.ch/delphi/MCprod/lyon/kk2f4143/v99e/91.25/kk2f4143_qq_91.25_1135.xsdst ! RUN = 1135 ! NEVT = 1000
FILE = /castor/cern.ch/delphi/MCprod/lyon/kk2f4143/v99e/91.25/kk2f4143_qq_91.25_1136.xsdst ! RUN = 1136 ! NEVT = 999
FILE = /castor/cern.ch/delphi/MCprod/lyon/kk2f4143/v99e/91.25/kk2f4143_qq_91.25_1137.xsdst ! RUN = 1137 ! NEVT = 1000
FILE = /castor/cern.ch/delphi/MCprod/lyon/kk2f4143/v99e/91.25/kk2f4143_qq_91.25_1138.xsdst ! RUN = 1138 ! NEVT = 1000
FILE = /castor/cern.ch/delphi/MCprod/lyon/kk2f4143/v99e/91.25/kk2f4143_qq_91.25_1139.xsdst ! RUN = 1139 ! NEVT = 1000
FILE = /castor/cern.ch/delphi/MCprod/lyon/kk2f4143/v99e/91.25/kk2f4143_qq_91.25_1140.xsdst ! RUN = 1140 ! NEVT = 1000
FILE = /castor/cern.ch/delphi/MCprod/lyon/kk2f4143/v99e/91.25/kk2f4143_qq_91.25_1141.xsdst ! RUN = 1141 ! NEVT = 1000
FILE = /castor/cern.ch/delphi/MCprod/lyon/kk2f4143/v99e/91.25/kk2f4143_qq_91.25_1142.xsdst ! RUN = 1142 ! NEVT = 1000
FILE = /castor/cern.ch/delphi/MCprod/lyon/kk2f4143/v99e/91.25/kk2f4143_qq_91.25_1143.xsdst ! RUN = 1143 ! NEVT = 1000
FILE = /castor/cern.ch/delphi/MCprod/lyon/kk2f4143/v99e/91.25/kk2f4143_qq_91.25_1144.xsdst ! RUN = 1144 ! NEVT = 1000
FILE = /castor/cern.ch/delphi/MCprod/lyon/kk2f4143/v99e/91.25/kk2f4143_qq_91.25_1145.xsdst ! RUN = 1145 ! NEVT = 1000
FILE = /castor/cern.ch/delphi/MCprod/lyon/kk2f4143/v99e/91.25/kk2f4143_qq_91.25_1146.xsdst ! RUN = 1146 ! NEVT = 1000
FILE = /castor/cern.ch/delphi/MCprod/lyon/kk2f4143/v99e/91.25/kk2f4143_qq_91.25_1147.xsdst ! RUN = 1147 ! NEVT = 1000
FILE = /castor/cern.ch/delphi/MCprod/lyon/kk2f4143/v99e/91.25/kk2f4143_qq_91.25_1148.xsdst ! RUN = 1148 ! NEVT = 1000
FILE = /castor/cern.ch/delphi/MCprod/lyon/kk2f4143/v99e/91.25/kk2f4143_qq_91.25_1149.xsdst ! RUN = 1149 ! NEVT = 1000
FILE = /castor/cern.ch/delphi/MCprod/lyon/kk2f4143/v99e/91.25/kk2f4143_qq_91.25_1150.xsdst ! RUN = 1150 ! NEVT = 1000
FILE = /castor/cern.ch/delphi/MCprod/lyon/kk2f4143/v99e/91.25/kk2f4143_qq_91.25_1151.xsdst ! RUN = 1151 ! NEVT = 1000
FILE = /castor/cern.ch/delphi/MCprod/lyon/kk2f4143/v99e/91.25/kk2f4143_qq_91.25_1152.xsdst ! RUN = 1152 ! NEVT = 998
FILE = /castor/cern.ch/delphi/MCprod/lyon/kk2f4143/v99e/91.25/kk2f4143_qq_91.25_1153.xsdst ! RUN = 1153 ! NEVT = 1000
FILE = /castor/cern.ch/delphi/MCprod/lyon/kk2f4143/v99e/91.25/kk2f4143_qq_91.25_1154.xsdst ! RUN = 1154 ! NEVT = 1000
FILE = /castor/cern.ch/delphi/MCprod/lyon/kk2f4143/v99e/91.25/kk2f4143_qq_91.25_1155.xsdst ! RUN = 1155 ! NEVT = 1000
FILE = /castor/cern.ch/delphi/MCprod/lyon/kk2f4143/v99e/91.25/kk2f4143_qq_91.25_1156.xsdst ! RUN = 1156 ! NEVT = 1000
FILE = /castor/cern.ch/delphi/MCprod/lyon/kk2f4143/v99e/91.25/kk2f4143_qq_91.25_1157.xsdst ! RUN = 1157 ! NEVT = 999
FILE = /castor/cern.ch/delphi/MCprod/lyon/kk2f4143/v99e/91.25/kk2f4143_qq_91.25_1158.xsdst ! RUN = 1158 ! NEVT = 1000
FILE = /castor/cern.ch/delphi/MCprod/lyon/kk2f4143/v99e/91.25/kk2f4143_qq_91.25_1159.xsdst ! RUN = 1159 ! NEVT = 1000
FILE = /castor/cern.ch/delphi/MCprod/lyon/kk2f4143/v99e/91.25/kk2f4143_qq_91.25_1160.xsdst ! RUN = 1160 ! NEVT = 1000
FILE = /castor/cern.ch/delphi/MCprod/lyon/kk2f4143/v99e/91.25/kk2f4143_qq_91.25_1161.xsdst ! RUN = 1161 ! NEVT = 770
FILE = /castor/cern.ch/delphi/MCprod/lyon/kk2f4143/v99e/91.25/kk2f4143_qq_91.25_1162.xsdst ! RUN = 1162 ! NEVT = 1000
FILE = /castor/cern.ch/delphi/MCprod/lyon/kk2f4143/v99e/91.25/kk2f4143_qq_91.25_1163.xsdst ! RUN = 1163 ! NEVT = 1000
FILE = /castor/cern.ch/delphi/MCprod/lyon/kk2f4143/v99e/91.25/kk2f4143_qq_91.25_1164.xsdst ! RUN = 1164 ! NEVT = 1000
FILE = /castor/cern.ch/delphi/MCprod/lyon/kk2f4143/v99e/91.25/kk2f4143_qq_91.25_1165.xsdst ! RUN = 1165 ! NEVT = 1000
FILE = /castor/cern.ch/delphi/MCprod/lyon/kk2f4143/v99e/91.25/kk2f4143_qq_91.25_1166.xsdst ! RUN = 1166 ! NEVT = 1000
FILE = /castor/cern.ch/delphi/MCprod/lyon/kk2f4143/v99e/91.25/kk2f4143_qq_91.25_1167.xsdst ! RUN = 1167 ! NEVT = 1000
FILE = /castor/cern.ch/delphi/MCprod/lyon/kk2f4143/v99e/91.25/kk2f4143_qq_91.25_1168.xsdst ! RUN = 1168 ! NEVT = 1000
FILE = /castor/cern.ch/delphi/MCprod/lyon/kk2f4143/v99e/91.25/kk2f4143_qq_91.25_1169.xsdst ! RUN = 1169 ! NEVT = 1000
FILE = /castor/cern.ch/delphi/MCprod/lyon/kk2f4143/v99e/91.25/kk2f4143_qq_91.25_1170.xsdst ! RUN = 1170 ! NEVT = 1000
FILE = /castor/cern.ch/delphi/MCprod/lyon/kk2f4143/v99e/91.25/kk2f4143_qq_91.25_1171.xsdst ! RUN = 1171 ! NEVT = 1000
FILE = /castor/cern.ch/delphi/MCprod/lyon/kk2f4143/v99e/91.25/kk2f4143_qq_91.25_1172.xsdst ! RUN = 1172 ! NEVT = 1000
FILE = /castor/cern.ch/delphi/MCprod/lyon/kk2f4143/v99e/91.25/kk2f4143_qq_91.25_1173.xsdst ! RUN = 1173 ! NEVT = 1000
FILE = /castor/cern.ch/delphi/MCprod/lyon/kk2f4143/v99e/91.25/kk2f4143_qq_91.25_1174.xsdst ! RUN = 1174 ! NEVT = 1000
FILE = /castor/cern.ch/delphi/MCprod/lyon/kk2f4143/v99e/91.25/kk2f4143_qq_91.25_1175.xsdst ! RUN = 1175 ! NEVT = 1000
FILE = /castor/cern.ch/delphi/MCprod/lyon/kk2f4143/v99e/91.25/kk2f4143_qq_91.25_1176.xsdst ! RUN = 1176 ! NEVT = 1000
FILE = /castor/cern.ch/delphi/MCprod/lyon/kk2f4143/v99e/91.25/kk2f4143_qq_91.25_1177.xsdst ! RUN = 1177 ! NEVT = 1000
FILE = /castor/cern.ch/delphi/MCprod/lyon/kk2f4143/v99e/91.25/kk2f4143_qq_91.25_1178.xsdst ! RUN = 1178 ! NEVT = 1000
FILE = /castor/cern.ch/delphi/MCprod/lyon/kk2f4143/v99e/91.25/kk2f4143_qq_91.25_1179.xsdst ! RUN = 1179 ! NEVT = 1000
FILE = /castor/cern.ch/delphi/MCprod/lyon/kk2f4143/v99e/91.25/kk2f4143_qq_91.25_1180.xsdst ! RUN = 1180 ! NEVT = 1000
FILE = /castor/cern.ch/delphi/MCprod/lyon/kk2f4143/v99e/91.25/kk2f4143_qq_91.25_1181.xsdst ! RUN = 1181 ! NEVT = 1000
FILE = /castor/cern.ch/delphi/MCprod/lyon/kk2f4143/v99e/91.25/kk2f4143_qq_91.25_1182.xsdst ! RUN = 1182 ! NEVT = 1000
FILE = /castor/cern.ch/delphi/MCprod/lyon/kk2f4143/v99e/91.25/kk2f4143_qq_91.25_1183.xsdst ! RUN = 1183 ! NEVT = 1000
FILE = /castor/cern.ch/delphi/MCprod/lyon/kk2f4143/v99e/91.25/kk2f4143_qq_91.25_1184.xsdst ! RUN = 1184 ! NEVT = 1000
FILE = /castor/cern.ch/delphi/MCprod/lyon/kk2f4143/v99e/91.25/kk2f4143_qq_91.25_1185.xsdst ! RUN = 1185 ! NEVT = 1000
FILE = /castor/cern.ch/delphi/MCprod/lyon/kk2f4143/v99e/91.25/kk2f4143_qq_91.25_1186.xsdst ! RUN = 1186 ! NEVT = 1000
FILE = /castor/cern.ch/delphi/MCprod/lyon/kk2f4143/v99e/91.25/kk2f4143_qq_91.25_1187.xsdst ! RUN = 1187 ! NEVT = 999
FILE = /castor/cern.ch/delphi/MCprod/lyon/kk2f4143/v99e/91.25/kk2f4143_qq_91.25_1188.xsdst ! RUN = 1188 ! NEVT = 1000
FILE = /castor/cern.ch/delphi/MCprod/lyon/kk2f4143/v99e/91.25/kk2f4143_qq_91.25_1189.xsdst ! RUN = 1189 ! NEVT = 1000
FILE = /castor/cern.ch/delphi/MCprod/lyon/kk2f4143/v99e/91.25/kk2f4143_qq_91.25_1190.xsdst ! RUN = 1190 ! NEVT = 1000
FILE = /castor/cern.ch/delphi/MCprod/lyon/kk2f4143/v99e/91.25/kk2f4143_qq_91.25_1191.xsdst ! RUN = 1191 ! NEVT = 1000
FILE = /castor/cern.ch/delphi/MCprod/lyon/kk2f4143/v99e/91.25/kk2f4143_qq_91.25_1192.xsdst ! RUN = 1192 ! NEVT = 1000
FILE = /castor/cern.ch/delphi/MCprod/lyon/kk2f4143/v99e/91.25/kk2f4143_qq_91.25_1193.xsdst ! RUN = 1193 ! NEVT = 1000
FILE = /castor/cern.ch/delphi/MCprod/lyon/kk2f4143/v99e/91.25/kk2f4143_qq_91.25_1194.xsdst ! RUN = 1194 ! NEVT = 1000
FILE = /castor/cern.ch/delphi/MCprod/lyon/kk2f4143/v99e/91.25/kk2f4143_qq_91.25_1195.xsdst ! RUN = 1195 ! NEVT = 1000
FILE = /castor/cern.ch/delphi/MCprod/lyon/kk2f4143/v99e/91.25/kk2f4143_qq_91.25_1196.xsdst ! RUN = 1196 ! NEVT = 1000
FILE = /castor/cern.ch/delphi/MCprod/lyon/kk2f4143/v99e/91.25/kk2f4143_qq_91.25_1197.xsdst ! RUN = 1197 ! NEVT = 1000
FILE = /castor/cern.ch/delphi/MCprod/lyon/kk2f4143/v99e/91.25/kk2f4143_qq_91.25_1198.xsdst ! RUN = 1198 ! NEVT = 1000
FILE = /castor/cern.ch/delphi/MCprod/lyon/kk2f4143/v99e/91.25/kk2f4143_qq_91.25_1199.xsdst ! RUN = 1199 ! NEVT = 1000
FILE = /castor/cern.ch/delphi/MCprod/lyon/kk2f4143/v99e/91.25/kk2f4143_qq_91.25_1200.xsdst ! RUN = 1200 ! NEVT = 1000
FILE = /castor/cern.ch/delphi/MCprod/lyon/kk2f4143/v99e/91.25/kk2f4143_qq_91.25_1201.xsdst ! RUN = 1201 ! NEVT = 1000
FILE = /castor/cern.ch/delphi/MCprod/lyon/kk2f4143/v99e/91.25/kk2f4143_qq_91.25_1202.xsdst ! RUN = 1202 ! NEVT = 1000
FILE = /castor/cern.ch/delphi/MCprod/lyon/kk2f4143/v99e/91.25/kk2f4143_qq_91.25_1203.xsdst ! RUN = 1203 ! NEVT = 1000
FILE = /castor/cern.ch/delphi/MCprod/lyon/kk2f4143/v99e/91.25/kk2f4143_qq_91.25_1204.xsdst ! RUN = 1204 ! NEVT = 1000
FILE = /castor/cern.ch/delphi/MCprod/lyon/kk2f4143/v99e/91.25/kk2f4143_qq_91.25_1205.xsdst ! RUN = 1205 ! NEVT = 1000
FILE = /castor/cern.ch/delphi/MCprod/lyon/kk2f4143/v99e/91.25/kk2f4143_qq_91.25_1206.xsdst ! RUN = 1206 ! NEVT = 1000
FILE = /castor/cern.ch/delphi/MCprod/lyon/kk2f4143/v99e/91.25/kk2f4143_qq_91.25_1207.xsdst ! RUN = 1207 ! NEVT = 1000
FILE = /castor/cern.ch/delphi/MCprod/lyon/kk2f4143/v99e/91.25/kk2f4143_qq_91.25_1208.xsdst ! RUN = 1208 ! NEVT = 999
FILE = /castor/cern.ch/delphi/MCprod/lyon/kk2f4143/v99e/91.25/kk2f4143_qq_91.25_1209.xsdst ! RUN = 1209 ! NEVT = 1000
FILE = /castor/cern.ch/delphi/MCprod/lyon/kk2f4143/v99e/91.25/kk2f4143_qq_91.25_1210.xsdst ! RUN = 1210 ! NEVT = 1000
FILE = /castor/cern.ch/delphi/MCprod/lyon/kk2f4143/v99e/91.25/kk2f4143_qq_91.25_1211.xsdst ! RUN = 1211 ! NEVT = 1000
FILE = /castor/cern.ch/delphi/MCprod/lyon/kk2f4143/v99e/91.25/kk2f4143_qq_91.25_1212.xsdst ! RUN = 1212 ! NEVT = 1000
FILE = /castor/cern.ch/delphi/MCprod/lyon/kk2f4143/v99e/91.25/kk2f4143_qq_91.25_1213.xsdst ! RUN = 1213 ! NEVT = 999
FILE = /castor/cern.ch/delphi/MCprod/lyon/kk2f4143/v99e/91.25/kk2f4143_qq_91.25_1214.xsdst ! RUN = 1214 ! NEVT = 1000
FILE = /castor/cern.ch/delphi/MCprod/lyon/kk2f4143/v99e/91.25/kk2f4143_qq_91.25_1215.xsdst ! RUN = 1215 ! NEVT = 1000
FILE = /castor/cern.ch/delphi/MCprod/lyon/kk2f4143/v99e/91.25/kk2f4143_qq_91.25_1216.xsdst ! RUN = 1216 ! NEVT = 1000
FILE = /castor/cern.ch/delphi/MCprod/lyon/kk2f4143/v99e/91.25/kk2f4143_qq_91.25_1217.xsdst ! RUN = 1217 ! NEVT = 1000
FILE = /castor/cern.ch/delphi/MCprod/lyon/kk2f4143/v99e/91.25/kk2f4143_qq_91.25_1218.xsdst ! RUN = 1218 ! NEVT = 999
FILE = /castor/cern.ch/delphi/MCprod/lyon/kk2f4143/v99e/91.25/kk2f4143_qq_91.25_1219.xsdst ! RUN = 1219 ! NEVT = 1000
FILE = /castor/cern.ch/delphi/MCprod/lyon/kk2f4143/v99e/91.25/kk2f4143_qq_91.25_1220.xsdst ! RUN = 1220 ! NEVT = 1000
FILE = /castor/cern.ch/delphi/MCprod/lyon/kk2f4143/v99e/91.25/kk2f4143_qq_91.25_1221.xsdst ! RUN = 1221 ! NEVT = 1000
FILE = /castor/cern.ch/delphi/MCprod/lyon/kk2f4143/v99e/91.25/kk2f4143_qq_91.25_1222.xsdst ! RUN = 1222 ! NEVT = 1000
FILE = /castor/cern.ch/delphi/MCprod/lyon/kk2f4143/v99e/91.25/kk2f4143_qq_91.25_1223.xsdst ! RUN = 1223 ! NEVT = 1000
FILE = /castor/cern.ch/delphi/MCprod/lyon/kk2f4143/v99e/91.25/kk2f4143_qq_91.25_1224.xsdst ! RUN = 1224 ! NEVT = 1000
FILE = /castor/cern.ch/delphi/MCprod/lyon/kk2f4143/v99e/91.25/kk2f4143_qq_91.25_1225.xsdst ! RUN = 1225 ! NEVT = 1000
FILE = /castor/cern.ch/delphi/MCprod/lyon/kk2f4143/v99e/91.25/kk2f4143_qq_91.25_1226.xsdst ! RUN = 1226 ! NEVT = 1000
FILE = /castor/cern.ch/delphi/MCprod/lyon/kk2f4143/v99e/91.25/kk2f4143_qq_91.25_1227.xsdst ! RUN = 1227 ! NEVT = 999
FILE = /castor/cern.ch/delphi/MCprod/lyon/kk2f4143/v99e/91.25/kk2f4143_qq_91.25_1228.xsdst ! RUN = 1228 ! NEVT = 1000
FILE = /castor/cern.ch/delphi/MCprod/lyon/kk2f4143/v99e/91.25/kk2f4143_qq_91.25_1229.xsdst ! RUN = 1229 ! NEVT = 1000
FILE = /castor/cern.ch/delphi/MCprod/lyon/kk2f4143/v99e/91.25/kk2f4143_qq_91.25_1230.xsdst ! RUN = 1230 ! NEVT = 1000
FILE = /castor/cern.ch/delphi/MCprod/lyon/kk2f4143/v99e/91.25/kk2f4143_qq_91.25_1231.xsdst ! RUN = 1231 ! NEVT = 1000
FILE = /castor/cern.ch/delphi/MCprod/lyon/kk2f4143/v99e/91.25/kk2f4143_qq_91.25_1232.xsdst ! RUN = 1232 ! NEVT = 1000
FILE = /castor/cern.ch/delphi/MCprod/lyon/kk2f4143/v99e/91.25/kk2f4143_qq_91.25_1233.xsdst ! RUN = 1233 ! NEVT = 1000
FILE = /castor/cern.ch/delphi/MCprod/lyon/kk2f4143/v99e/91.25/kk2f4143_qq_91.25_1234.xsdst ! RUN = 1234 ! NEVT = 1000
FILE = /castor/cern.ch/delphi/MCprod/lyon/kk2f4143/v99e/91.25/kk2f4143_qq_91.25_1235.xsdst ! RUN = 1235 ! NEVT = 1000
FILE = /castor/cern.ch/delphi/MCprod/lyon/kk2f4143/v99e/91.25/kk2f4143_qq_91.25_1236.xsdst ! RUN = 1236 ! NEVT = 1000
FILE = /castor/cern.ch/delphi/MCprod/lyon/kk2f4143/v99e/91.25/kk2f4143_qq_91.25_1237.xsdst ! RUN = 1237 ! NEVT = 1000
FILE = /castor/cern.ch/delphi/MCprod/lyon/kk2f4143/v99e/91.25/kk2f4143_qq_91.25_1238.xsdst ! RUN = 1238 ! NEVT = 1000
FILE = /castor/cern.ch/delphi/MCprod/lyon/kk2f4143/v99e/91.25/kk2f4143_qq_91.25_1239.xsdst ! RUN = 1239 ! NEVT = 1000
FILE = /castor/cern.ch/delphi/MCprod/lyon/kk2f4143/v99e/91.25/kk2f4143_qq_91.25_1240.xsdst ! RUN = 1240 ! NEVT = 1000
FILE = /castor/cern.ch/delphi/MCprod/lyon/kk2f4143/v99e/91.25/kk2f4143_qq_91.25_1241.xsdst ! RUN = 1241 ! NEVT = 1000
FILE = /castor/cern.ch/delphi/MCprod/lyon/kk2f4143/v99e/91.25/kk2f4143_qq_91.25_1242.xsdst ! RUN = 1242 ! NEVT = 1000
FILE = /castor/cern.ch/delphi/MCprod/lyon/kk2f4143/v99e/91.25/kk2f4143_qq_91.25_1243.xsdst ! RUN = 1243 ! NEVT = 999
FILE = /castor/cern.ch/delphi/MCprod/lyon/kk2f4143/v99e/91.25/kk2f4143_qq_91.25_1244.xsdst ! RUN = 1244 ! NEVT = 1000
FILE = /castor/cern.ch/delphi/MCprod/lyon/kk2f4143/v99e/91.25/kk2f4143_qq_91.25_1245.xsdst ! RUN = 1245 ! NEVT = 1000
FILE = /castor/cern.ch/delphi/MCprod/lyon/kk2f4143/v99e/91.25/kk2f4143_qq_91.25_1246.xsdst ! RUN = 1246 ! NEVT = 1000
FILE = /castor/cern.ch/delphi/MCprod/lyon/kk2f4143/v99e/91.25/kk2f4143_qq_91.25_1247.xsdst ! RUN = 1247 ! NEVT = 1000
FILE = /castor/cern.ch/delphi/MCprod/lyon/kk2f4143/v99e/91.25/kk2f4143_qq_91.25_1248.xsdst ! RUN = 1248 ! NEVT = 1000
FILE = /castor/cern.ch/delphi/MCprod/lyon/kk2f4143/v99e/91.25/kk2f4143_qq_91.25_1249.xsdst ! RUN = 1249 ! NEVT = 1000
FILE = /castor/cern.ch/delphi/MCprod/lyon/kk2f4143/v99e/91.25/kk2f4143_qq_91.25_1250.xsdst ! RUN = 1250 ! NEVT = 1000
FILE = /castor/cern.ch/delphi/MCprod/lyon/kk2f4143/v99e/91.25/kk2f4143_qq_91.25_1251.xsdst ! RUN = 1251 ! NEVT = 1000
FILE = /castor/cern.ch/delphi/MCprod/lyon/kk2f4143/v99e/91.25/kk2f4143_qq_91.25_1252.xsdst ! RUN = 1252 ! NEVT = 999
FILE = /castor/cern.ch/delphi/MCprod/lyon/kk2f4143/v99e/91.25/kk2f4143_qq_91.25_1253.xsdst ! RUN = 1253 ! NEVT = 1000
FILE = /castor/cern.ch/delphi/MCprod/lyon/kk2f4143/v99e/91.25/kk2f4143_qq_91.25_1254.xsdst ! RUN = 1254 ! NEVT = 1000
FILE = /castor/cern.ch/delphi/MCprod/lyon/kk2f4143/v99e/91.25/kk2f4143_qq_91.25_1255.xsdst ! RUN = 1255 ! NEVT = 1000
FILE = /castor/cern.ch/delphi/MCprod/lyon/kk2f4143/v99e/91.25/kk2f4143_qq_91.25_1256.xsdst ! RUN = 1256 ! NEVT = 1000
FILE = /castor/cern.ch/delphi/MCprod/lyon/kk2f4143/v99e/91.25/kk2f4143_qq_91.25_1257.xsdst ! RUN = 1257 ! NEVT = 1000
FILE = /castor/cern.ch/delphi/MCprod/lyon/kk2f4143/v99e/91.25/kk2f4143_qq_91.25_1258.xsdst ! RUN = 1258 ! NEVT = 1000
FILE = /castor/cern.ch/delphi/MCprod/lyon/kk2f4143/v99e/91.25/kk2f4143_qq_91.25_1259.xsdst ! RUN = 1259 ! NEVT = 1000
FILE = /castor/cern.ch/delphi/MCprod/lyon/kk2f4143/v99e/91.25/kk2f4143_qq_91.25_1260.xsdst ! RUN = 1260 ! NEVT = 1000
FILE = /castor/cern.ch/delphi/MCprod/lyon/kk2f4143/v99e/91.25/kk2f4143_qq_91.25_1261.xsdst ! RUN = 1261 ! NEVT = 1000
FILE = /castor/cern.ch/delphi/MCprod/lyon/kk2f4143/v99e/91.25/kk2f4143_qq_91.25_1262.xsdst ! RUN = 1262 ! NEVT = 1000
FILE = /castor/cern.ch/delphi/MCprod/lyon/kk2f4143/v99e/91.25/kk2f4143_qq_91.25_1263.xsdst ! RUN = 1263 ! NEVT = 1000
FILE = /castor/cern.ch/delphi/MCprod/lyon/kk2f4143/v99e/91.25/kk2f4143_qq_91.25_1264.xsdst ! RUN = 1264 ! NEVT = 1000
FILE = /castor/cern.ch/delphi/MCprod/lyon/kk2f4143/v99e/91.25/kk2f4143_qq_91.25_1265.xsdst ! RUN = 1265 ! NEVT = 1000
FILE = /castor/cern.ch/delphi/MCprod/lyon/kk2f4143/v99e/91.25/kk2f4143_qq_91.25_1266.xsdst ! RUN = 1266 ! NEVT = 1000
FILE = /castor/cern.ch/delphi/MCprod/lyon/kk2f4143/v99e/91.25/kk2f4143_qq_91.25_1267.xsdst ! RUN = 1267 ! NEVT = 1000
FILE = /castor/cern.ch/delphi/MCprod/lyon/kk2f4143/v99e/91.25/kk2f4143_qq_91.25_1268.xsdst ! RUN = 1268 ! NEVT = 1000
FILE = /castor/cern.ch/delphi/MCprod/lyon/kk2f4143/v99e/91.25/kk2f4143_qq_91.25_1269.xsdst ! RUN = 1269 ! NEVT = 999
FILE = /castor/cern.ch/delphi/MCprod/lyon/kk2f4143/v99e/91.25/kk2f4143_qq_91.25_1270.xsdst ! RUN = 1270 ! NEVT = 1000
FILE = /castor/cern.ch/delphi/MCprod/lyon/kk2f4143/v99e/91.25/kk2f4143_qq_91.25_1271.xsdst ! RUN = 1271 ! NEVT = 999
FILE = /castor/cern.ch/delphi/MCprod/lyon/kk2f4143/v99e/91.25/kk2f4143_qq_91.25_1272.xsdst ! RUN = 1272 ! NEVT = 1000
FILE = /castor/cern.ch/delphi/MCprod/lyon/kk2f4143/v99e/91.25/kk2f4143_qq_91.25_1273.xsdst ! RUN = 1273 ! NEVT = 1000
FILE = /castor/cern.ch/delphi/MCprod/lyon/kk2f4143/v99e/91.25/kk2f4143_qq_91.25_1274.xsdst ! RUN = 1274 ! NEVT = 1000
FILE = /castor/cern.ch/delphi/MCprod/lyon/kk2f4143/v99e/91.25/kk2f4143_qq_91.25_1275.xsdst ! RUN = 1275 ! NEVT = 1000
FILE = /castor/cern.ch/delphi/MCprod/lyon/kk2f4143/v99e/91.25/kk2f4143_qq_91.25_1276.xsdst ! RUN = 1276 ! NEVT = 1000
FILE = /castor/cern.ch/delphi/MCprod/lyon/kk2f4143/v99e/91.25/kk2f4143_qq_91.25_1277.xsdst ! RUN = 1277 ! NEVT = 1000
FILE = /castor/cern.ch/delphi/MCprod/lyon/kk2f4143/v99e/91.25/kk2f4143_qq_91.25_1278.xsdst ! RUN = 1278 ! NEVT = 1000
FILE = /castor/cern.ch/delphi/MCprod/lyon/kk2f4143/v99e/91.25/kk2f4143_qq_91.25_1279.xsdst ! RUN = 1279 ! NEVT = 1000
FILE = /castor/cern.ch/delphi/MCprod/lyon/kk2f4143/v99e/91.25/kk2f4143_qq_91.25_1280.xsdst ! RUN = 1280 ! NEVT = 999
FILE = /castor/cern.ch/delphi/MCprod/lyon/kk2f4143/v99e/91.25/kk2f4143_qq_91.25_1281.xsdst ! RUN = 1281 ! NEVT = 1000
FILE = /castor/cern.ch/delphi/MCprod/lyon/kk2f4143/v99e/91.25/kk2f4143_qq_91.25_1282.xsdst ! RUN = 1282 ! NEVT = 1000
FILE = /castor/cern.ch/delphi/MCprod/lyon/kk2f4143/v99e/91.25/kk2f4143_qq_91.25_1283.xsdst ! RUN = 1283 ! NEVT = 1000
FILE = /castor/cern.ch/delphi/MCprod/lyon/kk2f4143/v99e/91.25/kk2f4143_qq_91.25_1284.xsdst ! RUN = 1284 ! NEVT = 1000
FILE = /castor/cern.ch/delphi/MCprod/lyon/kk2f4143/v99e/91.25/kk2f4143_qq_91.25_1285.xsdst ! RUN = 1285 ! NEVT = 1000
FILE = /castor/cern.ch/delphi/MCprod/lyon/kk2f4143/v99e/91.25/kk2f4143_qq_91.25_1286.xsdst ! RUN = 1286 ! NEVT = 1000
FILE = /castor/cern.ch/delphi/MCprod/lyon/kk2f4143/v99e/91.25/kk2f4143_qq_91.25_1287.xsdst ! RUN = 1287 ! NEVT = 1000
FILE = /castor/cern.ch/delphi/MCprod/lyon/kk2f4143/v99e/91.25/kk2f4143_qq_91.25_1288.xsdst ! RUN = 1288 ! NEVT = 1000
FILE = /castor/cern.ch/delphi/MCprod/lyon/kk2f4143/v99e/91.25/kk2f4143_qq_91.25_1289.xsdst ! RUN = 1289 ! NEVT = 1000
FILE = /castor/cern.ch/delphi/MCprod/lyon/kk2f4143/v99e/91.25/kk2f4143_qq_91.25_1290.xsdst ! RUN = 1290 ! NEVT = 1000
FILE = /castor/cern.ch/delphi/MCprod/lyon/kk2f4143/v99e/91.25/kk2f4143_qq_91.25_1291.xsdst ! RUN = 1291 ! NEVT = 1000
FILE = /castor/cern.ch/delphi/MCprod/lyon/kk2f4143/v99e/91.25/kk2f4143_qq_91.25_1292.xsdst ! RUN = 1292 ! NEVT = 1000
FILE = /castor/cern.ch/delphi/MCprod/lyon/kk2f4143/v99e/91.25/kk2f4143_qq_91.25_1293.xsdst ! RUN = 1293 ! NEVT = 1000
FILE = /castor/cern.ch/delphi/MCprod/lyon/kk2f4143/v99e/91.25/kk2f4143_qq_91.25_1294.xsdst ! RUN = 1294 ! NEVT = 1000
FILE = /castor/cern.ch/delphi/MCprod/lyon/kk2f4143/v99e/91.25/kk2f4143_qq_91.25_1295.xsdst ! RUN = 1295 ! NEVT = 1000
FILE = /castor/cern.ch/delphi/MCprod/lyon/kk2f4143/v99e/91.25/kk2f4143_qq_91.25_1296.xsdst ! RUN = 1296 ! NEVT = 1000
FILE = /castor/cern.ch/delphi/MCprod/lyon/kk2f4143/v99e/91.25/kk2f4143_qq_91.25_1297.xsdst ! RUN = 1297 ! NEVT = 1000
FILE = /castor/cern.ch/delphi/MCprod/lyon/kk2f4143/v99e/91.25/kk2f4143_qq_91.25_1298.xsdst ! RUN = 1298 ! NEVT = 1000
FILE = /castor/cern.ch/delphi/MCprod/lyon/kk2f4143/v99e/91.25/kk2f4143_qq_91.25_1299.xsdst ! RUN = 1299 ! NEVT = 997
FILE = /castor/cern.ch/delphi/MCprod/lyon/kk2f4143/v99e/91.25/kk2f4143_qq_91.25_1300.xsdst ! RUN = 1300 ! NEVT = 1000
FILE = /castor/cern.ch/delphi/MCprod/lyon/kk2f4143/v99e/91.25/kk2f4143_qq_91.25_1301.xsdst ! RUN = 1301 ! NEVT = 1000
FILE = /castor/cern.ch/delphi/MCprod/lyon/kk2f4143/v99e/91.25/kk2f4143_qq_91.25_1302.xsdst ! RUN = 1302 ! NEVT = 1000
FILE = /castor/cern.ch/delphi/MCprod/lyon/kk2f4143/v99e/91.25/kk2f4143_qq_91.25_1303.xsdst ! RUN = 1303 ! NEVT = 1000
FILE = /castor/cern.ch/delphi/MCprod/lyon/kk2f4143/v99e/91.25/kk2f4143_qq_91.25_1304.xsdst ! RUN = 1304 ! NEVT = 1000
FILE = /castor/cern.ch/delphi/MCprod/lyon/kk2f4143/v99e/91.25/kk2f4143_qq_91.25_1305.xsdst ! RUN = 1305 ! NEVT = 1000
FILE = /castor/cern.ch/delphi/MCprod/lyon/kk2f4143/v99e/91.25/kk2f4143_qq_91.25_1306.xsdst ! RUN = 1306 ! NEVT = 1000
FILE = /castor/cern.ch/delphi/MCprod/lyon/kk2f4143/v99e/91.25/kk2f4143_qq_91.25_1307.xsdst ! RUN = 1307 ! NEVT = 999
FILE = /castor/cern.ch/delphi/MCprod/lyon/kk2f4143/v99e/91.25/kk2f4143_qq_91.25_1308.xsdst ! RUN = 1308 ! NEVT = 1000
FILE = /castor/cern.ch/delphi/MCprod/lyon/kk2f4143/v99e/91.25/kk2f4143_qq_91.25_1309.xsdst ! RUN = 1309 ! NEVT = 1000
FILE = /castor/cern.ch/delphi/MCprod/lyon/kk2f4143/v99e/91.25/kk2f4143_qq_91.25_1310.xsdst ! RUN = 1310 ! NEVT = 1000
FILE = /castor/cern.ch/delphi/MCprod/lyon/kk2f4143/v99e/91.25/kk2f4143_qq_91.25_1311.xsdst ! RUN = 1311 ! NEVT = 1000
FILE = /castor/cern.ch/delphi/MCprod/lyon/kk2f4143/v99e/91.25/kk2f4143_qq_91.25_1313.xsdst ! RUN = 1313 ! NEVT = 1000
FILE = /castor/cern.ch/delphi/MCprod/lyon/kk2f4143/v99e/91.25/kk2f4143_qq_91.25_1314.xsdst ! RUN = 1314 ! NEVT = 1000
FILE = /castor/cern.ch/delphi/MCprod/lyon/kk2f4143/v99e/91.25/kk2f4143_qq_91.25_1315.xsdst ! RUN = 1315 ! NEVT = 1000
FILE = /castor/cern.ch/delphi/MCprod/lyon/kk2f4143/v99e/91.25/kk2f4143_qq_91.25_1316.xsdst ! RUN = 1316 ! NEVT = 1000
FILE = /castor/cern.ch/delphi/MCprod/lyon/kk2f4143/v99e/91.25/kk2f4143_qq_91.25_1317.xsdst ! RUN = 1317 ! NEVT = 1000
FILE = /castor/cern.ch/delphi/MCprod/lyon/kk2f4143/v99e/91.25/kk2f4143_qq_91.25_1318.xsdst ! RUN = 1318 ! NEVT = 1000
FILE = /castor/cern.ch/delphi/MCprod/lyon/kk2f4143/v99e/91.25/kk2f4143_qq_91.25_1319.xsdst ! RUN = 1319 ! NEVT = 1000
FILE = /castor/cern.ch/delphi/MCprod/lyon/kk2f4143/v99e/91.25/kk2f4143_qq_91.25_1320.xsdst ! RUN = 1320 ! NEVT = 1000
FILE = /castor/cern.ch/delphi/MCprod/lyon/kk2f4143/v99e/91.25/kk2f4143_qq_91.25_1321.xsdst ! RUN = 1321 ! NEVT = 1000
FILE = /castor/cern.ch/delphi/MCprod/lyon/kk2f4143/v99e/91.25/kk2f4143_qq_91.25_1322.xsdst ! RUN = 1322 ! NEVT = 1000
FILE = /castor/cern.ch/delphi/MCprod/lyon/kk2f4143/v99e/91.25/kk2f4143_qq_91.25_1323.xsdst ! RUN = 1323 ! NEVT = 1000
FILE = /castor/cern.ch/delphi/MCprod/lyon/kk2f4143/v99e/91.25/kk2f4143_qq_91.25_1324.xsdst ! RUN = 1324 ! NEVT = 1000
FILE = /castor/cern.ch/delphi/MCprod/lyon/kk2f4143/v99e/91.25/kk2f4143_qq_91.25_1325.xsdst ! RUN = 1325 ! NEVT = 1000
FILE = /castor/cern.ch/delphi/MCprod/lyon/kk2f4143/v99e/91.25/kk2f4143_qq_91.25_1326.xsdst ! RUN = 1326 ! NEVT = 1000
FILE = /castor/cern.ch/delphi/MCprod/lyon/kk2f4143/v99e/91.25/kk2f4143_qq_91.25_1327.xsdst ! RUN = 1327 ! NEVT = 1000
FILE = /castor/cern.ch/delphi/MCprod/lyon/kk2f4143/v99e/91.25/kk2f4143_qq_91.25_1328.xsdst ! RUN = 1328 ! NEVT = 999
FILE = /castor/cern.ch/delphi/MCprod/lyon/kk2f4143/v99e/91.25/kk2f4143_qq_91.25_1329.xsdst ! RUN = 1329 ! NEVT = 1000
FILE = /castor/cern.ch/delphi/MCprod/lyon/kk2f4143/v99e/91.25/kk2f4143_qq_91.25_1330.xsdst ! RUN = 1330 ! NEVT = 1000
FILE = /castor/cern.ch/delphi/MCprod/lyon/kk2f4143/v99e/91.25/kk2f4143_qq_91.25_1331.xsdst ! RUN = 1331 ! NEVT = 1000
FILE = /castor/cern.ch/delphi/MCprod/lyon/kk2f4143/v99e/91.25/kk2f4143_qq_91.25_1332.xsdst ! RUN = 1332 ! NEVT = 1000
FILE = /castor/cern.ch/delphi/MCprod/lyon/kk2f4143/v99e/91.25/kk2f4143_qq_91.25_1333.xsdst ! RUN = 1333 ! NEVT = 1000
FILE = /castor/cern.ch/delphi/MCprod/lyon/kk2f4143/v99e/91.25/kk2f4143_qq_91.25_1334.xsdst ! RUN = 1334 ! NEVT = 1000
FILE = /castor/cern.ch/delphi/MCprod/lyon/kk2f4143/v99e/91.25/kk2f4143_qq_91.25_1335.xsdst ! RUN = 1335 ! NEVT = 1000
FILE = /castor/cern.ch/delphi/MCprod/lyon/kk2f4143/v99e/91.25/kk2f4143_qq_91.25_1336.xsdst ! RUN = 1336 ! NEVT = 1000
FILE = /castor/cern.ch/delphi/MCprod/lyon/kk2f4143/v99e/91.25/kk2f4143_qq_91.25_1337.xsdst ! RUN = 1337 ! NEVT = 1000
FILE = /castor/cern.ch/delphi/MCprod/lyon/kk2f4143/v99e/91.25/kk2f4143_qq_91.25_1338.xsdst ! RUN = 1338 ! NEVT = 1000
FILE = /castor/cern.ch/delphi/MCprod/lyon/kk2f4143/v99e/91.25/kk2f4143_qq_91.25_1339.xsdst ! RUN = 1339 ! NEVT = 1000
FILE = /castor/cern.ch/delphi/MCprod/lyon/kk2f4143/v99e/91.25/kk2f4143_qq_91.25_1340.xsdst ! RUN = 1340 ! NEVT = 1000
FILE = /castor/cern.ch/delphi/MCprod/lyon/kk2f4143/v99e/91.25/kk2f4143_qq_91.25_1341.xsdst ! RUN = 1341 ! NEVT = 1000
FILE = /castor/cern.ch/delphi/MCprod/lyon/kk2f4143/v99e/91.25/kk2f4143_qq_91.25_1342.xsdst ! RUN = 1342 ! NEVT = 1000
FILE = /castor/cern.ch/delphi/MCprod/lyon/kk2f4143/v99e/91.25/kk2f4143_qq_91.25_1343.xsdst ! RUN = 1343 ! NEVT = 1000
FILE = /castor/cern.ch/delphi/MCprod/lyon/kk2f4143/v99e/91.25/kk2f4143_qq_91.25_1344.xsdst ! RUN = 1344 ! NEVT = 999
FILE = /castor/cern.ch/delphi/MCprod/lyon/kk2f4143/v99e/91.25/kk2f4143_qq_91.25_1345.xsdst ! RUN = 1345 ! NEVT = 1000
FILE = /castor/cern.ch/delphi/MCprod/lyon/kk2f4143/v99e/91.25/kk2f4143_qq_91.25_1346.xsdst ! RUN = 1346 ! NEVT = 1000
FILE = /castor/cern.ch/delphi/MCprod/lyon/kk2f4143/v99e/91.25/kk2f4143_qq_91.25_1347.xsdst ! RUN = 1347 ! NEVT = 1000
FILE = /castor/cern.ch/delphi/MCprod/lyon/kk2f4143/v99e/91.25/kk2f4143_qq_91.25_1348.xsdst ! RUN = 1348 ! NEVT = 1000
FILE = /castor/cern.ch/delphi/MCprod/lyon/kk2f4143/v99e/91.25/kk2f4143_qq_91.25_1349.xsdst ! RUN = 1349 ! NEVT = 1000
FILE = /castor/cern.ch/delphi/MCprod/lyon/kk2f4143/v99e/91.25/kk2f4143_qq_91.25_1350.xsdst ! RUN = 1350 ! NEVT = 999
FILE = /castor/cern.ch/delphi/MCprod/lyon/kk2f4143/v99e/91.25/kk2f4143_qq_91.25_1351.xsdst ! RUN = 1351 ! NEVT = 1000
FILE = /castor/cern.ch/delphi/MCprod/lyon/kk2f4143/v99e/91.25/kk2f4143_qq_91.25_1352.xsdst ! RUN = 1352 ! NEVT = 1000
FILE = /castor/cern.ch/delphi/MCprod/lyon/kk2f4143/v99e/91.25/kk2f4143_qq_91.25_1353.xsdst ! RUN = 1353 ! NEVT = 1000
FILE = /castor/cern.ch/delphi/MCprod/lyon/kk2f4143/v99e/91.25/kk2f4143_qq_91.25_1354.xsdst ! RUN = 1354 ! NEVT = 1000
FILE = /castor/cern.ch/delphi/MCprod/lyon/kk2f4143/v99e/91.25/kk2f4143_qq_91.25_1355.xsdst ! RUN = 1355 ! NEVT = 1000
FILE = /castor/cern.ch/delphi/MCprod/lyon/kk2f4143/v99e/91.25/kk2f4143_qq_91.25_1356.xsdst ! RUN = 1356 ! NEVT = 1000
FILE = /castor/cern.ch/delphi/MCprod/lyon/kk2f4143/v99e/91.25/kk2f4143_qq_91.25_1357.xsdst ! RUN = 1357 ! NEVT = 999
FILE = /castor/cern.ch/delphi/MCprod/lyon/kk2f4143/v99e/91.25/kk2f4143_qq_91.25_1358.xsdst ! RUN = 1358 ! NEVT = 1000
FILE = /castor/cern.ch/delphi/MCprod/lyon/kk2f4143/v99e/91.25/kk2f4143_qq_91.25_1359.xsdst ! RUN = 1359 ! NEVT = 1000
FILE = /castor/cern.ch/delphi/MCprod/lyon/kk2f4143/v99e/91.25/kk2f4143_qq_91.25_1360.xsdst ! RUN = 1360 ! NEVT = 1000
FILE = /castor/cern.ch/delphi/MCprod/lyon/kk2f4143/v99e/91.25/kk2f4143_qq_91.25_1361.xsdst ! RUN = 1361 ! NEVT = 1000
FILE = /castor/cern.ch/delphi/MCprod/lyon/kk2f4143/v99e/91.25/kk2f4143_qq_91.25_1362.xsdst ! RUN = 1362 ! NEVT = 1000
FILE = /castor/cern.ch/delphi/MCprod/lyon/kk2f4143/v99e/91.25/kk2f4143_qq_91.25_1363.xsdst ! RUN = 1363 ! NEVT = 1000
FILE = /castor/cern.ch/delphi/MCprod/lyon/kk2f4143/v99e/91.25/kk2f4143_qq_91.25_1364.xsdst ! RUN = 1364 ! NEVT = 1000
FILE = /castor/cern.ch/delphi/MCprod/lyon/kk2f4143/v99e/91.25/kk2f4143_qq_91.25_1365.xsdst ! RUN = 1365 ! NEVT = 1000
FILE = /castor/cern.ch/delphi/MCprod/lyon/kk2f4143/v99e/91.25/kk2f4143_qq_91.25_1366.xsdst ! RUN = 1366 ! NEVT = 999
FILE = /castor/cern.ch/delphi/MCprod/lyon/kk2f4143/v99e/91.25/kk2f4143_qq_91.25_1367.xsdst ! RUN = 1367 ! NEVT = 1000
FILE = /castor/cern.ch/delphi/MCprod/lyon/kk2f4143/v99e/91.25/kk2f4143_qq_91.25_1368.xsdst ! RUN = 1368 ! NEVT = 1000
FILE = /castor/cern.ch/delphi/MCprod/lyon/kk2f4143/v99e/91.25/kk2f4143_qq_91.25_1369.xsdst ! RUN = 1369 ! NEVT = 1000
FILE = /castor/cern.ch/delphi/MCprod/lyon/kk2f4143/v99e/91.25/kk2f4143_qq_91.25_1370.xsdst ! RUN = 1370 ! NEVT = 1000
FILE = /castor/cern.ch/delphi/MCprod/lyon/kk2f4143/v99e/91.25/kk2f4143_qq_91.25_1371.xsdst ! RUN = 1371 ! NEVT = 1000
FILE = /castor/cern.ch/delphi/MCprod/lyon/kk2f4143/v99e/91.25/kk2f4143_qq_91.25_1372.xsdst ! RUN = 1372 ! NEVT = 1000
FILE = /castor/cern.ch/delphi/MCprod/lyon/kk2f4143/v99e/91.25/kk2f4143_qq_91.25_1373.xsdst ! RUN = 1373 ! NEVT = 1000
FILE = /castor/cern.ch/delphi/MCprod/lyon/kk2f4143/v99e/91.25/kk2f4143_qq_91.25_1374.xsdst ! RUN = 1374 ! NEVT = 1000
FILE = /castor/cern.ch/delphi/MCprod/lyon/kk2f4143/v99e/91.25/kk2f4143_qq_91.25_1375.xsdst ! RUN = 1375 ! NEVT = 1000
FILE = /castor/cern.ch/delphi/MCprod/lyon/kk2f4143/v99e/91.25/kk2f4143_qq_91.25_1376.xsdst ! RUN = 1376 ! NEVT = 999
FILE = /castor/cern.ch/delphi/MCprod/lyon/kk2f4143/v99e/91.25/kk2f4143_qq_91.25_1377.xsdst ! RUN = 1377 ! NEVT = 1000
FILE = /castor/cern.ch/delphi/MCprod/lyon/kk2f4143/v99e/91.25/kk2f4143_qq_91.25_1378.xsdst ! RUN = 1378 ! NEVT = 1000
FILE = /castor/cern.ch/delphi/MCprod/lyon/kk2f4143/v99e/91.25/kk2f4143_qq_91.25_1379.xsdst ! RUN = 1379 ! NEVT = 1000
FILE = /castor/cern.ch/delphi/MCprod/lyon/kk2f4143/v99e/91.25/kk2f4143_qq_91.25_1380.xsdst ! RUN = 1380 ! NEVT = 1000
FILE = /castor/cern.ch/delphi/MCprod/lyon/kk2f4143/v99e/91.25/kk2f4143_qq_91.25_1381.xsdst ! RUN = 1381 ! NEVT = 997
FILE = /castor/cern.ch/delphi/MCprod/lyon/kk2f4143/v99e/91.25/kk2f4143_qq_91.25_1382.xsdst ! RUN = 1382 ! NEVT = 1000
FILE = /castor/cern.ch/delphi/MCprod/lyon/kk2f4143/v99e/91.25/kk2f4143_qq_91.25_1383.xsdst ! RUN = 1383 ! NEVT = 1000
FILE = /castor/cern.ch/delphi/MCprod/lyon/kk2f4143/v99e/91.25/kk2f4143_qq_91.25_1384.xsdst ! RUN = 1384 ! NEVT = 1000
FILE = /castor/cern.ch/delphi/MCprod/lyon/kk2f4143/v99e/91.25/kk2f4143_qq_91.25_1385.xsdst ! RUN = 1385 ! NEVT = 1000
FILE = /castor/cern.ch/delphi/MCprod/lyon/kk2f4143/v99e/91.25/kk2f4143_qq_91.25_1386.xsdst ! RUN = 1386 ! NEVT = 1000
FILE = /castor/cern.ch/delphi/MCprod/lyon/kk2f4143/v99e/91.25/kk2f4143_qq_91.25_1387.xsdst ! RUN = 1387 ! NEVT = 999
FILE = /castor/cern.ch/delphi/MCprod/lyon/kk2f4143/v99e/91.25/kk2f4143_qq_91.25_1388.xsdst ! RUN = 1388 ! NEVT = 1000
FILE = /castor/cern.ch/delphi/MCprod/lyon/kk2f4143/v99e/91.25/kk2f4143_qq_91.25_1389.xsdst ! RUN = 1389 ! NEVT = 1000
FILE = /castor/cern.ch/delphi/MCprod/lyon/kk2f4143/v99e/91.25/kk2f4143_qq_91.25_1390.xsdst ! RUN = 1390 ! NEVT = 1000
FILE = /castor/cern.ch/delphi/MCprod/lyon/kk2f4143/v99e/91.25/kk2f4143_qq_91.25_1391.xsdst ! RUN = 1391 ! NEVT = 1000
FILE = /castor/cern.ch/delphi/MCprod/lyon/kk2f4143/v99e/91.25/kk2f4143_qq_91.25_1392.xsdst ! RUN = 1392 ! NEVT = 1000
FILE = /castor/cern.ch/delphi/MCprod/lyon/kk2f4143/v99e/91.25/kk2f4143_qq_91.25_1393.xsdst ! RUN = 1393 ! NEVT = 1000
FILE = /castor/cern.ch/delphi/MCprod/lyon/kk2f4143/v99e/91.25/kk2f4143_qq_91.25_1394.xsdst ! RUN = 1394 ! NEVT = 1000
FILE = /castor/cern.ch/delphi/MCprod/lyon/kk2f4143/v99e/91.25/kk2f4143_qq_91.25_1395.xsdst ! RUN = 1395 ! NEVT = 1000
FILE = /castor/cern.ch/delphi/MCprod/lyon/kk2f4143/v99e/91.25/kk2f4143_qq_91.25_1396.xsdst ! RUN = 1396 ! NEVT = 1000
FILE = /castor/cern.ch/delphi/MCprod/lyon/kk2f4143/v99e/91.25/kk2f4143_qq_91.25_1397.xsdst ! RUN = 1397 ! NEVT = 999
FILE = /castor/cern.ch/delphi/MCprod/lyon/kk2f4143/v99e/91.25/kk2f4143_qq_91.25_1398.xsdst ! RUN = 1398 ! NEVT = 1000
FILE = /castor/cern.ch/delphi/MCprod/lyon/kk2f4143/v99e/91.25/kk2f4143_qq_91.25_1399.xsdst ! RUN = 1399 ! NEVT = 1000
FILE = /castor/cern.ch/delphi/MCprod/lyon/kk2f4143/v99e/91.25/kk2f4143_qq_91.25_1400.xsdst ! RUN = 1400 ! NEVT = 998
