*
*   Nickname     : xs_kk2f4145qqpybe32_e91.25_c99_1l_e1
*   Generic Name : //CERN/DELPHI/P01_SIMD/XSDST/KK2F4145QQPYBE32/E91.25/CERN/SUMT/C001-65
*   Description  :  Extended Short DST simulation 99_e1 done at ecms=91.25 , CERN
*---
*   Comments     : in total 194972 events in 65 files time stamp: Mon Feb 18 15:14:40 2002
*---
*
*
*
*
*
FILE = /castor/cern.ch/delphi/MCprod/cern/kk2f4145/v99e/91.25/kk2f4145_qqpybe32_91.25_17101.xsdst ! RUN = 17101 ! NEVT = 2999
FILE = /castor/cern.ch/delphi/MCprod/cern/kk2f4145/v99e/91.25/kk2f4145_qqpybe32_91.25_17102.xsdst ! RUN = 17102 ! NEVT = 2999
FILE = /castor/cern.ch/delphi/MCprod/cern/kk2f4145/v99e/91.25/kk2f4145_qqpybe32_91.25_17103.xsdst ! RUN = 17103 ! NEVT = 2999
FILE = /castor/cern.ch/delphi/MCprod/cern/kk2f4145/v99e/91.25/kk2f4145_qqpybe32_91.25_17104.xsdst ! RUN = 17104 ! NEVT = 3000
FILE = /castor/cern.ch/delphi/MCprod/cern/kk2f4145/v99e/91.25/kk2f4145_qqpybe32_91.25_17105.xsdst ! RUN = 17105 ! NEVT = 3000
FILE = /castor/cern.ch/delphi/MCprod/cern/kk2f4145/v99e/91.25/kk2f4145_qqpybe32_91.25_17106.xsdst ! RUN = 17106 ! NEVT = 2999
FILE = /castor/cern.ch/delphi/MCprod/cern/kk2f4145/v99e/91.25/kk2f4145_qqpybe32_91.25_17107.xsdst ! RUN = 17107 ! NEVT = 3000
FILE = /castor/cern.ch/delphi/MCprod/cern/kk2f4145/v99e/91.25/kk2f4145_qqpybe32_91.25_17108.xsdst ! RUN = 17108 ! NEVT = 3000
FILE = /castor/cern.ch/delphi/MCprod/cern/kk2f4145/v99e/91.25/kk2f4145_qqpybe32_91.25_17109.xsdst ! RUN = 17109 ! NEVT = 3000
FILE = /castor/cern.ch/delphi/MCprod/cern/kk2f4145/v99e/91.25/kk2f4145_qqpybe32_91.25_17110.xsdst ! RUN = 17110 ! NEVT = 3000
FILE = /castor/cern.ch/delphi/MCprod/cern/kk2f4145/v99e/91.25/kk2f4145_qqpybe32_91.25_17111.xsdst ! RUN = 17111 ! NEVT = 3000
FILE = /castor/cern.ch/delphi/MCprod/cern/kk2f4145/v99e/91.25/kk2f4145_qqpybe32_91.25_17112.xsdst ! RUN = 17112 ! NEVT = 3000
FILE = /castor/cern.ch/delphi/MCprod/cern/kk2f4145/v99e/91.25/kk2f4145_qqpybe32_91.25_17113.xsdst ! RUN = 17113 ! NEVT = 2999
FILE = /castor/cern.ch/delphi/MCprod/cern/kk2f4145/v99e/91.25/kk2f4145_qqpybe32_91.25_17114.xsdst ! RUN = 17114 ! NEVT = 3000
FILE = /castor/cern.ch/delphi/MCprod/cern/kk2f4145/v99e/91.25/kk2f4145_qqpybe32_91.25_17115.xsdst ! RUN = 17115 ! NEVT = 2999
FILE = /castor/cern.ch/delphi/MCprod/cern/kk2f4145/v99e/91.25/kk2f4145_qqpybe32_91.25_17116.xsdst ! RUN = 17116 ! NEVT = 3000
FILE = /castor/cern.ch/delphi/MCprod/cern/kk2f4145/v99e/91.25/kk2f4145_qqpybe32_91.25_17117.xsdst ! RUN = 17117 ! NEVT = 3000
FILE = /castor/cern.ch/delphi/MCprod/cern/kk2f4145/v99e/91.25/kk2f4145_qqpybe32_91.25_17118.xsdst ! RUN = 17118 ! NEVT = 2999
FILE = /castor/cern.ch/delphi/MCprod/cern/kk2f4145/v99e/91.25/kk2f4145_qqpybe32_91.25_17119.xsdst ! RUN = 17119 ! NEVT = 3000
FILE = /castor/cern.ch/delphi/MCprod/cern/kk2f4145/v99e/91.25/kk2f4145_qqpybe32_91.25_17120.xsdst ! RUN = 17120 ! NEVT = 2999
FILE = /castor/cern.ch/delphi/MCprod/cern/kk2f4145/v99e/91.25/kk2f4145_qqpybe32_91.25_17121.xsdst ! RUN = 17121 ! NEVT = 3000
FILE = /castor/cern.ch/delphi/MCprod/cern/kk2f4145/v99e/91.25/kk2f4145_qqpybe32_91.25_17122.xsdst ! RUN = 17122 ! NEVT = 3000
FILE = /castor/cern.ch/delphi/MCprod/cern/kk2f4145/v99e/91.25/kk2f4145_qqpybe32_91.25_17123.xsdst ! RUN = 17123 ! NEVT = 2999
FILE = /castor/cern.ch/delphi/MCprod/cern/kk2f4145/v99e/91.25/kk2f4145_qqpybe32_91.25_17124.xsdst ! RUN = 17124 ! NEVT = 2999
FILE = /castor/cern.ch/delphi/MCprod/cern/kk2f4145/v99e/91.25/kk2f4145_qqpybe32_91.25_17125.xsdst ! RUN = 17125 ! NEVT = 3000
FILE = /castor/cern.ch/delphi/MCprod/cern/kk2f4145/v99e/91.25/kk2f4145_qqpybe32_91.25_17126.xsdst ! RUN = 17126 ! NEVT = 3000
FILE = /castor/cern.ch/delphi/MCprod/cern/kk2f4145/v99e/91.25/kk2f4145_qqpybe32_91.25_17127.xsdst ! RUN = 17127 ! NEVT = 3000
FILE = /castor/cern.ch/delphi/MCprod/cern/kk2f4145/v99e/91.25/kk2f4145_qqpybe32_91.25_17128.xsdst ! RUN = 17128 ! NEVT = 3000
FILE = /castor/cern.ch/delphi/MCprod/cern/kk2f4145/v99e/91.25/kk2f4145_qqpybe32_91.25_17129.xsdst ! RUN = 17129 ! NEVT = 3000
FILE = /castor/cern.ch/delphi/MCprod/cern/kk2f4145/v99e/91.25/kk2f4145_qqpybe32_91.25_17130.xsdst ! RUN = 17130 ! NEVT = 2999
FILE = /castor/cern.ch/delphi/MCprod/cern/kk2f4145/v99e/91.25/kk2f4145_qqpybe32_91.25_17131.xsdst ! RUN = 17131 ! NEVT = 3000
FILE = /castor/cern.ch/delphi/MCprod/cern/kk2f4145/v99e/91.25/kk2f4145_qqpybe32_91.25_17132.xsdst ! RUN = 17132 ! NEVT = 3000
FILE = /castor/cern.ch/delphi/MCprod/cern/kk2f4145/v99e/91.25/kk2f4145_qqpybe32_91.25_17133.xsdst ! RUN = 17133 ! NEVT = 3000
FILE = /castor/cern.ch/delphi/MCprod/cern/kk2f4145/v99e/91.25/kk2f4145_qqpybe32_91.25_17134.xsdst ! RUN = 17134 ! NEVT = 3000
FILE = /castor/cern.ch/delphi/MCprod/cern/kk2f4145/v99e/91.25/kk2f4145_qqpybe32_91.25_17135.xsdst ! RUN = 17135 ! NEVT = 3000
FILE = /castor/cern.ch/delphi/MCprod/cern/kk2f4145/v99e/91.25/kk2f4145_qqpybe32_91.25_17136.xsdst ! RUN = 17136 ! NEVT = 3000
FILE = /castor/cern.ch/delphi/MCprod/cern/kk2f4145/v99e/91.25/kk2f4145_qqpybe32_91.25_17137.xsdst ! RUN = 17137 ! NEVT = 3000
FILE = /castor/cern.ch/delphi/MCprod/cern/kk2f4145/v99e/91.25/kk2f4145_qqpybe32_91.25_17138.xsdst ! RUN = 17138 ! NEVT = 3000
FILE = /castor/cern.ch/delphi/MCprod/cern/kk2f4145/v99e/91.25/kk2f4145_qqpybe32_91.25_17139.xsdst ! RUN = 17139 ! NEVT = 2998
FILE = /castor/cern.ch/delphi/MCprod/cern/kk2f4145/v99e/91.25/kk2f4145_qqpybe32_91.25_17140.xsdst ! RUN = 17140 ! NEVT = 2999
FILE = /castor/cern.ch/delphi/MCprod/cern/kk2f4145/v99e/91.25/kk2f4145_qqpybe32_91.25_17141.xsdst ! RUN = 17141 ! NEVT = 2997
FILE = /castor/cern.ch/delphi/MCprod/cern/kk2f4145/v99e/91.25/kk2f4145_qqpybe32_91.25_17142.xsdst ! RUN = 17142 ! NEVT = 3000
FILE = /castor/cern.ch/delphi/MCprod/cern/kk2f4145/v99e/91.25/kk2f4145_qqpybe32_91.25_17144.xsdst ! RUN = 17144 ! NEVT = 3000
FILE = /castor/cern.ch/delphi/MCprod/cern/kk2f4145/v99e/91.25/kk2f4145_qqpybe32_91.25_17145.xsdst ! RUN = 17145 ! NEVT = 3000
FILE = /castor/cern.ch/delphi/MCprod/cern/kk2f4145/v99e/91.25/kk2f4145_qqpybe32_91.25_17146.xsdst ! RUN = 17146 ! NEVT = 2999
FILE = /castor/cern.ch/delphi/MCprod/cern/kk2f4145/v99e/91.25/kk2f4145_qqpybe32_91.25_17147.xsdst ! RUN = 17147 ! NEVT = 3000
FILE = /castor/cern.ch/delphi/MCprod/cern/kk2f4145/v99e/91.25/kk2f4145_qqpybe32_91.25_17148.xsdst ! RUN = 17148 ! NEVT = 3000
FILE = /castor/cern.ch/delphi/MCprod/cern/kk2f4145/v99e/91.25/kk2f4145_qqpybe32_91.25_17149.xsdst ! RUN = 17149 ! NEVT = 3000
FILE = /castor/cern.ch/delphi/MCprod/cern/kk2f4145/v99e/91.25/kk2f4145_qqpybe32_91.25_17150.xsdst ! RUN = 17150 ! NEVT = 3000
FILE = /castor/cern.ch/delphi/MCprod/cern/kk2f4145/v99e/91.25/kk2f4145_qqpybe32_91.25_17151.xsdst ! RUN = 17151 ! NEVT = 3000
FILE = /castor/cern.ch/delphi/MCprod/cern/kk2f4145/v99e/91.25/kk2f4145_qqpybe32_91.25_17152.xsdst ! RUN = 17152 ! NEVT = 2998
FILE = /castor/cern.ch/delphi/MCprod/cern/kk2f4145/v99e/91.25/kk2f4145_qqpybe32_91.25_17153.xsdst ! RUN = 17153 ! NEVT = 2997
FILE = /castor/cern.ch/delphi/MCprod/cern/kk2f4145/v99e/91.25/kk2f4145_qqpybe32_91.25_17154.xsdst ! RUN = 17154 ! NEVT = 2999
FILE = /castor/cern.ch/delphi/MCprod/cern/kk2f4145/v99e/91.25/kk2f4145_qqpybe32_91.25_17155.xsdst ! RUN = 17155 ! NEVT = 3000
FILE = /castor/cern.ch/delphi/MCprod/cern/kk2f4145/v99e/91.25/kk2f4145_qqpybe32_91.25_17156.xsdst ! RUN = 17156 ! NEVT = 3000
FILE = /castor/cern.ch/delphi/MCprod/cern/kk2f4145/v99e/91.25/kk2f4145_qqpybe32_91.25_17157.xsdst ! RUN = 17157 ! NEVT = 3000
FILE = /castor/cern.ch/delphi/MCprod/cern/kk2f4145/v99e/91.25/kk2f4145_qqpybe32_91.25_17158.xsdst ! RUN = 17158 ! NEVT = 3000
FILE = /castor/cern.ch/delphi/MCprod/cern/kk2f4145/v99e/91.25/kk2f4145_qqpybe32_91.25_17159.xsdst ! RUN = 17159 ! NEVT = 3000
FILE = /castor/cern.ch/delphi/MCprod/cern/kk2f4145/v99e/91.25/kk2f4145_qqpybe32_91.25_17160.xsdst ! RUN = 17160 ! NEVT = 3000
FILE = /castor/cern.ch/delphi/MCprod/cern/kk2f4145/v99e/91.25/kk2f4145_qqpybe32_91.25_17161.xsdst ! RUN = 17161 ! NEVT = 2998
FILE = /castor/cern.ch/delphi/MCprod/cern/kk2f4145/v99e/91.25/kk2f4145_qqpybe32_91.25_17162.xsdst ! RUN = 17162 ! NEVT = 3000
FILE = /castor/cern.ch/delphi/MCprod/cern/kk2f4145/v99e/91.25/kk2f4145_qqpybe32_91.25_17163.xsdst ! RUN = 17163 ! NEVT = 3000
FILE = /castor/cern.ch/delphi/MCprod/cern/kk2f4145/v99e/91.25/kk2f4145_qqpybe32_91.25_17165.xsdst ! RUN = 17165 ! NEVT = 3000
FILE = /castor/cern.ch/delphi/MCprod/cern/kk2f4145/v99e/91.25/kk2f4145_qqpybe32_91.25_17167.xsdst ! RUN = 17167 ! NEVT = 2998
FILE = /castor/cern.ch/delphi/MCprod/cern/kk2f4145/v99e/91.25/kk2f4145_qqpybe32_91.25_17168.xsdst ! RUN = 17168 ! NEVT = 3000
