*
*   Nickname     : xs_kk2f4144tthl_e199.5_c99_1l_e1
*   Generic Name : //CERN/DELPHI/P02_SIMD/XSDST/KK2F4144TTHL/E199.5/CERN/SUMT/C001-40
*   Description  :  Extended Short DST simulation 99_e1 done at ecms=199.5 , CERN
*---
*   Comments     : in total 199946 events in 40 files time stamp: Sat Jan 26 15:53:50 2002
*---
*
*
*
*
*
FILE = /castor/cern.ch/delphi/MCprod/cern/kk2f4144/v99e/199.5/kk2f4144_tthl_199.5_27401.xsdst ! RUN = 27401 ! NEVT = 4998
FILE = /castor/cern.ch/delphi/MCprod/cern/kk2f4144/v99e/199.5/kk2f4144_tthl_199.5_27402.xsdst ! RUN = 27402 ! NEVT = 5000
FILE = /castor/cern.ch/delphi/MCprod/cern/kk2f4144/v99e/199.5/kk2f4144_tthl_199.5_27403.xsdst ! RUN = 27403 ! NEVT = 5000
FILE = /castor/cern.ch/delphi/MCprod/cern/kk2f4144/v99e/199.5/kk2f4144_tthl_199.5_27404.xsdst ! RUN = 27404 ! NEVT = 4999
FILE = /castor/cern.ch/delphi/MCprod/cern/kk2f4144/v99e/199.5/kk2f4144_tthl_199.5_27405.xsdst ! RUN = 27405 ! NEVT = 5000
FILE = /castor/cern.ch/delphi/MCprod/cern/kk2f4144/v99e/199.5/kk2f4144_tthl_199.5_27406.xsdst ! RUN = 27406 ! NEVT = 4998
FILE = /castor/cern.ch/delphi/MCprod/cern/kk2f4144/v99e/199.5/kk2f4144_tthl_199.5_27407.xsdst ! RUN = 27407 ! NEVT = 4999
FILE = /castor/cern.ch/delphi/MCprod/cern/kk2f4144/v99e/199.5/kk2f4144_tthl_199.5_27408.xsdst ! RUN = 27408 ! NEVT = 4998
FILE = /castor/cern.ch/delphi/MCprod/cern/kk2f4144/v99e/199.5/kk2f4144_tthl_199.5_27409.xsdst ! RUN = 27409 ! NEVT = 4997
FILE = /castor/cern.ch/delphi/MCprod/cern/kk2f4144/v99e/199.5/kk2f4144_tthl_199.5_27410.xsdst ! RUN = 27410 ! NEVT = 4998
FILE = /castor/cern.ch/delphi/MCprod/cern/kk2f4144/v99e/199.5/kk2f4144_tthl_199.5_27411.xsdst ! RUN = 27411 ! NEVT = 4998
FILE = /castor/cern.ch/delphi/MCprod/cern/kk2f4144/v99e/199.5/kk2f4144_tthl_199.5_27412.xsdst ! RUN = 27412 ! NEVT = 5000
FILE = /castor/cern.ch/delphi/MCprod/cern/kk2f4144/v99e/199.5/kk2f4144_tthl_199.5_27413.xsdst ! RUN = 27413 ! NEVT = 4999
FILE = /castor/cern.ch/delphi/MCprod/cern/kk2f4144/v99e/199.5/kk2f4144_tthl_199.5_27414.xsdst ! RUN = 27414 ! NEVT = 4999
FILE = /castor/cern.ch/delphi/MCprod/cern/kk2f4144/v99e/199.5/kk2f4144_tthl_199.5_27415.xsdst ! RUN = 27415 ! NEVT = 4997
FILE = /castor/cern.ch/delphi/MCprod/cern/kk2f4144/v99e/199.5/kk2f4144_tthl_199.5_27416.xsdst ! RUN = 27416 ! NEVT = 4998
FILE = /castor/cern.ch/delphi/MCprod/cern/kk2f4144/v99e/199.5/kk2f4144_tthl_199.5_27417.xsdst ! RUN = 27417 ! NEVT = 4999
FILE = /castor/cern.ch/delphi/MCprod/cern/kk2f4144/v99e/199.5/kk2f4144_tthl_199.5_27418.xsdst ! RUN = 27418 ! NEVT = 4997
FILE = /castor/cern.ch/delphi/MCprod/cern/kk2f4144/v99e/199.5/kk2f4144_tthl_199.5_27419.xsdst ! RUN = 27419 ! NEVT = 5000
FILE = /castor/cern.ch/delphi/MCprod/cern/kk2f4144/v99e/199.5/kk2f4144_tthl_199.5_27420.xsdst ! RUN = 27420 ! NEVT = 5000
FILE = /castor/cern.ch/delphi/MCprod/cern/kk2f4144/v99e/199.5/kk2f4144_tthl_199.5_27421.xsdst ! RUN = 27421 ! NEVT = 4998
FILE = /castor/cern.ch/delphi/MCprod/cern/kk2f4144/v99e/199.5/kk2f4144_tthl_199.5_27422.xsdst ! RUN = 27422 ! NEVT = 4999
FILE = /castor/cern.ch/delphi/MCprod/cern/kk2f4144/v99e/199.5/kk2f4144_tthl_199.5_27423.xsdst ! RUN = 27423 ! NEVT = 5000
FILE = /castor/cern.ch/delphi/MCprod/cern/kk2f4144/v99e/199.5/kk2f4144_tthl_199.5_27424.xsdst ! RUN = 27424 ! NEVT = 4997
FILE = /castor/cern.ch/delphi/MCprod/cern/kk2f4144/v99e/199.5/kk2f4144_tthl_199.5_27425.xsdst ! RUN = 27425 ! NEVT = 4998
FILE = /castor/cern.ch/delphi/MCprod/cern/kk2f4144/v99e/199.5/kk2f4144_tthl_199.5_27426.xsdst ! RUN = 27426 ! NEVT = 4998
FILE = /castor/cern.ch/delphi/MCprod/cern/kk2f4144/v99e/199.5/kk2f4144_tthl_199.5_27427.xsdst ! RUN = 27427 ! NEVT = 4999
FILE = /castor/cern.ch/delphi/MCprod/cern/kk2f4144/v99e/199.5/kk2f4144_tthl_199.5_27428.xsdst ! RUN = 27428 ! NEVT = 4999
FILE = /castor/cern.ch/delphi/MCprod/cern/kk2f4144/v99e/199.5/kk2f4144_tthl_199.5_27429.xsdst ! RUN = 27429 ! NEVT = 5000
FILE = /castor/cern.ch/delphi/MCprod/cern/kk2f4144/v99e/199.5/kk2f4144_tthl_199.5_27430.xsdst ! RUN = 27430 ! NEVT = 4997
FILE = /castor/cern.ch/delphi/MCprod/cern/kk2f4144/v99e/199.5/kk2f4144_tthl_199.5_27431.xsdst ! RUN = 27431 ! NEVT = 4998
FILE = /castor/cern.ch/delphi/MCprod/cern/kk2f4144/v99e/199.5/kk2f4144_tthl_199.5_27432.xsdst ! RUN = 27432 ! NEVT = 4997
FILE = /castor/cern.ch/delphi/MCprod/cern/kk2f4144/v99e/199.5/kk2f4144_tthl_199.5_27433.xsdst ! RUN = 27433 ! NEVT = 4999
FILE = /castor/cern.ch/delphi/MCprod/cern/kk2f4144/v99e/199.5/kk2f4144_tthl_199.5_27434.xsdst ! RUN = 27434 ! NEVT = 4998
FILE = /castor/cern.ch/delphi/MCprod/cern/kk2f4144/v99e/199.5/kk2f4144_tthl_199.5_27435.xsdst ! RUN = 27435 ! NEVT = 5000
FILE = /castor/cern.ch/delphi/MCprod/cern/kk2f4144/v99e/199.5/kk2f4144_tthl_199.5_27436.xsdst ! RUN = 27436 ! NEVT = 5000
FILE = /castor/cern.ch/delphi/MCprod/cern/kk2f4144/v99e/199.5/kk2f4144_tthl_199.5_27437.xsdst ! RUN = 27437 ! NEVT = 5000
FILE = /castor/cern.ch/delphi/MCprod/cern/kk2f4144/v99e/199.5/kk2f4144_tthl_199.5_27438.xsdst ! RUN = 27438 ! NEVT = 4999
FILE = /castor/cern.ch/delphi/MCprod/cern/kk2f4144/v99e/199.5/kk2f4144_tthl_199.5_27439.xsdst ! RUN = 27439 ! NEVT = 4998
FILE = /castor/cern.ch/delphi/MCprod/cern/kk2f4144/v99e/199.5/kk2f4144_tthl_199.5_27440.xsdst ! RUN = 27440 ! NEVT = 4998
