*
*   Nickname     : xs_hzha03p6156hsqq_e196_m6_c99_1l_a1
*   Generic Name : //CERN/DELPHI/P02_SIMD/XSDST/HZHA03P6156HSQQ/CERN/SUMT
*   Description  : ShortDST HZHA03 H->ssbar, Z->qqbar  Extended Short DST simulation 99_a1 196 , CERN
*---
*   Comments     :  time stamp: Thu Apr 19 18:03:03 2001
*---
*
*   Comments     : only short dst has been kept           
*
*
*
*
FILE = /castor/cern.ch/delphi/MCprod/cern/hzha03pyth6156/v99_4/196/hzha03pyth6156_hZ_qqss_196_6_641.xsdst ! RUN = 641 ! NEVT = 500
FILE = /castor/cern.ch/delphi/MCprod/cern/hzha03pyth6156/v99_4/196/hzha03pyth6156_hZ_qqss_196_6_642.xsdst ! RUN = 642 ! NEVT = 500
FILE = /castor/cern.ch/delphi/MCprod/cern/hzha03pyth6156/v99_4/196/hzha03pyth6156_hZ_qqss_196_6_643.xsdst ! RUN = 643 ! NEVT = 500
FILE = /castor/cern.ch/delphi/MCprod/cern/hzha03pyth6156/v99_4/196/hzha03pyth6156_hZ_qqss_196_6_644.xsdst ! RUN = 644 ! NEVT = 500
