*
*   Nickname     : xs_hstt_e205_m100.0_k99_1l_a1
*   Generic Name : //CERN/DELPHI/P02_SIMD/XSDST/HSTT/KARLSRUHE/SUMT
*   Description  : ShortDST HZHA03 H->ssbar, Z->tau+tau- Extended Short DST simulation 99_a1 205 , Karlsruhe
*---
*   Comments     :  time stamp: Mon Feb 12 15:51:36 2001
*---
*
*   Comments     : only short dst has been kept           
*
*
*
*
FILE = /castor/cern.ch/delphi/MCprod/karlsruhe/hzha03/v99_4/205/hsstt100.0_205._1.xsdst ! RUN = 17811 ! NEVT = 400
FILE = /castor/cern.ch/delphi/MCprod/karlsruhe/hzha03/v99_4/205/hsstt100.0_205._2.xsdst ! RUN = 17812 ! NEVT = 400
FILE = /castor/cern.ch/delphi/MCprod/karlsruhe/hzha03/v99_4/205/hsstt100.0_205._3.xsdst ! RUN = 17813 ! NEVT = 400
FILE = /castor/cern.ch/delphi/MCprod/karlsruhe/hzha03/v99_4/205/hsstt100.0_205._4.xsdst ! RUN = 17814 ! NEVT = 400
FILE = /castor/cern.ch/delphi/MCprod/karlsruhe/hzha03/v99_4/205/hsstt100.0_205._5.xsdst ! RUN = 17815 ! NEVT = 400
