*
*   Nickname     : xs_hsee_e202_m100.0_k99_1l_a1
*   Generic Name : //CERN/DELPHI/P02_SIMD/XSDST/HSEE/KARLSRUHE/SUMT
*   Description  : ShortDST HZHA03 H->ssbar, Z->e+e-  Extended Short DST simulation 99_a1 202 , Karlsruhe
*---
*   Comments     :  time stamp: Mon Feb 12 15:51:21 2001
*---
*
*   Comments     : only short dst has been kept           
*
*
*
*
FILE = /castor/cern.ch/delphi/MCprod/karlsruhe/hzha03/v99_4/202/hssee100.0_202._1.xsdst ! RUN = 16746 ! NEVT = 400
FILE = /castor/cern.ch/delphi/MCprod/karlsruhe/hzha03/v99_4/202/hssee100.0_202._2.xsdst ! RUN = 16747 ! NEVT = 400
FILE = /castor/cern.ch/delphi/MCprod/karlsruhe/hzha03/v99_4/202/hssee100.0_202._3.xsdst ! RUN = 16748 ! NEVT = 400
FILE = /castor/cern.ch/delphi/MCprod/karlsruhe/hzha03/v99_4/202/hssee100.0_202._4.xsdst ! RUN = 16749 ! NEVT = 399
FILE = /castor/cern.ch/delphi/MCprod/karlsruhe/hzha03/v99_4/202/hssee100.0_202._5.xsdst ! RUN = 16750 ! NEVT = 399
