*
*   Nickname     : xs_hsmm_e192_m60.0_k99_1l_a1
*   Generic Name : //CERN/DELPHI/P02_SIMD/XSDST/HSMM/KARLSRUHE/SUMT
*   Description  : ShortDST HZHA03 H->ssbar, Z->mu+mu-  Extended Short DST simulation 99_a1 192 , Karlsruhe
*---
*   Comments     :  time stamp: Mon Feb 12 15:51:23 2001
*---
*
*   Comments     : only short dst has been kept           
*
*
*
*
FILE = /castor/cern.ch/delphi/MCprod/karlsruhe/hzha03/v99_4/192/hssmm60.0_192._1.xsdst ! RUN = 17011 ! NEVT = 400
FILE = /castor/cern.ch/delphi/MCprod/karlsruhe/hzha03/v99_4/192/hssmm60.0_192._2.xsdst ! RUN = 17012 ! NEVT = 400
FILE = /castor/cern.ch/delphi/MCprod/karlsruhe/hzha03/v99_4/192/hssmm60.0_192._3.xsdst ! RUN = 17013 ! NEVT = 400
FILE = /castor/cern.ch/delphi/MCprod/karlsruhe/hzha03/v99_4/192/hssmm60.0_192._4.xsdst ! RUN = 17014 ! NEVT = 400
FILE = /castor/cern.ch/delphi/MCprod/karlsruhe/hzha03/v99_4/192/hssmm60.0_192._5.xsdst ! RUN = 17015 ! NEVT = 400
