*
*   Nickname     : xs_hsqq_e205_m110.0_k99_1l_a1
*   Generic Name : //CERN/DELPHI/P02_SIMD/XSDST/HSQQ/KARLSRUHE/SUMT
*   Description  : ShortDST HZHA03 H->ssbar, Z->qqbar  Extended Short DST simulation 99_a1 205 , Karlsruhe
*---
*   Comments     :  time stamp: Mon Feb 12 15:51:33 2001
*---
*
*   Comments     : only short dst has been kept           
*
*
*
*
FILE = /castor/cern.ch/delphi/MCprod/karlsruhe/hzha03/v99_4/205/hssqq110.0_205._1.xsdst ! RUN = 15821 ! NEVT = 400
FILE = /castor/cern.ch/delphi/MCprod/karlsruhe/hzha03/v99_4/205/hssqq110.0_205._2.xsdst ! RUN = 15822 ! NEVT = 399
FILE = /castor/cern.ch/delphi/MCprod/karlsruhe/hzha03/v99_4/205/hssqq110.0_205._3.xsdst ! RUN = 15823 ! NEVT = 400
FILE = /castor/cern.ch/delphi/MCprod/karlsruhe/hzha03/v99_4/205/hssqq110.0_205._4.xsdst ! RUN = 15824 ! NEVT = 400
FILE = /castor/cern.ch/delphi/MCprod/karlsruhe/hzha03/v99_4/205/hssqq110.0_205._5.xsdst ! RUN = 15825 ! NEVT = 400
