*
*   Nickname     : xs_hstt_e192_m50.0_k99_1l_a1
*   Generic Name : //CERN/DELPHI/P02_SIMD/XSDST/HSTT/KARLSRUHE/SUMT
*   Description  : ShortDST HZHA03 H->ssbar, Z->tau+tau- Extended Short DST simulation 99_a1 192 , Karlsruhe
*---
*   Comments     :  time stamp: Mon Feb 12 15:51:34 2001
*---
*
*   Comments     : only short dst has been kept           
*
*
*
*
FILE = /castor/cern.ch/delphi/MCprod/karlsruhe/hzha03/v99_4/192/hsstt50.0_192._1.xsdst ! RUN = 17501 ! NEVT = 400
FILE = /castor/cern.ch/delphi/MCprod/karlsruhe/hzha03/v99_4/192/hsstt50.0_192._2.xsdst ! RUN = 17502 ! NEVT = 399
FILE = /castor/cern.ch/delphi/MCprod/karlsruhe/hzha03/v99_4/192/hsstt50.0_192._3.xsdst ! RUN = 17503 ! NEVT = 400
FILE = /castor/cern.ch/delphi/MCprod/karlsruhe/hzha03/v99_4/192/hsstt50.0_192._4.xsdst ! RUN = 17504 ! NEVT = 399
FILE = /castor/cern.ch/delphi/MCprod/karlsruhe/hzha03/v99_4/192/hsstt50.0_192._5.xsdst ! RUN = 17505 ! NEVT = 400
