*
*   Nickname     : xs_hsee_e196_m105.0_k99_1l_a1
*   Generic Name : //CERN/DELPHI/P02_SIMD/XSDST/HSEE/KARLSRUHE/SUMT
*   Description  : ShortDST HZHA03 H->ssbar, Z->e+e-  Extended Short DST simulation 99_a1 196 , Karlsruhe
*---
*   Comments     :  time stamp: Mon Feb 12 15:51:19 2001
*---
*
*   Comments     : only short dst has been kept           
*
*
*
*
FILE = /castor/cern.ch/delphi/MCprod/karlsruhe/hzha03/v99_4/196/hssee105.0_196._1.xsdst ! RUN = 16621 ! NEVT = 399
FILE = /castor/cern.ch/delphi/MCprod/karlsruhe/hzha03/v99_4/196/hssee105.0_196._2.xsdst ! RUN = 16622 ! NEVT = 400
FILE = /castor/cern.ch/delphi/MCprod/karlsruhe/hzha03/v99_4/196/hssee105.0_196._3.xsdst ! RUN = 16623 ! NEVT = 400
FILE = /castor/cern.ch/delphi/MCprod/karlsruhe/hzha03/v99_4/196/hssee105.0_196._4.xsdst ! RUN = 16624 ! NEVT = 400
FILE = /castor/cern.ch/delphi/MCprod/karlsruhe/hzha03/v99_4/196/hssee105.0_196._5.xsdst ! RUN = 16625 ! NEVT = 399
