*
*   Nickname     : xs_hzha03p6156hsnn_e205_m30_c99_1l_a1
*   Generic Name : //CERN/DELPHI/P02_SIMD/XSDST/HZHA03P6156HSNN/CERN/SUMT
*   Description  : ShortDST HZHA03 H->ssbar, Z->nunubar  Extended Short DST simulation 99_a1 205 , CERN
*---
*   Comments     :  time stamp: Thu Apr 19 18:03:03 2001
*---
*
*   Comments     : only short dst has been kept           
*
*
*
*
FILE = /castor/cern.ch/delphi/MCprod/cern/hzha03pyth6156/v99_4/205/hzha03pyth6156_hZ_vvss_205_30_3031.xsdst ! RUN = 3031 ! NEVT = 500
FILE = /castor/cern.ch/delphi/MCprod/cern/hzha03pyth6156/v99_4/205/hzha03pyth6156_hZ_vvss_205_30_3032.xsdst ! RUN = 3032 ! NEVT = 500
FILE = /castor/cern.ch/delphi/MCprod/cern/hzha03pyth6156/v99_4/205/hzha03pyth6156_hZ_vvss_205_30_3033.xsdst ! RUN = 3033 ! NEVT = 500
FILE = /castor/cern.ch/delphi/MCprod/cern/hzha03pyth6156/v99_4/205/hzha03pyth6156_hZ_vvss_205_30_3034.xsdst ! RUN = 3034 ! NEVT = 500
