*
*   Nickname     : xs_hsee_e200_m95.0_k99_1l_a1
*   Generic Name : //CERN/DELPHI/P02_SIMD/XSDST/HSEE/KARLSRUHE/SUMT
*   Description  : ShortDST HZHA03 H->ssbar, Z->e+e-  Extended Short DST simulation 99_a1 200 , Karlsruhe
*---
*   Comments     :  time stamp: Mon Feb 12 15:51:21 2001
*---
*
*   Comments     : only short dst has been kept           
*
*
*
*
FILE = /castor/cern.ch/delphi/MCprod/karlsruhe/hzha03/v99_4/200/hssee95.0_200._1.xsdst ! RUN = 16676 ! NEVT = 399
FILE = /castor/cern.ch/delphi/MCprod/karlsruhe/hzha03/v99_4/200/hssee95.0_200._2.xsdst ! RUN = 16677 ! NEVT = 400
FILE = /castor/cern.ch/delphi/MCprod/karlsruhe/hzha03/v99_4/200/hssee95.0_200._3.xsdst ! RUN = 16678 ! NEVT = 400
FILE = /castor/cern.ch/delphi/MCprod/karlsruhe/hzha03/v99_4/200/hssee95.0_200._4.xsdst ! RUN = 16679 ! NEVT = 399
FILE = /castor/cern.ch/delphi/MCprod/karlsruhe/hzha03/v99_4/200/hssee95.0_200._5.xsdst ! RUN = 16680 ! NEVT = 400
