*
*   Nickname     : xs_hzha03p6156hsnn_e200_m40_c99_1l_a1
*   Generic Name : //CERN/DELPHI/P02_SIMD/XSDST/HZHA03P6156HSNN/CERN/SUMT
*   Description  : ShortDST HZHA03 H->ssbar, Z->nunubar  Extended Short DST simulation 99_a1 200 , CERN
*---
*   Comments     :  time stamp: Thu Apr 19 18:03:03 2001
*---
*
*   Comments     : only short dst has been kept           
*
*
*
*
FILE = /castor/cern.ch/delphi/MCprod/cern/hzha03pyth6156/v99_4/200/hzha03pyth6156_hZ_vvss_200_40_4031.xsdst ! RUN = 4031 ! NEVT = 500
FILE = /castor/cern.ch/delphi/MCprod/cern/hzha03pyth6156/v99_4/200/hzha03pyth6156_hZ_vvss_200_40_4032.xsdst ! RUN = 4032 ! NEVT = 500
FILE = /castor/cern.ch/delphi/MCprod/cern/hzha03pyth6156/v99_4/200/hzha03pyth6156_hZ_vvss_200_40_4033.xsdst ! RUN = 4033 ! NEVT = 500
FILE = /castor/cern.ch/delphi/MCprod/cern/hzha03pyth6156/v99_4/200/hzha03pyth6156_hZ_vvss_200_40_4034.xsdst ! RUN = 4034 ! NEVT = 500
