*
*   Nickname     : xs_pyth6156hpphmml_e188.7_m70_c98_1l_e1
*   Generic Name : //CERN/DELPHI/P02_SIMD/XSDST/PYTH6156HPPHMML/E188.7/CERN/SUMT/C001-1
*   Description  :  Extended Short DST simulation 98_e1 done at ecms=188.7 , CERN
*---
*   Comments     : in total 1000 events in 1 files time stamp: Mon Oct 15 10:14:36 2001
*---
*
*
*
*
*
FILE = /castor/cern.ch/delphi/MCprod/cern/pyth6156/v98e/188.7/pyth6156_hpphmm_l_188.7_70_66670.xsdst ! RUN = 66670 ! NEVT = 1000
