*   Nickname :     sh_apacic105_e91.25_wp95_1l_d2
*   Generic Name : //CERN/DELPHI/P01_SIMD/SHORT/APACIC105/E91.25/WUPP/SUMT/C001-448
*   Description :   Short DST simulation 95d  done at ecm=91.25 GeV , WUPP
*   Comments :     in total 1316326 events in 448 files, time stamp: Fri Mar 7 4:13:33 2003
*
*
*
FILE = /castor/cern.ch/delphi/MCprod/wupp/apacic105/v95d/91.25/apacic105_91.25_3001.sdst ! RUN = 3001 ! NEVT = 3000
FILE = /castor/cern.ch/delphi/MCprod/wupp/apacic105/v95d/91.25/apacic105_91.25_3002.sdst ! RUN = 3002 ! NEVT = 3000
FILE = /castor/cern.ch/delphi/MCprod/wupp/apacic105/v95d/91.25/apacic105_91.25_3003.sdst ! RUN = 3003 ! NEVT = 3000
FILE = /castor/cern.ch/delphi/MCprod/wupp/apacic105/v95d/91.25/apacic105_91.25_3004.sdst ! RUN = 3004 ! NEVT = 3000
FILE = /castor/cern.ch/delphi/MCprod/wupp/apacic105/v95d/91.25/apacic105_91.25_3005.sdst ! RUN = 3005 ! NEVT = 3000
FILE = /castor/cern.ch/delphi/MCprod/wupp/apacic105/v95d/91.25/apacic105_91.25_3006.sdst ! RUN = 3006 ! NEVT = 3000
FILE = /castor/cern.ch/delphi/MCprod/wupp/apacic105/v95d/91.25/apacic105_91.25_3007.sdst ! RUN = 3007 ! NEVT = 3000
FILE = /castor/cern.ch/delphi/MCprod/wupp/apacic105/v95d/91.25/apacic105_91.25_3008.sdst ! RUN = 3008 ! NEVT = 3000
FILE = /castor/cern.ch/delphi/MCprod/wupp/apacic105/v95d/91.25/apacic105_91.25_3009.sdst ! RUN = 3009 ! NEVT = 3000
FILE = /castor/cern.ch/delphi/MCprod/wupp/apacic105/v95d/91.25/apacic105_91.25_3010.sdst ! RUN = 3010 ! NEVT = 3000
FILE = /castor/cern.ch/delphi/MCprod/wupp/apacic105/v95d/91.25/apacic105_91.25_3011.sdst ! RUN = 3011 ! NEVT = 2999
FILE = /castor/cern.ch/delphi/MCprod/wupp/apacic105/v95d/91.25/apacic105_91.25_3012.sdst ! RUN = 3012 ! NEVT = 3000
FILE = /castor/cern.ch/delphi/MCprod/wupp/apacic105/v95d/91.25/apacic105_91.25_3013.sdst ! RUN = 3013 ! NEVT = 3000
FILE = /castor/cern.ch/delphi/MCprod/wupp/apacic105/v95d/91.25/apacic105_91.25_3014.sdst ! RUN = 3014 ! NEVT = 3000
FILE = /castor/cern.ch/delphi/MCprod/wupp/apacic105/v95d/91.25/apacic105_91.25_3015.sdst ! RUN = 3015 ! NEVT = 3000
FILE = /castor/cern.ch/delphi/MCprod/wupp/apacic105/v95d/91.25/apacic105_91.25_3016.sdst ! RUN = 3016 ! NEVT = 3000
FILE = /castor/cern.ch/delphi/MCprod/wupp/apacic105/v95d/91.25/apacic105_91.25_3017.sdst ! RUN = 3017 ! NEVT = 3000
FILE = /castor/cern.ch/delphi/MCprod/wupp/apacic105/v95d/91.25/apacic105_91.25_3018.sdst ! RUN = 3018 ! NEVT = 2999
FILE = /castor/cern.ch/delphi/MCprod/wupp/apacic105/v95d/91.25/apacic105_91.25_3019.sdst ! RUN = 3019 ! NEVT = 2999
FILE = /castor/cern.ch/delphi/MCprod/wupp/apacic105/v95d/91.25/apacic105_91.25_3020.sdst ! RUN = 3020 ! NEVT = 3000
FILE = /castor/cern.ch/delphi/MCprod/wupp/apacic105/v95d/91.25/apacic105_91.25_3021.sdst ! RUN = 3021 ! NEVT = 3000
FILE = /castor/cern.ch/delphi/MCprod/wupp/apacic105/v95d/91.25/apacic105_91.25_3022.sdst ! RUN = 3022 ! NEVT = 3000
FILE = /castor/cern.ch/delphi/MCprod/wupp/apacic105/v95d/91.25/apacic105_91.25_3023.sdst ! RUN = 3023 ! NEVT = 3000
FILE = /castor/cern.ch/delphi/MCprod/wupp/apacic105/v95d/91.25/apacic105_91.25_3024.sdst ! RUN = 3024 ! NEVT = 3000
FILE = /castor/cern.ch/delphi/MCprod/wupp/apacic105/v95d/91.25/apacic105_91.25_3025.sdst ! RUN = 3025 ! NEVT = 3000
FILE = /castor/cern.ch/delphi/MCprod/wupp/apacic105/v95d/91.25/apacic105_91.25_3026.sdst ! RUN = 3026 ! NEVT = 3000
FILE = /castor/cern.ch/delphi/MCprod/wupp/apacic105/v95d/91.25/apacic105_91.25_3027.sdst ! RUN = 3027 ! NEVT = 3000
FILE = /castor/cern.ch/delphi/MCprod/wupp/apacic105/v95d/91.25/apacic105_91.25_3028.sdst ! RUN = 3028 ! NEVT = 2999
FILE = /castor/cern.ch/delphi/MCprod/wupp/apacic105/v95d/91.25/apacic105_91.25_3029.sdst ! RUN = 3029 ! NEVT = 3000
FILE = /castor/cern.ch/delphi/MCprod/wupp/apacic105/v95d/91.25/apacic105_91.25_3030.sdst ! RUN = 3030 ! NEVT = 3000
FILE = /castor/cern.ch/delphi/MCprod/wupp/apacic105/v95d/91.25/apacic105_91.25_3031.sdst ! RUN = 3031 ! NEVT = 2999
FILE = /castor/cern.ch/delphi/MCprod/wupp/apacic105/v95d/91.25/apacic105_91.25_3032.sdst ! RUN = 3032 ! NEVT = 3000
FILE = /castor/cern.ch/delphi/MCprod/wupp/apacic105/v95d/91.25/apacic105_91.25_3033.sdst ! RUN = 3033 ! NEVT = 3000
FILE = /castor/cern.ch/delphi/MCprod/wupp/apacic105/v95d/91.25/apacic105_91.25_3034.sdst ! RUN = 3034 ! NEVT = 3000
FILE = /castor/cern.ch/delphi/MCprod/wupp/apacic105/v95d/91.25/apacic105_91.25_3035.sdst ! RUN = 3035 ! NEVT = 3000
FILE = /castor/cern.ch/delphi/MCprod/wupp/apacic105/v95d/91.25/apacic105_91.25_3036.sdst ! RUN = 3036 ! NEVT = 3000
FILE = /castor/cern.ch/delphi/MCprod/wupp/apacic105/v95d/91.25/apacic105_91.25_3037.sdst ! RUN = 3037 ! NEVT = 3000
FILE = /castor/cern.ch/delphi/MCprod/wupp/apacic105/v95d/91.25/apacic105_91.25_3038.sdst ! RUN = 3038 ! NEVT = 2999
FILE = /castor/cern.ch/delphi/MCprod/wupp/apacic105/v95d/91.25/apacic105_91.25_3039.sdst ! RUN = 3039 ! NEVT = 3000
FILE = /castor/cern.ch/delphi/MCprod/wupp/apacic105/v95d/91.25/apacic105_91.25_3040.sdst ! RUN = 3040 ! NEVT = 2999
FILE = /castor/cern.ch/delphi/MCprod/wupp/apacic105/v95d/91.25/apacic105_91.25_3041.sdst ! RUN = 3041 ! NEVT = 3000
FILE = /castor/cern.ch/delphi/MCprod/wupp/apacic105/v95d/91.25/apacic105_91.25_3042.sdst ! RUN = 3042 ! NEVT = 3000
FILE = /castor/cern.ch/delphi/MCprod/wupp/apacic105/v95d/91.25/apacic105_91.25_3043.sdst ! RUN = 3043 ! NEVT = 2999
FILE = /castor/cern.ch/delphi/MCprod/wupp/apacic105/v95d/91.25/apacic105_91.25_3044.sdst ! RUN = 3044 ! NEVT = 3000
FILE = /castor/cern.ch/delphi/MCprod/wupp/apacic105/v95d/91.25/apacic105_91.25_3045.sdst ! RUN = 3045 ! NEVT = 2999
FILE = /castor/cern.ch/delphi/MCprod/wupp/apacic105/v95d/91.25/apacic105_91.25_3046.sdst ! RUN = 3046 ! NEVT = 2999
FILE = /castor/cern.ch/delphi/MCprod/wupp/apacic105/v95d/91.25/apacic105_91.25_3047.sdst ! RUN = 3047 ! NEVT = 3000
FILE = /castor/cern.ch/delphi/MCprod/wupp/apacic105/v95d/91.25/apacic105_91.25_3048.sdst ! RUN = 3048 ! NEVT = 3000
FILE = /castor/cern.ch/delphi/MCprod/wupp/apacic105/v95d/91.25/apacic105_91.25_3049.sdst ! RUN = 3049 ! NEVT = 3000
FILE = /castor/cern.ch/delphi/MCprod/wupp/apacic105/v95d/91.25/apacic105_91.25_3050.sdst ! RUN = 3050 ! NEVT = 2999
FILE = /castor/cern.ch/delphi/MCprod/wupp/apacic105/v95d/91.25/apacic105_91.25_3051.sdst ! RUN = 3051 ! NEVT = 3000
FILE = /castor/cern.ch/delphi/MCprod/wupp/apacic105/v95d/91.25/apacic105_91.25_3052.sdst ! RUN = 3052 ! NEVT = 3000
FILE = /castor/cern.ch/delphi/MCprod/wupp/apacic105/v95d/91.25/apacic105_91.25_3053.sdst ! RUN = 3053 ! NEVT = 3000
FILE = /castor/cern.ch/delphi/MCprod/wupp/apacic105/v95d/91.25/apacic105_91.25_3054.sdst ! RUN = 3054 ! NEVT = 3000
FILE = /castor/cern.ch/delphi/MCprod/wupp/apacic105/v95d/91.25/apacic105_91.25_3055.sdst ! RUN = 3055 ! NEVT = 3000
FILE = /castor/cern.ch/delphi/MCprod/wupp/apacic105/v95d/91.25/apacic105_91.25_3056.sdst ! RUN = 3056 ! NEVT = 2999
FILE = /castor/cern.ch/delphi/MCprod/wupp/apacic105/v95d/91.25/apacic105_91.25_3057.sdst ! RUN = 3057 ! NEVT = 3000
FILE = /castor/cern.ch/delphi/MCprod/wupp/apacic105/v95d/91.25/apacic105_91.25_3058.sdst ! RUN = 3058 ! NEVT = 2999
FILE = /castor/cern.ch/delphi/MCprod/wupp/apacic105/v95d/91.25/apacic105_91.25_3059.sdst ! RUN = 3059 ! NEVT = 3000
FILE = /castor/cern.ch/delphi/MCprod/wupp/apacic105/v95d/91.25/apacic105_91.25_3060.sdst ! RUN = 3060 ! NEVT = 3000
FILE = /castor/cern.ch/delphi/MCprod/wupp/apacic105/v95d/91.25/apacic105_91.25_3061.sdst ! RUN = 3061 ! NEVT = 3000
FILE = /castor/cern.ch/delphi/MCprod/wupp/apacic105/v95d/91.25/apacic105_91.25_3062.sdst ! RUN = 3062 ! NEVT = 3000
FILE = /castor/cern.ch/delphi/MCprod/wupp/apacic105/v95d/91.25/apacic105_91.25_3063.sdst ! RUN = 3063 ! NEVT = 3000
FILE = /castor/cern.ch/delphi/MCprod/wupp/apacic105/v95d/91.25/apacic105_91.25_3064.sdst ! RUN = 3064 ! NEVT = 3000
FILE = /castor/cern.ch/delphi/MCprod/wupp/apacic105/v95d/91.25/apacic105_91.25_3065.sdst ! RUN = 3065 ! NEVT = 596
FILE = /castor/cern.ch/delphi/MCprod/wupp/apacic105/v95d/91.25/apacic105_91.25_3066.sdst ! RUN = 3066 ! NEVT = 3000
FILE = /castor/cern.ch/delphi/MCprod/wupp/apacic105/v95d/91.25/apacic105_91.25_3067.sdst ! RUN = 3067 ! NEVT = 3000
FILE = /castor/cern.ch/delphi/MCprod/wupp/apacic105/v95d/91.25/apacic105_91.25_3068.sdst ! RUN = 3068 ! NEVT = 3000
FILE = /castor/cern.ch/delphi/MCprod/wupp/apacic105/v95d/91.25/apacic105_91.25_3069.sdst ! RUN = 3069 ! NEVT = 3000
FILE = /castor/cern.ch/delphi/MCprod/wupp/apacic105/v95d/91.25/apacic105_91.25_3070.sdst ! RUN = 3070 ! NEVT = 3000
FILE = /castor/cern.ch/delphi/MCprod/wupp/apacic105/v95d/91.25/apacic105_91.25_3071.sdst ! RUN = 3071 ! NEVT = 3000
FILE = /castor/cern.ch/delphi/MCprod/wupp/apacic105/v95d/91.25/apacic105_91.25_3072.sdst ! RUN = 3072 ! NEVT = 3000
FILE = /castor/cern.ch/delphi/MCprod/wupp/apacic105/v95d/91.25/apacic105_91.25_3073.sdst ! RUN = 3073 ! NEVT = 3000
FILE = /castor/cern.ch/delphi/MCprod/wupp/apacic105/v95d/91.25/apacic105_91.25_3074.sdst ! RUN = 3074 ! NEVT = 3000
FILE = /castor/cern.ch/delphi/MCprod/wupp/apacic105/v95d/91.25/apacic105_91.25_3075.sdst ! RUN = 3075 ! NEVT = 3000
FILE = /castor/cern.ch/delphi/MCprod/wupp/apacic105/v95d/91.25/apacic105_91.25_3076.sdst ! RUN = 3076 ! NEVT = 1846
FILE = /castor/cern.ch/delphi/MCprod/wupp/apacic105/v95d/91.25/apacic105_91.25_3077.sdst ! RUN = 3077 ! NEVT = 3000
FILE = /castor/cern.ch/delphi/MCprod/wupp/apacic105/v95d/91.25/apacic105_91.25_3078.sdst ! RUN = 3078 ! NEVT = 3000
FILE = /castor/cern.ch/delphi/MCprod/wupp/apacic105/v95d/91.25/apacic105_91.25_3079.sdst ! RUN = 3079 ! NEVT = 3000
FILE = /castor/cern.ch/delphi/MCprod/wupp/apacic105/v95d/91.25/apacic105_91.25_3080.sdst ! RUN = 3080 ! NEVT = 3000
FILE = /castor/cern.ch/delphi/MCprod/wupp/apacic105/v95d/91.25/apacic105_91.25_3081.sdst ! RUN = 3081 ! NEVT = 3000
FILE = /castor/cern.ch/delphi/MCprod/wupp/apacic105/v95d/91.25/apacic105_91.25_3082.sdst ! RUN = 3082 ! NEVT = 2999
FILE = /castor/cern.ch/delphi/MCprod/wupp/apacic105/v95d/91.25/apacic105_91.25_3083.sdst ! RUN = 3083 ! NEVT = 2999
FILE = /castor/cern.ch/delphi/MCprod/wupp/apacic105/v95d/91.25/apacic105_91.25_3084.sdst ! RUN = 3084 ! NEVT = 3000
FILE = /castor/cern.ch/delphi/MCprod/wupp/apacic105/v95d/91.25/apacic105_91.25_3086.sdst ! RUN = 3086 ! NEVT = 3000
FILE = /castor/cern.ch/delphi/MCprod/wupp/apacic105/v95d/91.25/apacic105_91.25_3087.sdst ! RUN = 3087 ! NEVT = 2998
FILE = /castor/cern.ch/delphi/MCprod/wupp/apacic105/v95d/91.25/apacic105_91.25_3088.sdst ! RUN = 3088 ! NEVT = 2999
FILE = /castor/cern.ch/delphi/MCprod/wupp/apacic105/v95d/91.25/apacic105_91.25_3089.sdst ! RUN = 3089 ! NEVT = 3000
FILE = /castor/cern.ch/delphi/MCprod/wupp/apacic105/v95d/91.25/apacic105_91.25_3090.sdst ! RUN = 3090 ! NEVT = 2998
FILE = /castor/cern.ch/delphi/MCprod/wupp/apacic105/v95d/91.25/apacic105_91.25_3091.sdst ! RUN = 3091 ! NEVT = 2999
FILE = /castor/cern.ch/delphi/MCprod/wupp/apacic105/v95d/91.25/apacic105_91.25_3092.sdst ! RUN = 3092 ! NEVT = 2999
FILE = /castor/cern.ch/delphi/MCprod/wupp/apacic105/v95d/91.25/apacic105_91.25_3093.sdst ! RUN = 3093 ! NEVT = 3000
FILE = /castor/cern.ch/delphi/MCprod/wupp/apacic105/v95d/91.25/apacic105_91.25_3094.sdst ! RUN = 3094 ! NEVT = 3000
FILE = /castor/cern.ch/delphi/MCprod/wupp/apacic105/v95d/91.25/apacic105_91.25_3095.sdst ! RUN = 3095 ! NEVT = 2999
FILE = /castor/cern.ch/delphi/MCprod/wupp/apacic105/v95d/91.25/apacic105_91.25_3096.sdst ! RUN = 3096 ! NEVT = 3000
FILE = /castor/cern.ch/delphi/MCprod/wupp/apacic105/v95d/91.25/apacic105_91.25_3097.sdst ! RUN = 3097 ! NEVT = 3000
FILE = /castor/cern.ch/delphi/MCprod/wupp/apacic105/v95d/91.25/apacic105_91.25_3098.sdst ! RUN = 3098 ! NEVT = 3000
FILE = /castor/cern.ch/delphi/MCprod/wupp/apacic105/v95d/91.25/apacic105_91.25_3099.sdst ! RUN = 3099 ! NEVT = 1639
FILE = /castor/cern.ch/delphi/MCprod/wupp/apacic105/v95d/91.25/apacic105_91.25_3100.sdst ! RUN = 3100 ! NEVT = 2999
FILE = /castor/cern.ch/delphi/MCprod/wupp/apacic105/v95d/91.25/apacic105_91.25_3101.sdst ! RUN = 3101 ! NEVT = 3000
FILE = /castor/cern.ch/delphi/MCprod/wupp/apacic105/v95d/91.25/apacic105_91.25_3102.sdst ! RUN = 3102 ! NEVT = 3000
FILE = /castor/cern.ch/delphi/MCprod/wupp/apacic105/v95d/91.25/apacic105_91.25_3103.sdst ! RUN = 3103 ! NEVT = 848
FILE = /castor/cern.ch/delphi/MCprod/wupp/apacic105/v95d/91.25/apacic105_91.25_3104.sdst ! RUN = 3104 ! NEVT = 3000
FILE = /castor/cern.ch/delphi/MCprod/wupp/apacic105/v95d/91.25/apacic105_91.25_3105.sdst ! RUN = 3105 ! NEVT = 3000
FILE = /castor/cern.ch/delphi/MCprod/wupp/apacic105/v95d/91.25/apacic105_91.25_3106.sdst ! RUN = 3106 ! NEVT = 2999
FILE = /castor/cern.ch/delphi/MCprod/wupp/apacic105/v95d/91.25/apacic105_91.25_3107.sdst ! RUN = 3107 ! NEVT = 2999
FILE = /castor/cern.ch/delphi/MCprod/wupp/apacic105/v95d/91.25/apacic105_91.25_3108.sdst ! RUN = 3108 ! NEVT = 3000
FILE = /castor/cern.ch/delphi/MCprod/wupp/apacic105/v95d/91.25/apacic105_91.25_3109.sdst ! RUN = 3109 ! NEVT = 2999
FILE = /castor/cern.ch/delphi/MCprod/wupp/apacic105/v95d/91.25/apacic105_91.25_3110.sdst ! RUN = 3110 ! NEVT = 3000
FILE = /castor/cern.ch/delphi/MCprod/wupp/apacic105/v95d/91.25/apacic105_91.25_3111.sdst ! RUN = 3111 ! NEVT = 3000
FILE = /castor/cern.ch/delphi/MCprod/wupp/apacic105/v95d/91.25/apacic105_91.25_3112.sdst ! RUN = 3112 ! NEVT = 3000
FILE = /castor/cern.ch/delphi/MCprod/wupp/apacic105/v95d/91.25/apacic105_91.25_3113.sdst ! RUN = 3113 ! NEVT = 3000
FILE = /castor/cern.ch/delphi/MCprod/wupp/apacic105/v95d/91.25/apacic105_91.25_3114.sdst ! RUN = 3114 ! NEVT = 3000
FILE = /castor/cern.ch/delphi/MCprod/wupp/apacic105/v95d/91.25/apacic105_91.25_3115.sdst ! RUN = 3115 ! NEVT = 3000
FILE = /castor/cern.ch/delphi/MCprod/wupp/apacic105/v95d/91.25/apacic105_91.25_3116.sdst ! RUN = 3116 ! NEVT = 3000
FILE = /castor/cern.ch/delphi/MCprod/wupp/apacic105/v95d/91.25/apacic105_91.25_3117.sdst ! RUN = 3117 ! NEVT = 3000
FILE = /castor/cern.ch/delphi/MCprod/wupp/apacic105/v95d/91.25/apacic105_91.25_3118.sdst ! RUN = 3118 ! NEVT = 2999
FILE = /castor/cern.ch/delphi/MCprod/wupp/apacic105/v95d/91.25/apacic105_91.25_3119.sdst ! RUN = 3119 ! NEVT = 3000
FILE = /castor/cern.ch/delphi/MCprod/wupp/apacic105/v95d/91.25/apacic105_91.25_3120.sdst ! RUN = 3120 ! NEVT = 3000
FILE = /castor/cern.ch/delphi/MCprod/wupp/apacic105/v95d/91.25/apacic105_91.25_3121.sdst ! RUN = 3121 ! NEVT = 3000
FILE = /castor/cern.ch/delphi/MCprod/wupp/apacic105/v95d/91.25/apacic105_91.25_3122.sdst ! RUN = 3122 ! NEVT = 3000
FILE = /castor/cern.ch/delphi/MCprod/wupp/apacic105/v95d/91.25/apacic105_91.25_3123.sdst ! RUN = 3123 ! NEVT = 3000
FILE = /castor/cern.ch/delphi/MCprod/wupp/apacic105/v95d/91.25/apacic105_91.25_3124.sdst ! RUN = 3124 ! NEVT = 3000
FILE = /castor/cern.ch/delphi/MCprod/wupp/apacic105/v95d/91.25/apacic105_91.25_3125.sdst ! RUN = 3125 ! NEVT = 3000
FILE = /castor/cern.ch/delphi/MCprod/wupp/apacic105/v95d/91.25/apacic105_91.25_3126.sdst ! RUN = 3126 ! NEVT = 3000
FILE = /castor/cern.ch/delphi/MCprod/wupp/apacic105/v95d/91.25/apacic105_91.25_3127.sdst ! RUN = 3127 ! NEVT = 2998
FILE = /castor/cern.ch/delphi/MCprod/wupp/apacic105/v95d/91.25/apacic105_91.25_3128.sdst ! RUN = 3128 ! NEVT = 2999
FILE = /castor/cern.ch/delphi/MCprod/wupp/apacic105/v95d/91.25/apacic105_91.25_3129.sdst ! RUN = 3129 ! NEVT = 3000
FILE = /castor/cern.ch/delphi/MCprod/wupp/apacic105/v95d/91.25/apacic105_91.25_3130.sdst ! RUN = 3130 ! NEVT = 3000
FILE = /castor/cern.ch/delphi/MCprod/wupp/apacic105/v95d/91.25/apacic105_91.25_3131.sdst ! RUN = 3131 ! NEVT = 3000
FILE = /castor/cern.ch/delphi/MCprod/wupp/apacic105/v95d/91.25/apacic105_91.25_3132.sdst ! RUN = 3132 ! NEVT = 3000
FILE = /castor/cern.ch/delphi/MCprod/wupp/apacic105/v95d/91.25/apacic105_91.25_3133.sdst ! RUN = 3133 ! NEVT = 3000
FILE = /castor/cern.ch/delphi/MCprod/wupp/apacic105/v95d/91.25/apacic105_91.25_3134.sdst ! RUN = 3134 ! NEVT = 3000
FILE = /castor/cern.ch/delphi/MCprod/wupp/apacic105/v95d/91.25/apacic105_91.25_3135.sdst ! RUN = 3135 ! NEVT = 3000
FILE = /castor/cern.ch/delphi/MCprod/wupp/apacic105/v95d/91.25/apacic105_91.25_3136.sdst ! RUN = 3136 ! NEVT = 2999
FILE = /castor/cern.ch/delphi/MCprod/wupp/apacic105/v95d/91.25/apacic105_91.25_3137.sdst ! RUN = 3137 ! NEVT = 2
FILE = /castor/cern.ch/delphi/MCprod/wupp/apacic105/v95d/91.25/apacic105_91.25_3138.sdst ! RUN = 3138 ! NEVT = 3000
FILE = /castor/cern.ch/delphi/MCprod/wupp/apacic105/v95d/91.25/apacic105_91.25_3139.sdst ! RUN = 3139 ! NEVT = 3000
FILE = /castor/cern.ch/delphi/MCprod/wupp/apacic105/v95d/91.25/apacic105_91.25_3140.sdst ! RUN = 3140 ! NEVT = 2999
FILE = /castor/cern.ch/delphi/MCprod/wupp/apacic105/v95d/91.25/apacic105_91.25_3141.sdst ! RUN = 3141 ! NEVT = 1900
FILE = /castor/cern.ch/delphi/MCprod/wupp/apacic105/v95d/91.25/apacic105_91.25_3142.sdst ! RUN = 3142 ! NEVT = 3000
FILE = /castor/cern.ch/delphi/MCprod/wupp/apacic105/v95d/91.25/apacic105_91.25_3143.sdst ! RUN = 3143 ! NEVT = 3000
FILE = /castor/cern.ch/delphi/MCprod/wupp/apacic105/v95d/91.25/apacic105_91.25_3144.sdst ! RUN = 3144 ! NEVT = 3000
FILE = /castor/cern.ch/delphi/MCprod/wupp/apacic105/v95d/91.25/apacic105_91.25_3145.sdst ! RUN = 3145 ! NEVT = 3000
FILE = /castor/cern.ch/delphi/MCprod/wupp/apacic105/v95d/91.25/apacic105_91.25_3146.sdst ! RUN = 3146 ! NEVT = 3000
FILE = /castor/cern.ch/delphi/MCprod/wupp/apacic105/v95d/91.25/apacic105_91.25_3147.sdst ! RUN = 3147 ! NEVT = 3000
FILE = /castor/cern.ch/delphi/MCprod/wupp/apacic105/v95d/91.25/apacic105_91.25_3148.sdst ! RUN = 3148 ! NEVT = 3000
FILE = /castor/cern.ch/delphi/MCprod/wupp/apacic105/v95d/91.25/apacic105_91.25_3149.sdst ! RUN = 3149 ! NEVT = 3000
FILE = /castor/cern.ch/delphi/MCprod/wupp/apacic105/v95d/91.25/apacic105_91.25_3150.sdst ! RUN = 3150 ! NEVT = 3000
FILE = /castor/cern.ch/delphi/MCprod/wupp/apacic105/v95d/91.25/apacic105_91.25_3151.sdst ! RUN = 3151 ! NEVT = 3000
FILE = /castor/cern.ch/delphi/MCprod/wupp/apacic105/v95d/91.25/apacic105_91.25_3152.sdst ! RUN = 3152 ! NEVT = 3000
FILE = /castor/cern.ch/delphi/MCprod/wupp/apacic105/v95d/91.25/apacic105_91.25_3153.sdst ! RUN = 3153 ! NEVT = 2999
FILE = /castor/cern.ch/delphi/MCprod/wupp/apacic105/v95d/91.25/apacic105_91.25_3154.sdst ! RUN = 3154 ! NEVT = 3000
FILE = /castor/cern.ch/delphi/MCprod/wupp/apacic105/v95d/91.25/apacic105_91.25_3155.sdst ! RUN = 3155 ! NEVT = 3000
FILE = /castor/cern.ch/delphi/MCprod/wupp/apacic105/v95d/91.25/apacic105_91.25_3156.sdst ! RUN = 3156 ! NEVT = 3000
FILE = /castor/cern.ch/delphi/MCprod/wupp/apacic105/v95d/91.25/apacic105_91.25_3157.sdst ! RUN = 3157 ! NEVT = 3000
FILE = /castor/cern.ch/delphi/MCprod/wupp/apacic105/v95d/91.25/apacic105_91.25_3158.sdst ! RUN = 3158 ! NEVT = 3000
FILE = /castor/cern.ch/delphi/MCprod/wupp/apacic105/v95d/91.25/apacic105_91.25_3159.sdst ! RUN = 3159 ! NEVT = 3000
FILE = /castor/cern.ch/delphi/MCprod/wupp/apacic105/v95d/91.25/apacic105_91.25_3160.sdst ! RUN = 3160 ! NEVT = 3000
FILE = /castor/cern.ch/delphi/MCprod/wupp/apacic105/v95d/91.25/apacic105_91.25_3161.sdst ! RUN = 3161 ! NEVT = 3000
FILE = /castor/cern.ch/delphi/MCprod/wupp/apacic105/v95d/91.25/apacic105_91.25_3162.sdst ! RUN = 3162 ! NEVT = 3000
FILE = /castor/cern.ch/delphi/MCprod/wupp/apacic105/v95d/91.25/apacic105_91.25_3163.sdst ! RUN = 3163 ! NEVT = 3000
FILE = /castor/cern.ch/delphi/MCprod/wupp/apacic105/v95d/91.25/apacic105_91.25_3164.sdst ! RUN = 3164 ! NEVT = 581
FILE = /castor/cern.ch/delphi/MCprod/wupp/apacic105/v95d/91.25/apacic105_91.25_3165.sdst ! RUN = 3165 ! NEVT = 2999
FILE = /castor/cern.ch/delphi/MCprod/wupp/apacic105/v95d/91.25/apacic105_91.25_3166.sdst ! RUN = 3166 ! NEVT = 3000
FILE = /castor/cern.ch/delphi/MCprod/wupp/apacic105/v95d/91.25/apacic105_91.25_3167.sdst ! RUN = 3167 ! NEVT = 3000
FILE = /castor/cern.ch/delphi/MCprod/wupp/apacic105/v95d/91.25/apacic105_91.25_3168.sdst ! RUN = 3168 ! NEVT = 3000
FILE = /castor/cern.ch/delphi/MCprod/wupp/apacic105/v95d/91.25/apacic105_91.25_3169.sdst ! RUN = 3169 ! NEVT = 2998
FILE = /castor/cern.ch/delphi/MCprod/wupp/apacic105/v95d/91.25/apacic105_91.25_3170.sdst ! RUN = 3170 ! NEVT = 3000
FILE = /castor/cern.ch/delphi/MCprod/wupp/apacic105/v95d/91.25/apacic105_91.25_3171.sdst ! RUN = 3171 ! NEVT = 3000
FILE = /castor/cern.ch/delphi/MCprod/wupp/apacic105/v95d/91.25/apacic105_91.25_3172.sdst ! RUN = 3172 ! NEVT = 3000
FILE = /castor/cern.ch/delphi/MCprod/wupp/apacic105/v95d/91.25/apacic105_91.25_3173.sdst ! RUN = 3173 ! NEVT = 3000
FILE = /castor/cern.ch/delphi/MCprod/wupp/apacic105/v95d/91.25/apacic105_91.25_3174.sdst ! RUN = 3174 ! NEVT = 3000
FILE = /castor/cern.ch/delphi/MCprod/wupp/apacic105/v95d/91.25/apacic105_91.25_3175.sdst ! RUN = 3175 ! NEVT = 3000
FILE = /castor/cern.ch/delphi/MCprod/wupp/apacic105/v95d/91.25/apacic105_91.25_3176.sdst ! RUN = 3176 ! NEVT = 3000
FILE = /castor/cern.ch/delphi/MCprod/wupp/apacic105/v95d/91.25/apacic105_91.25_3177.sdst ! RUN = 3177 ! NEVT = 3000
FILE = /castor/cern.ch/delphi/MCprod/wupp/apacic105/v95d/91.25/apacic105_91.25_3178.sdst ! RUN = 3178 ! NEVT = 3000
FILE = /castor/cern.ch/delphi/MCprod/wupp/apacic105/v95d/91.25/apacic105_91.25_3179.sdst ! RUN = 3179 ! NEVT = 3000
FILE = /castor/cern.ch/delphi/MCprod/wupp/apacic105/v95d/91.25/apacic105_91.25_3180.sdst ! RUN = 3180 ! NEVT = 2998
FILE = /castor/cern.ch/delphi/MCprod/wupp/apacic105/v95d/91.25/apacic105_91.25_3181.sdst ! RUN = 3181 ! NEVT = 3000
FILE = /castor/cern.ch/delphi/MCprod/wupp/apacic105/v95d/91.25/apacic105_91.25_3182.sdst ! RUN = 3182 ! NEVT = 3000
FILE = /castor/cern.ch/delphi/MCprod/wupp/apacic105/v95d/91.25/apacic105_91.25_3183.sdst ! RUN = 3183 ! NEVT = 3000
FILE = /castor/cern.ch/delphi/MCprod/wupp/apacic105/v95d/91.25/apacic105_91.25_3184.sdst ! RUN = 3184 ! NEVT = 3000
FILE = /castor/cern.ch/delphi/MCprod/wupp/apacic105/v95d/91.25/apacic105_91.25_3185.sdst ! RUN = 3185 ! NEVT = 2999
FILE = /castor/cern.ch/delphi/MCprod/wupp/apacic105/v95d/91.25/apacic105_91.25_3186.sdst ! RUN = 3186 ! NEVT = 3000
FILE = /castor/cern.ch/delphi/MCprod/wupp/apacic105/v95d/91.25/apacic105_91.25_3187.sdst ! RUN = 3187 ! NEVT = 2999
FILE = /castor/cern.ch/delphi/MCprod/wupp/apacic105/v95d/91.25/apacic105_91.25_3188.sdst ! RUN = 3188 ! NEVT = 2999
FILE = /castor/cern.ch/delphi/MCprod/wupp/apacic105/v95d/91.25/apacic105_91.25_3189.sdst ! RUN = 3189 ! NEVT = 3000
FILE = /castor/cern.ch/delphi/MCprod/wupp/apacic105/v95d/91.25/apacic105_91.25_3190.sdst ! RUN = 3190 ! NEVT = 3000
FILE = /castor/cern.ch/delphi/MCprod/wupp/apacic105/v95d/91.25/apacic105_91.25_3191.sdst ! RUN = 3191 ! NEVT = 3000
FILE = /castor/cern.ch/delphi/MCprod/wupp/apacic105/v95d/91.25/apacic105_91.25_3192.sdst ! RUN = 3192 ! NEVT = 3000
FILE = /castor/cern.ch/delphi/MCprod/wupp/apacic105/v95d/91.25/apacic105_91.25_3193.sdst ! RUN = 3193 ! NEVT = 3000
FILE = /castor/cern.ch/delphi/MCprod/wupp/apacic105/v95d/91.25/apacic105_91.25_3194.sdst ! RUN = 3194 ! NEVT = 3000
FILE = /castor/cern.ch/delphi/MCprod/wupp/apacic105/v95d/91.25/apacic105_91.25_3195.sdst ! RUN = 3195 ! NEVT = 3000
FILE = /castor/cern.ch/delphi/MCprod/wupp/apacic105/v95d/91.25/apacic105_91.25_3196.sdst ! RUN = 3196 ! NEVT = 3000
FILE = /castor/cern.ch/delphi/MCprod/wupp/apacic105/v95d/91.25/apacic105_91.25_3197.sdst ! RUN = 3197 ! NEVT = 2999
FILE = /castor/cern.ch/delphi/MCprod/wupp/apacic105/v95d/91.25/apacic105_91.25_3198.sdst ! RUN = 3198 ! NEVT = 3000
FILE = /castor/cern.ch/delphi/MCprod/wupp/apacic105/v95d/91.25/apacic105_91.25_3199.sdst ! RUN = 3199 ! NEVT = 3000
FILE = /castor/cern.ch/delphi/MCprod/wupp/apacic105/v95d/91.25/apacic105_91.25_3200.sdst ! RUN = 3200 ! NEVT = 3000
FILE = /castor/cern.ch/delphi/MCprod/wupp/apacic105/v95d/91.25/apacic105_91.25_3201.sdst ! RUN = 3201 ! NEVT = 3000
FILE = /castor/cern.ch/delphi/MCprod/wupp/apacic105/v95d/91.25/apacic105_91.25_3202.sdst ! RUN = 3202 ! NEVT = 3000
FILE = /castor/cern.ch/delphi/MCprod/wupp/apacic105/v95d/91.25/apacic105_91.25_3203.sdst ! RUN = 3203 ! NEVT = 3000
FILE = /castor/cern.ch/delphi/MCprod/wupp/apacic105/v95d/91.25/apacic105_91.25_3204.sdst ! RUN = 3204 ! NEVT = 3000
FILE = /castor/cern.ch/delphi/MCprod/wupp/apacic105/v95d/91.25/apacic105_91.25_3205.sdst ! RUN = 3205 ! NEVT = 3000
FILE = /castor/cern.ch/delphi/MCprod/wupp/apacic105/v95d/91.25/apacic105_91.25_3206.sdst ! RUN = 3206 ! NEVT = 3000
FILE = /castor/cern.ch/delphi/MCprod/wupp/apacic105/v95d/91.25/apacic105_91.25_3207.sdst ! RUN = 3207 ! NEVT = 3000
FILE = /castor/cern.ch/delphi/MCprod/wupp/apacic105/v95d/91.25/apacic105_91.25_3208.sdst ! RUN = 3208 ! NEVT = 2999
FILE = /castor/cern.ch/delphi/MCprod/wupp/apacic105/v95d/91.25/apacic105_91.25_3209.sdst ! RUN = 3209 ! NEVT = 3000
FILE = /castor/cern.ch/delphi/MCprod/wupp/apacic105/v95d/91.25/apacic105_91.25_3210.sdst ! RUN = 3210 ! NEVT = 3000
FILE = /castor/cern.ch/delphi/MCprod/wupp/apacic105/v95d/91.25/apacic105_91.25_3211.sdst ! RUN = 3211 ! NEVT = 3000
FILE = /castor/cern.ch/delphi/MCprod/wupp/apacic105/v95d/91.25/apacic105_91.25_3212.sdst ! RUN = 3212 ! NEVT = 3000
FILE = /castor/cern.ch/delphi/MCprod/wupp/apacic105/v95d/91.25/apacic105_91.25_3213.sdst ! RUN = 3213 ! NEVT = 3000
FILE = /castor/cern.ch/delphi/MCprod/wupp/apacic105/v95d/91.25/apacic105_91.25_3214.sdst ! RUN = 3214 ! NEVT = 3000
FILE = /castor/cern.ch/delphi/MCprod/wupp/apacic105/v95d/91.25/apacic105_91.25_3215.sdst ! RUN = 3215 ! NEVT = 3000
FILE = /castor/cern.ch/delphi/MCprod/wupp/apacic105/v95d/91.25/apacic105_91.25_3216.sdst ! RUN = 3216 ! NEVT = 3000
FILE = /castor/cern.ch/delphi/MCprod/wupp/apacic105/v95d/91.25/apacic105_91.25_3217.sdst ! RUN = 3217 ! NEVT = 3000
FILE = /castor/cern.ch/delphi/MCprod/wupp/apacic105/v95d/91.25/apacic105_91.25_3218.sdst ! RUN = 3218 ! NEVT = 3000
FILE = /castor/cern.ch/delphi/MCprod/wupp/apacic105/v95d/91.25/apacic105_91.25_3219.sdst ! RUN = 3219 ! NEVT = 3000
FILE = /castor/cern.ch/delphi/MCprod/wupp/apacic105/v95d/91.25/apacic105_91.25_3220.sdst ! RUN = 3220 ! NEVT = 2999
FILE = /castor/cern.ch/delphi/MCprod/wupp/apacic105/v95d/91.25/apacic105_91.25_3221.sdst ! RUN = 3221 ! NEVT = 3000
FILE = /castor/cern.ch/delphi/MCprod/wupp/apacic105/v95d/91.25/apacic105_91.25_3222.sdst ! RUN = 3222 ! NEVT = 3000
FILE = /castor/cern.ch/delphi/MCprod/wupp/apacic105/v95d/91.25/apacic105_91.25_3223.sdst ! RUN = 3223 ! NEVT = 3000
FILE = /castor/cern.ch/delphi/MCprod/wupp/apacic105/v95d/91.25/apacic105_91.25_3224.sdst ! RUN = 3224 ! NEVT = 3000
FILE = /castor/cern.ch/delphi/MCprod/wupp/apacic105/v95d/91.25/apacic105_91.25_3225.sdst ! RUN = 3225 ! NEVT = 3000
FILE = /castor/cern.ch/delphi/MCprod/wupp/apacic105/v95d/91.25/apacic105_91.25_3226.sdst ! RUN = 3226 ! NEVT = 3000
FILE = /castor/cern.ch/delphi/MCprod/wupp/apacic105/v95d/91.25/apacic105_91.25_3227.sdst ! RUN = 3227 ! NEVT = 2999
FILE = /castor/cern.ch/delphi/MCprod/wupp/apacic105/v95d/91.25/apacic105_91.25_3228.sdst ! RUN = 3228 ! NEVT = 3000
FILE = /castor/cern.ch/delphi/MCprod/wupp/apacic105/v95d/91.25/apacic105_91.25_3229.sdst ! RUN = 3229 ! NEVT = 3000
FILE = /castor/cern.ch/delphi/MCprod/wupp/apacic105/v95d/91.25/apacic105_91.25_3230.sdst ! RUN = 3230 ! NEVT = 3000
FILE = /castor/cern.ch/delphi/MCprod/wupp/apacic105/v95d/91.25/apacic105_91.25_3231.sdst ! RUN = 3231 ! NEVT = 2999
FILE = /castor/cern.ch/delphi/MCprod/wupp/apacic105/v95d/91.25/apacic105_91.25_3232.sdst ! RUN = 3232 ! NEVT = 2999
FILE = /castor/cern.ch/delphi/MCprod/wupp/apacic105/v95d/91.25/apacic105_91.25_3233.sdst ! RUN = 3233 ! NEVT = 3000
FILE = /castor/cern.ch/delphi/MCprod/wupp/apacic105/v95d/91.25/apacic105_91.25_3234.sdst ! RUN = 3234 ! NEVT = 2507
FILE = /castor/cern.ch/delphi/MCprod/wupp/apacic105/v95d/91.25/apacic105_91.25_3235.sdst ! RUN = 3235 ! NEVT = 3000
FILE = /castor/cern.ch/delphi/MCprod/wupp/apacic105/v95d/91.25/apacic105_91.25_3236.sdst ! RUN = 3236 ! NEVT = 3000
FILE = /castor/cern.ch/delphi/MCprod/wupp/apacic105/v95d/91.25/apacic105_91.25_3237.sdst ! RUN = 3237 ! NEVT = 3000
FILE = /castor/cern.ch/delphi/MCprod/wupp/apacic105/v95d/91.25/apacic105_91.25_3238.sdst ! RUN = 3238 ! NEVT = 3000
FILE = /castor/cern.ch/delphi/MCprod/wupp/apacic105/v95d/91.25/apacic105_91.25_3239.sdst ! RUN = 3239 ! NEVT = 2999
FILE = /castor/cern.ch/delphi/MCprod/wupp/apacic105/v95d/91.25/apacic105_91.25_3240.sdst ! RUN = 3240 ! NEVT = 3000
FILE = /castor/cern.ch/delphi/MCprod/wupp/apacic105/v95d/91.25/apacic105_91.25_3241.sdst ! RUN = 3241 ! NEVT = 3000
FILE = /castor/cern.ch/delphi/MCprod/wupp/apacic105/v95d/91.25/apacic105_91.25_3242.sdst ! RUN = 3242 ! NEVT = 2999
FILE = /castor/cern.ch/delphi/MCprod/wupp/apacic105/v95d/91.25/apacic105_91.25_3243.sdst ! RUN = 3243 ! NEVT = 3000
FILE = /castor/cern.ch/delphi/MCprod/wupp/apacic105/v95d/91.25/apacic105_91.25_3244.sdst ! RUN = 3244 ! NEVT = 3000
FILE = /castor/cern.ch/delphi/MCprod/wupp/apacic105/v95d/91.25/apacic105_91.25_3245.sdst ! RUN = 3245 ! NEVT = 3000
FILE = /castor/cern.ch/delphi/MCprod/wupp/apacic105/v95d/91.25/apacic105_91.25_3246.sdst ! RUN = 3246 ! NEVT = 3000
FILE = /castor/cern.ch/delphi/MCprod/wupp/apacic105/v95d/91.25/apacic105_91.25_3247.sdst ! RUN = 3247 ! NEVT = 3000
FILE = /castor/cern.ch/delphi/MCprod/wupp/apacic105/v95d/91.25/apacic105_91.25_3248.sdst ! RUN = 3248 ! NEVT = 3000
FILE = /castor/cern.ch/delphi/MCprod/wupp/apacic105/v95d/91.25/apacic105_91.25_3249.sdst ! RUN = 3249 ! NEVT = 2999
FILE = /castor/cern.ch/delphi/MCprod/wupp/apacic105/v95d/91.25/apacic105_91.25_3250.sdst ! RUN = 3250 ! NEVT = 2999
FILE = /castor/cern.ch/delphi/MCprod/wupp/apacic105/v95d/91.25/apacic105_91.25_3251.sdst ! RUN = 3251 ! NEVT = 3000
FILE = /castor/cern.ch/delphi/MCprod/wupp/apacic105/v95d/91.25/apacic105_91.25_3252.sdst ! RUN = 3252 ! NEVT = 2999
FILE = /castor/cern.ch/delphi/MCprod/wupp/apacic105/v95d/91.25/apacic105_91.25_3253.sdst ! RUN = 3253 ! NEVT = 3000
FILE = /castor/cern.ch/delphi/MCprod/wupp/apacic105/v95d/91.25/apacic105_91.25_3254.sdst ! RUN = 3254 ! NEVT = 3000
FILE = /castor/cern.ch/delphi/MCprod/wupp/apacic105/v95d/91.25/apacic105_91.25_3255.sdst ! RUN = 3255 ! NEVT = 2999
FILE = /castor/cern.ch/delphi/MCprod/wupp/apacic105/v95d/91.25/apacic105_91.25_3256.sdst ! RUN = 3256 ! NEVT = 3000
FILE = /castor/cern.ch/delphi/MCprod/wupp/apacic105/v95d/91.25/apacic105_91.25_3257.sdst ! RUN = 3257 ! NEVT = 3000
FILE = /castor/cern.ch/delphi/MCprod/wupp/apacic105/v95d/91.25/apacic105_91.25_3258.sdst ! RUN = 3258 ! NEVT = 3000
FILE = /castor/cern.ch/delphi/MCprod/wupp/apacic105/v95d/91.25/apacic105_91.25_3259.sdst ! RUN = 3259 ! NEVT = 3000
FILE = /castor/cern.ch/delphi/MCprod/wupp/apacic105/v95d/91.25/apacic105_91.25_3260.sdst ! RUN = 3260 ! NEVT = 3000
FILE = /castor/cern.ch/delphi/MCprod/wupp/apacic105/v95d/91.25/apacic105_91.25_3261.sdst ! RUN = 3261 ! NEVT = 3000
FILE = /castor/cern.ch/delphi/MCprod/wupp/apacic105/v95d/91.25/apacic105_91.25_3262.sdst ! RUN = 3262 ! NEVT = 2999
FILE = /castor/cern.ch/delphi/MCprod/wupp/apacic105/v95d/91.25/apacic105_91.25_3263.sdst ! RUN = 3263 ! NEVT = 2999
FILE = /castor/cern.ch/delphi/MCprod/wupp/apacic105/v95d/91.25/apacic105_91.25_3264.sdst ! RUN = 3264 ! NEVT = 389
FILE = /castor/cern.ch/delphi/MCprod/wupp/apacic105/v95d/91.25/apacic105_91.25_3265.sdst ! RUN = 3265 ! NEVT = 2999
FILE = /castor/cern.ch/delphi/MCprod/wupp/apacic105/v95d/91.25/apacic105_91.25_3266.sdst ! RUN = 3266 ! NEVT = 2554
FILE = /castor/cern.ch/delphi/MCprod/wupp/apacic105/v95d/91.25/apacic105_91.25_3267.sdst ! RUN = 3267 ! NEVT = 3000
FILE = /castor/cern.ch/delphi/MCprod/wupp/apacic105/v95d/91.25/apacic105_91.25_3268.sdst ! RUN = 3268 ! NEVT = 2998
FILE = /castor/cern.ch/delphi/MCprod/wupp/apacic105/v95d/91.25/apacic105_91.25_3269.sdst ! RUN = 3269 ! NEVT = 2999
FILE = /castor/cern.ch/delphi/MCprod/wupp/apacic105/v95d/91.25/apacic105_91.25_3270.sdst ! RUN = 3270 ! NEVT = 3000
FILE = /castor/cern.ch/delphi/MCprod/wupp/apacic105/v95d/91.25/apacic105_91.25_3271.sdst ! RUN = 3271 ! NEVT = 2999
FILE = /castor/cern.ch/delphi/MCprod/wupp/apacic105/v95d/91.25/apacic105_91.25_3272.sdst ! RUN = 3272 ! NEVT = 2999
FILE = /castor/cern.ch/delphi/MCprod/wupp/apacic105/v95d/91.25/apacic105_91.25_3273.sdst ! RUN = 3273 ! NEVT = 3000
FILE = /castor/cern.ch/delphi/MCprod/wupp/apacic105/v95d/91.25/apacic105_91.25_3274.sdst ! RUN = 3274 ! NEVT = 3000
FILE = /castor/cern.ch/delphi/MCprod/wupp/apacic105/v95d/91.25/apacic105_91.25_3275.sdst ! RUN = 3275 ! NEVT = 3000
FILE = /castor/cern.ch/delphi/MCprod/wupp/apacic105/v95d/91.25/apacic105_91.25_3276.sdst ! RUN = 3276 ! NEVT = 3000
FILE = /castor/cern.ch/delphi/MCprod/wupp/apacic105/v95d/91.25/apacic105_91.25_3277.sdst ! RUN = 3277 ! NEVT = 3000
FILE = /castor/cern.ch/delphi/MCprod/wupp/apacic105/v95d/91.25/apacic105_91.25_3278.sdst ! RUN = 3278 ! NEVT = 3000
FILE = /castor/cern.ch/delphi/MCprod/wupp/apacic105/v95d/91.25/apacic105_91.25_3279.sdst ! RUN = 3279 ! NEVT = 2998
FILE = /castor/cern.ch/delphi/MCprod/wupp/apacic105/v95d/91.25/apacic105_91.25_3280.sdst ! RUN = 3280 ! NEVT = 3000
FILE = /castor/cern.ch/delphi/MCprod/wupp/apacic105/v95d/91.25/apacic105_91.25_3281.sdst ! RUN = 3281 ! NEVT = 3000
FILE = /castor/cern.ch/delphi/MCprod/wupp/apacic105/v95d/91.25/apacic105_91.25_3282.sdst ! RUN = 3282 ! NEVT = 3000
FILE = /castor/cern.ch/delphi/MCprod/wupp/apacic105/v95d/91.25/apacic105_91.25_3283.sdst ! RUN = 3283 ! NEVT = 3000
FILE = /castor/cern.ch/delphi/MCprod/wupp/apacic105/v95d/91.25/apacic105_91.25_3284.sdst ! RUN = 3284 ! NEVT = 2999
FILE = /castor/cern.ch/delphi/MCprod/wupp/apacic105/v95d/91.25/apacic105_91.25_3285.sdst ! RUN = 3285 ! NEVT = 2999
FILE = /castor/cern.ch/delphi/MCprod/wupp/apacic105/v95d/91.25/apacic105_91.25_3286.sdst ! RUN = 3286 ! NEVT = 3000
FILE = /castor/cern.ch/delphi/MCprod/wupp/apacic105/v95d/91.25/apacic105_91.25_3287.sdst ! RUN = 3287 ! NEVT = 3000
FILE = /castor/cern.ch/delphi/MCprod/wupp/apacic105/v95d/91.25/apacic105_91.25_3288.sdst ! RUN = 3288 ! NEVT = 3000
FILE = /castor/cern.ch/delphi/MCprod/wupp/apacic105/v95d/91.25/apacic105_91.25_3289.sdst ! RUN = 3289 ! NEVT = 3000
FILE = /castor/cern.ch/delphi/MCprod/wupp/apacic105/v95d/91.25/apacic105_91.25_3290.sdst ! RUN = 3290 ! NEVT = 3000
FILE = /castor/cern.ch/delphi/MCprod/wupp/apacic105/v95d/91.25/apacic105_91.25_3291.sdst ! RUN = 3291 ! NEVT = 3000
FILE = /castor/cern.ch/delphi/MCprod/wupp/apacic105/v95d/91.25/apacic105_91.25_3292.sdst ! RUN = 3292 ! NEVT = 3000
FILE = /castor/cern.ch/delphi/MCprod/wupp/apacic105/v95d/91.25/apacic105_91.25_3293.sdst ! RUN = 3293 ! NEVT = 3000
FILE = /castor/cern.ch/delphi/MCprod/wupp/apacic105/v95d/91.25/apacic105_91.25_3294.sdst ! RUN = 3294 ! NEVT = 2999
FILE = /castor/cern.ch/delphi/MCprod/wupp/apacic105/v95d/91.25/apacic105_91.25_3295.sdst ! RUN = 3295 ! NEVT = 2177
FILE = /castor/cern.ch/delphi/MCprod/wupp/apacic105/v95d/91.25/apacic105_91.25_3296.sdst ! RUN = 3296 ! NEVT = 3000
FILE = /castor/cern.ch/delphi/MCprod/wupp/apacic105/v95d/91.25/apacic105_91.25_3297.sdst ! RUN = 3297 ! NEVT = 3000
FILE = /castor/cern.ch/delphi/MCprod/wupp/apacic105/v95d/91.25/apacic105_91.25_3298.sdst ! RUN = 3298 ! NEVT = 3000
FILE = /castor/cern.ch/delphi/MCprod/wupp/apacic105/v95d/91.25/apacic105_91.25_3299.sdst ! RUN = 3299 ! NEVT = 3000
FILE = /castor/cern.ch/delphi/MCprod/wupp/apacic105/v95d/91.25/apacic105_91.25_3300.sdst ! RUN = 3300 ! NEVT = 3000
FILE = /castor/cern.ch/delphi/MCprod/wupp/apacic105/v95d/91.25/apacic105_91.25_3301.sdst ! RUN = 3301 ! NEVT = 2999
FILE = /castor/cern.ch/delphi/MCprod/wupp/apacic105/v95d/91.25/apacic105_91.25_3302.sdst ! RUN = 3302 ! NEVT = 3000
FILE = /castor/cern.ch/delphi/MCprod/wupp/apacic105/v95d/91.25/apacic105_91.25_3303.sdst ! RUN = 3303 ! NEVT = 3000
FILE = /castor/cern.ch/delphi/MCprod/wupp/apacic105/v95d/91.25/apacic105_91.25_3305.sdst ! RUN = 3305 ! NEVT = 3000
FILE = /castor/cern.ch/delphi/MCprod/wupp/apacic105/v95d/91.25/apacic105_91.25_3306.sdst ! RUN = 3306 ! NEVT = 3000
FILE = /castor/cern.ch/delphi/MCprod/wupp/apacic105/v95d/91.25/apacic105_91.25_3307.sdst ! RUN = 3307 ! NEVT = 3000
FILE = /castor/cern.ch/delphi/MCprod/wupp/apacic105/v95d/91.25/apacic105_91.25_3308.sdst ! RUN = 3308 ! NEVT = 3000
FILE = /castor/cern.ch/delphi/MCprod/wupp/apacic105/v95d/91.25/apacic105_91.25_3309.sdst ! RUN = 3309 ! NEVT = 2999
FILE = /castor/cern.ch/delphi/MCprod/wupp/apacic105/v95d/91.25/apacic105_91.25_3310.sdst ! RUN = 3310 ! NEVT = 2999
FILE = /castor/cern.ch/delphi/MCprod/wupp/apacic105/v95d/91.25/apacic105_91.25_3311.sdst ! RUN = 3311 ! NEVT = 3000
FILE = /castor/cern.ch/delphi/MCprod/wupp/apacic105/v95d/91.25/apacic105_91.25_3312.sdst ! RUN = 3312 ! NEVT = 3000
FILE = /castor/cern.ch/delphi/MCprod/wupp/apacic105/v95d/91.25/apacic105_91.25_3313.sdst ! RUN = 3313 ! NEVT = 3000
FILE = /castor/cern.ch/delphi/MCprod/wupp/apacic105/v95d/91.25/apacic105_91.25_3314.sdst ! RUN = 3314 ! NEVT = 3000
FILE = /castor/cern.ch/delphi/MCprod/wupp/apacic105/v95d/91.25/apacic105_91.25_3315.sdst ! RUN = 3315 ! NEVT = 3000
FILE = /castor/cern.ch/delphi/MCprod/wupp/apacic105/v95d/91.25/apacic105_91.25_3316.sdst ! RUN = 3316 ! NEVT = 3000
FILE = /castor/cern.ch/delphi/MCprod/wupp/apacic105/v95d/91.25/apacic105_91.25_3317.sdst ! RUN = 3317 ! NEVT = 3000
FILE = /castor/cern.ch/delphi/MCprod/wupp/apacic105/v95d/91.25/apacic105_91.25_3318.sdst ! RUN = 3318 ! NEVT = 3000
FILE = /castor/cern.ch/delphi/MCprod/wupp/apacic105/v95d/91.25/apacic105_91.25_3319.sdst ! RUN = 3319 ! NEVT = 3000
FILE = /castor/cern.ch/delphi/MCprod/wupp/apacic105/v95d/91.25/apacic105_91.25_3320.sdst ! RUN = 3320 ! NEVT = 3000
FILE = /castor/cern.ch/delphi/MCprod/wupp/apacic105/v95d/91.25/apacic105_91.25_3321.sdst ! RUN = 3321 ! NEVT = 3000
FILE = /castor/cern.ch/delphi/MCprod/wupp/apacic105/v95d/91.25/apacic105_91.25_3322.sdst ! RUN = 3322 ! NEVT = 3000
FILE = /castor/cern.ch/delphi/MCprod/wupp/apacic105/v95d/91.25/apacic105_91.25_3323.sdst ! RUN = 3323 ! NEVT = 2999
FILE = /castor/cern.ch/delphi/MCprod/wupp/apacic105/v95d/91.25/apacic105_91.25_3324.sdst ! RUN = 3324 ! NEVT = 3000
FILE = /castor/cern.ch/delphi/MCprod/wupp/apacic105/v95d/91.25/apacic105_91.25_3325.sdst ! RUN = 3325 ! NEVT = 3000
FILE = /castor/cern.ch/delphi/MCprod/wupp/apacic105/v95d/91.25/apacic105_91.25_3326.sdst ! RUN = 3326 ! NEVT = 3000
FILE = /castor/cern.ch/delphi/MCprod/wupp/apacic105/v95d/91.25/apacic105_91.25_3327.sdst ! RUN = 3327 ! NEVT = 3000
FILE = /castor/cern.ch/delphi/MCprod/wupp/apacic105/v95d/91.25/apacic105_91.25_3328.sdst ! RUN = 3328 ! NEVT = 3000
FILE = /castor/cern.ch/delphi/MCprod/wupp/apacic105/v95d/91.25/apacic105_91.25_3329.sdst ! RUN = 3329 ! NEVT = 2999
FILE = /castor/cern.ch/delphi/MCprod/wupp/apacic105/v95d/91.25/apacic105_91.25_3330.sdst ! RUN = 3330 ! NEVT = 3000
FILE = /castor/cern.ch/delphi/MCprod/wupp/apacic105/v95d/91.25/apacic105_91.25_3331.sdst ! RUN = 3331 ! NEVT = 2999
FILE = /castor/cern.ch/delphi/MCprod/wupp/apacic105/v95d/91.25/apacic105_91.25_3332.sdst ! RUN = 3332 ! NEVT = 3000
FILE = /castor/cern.ch/delphi/MCprod/wupp/apacic105/v95d/91.25/apacic105_91.25_3333.sdst ! RUN = 3333 ! NEVT = 3000
FILE = /castor/cern.ch/delphi/MCprod/wupp/apacic105/v95d/91.25/apacic105_91.25_3334.sdst ! RUN = 3334 ! NEVT = 3000
FILE = /castor/cern.ch/delphi/MCprod/wupp/apacic105/v95d/91.25/apacic105_91.25_3335.sdst ! RUN = 3335 ! NEVT = 3000
FILE = /castor/cern.ch/delphi/MCprod/wupp/apacic105/v95d/91.25/apacic105_91.25_3336.sdst ! RUN = 3336 ! NEVT = 3000
FILE = /castor/cern.ch/delphi/MCprod/wupp/apacic105/v95d/91.25/apacic105_91.25_3337.sdst ! RUN = 3337 ! NEVT = 3000
FILE = /castor/cern.ch/delphi/MCprod/wupp/apacic105/v95d/91.25/apacic105_91.25_3338.sdst ! RUN = 3338 ! NEVT = 3000
FILE = /castor/cern.ch/delphi/MCprod/wupp/apacic105/v95d/91.25/apacic105_91.25_3339.sdst ! RUN = 3339 ! NEVT = 116
FILE = /castor/cern.ch/delphi/MCprod/wupp/apacic105/v95d/91.25/apacic105_91.25_3340.sdst ! RUN = 3340 ! NEVT = 3000
FILE = /castor/cern.ch/delphi/MCprod/wupp/apacic105/v95d/91.25/apacic105_91.25_3341.sdst ! RUN = 3341 ! NEVT = 3000
FILE = /castor/cern.ch/delphi/MCprod/wupp/apacic105/v95d/91.25/apacic105_91.25_3342.sdst ! RUN = 3342 ! NEVT = 2998
FILE = /castor/cern.ch/delphi/MCprod/wupp/apacic105/v95d/91.25/apacic105_91.25_3343.sdst ! RUN = 3343 ! NEVT = 3000
FILE = /castor/cern.ch/delphi/MCprod/wupp/apacic105/v95d/91.25/apacic105_91.25_3344.sdst ! RUN = 3344 ! NEVT = 3000
FILE = /castor/cern.ch/delphi/MCprod/wupp/apacic105/v95d/91.25/apacic105_91.25_3345.sdst ! RUN = 3345 ! NEVT = 3000
FILE = /castor/cern.ch/delphi/MCprod/wupp/apacic105/v95d/91.25/apacic105_91.25_3346.sdst ! RUN = 3346 ! NEVT = 2999
FILE = /castor/cern.ch/delphi/MCprod/wupp/apacic105/v95d/91.25/apacic105_91.25_3347.sdst ! RUN = 3347 ! NEVT = 2999
FILE = /castor/cern.ch/delphi/MCprod/wupp/apacic105/v95d/91.25/apacic105_91.25_3348.sdst ! RUN = 3348 ! NEVT = 3000
FILE = /castor/cern.ch/delphi/MCprod/wupp/apacic105/v95d/91.25/apacic105_91.25_3349.sdst ! RUN = 3349 ! NEVT = 2999
FILE = /castor/cern.ch/delphi/MCprod/wupp/apacic105/v95d/91.25/apacic105_91.25_3350.sdst ! RUN = 3350 ! NEVT = 3000
FILE = /castor/cern.ch/delphi/MCprod/wupp/apacic105/v95d/91.25/apacic105_91.25_3351.sdst ! RUN = 3351 ! NEVT = 3000
FILE = /castor/cern.ch/delphi/MCprod/wupp/apacic105/v95d/91.25/apacic105_91.25_3352.sdst ! RUN = 3352 ! NEVT = 3000
FILE = /castor/cern.ch/delphi/MCprod/wupp/apacic105/v95d/91.25/apacic105_91.25_3353.sdst ! RUN = 3353 ! NEVT = 2999
FILE = /castor/cern.ch/delphi/MCprod/wupp/apacic105/v95d/91.25/apacic105_91.25_3354.sdst ! RUN = 3354 ! NEVT = 3000
FILE = /castor/cern.ch/delphi/MCprod/wupp/apacic105/v95d/91.25/apacic105_91.25_3355.sdst ! RUN = 3355 ! NEVT = 78
FILE = /castor/cern.ch/delphi/MCprod/wupp/apacic105/v95d/91.25/apacic105_91.25_3356.sdst ! RUN = 3356 ! NEVT = 3000
FILE = /castor/cern.ch/delphi/MCprod/wupp/apacic105/v95d/91.25/apacic105_91.25_3357.sdst ! RUN = 3357 ! NEVT = 3000
FILE = /castor/cern.ch/delphi/MCprod/wupp/apacic105/v95d/91.25/apacic105_91.25_3358.sdst ! RUN = 3358 ! NEVT = 3000
FILE = /castor/cern.ch/delphi/MCprod/wupp/apacic105/v95d/91.25/apacic105_91.25_3359.sdst ! RUN = 3359 ! NEVT = 3000
FILE = /castor/cern.ch/delphi/MCprod/wupp/apacic105/v95d/91.25/apacic105_91.25_3360.sdst ! RUN = 3360 ! NEVT = 3000
FILE = /castor/cern.ch/delphi/MCprod/wupp/apacic105/v95d/91.25/apacic105_91.25_3361.sdst ! RUN = 3361 ! NEVT = 3000
FILE = /castor/cern.ch/delphi/MCprod/wupp/apacic105/v95d/91.25/apacic105_91.25_3362.sdst ! RUN = 3362 ! NEVT = 3000
FILE = /castor/cern.ch/delphi/MCprod/wupp/apacic105/v95d/91.25/apacic105_91.25_3363.sdst ! RUN = 3363 ! NEVT = 3000
FILE = /castor/cern.ch/delphi/MCprod/wupp/apacic105/v95d/91.25/apacic105_91.25_3364.sdst ! RUN = 3364 ! NEVT = 3000
FILE = /castor/cern.ch/delphi/MCprod/wupp/apacic105/v95d/91.25/apacic105_91.25_3365.sdst ! RUN = 3365 ! NEVT = 3000
FILE = /castor/cern.ch/delphi/MCprod/wupp/apacic105/v95d/91.25/apacic105_91.25_3366.sdst ! RUN = 3366 ! NEVT = 3000
FILE = /castor/cern.ch/delphi/MCprod/wupp/apacic105/v95d/91.25/apacic105_91.25_3367.sdst ! RUN = 3367 ! NEVT = 3000
FILE = /castor/cern.ch/delphi/MCprod/wupp/apacic105/v95d/91.25/apacic105_91.25_3368.sdst ! RUN = 3368 ! NEVT = 3000
FILE = /castor/cern.ch/delphi/MCprod/wupp/apacic105/v95d/91.25/apacic105_91.25_3369.sdst ! RUN = 3369 ! NEVT = 3000
FILE = /castor/cern.ch/delphi/MCprod/wupp/apacic105/v95d/91.25/apacic105_91.25_3370.sdst ! RUN = 3370 ! NEVT = 3000
FILE = /castor/cern.ch/delphi/MCprod/wupp/apacic105/v95d/91.25/apacic105_91.25_3371.sdst ! RUN = 3371 ! NEVT = 3000
FILE = /castor/cern.ch/delphi/MCprod/wupp/apacic105/v95d/91.25/apacic105_91.25_3372.sdst ! RUN = 3372 ! NEVT = 3000
FILE = /castor/cern.ch/delphi/MCprod/wupp/apacic105/v95d/91.25/apacic105_91.25_3373.sdst ! RUN = 3373 ! NEVT = 3000
FILE = /castor/cern.ch/delphi/MCprod/wupp/apacic105/v95d/91.25/apacic105_91.25_3374.sdst ! RUN = 3374 ! NEVT = 3000
FILE = /castor/cern.ch/delphi/MCprod/wupp/apacic105/v95d/91.25/apacic105_91.25_3375.sdst ! RUN = 3375 ! NEVT = 2999
FILE = /castor/cern.ch/delphi/MCprod/wupp/apacic105/v95d/91.25/apacic105_91.25_3376.sdst ! RUN = 3376 ! NEVT = 2998
FILE = /castor/cern.ch/delphi/MCprod/wupp/apacic105/v95d/91.25/apacic105_91.25_3377.sdst ! RUN = 3377 ! NEVT = 3000
FILE = /castor/cern.ch/delphi/MCprod/wupp/apacic105/v95d/91.25/apacic105_91.25_3378.sdst ! RUN = 3378 ! NEVT = 2999
FILE = /castor/cern.ch/delphi/MCprod/wupp/apacic105/v95d/91.25/apacic105_91.25_3379.sdst ! RUN = 3379 ! NEVT = 2999
FILE = /castor/cern.ch/delphi/MCprod/wupp/apacic105/v95d/91.25/apacic105_91.25_3380.sdst ! RUN = 3380 ! NEVT = 3000
FILE = /castor/cern.ch/delphi/MCprod/wupp/apacic105/v95d/91.25/apacic105_91.25_3381.sdst ! RUN = 3381 ! NEVT = 2999
FILE = /castor/cern.ch/delphi/MCprod/wupp/apacic105/v95d/91.25/apacic105_91.25_3382.sdst ! RUN = 3382 ! NEVT = 3000
FILE = /castor/cern.ch/delphi/MCprod/wupp/apacic105/v95d/91.25/apacic105_91.25_3383.sdst ! RUN = 3383 ! NEVT = 3000
FILE = /castor/cern.ch/delphi/MCprod/wupp/apacic105/v95d/91.25/apacic105_91.25_3384.sdst ! RUN = 3384 ! NEVT = 3000
FILE = /castor/cern.ch/delphi/MCprod/wupp/apacic105/v95d/91.25/apacic105_91.25_3385.sdst ! RUN = 3385 ! NEVT = 3000
FILE = /castor/cern.ch/delphi/MCprod/wupp/apacic105/v95d/91.25/apacic105_91.25_3386.sdst ! RUN = 3386 ! NEVT = 3000
FILE = /castor/cern.ch/delphi/MCprod/wupp/apacic105/v95d/91.25/apacic105_91.25_3387.sdst ! RUN = 3387 ! NEVT = 3000
FILE = /castor/cern.ch/delphi/MCprod/wupp/apacic105/v95d/91.25/apacic105_91.25_3388.sdst ! RUN = 3388 ! NEVT = 2999
FILE = /castor/cern.ch/delphi/MCprod/wupp/apacic105/v95d/91.25/apacic105_91.25_3389.sdst ! RUN = 3389 ! NEVT = 3000
FILE = /castor/cern.ch/delphi/MCprod/wupp/apacic105/v95d/91.25/apacic105_91.25_3390.sdst ! RUN = 3390 ! NEVT = 3000
FILE = /castor/cern.ch/delphi/MCprod/wupp/apacic105/v95d/91.25/apacic105_91.25_3391.sdst ! RUN = 3391 ! NEVT = 3000
FILE = /castor/cern.ch/delphi/MCprod/wupp/apacic105/v95d/91.25/apacic105_91.25_3392.sdst ! RUN = 3392 ! NEVT = 3000
FILE = /castor/cern.ch/delphi/MCprod/wupp/apacic105/v95d/91.25/apacic105_91.25_3393.sdst ! RUN = 3393 ! NEVT = 3000
FILE = /castor/cern.ch/delphi/MCprod/wupp/apacic105/v95d/91.25/apacic105_91.25_3394.sdst ! RUN = 3394 ! NEVT = 3000
FILE = /castor/cern.ch/delphi/MCprod/wupp/apacic105/v95d/91.25/apacic105_91.25_3395.sdst ! RUN = 3395 ! NEVT = 3000
FILE = /castor/cern.ch/delphi/MCprod/wupp/apacic105/v95d/91.25/apacic105_91.25_3396.sdst ! RUN = 3396 ! NEVT = 3000
FILE = /castor/cern.ch/delphi/MCprod/wupp/apacic105/v95d/91.25/apacic105_91.25_3397.sdst ! RUN = 3397 ! NEVT = 2999
FILE = /castor/cern.ch/delphi/MCprod/wupp/apacic105/v95d/91.25/apacic105_91.25_3398.sdst ! RUN = 3398 ! NEVT = 2999
FILE = /castor/cern.ch/delphi/MCprod/wupp/apacic105/v95d/91.25/apacic105_91.25_3399.sdst ! RUN = 3399 ! NEVT = 3000
FILE = /castor/cern.ch/delphi/MCprod/wupp/apacic105/v95d/91.25/apacic105_91.25_3400.sdst ! RUN = 3400 ! NEVT = 2999
FILE = /castor/cern.ch/delphi/MCprod/wupp/apacic105/v95d/91.25/apacic105_91.25_3401.sdst ! RUN = 3401 ! NEVT = 3000
FILE = /castor/cern.ch/delphi/MCprod/wupp/apacic105/v95d/91.25/apacic105_91.25_3402.sdst ! RUN = 3402 ! NEVT = 3000
FILE = /castor/cern.ch/delphi/MCprod/wupp/apacic105/v95d/91.25/apacic105_91.25_3403.sdst ! RUN = 3403 ! NEVT = 2965
FILE = /castor/cern.ch/delphi/MCprod/wupp/apacic105/v95d/91.25/apacic105_91.25_3404.sdst ! RUN = 3404 ! NEVT = 2999
FILE = /castor/cern.ch/delphi/MCprod/wupp/apacic105/v95d/91.25/apacic105_91.25_3405.sdst ! RUN = 3405 ! NEVT = 3000
FILE = /castor/cern.ch/delphi/MCprod/wupp/apacic105/v95d/91.25/apacic105_91.25_3406.sdst ! RUN = 3406 ! NEVT = 3000
FILE = /castor/cern.ch/delphi/MCprod/wupp/apacic105/v95d/91.25/apacic105_91.25_3407.sdst ! RUN = 3407 ! NEVT = 2998
FILE = /castor/cern.ch/delphi/MCprod/wupp/apacic105/v95d/91.25/apacic105_91.25_3408.sdst ! RUN = 3408 ! NEVT = 3000
FILE = /castor/cern.ch/delphi/MCprod/wupp/apacic105/v95d/91.25/apacic105_91.25_3409.sdst ! RUN = 3409 ! NEVT = 3000
FILE = /castor/cern.ch/delphi/MCprod/wupp/apacic105/v95d/91.25/apacic105_91.25_3410.sdst ! RUN = 3410 ! NEVT = 3000
FILE = /castor/cern.ch/delphi/MCprod/wupp/apacic105/v95d/91.25/apacic105_91.25_3411.sdst ! RUN = 3411 ! NEVT = 2999
FILE = /castor/cern.ch/delphi/MCprod/wupp/apacic105/v95d/91.25/apacic105_91.25_3412.sdst ! RUN = 3412 ! NEVT = 2999
FILE = /castor/cern.ch/delphi/MCprod/wupp/apacic105/v95d/91.25/apacic105_91.25_3413.sdst ! RUN = 3413 ! NEVT = 2999
FILE = /castor/cern.ch/delphi/MCprod/wupp/apacic105/v95d/91.25/apacic105_91.25_3414.sdst ! RUN = 3414 ! NEVT = 3000
FILE = /castor/cern.ch/delphi/MCprod/wupp/apacic105/v95d/91.25/apacic105_91.25_3415.sdst ! RUN = 3415 ! NEVT = 3000
FILE = /castor/cern.ch/delphi/MCprod/wupp/apacic105/v95d/91.25/apacic105_91.25_3416.sdst ! RUN = 3416 ! NEVT = 3000
FILE = /castor/cern.ch/delphi/MCprod/wupp/apacic105/v95d/91.25/apacic105_91.25_3417.sdst ! RUN = 3417 ! NEVT = 1995
FILE = /castor/cern.ch/delphi/MCprod/wupp/apacic105/v95d/91.25/apacic105_91.25_3418.sdst ! RUN = 3418 ! NEVT = 3000
FILE = /castor/cern.ch/delphi/MCprod/wupp/apacic105/v95d/91.25/apacic105_91.25_3419.sdst ! RUN = 3419 ! NEVT = 3000
FILE = /castor/cern.ch/delphi/MCprod/wupp/apacic105/v95d/91.25/apacic105_91.25_3420.sdst ! RUN = 3420 ! NEVT = 3000
FILE = /castor/cern.ch/delphi/MCprod/wupp/apacic105/v95d/91.25/apacic105_91.25_3421.sdst ! RUN = 3421 ! NEVT = 2998
FILE = /castor/cern.ch/delphi/MCprod/wupp/apacic105/v95d/91.25/apacic105_91.25_3422.sdst ! RUN = 3422 ! NEVT = 3000
FILE = /castor/cern.ch/delphi/MCprod/wupp/apacic105/v95d/91.25/apacic105_91.25_3423.sdst ! RUN = 3423 ! NEVT = 3000
FILE = /castor/cern.ch/delphi/MCprod/wupp/apacic105/v95d/91.25/apacic105_91.25_3424.sdst ! RUN = 3424 ! NEVT = 3000
FILE = /castor/cern.ch/delphi/MCprod/wupp/apacic105/v95d/91.25/apacic105_91.25_3425.sdst ! RUN = 3425 ! NEVT = 2999
FILE = /castor/cern.ch/delphi/MCprod/wupp/apacic105/v95d/91.25/apacic105_91.25_3426.sdst ! RUN = 3426 ! NEVT = 2998
FILE = /castor/cern.ch/delphi/MCprod/wupp/apacic105/v95d/91.25/apacic105_91.25_3427.sdst ! RUN = 3427 ! NEVT = 3000
FILE = /castor/cern.ch/delphi/MCprod/wupp/apacic105/v95d/91.25/apacic105_91.25_3428.sdst ! RUN = 3428 ! NEVT = 3000
FILE = /castor/cern.ch/delphi/MCprod/wupp/apacic105/v95d/91.25/apacic105_91.25_3429.sdst ! RUN = 3429 ! NEVT = 3000
FILE = /castor/cern.ch/delphi/MCprod/wupp/apacic105/v95d/91.25/apacic105_91.25_3430.sdst ! RUN = 3430 ! NEVT = 3000
FILE = /castor/cern.ch/delphi/MCprod/wupp/apacic105/v95d/91.25/apacic105_91.25_3431.sdst ! RUN = 3431 ! NEVT = 3000
FILE = /castor/cern.ch/delphi/MCprod/wupp/apacic105/v95d/91.25/apacic105_91.25_3432.sdst ! RUN = 3432 ! NEVT = 3000
FILE = /castor/cern.ch/delphi/MCprod/wupp/apacic105/v95d/91.25/apacic105_91.25_3433.sdst ! RUN = 3433 ! NEVT = 2999
FILE = /castor/cern.ch/delphi/MCprod/wupp/apacic105/v95d/91.25/apacic105_91.25_3434.sdst ! RUN = 3434 ! NEVT = 3000
FILE = /castor/cern.ch/delphi/MCprod/wupp/apacic105/v95d/91.25/apacic105_91.25_3435.sdst ! RUN = 3435 ! NEVT = 2999
FILE = /castor/cern.ch/delphi/MCprod/wupp/apacic105/v95d/91.25/apacic105_91.25_3436.sdst ! RUN = 3436 ! NEVT = 3000
FILE = /castor/cern.ch/delphi/MCprod/wupp/apacic105/v95d/91.25/apacic105_91.25_3437.sdst ! RUN = 3437 ! NEVT = 3000
FILE = /castor/cern.ch/delphi/MCprod/wupp/apacic105/v95d/91.25/apacic105_91.25_3438.sdst ! RUN = 3438 ! NEVT = 3000
FILE = /castor/cern.ch/delphi/MCprod/wupp/apacic105/v95d/91.25/apacic105_91.25_3439.sdst ! RUN = 3439 ! NEVT = 240
FILE = /castor/cern.ch/delphi/MCprod/wupp/apacic105/v95d/91.25/apacic105_91.25_3440.sdst ! RUN = 3440 ! NEVT = 2999
FILE = /castor/cern.ch/delphi/MCprod/wupp/apacic105/v95d/91.25/apacic105_91.25_3441.sdst ! RUN = 3441 ! NEVT = 2998
FILE = /castor/cern.ch/delphi/MCprod/wupp/apacic105/v95d/91.25/apacic105_91.25_3442.sdst ! RUN = 3442 ! NEVT = 2999
FILE = /castor/cern.ch/delphi/MCprod/wupp/apacic105/v95d/91.25/apacic105_91.25_3443.sdst ! RUN = 3443 ! NEVT = 2999
FILE = /castor/cern.ch/delphi/MCprod/wupp/apacic105/v95d/91.25/apacic105_91.25_3444.sdst ! RUN = 3444 ! NEVT = 3000
FILE = /castor/cern.ch/delphi/MCprod/wupp/apacic105/v95d/91.25/apacic105_91.25_3445.sdst ! RUN = 3445 ! NEVT = 3000
FILE = /castor/cern.ch/delphi/MCprod/wupp/apacic105/v95d/91.25/apacic105_91.25_3446.sdst ! RUN = 3446 ! NEVT = 3000
FILE = /castor/cern.ch/delphi/MCprod/wupp/apacic105/v95d/91.25/apacic105_91.25_3447.sdst ! RUN = 3447 ! NEVT = 3000
FILE = /castor/cern.ch/delphi/MCprod/wupp/apacic105/v95d/91.25/apacic105_91.25_3448.sdst ! RUN = 3448 ! NEVT = 3000
FILE = /castor/cern.ch/delphi/MCprod/wupp/apacic105/v95d/91.25/apacic105_91.25_3449.sdst ! RUN = 3449 ! NEVT = 3000
FILE = /castor/cern.ch/delphi/MCprod/wupp/apacic105/v95d/91.25/apacic105_91.25_3450.sdst ! RUN = 3450 ! NEVT = 3000
