# index of html fragments. Provides additional information for sorting files. DO NOT REMOVE.
#File Name                                       year processing   category      files          events     energy       mass      mass2       labo
dsto_bhwide101_e91.25_c99_1l_e                  1999       v99e      2FERM         50          149961      91.25          -          -       CERN
dsto_kk2f4143mumu_e91.25_c99_1l_e               1999       v99e      2FERM         20          199997      91.25          -          -       CERN
raw_bhwide101_e91.25_c99_1l_e                   1999       v99e      2FERM         50          150000      91.25          -          -       CERN
raw_kk2f4143mumu_e91.25_c99_1l_e                1999       v99e      2FERM         20          200000      91.25          -          -       CERN
xs_bhwide101_e91.25_c99_1l_e1                   1999      v99e1      2FERM         50          149961      91.25          -          -       CERN
xs_kk2f4143mumu_e91.25_c99_1l_e1                1999      v99e1      2FERM         20          199997      91.25          -          -       CERN
