# index of html fragments. Provides additional information for sorting files. DO NOT REMOVE.
#File Name                                       year processing   category      files          events     energy       mass      mass2       labo
sh_kora_e091_r94_2l_c2                          1994      v94c2      2FERM          4            7999        091          -          -       ruth
