*
*   Nickname     : sh_hzha03pythia6156tttt_e91.2_m6_m60_c94_2l_c2
*   Generic Name : //CERN/DELPHI/P01_SIMD/SHORT/HZHA03PYTHIA6156TTTT/E91.2/CERN/SUMT/C001-10
*   Description  :  Short DST simulation 94c2 done at ecms=91.2 , CERN
*---
*   Comments     : in total 5000 events in 10 files time stamp: Tue Aug  6 06:34:04 2002
*---
*
*
*
*
*
FILE = /castor/cern.ch/delphi/MCprod/cern/hzha03pythia6156/v94c/91.2/hzha03pythia6156_tttt_91.2_6_60_41180.sdst ! RUN = 41180 ! NEVT = 500
FILE = /castor/cern.ch/delphi/MCprod/cern/hzha03pythia6156/v94c/91.2/hzha03pythia6156_tttt_91.2_6_60_41181.sdst ! RUN = 41181 ! NEVT = 500
FILE = /castor/cern.ch/delphi/MCprod/cern/hzha03pythia6156/v94c/91.2/hzha03pythia6156_tttt_91.2_6_60_41182.sdst ! RUN = 41182 ! NEVT = 500
FILE = /castor/cern.ch/delphi/MCprod/cern/hzha03pythia6156/v94c/91.2/hzha03pythia6156_tttt_91.2_6_60_41183.sdst ! RUN = 41183 ! NEVT = 500
FILE = /castor/cern.ch/delphi/MCprod/cern/hzha03pythia6156/v94c/91.2/hzha03pythia6156_tttt_91.2_6_60_41184.sdst ! RUN = 41184 ! NEVT = 500
FILE = /castor/cern.ch/delphi/MCprod/cern/hzha03pythia6156/v94c/91.2/hzha03pythia6156_tttt_91.2_6_60_41185.sdst ! RUN = 41185 ! NEVT = 500
FILE = /castor/cern.ch/delphi/MCprod/cern/hzha03pythia6156/v94c/91.2/hzha03pythia6156_tttt_91.2_6_60_41186.sdst ! RUN = 41186 ! NEVT = 500
FILE = /castor/cern.ch/delphi/MCprod/cern/hzha03pythia6156/v94c/91.2/hzha03pythia6156_tttt_91.2_6_60_41187.sdst ! RUN = 41187 ! NEVT = 500
FILE = /castor/cern.ch/delphi/MCprod/cern/hzha03pythia6156/v94c/91.2/hzha03pythia6156_tttt_91.2_6_60_41188.sdst ! RUN = 41188 ! NEVT = 500
FILE = /castor/cern.ch/delphi/MCprod/cern/hzha03pythia6156/v94c/91.2/hzha03pythia6156_tttt_91.2_6_60_41189.sdst ! RUN = 41189 ! NEVT = 500
