*
*   Nickname     : sh_hzha03pythia6156tttt_e91.2_m12_m40_c94_2l_c2
*   Generic Name : //CERN/DELPHI/P01_SIMD/SHORT/HZHA03PYTHIA6156TTTT/E91.2/CERN/SUMT/C001-10
*   Description  :  Short DST simulation 94c2 done at ecms=91.2 , CERN
*---
*   Comments     : in total 4998 events in 10 files time stamp: Fri Aug  2 01:11:52 2002
*---
*
*
*
*
*
FILE = /castor/cern.ch/delphi/MCprod/cern/hzha03pythia6156/v94c/91.2/hzha03pythia6156_tttt_91.2_12_40_41360.sdst ! RUN = 41360 ! NEVT = 500
FILE = /castor/cern.ch/delphi/MCprod/cern/hzha03pythia6156/v94c/91.2/hzha03pythia6156_tttt_91.2_12_40_41361.sdst ! RUN = 41361 ! NEVT = 500
FILE = /castor/cern.ch/delphi/MCprod/cern/hzha03pythia6156/v94c/91.2/hzha03pythia6156_tttt_91.2_12_40_41362.sdst ! RUN = 41362 ! NEVT = 500
FILE = /castor/cern.ch/delphi/MCprod/cern/hzha03pythia6156/v94c/91.2/hzha03pythia6156_tttt_91.2_12_40_41363.sdst ! RUN = 41363 ! NEVT = 499
FILE = /castor/cern.ch/delphi/MCprod/cern/hzha03pythia6156/v94c/91.2/hzha03pythia6156_tttt_91.2_12_40_41364.sdst ! RUN = 41364 ! NEVT = 500
FILE = /castor/cern.ch/delphi/MCprod/cern/hzha03pythia6156/v94c/91.2/hzha03pythia6156_tttt_91.2_12_40_41365.sdst ! RUN = 41365 ! NEVT = 500
FILE = /castor/cern.ch/delphi/MCprod/cern/hzha03pythia6156/v94c/91.2/hzha03pythia6156_tttt_91.2_12_40_41366.sdst ! RUN = 41366 ! NEVT = 499
FILE = /castor/cern.ch/delphi/MCprod/cern/hzha03pythia6156/v94c/91.2/hzha03pythia6156_tttt_91.2_12_40_41367.sdst ! RUN = 41367 ! NEVT = 500
FILE = /castor/cern.ch/delphi/MCprod/cern/hzha03pythia6156/v94c/91.2/hzha03pythia6156_tttt_91.2_12_40_41368.sdst ! RUN = 41368 ! NEVT = 500
FILE = /castor/cern.ch/delphi/MCprod/cern/hzha03pythia6156/v94c/91.2/hzha03pythia6156_tttt_91.2_12_40_41369.sdst ! RUN = 41369 ! NEVT = 500
