*
*   Nickname     : sh_hzha03pythia6156tttt_e91.2_m6_m40_c94_2l_c2
*   Generic Name : //CERN/DELPHI/P01_SIMD/SHORT/HZHA03PYTHIA6156TTTT/E91.2/CERN/SUMT/C001-10
*   Description  :  Short DST simulation 94c2 done at ecms=91.2 , CERN
*---
*   Comments     : in total 4999 events in 10 files time stamp: Tue Aug  6 06:34:05 2002
*---
*
*
*
*
*
FILE = /castor/cern.ch/delphi/MCprod/cern/hzha03pythia6156/v94c/91.2/hzha03pythia6156_tttt_91.2_6_40_41160.sdst ! RUN = 41160 ! NEVT = 500
FILE = /castor/cern.ch/delphi/MCprod/cern/hzha03pythia6156/v94c/91.2/hzha03pythia6156_tttt_91.2_6_40_41161.sdst ! RUN = 41161 ! NEVT = 500
FILE = /castor/cern.ch/delphi/MCprod/cern/hzha03pythia6156/v94c/91.2/hzha03pythia6156_tttt_91.2_6_40_41162.sdst ! RUN = 41162 ! NEVT = 500
FILE = /castor/cern.ch/delphi/MCprod/cern/hzha03pythia6156/v94c/91.2/hzha03pythia6156_tttt_91.2_6_40_41163.sdst ! RUN = 41163 ! NEVT = 499
FILE = /castor/cern.ch/delphi/MCprod/cern/hzha03pythia6156/v94c/91.2/hzha03pythia6156_tttt_91.2_6_40_41164.sdst ! RUN = 41164 ! NEVT = 500
FILE = /castor/cern.ch/delphi/MCprod/cern/hzha03pythia6156/v94c/91.2/hzha03pythia6156_tttt_91.2_6_40_41165.sdst ! RUN = 41165 ! NEVT = 500
FILE = /castor/cern.ch/delphi/MCprod/cern/hzha03pythia6156/v94c/91.2/hzha03pythia6156_tttt_91.2_6_40_41166.sdst ! RUN = 41166 ! NEVT = 500
FILE = /castor/cern.ch/delphi/MCprod/cern/hzha03pythia6156/v94c/91.2/hzha03pythia6156_tttt_91.2_6_40_41167.sdst ! RUN = 41167 ! NEVT = 500
FILE = /castor/cern.ch/delphi/MCprod/cern/hzha03pythia6156/v94c/91.2/hzha03pythia6156_tttt_91.2_6_40_41168.sdst ! RUN = 41168 ! NEVT = 500
FILE = /castor/cern.ch/delphi/MCprod/cern/hzha03pythia6156/v94c/91.2/hzha03pythia6156_tttt_91.2_6_40_41169.sdst ! RUN = 41169 ! NEVT = 500
