*
*   Nickname     : sh_kk2f4145qqpybe32_e91.25_l94_2l_c2
*   Generic Name : //CERN/DELPHI/P01_SIMD/SHORT/KK2F4145QQPYBE32/E91.25/LYON/SUMT/C001-187
*   Description  :  Short DST simulation 94c2 done at ecms=91.25 , Lyon
*---
*   Comments     : in total 554026 events in 187 files time stamp: Thu Apr 18 18:10:33 2002
*---
*
*
*
*
*
FILE = /castor/cern.ch/delphi/MCprod/lyon/kk2f4145/v94c/91.25/kk2f4145_qqpybe32_91.25_10002.sdst ! RUN = 10002 ! NEVT = 2999
FILE = /castor/cern.ch/delphi/MCprod/lyon/kk2f4145/v94c/91.25/kk2f4145_qqpybe32_91.25_10003.sdst ! RUN = 10003 ! NEVT = 3000
FILE = /castor/cern.ch/delphi/MCprod/lyon/kk2f4145/v94c/91.25/kk2f4145_qqpybe32_91.25_10005.sdst ! RUN = 10005 ! NEVT = 3000
FILE = /castor/cern.ch/delphi/MCprod/lyon/kk2f4145/v94c/91.25/kk2f4145_qqpybe32_91.25_10006.sdst ! RUN = 10006 ! NEVT = 3000
FILE = /castor/cern.ch/delphi/MCprod/lyon/kk2f4145/v94c/91.25/kk2f4145_qqpybe32_91.25_10007.sdst ! RUN = 10007 ! NEVT = 3000
FILE = /castor/cern.ch/delphi/MCprod/lyon/kk2f4145/v94c/91.25/kk2f4145_qqpybe32_91.25_10008.sdst ! RUN = 10008 ! NEVT = 3000
FILE = /castor/cern.ch/delphi/MCprod/lyon/kk2f4145/v94c/91.25/kk2f4145_qqpybe32_91.25_10009.sdst ! RUN = 10009 ! NEVT = 3000
FILE = /castor/cern.ch/delphi/MCprod/lyon/kk2f4145/v94c/91.25/kk2f4145_qqpybe32_91.25_10010.sdst ! RUN = 10010 ! NEVT = 2999
FILE = /castor/cern.ch/delphi/MCprod/lyon/kk2f4145/v94c/91.25/kk2f4145_qqpybe32_91.25_10011.sdst ! RUN = 10011 ! NEVT = 3000
FILE = /castor/cern.ch/delphi/MCprod/lyon/kk2f4145/v94c/91.25/kk2f4145_qqpybe32_91.25_10012.sdst ! RUN = 10012 ! NEVT = 2999
FILE = /castor/cern.ch/delphi/MCprod/lyon/kk2f4145/v94c/91.25/kk2f4145_qqpybe32_91.25_10013.sdst ! RUN = 10013 ! NEVT = 3000
FILE = /castor/cern.ch/delphi/MCprod/lyon/kk2f4145/v94c/91.25/kk2f4145_qqpybe32_91.25_10014.sdst ! RUN = 10014 ! NEVT = 3000
FILE = /castor/cern.ch/delphi/MCprod/lyon/kk2f4145/v94c/91.25/kk2f4145_qqpybe32_91.25_10015.sdst ! RUN = 10015 ! NEVT = 2999
FILE = /castor/cern.ch/delphi/MCprod/lyon/kk2f4145/v94c/91.25/kk2f4145_qqpybe32_91.25_10016.sdst ! RUN = 10016 ! NEVT = 3000
FILE = /castor/cern.ch/delphi/MCprod/lyon/kk2f4145/v94c/91.25/kk2f4145_qqpybe32_91.25_10017.sdst ! RUN = 10017 ! NEVT = 3000
FILE = /castor/cern.ch/delphi/MCprod/lyon/kk2f4145/v94c/91.25/kk2f4145_qqpybe32_91.25_10018.sdst ! RUN = 10018 ! NEVT = 2999
FILE = /castor/cern.ch/delphi/MCprod/lyon/kk2f4145/v94c/91.25/kk2f4145_qqpybe32_91.25_10019.sdst ! RUN = 10019 ! NEVT = 3000
FILE = /castor/cern.ch/delphi/MCprod/lyon/kk2f4145/v94c/91.25/kk2f4145_qqpybe32_91.25_10021.sdst ! RUN = 10021 ! NEVT = 2999
FILE = /castor/cern.ch/delphi/MCprod/lyon/kk2f4145/v94c/91.25/kk2f4145_qqpybe32_91.25_10022.sdst ! RUN = 10022 ! NEVT = 2999
FILE = /castor/cern.ch/delphi/MCprod/lyon/kk2f4145/v94c/91.25/kk2f4145_qqpybe32_91.25_10023.sdst ! RUN = 10023 ! NEVT = 3000
FILE = /castor/cern.ch/delphi/MCprod/lyon/kk2f4145/v94c/91.25/kk2f4145_qqpybe32_91.25_10024.sdst ! RUN = 10024 ! NEVT = 3000
FILE = /castor/cern.ch/delphi/MCprod/lyon/kk2f4145/v94c/91.25/kk2f4145_qqpybe32_91.25_10025.sdst ! RUN = 10025 ! NEVT = 3000
FILE = /castor/cern.ch/delphi/MCprod/lyon/kk2f4145/v94c/91.25/kk2f4145_qqpybe32_91.25_10026.sdst ! RUN = 10026 ! NEVT = 2999
FILE = /castor/cern.ch/delphi/MCprod/lyon/kk2f4145/v94c/91.25/kk2f4145_qqpybe32_91.25_10028.sdst ! RUN = 10028 ! NEVT = 2999
FILE = /castor/cern.ch/delphi/MCprod/lyon/kk2f4145/v94c/91.25/kk2f4145_qqpybe32_91.25_10029.sdst ! RUN = 10029 ! NEVT = 3000
FILE = /castor/cern.ch/delphi/MCprod/lyon/kk2f4145/v94c/91.25/kk2f4145_qqpybe32_91.25_10030.sdst ! RUN = 10030 ! NEVT = 3000
FILE = /castor/cern.ch/delphi/MCprod/lyon/kk2f4145/v94c/91.25/kk2f4145_qqpybe32_91.25_10031.sdst ! RUN = 10031 ! NEVT = 3000
FILE = /castor/cern.ch/delphi/MCprod/lyon/kk2f4145/v94c/91.25/kk2f4145_qqpybe32_91.25_10032.sdst ! RUN = 10032 ! NEVT = 3000
FILE = /castor/cern.ch/delphi/MCprod/lyon/kk2f4145/v94c/91.25/kk2f4145_qqpybe32_91.25_10033.sdst ! RUN = 10033 ! NEVT = 3000
FILE = /castor/cern.ch/delphi/MCprod/lyon/kk2f4145/v94c/91.25/kk2f4145_qqpybe32_91.25_10034.sdst ! RUN = 10034 ! NEVT = 3000
FILE = /castor/cern.ch/delphi/MCprod/lyon/kk2f4145/v94c/91.25/kk2f4145_qqpybe32_91.25_10035.sdst ! RUN = 10035 ! NEVT = 3000
FILE = /castor/cern.ch/delphi/MCprod/lyon/kk2f4145/v94c/91.25/kk2f4145_qqpybe32_91.25_10036.sdst ! RUN = 10036 ! NEVT = 3000
FILE = /castor/cern.ch/delphi/MCprod/lyon/kk2f4145/v94c/91.25/kk2f4145_qqpybe32_91.25_10037.sdst ! RUN = 10037 ! NEVT = 2999
FILE = /castor/cern.ch/delphi/MCprod/lyon/kk2f4145/v94c/91.25/kk2f4145_qqpybe32_91.25_10038.sdst ! RUN = 10038 ! NEVT = 2999
FILE = /castor/cern.ch/delphi/MCprod/lyon/kk2f4145/v94c/91.25/kk2f4145_qqpybe32_91.25_10039.sdst ! RUN = 10039 ! NEVT = 3000
FILE = /castor/cern.ch/delphi/MCprod/lyon/kk2f4145/v94c/91.25/kk2f4145_qqpybe32_91.25_10040.sdst ! RUN = 10040 ! NEVT = 3000
FILE = /castor/cern.ch/delphi/MCprod/lyon/kk2f4145/v94c/91.25/kk2f4145_qqpybe32_91.25_10041.sdst ! RUN = 10041 ! NEVT = 3000
FILE = /castor/cern.ch/delphi/MCprod/lyon/kk2f4145/v94c/91.25/kk2f4145_qqpybe32_91.25_10042.sdst ! RUN = 10042 ! NEVT = 3000
FILE = /castor/cern.ch/delphi/MCprod/lyon/kk2f4145/v94c/91.25/kk2f4145_qqpybe32_91.25_10043.sdst ! RUN = 10043 ! NEVT = 3000
FILE = /castor/cern.ch/delphi/MCprod/lyon/kk2f4145/v94c/91.25/kk2f4145_qqpybe32_91.25_10044.sdst ! RUN = 10044 ! NEVT = 3000
FILE = /castor/cern.ch/delphi/MCprod/lyon/kk2f4145/v94c/91.25/kk2f4145_qqpybe32_91.25_10045.sdst ! RUN = 10045 ! NEVT = 3000
FILE = /castor/cern.ch/delphi/MCprod/lyon/kk2f4145/v94c/91.25/kk2f4145_qqpybe32_91.25_10046.sdst ! RUN = 10046 ! NEVT = 3000
FILE = /castor/cern.ch/delphi/MCprod/lyon/kk2f4145/v94c/91.25/kk2f4145_qqpybe32_91.25_10047.sdst ! RUN = 10047 ! NEVT = 2999
FILE = /castor/cern.ch/delphi/MCprod/lyon/kk2f4145/v94c/91.25/kk2f4145_qqpybe32_91.25_10050.sdst ! RUN = 10050 ! NEVT = 3000
FILE = /castor/cern.ch/delphi/MCprod/lyon/kk2f4145/v94c/91.25/kk2f4145_qqpybe32_91.25_10051.sdst ! RUN = 10051 ! NEVT = 3000
FILE = /castor/cern.ch/delphi/MCprod/lyon/kk2f4145/v94c/91.25/kk2f4145_qqpybe32_91.25_10052.sdst ! RUN = 10052 ! NEVT = 2999
FILE = /castor/cern.ch/delphi/MCprod/lyon/kk2f4145/v94c/91.25/kk2f4145_qqpybe32_91.25_10053.sdst ! RUN = 10053 ! NEVT = 3000
FILE = /castor/cern.ch/delphi/MCprod/lyon/kk2f4145/v94c/91.25/kk2f4145_qqpybe32_91.25_10054.sdst ! RUN = 10054 ! NEVT = 2999
FILE = /castor/cern.ch/delphi/MCprod/lyon/kk2f4145/v94c/91.25/kk2f4145_qqpybe32_91.25_10055.sdst ! RUN = 10055 ! NEVT = 3000
FILE = /castor/cern.ch/delphi/MCprod/lyon/kk2f4145/v94c/91.25/kk2f4145_qqpybe32_91.25_10056.sdst ! RUN = 10056 ! NEVT = 3000
FILE = /castor/cern.ch/delphi/MCprod/lyon/kk2f4145/v94c/91.25/kk2f4145_qqpybe32_91.25_10058.sdst ! RUN = 10058 ! NEVT = 3000
FILE = /castor/cern.ch/delphi/MCprod/lyon/kk2f4145/v94c/91.25/kk2f4145_qqpybe32_91.25_10059.sdst ! RUN = 10059 ! NEVT = 3000
FILE = /castor/cern.ch/delphi/MCprod/lyon/kk2f4145/v94c/91.25/kk2f4145_qqpybe32_91.25_10060.sdst ! RUN = 10060 ! NEVT = 3000
FILE = /castor/cern.ch/delphi/MCprod/lyon/kk2f4145/v94c/91.25/kk2f4145_qqpybe32_91.25_10061.sdst ! RUN = 10061 ! NEVT = 2999
FILE = /castor/cern.ch/delphi/MCprod/lyon/kk2f4145/v94c/91.25/kk2f4145_qqpybe32_91.25_10062.sdst ! RUN = 10062 ! NEVT = 3000
FILE = /castor/cern.ch/delphi/MCprod/lyon/kk2f4145/v94c/91.25/kk2f4145_qqpybe32_91.25_10063.sdst ! RUN = 10063 ! NEVT = 3000
FILE = /castor/cern.ch/delphi/MCprod/lyon/kk2f4145/v94c/91.25/kk2f4145_qqpybe32_91.25_10064.sdst ! RUN = 10064 ! NEVT = 3000
FILE = /castor/cern.ch/delphi/MCprod/lyon/kk2f4145/v94c/91.25/kk2f4145_qqpybe32_91.25_10065.sdst ! RUN = 10065 ! NEVT = 3000
FILE = /castor/cern.ch/delphi/MCprod/lyon/kk2f4145/v94c/91.25/kk2f4145_qqpybe32_91.25_10066.sdst ! RUN = 10066 ! NEVT = 3000
FILE = /castor/cern.ch/delphi/MCprod/lyon/kk2f4145/v94c/91.25/kk2f4145_qqpybe32_91.25_10067.sdst ! RUN = 10067 ! NEVT = 3000
FILE = /castor/cern.ch/delphi/MCprod/lyon/kk2f4145/v94c/91.25/kk2f4145_qqpybe32_91.25_10068.sdst ! RUN = 10068 ! NEVT = 3000
FILE = /castor/cern.ch/delphi/MCprod/lyon/kk2f4145/v94c/91.25/kk2f4145_qqpybe32_91.25_10069.sdst ! RUN = 10069 ! NEVT = 3000
FILE = /castor/cern.ch/delphi/MCprod/lyon/kk2f4145/v94c/91.25/kk2f4145_qqpybe32_91.25_10070.sdst ! RUN = 10070 ! NEVT = 2998
FILE = /castor/cern.ch/delphi/MCprod/lyon/kk2f4145/v94c/91.25/kk2f4145_qqpybe32_91.25_10071.sdst ! RUN = 10071 ! NEVT = 3000
FILE = /castor/cern.ch/delphi/MCprod/lyon/kk2f4145/v94c/91.25/kk2f4145_qqpybe32_91.25_10072.sdst ! RUN = 10072 ! NEVT = 3000
FILE = /castor/cern.ch/delphi/MCprod/lyon/kk2f4145/v94c/91.25/kk2f4145_qqpybe32_91.25_10073.sdst ! RUN = 10073 ! NEVT = 3000
FILE = /castor/cern.ch/delphi/MCprod/lyon/kk2f4145/v94c/91.25/kk2f4145_qqpybe32_91.25_10075.sdst ! RUN = 10075 ! NEVT = 3000
FILE = /castor/cern.ch/delphi/MCprod/lyon/kk2f4145/v94c/91.25/kk2f4145_qqpybe32_91.25_10076.sdst ! RUN = 10076 ! NEVT = 3000
FILE = /castor/cern.ch/delphi/MCprod/lyon/kk2f4145/v94c/91.25/kk2f4145_qqpybe32_91.25_10077.sdst ! RUN = 10077 ! NEVT = 3000
FILE = /castor/cern.ch/delphi/MCprod/lyon/kk2f4145/v94c/91.25/kk2f4145_qqpybe32_91.25_10078.sdst ! RUN = 10078 ! NEVT = 3000
FILE = /castor/cern.ch/delphi/MCprod/lyon/kk2f4145/v94c/91.25/kk2f4145_qqpybe32_91.25_10080.sdst ! RUN = 10080 ! NEVT = 3000
FILE = /castor/cern.ch/delphi/MCprod/lyon/kk2f4145/v94c/91.25/kk2f4145_qqpybe32_91.25_10081.sdst ! RUN = 10081 ! NEVT = 2998
FILE = /castor/cern.ch/delphi/MCprod/lyon/kk2f4145/v94c/91.25/kk2f4145_qqpybe32_91.25_10082.sdst ! RUN = 10082 ! NEVT = 3000
FILE = /castor/cern.ch/delphi/MCprod/lyon/kk2f4145/v94c/91.25/kk2f4145_qqpybe32_91.25_10084.sdst ! RUN = 10084 ! NEVT = 3000
FILE = /castor/cern.ch/delphi/MCprod/lyon/kk2f4145/v94c/91.25/kk2f4145_qqpybe32_91.25_10085.sdst ! RUN = 10085 ! NEVT = 2999
FILE = /castor/cern.ch/delphi/MCprod/lyon/kk2f4145/v94c/91.25/kk2f4145_qqpybe32_91.25_10086.sdst ! RUN = 10086 ! NEVT = 3000
FILE = /castor/cern.ch/delphi/MCprod/lyon/kk2f4145/v94c/91.25/kk2f4145_qqpybe32_91.25_10087.sdst ! RUN = 10087 ! NEVT = 3000
FILE = /castor/cern.ch/delphi/MCprod/lyon/kk2f4145/v94c/91.25/kk2f4145_qqpybe32_91.25_10088.sdst ! RUN = 10088 ! NEVT = 2999
FILE = /castor/cern.ch/delphi/MCprod/lyon/kk2f4145/v94c/91.25/kk2f4145_qqpybe32_91.25_10089.sdst ! RUN = 10089 ! NEVT = 3000
FILE = /castor/cern.ch/delphi/MCprod/lyon/kk2f4145/v94c/91.25/kk2f4145_qqpybe32_91.25_10090.sdst ! RUN = 10090 ! NEVT = 2999
FILE = /castor/cern.ch/delphi/MCprod/lyon/kk2f4145/v94c/91.25/kk2f4145_qqpybe32_91.25_10091.sdst ! RUN = 10091 ! NEVT = 2999
FILE = /castor/cern.ch/delphi/MCprod/lyon/kk2f4145/v94c/91.25/kk2f4145_qqpybe32_91.25_10092.sdst ! RUN = 10092 ! NEVT = 3000
FILE = /castor/cern.ch/delphi/MCprod/lyon/kk2f4145/v94c/91.25/kk2f4145_qqpybe32_91.25_10093.sdst ! RUN = 10093 ! NEVT = 3000
FILE = /castor/cern.ch/delphi/MCprod/lyon/kk2f4145/v94c/91.25/kk2f4145_qqpybe32_91.25_10094.sdst ! RUN = 10094 ! NEVT = 1998
FILE = /castor/cern.ch/delphi/MCprod/lyon/kk2f4145/v94c/91.25/kk2f4145_qqpybe32_91.25_10095.sdst ! RUN = 10095 ! NEVT = 3000
FILE = /castor/cern.ch/delphi/MCprod/lyon/kk2f4145/v94c/91.25/kk2f4145_qqpybe32_91.25_10096.sdst ! RUN = 10096 ! NEVT = 3000
FILE = /castor/cern.ch/delphi/MCprod/lyon/kk2f4145/v94c/91.25/kk2f4145_qqpybe32_91.25_10097.sdst ! RUN = 10097 ! NEVT = 3000
FILE = /castor/cern.ch/delphi/MCprod/lyon/kk2f4145/v94c/91.25/kk2f4145_qqpybe32_91.25_10098.sdst ! RUN = 10098 ! NEVT = 3000
FILE = /castor/cern.ch/delphi/MCprod/lyon/kk2f4145/v94c/91.25/kk2f4145_qqpybe32_91.25_10099.sdst ! RUN = 10099 ! NEVT = 3000
FILE = /castor/cern.ch/delphi/MCprod/lyon/kk2f4145/v94c/91.25/kk2f4145_qqpybe32_91.25_10100.sdst ! RUN = 10100 ! NEVT = 3000
FILE = /castor/cern.ch/delphi/MCprod/lyon/kk2f4145/v94c/91.25/kk2f4145_qqpybe32_91.25_10101.sdst ! RUN = 10101 ! NEVT = 3000
FILE = /castor/cern.ch/delphi/MCprod/lyon/kk2f4145/v94c/91.25/kk2f4145_qqpybe32_91.25_10102.sdst ! RUN = 10102 ! NEVT = 2999
FILE = /castor/cern.ch/delphi/MCprod/lyon/kk2f4145/v94c/91.25/kk2f4145_qqpybe32_91.25_10103.sdst ! RUN = 10103 ! NEVT = 3000
FILE = /castor/cern.ch/delphi/MCprod/lyon/kk2f4145/v94c/91.25/kk2f4145_qqpybe32_91.25_10104.sdst ! RUN = 10104 ! NEVT = 3000
FILE = /castor/cern.ch/delphi/MCprod/lyon/kk2f4145/v94c/91.25/kk2f4145_qqpybe32_91.25_10105.sdst ! RUN = 10105 ! NEVT = 3000
FILE = /castor/cern.ch/delphi/MCprod/lyon/kk2f4145/v94c/91.25/kk2f4145_qqpybe32_91.25_10106.sdst ! RUN = 10106 ! NEVT = 3000
FILE = /castor/cern.ch/delphi/MCprod/lyon/kk2f4145/v94c/91.25/kk2f4145_qqpybe32_91.25_10107.sdst ! RUN = 10107 ! NEVT = 258
FILE = /castor/cern.ch/delphi/MCprod/lyon/kk2f4145/v94c/91.25/kk2f4145_qqpybe32_91.25_10108.sdst ! RUN = 10108 ! NEVT = 3000
FILE = /castor/cern.ch/delphi/MCprod/lyon/kk2f4145/v94c/91.25/kk2f4145_qqpybe32_91.25_10109.sdst ! RUN = 10109 ! NEVT = 2999
FILE = /castor/cern.ch/delphi/MCprod/lyon/kk2f4145/v94c/91.25/kk2f4145_qqpybe32_91.25_10110.sdst ! RUN = 10110 ! NEVT = 3000
FILE = /castor/cern.ch/delphi/MCprod/lyon/kk2f4145/v94c/91.25/kk2f4145_qqpybe32_91.25_10111.sdst ! RUN = 10111 ! NEVT = 2842
FILE = /castor/cern.ch/delphi/MCprod/lyon/kk2f4145/v94c/91.25/kk2f4145_qqpybe32_91.25_10112.sdst ! RUN = 10112 ! NEVT = 3000
FILE = /castor/cern.ch/delphi/MCprod/lyon/kk2f4145/v94c/91.25/kk2f4145_qqpybe32_91.25_10113.sdst ! RUN = 10113 ! NEVT = 3000
FILE = /castor/cern.ch/delphi/MCprod/lyon/kk2f4145/v94c/91.25/kk2f4145_qqpybe32_91.25_10114.sdst ! RUN = 10114 ! NEVT = 3000
FILE = /castor/cern.ch/delphi/MCprod/lyon/kk2f4145/v94c/91.25/kk2f4145_qqpybe32_91.25_10115.sdst ! RUN = 10115 ! NEVT = 3000
FILE = /castor/cern.ch/delphi/MCprod/lyon/kk2f4145/v94c/91.25/kk2f4145_qqpybe32_91.25_10116.sdst ! RUN = 10116 ! NEVT = 3000
FILE = /castor/cern.ch/delphi/MCprod/lyon/kk2f4145/v94c/91.25/kk2f4145_qqpybe32_91.25_10117.sdst ! RUN = 10117 ! NEVT = 3000
FILE = /castor/cern.ch/delphi/MCprod/lyon/kk2f4145/v94c/91.25/kk2f4145_qqpybe32_91.25_10118.sdst ! RUN = 10118 ! NEVT = 3000
FILE = /castor/cern.ch/delphi/MCprod/lyon/kk2f4145/v94c/91.25/kk2f4145_qqpybe32_91.25_10119.sdst ! RUN = 10119 ! NEVT = 3000
FILE = /castor/cern.ch/delphi/MCprod/lyon/kk2f4145/v94c/91.25/kk2f4145_qqpybe32_91.25_10120.sdst ! RUN = 10120 ! NEVT = 3000
FILE = /castor/cern.ch/delphi/MCprod/lyon/kk2f4145/v94c/91.25/kk2f4145_qqpybe32_91.25_10121.sdst ! RUN = 10121 ! NEVT = 2999
FILE = /castor/cern.ch/delphi/MCprod/lyon/kk2f4145/v94c/91.25/kk2f4145_qqpybe32_91.25_10122.sdst ! RUN = 10122 ! NEVT = 3000
FILE = /castor/cern.ch/delphi/MCprod/lyon/kk2f4145/v94c/91.25/kk2f4145_qqpybe32_91.25_10123.sdst ! RUN = 10123 ! NEVT = 3000
FILE = /castor/cern.ch/delphi/MCprod/lyon/kk2f4145/v94c/91.25/kk2f4145_qqpybe32_91.25_10124.sdst ! RUN = 10124 ! NEVT = 3000
FILE = /castor/cern.ch/delphi/MCprod/lyon/kk2f4145/v94c/91.25/kk2f4145_qqpybe32_91.25_10125.sdst ! RUN = 10125 ! NEVT = 3000
FILE = /castor/cern.ch/delphi/MCprod/lyon/kk2f4145/v94c/91.25/kk2f4145_qqpybe32_91.25_10126.sdst ! RUN = 10126 ! NEVT = 3000
FILE = /castor/cern.ch/delphi/MCprod/lyon/kk2f4145/v94c/91.25/kk2f4145_qqpybe32_91.25_10127.sdst ! RUN = 10127 ! NEVT = 3000
FILE = /castor/cern.ch/delphi/MCprod/lyon/kk2f4145/v94c/91.25/kk2f4145_qqpybe32_91.25_10128.sdst ! RUN = 10128 ! NEVT = 3000
FILE = /castor/cern.ch/delphi/MCprod/lyon/kk2f4145/v94c/91.25/kk2f4145_qqpybe32_91.25_10129.sdst ! RUN = 10129 ! NEVT = 3000
FILE = /castor/cern.ch/delphi/MCprod/lyon/kk2f4145/v94c/91.25/kk2f4145_qqpybe32_91.25_10130.sdst ! RUN = 10130 ! NEVT = 2999
FILE = /castor/cern.ch/delphi/MCprod/lyon/kk2f4145/v94c/91.25/kk2f4145_qqpybe32_91.25_10131.sdst ! RUN = 10131 ! NEVT = 3000
FILE = /castor/cern.ch/delphi/MCprod/lyon/kk2f4145/v94c/91.25/kk2f4145_qqpybe32_91.25_10133.sdst ! RUN = 10133 ! NEVT = 3000
FILE = /castor/cern.ch/delphi/MCprod/lyon/kk2f4145/v94c/91.25/kk2f4145_qqpybe32_91.25_10134.sdst ! RUN = 10134 ! NEVT = 3000
FILE = /castor/cern.ch/delphi/MCprod/lyon/kk2f4145/v94c/91.25/kk2f4145_qqpybe32_91.25_10135.sdst ! RUN = 10135 ! NEVT = 2999
FILE = /castor/cern.ch/delphi/MCprod/lyon/kk2f4145/v94c/91.25/kk2f4145_qqpybe32_91.25_10136.sdst ! RUN = 10136 ! NEVT = 3000
FILE = /castor/cern.ch/delphi/MCprod/lyon/kk2f4145/v94c/91.25/kk2f4145_qqpybe32_91.25_10137.sdst ! RUN = 10137 ! NEVT = 2999
FILE = /castor/cern.ch/delphi/MCprod/lyon/kk2f4145/v94c/91.25/kk2f4145_qqpybe32_91.25_10138.sdst ! RUN = 10138 ! NEVT = 3000
FILE = /castor/cern.ch/delphi/MCprod/lyon/kk2f4145/v94c/91.25/kk2f4145_qqpybe32_91.25_10139.sdst ! RUN = 10139 ! NEVT = 3000
FILE = /castor/cern.ch/delphi/MCprod/lyon/kk2f4145/v94c/91.25/kk2f4145_qqpybe32_91.25_10140.sdst ! RUN = 10140 ! NEVT = 3000
FILE = /castor/cern.ch/delphi/MCprod/lyon/kk2f4145/v94c/91.25/kk2f4145_qqpybe32_91.25_10141.sdst ! RUN = 10141 ! NEVT = 3000
FILE = /castor/cern.ch/delphi/MCprod/lyon/kk2f4145/v94c/91.25/kk2f4145_qqpybe32_91.25_10142.sdst ! RUN = 10142 ! NEVT = 3000
FILE = /castor/cern.ch/delphi/MCprod/lyon/kk2f4145/v94c/91.25/kk2f4145_qqpybe32_91.25_10143.sdst ! RUN = 10143 ! NEVT = 3000
FILE = /castor/cern.ch/delphi/MCprod/lyon/kk2f4145/v94c/91.25/kk2f4145_qqpybe32_91.25_10144.sdst ! RUN = 10144 ! NEVT = 3000
FILE = /castor/cern.ch/delphi/MCprod/lyon/kk2f4145/v94c/91.25/kk2f4145_qqpybe32_91.25_10145.sdst ! RUN = 10145 ! NEVT = 3000
FILE = /castor/cern.ch/delphi/MCprod/lyon/kk2f4145/v94c/91.25/kk2f4145_qqpybe32_91.25_10146.sdst ! RUN = 10146 ! NEVT = 3000
FILE = /castor/cern.ch/delphi/MCprod/lyon/kk2f4145/v94c/91.25/kk2f4145_qqpybe32_91.25_10147.sdst ! RUN = 10147 ! NEVT = 3000
FILE = /castor/cern.ch/delphi/MCprod/lyon/kk2f4145/v94c/91.25/kk2f4145_qqpybe32_91.25_10148.sdst ! RUN = 10148 ! NEVT = 3000
FILE = /castor/cern.ch/delphi/MCprod/lyon/kk2f4145/v94c/91.25/kk2f4145_qqpybe32_91.25_10150.sdst ! RUN = 10150 ! NEVT = 3000
FILE = /castor/cern.ch/delphi/MCprod/lyon/kk2f4145/v94c/91.25/kk2f4145_qqpybe32_91.25_10151.sdst ! RUN = 10151 ! NEVT = 3000
FILE = /castor/cern.ch/delphi/MCprod/lyon/kk2f4145/v94c/91.25/kk2f4145_qqpybe32_91.25_10152.sdst ! RUN = 10152 ! NEVT = 3000
FILE = /castor/cern.ch/delphi/MCprod/lyon/kk2f4145/v94c/91.25/kk2f4145_qqpybe32_91.25_10154.sdst ! RUN = 10154 ! NEVT = 3000
FILE = /castor/cern.ch/delphi/MCprod/lyon/kk2f4145/v94c/91.25/kk2f4145_qqpybe32_91.25_10155.sdst ! RUN = 10155 ! NEVT = 3000
FILE = /castor/cern.ch/delphi/MCprod/lyon/kk2f4145/v94c/91.25/kk2f4145_qqpybe32_91.25_10156.sdst ! RUN = 10156 ! NEVT = 2999
FILE = /castor/cern.ch/delphi/MCprod/lyon/kk2f4145/v94c/91.25/kk2f4145_qqpybe32_91.25_10157.sdst ! RUN = 10157 ! NEVT = 3000
FILE = /castor/cern.ch/delphi/MCprod/lyon/kk2f4145/v94c/91.25/kk2f4145_qqpybe32_91.25_10158.sdst ! RUN = 10158 ! NEVT = 2999
FILE = /castor/cern.ch/delphi/MCprod/lyon/kk2f4145/v94c/91.25/kk2f4145_qqpybe32_91.25_10159.sdst ! RUN = 10159 ! NEVT = 3000
FILE = /castor/cern.ch/delphi/MCprod/lyon/kk2f4145/v94c/91.25/kk2f4145_qqpybe32_91.25_10160.sdst ! RUN = 10160 ! NEVT = 3000
FILE = /castor/cern.ch/delphi/MCprod/lyon/kk2f4145/v94c/91.25/kk2f4145_qqpybe32_91.25_10161.sdst ! RUN = 10161 ! NEVT = 1425
FILE = /castor/cern.ch/delphi/MCprod/lyon/kk2f4145/v94c/91.25/kk2f4145_qqpybe32_91.25_10162.sdst ! RUN = 10162 ! NEVT = 3000
FILE = /castor/cern.ch/delphi/MCprod/lyon/kk2f4145/v94c/91.25/kk2f4145_qqpybe32_91.25_10163.sdst ! RUN = 10163 ! NEVT = 3000
FILE = /castor/cern.ch/delphi/MCprod/lyon/kk2f4145/v94c/91.25/kk2f4145_qqpybe32_91.25_10164.sdst ! RUN = 10164 ! NEVT = 3000
FILE = /castor/cern.ch/delphi/MCprod/lyon/kk2f4145/v94c/91.25/kk2f4145_qqpybe32_91.25_10165.sdst ! RUN = 10165 ! NEVT = 3000
FILE = /castor/cern.ch/delphi/MCprod/lyon/kk2f4145/v94c/91.25/kk2f4145_qqpybe32_91.25_10166.sdst ! RUN = 10166 ! NEVT = 3000
FILE = /castor/cern.ch/delphi/MCprod/lyon/kk2f4145/v94c/91.25/kk2f4145_qqpybe32_91.25_10167.sdst ! RUN = 10167 ! NEVT = 3000
FILE = /castor/cern.ch/delphi/MCprod/lyon/kk2f4145/v94c/91.25/kk2f4145_qqpybe32_91.25_10168.sdst ! RUN = 10168 ! NEVT = 3000
FILE = /castor/cern.ch/delphi/MCprod/lyon/kk2f4145/v94c/91.25/kk2f4145_qqpybe32_91.25_10169.sdst ! RUN = 10169 ! NEVT = 2999
FILE = /castor/cern.ch/delphi/MCprod/lyon/kk2f4145/v94c/91.25/kk2f4145_qqpybe32_91.25_10170.sdst ! RUN = 10170 ! NEVT = 3000
FILE = /castor/cern.ch/delphi/MCprod/lyon/kk2f4145/v94c/91.25/kk2f4145_qqpybe32_91.25_10171.sdst ! RUN = 10171 ! NEVT = 1543
FILE = /castor/cern.ch/delphi/MCprod/lyon/kk2f4145/v94c/91.25/kk2f4145_qqpybe32_91.25_10172.sdst ! RUN = 10172 ! NEVT = 2999
FILE = /castor/cern.ch/delphi/MCprod/lyon/kk2f4145/v94c/91.25/kk2f4145_qqpybe32_91.25_10173.sdst ! RUN = 10173 ! NEVT = 2999
FILE = /castor/cern.ch/delphi/MCprod/lyon/kk2f4145/v94c/91.25/kk2f4145_qqpybe32_91.25_10174.sdst ! RUN = 10174 ! NEVT = 3000
FILE = /castor/cern.ch/delphi/MCprod/lyon/kk2f4145/v94c/91.25/kk2f4145_qqpybe32_91.25_10175.sdst ! RUN = 10175 ! NEVT = 3000
FILE = /castor/cern.ch/delphi/MCprod/lyon/kk2f4145/v94c/91.25/kk2f4145_qqpybe32_91.25_10176.sdst ! RUN = 10176 ! NEVT = 2999
FILE = /castor/cern.ch/delphi/MCprod/lyon/kk2f4145/v94c/91.25/kk2f4145_qqpybe32_91.25_10177.sdst ! RUN = 10177 ! NEVT = 3000
FILE = /castor/cern.ch/delphi/MCprod/lyon/kk2f4145/v94c/91.25/kk2f4145_qqpybe32_91.25_10178.sdst ! RUN = 10178 ! NEVT = 3000
FILE = /castor/cern.ch/delphi/MCprod/lyon/kk2f4145/v94c/91.25/kk2f4145_qqpybe32_91.25_10179.sdst ! RUN = 10179 ! NEVT = 3000
FILE = /castor/cern.ch/delphi/MCprod/lyon/kk2f4145/v94c/91.25/kk2f4145_qqpybe32_91.25_10180.sdst ! RUN = 10180 ! NEVT = 2999
FILE = /castor/cern.ch/delphi/MCprod/lyon/kk2f4145/v94c/91.25/kk2f4145_qqpybe32_91.25_10181.sdst ! RUN = 10181 ! NEVT = 3000
FILE = /castor/cern.ch/delphi/MCprod/lyon/kk2f4145/v94c/91.25/kk2f4145_qqpybe32_91.25_10182.sdst ! RUN = 10182 ! NEVT = 3000
FILE = /castor/cern.ch/delphi/MCprod/lyon/kk2f4145/v94c/91.25/kk2f4145_qqpybe32_91.25_10183.sdst ! RUN = 10183 ! NEVT = 3000
FILE = /castor/cern.ch/delphi/MCprod/lyon/kk2f4145/v94c/91.25/kk2f4145_qqpybe32_91.25_10184.sdst ! RUN = 10184 ! NEVT = 3000
FILE = /castor/cern.ch/delphi/MCprod/lyon/kk2f4145/v94c/91.25/kk2f4145_qqpybe32_91.25_10185.sdst ! RUN = 10185 ! NEVT = 2999
FILE = /castor/cern.ch/delphi/MCprod/lyon/kk2f4145/v94c/91.25/kk2f4145_qqpybe32_91.25_10186.sdst ! RUN = 10186 ! NEVT = 2999
FILE = /castor/cern.ch/delphi/MCprod/lyon/kk2f4145/v94c/91.25/kk2f4145_qqpybe32_91.25_10187.sdst ! RUN = 10187 ! NEVT = 3000
FILE = /castor/cern.ch/delphi/MCprod/lyon/kk2f4145/v94c/91.25/kk2f4145_qqpybe32_91.25_10188.sdst ! RUN = 10188 ! NEVT = 3000
FILE = /castor/cern.ch/delphi/MCprod/lyon/kk2f4145/v94c/91.25/kk2f4145_qqpybe32_91.25_10189.sdst ! RUN = 10189 ! NEVT = 3000
FILE = /castor/cern.ch/delphi/MCprod/lyon/kk2f4145/v94c/91.25/kk2f4145_qqpybe32_91.25_10190.sdst ! RUN = 10190 ! NEVT = 3000
FILE = /castor/cern.ch/delphi/MCprod/lyon/kk2f4145/v94c/91.25/kk2f4145_qqpybe32_91.25_10191.sdst ! RUN = 10191 ! NEVT = 3000
FILE = /castor/cern.ch/delphi/MCprod/lyon/kk2f4145/v94c/91.25/kk2f4145_qqpybe32_91.25_10192.sdst ! RUN = 10192 ! NEVT = 3000
FILE = /castor/cern.ch/delphi/MCprod/lyon/kk2f4145/v94c/91.25/kk2f4145_qqpybe32_91.25_10193.sdst ! RUN = 10193 ! NEVT = 3000
FILE = /castor/cern.ch/delphi/MCprod/lyon/kk2f4145/v94c/91.25/kk2f4145_qqpybe32_91.25_10194.sdst ! RUN = 10194 ! NEVT = 3000
FILE = /castor/cern.ch/delphi/MCprod/lyon/kk2f4145/v94c/91.25/kk2f4145_qqpybe32_91.25_10195.sdst ! RUN = 10195 ! NEVT = 3000
FILE = /castor/cern.ch/delphi/MCprod/lyon/kk2f4145/v94c/91.25/kk2f4145_qqpybe32_91.25_10196.sdst ! RUN = 10196 ! NEVT = 2998
FILE = /castor/cern.ch/delphi/MCprod/lyon/kk2f4145/v94c/91.25/kk2f4145_qqpybe32_91.25_10197.sdst ! RUN = 10197 ! NEVT = 3000
FILE = /castor/cern.ch/delphi/MCprod/lyon/kk2f4145/v94c/91.25/kk2f4145_qqpybe32_91.25_10198.sdst ! RUN = 10198 ! NEVT = 3000
FILE = /castor/cern.ch/delphi/MCprod/lyon/kk2f4145/v94c/91.25/kk2f4145_qqpybe32_91.25_10199.sdst ! RUN = 10199 ! NEVT = 3000
FILE = /castor/cern.ch/delphi/MCprod/lyon/kk2f4145/v94c/91.25/kk2f4145_qqpybe32_91.25_10200.sdst ! RUN = 10200 ! NEVT = 3000
