*
*   Nickname     : sh_kk2f4146qqardcy_e91.25_r94_2l_c2
*   Generic Name : //CERN/DELPHI/P01_SIMD/SHORT/KK2F4146QQARDCY/E91.25/RAL/SUMT/C001-674
*   Description  :  Short DST simulation 94c2 done at ecms=91.25 , RAL
*---
*   Comments     : in total 1959367 events in 674 files time stamp: Thu Jun 20 11:11:09 2002
*---
*
*
*
*
*
FILE = /castor/cern.ch/delphi/MCprod/ral/kk2f4146/v94c/91.25/kk2f4146_qqardcy_91.25_40000.sdst ! RUN = 40000 ! NEVT = 3000
FILE = /castor/cern.ch/delphi/MCprod/ral/kk2f4146/v94c/91.25/kk2f4146_qqardcy_91.25_40001.sdst ! RUN = 40001 ! NEVT = 3000
FILE = /castor/cern.ch/delphi/MCprod/ral/kk2f4146/v94c/91.25/kk2f4146_qqardcy_91.25_40002.sdst ! RUN = 40002 ! NEVT = 2162
FILE = /castor/cern.ch/delphi/MCprod/ral/kk2f4146/v94c/91.25/kk2f4146_qqardcy_91.25_40003.sdst ! RUN = 40003 ! NEVT = 3000
FILE = /castor/cern.ch/delphi/MCprod/ral/kk2f4146/v94c/91.25/kk2f4146_qqardcy_91.25_40004.sdst ! RUN = 40004 ! NEVT = 3000
FILE = /castor/cern.ch/delphi/MCprod/ral/kk2f4146/v94c/91.25/kk2f4146_qqardcy_91.25_40005.sdst ! RUN = 40005 ! NEVT = 3000
FILE = /castor/cern.ch/delphi/MCprod/ral/kk2f4146/v94c/91.25/kk2f4146_qqardcy_91.25_40006.sdst ! RUN = 40006 ! NEVT = 3000
FILE = /castor/cern.ch/delphi/MCprod/ral/kk2f4146/v94c/91.25/kk2f4146_qqardcy_91.25_40007.sdst ! RUN = 40007 ! NEVT = 2999
FILE = /castor/cern.ch/delphi/MCprod/ral/kk2f4146/v94c/91.25/kk2f4146_qqardcy_91.25_40008.sdst ! RUN = 40008 ! NEVT = 3000
FILE = /castor/cern.ch/delphi/MCprod/ral/kk2f4146/v94c/91.25/kk2f4146_qqardcy_91.25_40009.sdst ! RUN = 40009 ! NEVT = 3000
FILE = /castor/cern.ch/delphi/MCprod/ral/kk2f4146/v94c/91.25/kk2f4146_qqardcy_91.25_40010.sdst ! RUN = 40010 ! NEVT = 3000
FILE = /castor/cern.ch/delphi/MCprod/ral/kk2f4146/v94c/91.25/kk2f4146_qqardcy_91.25_40011.sdst ! RUN = 40011 ! NEVT = 2999
FILE = /castor/cern.ch/delphi/MCprod/ral/kk2f4146/v94c/91.25/kk2f4146_qqardcy_91.25_40012.sdst ! RUN = 40012 ! NEVT = 1794
FILE = /castor/cern.ch/delphi/MCprod/ral/kk2f4146/v94c/91.25/kk2f4146_qqardcy_91.25_40013.sdst ! RUN = 40013 ! NEVT = 3000
FILE = /castor/cern.ch/delphi/MCprod/ral/kk2f4146/v94c/91.25/kk2f4146_qqardcy_91.25_40014.sdst ! RUN = 40014 ! NEVT = 3000
FILE = /castor/cern.ch/delphi/MCprod/ral/kk2f4146/v94c/91.25/kk2f4146_qqardcy_91.25_40015.sdst ! RUN = 40015 ! NEVT = 3000
FILE = /castor/cern.ch/delphi/MCprod/ral/kk2f4146/v94c/91.25/kk2f4146_qqardcy_91.25_40016.sdst ! RUN = 40016 ! NEVT = 3000
FILE = /castor/cern.ch/delphi/MCprod/ral/kk2f4146/v94c/91.25/kk2f4146_qqardcy_91.25_40017.sdst ! RUN = 40017 ! NEVT = 3000
FILE = /castor/cern.ch/delphi/MCprod/ral/kk2f4146/v94c/91.25/kk2f4146_qqardcy_91.25_40018.sdst ! RUN = 40018 ! NEVT = 2999
FILE = /castor/cern.ch/delphi/MCprod/ral/kk2f4146/v94c/91.25/kk2f4146_qqardcy_91.25_40019.sdst ! RUN = 40019 ! NEVT = 3000
FILE = /castor/cern.ch/delphi/MCprod/ral/kk2f4146/v94c/91.25/kk2f4146_qqardcy_91.25_40020.sdst ! RUN = 40020 ! NEVT = 2999
FILE = /castor/cern.ch/delphi/MCprod/ral/kk2f4146/v94c/91.25/kk2f4146_qqardcy_91.25_40021.sdst ! RUN = 40021 ! NEVT = 1643
FILE = /castor/cern.ch/delphi/MCprod/ral/kk2f4146/v94c/91.25/kk2f4146_qqardcy_91.25_40022.sdst ! RUN = 40022 ! NEVT = 3000
FILE = /castor/cern.ch/delphi/MCprod/ral/kk2f4146/v94c/91.25/kk2f4146_qqardcy_91.25_40023.sdst ! RUN = 40023 ! NEVT = 3000
FILE = /castor/cern.ch/delphi/MCprod/ral/kk2f4146/v94c/91.25/kk2f4146_qqardcy_91.25_40024.sdst ! RUN = 40024 ! NEVT = 3000
FILE = /castor/cern.ch/delphi/MCprod/ral/kk2f4146/v94c/91.25/kk2f4146_qqardcy_91.25_40025.sdst ! RUN = 40025 ! NEVT = 3000
FILE = /castor/cern.ch/delphi/MCprod/ral/kk2f4146/v94c/91.25/kk2f4146_qqardcy_91.25_40026.sdst ! RUN = 40026 ! NEVT = 3000
FILE = /castor/cern.ch/delphi/MCprod/ral/kk2f4146/v94c/91.25/kk2f4146_qqardcy_91.25_40027.sdst ! RUN = 40027 ! NEVT = 2999
FILE = /castor/cern.ch/delphi/MCprod/ral/kk2f4146/v94c/91.25/kk2f4146_qqardcy_91.25_40028.sdst ! RUN = 40028 ! NEVT = 3000
FILE = /castor/cern.ch/delphi/MCprod/ral/kk2f4146/v94c/91.25/kk2f4146_qqardcy_91.25_40029.sdst ! RUN = 40029 ! NEVT = 3000
FILE = /castor/cern.ch/delphi/MCprod/ral/kk2f4146/v94c/91.25/kk2f4146_qqardcy_91.25_40030.sdst ! RUN = 40030 ! NEVT = 3000
FILE = /castor/cern.ch/delphi/MCprod/ral/kk2f4146/v94c/91.25/kk2f4146_qqardcy_91.25_40031.sdst ! RUN = 40031 ! NEVT = 3000
FILE = /castor/cern.ch/delphi/MCprod/ral/kk2f4146/v94c/91.25/kk2f4146_qqardcy_91.25_40032.sdst ! RUN = 40032 ! NEVT = 3000
FILE = /castor/cern.ch/delphi/MCprod/ral/kk2f4146/v94c/91.25/kk2f4146_qqardcy_91.25_40033.sdst ! RUN = 40033 ! NEVT = 334
FILE = /castor/cern.ch/delphi/MCprod/ral/kk2f4146/v94c/91.25/kk2f4146_qqardcy_91.25_40034.sdst ! RUN = 40034 ! NEVT = 3000
FILE = /castor/cern.ch/delphi/MCprod/ral/kk2f4146/v94c/91.25/kk2f4146_qqardcy_91.25_40035.sdst ! RUN = 40035 ! NEVT = 3000
FILE = /castor/cern.ch/delphi/MCprod/ral/kk2f4146/v94c/91.25/kk2f4146_qqardcy_91.25_40036.sdst ! RUN = 40036 ! NEVT = 2999
FILE = /castor/cern.ch/delphi/MCprod/ral/kk2f4146/v94c/91.25/kk2f4146_qqardcy_91.25_40037.sdst ! RUN = 40037 ! NEVT = 3000
FILE = /castor/cern.ch/delphi/MCprod/ral/kk2f4146/v94c/91.25/kk2f4146_qqardcy_91.25_40038.sdst ! RUN = 40038 ! NEVT = 3000
FILE = /castor/cern.ch/delphi/MCprod/ral/kk2f4146/v94c/91.25/kk2f4146_qqardcy_91.25_40039.sdst ! RUN = 40039 ! NEVT = 3000
FILE = /castor/cern.ch/delphi/MCprod/ral/kk2f4146/v94c/91.25/kk2f4146_qqardcy_91.25_40040.sdst ! RUN = 40040 ! NEVT = 3000
FILE = /castor/cern.ch/delphi/MCprod/ral/kk2f4146/v94c/91.25/kk2f4146_qqardcy_91.25_40041.sdst ! RUN = 40041 ! NEVT = 3000
FILE = /castor/cern.ch/delphi/MCprod/ral/kk2f4146/v94c/91.25/kk2f4146_qqardcy_91.25_40042.sdst ! RUN = 40042 ! NEVT = 2999
FILE = /castor/cern.ch/delphi/MCprod/ral/kk2f4146/v94c/91.25/kk2f4146_qqardcy_91.25_40043.sdst ! RUN = 40043 ! NEVT = 3000
FILE = /castor/cern.ch/delphi/MCprod/ral/kk2f4146/v94c/91.25/kk2f4146_qqardcy_91.25_40044.sdst ! RUN = 40044 ! NEVT = 3000
FILE = /castor/cern.ch/delphi/MCprod/ral/kk2f4146/v94c/91.25/kk2f4146_qqardcy_91.25_40045.sdst ! RUN = 40045 ! NEVT = 3000
FILE = /castor/cern.ch/delphi/MCprod/ral/kk2f4146/v94c/91.25/kk2f4146_qqardcy_91.25_40046.sdst ! RUN = 40046 ! NEVT = 3000
FILE = /castor/cern.ch/delphi/MCprod/ral/kk2f4146/v94c/91.25/kk2f4146_qqardcy_91.25_40047.sdst ! RUN = 40047 ! NEVT = 3000
FILE = /castor/cern.ch/delphi/MCprod/ral/kk2f4146/v94c/91.25/kk2f4146_qqardcy_91.25_40048.sdst ! RUN = 40048 ! NEVT = 3000
FILE = /castor/cern.ch/delphi/MCprod/ral/kk2f4146/v94c/91.25/kk2f4146_qqardcy_91.25_40049.sdst ! RUN = 40049 ! NEVT = 3000
FILE = /castor/cern.ch/delphi/MCprod/ral/kk2f4146/v94c/91.25/kk2f4146_qqardcy_91.25_40050.sdst ! RUN = 40050 ! NEVT = 3000
FILE = /castor/cern.ch/delphi/MCprod/ral/kk2f4146/v94c/91.25/kk2f4146_qqardcy_91.25_40051.sdst ! RUN = 40051 ! NEVT = 3000
FILE = /castor/cern.ch/delphi/MCprod/ral/kk2f4146/v94c/91.25/kk2f4146_qqardcy_91.25_40052.sdst ! RUN = 40052 ! NEVT = 2999
FILE = /castor/cern.ch/delphi/MCprod/ral/kk2f4146/v94c/91.25/kk2f4146_qqardcy_91.25_40053.sdst ! RUN = 40053 ! NEVT = 3000
FILE = /castor/cern.ch/delphi/MCprod/ral/kk2f4146/v94c/91.25/kk2f4146_qqardcy_91.25_40054.sdst ! RUN = 40054 ! NEVT = 2810
FILE = /castor/cern.ch/delphi/MCprod/ral/kk2f4146/v94c/91.25/kk2f4146_qqardcy_91.25_40055.sdst ! RUN = 40055 ! NEVT = 2999
FILE = /castor/cern.ch/delphi/MCprod/ral/kk2f4146/v94c/91.25/kk2f4146_qqardcy_91.25_40056.sdst ! RUN = 40056 ! NEVT = 3000
FILE = /castor/cern.ch/delphi/MCprod/ral/kk2f4146/v94c/91.25/kk2f4146_qqardcy_91.25_40057.sdst ! RUN = 40057 ! NEVT = 3000
FILE = /castor/cern.ch/delphi/MCprod/ral/kk2f4146/v94c/91.25/kk2f4146_qqardcy_91.25_40058.sdst ! RUN = 40058 ! NEVT = 3000
FILE = /castor/cern.ch/delphi/MCprod/ral/kk2f4146/v94c/91.25/kk2f4146_qqardcy_91.25_40059.sdst ! RUN = 40059 ! NEVT = 2999
FILE = /castor/cern.ch/delphi/MCprod/ral/kk2f4146/v94c/91.25/kk2f4146_qqardcy_91.25_40060.sdst ! RUN = 40060 ! NEVT = 3000
FILE = /castor/cern.ch/delphi/MCprod/ral/kk2f4146/v94c/91.25/kk2f4146_qqardcy_91.25_40061.sdst ! RUN = 40061 ! NEVT = 3000
FILE = /castor/cern.ch/delphi/MCprod/ral/kk2f4146/v94c/91.25/kk2f4146_qqardcy_91.25_40062.sdst ! RUN = 40062 ! NEVT = 1007
FILE = /castor/cern.ch/delphi/MCprod/ral/kk2f4146/v94c/91.25/kk2f4146_qqardcy_91.25_40063.sdst ! RUN = 40063 ! NEVT = 3000
FILE = /castor/cern.ch/delphi/MCprod/ral/kk2f4146/v94c/91.25/kk2f4146_qqardcy_91.25_40064.sdst ! RUN = 40064 ! NEVT = 2999
FILE = /castor/cern.ch/delphi/MCprod/ral/kk2f4146/v94c/91.25/kk2f4146_qqardcy_91.25_40065.sdst ! RUN = 40065 ! NEVT = 3000
FILE = /castor/cern.ch/delphi/MCprod/ral/kk2f4146/v94c/91.25/kk2f4146_qqardcy_91.25_40066.sdst ! RUN = 40066 ! NEVT = 3000
FILE = /castor/cern.ch/delphi/MCprod/ral/kk2f4146/v94c/91.25/kk2f4146_qqardcy_91.25_40067.sdst ! RUN = 40067 ! NEVT = 3000
FILE = /castor/cern.ch/delphi/MCprod/ral/kk2f4146/v94c/91.25/kk2f4146_qqardcy_91.25_40068.sdst ! RUN = 40068 ! NEVT = 3000
FILE = /castor/cern.ch/delphi/MCprod/ral/kk2f4146/v94c/91.25/kk2f4146_qqardcy_91.25_40069.sdst ! RUN = 40069 ! NEVT = 3000
FILE = /castor/cern.ch/delphi/MCprod/ral/kk2f4146/v94c/91.25/kk2f4146_qqardcy_91.25_40070.sdst ! RUN = 40070 ! NEVT = 3000
FILE = /castor/cern.ch/delphi/MCprod/ral/kk2f4146/v94c/91.25/kk2f4146_qqardcy_91.25_40071.sdst ! RUN = 40071 ! NEVT = 3000
FILE = /castor/cern.ch/delphi/MCprod/ral/kk2f4146/v94c/91.25/kk2f4146_qqardcy_91.25_40072.sdst ! RUN = 40072 ! NEVT = 2999
FILE = /castor/cern.ch/delphi/MCprod/ral/kk2f4146/v94c/91.25/kk2f4146_qqardcy_91.25_40073.sdst ! RUN = 40073 ! NEVT = 3000
FILE = /castor/cern.ch/delphi/MCprod/ral/kk2f4146/v94c/91.25/kk2f4146_qqardcy_91.25_40074.sdst ! RUN = 40074 ! NEVT = 3000
FILE = /castor/cern.ch/delphi/MCprod/ral/kk2f4146/v94c/91.25/kk2f4146_qqardcy_91.25_40075.sdst ! RUN = 40075 ! NEVT = 3000
FILE = /castor/cern.ch/delphi/MCprod/ral/kk2f4146/v94c/91.25/kk2f4146_qqardcy_91.25_40076.sdst ! RUN = 40076 ! NEVT = 2999
FILE = /castor/cern.ch/delphi/MCprod/ral/kk2f4146/v94c/91.25/kk2f4146_qqardcy_91.25_40077.sdst ! RUN = 40077 ! NEVT = 3000
FILE = /castor/cern.ch/delphi/MCprod/ral/kk2f4146/v94c/91.25/kk2f4146_qqardcy_91.25_40078.sdst ! RUN = 40078 ! NEVT = 2999
FILE = /castor/cern.ch/delphi/MCprod/ral/kk2f4146/v94c/91.25/kk2f4146_qqardcy_91.25_40079.sdst ! RUN = 40079 ! NEVT = 3000
FILE = /castor/cern.ch/delphi/MCprod/ral/kk2f4146/v94c/91.25/kk2f4146_qqardcy_91.25_40080.sdst ! RUN = 40080 ! NEVT = 2999
FILE = /castor/cern.ch/delphi/MCprod/ral/kk2f4146/v94c/91.25/kk2f4146_qqardcy_91.25_40081.sdst ! RUN = 40081 ! NEVT = 3000
FILE = /castor/cern.ch/delphi/MCprod/ral/kk2f4146/v94c/91.25/kk2f4146_qqardcy_91.25_40082.sdst ! RUN = 40082 ! NEVT = 2999
FILE = /castor/cern.ch/delphi/MCprod/ral/kk2f4146/v94c/91.25/kk2f4146_qqardcy_91.25_40083.sdst ! RUN = 40083 ! NEVT = 3000
FILE = /castor/cern.ch/delphi/MCprod/ral/kk2f4146/v94c/91.25/kk2f4146_qqardcy_91.25_40084.sdst ! RUN = 40084 ! NEVT = 3000
FILE = /castor/cern.ch/delphi/MCprod/ral/kk2f4146/v94c/91.25/kk2f4146_qqardcy_91.25_40085.sdst ! RUN = 40085 ! NEVT = 3000
FILE = /castor/cern.ch/delphi/MCprod/ral/kk2f4146/v94c/91.25/kk2f4146_qqardcy_91.25_40086.sdst ! RUN = 40086 ! NEVT = 3000
FILE = /castor/cern.ch/delphi/MCprod/ral/kk2f4146/v94c/91.25/kk2f4146_qqardcy_91.25_40087.sdst ! RUN = 40087 ! NEVT = 3000
FILE = /castor/cern.ch/delphi/MCprod/ral/kk2f4146/v94c/91.25/kk2f4146_qqardcy_91.25_40088.sdst ! RUN = 40088 ! NEVT = 3000
FILE = /castor/cern.ch/delphi/MCprod/ral/kk2f4146/v94c/91.25/kk2f4146_qqardcy_91.25_40089.sdst ! RUN = 40089 ! NEVT = 3000
FILE = /castor/cern.ch/delphi/MCprod/ral/kk2f4146/v94c/91.25/kk2f4146_qqardcy_91.25_40090.sdst ! RUN = 40090 ! NEVT = 3000
FILE = /castor/cern.ch/delphi/MCprod/ral/kk2f4146/v94c/91.25/kk2f4146_qqardcy_91.25_40091.sdst ! RUN = 40091 ! NEVT = 3000
FILE = /castor/cern.ch/delphi/MCprod/ral/kk2f4146/v94c/91.25/kk2f4146_qqardcy_91.25_40092.sdst ! RUN = 40092 ! NEVT = 2999
FILE = /castor/cern.ch/delphi/MCprod/ral/kk2f4146/v94c/91.25/kk2f4146_qqardcy_91.25_40093.sdst ! RUN = 40093 ! NEVT = 3000
FILE = /castor/cern.ch/delphi/MCprod/ral/kk2f4146/v94c/91.25/kk2f4146_qqardcy_91.25_40094.sdst ! RUN = 40094 ! NEVT = 3000
FILE = /castor/cern.ch/delphi/MCprod/ral/kk2f4146/v94c/91.25/kk2f4146_qqardcy_91.25_40095.sdst ! RUN = 40095 ! NEVT = 3000
FILE = /castor/cern.ch/delphi/MCprod/ral/kk2f4146/v94c/91.25/kk2f4146_qqardcy_91.25_40096.sdst ! RUN = 40096 ! NEVT = 2999
FILE = /castor/cern.ch/delphi/MCprod/ral/kk2f4146/v94c/91.25/kk2f4146_qqardcy_91.25_40097.sdst ! RUN = 40097 ! NEVT = 3000
FILE = /castor/cern.ch/delphi/MCprod/ral/kk2f4146/v94c/91.25/kk2f4146_qqardcy_91.25_40098.sdst ! RUN = 40098 ! NEVT = 3000
FILE = /castor/cern.ch/delphi/MCprod/ral/kk2f4146/v94c/91.25/kk2f4146_qqardcy_91.25_40099.sdst ! RUN = 40099 ! NEVT = 3000
FILE = /castor/cern.ch/delphi/MCprod/ral/kk2f4146/v94c/91.25/kk2f4146_qqardcy_91.25_40100.sdst ! RUN = 40100 ! NEVT = 3000
FILE = /castor/cern.ch/delphi/MCprod/ral/kk2f4146/v94c/91.25/kk2f4146_qqardcy_91.25_40101.sdst ! RUN = 40101 ! NEVT = 3000
FILE = /castor/cern.ch/delphi/MCprod/ral/kk2f4146/v94c/91.25/kk2f4146_qqardcy_91.25_40102.sdst ! RUN = 40102 ! NEVT = 3000
FILE = /castor/cern.ch/delphi/MCprod/ral/kk2f4146/v94c/91.25/kk2f4146_qqardcy_91.25_40103.sdst ! RUN = 40103 ! NEVT = 3000
FILE = /castor/cern.ch/delphi/MCprod/ral/kk2f4146/v94c/91.25/kk2f4146_qqardcy_91.25_40104.sdst ! RUN = 40104 ! NEVT = 2999
FILE = /castor/cern.ch/delphi/MCprod/ral/kk2f4146/v94c/91.25/kk2f4146_qqardcy_91.25_40105.sdst ! RUN = 40105 ! NEVT = 3000
FILE = /castor/cern.ch/delphi/MCprod/ral/kk2f4146/v94c/91.25/kk2f4146_qqardcy_91.25_40106.sdst ! RUN = 40106 ! NEVT = 2999
FILE = /castor/cern.ch/delphi/MCprod/ral/kk2f4146/v94c/91.25/kk2f4146_qqardcy_91.25_40107.sdst ! RUN = 40107 ! NEVT = 2999
FILE = /castor/cern.ch/delphi/MCprod/ral/kk2f4146/v94c/91.25/kk2f4146_qqardcy_91.25_40108.sdst ! RUN = 40108 ! NEVT = 3000
FILE = /castor/cern.ch/delphi/MCprod/ral/kk2f4146/v94c/91.25/kk2f4146_qqardcy_91.25_40110.sdst ! RUN = 40110 ! NEVT = 3000
FILE = /castor/cern.ch/delphi/MCprod/ral/kk2f4146/v94c/91.25/kk2f4146_qqardcy_91.25_40111.sdst ! RUN = 40111 ! NEVT = 3000
FILE = /castor/cern.ch/delphi/MCprod/ral/kk2f4146/v94c/91.25/kk2f4146_qqardcy_91.25_40112.sdst ! RUN = 40112 ! NEVT = 3000
FILE = /castor/cern.ch/delphi/MCprod/ral/kk2f4146/v94c/91.25/kk2f4146_qqardcy_91.25_40113.sdst ! RUN = 40113 ! NEVT = 3000
FILE = /castor/cern.ch/delphi/MCprod/ral/kk2f4146/v94c/91.25/kk2f4146_qqardcy_91.25_40114.sdst ! RUN = 40114 ! NEVT = 3000
FILE = /castor/cern.ch/delphi/MCprod/ral/kk2f4146/v94c/91.25/kk2f4146_qqardcy_91.25_40115.sdst ! RUN = 40115 ! NEVT = 2999
FILE = /castor/cern.ch/delphi/MCprod/ral/kk2f4146/v94c/91.25/kk2f4146_qqardcy_91.25_40116.sdst ! RUN = 40116 ! NEVT = 2999
FILE = /castor/cern.ch/delphi/MCprod/ral/kk2f4146/v94c/91.25/kk2f4146_qqardcy_91.25_40117.sdst ! RUN = 40117 ! NEVT = 3000
FILE = /castor/cern.ch/delphi/MCprod/ral/kk2f4146/v94c/91.25/kk2f4146_qqardcy_91.25_40118.sdst ! RUN = 40118 ! NEVT = 3000
FILE = /castor/cern.ch/delphi/MCprod/ral/kk2f4146/v94c/91.25/kk2f4146_qqardcy_91.25_40119.sdst ! RUN = 40119 ! NEVT = 2999
FILE = /castor/cern.ch/delphi/MCprod/ral/kk2f4146/v94c/91.25/kk2f4146_qqardcy_91.25_40120.sdst ! RUN = 40120 ! NEVT = 3000
FILE = /castor/cern.ch/delphi/MCprod/ral/kk2f4146/v94c/91.25/kk2f4146_qqardcy_91.25_40121.sdst ! RUN = 40121 ! NEVT = 2999
FILE = /castor/cern.ch/delphi/MCprod/ral/kk2f4146/v94c/91.25/kk2f4146_qqardcy_91.25_40122.sdst ! RUN = 40122 ! NEVT = 3000
FILE = /castor/cern.ch/delphi/MCprod/ral/kk2f4146/v94c/91.25/kk2f4146_qqardcy_91.25_40123.sdst ! RUN = 40123 ! NEVT = 3000
FILE = /castor/cern.ch/delphi/MCprod/ral/kk2f4146/v94c/91.25/kk2f4146_qqardcy_91.25_40124.sdst ! RUN = 40124 ! NEVT = 3000
FILE = /castor/cern.ch/delphi/MCprod/ral/kk2f4146/v94c/91.25/kk2f4146_qqardcy_91.25_40125.sdst ! RUN = 40125 ! NEVT = 3000
FILE = /castor/cern.ch/delphi/MCprod/ral/kk2f4146/v94c/91.25/kk2f4146_qqardcy_91.25_40126.sdst ! RUN = 40126 ! NEVT = 12
FILE = /castor/cern.ch/delphi/MCprod/ral/kk2f4146/v94c/91.25/kk2f4146_qqardcy_91.25_40127.sdst ! RUN = 40127 ! NEVT = 3000
FILE = /castor/cern.ch/delphi/MCprod/ral/kk2f4146/v94c/91.25/kk2f4146_qqardcy_91.25_40128.sdst ! RUN = 40128 ! NEVT = 3000
FILE = /castor/cern.ch/delphi/MCprod/ral/kk2f4146/v94c/91.25/kk2f4146_qqardcy_91.25_40129.sdst ! RUN = 40129 ! NEVT = 2999
FILE = /castor/cern.ch/delphi/MCprod/ral/kk2f4146/v94c/91.25/kk2f4146_qqardcy_91.25_40130.sdst ! RUN = 40130 ! NEVT = 2999
FILE = /castor/cern.ch/delphi/MCprod/ral/kk2f4146/v94c/91.25/kk2f4146_qqardcy_91.25_40131.sdst ! RUN = 40131 ! NEVT = 3000
FILE = /castor/cern.ch/delphi/MCprod/ral/kk2f4146/v94c/91.25/kk2f4146_qqardcy_91.25_40132.sdst ! RUN = 40132 ! NEVT = 3000
FILE = /castor/cern.ch/delphi/MCprod/ral/kk2f4146/v94c/91.25/kk2f4146_qqardcy_91.25_40133.sdst ! RUN = 40133 ! NEVT = 3000
FILE = /castor/cern.ch/delphi/MCprod/ral/kk2f4146/v94c/91.25/kk2f4146_qqardcy_91.25_40134.sdst ! RUN = 40134 ! NEVT = 3000
FILE = /castor/cern.ch/delphi/MCprod/ral/kk2f4146/v94c/91.25/kk2f4146_qqardcy_91.25_40135.sdst ! RUN = 40135 ! NEVT = 2843
FILE = /castor/cern.ch/delphi/MCprod/ral/kk2f4146/v94c/91.25/kk2f4146_qqardcy_91.25_40136.sdst ! RUN = 40136 ! NEVT = 3000
FILE = /castor/cern.ch/delphi/MCprod/ral/kk2f4146/v94c/91.25/kk2f4146_qqardcy_91.25_40137.sdst ! RUN = 40137 ! NEVT = 3000
FILE = /castor/cern.ch/delphi/MCprod/ral/kk2f4146/v94c/91.25/kk2f4146_qqardcy_91.25_40138.sdst ! RUN = 40138 ! NEVT = 3000
FILE = /castor/cern.ch/delphi/MCprod/ral/kk2f4146/v94c/91.25/kk2f4146_qqardcy_91.25_40140.sdst ! RUN = 40140 ! NEVT = 3000
FILE = /castor/cern.ch/delphi/MCprod/ral/kk2f4146/v94c/91.25/kk2f4146_qqardcy_91.25_40141.sdst ! RUN = 40141 ! NEVT = 3000
FILE = /castor/cern.ch/delphi/MCprod/ral/kk2f4146/v94c/91.25/kk2f4146_qqardcy_91.25_40142.sdst ! RUN = 40142 ! NEVT = 3000
FILE = /castor/cern.ch/delphi/MCprod/ral/kk2f4146/v94c/91.25/kk2f4146_qqardcy_91.25_40143.sdst ! RUN = 40143 ! NEVT = 2999
FILE = /castor/cern.ch/delphi/MCprod/ral/kk2f4146/v94c/91.25/kk2f4146_qqardcy_91.25_40145.sdst ! RUN = 40145 ! NEVT = 231
FILE = /castor/cern.ch/delphi/MCprod/ral/kk2f4146/v94c/91.25/kk2f4146_qqardcy_91.25_40146.sdst ! RUN = 40146 ! NEVT = 3000
FILE = /castor/cern.ch/delphi/MCprod/ral/kk2f4146/v94c/91.25/kk2f4146_qqardcy_91.25_40147.sdst ! RUN = 40147 ! NEVT = 3000
FILE = /castor/cern.ch/delphi/MCprod/ral/kk2f4146/v94c/91.25/kk2f4146_qqardcy_91.25_40148.sdst ! RUN = 40148 ! NEVT = 3000
FILE = /castor/cern.ch/delphi/MCprod/ral/kk2f4146/v94c/91.25/kk2f4146_qqardcy_91.25_40149.sdst ! RUN = 40149 ! NEVT = 616
FILE = /castor/cern.ch/delphi/MCprod/ral/kk2f4146/v94c/91.25/kk2f4146_qqardcy_91.25_40150.sdst ! RUN = 40150 ! NEVT = 2999
FILE = /castor/cern.ch/delphi/MCprod/ral/kk2f4146/v94c/91.25/kk2f4146_qqardcy_91.25_40151.sdst ! RUN = 40151 ! NEVT = 3000
FILE = /castor/cern.ch/delphi/MCprod/ral/kk2f4146/v94c/91.25/kk2f4146_qqardcy_91.25_40152.sdst ! RUN = 40152 ! NEVT = 3000
FILE = /castor/cern.ch/delphi/MCprod/ral/kk2f4146/v94c/91.25/kk2f4146_qqardcy_91.25_40153.sdst ! RUN = 40153 ! NEVT = 2999
FILE = /castor/cern.ch/delphi/MCprod/ral/kk2f4146/v94c/91.25/kk2f4146_qqardcy_91.25_40154.sdst ! RUN = 40154 ! NEVT = 3000
FILE = /castor/cern.ch/delphi/MCprod/ral/kk2f4146/v94c/91.25/kk2f4146_qqardcy_91.25_40155.sdst ! RUN = 40155 ! NEVT = 3000
FILE = /castor/cern.ch/delphi/MCprod/ral/kk2f4146/v94c/91.25/kk2f4146_qqardcy_91.25_40156.sdst ! RUN = 40156 ! NEVT = 3000
FILE = /castor/cern.ch/delphi/MCprod/ral/kk2f4146/v94c/91.25/kk2f4146_qqardcy_91.25_40157.sdst ! RUN = 40157 ! NEVT = 2999
FILE = /castor/cern.ch/delphi/MCprod/ral/kk2f4146/v94c/91.25/kk2f4146_qqardcy_91.25_40158.sdst ! RUN = 40158 ! NEVT = 3000
FILE = /castor/cern.ch/delphi/MCprod/ral/kk2f4146/v94c/91.25/kk2f4146_qqardcy_91.25_40159.sdst ! RUN = 40159 ! NEVT = 3000
FILE = /castor/cern.ch/delphi/MCprod/ral/kk2f4146/v94c/91.25/kk2f4146_qqardcy_91.25_40160.sdst ! RUN = 40160 ! NEVT = 3000
FILE = /castor/cern.ch/delphi/MCprod/ral/kk2f4146/v94c/91.25/kk2f4146_qqardcy_91.25_40161.sdst ! RUN = 40161 ! NEVT = 2999
FILE = /castor/cern.ch/delphi/MCprod/ral/kk2f4146/v94c/91.25/kk2f4146_qqardcy_91.25_40162.sdst ! RUN = 40162 ! NEVT = 3000
FILE = /castor/cern.ch/delphi/MCprod/ral/kk2f4146/v94c/91.25/kk2f4146_qqardcy_91.25_40163.sdst ! RUN = 40163 ! NEVT = 2596
FILE = /castor/cern.ch/delphi/MCprod/ral/kk2f4146/v94c/91.25/kk2f4146_qqardcy_91.25_40164.sdst ! RUN = 40164 ! NEVT = 2999
FILE = /castor/cern.ch/delphi/MCprod/ral/kk2f4146/v94c/91.25/kk2f4146_qqardcy_91.25_40165.sdst ! RUN = 40165 ! NEVT = 3000
FILE = /castor/cern.ch/delphi/MCprod/ral/kk2f4146/v94c/91.25/kk2f4146_qqardcy_91.25_40166.sdst ! RUN = 40166 ! NEVT = 3000
FILE = /castor/cern.ch/delphi/MCprod/ral/kk2f4146/v94c/91.25/kk2f4146_qqardcy_91.25_40168.sdst ! RUN = 40168 ! NEVT = 3000
FILE = /castor/cern.ch/delphi/MCprod/ral/kk2f4146/v94c/91.25/kk2f4146_qqardcy_91.25_40169.sdst ! RUN = 40169 ! NEVT = 3000
FILE = /castor/cern.ch/delphi/MCprod/ral/kk2f4146/v94c/91.25/kk2f4146_qqardcy_91.25_40170.sdst ! RUN = 40170 ! NEVT = 3000
FILE = /castor/cern.ch/delphi/MCprod/ral/kk2f4146/v94c/91.25/kk2f4146_qqardcy_91.25_40171.sdst ! RUN = 40171 ! NEVT = 4
FILE = /castor/cern.ch/delphi/MCprod/ral/kk2f4146/v94c/91.25/kk2f4146_qqardcy_91.25_40172.sdst ! RUN = 40172 ! NEVT = 3000
FILE = /castor/cern.ch/delphi/MCprod/ral/kk2f4146/v94c/91.25/kk2f4146_qqardcy_91.25_40173.sdst ! RUN = 40173 ! NEVT = 2
FILE = /castor/cern.ch/delphi/MCprod/ral/kk2f4146/v94c/91.25/kk2f4146_qqardcy_91.25_40174.sdst ! RUN = 40174 ! NEVT = 3000
FILE = /castor/cern.ch/delphi/MCprod/ral/kk2f4146/v94c/91.25/kk2f4146_qqardcy_91.25_40175.sdst ! RUN = 40175 ! NEVT = 2999
FILE = /castor/cern.ch/delphi/MCprod/ral/kk2f4146/v94c/91.25/kk2f4146_qqardcy_91.25_40176.sdst ! RUN = 40176 ! NEVT = 1
FILE = /castor/cern.ch/delphi/MCprod/ral/kk2f4146/v94c/91.25/kk2f4146_qqardcy_91.25_40177.sdst ! RUN = 40177 ! NEVT = 1
FILE = /castor/cern.ch/delphi/MCprod/ral/kk2f4146/v94c/91.25/kk2f4146_qqardcy_91.25_40178.sdst ! RUN = 40178 ! NEVT = 3000
FILE = /castor/cern.ch/delphi/MCprod/ral/kk2f4146/v94c/91.25/kk2f4146_qqardcy_91.25_40179.sdst ! RUN = 40179 ! NEVT = 3000
FILE = /castor/cern.ch/delphi/MCprod/ral/kk2f4146/v94c/91.25/kk2f4146_qqardcy_91.25_40180.sdst ! RUN = 40180 ! NEVT = 3000
FILE = /castor/cern.ch/delphi/MCprod/ral/kk2f4146/v94c/91.25/kk2f4146_qqardcy_91.25_40181.sdst ! RUN = 40181 ! NEVT = 2
FILE = /castor/cern.ch/delphi/MCprod/ral/kk2f4146/v94c/91.25/kk2f4146_qqardcy_91.25_40182.sdst ! RUN = 40182 ! NEVT = 7
FILE = /castor/cern.ch/delphi/MCprod/ral/kk2f4146/v94c/91.25/kk2f4146_qqardcy_91.25_40183.sdst ! RUN = 40183 ! NEVT = 3000
FILE = /castor/cern.ch/delphi/MCprod/ral/kk2f4146/v94c/91.25/kk2f4146_qqardcy_91.25_40184.sdst ! RUN = 40184 ! NEVT = 3000
FILE = /castor/cern.ch/delphi/MCprod/ral/kk2f4146/v94c/91.25/kk2f4146_qqardcy_91.25_40185.sdst ! RUN = 40185 ! NEVT = 3000
FILE = /castor/cern.ch/delphi/MCprod/ral/kk2f4146/v94c/91.25/kk2f4146_qqardcy_91.25_40186.sdst ! RUN = 40186 ! NEVT = 3000
FILE = /castor/cern.ch/delphi/MCprod/ral/kk2f4146/v94c/91.25/kk2f4146_qqardcy_91.25_40187.sdst ! RUN = 40187 ! NEVT = 3000
FILE = /castor/cern.ch/delphi/MCprod/ral/kk2f4146/v94c/91.25/kk2f4146_qqardcy_91.25_40188.sdst ! RUN = 40188 ! NEVT = 1125
FILE = /castor/cern.ch/delphi/MCprod/ral/kk2f4146/v94c/91.25/kk2f4146_qqardcy_91.25_40189.sdst ! RUN = 40189 ! NEVT = 3000
FILE = /castor/cern.ch/delphi/MCprod/ral/kk2f4146/v94c/91.25/kk2f4146_qqardcy_91.25_40190.sdst ! RUN = 40190 ! NEVT = 3000
FILE = /castor/cern.ch/delphi/MCprod/ral/kk2f4146/v94c/91.25/kk2f4146_qqardcy_91.25_40191.sdst ! RUN = 40191 ! NEVT = 3000
FILE = /castor/cern.ch/delphi/MCprod/ral/kk2f4146/v94c/91.25/kk2f4146_qqardcy_91.25_40192.sdst ! RUN = 40192 ! NEVT = 2999
FILE = /castor/cern.ch/delphi/MCprod/ral/kk2f4146/v94c/91.25/kk2f4146_qqardcy_91.25_40193.sdst ! RUN = 40193 ! NEVT = 2999
FILE = /castor/cern.ch/delphi/MCprod/ral/kk2f4146/v94c/91.25/kk2f4146_qqardcy_91.25_40194.sdst ! RUN = 40194 ! NEVT = 3000
FILE = /castor/cern.ch/delphi/MCprod/ral/kk2f4146/v94c/91.25/kk2f4146_qqardcy_91.25_40196.sdst ! RUN = 40196 ! NEVT = 3000
FILE = /castor/cern.ch/delphi/MCprod/ral/kk2f4146/v94c/91.25/kk2f4146_qqardcy_91.25_40197.sdst ! RUN = 40197 ! NEVT = 3000
FILE = /castor/cern.ch/delphi/MCprod/ral/kk2f4146/v94c/91.25/kk2f4146_qqardcy_91.25_40198.sdst ! RUN = 40198 ! NEVT = 1350
FILE = /castor/cern.ch/delphi/MCprod/ral/kk2f4146/v94c/91.25/kk2f4146_qqardcy_91.25_40199.sdst ! RUN = 40199 ! NEVT = 3000
FILE = /castor/cern.ch/delphi/MCprod/ral/kk2f4146/v94c/91.25/kk2f4146_qqardcy_91.25_40200.sdst ! RUN = 40200 ! NEVT = 2999
FILE = /castor/cern.ch/delphi/MCprod/ral/kk2f4146/v94c/91.25/kk2f4146_qqardcy_91.25_40201.sdst ! RUN = 40201 ! NEVT = 3000
FILE = /castor/cern.ch/delphi/MCprod/ral/kk2f4146/v94c/91.25/kk2f4146_qqardcy_91.25_40202.sdst ! RUN = 40202 ! NEVT = 3000
FILE = /castor/cern.ch/delphi/MCprod/ral/kk2f4146/v94c/91.25/kk2f4146_qqardcy_91.25_40203.sdst ! RUN = 40203 ! NEVT = 2999
FILE = /castor/cern.ch/delphi/MCprod/ral/kk2f4146/v94c/91.25/kk2f4146_qqardcy_91.25_40204.sdst ! RUN = 40204 ! NEVT = 3000
FILE = /castor/cern.ch/delphi/MCprod/ral/kk2f4146/v94c/91.25/kk2f4146_qqardcy_91.25_40205.sdst ! RUN = 40205 ! NEVT = 3000
FILE = /castor/cern.ch/delphi/MCprod/ral/kk2f4146/v94c/91.25/kk2f4146_qqardcy_91.25_40206.sdst ! RUN = 40206 ! NEVT = 3000
FILE = /castor/cern.ch/delphi/MCprod/ral/kk2f4146/v94c/91.25/kk2f4146_qqardcy_91.25_40207.sdst ! RUN = 40207 ! NEVT = 3000
FILE = /castor/cern.ch/delphi/MCprod/ral/kk2f4146/v94c/91.25/kk2f4146_qqardcy_91.25_40208.sdst ! RUN = 40208 ! NEVT = 3000
FILE = /castor/cern.ch/delphi/MCprod/ral/kk2f4146/v94c/91.25/kk2f4146_qqardcy_91.25_40209.sdst ! RUN = 40209 ! NEVT = 2105
FILE = /castor/cern.ch/delphi/MCprod/ral/kk2f4146/v94c/91.25/kk2f4146_qqardcy_91.25_40210.sdst ! RUN = 40210 ! NEVT = 3000
FILE = /castor/cern.ch/delphi/MCprod/ral/kk2f4146/v94c/91.25/kk2f4146_qqardcy_91.25_40211.sdst ! RUN = 40211 ! NEVT = 3000
FILE = /castor/cern.ch/delphi/MCprod/ral/kk2f4146/v94c/91.25/kk2f4146_qqardcy_91.25_40212.sdst ! RUN = 40212 ! NEVT = 3000
FILE = /castor/cern.ch/delphi/MCprod/ral/kk2f4146/v94c/91.25/kk2f4146_qqardcy_91.25_40213.sdst ! RUN = 40213 ! NEVT = 3000
FILE = /castor/cern.ch/delphi/MCprod/ral/kk2f4146/v94c/91.25/kk2f4146_qqardcy_91.25_40214.sdst ! RUN = 40214 ! NEVT = 2998
FILE = /castor/cern.ch/delphi/MCprod/ral/kk2f4146/v94c/91.25/kk2f4146_qqardcy_91.25_40215.sdst ! RUN = 40215 ! NEVT = 2551
FILE = /castor/cern.ch/delphi/MCprod/ral/kk2f4146/v94c/91.25/kk2f4146_qqardcy_91.25_40216.sdst ! RUN = 40216 ! NEVT = 2999
FILE = /castor/cern.ch/delphi/MCprod/ral/kk2f4146/v94c/91.25/kk2f4146_qqardcy_91.25_40217.sdst ! RUN = 40217 ! NEVT = 3000
FILE = /castor/cern.ch/delphi/MCprod/ral/kk2f4146/v94c/91.25/kk2f4146_qqardcy_91.25_40218.sdst ! RUN = 40218 ! NEVT = 3000
FILE = /castor/cern.ch/delphi/MCprod/ral/kk2f4146/v94c/91.25/kk2f4146_qqardcy_91.25_40219.sdst ! RUN = 40219 ! NEVT = 2998
FILE = /castor/cern.ch/delphi/MCprod/ral/kk2f4146/v94c/91.25/kk2f4146_qqardcy_91.25_40220.sdst ! RUN = 40220 ! NEVT = 3000
FILE = /castor/cern.ch/delphi/MCprod/ral/kk2f4146/v94c/91.25/kk2f4146_qqardcy_91.25_40221.sdst ! RUN = 40221 ! NEVT = 3000
FILE = /castor/cern.ch/delphi/MCprod/ral/kk2f4146/v94c/91.25/kk2f4146_qqardcy_91.25_40222.sdst ! RUN = 40222 ! NEVT = 3000
FILE = /castor/cern.ch/delphi/MCprod/ral/kk2f4146/v94c/91.25/kk2f4146_qqardcy_91.25_40223.sdst ! RUN = 40223 ! NEVT = 3000
FILE = /castor/cern.ch/delphi/MCprod/ral/kk2f4146/v94c/91.25/kk2f4146_qqardcy_91.25_40224.sdst ! RUN = 40224 ! NEVT = 2999
FILE = /castor/cern.ch/delphi/MCprod/ral/kk2f4146/v94c/91.25/kk2f4146_qqardcy_91.25_40225.sdst ! RUN = 40225 ! NEVT = 3000
FILE = /castor/cern.ch/delphi/MCprod/ral/kk2f4146/v94c/91.25/kk2f4146_qqardcy_91.25_40226.sdst ! RUN = 40226 ! NEVT = 3000
FILE = /castor/cern.ch/delphi/MCprod/ral/kk2f4146/v94c/91.25/kk2f4146_qqardcy_91.25_40227.sdst ! RUN = 40227 ! NEVT = 2999
FILE = /castor/cern.ch/delphi/MCprod/ral/kk2f4146/v94c/91.25/kk2f4146_qqardcy_91.25_40228.sdst ! RUN = 40228 ! NEVT = 3000
FILE = /castor/cern.ch/delphi/MCprod/ral/kk2f4146/v94c/91.25/kk2f4146_qqardcy_91.25_40229.sdst ! RUN = 40229 ! NEVT = 3000
FILE = /castor/cern.ch/delphi/MCprod/ral/kk2f4146/v94c/91.25/kk2f4146_qqardcy_91.25_40230.sdst ! RUN = 40230 ! NEVT = 2999
FILE = /castor/cern.ch/delphi/MCprod/ral/kk2f4146/v94c/91.25/kk2f4146_qqardcy_91.25_40231.sdst ! RUN = 40231 ! NEVT = 3000
FILE = /castor/cern.ch/delphi/MCprod/ral/kk2f4146/v94c/91.25/kk2f4146_qqardcy_91.25_40232.sdst ! RUN = 40232 ! NEVT = 2998
FILE = /castor/cern.ch/delphi/MCprod/ral/kk2f4146/v94c/91.25/kk2f4146_qqardcy_91.25_40233.sdst ! RUN = 40233 ! NEVT = 3000
FILE = /castor/cern.ch/delphi/MCprod/ral/kk2f4146/v94c/91.25/kk2f4146_qqardcy_91.25_40234.sdst ! RUN = 40234 ! NEVT = 3000
FILE = /castor/cern.ch/delphi/MCprod/ral/kk2f4146/v94c/91.25/kk2f4146_qqardcy_91.25_40235.sdst ! RUN = 40235 ! NEVT = 3000
FILE = /castor/cern.ch/delphi/MCprod/ral/kk2f4146/v94c/91.25/kk2f4146_qqardcy_91.25_40236.sdst ! RUN = 40236 ! NEVT = 3000
FILE = /castor/cern.ch/delphi/MCprod/ral/kk2f4146/v94c/91.25/kk2f4146_qqardcy_91.25_40237.sdst ! RUN = 40237 ! NEVT = 3000
FILE = /castor/cern.ch/delphi/MCprod/ral/kk2f4146/v94c/91.25/kk2f4146_qqardcy_91.25_40238.sdst ! RUN = 40238 ! NEVT = 3000
FILE = /castor/cern.ch/delphi/MCprod/ral/kk2f4146/v94c/91.25/kk2f4146_qqardcy_91.25_40239.sdst ! RUN = 40239 ! NEVT = 3000
FILE = /castor/cern.ch/delphi/MCprod/ral/kk2f4146/v94c/91.25/kk2f4146_qqardcy_91.25_40240.sdst ! RUN = 40240 ! NEVT = 3000
FILE = /castor/cern.ch/delphi/MCprod/ral/kk2f4146/v94c/91.25/kk2f4146_qqardcy_91.25_40241.sdst ! RUN = 40241 ! NEVT = 3000
FILE = /castor/cern.ch/delphi/MCprod/ral/kk2f4146/v94c/91.25/kk2f4146_qqardcy_91.25_40242.sdst ! RUN = 40242 ! NEVT = 3000
FILE = /castor/cern.ch/delphi/MCprod/ral/kk2f4146/v94c/91.25/kk2f4146_qqardcy_91.25_40243.sdst ! RUN = 40243 ! NEVT = 2999
FILE = /castor/cern.ch/delphi/MCprod/ral/kk2f4146/v94c/91.25/kk2f4146_qqardcy_91.25_40244.sdst ! RUN = 40244 ! NEVT = 3000
FILE = /castor/cern.ch/delphi/MCprod/ral/kk2f4146/v94c/91.25/kk2f4146_qqardcy_91.25_40245.sdst ! RUN = 40245 ! NEVT = 2998
FILE = /castor/cern.ch/delphi/MCprod/ral/kk2f4146/v94c/91.25/kk2f4146_qqardcy_91.25_40246.sdst ! RUN = 40246 ! NEVT = 3000
FILE = /castor/cern.ch/delphi/MCprod/ral/kk2f4146/v94c/91.25/kk2f4146_qqardcy_91.25_40247.sdst ! RUN = 40247 ! NEVT = 3000
FILE = /castor/cern.ch/delphi/MCprod/ral/kk2f4146/v94c/91.25/kk2f4146_qqardcy_91.25_40248.sdst ! RUN = 40248 ! NEVT = 3000
FILE = /castor/cern.ch/delphi/MCprod/ral/kk2f4146/v94c/91.25/kk2f4146_qqardcy_91.25_40249.sdst ! RUN = 40249 ! NEVT = 2999
FILE = /castor/cern.ch/delphi/MCprod/ral/kk2f4146/v94c/91.25/kk2f4146_qqardcy_91.25_40250.sdst ! RUN = 40250 ! NEVT = 2999
FILE = /castor/cern.ch/delphi/MCprod/ral/kk2f4146/v94c/91.25/kk2f4146_qqardcy_91.25_40251.sdst ! RUN = 40251 ! NEVT = 3000
FILE = /castor/cern.ch/delphi/MCprod/ral/kk2f4146/v94c/91.25/kk2f4146_qqardcy_91.25_40252.sdst ! RUN = 40252 ! NEVT = 2999
FILE = /castor/cern.ch/delphi/MCprod/ral/kk2f4146/v94c/91.25/kk2f4146_qqardcy_91.25_40253.sdst ! RUN = 40253 ! NEVT = 3000
FILE = /castor/cern.ch/delphi/MCprod/ral/kk2f4146/v94c/91.25/kk2f4146_qqardcy_91.25_40254.sdst ! RUN = 40254 ! NEVT = 3000
FILE = /castor/cern.ch/delphi/MCprod/ral/kk2f4146/v94c/91.25/kk2f4146_qqardcy_91.25_40255.sdst ! RUN = 40255 ! NEVT = 3000
FILE = /castor/cern.ch/delphi/MCprod/ral/kk2f4146/v94c/91.25/kk2f4146_qqardcy_91.25_40256.sdst ! RUN = 40256 ! NEVT = 3000
FILE = /castor/cern.ch/delphi/MCprod/ral/kk2f4146/v94c/91.25/kk2f4146_qqardcy_91.25_40257.sdst ! RUN = 40257 ! NEVT = 3000
FILE = /castor/cern.ch/delphi/MCprod/ral/kk2f4146/v94c/91.25/kk2f4146_qqardcy_91.25_40258.sdst ! RUN = 40258 ! NEVT = 2999
FILE = /castor/cern.ch/delphi/MCprod/ral/kk2f4146/v94c/91.25/kk2f4146_qqardcy_91.25_40259.sdst ! RUN = 40259 ! NEVT = 3000
FILE = /castor/cern.ch/delphi/MCprod/ral/kk2f4146/v94c/91.25/kk2f4146_qqardcy_91.25_40260.sdst ! RUN = 40260 ! NEVT = 3000
FILE = /castor/cern.ch/delphi/MCprod/ral/kk2f4146/v94c/91.25/kk2f4146_qqardcy_91.25_40261.sdst ! RUN = 40261 ! NEVT = 2999
FILE = /castor/cern.ch/delphi/MCprod/ral/kk2f4146/v94c/91.25/kk2f4146_qqardcy_91.25_40262.sdst ! RUN = 40262 ! NEVT = 2999
FILE = /castor/cern.ch/delphi/MCprod/ral/kk2f4146/v94c/91.25/kk2f4146_qqardcy_91.25_40263.sdst ! RUN = 40263 ! NEVT = 3000
FILE = /castor/cern.ch/delphi/MCprod/ral/kk2f4146/v94c/91.25/kk2f4146_qqardcy_91.25_40264.sdst ! RUN = 40264 ! NEVT = 3000
FILE = /castor/cern.ch/delphi/MCprod/ral/kk2f4146/v94c/91.25/kk2f4146_qqardcy_91.25_40265.sdst ! RUN = 40265 ! NEVT = 3000
FILE = /castor/cern.ch/delphi/MCprod/ral/kk2f4146/v94c/91.25/kk2f4146_qqardcy_91.25_40266.sdst ! RUN = 40266 ! NEVT = 3000
FILE = /castor/cern.ch/delphi/MCprod/ral/kk2f4146/v94c/91.25/kk2f4146_qqardcy_91.25_40267.sdst ! RUN = 40267 ! NEVT = 3000
FILE = /castor/cern.ch/delphi/MCprod/ral/kk2f4146/v94c/91.25/kk2f4146_qqardcy_91.25_40268.sdst ! RUN = 40268 ! NEVT = 3000
FILE = /castor/cern.ch/delphi/MCprod/ral/kk2f4146/v94c/91.25/kk2f4146_qqardcy_91.25_40270.sdst ! RUN = 40270 ! NEVT = 3000
FILE = /castor/cern.ch/delphi/MCprod/ral/kk2f4146/v94c/91.25/kk2f4146_qqardcy_91.25_40271.sdst ! RUN = 40271 ! NEVT = 3000
FILE = /castor/cern.ch/delphi/MCprod/ral/kk2f4146/v94c/91.25/kk2f4146_qqardcy_91.25_40272.sdst ! RUN = 40272 ! NEVT = 3000
FILE = /castor/cern.ch/delphi/MCprod/ral/kk2f4146/v94c/91.25/kk2f4146_qqardcy_91.25_40273.sdst ! RUN = 40273 ! NEVT = 3000
FILE = /castor/cern.ch/delphi/MCprod/ral/kk2f4146/v94c/91.25/kk2f4146_qqardcy_91.25_40274.sdst ! RUN = 40274 ! NEVT = 2998
FILE = /castor/cern.ch/delphi/MCprod/ral/kk2f4146/v94c/91.25/kk2f4146_qqardcy_91.25_40275.sdst ! RUN = 40275 ! NEVT = 2999
FILE = /castor/cern.ch/delphi/MCprod/ral/kk2f4146/v94c/91.25/kk2f4146_qqardcy_91.25_40276.sdst ! RUN = 40276 ! NEVT = 3000
FILE = /castor/cern.ch/delphi/MCprod/ral/kk2f4146/v94c/91.25/kk2f4146_qqardcy_91.25_40277.sdst ! RUN = 40277 ! NEVT = 3000
FILE = /castor/cern.ch/delphi/MCprod/ral/kk2f4146/v94c/91.25/kk2f4146_qqardcy_91.25_40278.sdst ! RUN = 40278 ! NEVT = 2999
FILE = /castor/cern.ch/delphi/MCprod/ral/kk2f4146/v94c/91.25/kk2f4146_qqardcy_91.25_40279.sdst ! RUN = 40279 ! NEVT = 2999
FILE = /castor/cern.ch/delphi/MCprod/ral/kk2f4146/v94c/91.25/kk2f4146_qqardcy_91.25_40280.sdst ! RUN = 40280 ! NEVT = 3000
FILE = /castor/cern.ch/delphi/MCprod/ral/kk2f4146/v94c/91.25/kk2f4146_qqardcy_91.25_40281.sdst ! RUN = 40281 ! NEVT = 2702
FILE = /castor/cern.ch/delphi/MCprod/ral/kk2f4146/v94c/91.25/kk2f4146_qqardcy_91.25_40282.sdst ! RUN = 40282 ! NEVT = 3000
FILE = /castor/cern.ch/delphi/MCprod/ral/kk2f4146/v94c/91.25/kk2f4146_qqardcy_91.25_40283.sdst ! RUN = 40283 ! NEVT = 3000
FILE = /castor/cern.ch/delphi/MCprod/ral/kk2f4146/v94c/91.25/kk2f4146_qqardcy_91.25_40284.sdst ! RUN = 40284 ! NEVT = 2999
FILE = /castor/cern.ch/delphi/MCprod/ral/kk2f4146/v94c/91.25/kk2f4146_qqardcy_91.25_40285.sdst ! RUN = 40285 ! NEVT = 2999
FILE = /castor/cern.ch/delphi/MCprod/ral/kk2f4146/v94c/91.25/kk2f4146_qqardcy_91.25_40286.sdst ! RUN = 40286 ! NEVT = 2999
FILE = /castor/cern.ch/delphi/MCprod/ral/kk2f4146/v94c/91.25/kk2f4146_qqardcy_91.25_40287.sdst ! RUN = 40287 ! NEVT = 3000
FILE = /castor/cern.ch/delphi/MCprod/ral/kk2f4146/v94c/91.25/kk2f4146_qqardcy_91.25_40289.sdst ! RUN = 40289 ! NEVT = 3000
FILE = /castor/cern.ch/delphi/MCprod/ral/kk2f4146/v94c/91.25/kk2f4146_qqardcy_91.25_40290.sdst ! RUN = 40290 ! NEVT = 3000
FILE = /castor/cern.ch/delphi/MCprod/ral/kk2f4146/v94c/91.25/kk2f4146_qqardcy_91.25_40291.sdst ! RUN = 40291 ! NEVT = 2996
FILE = /castor/cern.ch/delphi/MCprod/ral/kk2f4146/v94c/91.25/kk2f4146_qqardcy_91.25_40292.sdst ! RUN = 40292 ! NEVT = 2999
FILE = /castor/cern.ch/delphi/MCprod/ral/kk2f4146/v94c/91.25/kk2f4146_qqardcy_91.25_40293.sdst ! RUN = 40293 ! NEVT = 3000
FILE = /castor/cern.ch/delphi/MCprod/ral/kk2f4146/v94c/91.25/kk2f4146_qqardcy_91.25_40294.sdst ! RUN = 40294 ! NEVT = 3000
FILE = /castor/cern.ch/delphi/MCprod/ral/kk2f4146/v94c/91.25/kk2f4146_qqardcy_91.25_40295.sdst ! RUN = 40295 ! NEVT = 3000
FILE = /castor/cern.ch/delphi/MCprod/ral/kk2f4146/v94c/91.25/kk2f4146_qqardcy_91.25_40296.sdst ! RUN = 40296 ! NEVT = 3000
FILE = /castor/cern.ch/delphi/MCprod/ral/kk2f4146/v94c/91.25/kk2f4146_qqardcy_91.25_40297.sdst ! RUN = 40297 ! NEVT = 3000
FILE = /castor/cern.ch/delphi/MCprod/ral/kk2f4146/v94c/91.25/kk2f4146_qqardcy_91.25_40298.sdst ! RUN = 40298 ! NEVT = 2999
FILE = /castor/cern.ch/delphi/MCprod/ral/kk2f4146/v94c/91.25/kk2f4146_qqardcy_91.25_40299.sdst ! RUN = 40299 ! NEVT = 3000
FILE = /castor/cern.ch/delphi/MCprod/ral/kk2f4146/v94c/91.25/kk2f4146_qqardcy_91.25_40300.sdst ! RUN = 40300 ! NEVT = 3000
FILE = /castor/cern.ch/delphi/MCprod/ral/kk2f4146/v94c/91.25/kk2f4146_qqardcy_91.25_40301.sdst ! RUN = 40301 ! NEVT = 3000
FILE = /castor/cern.ch/delphi/MCprod/ral/kk2f4146/v94c/91.25/kk2f4146_qqardcy_91.25_40302.sdst ! RUN = 40302 ! NEVT = 3000
FILE = /castor/cern.ch/delphi/MCprod/ral/kk2f4146/v94c/91.25/kk2f4146_qqardcy_91.25_40303.sdst ! RUN = 40303 ! NEVT = 3000
FILE = /castor/cern.ch/delphi/MCprod/ral/kk2f4146/v94c/91.25/kk2f4146_qqardcy_91.25_40304.sdst ! RUN = 40304 ! NEVT = 3000
FILE = /castor/cern.ch/delphi/MCprod/ral/kk2f4146/v94c/91.25/kk2f4146_qqardcy_91.25_40305.sdst ! RUN = 40305 ! NEVT = 3000
FILE = /castor/cern.ch/delphi/MCprod/ral/kk2f4146/v94c/91.25/kk2f4146_qqardcy_91.25_40307.sdst ! RUN = 40307 ! NEVT = 3000
FILE = /castor/cern.ch/delphi/MCprod/ral/kk2f4146/v94c/91.25/kk2f4146_qqardcy_91.25_40308.sdst ! RUN = 40308 ! NEVT = 2999
FILE = /castor/cern.ch/delphi/MCprod/ral/kk2f4146/v94c/91.25/kk2f4146_qqardcy_91.25_40309.sdst ! RUN = 40309 ! NEVT = 3000
FILE = /castor/cern.ch/delphi/MCprod/ral/kk2f4146/v94c/91.25/kk2f4146_qqardcy_91.25_40310.sdst ! RUN = 40310 ! NEVT = 3000
FILE = /castor/cern.ch/delphi/MCprod/ral/kk2f4146/v94c/91.25/kk2f4146_qqardcy_91.25_40311.sdst ! RUN = 40311 ! NEVT = 3000
FILE = /castor/cern.ch/delphi/MCprod/ral/kk2f4146/v94c/91.25/kk2f4146_qqardcy_91.25_40312.sdst ! RUN = 40312 ! NEVT = 3000
FILE = /castor/cern.ch/delphi/MCprod/ral/kk2f4146/v94c/91.25/kk2f4146_qqardcy_91.25_40313.sdst ! RUN = 40313 ! NEVT = 3000
FILE = /castor/cern.ch/delphi/MCprod/ral/kk2f4146/v94c/91.25/kk2f4146_qqardcy_91.25_40314.sdst ! RUN = 40314 ! NEVT = 3000
FILE = /castor/cern.ch/delphi/MCprod/ral/kk2f4146/v94c/91.25/kk2f4146_qqardcy_91.25_40315.sdst ! RUN = 40315 ! NEVT = 3000
FILE = /castor/cern.ch/delphi/MCprod/ral/kk2f4146/v94c/91.25/kk2f4146_qqardcy_91.25_40316.sdst ! RUN = 40316 ! NEVT = 3000
FILE = /castor/cern.ch/delphi/MCprod/ral/kk2f4146/v94c/91.25/kk2f4146_qqardcy_91.25_40317.sdst ! RUN = 40317 ! NEVT = 2999
FILE = /castor/cern.ch/delphi/MCprod/ral/kk2f4146/v94c/91.25/kk2f4146_qqardcy_91.25_40318.sdst ! RUN = 40318 ! NEVT = 3000
FILE = /castor/cern.ch/delphi/MCprod/ral/kk2f4146/v94c/91.25/kk2f4146_qqardcy_91.25_40319.sdst ! RUN = 40319 ! NEVT = 3000
FILE = /castor/cern.ch/delphi/MCprod/ral/kk2f4146/v94c/91.25/kk2f4146_qqardcy_91.25_40320.sdst ! RUN = 40320 ! NEVT = 3000
FILE = /castor/cern.ch/delphi/MCprod/ral/kk2f4146/v94c/91.25/kk2f4146_qqardcy_91.25_40321.sdst ! RUN = 40321 ! NEVT = 3000
FILE = /castor/cern.ch/delphi/MCprod/ral/kk2f4146/v94c/91.25/kk2f4146_qqardcy_91.25_40322.sdst ! RUN = 40322 ! NEVT = 3000
FILE = /castor/cern.ch/delphi/MCprod/ral/kk2f4146/v94c/91.25/kk2f4146_qqardcy_91.25_40323.sdst ! RUN = 40323 ! NEVT = 3000
FILE = /castor/cern.ch/delphi/MCprod/ral/kk2f4146/v94c/91.25/kk2f4146_qqardcy_91.25_40324.sdst ! RUN = 40324 ! NEVT = 3000
FILE = /castor/cern.ch/delphi/MCprod/ral/kk2f4146/v94c/91.25/kk2f4146_qqardcy_91.25_40325.sdst ! RUN = 40325 ! NEVT = 3000
FILE = /castor/cern.ch/delphi/MCprod/ral/kk2f4146/v94c/91.25/kk2f4146_qqardcy_91.25_40326.sdst ! RUN = 40326 ! NEVT = 3000
FILE = /castor/cern.ch/delphi/MCprod/ral/kk2f4146/v94c/91.25/kk2f4146_qqardcy_91.25_40327.sdst ! RUN = 40327 ! NEVT = 3000
FILE = /castor/cern.ch/delphi/MCprod/ral/kk2f4146/v94c/91.25/kk2f4146_qqardcy_91.25_40328.sdst ! RUN = 40328 ! NEVT = 3000
FILE = /castor/cern.ch/delphi/MCprod/ral/kk2f4146/v94c/91.25/kk2f4146_qqardcy_91.25_40329.sdst ! RUN = 40329 ! NEVT = 2997
FILE = /castor/cern.ch/delphi/MCprod/ral/kk2f4146/v94c/91.25/kk2f4146_qqardcy_91.25_40330.sdst ! RUN = 40330 ! NEVT = 3000
FILE = /castor/cern.ch/delphi/MCprod/ral/kk2f4146/v94c/91.25/kk2f4146_qqardcy_91.25_40331.sdst ! RUN = 40331 ! NEVT = 3000
FILE = /castor/cern.ch/delphi/MCprod/ral/kk2f4146/v94c/91.25/kk2f4146_qqardcy_91.25_40332.sdst ! RUN = 40332 ! NEVT = 3000
FILE = /castor/cern.ch/delphi/MCprod/ral/kk2f4146/v94c/91.25/kk2f4146_qqardcy_91.25_40333.sdst ! RUN = 40333 ! NEVT = 3000
FILE = /castor/cern.ch/delphi/MCprod/ral/kk2f4146/v94c/91.25/kk2f4146_qqardcy_91.25_40334.sdst ! RUN = 40334 ! NEVT = 3000
FILE = /castor/cern.ch/delphi/MCprod/ral/kk2f4146/v94c/91.25/kk2f4146_qqardcy_91.25_40335.sdst ! RUN = 40335 ! NEVT = 2999
FILE = /castor/cern.ch/delphi/MCprod/ral/kk2f4146/v94c/91.25/kk2f4146_qqardcy_91.25_40336.sdst ! RUN = 40336 ! NEVT = 3000
FILE = /castor/cern.ch/delphi/MCprod/ral/kk2f4146/v94c/91.25/kk2f4146_qqardcy_91.25_40337.sdst ! RUN = 40337 ! NEVT = 3000
FILE = /castor/cern.ch/delphi/MCprod/ral/kk2f4146/v94c/91.25/kk2f4146_qqardcy_91.25_40338.sdst ! RUN = 40338 ! NEVT = 3000
FILE = /castor/cern.ch/delphi/MCprod/ral/kk2f4146/v94c/91.25/kk2f4146_qqardcy_91.25_40339.sdst ! RUN = 40339 ! NEVT = 3000
FILE = /castor/cern.ch/delphi/MCprod/ral/kk2f4146/v94c/91.25/kk2f4146_qqardcy_91.25_40340.sdst ! RUN = 40340 ! NEVT = 3000
FILE = /castor/cern.ch/delphi/MCprod/ral/kk2f4146/v94c/91.25/kk2f4146_qqardcy_91.25_40341.sdst ! RUN = 40341 ! NEVT = 3000
FILE = /castor/cern.ch/delphi/MCprod/ral/kk2f4146/v94c/91.25/kk2f4146_qqardcy_91.25_40342.sdst ! RUN = 40342 ! NEVT = 3000
FILE = /castor/cern.ch/delphi/MCprod/ral/kk2f4146/v94c/91.25/kk2f4146_qqardcy_91.25_40343.sdst ! RUN = 40343 ! NEVT = 3000
FILE = /castor/cern.ch/delphi/MCprod/ral/kk2f4146/v94c/91.25/kk2f4146_qqardcy_91.25_40344.sdst ! RUN = 40344 ! NEVT = 3000
FILE = /castor/cern.ch/delphi/MCprod/ral/kk2f4146/v94c/91.25/kk2f4146_qqardcy_91.25_40345.sdst ! RUN = 40345 ! NEVT = 3000
FILE = /castor/cern.ch/delphi/MCprod/ral/kk2f4146/v94c/91.25/kk2f4146_qqardcy_91.25_40346.sdst ! RUN = 40346 ! NEVT = 2999
FILE = /castor/cern.ch/delphi/MCprod/ral/kk2f4146/v94c/91.25/kk2f4146_qqardcy_91.25_40347.sdst ! RUN = 40347 ! NEVT = 3000
FILE = /castor/cern.ch/delphi/MCprod/ral/kk2f4146/v94c/91.25/kk2f4146_qqardcy_91.25_40348.sdst ! RUN = 40348 ! NEVT = 2998
FILE = /castor/cern.ch/delphi/MCprod/ral/kk2f4146/v94c/91.25/kk2f4146_qqardcy_91.25_40349.sdst ! RUN = 40349 ! NEVT = 3000
FILE = /castor/cern.ch/delphi/MCprod/ral/kk2f4146/v94c/91.25/kk2f4146_qqardcy_91.25_40350.sdst ! RUN = 40350 ! NEVT = 3000
FILE = /castor/cern.ch/delphi/MCprod/ral/kk2f4146/v94c/91.25/kk2f4146_qqardcy_91.25_40351.sdst ! RUN = 40351 ! NEVT = 2999
FILE = /castor/cern.ch/delphi/MCprod/ral/kk2f4146/v94c/91.25/kk2f4146_qqardcy_91.25_40352.sdst ! RUN = 40352 ! NEVT = 3000
FILE = /castor/cern.ch/delphi/MCprod/ral/kk2f4146/v94c/91.25/kk2f4146_qqardcy_91.25_40353.sdst ! RUN = 40353 ! NEVT = 3000
FILE = /castor/cern.ch/delphi/MCprod/ral/kk2f4146/v94c/91.25/kk2f4146_qqardcy_91.25_40354.sdst ! RUN = 40354 ! NEVT = 2999
FILE = /castor/cern.ch/delphi/MCprod/ral/kk2f4146/v94c/91.25/kk2f4146_qqardcy_91.25_40355.sdst ! RUN = 40355 ! NEVT = 3000
FILE = /castor/cern.ch/delphi/MCprod/ral/kk2f4146/v94c/91.25/kk2f4146_qqardcy_91.25_40356.sdst ! RUN = 40356 ! NEVT = 3000
FILE = /castor/cern.ch/delphi/MCprod/ral/kk2f4146/v94c/91.25/kk2f4146_qqardcy_91.25_40357.sdst ! RUN = 40357 ! NEVT = 2999
FILE = /castor/cern.ch/delphi/MCprod/ral/kk2f4146/v94c/91.25/kk2f4146_qqardcy_91.25_40358.sdst ! RUN = 40358 ! NEVT = 3000
FILE = /castor/cern.ch/delphi/MCprod/ral/kk2f4146/v94c/91.25/kk2f4146_qqardcy_91.25_40359.sdst ! RUN = 40359 ! NEVT = 3000
FILE = /castor/cern.ch/delphi/MCprod/ral/kk2f4146/v94c/91.25/kk2f4146_qqardcy_91.25_40360.sdst ! RUN = 40360 ! NEVT = 3000
FILE = /castor/cern.ch/delphi/MCprod/ral/kk2f4146/v94c/91.25/kk2f4146_qqardcy_91.25_40361.sdst ! RUN = 40361 ! NEVT = 3000
FILE = /castor/cern.ch/delphi/MCprod/ral/kk2f4146/v94c/91.25/kk2f4146_qqardcy_91.25_40362.sdst ! RUN = 40362 ! NEVT = 3000
FILE = /castor/cern.ch/delphi/MCprod/ral/kk2f4146/v94c/91.25/kk2f4146_qqardcy_91.25_40363.sdst ! RUN = 40363 ! NEVT = 3000
FILE = /castor/cern.ch/delphi/MCprod/ral/kk2f4146/v94c/91.25/kk2f4146_qqardcy_91.25_40364.sdst ! RUN = 40364 ! NEVT = 3000
FILE = /castor/cern.ch/delphi/MCprod/ral/kk2f4146/v94c/91.25/kk2f4146_qqardcy_91.25_40365.sdst ! RUN = 40365 ! NEVT = 3000
FILE = /castor/cern.ch/delphi/MCprod/ral/kk2f4146/v94c/91.25/kk2f4146_qqardcy_91.25_40366.sdst ! RUN = 40366 ! NEVT = 2999
FILE = /castor/cern.ch/delphi/MCprod/ral/kk2f4146/v94c/91.25/kk2f4146_qqardcy_91.25_40367.sdst ! RUN = 40367 ! NEVT = 3000
FILE = /castor/cern.ch/delphi/MCprod/ral/kk2f4146/v94c/91.25/kk2f4146_qqardcy_91.25_40368.sdst ! RUN = 40368 ! NEVT = 3000
FILE = /castor/cern.ch/delphi/MCprod/ral/kk2f4146/v94c/91.25/kk2f4146_qqardcy_91.25_40369.sdst ! RUN = 40369 ! NEVT = 1140
FILE = /castor/cern.ch/delphi/MCprod/ral/kk2f4146/v94c/91.25/kk2f4146_qqardcy_91.25_40370.sdst ! RUN = 40370 ! NEVT = 2999
FILE = /castor/cern.ch/delphi/MCprod/ral/kk2f4146/v94c/91.25/kk2f4146_qqardcy_91.25_40371.sdst ! RUN = 40371 ! NEVT = 2998
FILE = /castor/cern.ch/delphi/MCprod/ral/kk2f4146/v94c/91.25/kk2f4146_qqardcy_91.25_40372.sdst ! RUN = 40372 ! NEVT = 2998
FILE = /castor/cern.ch/delphi/MCprod/ral/kk2f4146/v94c/91.25/kk2f4146_qqardcy_91.25_40373.sdst ! RUN = 40373 ! NEVT = 3000
FILE = /castor/cern.ch/delphi/MCprod/ral/kk2f4146/v94c/91.25/kk2f4146_qqardcy_91.25_40374.sdst ! RUN = 40374 ! NEVT = 3000
FILE = /castor/cern.ch/delphi/MCprod/ral/kk2f4146/v94c/91.25/kk2f4146_qqardcy_91.25_40375.sdst ! RUN = 40375 ! NEVT = 3000
FILE = /castor/cern.ch/delphi/MCprod/ral/kk2f4146/v94c/91.25/kk2f4146_qqardcy_91.25_40376.sdst ! RUN = 40376 ! NEVT = 3000
FILE = /castor/cern.ch/delphi/MCprod/ral/kk2f4146/v94c/91.25/kk2f4146_qqardcy_91.25_40377.sdst ! RUN = 40377 ! NEVT = 2998
FILE = /castor/cern.ch/delphi/MCprod/ral/kk2f4146/v94c/91.25/kk2f4146_qqardcy_91.25_40378.sdst ! RUN = 40378 ! NEVT = 2999
FILE = /castor/cern.ch/delphi/MCprod/ral/kk2f4146/v94c/91.25/kk2f4146_qqardcy_91.25_40379.sdst ! RUN = 40379 ! NEVT = 2999
FILE = /castor/cern.ch/delphi/MCprod/ral/kk2f4146/v94c/91.25/kk2f4146_qqardcy_91.25_40380.sdst ! RUN = 40380 ! NEVT = 3000
FILE = /castor/cern.ch/delphi/MCprod/ral/kk2f4146/v94c/91.25/kk2f4146_qqardcy_91.25_40381.sdst ! RUN = 40381 ! NEVT = 2999
FILE = /castor/cern.ch/delphi/MCprod/ral/kk2f4146/v94c/91.25/kk2f4146_qqardcy_91.25_40382.sdst ! RUN = 40382 ! NEVT = 3000
FILE = /castor/cern.ch/delphi/MCprod/ral/kk2f4146/v94c/91.25/kk2f4146_qqardcy_91.25_40383.sdst ! RUN = 40383 ! NEVT = 2999
FILE = /castor/cern.ch/delphi/MCprod/ral/kk2f4146/v94c/91.25/kk2f4146_qqardcy_91.25_40384.sdst ! RUN = 40384 ! NEVT = 3000
FILE = /castor/cern.ch/delphi/MCprod/ral/kk2f4146/v94c/91.25/kk2f4146_qqardcy_91.25_40385.sdst ! RUN = 40385 ! NEVT = 2998
FILE = /castor/cern.ch/delphi/MCprod/ral/kk2f4146/v94c/91.25/kk2f4146_qqardcy_91.25_40386.sdst ! RUN = 40386 ! NEVT = 3000
FILE = /castor/cern.ch/delphi/MCprod/ral/kk2f4146/v94c/91.25/kk2f4146_qqardcy_91.25_40387.sdst ! RUN = 40387 ! NEVT = 2999
FILE = /castor/cern.ch/delphi/MCprod/ral/kk2f4146/v94c/91.25/kk2f4146_qqardcy_91.25_40388.sdst ! RUN = 40388 ! NEVT = 3000
FILE = /castor/cern.ch/delphi/MCprod/ral/kk2f4146/v94c/91.25/kk2f4146_qqardcy_91.25_40389.sdst ! RUN = 40389 ! NEVT = 3000
FILE = /castor/cern.ch/delphi/MCprod/ral/kk2f4146/v94c/91.25/kk2f4146_qqardcy_91.25_40390.sdst ! RUN = 40390 ! NEVT = 3000
FILE = /castor/cern.ch/delphi/MCprod/ral/kk2f4146/v94c/91.25/kk2f4146_qqardcy_91.25_40391.sdst ! RUN = 40391 ! NEVT = 2999
FILE = /castor/cern.ch/delphi/MCprod/ral/kk2f4146/v94c/91.25/kk2f4146_qqardcy_91.25_40392.sdst ! RUN = 40392 ! NEVT = 2999
FILE = /castor/cern.ch/delphi/MCprod/ral/kk2f4146/v94c/91.25/kk2f4146_qqardcy_91.25_40393.sdst ! RUN = 40393 ! NEVT = 3000
FILE = /castor/cern.ch/delphi/MCprod/ral/kk2f4146/v94c/91.25/kk2f4146_qqardcy_91.25_40394.sdst ! RUN = 40394 ! NEVT = 3000
FILE = /castor/cern.ch/delphi/MCprod/ral/kk2f4146/v94c/91.25/kk2f4146_qqardcy_91.25_40395.sdst ! RUN = 40395 ! NEVT = 3000
FILE = /castor/cern.ch/delphi/MCprod/ral/kk2f4146/v94c/91.25/kk2f4146_qqardcy_91.25_40396.sdst ! RUN = 40396 ! NEVT = 2998
FILE = /castor/cern.ch/delphi/MCprod/ral/kk2f4146/v94c/91.25/kk2f4146_qqardcy_91.25_40397.sdst ! RUN = 40397 ! NEVT = 3000
FILE = /castor/cern.ch/delphi/MCprod/ral/kk2f4146/v94c/91.25/kk2f4146_qqardcy_91.25_40398.sdst ! RUN = 40398 ! NEVT = 3000
FILE = /castor/cern.ch/delphi/MCprod/ral/kk2f4146/v94c/91.25/kk2f4146_qqardcy_91.25_40399.sdst ! RUN = 40399 ! NEVT = 3000
FILE = /castor/cern.ch/delphi/MCprod/ral/kk2f4146/v94c/91.25/kk2f4146_qqardcy_91.25_40400.sdst ! RUN = 40400 ! NEVT = 3000
FILE = /castor/cern.ch/delphi/MCprod/ral/kk2f4146/v94c/91.25/kk2f4146_qqardcy_91.25_40401.sdst ! RUN = 40401 ! NEVT = 3000
FILE = /castor/cern.ch/delphi/MCprod/ral/kk2f4146/v94c/91.25/kk2f4146_qqardcy_91.25_40402.sdst ! RUN = 40402 ! NEVT = 2999
FILE = /castor/cern.ch/delphi/MCprod/ral/kk2f4146/v94c/91.25/kk2f4146_qqardcy_91.25_40403.sdst ! RUN = 40403 ! NEVT = 2707
FILE = /castor/cern.ch/delphi/MCprod/ral/kk2f4146/v94c/91.25/kk2f4146_qqardcy_91.25_40404.sdst ! RUN = 40404 ! NEVT = 3000
FILE = /castor/cern.ch/delphi/MCprod/ral/kk2f4146/v94c/91.25/kk2f4146_qqardcy_91.25_40405.sdst ! RUN = 40405 ! NEVT = 2998
FILE = /castor/cern.ch/delphi/MCprod/ral/kk2f4146/v94c/91.25/kk2f4146_qqardcy_91.25_40406.sdst ! RUN = 40406 ! NEVT = 3000
FILE = /castor/cern.ch/delphi/MCprod/ral/kk2f4146/v94c/91.25/kk2f4146_qqardcy_91.25_40408.sdst ! RUN = 40408 ! NEVT = 2999
FILE = /castor/cern.ch/delphi/MCprod/ral/kk2f4146/v94c/91.25/kk2f4146_qqardcy_91.25_40409.sdst ! RUN = 40409 ! NEVT = 3000
FILE = /castor/cern.ch/delphi/MCprod/ral/kk2f4146/v94c/91.25/kk2f4146_qqardcy_91.25_40410.sdst ! RUN = 40410 ! NEVT = 3000
FILE = /castor/cern.ch/delphi/MCprod/ral/kk2f4146/v94c/91.25/kk2f4146_qqardcy_91.25_40411.sdst ! RUN = 40411 ! NEVT = 3000
FILE = /castor/cern.ch/delphi/MCprod/ral/kk2f4146/v94c/91.25/kk2f4146_qqardcy_91.25_40412.sdst ! RUN = 40412 ! NEVT = 3000
FILE = /castor/cern.ch/delphi/MCprod/ral/kk2f4146/v94c/91.25/kk2f4146_qqardcy_91.25_40413.sdst ! RUN = 40413 ! NEVT = 3000
FILE = /castor/cern.ch/delphi/MCprod/ral/kk2f4146/v94c/91.25/kk2f4146_qqardcy_91.25_40414.sdst ! RUN = 40414 ! NEVT = 3000
FILE = /castor/cern.ch/delphi/MCprod/ral/kk2f4146/v94c/91.25/kk2f4146_qqardcy_91.25_40415.sdst ! RUN = 40415 ! NEVT = 3000
FILE = /castor/cern.ch/delphi/MCprod/ral/kk2f4146/v94c/91.25/kk2f4146_qqardcy_91.25_40416.sdst ! RUN = 40416 ! NEVT = 3000
FILE = /castor/cern.ch/delphi/MCprod/ral/kk2f4146/v94c/91.25/kk2f4146_qqardcy_91.25_40417.sdst ! RUN = 40417 ! NEVT = 3000
FILE = /castor/cern.ch/delphi/MCprod/ral/kk2f4146/v94c/91.25/kk2f4146_qqardcy_91.25_40418.sdst ! RUN = 40418 ! NEVT = 3000
FILE = /castor/cern.ch/delphi/MCprod/ral/kk2f4146/v94c/91.25/kk2f4146_qqardcy_91.25_40419.sdst ! RUN = 40419 ! NEVT = 3000
FILE = /castor/cern.ch/delphi/MCprod/ral/kk2f4146/v94c/91.25/kk2f4146_qqardcy_91.25_40420.sdst ! RUN = 40420 ! NEVT = 3000
FILE = /castor/cern.ch/delphi/MCprod/ral/kk2f4146/v94c/91.25/kk2f4146_qqardcy_91.25_40421.sdst ! RUN = 40421 ! NEVT = 3000
FILE = /castor/cern.ch/delphi/MCprod/ral/kk2f4146/v94c/91.25/kk2f4146_qqardcy_91.25_40422.sdst ! RUN = 40422 ! NEVT = 3000
FILE = /castor/cern.ch/delphi/MCprod/ral/kk2f4146/v94c/91.25/kk2f4146_qqardcy_91.25_40423.sdst ! RUN = 40423 ! NEVT = 3000
FILE = /castor/cern.ch/delphi/MCprod/ral/kk2f4146/v94c/91.25/kk2f4146_qqardcy_91.25_40424.sdst ! RUN = 40424 ! NEVT = 3000
FILE = /castor/cern.ch/delphi/MCprod/ral/kk2f4146/v94c/91.25/kk2f4146_qqardcy_91.25_40425.sdst ! RUN = 40425 ! NEVT = 3000
FILE = /castor/cern.ch/delphi/MCprod/ral/kk2f4146/v94c/91.25/kk2f4146_qqardcy_91.25_40426.sdst ! RUN = 40426 ! NEVT = 2999
FILE = /castor/cern.ch/delphi/MCprod/ral/kk2f4146/v94c/91.25/kk2f4146_qqardcy_91.25_40427.sdst ! RUN = 40427 ! NEVT = 3000
FILE = /castor/cern.ch/delphi/MCprod/ral/kk2f4146/v94c/91.25/kk2f4146_qqardcy_91.25_40428.sdst ! RUN = 40428 ! NEVT = 3000
FILE = /castor/cern.ch/delphi/MCprod/ral/kk2f4146/v94c/91.25/kk2f4146_qqardcy_91.25_40430.sdst ! RUN = 40430 ! NEVT = 3000
FILE = /castor/cern.ch/delphi/MCprod/ral/kk2f4146/v94c/91.25/kk2f4146_qqardcy_91.25_40431.sdst ! RUN = 40431 ! NEVT = 3000
FILE = /castor/cern.ch/delphi/MCprod/ral/kk2f4146/v94c/91.25/kk2f4146_qqardcy_91.25_40432.sdst ! RUN = 40432 ! NEVT = 3000
FILE = /castor/cern.ch/delphi/MCprod/ral/kk2f4146/v94c/91.25/kk2f4146_qqardcy_91.25_40434.sdst ! RUN = 40434 ! NEVT = 3000
FILE = /castor/cern.ch/delphi/MCprod/ral/kk2f4146/v94c/91.25/kk2f4146_qqardcy_91.25_40435.sdst ! RUN = 40435 ! NEVT = 3000
FILE = /castor/cern.ch/delphi/MCprod/ral/kk2f4146/v94c/91.25/kk2f4146_qqardcy_91.25_40436.sdst ! RUN = 40436 ! NEVT = 2999
FILE = /castor/cern.ch/delphi/MCprod/ral/kk2f4146/v94c/91.25/kk2f4146_qqardcy_91.25_40437.sdst ! RUN = 40437 ! NEVT = 3000
FILE = /castor/cern.ch/delphi/MCprod/ral/kk2f4146/v94c/91.25/kk2f4146_qqardcy_91.25_40438.sdst ! RUN = 40438 ! NEVT = 3000
FILE = /castor/cern.ch/delphi/MCprod/ral/kk2f4146/v94c/91.25/kk2f4146_qqardcy_91.25_40439.sdst ! RUN = 40439 ! NEVT = 2999
FILE = /castor/cern.ch/delphi/MCprod/ral/kk2f4146/v94c/91.25/kk2f4146_qqardcy_91.25_40440.sdst ! RUN = 40440 ! NEVT = 3000
FILE = /castor/cern.ch/delphi/MCprod/ral/kk2f4146/v94c/91.25/kk2f4146_qqardcy_91.25_40441.sdst ! RUN = 40441 ! NEVT = 2999
FILE = /castor/cern.ch/delphi/MCprod/ral/kk2f4146/v94c/91.25/kk2f4146_qqardcy_91.25_40442.sdst ! RUN = 40442 ! NEVT = 3000
FILE = /castor/cern.ch/delphi/MCprod/ral/kk2f4146/v94c/91.25/kk2f4146_qqardcy_91.25_40443.sdst ! RUN = 40443 ! NEVT = 3000
FILE = /castor/cern.ch/delphi/MCprod/ral/kk2f4146/v94c/91.25/kk2f4146_qqardcy_91.25_40444.sdst ! RUN = 40444 ! NEVT = 3000
FILE = /castor/cern.ch/delphi/MCprod/ral/kk2f4146/v94c/91.25/kk2f4146_qqardcy_91.25_40445.sdst ! RUN = 40445 ! NEVT = 3000
FILE = /castor/cern.ch/delphi/MCprod/ral/kk2f4146/v94c/91.25/kk2f4146_qqardcy_91.25_40446.sdst ! RUN = 40446 ! NEVT = 3000
FILE = /castor/cern.ch/delphi/MCprod/ral/kk2f4146/v94c/91.25/kk2f4146_qqardcy_91.25_40447.sdst ! RUN = 40447 ! NEVT = 1384
FILE = /castor/cern.ch/delphi/MCprod/ral/kk2f4146/v94c/91.25/kk2f4146_qqardcy_91.25_40448.sdst ! RUN = 40448 ! NEVT = 3000
FILE = /castor/cern.ch/delphi/MCprod/ral/kk2f4146/v94c/91.25/kk2f4146_qqardcy_91.25_40449.sdst ! RUN = 40449 ! NEVT = 2998
FILE = /castor/cern.ch/delphi/MCprod/ral/kk2f4146/v94c/91.25/kk2f4146_qqardcy_91.25_40450.sdst ! RUN = 40450 ! NEVT = 3000
FILE = /castor/cern.ch/delphi/MCprod/ral/kk2f4146/v94c/91.25/kk2f4146_qqardcy_91.25_40451.sdst ! RUN = 40451 ! NEVT = 2999
FILE = /castor/cern.ch/delphi/MCprod/ral/kk2f4146/v94c/91.25/kk2f4146_qqardcy_91.25_40452.sdst ! RUN = 40452 ! NEVT = 3000
FILE = /castor/cern.ch/delphi/MCprod/ral/kk2f4146/v94c/91.25/kk2f4146_qqardcy_91.25_40454.sdst ! RUN = 40454 ! NEVT = 3000
FILE = /castor/cern.ch/delphi/MCprod/ral/kk2f4146/v94c/91.25/kk2f4146_qqardcy_91.25_40455.sdst ! RUN = 40455 ! NEVT = 3000
FILE = /castor/cern.ch/delphi/MCprod/ral/kk2f4146/v94c/91.25/kk2f4146_qqardcy_91.25_40456.sdst ! RUN = 40456 ! NEVT = 2999
FILE = /castor/cern.ch/delphi/MCprod/ral/kk2f4146/v94c/91.25/kk2f4146_qqardcy_91.25_40457.sdst ! RUN = 40457 ! NEVT = 3000
FILE = /castor/cern.ch/delphi/MCprod/ral/kk2f4146/v94c/91.25/kk2f4146_qqardcy_91.25_40458.sdst ! RUN = 40458 ! NEVT = 3000
FILE = /castor/cern.ch/delphi/MCprod/ral/kk2f4146/v94c/91.25/kk2f4146_qqardcy_91.25_40459.sdst ! RUN = 40459 ! NEVT = 3000
FILE = /castor/cern.ch/delphi/MCprod/ral/kk2f4146/v94c/91.25/kk2f4146_qqardcy_91.25_40460.sdst ! RUN = 40460 ! NEVT = 3000
FILE = /castor/cern.ch/delphi/MCprod/ral/kk2f4146/v94c/91.25/kk2f4146_qqardcy_91.25_40461.sdst ! RUN = 40461 ! NEVT = 3000
FILE = /castor/cern.ch/delphi/MCprod/ral/kk2f4146/v94c/91.25/kk2f4146_qqardcy_91.25_40462.sdst ! RUN = 40462 ! NEVT = 2999
FILE = /castor/cern.ch/delphi/MCprod/ral/kk2f4146/v94c/91.25/kk2f4146_qqardcy_91.25_40463.sdst ! RUN = 40463 ! NEVT = 3000
FILE = /castor/cern.ch/delphi/MCprod/ral/kk2f4146/v94c/91.25/kk2f4146_qqardcy_91.25_40464.sdst ! RUN = 40464 ! NEVT = 3000
FILE = /castor/cern.ch/delphi/MCprod/ral/kk2f4146/v94c/91.25/kk2f4146_qqardcy_91.25_40465.sdst ! RUN = 40465 ! NEVT = 3000
FILE = /castor/cern.ch/delphi/MCprod/ral/kk2f4146/v94c/91.25/kk2f4146_qqardcy_91.25_40466.sdst ! RUN = 40466 ! NEVT = 3000
FILE = /castor/cern.ch/delphi/MCprod/ral/kk2f4146/v94c/91.25/kk2f4146_qqardcy_91.25_40467.sdst ! RUN = 40467 ! NEVT = 3000
FILE = /castor/cern.ch/delphi/MCprod/ral/kk2f4146/v94c/91.25/kk2f4146_qqardcy_91.25_40468.sdst ! RUN = 40468 ! NEVT = 3000
FILE = /castor/cern.ch/delphi/MCprod/ral/kk2f4146/v94c/91.25/kk2f4146_qqardcy_91.25_40469.sdst ! RUN = 40469 ! NEVT = 3000
FILE = /castor/cern.ch/delphi/MCprod/ral/kk2f4146/v94c/91.25/kk2f4146_qqardcy_91.25_40470.sdst ! RUN = 40470 ! NEVT = 349
FILE = /castor/cern.ch/delphi/MCprod/ral/kk2f4146/v94c/91.25/kk2f4146_qqardcy_91.25_40471.sdst ! RUN = 40471 ! NEVT = 3000
FILE = /castor/cern.ch/delphi/MCprod/ral/kk2f4146/v94c/91.25/kk2f4146_qqardcy_91.25_40472.sdst ! RUN = 40472 ! NEVT = 3000
FILE = /castor/cern.ch/delphi/MCprod/ral/kk2f4146/v94c/91.25/kk2f4146_qqardcy_91.25_40473.sdst ! RUN = 40473 ! NEVT = 3000
FILE = /castor/cern.ch/delphi/MCprod/ral/kk2f4146/v94c/91.25/kk2f4146_qqardcy_91.25_40474.sdst ! RUN = 40474 ! NEVT = 2999
FILE = /castor/cern.ch/delphi/MCprod/ral/kk2f4146/v94c/91.25/kk2f4146_qqardcy_91.25_40475.sdst ! RUN = 40475 ! NEVT = 3000
FILE = /castor/cern.ch/delphi/MCprod/ral/kk2f4146/v94c/91.25/kk2f4146_qqardcy_91.25_40476.sdst ! RUN = 40476 ! NEVT = 3000
FILE = /castor/cern.ch/delphi/MCprod/ral/kk2f4146/v94c/91.25/kk2f4146_qqardcy_91.25_40477.sdst ! RUN = 40477 ! NEVT = 3000
FILE = /castor/cern.ch/delphi/MCprod/ral/kk2f4146/v94c/91.25/kk2f4146_qqardcy_91.25_40478.sdst ! RUN = 40478 ! NEVT = 3000
FILE = /castor/cern.ch/delphi/MCprod/ral/kk2f4146/v94c/91.25/kk2f4146_qqardcy_91.25_40479.sdst ! RUN = 40479 ! NEVT = 2999
FILE = /castor/cern.ch/delphi/MCprod/ral/kk2f4146/v94c/91.25/kk2f4146_qqardcy_91.25_40480.sdst ! RUN = 40480 ! NEVT = 2999
FILE = /castor/cern.ch/delphi/MCprod/ral/kk2f4146/v94c/91.25/kk2f4146_qqardcy_91.25_40481.sdst ! RUN = 40481 ! NEVT = 3000
FILE = /castor/cern.ch/delphi/MCprod/ral/kk2f4146/v94c/91.25/kk2f4146_qqardcy_91.25_40482.sdst ! RUN = 40482 ! NEVT = 3000
FILE = /castor/cern.ch/delphi/MCprod/ral/kk2f4146/v94c/91.25/kk2f4146_qqardcy_91.25_40483.sdst ! RUN = 40483 ! NEVT = 3000
FILE = /castor/cern.ch/delphi/MCprod/ral/kk2f4146/v94c/91.25/kk2f4146_qqardcy_91.25_40484.sdst ! RUN = 40484 ! NEVT = 2999
FILE = /castor/cern.ch/delphi/MCprod/ral/kk2f4146/v94c/91.25/kk2f4146_qqardcy_91.25_40485.sdst ! RUN = 40485 ! NEVT = 3000
FILE = /castor/cern.ch/delphi/MCprod/ral/kk2f4146/v94c/91.25/kk2f4146_qqardcy_91.25_40486.sdst ! RUN = 40486 ! NEVT = 2999
FILE = /castor/cern.ch/delphi/MCprod/ral/kk2f4146/v94c/91.25/kk2f4146_qqardcy_91.25_40487.sdst ! RUN = 40487 ! NEVT = 3000
FILE = /castor/cern.ch/delphi/MCprod/ral/kk2f4146/v94c/91.25/kk2f4146_qqardcy_91.25_40488.sdst ! RUN = 40488 ! NEVT = 3000
FILE = /castor/cern.ch/delphi/MCprod/ral/kk2f4146/v94c/91.25/kk2f4146_qqardcy_91.25_40489.sdst ! RUN = 40489 ! NEVT = 3000
FILE = /castor/cern.ch/delphi/MCprod/ral/kk2f4146/v94c/91.25/kk2f4146_qqardcy_91.25_40490.sdst ! RUN = 40490 ! NEVT = 3000
FILE = /castor/cern.ch/delphi/MCprod/ral/kk2f4146/v94c/91.25/kk2f4146_qqardcy_91.25_40491.sdst ! RUN = 40491 ! NEVT = 3000
FILE = /castor/cern.ch/delphi/MCprod/ral/kk2f4146/v94c/91.25/kk2f4146_qqardcy_91.25_40492.sdst ! RUN = 40492 ! NEVT = 3000
FILE = /castor/cern.ch/delphi/MCprod/ral/kk2f4146/v94c/91.25/kk2f4146_qqardcy_91.25_40493.sdst ! RUN = 40493 ! NEVT = 3000
FILE = /castor/cern.ch/delphi/MCprod/ral/kk2f4146/v94c/91.25/kk2f4146_qqardcy_91.25_40494.sdst ! RUN = 40494 ! NEVT = 3000
FILE = /castor/cern.ch/delphi/MCprod/ral/kk2f4146/v94c/91.25/kk2f4146_qqardcy_91.25_40495.sdst ! RUN = 40495 ! NEVT = 3000
FILE = /castor/cern.ch/delphi/MCprod/ral/kk2f4146/v94c/91.25/kk2f4146_qqardcy_91.25_40496.sdst ! RUN = 40496 ! NEVT = 3000
FILE = /castor/cern.ch/delphi/MCprod/ral/kk2f4146/v94c/91.25/kk2f4146_qqardcy_91.25_40497.sdst ! RUN = 40497 ! NEVT = 3000
FILE = /castor/cern.ch/delphi/MCprod/ral/kk2f4146/v94c/91.25/kk2f4146_qqardcy_91.25_40498.sdst ! RUN = 40498 ! NEVT = 3000
FILE = /castor/cern.ch/delphi/MCprod/ral/kk2f4146/v94c/91.25/kk2f4146_qqardcy_91.25_40499.sdst ! RUN = 40499 ! NEVT = 3000
FILE = /castor/cern.ch/delphi/MCprod/ral/kk2f4146/v94c/91.25/kk2f4146_qqardcy_91.25_40500.sdst ! RUN = 40500 ! NEVT = 3000
FILE = /castor/cern.ch/delphi/MCprod/ral/kk2f4146/v94c/91.25/kk2f4146_qqardcy_91.25_40501.sdst ! RUN = 40501 ! NEVT = 3000
FILE = /castor/cern.ch/delphi/MCprod/ral/kk2f4146/v94c/91.25/kk2f4146_qqardcy_91.25_40502.sdst ! RUN = 40502 ! NEVT = 3000
FILE = /castor/cern.ch/delphi/MCprod/ral/kk2f4146/v94c/91.25/kk2f4146_qqardcy_91.25_40503.sdst ! RUN = 40503 ! NEVT = 3000
FILE = /castor/cern.ch/delphi/MCprod/ral/kk2f4146/v94c/91.25/kk2f4146_qqardcy_91.25_40504.sdst ! RUN = 40504 ! NEVT = 3000
FILE = /castor/cern.ch/delphi/MCprod/ral/kk2f4146/v94c/91.25/kk2f4146_qqardcy_91.25_40505.sdst ! RUN = 40505 ! NEVT = 2998
FILE = /castor/cern.ch/delphi/MCprod/ral/kk2f4146/v94c/91.25/kk2f4146_qqardcy_91.25_40506.sdst ! RUN = 40506 ! NEVT = 3000
FILE = /castor/cern.ch/delphi/MCprod/ral/kk2f4146/v94c/91.25/kk2f4146_qqardcy_91.25_40507.sdst ! RUN = 40507 ! NEVT = 2999
FILE = /castor/cern.ch/delphi/MCprod/ral/kk2f4146/v94c/91.25/kk2f4146_qqardcy_91.25_40508.sdst ! RUN = 40508 ! NEVT = 3000
FILE = /castor/cern.ch/delphi/MCprod/ral/kk2f4146/v94c/91.25/kk2f4146_qqardcy_91.25_40509.sdst ! RUN = 40509 ! NEVT = 2999
FILE = /castor/cern.ch/delphi/MCprod/ral/kk2f4146/v94c/91.25/kk2f4146_qqardcy_91.25_40510.sdst ! RUN = 40510 ! NEVT = 3000
FILE = /castor/cern.ch/delphi/MCprod/ral/kk2f4146/v94c/91.25/kk2f4146_qqardcy_91.25_40512.sdst ! RUN = 40512 ! NEVT = 3000
FILE = /castor/cern.ch/delphi/MCprod/ral/kk2f4146/v94c/91.25/kk2f4146_qqardcy_91.25_40513.sdst ! RUN = 40513 ! NEVT = 3000
FILE = /castor/cern.ch/delphi/MCprod/ral/kk2f4146/v94c/91.25/kk2f4146_qqardcy_91.25_40514.sdst ! RUN = 40514 ! NEVT = 3000
FILE = /castor/cern.ch/delphi/MCprod/ral/kk2f4146/v94c/91.25/kk2f4146_qqardcy_91.25_40515.sdst ! RUN = 40515 ! NEVT = 3000
FILE = /castor/cern.ch/delphi/MCprod/ral/kk2f4146/v94c/91.25/kk2f4146_qqardcy_91.25_40516.sdst ! RUN = 40516 ! NEVT = 577
FILE = /castor/cern.ch/delphi/MCprod/ral/kk2f4146/v94c/91.25/kk2f4146_qqardcy_91.25_40517.sdst ! RUN = 40517 ! NEVT = 3000
FILE = /castor/cern.ch/delphi/MCprod/ral/kk2f4146/v94c/91.25/kk2f4146_qqardcy_91.25_40518.sdst ! RUN = 40518 ! NEVT = 3000
FILE = /castor/cern.ch/delphi/MCprod/ral/kk2f4146/v94c/91.25/kk2f4146_qqardcy_91.25_40519.sdst ! RUN = 40519 ! NEVT = 1114
FILE = /castor/cern.ch/delphi/MCprod/ral/kk2f4146/v94c/91.25/kk2f4146_qqardcy_91.25_40520.sdst ! RUN = 40520 ! NEVT = 3000
FILE = /castor/cern.ch/delphi/MCprod/ral/kk2f4146/v94c/91.25/kk2f4146_qqardcy_91.25_40521.sdst ! RUN = 40521 ! NEVT = 3000
FILE = /castor/cern.ch/delphi/MCprod/ral/kk2f4146/v94c/91.25/kk2f4146_qqardcy_91.25_40522.sdst ! RUN = 40522 ! NEVT = 3000
FILE = /castor/cern.ch/delphi/MCprod/ral/kk2f4146/v94c/91.25/kk2f4146_qqardcy_91.25_40523.sdst ! RUN = 40523 ! NEVT = 3000
FILE = /castor/cern.ch/delphi/MCprod/ral/kk2f4146/v94c/91.25/kk2f4146_qqardcy_91.25_40524.sdst ! RUN = 40524 ! NEVT = 3000
FILE = /castor/cern.ch/delphi/MCprod/ral/kk2f4146/v94c/91.25/kk2f4146_qqardcy_91.25_40525.sdst ! RUN = 40525 ! NEVT = 3000
FILE = /castor/cern.ch/delphi/MCprod/ral/kk2f4146/v94c/91.25/kk2f4146_qqardcy_91.25_40526.sdst ! RUN = 40526 ! NEVT = 3000
FILE = /castor/cern.ch/delphi/MCprod/ral/kk2f4146/v94c/91.25/kk2f4146_qqardcy_91.25_40527.sdst ! RUN = 40527 ! NEVT = 2999
FILE = /castor/cern.ch/delphi/MCprod/ral/kk2f4146/v94c/91.25/kk2f4146_qqardcy_91.25_40528.sdst ! RUN = 40528 ! NEVT = 2999
FILE = /castor/cern.ch/delphi/MCprod/ral/kk2f4146/v94c/91.25/kk2f4146_qqardcy_91.25_40529.sdst ! RUN = 40529 ! NEVT = 3000
FILE = /castor/cern.ch/delphi/MCprod/ral/kk2f4146/v94c/91.25/kk2f4146_qqardcy_91.25_40530.sdst ! RUN = 40530 ! NEVT = 3000
FILE = /castor/cern.ch/delphi/MCprod/ral/kk2f4146/v94c/91.25/kk2f4146_qqardcy_91.25_40531.sdst ! RUN = 40531 ! NEVT = 3000
FILE = /castor/cern.ch/delphi/MCprod/ral/kk2f4146/v94c/91.25/kk2f4146_qqardcy_91.25_40532.sdst ! RUN = 40532 ! NEVT = 3000
FILE = /castor/cern.ch/delphi/MCprod/ral/kk2f4146/v94c/91.25/kk2f4146_qqardcy_91.25_40533.sdst ! RUN = 40533 ! NEVT = 3000
FILE = /castor/cern.ch/delphi/MCprod/ral/kk2f4146/v94c/91.25/kk2f4146_qqardcy_91.25_40534.sdst ! RUN = 40534 ! NEVT = 2997
FILE = /castor/cern.ch/delphi/MCprod/ral/kk2f4146/v94c/91.25/kk2f4146_qqardcy_91.25_40535.sdst ! RUN = 40535 ! NEVT = 3000
FILE = /castor/cern.ch/delphi/MCprod/ral/kk2f4146/v94c/91.25/kk2f4146_qqardcy_91.25_40536.sdst ! RUN = 40536 ! NEVT = 1298
FILE = /castor/cern.ch/delphi/MCprod/ral/kk2f4146/v94c/91.25/kk2f4146_qqardcy_91.25_40537.sdst ! RUN = 40537 ! NEVT = 3000
FILE = /castor/cern.ch/delphi/MCprod/ral/kk2f4146/v94c/91.25/kk2f4146_qqardcy_91.25_40538.sdst ! RUN = 40538 ! NEVT = 3000
FILE = /castor/cern.ch/delphi/MCprod/ral/kk2f4146/v94c/91.25/kk2f4146_qqardcy_91.25_40539.sdst ! RUN = 40539 ! NEVT = 3000
FILE = /castor/cern.ch/delphi/MCprod/ral/kk2f4146/v94c/91.25/kk2f4146_qqardcy_91.25_40540.sdst ! RUN = 40540 ! NEVT = 3000
FILE = /castor/cern.ch/delphi/MCprod/ral/kk2f4146/v94c/91.25/kk2f4146_qqardcy_91.25_40541.sdst ! RUN = 40541 ! NEVT = 3000
FILE = /castor/cern.ch/delphi/MCprod/ral/kk2f4146/v94c/91.25/kk2f4146_qqardcy_91.25_40542.sdst ! RUN = 40542 ! NEVT = 2999
FILE = /castor/cern.ch/delphi/MCprod/ral/kk2f4146/v94c/91.25/kk2f4146_qqardcy_91.25_40543.sdst ! RUN = 40543 ! NEVT = 3000
FILE = /castor/cern.ch/delphi/MCprod/ral/kk2f4146/v94c/91.25/kk2f4146_qqardcy_91.25_40544.sdst ! RUN = 40544 ! NEVT = 3000
FILE = /castor/cern.ch/delphi/MCprod/ral/kk2f4146/v94c/91.25/kk2f4146_qqardcy_91.25_40545.sdst ! RUN = 40545 ! NEVT = 3000
FILE = /castor/cern.ch/delphi/MCprod/ral/kk2f4146/v94c/91.25/kk2f4146_qqardcy_91.25_40546.sdst ! RUN = 40546 ! NEVT = 701
FILE = /castor/cern.ch/delphi/MCprod/ral/kk2f4146/v94c/91.25/kk2f4146_qqardcy_91.25_40548.sdst ! RUN = 40548 ! NEVT = 2999
FILE = /castor/cern.ch/delphi/MCprod/ral/kk2f4146/v94c/91.25/kk2f4146_qqardcy_91.25_40549.sdst ! RUN = 40549 ! NEVT = 3000
FILE = /castor/cern.ch/delphi/MCprod/ral/kk2f4146/v94c/91.25/kk2f4146_qqardcy_91.25_40550.sdst ! RUN = 40550 ! NEVT = 2999
FILE = /castor/cern.ch/delphi/MCprod/ral/kk2f4146/v94c/91.25/kk2f4146_qqardcy_91.25_40551.sdst ! RUN = 40551 ! NEVT = 2999
FILE = /castor/cern.ch/delphi/MCprod/ral/kk2f4146/v94c/91.25/kk2f4146_qqardcy_91.25_40552.sdst ! RUN = 40552 ! NEVT = 2999
FILE = /castor/cern.ch/delphi/MCprod/ral/kk2f4146/v94c/91.25/kk2f4146_qqardcy_91.25_40553.sdst ! RUN = 40553 ! NEVT = 2999
FILE = /castor/cern.ch/delphi/MCprod/ral/kk2f4146/v94c/91.25/kk2f4146_qqardcy_91.25_40554.sdst ! RUN = 40554 ! NEVT = 2999
FILE = /castor/cern.ch/delphi/MCprod/ral/kk2f4146/v94c/91.25/kk2f4146_qqardcy_91.25_40555.sdst ! RUN = 40555 ! NEVT = 2999
FILE = /castor/cern.ch/delphi/MCprod/ral/kk2f4146/v94c/91.25/kk2f4146_qqardcy_91.25_40556.sdst ! RUN = 40556 ! NEVT = 3000
FILE = /castor/cern.ch/delphi/MCprod/ral/kk2f4146/v94c/91.25/kk2f4146_qqardcy_91.25_40557.sdst ! RUN = 40557 ! NEVT = 2999
FILE = /castor/cern.ch/delphi/MCprod/ral/kk2f4146/v94c/91.25/kk2f4146_qqardcy_91.25_40558.sdst ! RUN = 40558 ! NEVT = 2999
FILE = /castor/cern.ch/delphi/MCprod/ral/kk2f4146/v94c/91.25/kk2f4146_qqardcy_91.25_40559.sdst ! RUN = 40559 ! NEVT = 3000
FILE = /castor/cern.ch/delphi/MCprod/ral/kk2f4146/v94c/91.25/kk2f4146_qqardcy_91.25_40560.sdst ! RUN = 40560 ! NEVT = 3000
FILE = /castor/cern.ch/delphi/MCprod/ral/kk2f4146/v94c/91.25/kk2f4146_qqardcy_91.25_40561.sdst ! RUN = 40561 ! NEVT = 3000
FILE = /castor/cern.ch/delphi/MCprod/ral/kk2f4146/v94c/91.25/kk2f4146_qqardcy_91.25_40562.sdst ! RUN = 40562 ! NEVT = 3000
FILE = /castor/cern.ch/delphi/MCprod/ral/kk2f4146/v94c/91.25/kk2f4146_qqardcy_91.25_40563.sdst ! RUN = 40563 ! NEVT = 3000
FILE = /castor/cern.ch/delphi/MCprod/ral/kk2f4146/v94c/91.25/kk2f4146_qqardcy_91.25_40564.sdst ! RUN = 40564 ! NEVT = 3000
FILE = /castor/cern.ch/delphi/MCprod/ral/kk2f4146/v94c/91.25/kk2f4146_qqardcy_91.25_40565.sdst ! RUN = 40565 ! NEVT = 3000
FILE = /castor/cern.ch/delphi/MCprod/ral/kk2f4146/v94c/91.25/kk2f4146_qqardcy_91.25_40566.sdst ! RUN = 40566 ! NEVT = 2999
FILE = /castor/cern.ch/delphi/MCprod/ral/kk2f4146/v94c/91.25/kk2f4146_qqardcy_91.25_40567.sdst ! RUN = 40567 ! NEVT = 3000
FILE = /castor/cern.ch/delphi/MCprod/ral/kk2f4146/v94c/91.25/kk2f4146_qqardcy_91.25_40568.sdst ! RUN = 40568 ! NEVT = 2999
FILE = /castor/cern.ch/delphi/MCprod/ral/kk2f4146/v94c/91.25/kk2f4146_qqardcy_91.25_40569.sdst ! RUN = 40569 ! NEVT = 3000
FILE = /castor/cern.ch/delphi/MCprod/ral/kk2f4146/v94c/91.25/kk2f4146_qqardcy_91.25_40570.sdst ! RUN = 40570 ! NEVT = 3000
FILE = /castor/cern.ch/delphi/MCprod/ral/kk2f4146/v94c/91.25/kk2f4146_qqardcy_91.25_40571.sdst ! RUN = 40571 ! NEVT = 3000
FILE = /castor/cern.ch/delphi/MCprod/ral/kk2f4146/v94c/91.25/kk2f4146_qqardcy_91.25_40572.sdst ! RUN = 40572 ! NEVT = 2999
FILE = /castor/cern.ch/delphi/MCprod/ral/kk2f4146/v94c/91.25/kk2f4146_qqardcy_91.25_40573.sdst ! RUN = 40573 ! NEVT = 2999
FILE = /castor/cern.ch/delphi/MCprod/ral/kk2f4146/v94c/91.25/kk2f4146_qqardcy_91.25_40574.sdst ! RUN = 40574 ! NEVT = 3000
FILE = /castor/cern.ch/delphi/MCprod/ral/kk2f4146/v94c/91.25/kk2f4146_qqardcy_91.25_40575.sdst ! RUN = 40575 ! NEVT = 3000
FILE = /castor/cern.ch/delphi/MCprod/ral/kk2f4146/v94c/91.25/kk2f4146_qqardcy_91.25_40576.sdst ! RUN = 40576 ! NEVT = 3000
FILE = /castor/cern.ch/delphi/MCprod/ral/kk2f4146/v94c/91.25/kk2f4146_qqardcy_91.25_40577.sdst ! RUN = 40577 ! NEVT = 3000
FILE = /castor/cern.ch/delphi/MCprod/ral/kk2f4146/v94c/91.25/kk2f4146_qqardcy_91.25_40578.sdst ! RUN = 40578 ! NEVT = 371
FILE = /castor/cern.ch/delphi/MCprod/ral/kk2f4146/v94c/91.25/kk2f4146_qqardcy_91.25_40579.sdst ! RUN = 40579 ! NEVT = 3000
FILE = /castor/cern.ch/delphi/MCprod/ral/kk2f4146/v94c/91.25/kk2f4146_qqardcy_91.25_40580.sdst ! RUN = 40580 ! NEVT = 2999
FILE = /castor/cern.ch/delphi/MCprod/ral/kk2f4146/v94c/91.25/kk2f4146_qqardcy_91.25_40581.sdst ! RUN = 40581 ! NEVT = 3000
FILE = /castor/cern.ch/delphi/MCprod/ral/kk2f4146/v94c/91.25/kk2f4146_qqardcy_91.25_40582.sdst ! RUN = 40582 ! NEVT = 3000
FILE = /castor/cern.ch/delphi/MCprod/ral/kk2f4146/v94c/91.25/kk2f4146_qqardcy_91.25_40583.sdst ! RUN = 40583 ! NEVT = 3000
FILE = /castor/cern.ch/delphi/MCprod/ral/kk2f4146/v94c/91.25/kk2f4146_qqardcy_91.25_40584.sdst ! RUN = 40584 ! NEVT = 3000
FILE = /castor/cern.ch/delphi/MCprod/ral/kk2f4146/v94c/91.25/kk2f4146_qqardcy_91.25_40585.sdst ! RUN = 40585 ! NEVT = 1348
FILE = /castor/cern.ch/delphi/MCprod/ral/kk2f4146/v94c/91.25/kk2f4146_qqardcy_91.25_40586.sdst ! RUN = 40586 ! NEVT = 3000
FILE = /castor/cern.ch/delphi/MCprod/ral/kk2f4146/v94c/91.25/kk2f4146_qqardcy_91.25_40587.sdst ! RUN = 40587 ! NEVT = 2999
FILE = /castor/cern.ch/delphi/MCprod/ral/kk2f4146/v94c/91.25/kk2f4146_qqardcy_91.25_40588.sdst ! RUN = 40588 ! NEVT = 2999
FILE = /castor/cern.ch/delphi/MCprod/ral/kk2f4146/v94c/91.25/kk2f4146_qqardcy_91.25_40589.sdst ! RUN = 40589 ! NEVT = 3000
FILE = /castor/cern.ch/delphi/MCprod/ral/kk2f4146/v94c/91.25/kk2f4146_qqardcy_91.25_40590.sdst ! RUN = 40590 ! NEVT = 3000
FILE = /castor/cern.ch/delphi/MCprod/ral/kk2f4146/v94c/91.25/kk2f4146_qqardcy_91.25_40591.sdst ! RUN = 40591 ! NEVT = 3000
FILE = /castor/cern.ch/delphi/MCprod/ral/kk2f4146/v94c/91.25/kk2f4146_qqardcy_91.25_40592.sdst ! RUN = 40592 ! NEVT = 3000
FILE = /castor/cern.ch/delphi/MCprod/ral/kk2f4146/v94c/91.25/kk2f4146_qqardcy_91.25_40593.sdst ! RUN = 40593 ! NEVT = 2999
FILE = /castor/cern.ch/delphi/MCprod/ral/kk2f4146/v94c/91.25/kk2f4146_qqardcy_91.25_40594.sdst ! RUN = 40594 ! NEVT = 3000
FILE = /castor/cern.ch/delphi/MCprod/ral/kk2f4146/v94c/91.25/kk2f4146_qqardcy_91.25_40595.sdst ! RUN = 40595 ! NEVT = 3000
FILE = /castor/cern.ch/delphi/MCprod/ral/kk2f4146/v94c/91.25/kk2f4146_qqardcy_91.25_40596.sdst ! RUN = 40596 ! NEVT = 2999
FILE = /castor/cern.ch/delphi/MCprod/ral/kk2f4146/v94c/91.25/kk2f4146_qqardcy_91.25_40597.sdst ! RUN = 40597 ! NEVT = 3000
FILE = /castor/cern.ch/delphi/MCprod/ral/kk2f4146/v94c/91.25/kk2f4146_qqardcy_91.25_40598.sdst ! RUN = 40598 ! NEVT = 2999
FILE = /castor/cern.ch/delphi/MCprod/ral/kk2f4146/v94c/91.25/kk2f4146_qqardcy_91.25_40599.sdst ! RUN = 40599 ! NEVT = 3000
FILE = /castor/cern.ch/delphi/MCprod/ral/kk2f4146/v94c/91.25/kk2f4146_qqardcy_91.25_40600.sdst ! RUN = 40600 ! NEVT = 3000
FILE = /castor/cern.ch/delphi/MCprod/ral/kk2f4146/v94c/91.25/kk2f4146_qqardcy_91.25_40601.sdst ! RUN = 40601 ! NEVT = 3000
FILE = /castor/cern.ch/delphi/MCprod/ral/kk2f4146/v94c/91.25/kk2f4146_qqardcy_91.25_40602.sdst ! RUN = 40602 ! NEVT = 3000
FILE = /castor/cern.ch/delphi/MCprod/ral/kk2f4146/v94c/91.25/kk2f4146_qqardcy_91.25_40603.sdst ! RUN = 40603 ! NEVT = 3000
FILE = /castor/cern.ch/delphi/MCprod/ral/kk2f4146/v94c/91.25/kk2f4146_qqardcy_91.25_40604.sdst ! RUN = 40604 ! NEVT = 2999
FILE = /castor/cern.ch/delphi/MCprod/ral/kk2f4146/v94c/91.25/kk2f4146_qqardcy_91.25_40605.sdst ! RUN = 40605 ! NEVT = 2998
FILE = /castor/cern.ch/delphi/MCprod/ral/kk2f4146/v94c/91.25/kk2f4146_qqardcy_91.25_40606.sdst ! RUN = 40606 ! NEVT = 3000
FILE = /castor/cern.ch/delphi/MCprod/ral/kk2f4146/v94c/91.25/kk2f4146_qqardcy_91.25_40607.sdst ! RUN = 40607 ! NEVT = 3000
FILE = /castor/cern.ch/delphi/MCprod/ral/kk2f4146/v94c/91.25/kk2f4146_qqardcy_91.25_40608.sdst ! RUN = 40608 ! NEVT = 3000
FILE = /castor/cern.ch/delphi/MCprod/ral/kk2f4146/v94c/91.25/kk2f4146_qqardcy_91.25_40609.sdst ! RUN = 40609 ! NEVT = 3000
FILE = /castor/cern.ch/delphi/MCprod/ral/kk2f4146/v94c/91.25/kk2f4146_qqardcy_91.25_40610.sdst ! RUN = 40610 ! NEVT = 2998
FILE = /castor/cern.ch/delphi/MCprod/ral/kk2f4146/v94c/91.25/kk2f4146_qqardcy_91.25_40611.sdst ! RUN = 40611 ! NEVT = 3000
FILE = /castor/cern.ch/delphi/MCprod/ral/kk2f4146/v94c/91.25/kk2f4146_qqardcy_91.25_40612.sdst ! RUN = 40612 ! NEVT = 3000
FILE = /castor/cern.ch/delphi/MCprod/ral/kk2f4146/v94c/91.25/kk2f4146_qqardcy_91.25_40613.sdst ! RUN = 40613 ! NEVT = 3000
FILE = /castor/cern.ch/delphi/MCprod/ral/kk2f4146/v94c/91.25/kk2f4146_qqardcy_91.25_40614.sdst ! RUN = 40614 ! NEVT = 3000
FILE = /castor/cern.ch/delphi/MCprod/ral/kk2f4146/v94c/91.25/kk2f4146_qqardcy_91.25_40615.sdst ! RUN = 40615 ! NEVT = 3000
FILE = /castor/cern.ch/delphi/MCprod/ral/kk2f4146/v94c/91.25/kk2f4146_qqardcy_91.25_40616.sdst ! RUN = 40616 ! NEVT = 2999
FILE = /castor/cern.ch/delphi/MCprod/ral/kk2f4146/v94c/91.25/kk2f4146_qqardcy_91.25_40617.sdst ! RUN = 40617 ! NEVT = 3000
FILE = /castor/cern.ch/delphi/MCprod/ral/kk2f4146/v94c/91.25/kk2f4146_qqardcy_91.25_40618.sdst ! RUN = 40618 ! NEVT = 2997
FILE = /castor/cern.ch/delphi/MCprod/ral/kk2f4146/v94c/91.25/kk2f4146_qqardcy_91.25_40619.sdst ! RUN = 40619 ! NEVT = 3000
FILE = /castor/cern.ch/delphi/MCprod/ral/kk2f4146/v94c/91.25/kk2f4146_qqardcy_91.25_40620.sdst ! RUN = 40620 ! NEVT = 2398
FILE = /castor/cern.ch/delphi/MCprod/ral/kk2f4146/v94c/91.25/kk2f4146_qqardcy_91.25_40621.sdst ! RUN = 40621 ! NEVT = 3000
FILE = /castor/cern.ch/delphi/MCprod/ral/kk2f4146/v94c/91.25/kk2f4146_qqardcy_91.25_40622.sdst ! RUN = 40622 ! NEVT = 3000
FILE = /castor/cern.ch/delphi/MCprod/ral/kk2f4146/v94c/91.25/kk2f4146_qqardcy_91.25_40623.sdst ! RUN = 40623 ! NEVT = 3000
FILE = /castor/cern.ch/delphi/MCprod/ral/kk2f4146/v94c/91.25/kk2f4146_qqardcy_91.25_40624.sdst ! RUN = 40624 ! NEVT = 3000
FILE = /castor/cern.ch/delphi/MCprod/ral/kk2f4146/v94c/91.25/kk2f4146_qqardcy_91.25_40625.sdst ! RUN = 40625 ! NEVT = 3000
FILE = /castor/cern.ch/delphi/MCprod/ral/kk2f4146/v94c/91.25/kk2f4146_qqardcy_91.25_40626.sdst ! RUN = 40626 ! NEVT = 3000
FILE = /castor/cern.ch/delphi/MCprod/ral/kk2f4146/v94c/91.25/kk2f4146_qqardcy_91.25_40627.sdst ! RUN = 40627 ! NEVT = 3000
FILE = /castor/cern.ch/delphi/MCprod/ral/kk2f4146/v94c/91.25/kk2f4146_qqardcy_91.25_40628.sdst ! RUN = 40628 ! NEVT = 3000
FILE = /castor/cern.ch/delphi/MCprod/ral/kk2f4146/v94c/91.25/kk2f4146_qqardcy_91.25_40629.sdst ! RUN = 40629 ! NEVT = 3000
FILE = /castor/cern.ch/delphi/MCprod/ral/kk2f4146/v94c/91.25/kk2f4146_qqardcy_91.25_40630.sdst ! RUN = 40630 ! NEVT = 3000
FILE = /castor/cern.ch/delphi/MCprod/ral/kk2f4146/v94c/91.25/kk2f4146_qqardcy_91.25_40631.sdst ! RUN = 40631 ! NEVT = 3000
FILE = /castor/cern.ch/delphi/MCprod/ral/kk2f4146/v94c/91.25/kk2f4146_qqardcy_91.25_40632.sdst ! RUN = 40632 ! NEVT = 3000
FILE = /castor/cern.ch/delphi/MCprod/ral/kk2f4146/v94c/91.25/kk2f4146_qqardcy_91.25_40633.sdst ! RUN = 40633 ! NEVT = 3000
FILE = /castor/cern.ch/delphi/MCprod/ral/kk2f4146/v94c/91.25/kk2f4146_qqardcy_91.25_40634.sdst ! RUN = 40634 ! NEVT = 2999
FILE = /castor/cern.ch/delphi/MCprod/ral/kk2f4146/v94c/91.25/kk2f4146_qqardcy_91.25_40636.sdst ! RUN = 40636 ! NEVT = 3000
FILE = /castor/cern.ch/delphi/MCprod/ral/kk2f4146/v94c/91.25/kk2f4146_qqardcy_91.25_40637.sdst ! RUN = 40637 ! NEVT = 3000
FILE = /castor/cern.ch/delphi/MCprod/ral/kk2f4146/v94c/91.25/kk2f4146_qqardcy_91.25_40638.sdst ! RUN = 40638 ! NEVT = 3000
FILE = /castor/cern.ch/delphi/MCprod/ral/kk2f4146/v94c/91.25/kk2f4146_qqardcy_91.25_40639.sdst ! RUN = 40639 ! NEVT = 3000
FILE = /castor/cern.ch/delphi/MCprod/ral/kk2f4146/v94c/91.25/kk2f4146_qqardcy_91.25_40640.sdst ! RUN = 40640 ! NEVT = 3000
FILE = /castor/cern.ch/delphi/MCprod/ral/kk2f4146/v94c/91.25/kk2f4146_qqardcy_91.25_40641.sdst ! RUN = 40641 ! NEVT = 3000
FILE = /castor/cern.ch/delphi/MCprod/ral/kk2f4146/v94c/91.25/kk2f4146_qqardcy_91.25_40642.sdst ! RUN = 40642 ! NEVT = 3000
FILE = /castor/cern.ch/delphi/MCprod/ral/kk2f4146/v94c/91.25/kk2f4146_qqardcy_91.25_40643.sdst ! RUN = 40643 ! NEVT = 3000
FILE = /castor/cern.ch/delphi/MCprod/ral/kk2f4146/v94c/91.25/kk2f4146_qqardcy_91.25_40644.sdst ! RUN = 40644 ! NEVT = 3000
FILE = /castor/cern.ch/delphi/MCprod/ral/kk2f4146/v94c/91.25/kk2f4146_qqardcy_91.25_40645.sdst ! RUN = 40645 ! NEVT = 2999
FILE = /castor/cern.ch/delphi/MCprod/ral/kk2f4146/v94c/91.25/kk2f4146_qqardcy_91.25_40646.sdst ! RUN = 40646 ! NEVT = 3000
FILE = /castor/cern.ch/delphi/MCprod/ral/kk2f4146/v94c/91.25/kk2f4146_qqardcy_91.25_40647.sdst ! RUN = 40647 ! NEVT = 3000
FILE = /castor/cern.ch/delphi/MCprod/ral/kk2f4146/v94c/91.25/kk2f4146_qqardcy_91.25_40648.sdst ! RUN = 40648 ! NEVT = 3000
FILE = /castor/cern.ch/delphi/MCprod/ral/kk2f4146/v94c/91.25/kk2f4146_qqardcy_91.25_40649.sdst ! RUN = 40649 ! NEVT = 3000
FILE = /castor/cern.ch/delphi/MCprod/ral/kk2f4146/v94c/91.25/kk2f4146_qqardcy_91.25_40650.sdst ! RUN = 40650 ! NEVT = 3000
FILE = /castor/cern.ch/delphi/MCprod/ral/kk2f4146/v94c/91.25/kk2f4146_qqardcy_91.25_40651.sdst ! RUN = 40651 ! NEVT = 3000
FILE = /castor/cern.ch/delphi/MCprod/ral/kk2f4146/v94c/91.25/kk2f4146_qqardcy_91.25_40653.sdst ! RUN = 40653 ! NEVT = 3000
FILE = /castor/cern.ch/delphi/MCprod/ral/kk2f4146/v94c/91.25/kk2f4146_qqardcy_91.25_40654.sdst ! RUN = 40654 ! NEVT = 2999
FILE = /castor/cern.ch/delphi/MCprod/ral/kk2f4146/v94c/91.25/kk2f4146_qqardcy_91.25_40655.sdst ! RUN = 40655 ! NEVT = 684
FILE = /castor/cern.ch/delphi/MCprod/ral/kk2f4146/v94c/91.25/kk2f4146_qqardcy_91.25_40656.sdst ! RUN = 40656 ! NEVT = 3000
FILE = /castor/cern.ch/delphi/MCprod/ral/kk2f4146/v94c/91.25/kk2f4146_qqardcy_91.25_40657.sdst ! RUN = 40657 ! NEVT = 3000
FILE = /castor/cern.ch/delphi/MCprod/ral/kk2f4146/v94c/91.25/kk2f4146_qqardcy_91.25_40658.sdst ! RUN = 40658 ! NEVT = 3000
FILE = /castor/cern.ch/delphi/MCprod/ral/kk2f4146/v94c/91.25/kk2f4146_qqardcy_91.25_40659.sdst ! RUN = 40659 ! NEVT = 3000
FILE = /castor/cern.ch/delphi/MCprod/ral/kk2f4146/v94c/91.25/kk2f4146_qqardcy_91.25_40660.sdst ! RUN = 40660 ! NEVT = 3000
FILE = /castor/cern.ch/delphi/MCprod/ral/kk2f4146/v94c/91.25/kk2f4146_qqardcy_91.25_40661.sdst ! RUN = 40661 ! NEVT = 3000
FILE = /castor/cern.ch/delphi/MCprod/ral/kk2f4146/v94c/91.25/kk2f4146_qqardcy_91.25_40662.sdst ! RUN = 40662 ! NEVT = 3000
FILE = /castor/cern.ch/delphi/MCprod/ral/kk2f4146/v94c/91.25/kk2f4146_qqardcy_91.25_40663.sdst ! RUN = 40663 ! NEVT = 3000
FILE = /castor/cern.ch/delphi/MCprod/ral/kk2f4146/v94c/91.25/kk2f4146_qqardcy_91.25_40664.sdst ! RUN = 40664 ! NEVT = 3000
FILE = /castor/cern.ch/delphi/MCprod/ral/kk2f4146/v94c/91.25/kk2f4146_qqardcy_91.25_40665.sdst ! RUN = 40665 ! NEVT = 2999
FILE = /castor/cern.ch/delphi/MCprod/ral/kk2f4146/v94c/91.25/kk2f4146_qqardcy_91.25_40666.sdst ! RUN = 40666 ! NEVT = 3000
FILE = /castor/cern.ch/delphi/MCprod/ral/kk2f4146/v94c/91.25/kk2f4146_qqardcy_91.25_40667.sdst ! RUN = 40667 ! NEVT = 3000
FILE = /castor/cern.ch/delphi/MCprod/ral/kk2f4146/v94c/91.25/kk2f4146_qqardcy_91.25_40668.sdst ! RUN = 40668 ! NEVT = 2999
FILE = /castor/cern.ch/delphi/MCprod/ral/kk2f4146/v94c/91.25/kk2f4146_qqardcy_91.25_40669.sdst ! RUN = 40669 ! NEVT = 3000
FILE = /castor/cern.ch/delphi/MCprod/ral/kk2f4146/v94c/91.25/kk2f4146_qqardcy_91.25_40670.sdst ! RUN = 40670 ! NEVT = 3000
FILE = /castor/cern.ch/delphi/MCprod/ral/kk2f4146/v94c/91.25/kk2f4146_qqardcy_91.25_40671.sdst ! RUN = 40671 ! NEVT = 3000
FILE = /castor/cern.ch/delphi/MCprod/ral/kk2f4146/v94c/91.25/kk2f4146_qqardcy_91.25_40672.sdst ! RUN = 40672 ! NEVT = 3000
FILE = /castor/cern.ch/delphi/MCprod/ral/kk2f4146/v94c/91.25/kk2f4146_qqardcy_91.25_40673.sdst ! RUN = 40673 ! NEVT = 3000
FILE = /castor/cern.ch/delphi/MCprod/ral/kk2f4146/v94c/91.25/kk2f4146_qqardcy_91.25_40675.sdst ! RUN = 40675 ! NEVT = 3000
FILE = /castor/cern.ch/delphi/MCprod/ral/kk2f4146/v94c/91.25/kk2f4146_qqardcy_91.25_40676.sdst ! RUN = 40676 ! NEVT = 2999
FILE = /castor/cern.ch/delphi/MCprod/ral/kk2f4146/v94c/91.25/kk2f4146_qqardcy_91.25_40677.sdst ! RUN = 40677 ! NEVT = 3000
FILE = /castor/cern.ch/delphi/MCprod/ral/kk2f4146/v94c/91.25/kk2f4146_qqardcy_91.25_40678.sdst ! RUN = 40678 ! NEVT = 2999
FILE = /castor/cern.ch/delphi/MCprod/ral/kk2f4146/v94c/91.25/kk2f4146_qqardcy_91.25_40679.sdst ! RUN = 40679 ! NEVT = 2566
FILE = /castor/cern.ch/delphi/MCprod/ral/kk2f4146/v94c/91.25/kk2f4146_qqardcy_91.25_40680.sdst ! RUN = 40680 ! NEVT = 3000
FILE = /castor/cern.ch/delphi/MCprod/ral/kk2f4146/v94c/91.25/kk2f4146_qqardcy_91.25_40681.sdst ! RUN = 40681 ! NEVT = 2999
FILE = /castor/cern.ch/delphi/MCprod/ral/kk2f4146/v94c/91.25/kk2f4146_qqardcy_91.25_40682.sdst ! RUN = 40682 ! NEVT = 3000
FILE = /castor/cern.ch/delphi/MCprod/ral/kk2f4146/v94c/91.25/kk2f4146_qqardcy_91.25_40683.sdst ! RUN = 40683 ! NEVT = 3000
FILE = /castor/cern.ch/delphi/MCprod/ral/kk2f4146/v94c/91.25/kk2f4146_qqardcy_91.25_40684.sdst ! RUN = 40684 ! NEVT = 3000
FILE = /castor/cern.ch/delphi/MCprod/ral/kk2f4146/v94c/91.25/kk2f4146_qqardcy_91.25_40685.sdst ! RUN = 40685 ! NEVT = 3000
FILE = /castor/cern.ch/delphi/MCprod/ral/kk2f4146/v94c/91.25/kk2f4146_qqardcy_91.25_40686.sdst ! RUN = 40686 ! NEVT = 3000
FILE = /castor/cern.ch/delphi/MCprod/ral/kk2f4146/v94c/91.25/kk2f4146_qqardcy_91.25_40687.sdst ! RUN = 40687 ! NEVT = 2999
FILE = /castor/cern.ch/delphi/MCprod/ral/kk2f4146/v94c/91.25/kk2f4146_qqardcy_91.25_40688.sdst ! RUN = 40688 ! NEVT = 2999
FILE = /castor/cern.ch/delphi/MCprod/ral/kk2f4146/v94c/91.25/kk2f4146_qqardcy_91.25_40689.sdst ! RUN = 40689 ! NEVT = 3000
FILE = /castor/cern.ch/delphi/MCprod/ral/kk2f4146/v94c/91.25/kk2f4146_qqardcy_91.25_40690.sdst ! RUN = 40690 ! NEVT = 3000
