*
*   Nickname     : sh_kk2f4146qqpybe321_e91.25_c94_2l_c2
*   Generic Name : //CERN/DELPHI/P01_SIMD/SHORT/KK2F4146QQPYBE321/E91.25/CERN/SUMT/C001-508
*   Description  :  Short DST simulation 94c2 done at ecms=91.25 , CERN
*---
*   Comments     : in total 1491927 events in 508 files time stamp: Sat Jul 27 18:11:08 2002
*---
*
*
*
*
*
FILE = /castor/cern.ch/delphi/MCprod/cern/kk2f4146/v94c/91.25/kk2f4146_qqpybe321_91.25_41001.sdst ! RUN = 41001 ! NEVT = 759
FILE = /castor/cern.ch/delphi/MCprod/cern/kk2f4146/v94c/91.25/kk2f4146_qqpybe321_91.25_41002.sdst ! RUN = 41002 ! NEVT = 2999
FILE = /castor/cern.ch/delphi/MCprod/cern/kk2f4146/v94c/91.25/kk2f4146_qqpybe321_91.25_41003.sdst ! RUN = 41003 ! NEVT = 3000
FILE = /castor/cern.ch/delphi/MCprod/cern/kk2f4146/v94c/91.25/kk2f4146_qqpybe321_91.25_41004.sdst ! RUN = 41004 ! NEVT = 3000
FILE = /castor/cern.ch/delphi/MCprod/cern/kk2f4146/v94c/91.25/kk2f4146_qqpybe321_91.25_41005.sdst ! RUN = 41005 ! NEVT = 2998
FILE = /castor/cern.ch/delphi/MCprod/cern/kk2f4146/v94c/91.25/kk2f4146_qqpybe321_91.25_41006.sdst ! RUN = 41006 ! NEVT = 2999
FILE = /castor/cern.ch/delphi/MCprod/cern/kk2f4146/v94c/91.25/kk2f4146_qqpybe321_91.25_41007.sdst ! RUN = 41007 ! NEVT = 3000
FILE = /castor/cern.ch/delphi/MCprod/cern/kk2f4146/v94c/91.25/kk2f4146_qqpybe321_91.25_41008.sdst ! RUN = 41008 ! NEVT = 2353
FILE = /castor/cern.ch/delphi/MCprod/cern/kk2f4146/v94c/91.25/kk2f4146_qqpybe321_91.25_41009.sdst ! RUN = 41009 ! NEVT = 2999
FILE = /castor/cern.ch/delphi/MCprod/cern/kk2f4146/v94c/91.25/kk2f4146_qqpybe321_91.25_41010.sdst ! RUN = 41010 ! NEVT = 3000
FILE = /castor/cern.ch/delphi/MCprod/cern/kk2f4146/v94c/91.25/kk2f4146_qqpybe321_91.25_41011.sdst ! RUN = 41011 ! NEVT = 2999
FILE = /castor/cern.ch/delphi/MCprod/cern/kk2f4146/v94c/91.25/kk2f4146_qqpybe321_91.25_41012.sdst ! RUN = 41012 ! NEVT = 2999
FILE = /castor/cern.ch/delphi/MCprod/cern/kk2f4146/v94c/91.25/kk2f4146_qqpybe321_91.25_41013.sdst ! RUN = 41013 ! NEVT = 3000
FILE = /castor/cern.ch/delphi/MCprod/cern/kk2f4146/v94c/91.25/kk2f4146_qqpybe321_91.25_41014.sdst ! RUN = 41014 ! NEVT = 2998
FILE = /castor/cern.ch/delphi/MCprod/cern/kk2f4146/v94c/91.25/kk2f4146_qqpybe321_91.25_41015.sdst ! RUN = 41015 ! NEVT = 2999
FILE = /castor/cern.ch/delphi/MCprod/cern/kk2f4146/v94c/91.25/kk2f4146_qqpybe321_91.25_41016.sdst ! RUN = 41016 ! NEVT = 2999
FILE = /castor/cern.ch/delphi/MCprod/cern/kk2f4146/v94c/91.25/kk2f4146_qqpybe321_91.25_41017.sdst ! RUN = 41017 ! NEVT = 3000
FILE = /castor/cern.ch/delphi/MCprod/cern/kk2f4146/v94c/91.25/kk2f4146_qqpybe321_91.25_41018.sdst ! RUN = 41018 ! NEVT = 2998
FILE = /castor/cern.ch/delphi/MCprod/cern/kk2f4146/v94c/91.25/kk2f4146_qqpybe321_91.25_41019.sdst ! RUN = 41019 ! NEVT = 3000
FILE = /castor/cern.ch/delphi/MCprod/cern/kk2f4146/v94c/91.25/kk2f4146_qqpybe321_91.25_41020.sdst ! RUN = 41020 ! NEVT = 3000
FILE = /castor/cern.ch/delphi/MCprod/cern/kk2f4146/v94c/91.25/kk2f4146_qqpybe321_91.25_41021.sdst ! RUN = 41021 ! NEVT = 3000
FILE = /castor/cern.ch/delphi/MCprod/cern/kk2f4146/v94c/91.25/kk2f4146_qqpybe321_91.25_41022.sdst ! RUN = 41022 ! NEVT = 3000
FILE = /castor/cern.ch/delphi/MCprod/cern/kk2f4146/v94c/91.25/kk2f4146_qqpybe321_91.25_41023.sdst ! RUN = 41023 ! NEVT = 3000
FILE = /castor/cern.ch/delphi/MCprod/cern/kk2f4146/v94c/91.25/kk2f4146_qqpybe321_91.25_41024.sdst ! RUN = 41024 ! NEVT = 1923
FILE = /castor/cern.ch/delphi/MCprod/cern/kk2f4146/v94c/91.25/kk2f4146_qqpybe321_91.25_41025.sdst ! RUN = 41025 ! NEVT = 3000
FILE = /castor/cern.ch/delphi/MCprod/cern/kk2f4146/v94c/91.25/kk2f4146_qqpybe321_91.25_41026.sdst ! RUN = 41026 ! NEVT = 3000
FILE = /castor/cern.ch/delphi/MCprod/cern/kk2f4146/v94c/91.25/kk2f4146_qqpybe321_91.25_41027.sdst ! RUN = 41027 ! NEVT = 2999
FILE = /castor/cern.ch/delphi/MCprod/cern/kk2f4146/v94c/91.25/kk2f4146_qqpybe321_91.25_41028.sdst ! RUN = 41028 ! NEVT = 3000
FILE = /castor/cern.ch/delphi/MCprod/cern/kk2f4146/v94c/91.25/kk2f4146_qqpybe321_91.25_41029.sdst ! RUN = 41029 ! NEVT = 3000
FILE = /castor/cern.ch/delphi/MCprod/cern/kk2f4146/v94c/91.25/kk2f4146_qqpybe321_91.25_41030.sdst ! RUN = 41030 ! NEVT = 3000
FILE = /castor/cern.ch/delphi/MCprod/cern/kk2f4146/v94c/91.25/kk2f4146_qqpybe321_91.25_41031.sdst ! RUN = 41031 ! NEVT = 3000
FILE = /castor/cern.ch/delphi/MCprod/cern/kk2f4146/v94c/91.25/kk2f4146_qqpybe321_91.25_41032.sdst ! RUN = 41032 ! NEVT = 3000
FILE = /castor/cern.ch/delphi/MCprod/cern/kk2f4146/v94c/91.25/kk2f4146_qqpybe321_91.25_41033.sdst ! RUN = 41033 ! NEVT = 2999
FILE = /castor/cern.ch/delphi/MCprod/cern/kk2f4146/v94c/91.25/kk2f4146_qqpybe321_91.25_41034.sdst ! RUN = 41034 ! NEVT = 3000
FILE = /castor/cern.ch/delphi/MCprod/cern/kk2f4146/v94c/91.25/kk2f4146_qqpybe321_91.25_41035.sdst ! RUN = 41035 ! NEVT = 3000
FILE = /castor/cern.ch/delphi/MCprod/cern/kk2f4146/v94c/91.25/kk2f4146_qqpybe321_91.25_41036.sdst ! RUN = 41036 ! NEVT = 3000
FILE = /castor/cern.ch/delphi/MCprod/cern/kk2f4146/v94c/91.25/kk2f4146_qqpybe321_91.25_41037.sdst ! RUN = 41037 ! NEVT = 3000
FILE = /castor/cern.ch/delphi/MCprod/cern/kk2f4146/v94c/91.25/kk2f4146_qqpybe321_91.25_41038.sdst ! RUN = 41038 ! NEVT = 3000
FILE = /castor/cern.ch/delphi/MCprod/cern/kk2f4146/v94c/91.25/kk2f4146_qqpybe321_91.25_41039.sdst ! RUN = 41039 ! NEVT = 3000
FILE = /castor/cern.ch/delphi/MCprod/cern/kk2f4146/v94c/91.25/kk2f4146_qqpybe321_91.25_41040.sdst ! RUN = 41040 ! NEVT = 3000
FILE = /castor/cern.ch/delphi/MCprod/cern/kk2f4146/v94c/91.25/kk2f4146_qqpybe321_91.25_41041.sdst ! RUN = 41041 ! NEVT = 3000
FILE = /castor/cern.ch/delphi/MCprod/cern/kk2f4146/v94c/91.25/kk2f4146_qqpybe321_91.25_41042.sdst ! RUN = 41042 ! NEVT = 3000
FILE = /castor/cern.ch/delphi/MCprod/cern/kk2f4146/v94c/91.25/kk2f4146_qqpybe321_91.25_41043.sdst ! RUN = 41043 ! NEVT = 3000
FILE = /castor/cern.ch/delphi/MCprod/cern/kk2f4146/v94c/91.25/kk2f4146_qqpybe321_91.25_41044.sdst ! RUN = 41044 ! NEVT = 2999
FILE = /castor/cern.ch/delphi/MCprod/cern/kk2f4146/v94c/91.25/kk2f4146_qqpybe321_91.25_41045.sdst ! RUN = 41045 ! NEVT = 2999
FILE = /castor/cern.ch/delphi/MCprod/cern/kk2f4146/v94c/91.25/kk2f4146_qqpybe321_91.25_41046.sdst ! RUN = 41046 ! NEVT = 3000
FILE = /castor/cern.ch/delphi/MCprod/cern/kk2f4146/v94c/91.25/kk2f4146_qqpybe321_91.25_41047.sdst ! RUN = 41047 ! NEVT = 3000
FILE = /castor/cern.ch/delphi/MCprod/cern/kk2f4146/v94c/91.25/kk2f4146_qqpybe321_91.25_41048.sdst ! RUN = 41048 ! NEVT = 3000
FILE = /castor/cern.ch/delphi/MCprod/cern/kk2f4146/v94c/91.25/kk2f4146_qqpybe321_91.25_41049.sdst ! RUN = 41049 ! NEVT = 2999
FILE = /castor/cern.ch/delphi/MCprod/cern/kk2f4146/v94c/91.25/kk2f4146_qqpybe321_91.25_41050.sdst ! RUN = 41050 ! NEVT = 3000
FILE = /castor/cern.ch/delphi/MCprod/cern/kk2f4146/v94c/91.25/kk2f4146_qqpybe321_91.25_41051.sdst ! RUN = 41051 ! NEVT = 2999
FILE = /castor/cern.ch/delphi/MCprod/cern/kk2f4146/v94c/91.25/kk2f4146_qqpybe321_91.25_41052.sdst ! RUN = 41052 ! NEVT = 3000
FILE = /castor/cern.ch/delphi/MCprod/cern/kk2f4146/v94c/91.25/kk2f4146_qqpybe321_91.25_41053.sdst ! RUN = 41053 ! NEVT = 3000
FILE = /castor/cern.ch/delphi/MCprod/cern/kk2f4146/v94c/91.25/kk2f4146_qqpybe321_91.25_41054.sdst ! RUN = 41054 ! NEVT = 2999
FILE = /castor/cern.ch/delphi/MCprod/cern/kk2f4146/v94c/91.25/kk2f4146_qqpybe321_91.25_41055.sdst ! RUN = 41055 ! NEVT = 2999
FILE = /castor/cern.ch/delphi/MCprod/cern/kk2f4146/v94c/91.25/kk2f4146_qqpybe321_91.25_41056.sdst ! RUN = 41056 ! NEVT = 3000
FILE = /castor/cern.ch/delphi/MCprod/cern/kk2f4146/v94c/91.25/kk2f4146_qqpybe321_91.25_41057.sdst ! RUN = 41057 ! NEVT = 2999
FILE = /castor/cern.ch/delphi/MCprod/cern/kk2f4146/v94c/91.25/kk2f4146_qqpybe321_91.25_41058.sdst ! RUN = 41058 ! NEVT = 3000
FILE = /castor/cern.ch/delphi/MCprod/cern/kk2f4146/v94c/91.25/kk2f4146_qqpybe321_91.25_41059.sdst ! RUN = 41059 ! NEVT = 3000
FILE = /castor/cern.ch/delphi/MCprod/cern/kk2f4146/v94c/91.25/kk2f4146_qqpybe321_91.25_41060.sdst ! RUN = 41060 ! NEVT = 3000
FILE = /castor/cern.ch/delphi/MCprod/cern/kk2f4146/v94c/91.25/kk2f4146_qqpybe321_91.25_41061.sdst ! RUN = 41061 ! NEVT = 2250
FILE = /castor/cern.ch/delphi/MCprod/cern/kk2f4146/v94c/91.25/kk2f4146_qqpybe321_91.25_41062.sdst ! RUN = 41062 ! NEVT = 3000
FILE = /castor/cern.ch/delphi/MCprod/cern/kk2f4146/v94c/91.25/kk2f4146_qqpybe321_91.25_41063.sdst ! RUN = 41063 ! NEVT = 3000
FILE = /castor/cern.ch/delphi/MCprod/cern/kk2f4146/v94c/91.25/kk2f4146_qqpybe321_91.25_41064.sdst ! RUN = 41064 ! NEVT = 2999
FILE = /castor/cern.ch/delphi/MCprod/cern/kk2f4146/v94c/91.25/kk2f4146_qqpybe321_91.25_41065.sdst ! RUN = 41065 ! NEVT = 2999
FILE = /castor/cern.ch/delphi/MCprod/cern/kk2f4146/v94c/91.25/kk2f4146_qqpybe321_91.25_41066.sdst ! RUN = 41066 ! NEVT = 2999
FILE = /castor/cern.ch/delphi/MCprod/cern/kk2f4146/v94c/91.25/kk2f4146_qqpybe321_91.25_41067.sdst ! RUN = 41067 ! NEVT = 3000
FILE = /castor/cern.ch/delphi/MCprod/cern/kk2f4146/v94c/91.25/kk2f4146_qqpybe321_91.25_41068.sdst ! RUN = 41068 ! NEVT = 3000
FILE = /castor/cern.ch/delphi/MCprod/cern/kk2f4146/v94c/91.25/kk2f4146_qqpybe321_91.25_41069.sdst ! RUN = 41069 ! NEVT = 3000
FILE = /castor/cern.ch/delphi/MCprod/cern/kk2f4146/v94c/91.25/kk2f4146_qqpybe321_91.25_41070.sdst ! RUN = 41070 ! NEVT = 3000
FILE = /castor/cern.ch/delphi/MCprod/cern/kk2f4146/v94c/91.25/kk2f4146_qqpybe321_91.25_41071.sdst ! RUN = 41071 ! NEVT = 3000
FILE = /castor/cern.ch/delphi/MCprod/cern/kk2f4146/v94c/91.25/kk2f4146_qqpybe321_91.25_41072.sdst ! RUN = 41072 ! NEVT = 3000
FILE = /castor/cern.ch/delphi/MCprod/cern/kk2f4146/v94c/91.25/kk2f4146_qqpybe321_91.25_41073.sdst ! RUN = 41073 ! NEVT = 3000
FILE = /castor/cern.ch/delphi/MCprod/cern/kk2f4146/v94c/91.25/kk2f4146_qqpybe321_91.25_41074.sdst ! RUN = 41074 ! NEVT = 2999
FILE = /castor/cern.ch/delphi/MCprod/cern/kk2f4146/v94c/91.25/kk2f4146_qqpybe321_91.25_41075.sdst ! RUN = 41075 ! NEVT = 3000
FILE = /castor/cern.ch/delphi/MCprod/cern/kk2f4146/v94c/91.25/kk2f4146_qqpybe321_91.25_41076.sdst ! RUN = 41076 ! NEVT = 2999
FILE = /castor/cern.ch/delphi/MCprod/cern/kk2f4146/v94c/91.25/kk2f4146_qqpybe321_91.25_41077.sdst ! RUN = 41077 ! NEVT = 3000
FILE = /castor/cern.ch/delphi/MCprod/cern/kk2f4146/v94c/91.25/kk2f4146_qqpybe321_91.25_41078.sdst ! RUN = 41078 ! NEVT = 3000
FILE = /castor/cern.ch/delphi/MCprod/cern/kk2f4146/v94c/91.25/kk2f4146_qqpybe321_91.25_41079.sdst ! RUN = 41079 ! NEVT = 2998
FILE = /castor/cern.ch/delphi/MCprod/cern/kk2f4146/v94c/91.25/kk2f4146_qqpybe321_91.25_41080.sdst ! RUN = 41080 ! NEVT = 3000
FILE = /castor/cern.ch/delphi/MCprod/cern/kk2f4146/v94c/91.25/kk2f4146_qqpybe321_91.25_41081.sdst ! RUN = 41081 ! NEVT = 3000
FILE = /castor/cern.ch/delphi/MCprod/cern/kk2f4146/v94c/91.25/kk2f4146_qqpybe321_91.25_41082.sdst ! RUN = 41082 ! NEVT = 3000
FILE = /castor/cern.ch/delphi/MCprod/cern/kk2f4146/v94c/91.25/kk2f4146_qqpybe321_91.25_41083.sdst ! RUN = 41083 ! NEVT = 2999
FILE = /castor/cern.ch/delphi/MCprod/cern/kk2f4146/v94c/91.25/kk2f4146_qqpybe321_91.25_41084.sdst ! RUN = 41084 ! NEVT = 3000
FILE = /castor/cern.ch/delphi/MCprod/cern/kk2f4146/v94c/91.25/kk2f4146_qqpybe321_91.25_41085.sdst ! RUN = 41085 ! NEVT = 3000
FILE = /castor/cern.ch/delphi/MCprod/cern/kk2f4146/v94c/91.25/kk2f4146_qqpybe321_91.25_41086.sdst ! RUN = 41086 ! NEVT = 2999
FILE = /castor/cern.ch/delphi/MCprod/cern/kk2f4146/v94c/91.25/kk2f4146_qqpybe321_91.25_41087.sdst ! RUN = 41087 ! NEVT = 3000
FILE = /castor/cern.ch/delphi/MCprod/cern/kk2f4146/v94c/91.25/kk2f4146_qqpybe321_91.25_41088.sdst ! RUN = 41088 ! NEVT = 3000
FILE = /castor/cern.ch/delphi/MCprod/cern/kk2f4146/v94c/91.25/kk2f4146_qqpybe321_91.25_41089.sdst ! RUN = 41089 ! NEVT = 3000
FILE = /castor/cern.ch/delphi/MCprod/cern/kk2f4146/v94c/91.25/kk2f4146_qqpybe321_91.25_41090.sdst ! RUN = 41090 ! NEVT = 3000
FILE = /castor/cern.ch/delphi/MCprod/cern/kk2f4146/v94c/91.25/kk2f4146_qqpybe321_91.25_41091.sdst ! RUN = 41091 ! NEVT = 2999
FILE = /castor/cern.ch/delphi/MCprod/cern/kk2f4146/v94c/91.25/kk2f4146_qqpybe321_91.25_41092.sdst ! RUN = 41092 ! NEVT = 3000
FILE = /castor/cern.ch/delphi/MCprod/cern/kk2f4146/v94c/91.25/kk2f4146_qqpybe321_91.25_41093.sdst ! RUN = 41093 ! NEVT = 3000
FILE = /castor/cern.ch/delphi/MCprod/cern/kk2f4146/v94c/91.25/kk2f4146_qqpybe321_91.25_41094.sdst ! RUN = 41094 ! NEVT = 3000
FILE = /castor/cern.ch/delphi/MCprod/cern/kk2f4146/v94c/91.25/kk2f4146_qqpybe321_91.25_41095.sdst ! RUN = 41095 ! NEVT = 2999
FILE = /castor/cern.ch/delphi/MCprod/cern/kk2f4146/v94c/91.25/kk2f4146_qqpybe321_91.25_41096.sdst ! RUN = 41096 ! NEVT = 3000
FILE = /castor/cern.ch/delphi/MCprod/cern/kk2f4146/v94c/91.25/kk2f4146_qqpybe321_91.25_41097.sdst ! RUN = 41097 ! NEVT = 2999
FILE = /castor/cern.ch/delphi/MCprod/cern/kk2f4146/v94c/91.25/kk2f4146_qqpybe321_91.25_41098.sdst ! RUN = 41098 ! NEVT = 3000
FILE = /castor/cern.ch/delphi/MCprod/cern/kk2f4146/v94c/91.25/kk2f4146_qqpybe321_91.25_41099.sdst ! RUN = 41099 ! NEVT = 3000
FILE = /castor/cern.ch/delphi/MCprod/cern/kk2f4146/v94c/91.25/kk2f4146_qqpybe321_91.25_41100.sdst ! RUN = 41100 ! NEVT = 3000
FILE = /castor/cern.ch/delphi/MCprod/cern/kk2f4146/v94c/91.25/kk2f4146_qqpybe321_91.25_41101.sdst ! RUN = 41101 ! NEVT = 3000
FILE = /castor/cern.ch/delphi/MCprod/cern/kk2f4146/v94c/91.25/kk2f4146_qqpybe321_91.25_41102.sdst ! RUN = 41102 ! NEVT = 3000
FILE = /castor/cern.ch/delphi/MCprod/cern/kk2f4146/v94c/91.25/kk2f4146_qqpybe321_91.25_41103.sdst ! RUN = 41103 ! NEVT = 3000
FILE = /castor/cern.ch/delphi/MCprod/cern/kk2f4146/v94c/91.25/kk2f4146_qqpybe321_91.25_41104.sdst ! RUN = 41104 ! NEVT = 2999
FILE = /castor/cern.ch/delphi/MCprod/cern/kk2f4146/v94c/91.25/kk2f4146_qqpybe321_91.25_41105.sdst ! RUN = 41105 ! NEVT = 2999
FILE = /castor/cern.ch/delphi/MCprod/cern/kk2f4146/v94c/91.25/kk2f4146_qqpybe321_91.25_41106.sdst ! RUN = 41106 ! NEVT = 3000
FILE = /castor/cern.ch/delphi/MCprod/cern/kk2f4146/v94c/91.25/kk2f4146_qqpybe321_91.25_41107.sdst ! RUN = 41107 ! NEVT = 2999
FILE = /castor/cern.ch/delphi/MCprod/cern/kk2f4146/v94c/91.25/kk2f4146_qqpybe321_91.25_41108.sdst ! RUN = 41108 ! NEVT = 2999
FILE = /castor/cern.ch/delphi/MCprod/cern/kk2f4146/v94c/91.25/kk2f4146_qqpybe321_91.25_41109.sdst ! RUN = 41109 ! NEVT = 3000
FILE = /castor/cern.ch/delphi/MCprod/cern/kk2f4146/v94c/91.25/kk2f4146_qqpybe321_91.25_41110.sdst ! RUN = 41110 ! NEVT = 3000
FILE = /castor/cern.ch/delphi/MCprod/cern/kk2f4146/v94c/91.25/kk2f4146_qqpybe321_91.25_41111.sdst ! RUN = 41111 ! NEVT = 3000
FILE = /castor/cern.ch/delphi/MCprod/cern/kk2f4146/v94c/91.25/kk2f4146_qqpybe321_91.25_41112.sdst ! RUN = 41112 ! NEVT = 3000
FILE = /castor/cern.ch/delphi/MCprod/cern/kk2f4146/v94c/91.25/kk2f4146_qqpybe321_91.25_41113.sdst ! RUN = 41113 ! NEVT = 3000
FILE = /castor/cern.ch/delphi/MCprod/cern/kk2f4146/v94c/91.25/kk2f4146_qqpybe321_91.25_41114.sdst ! RUN = 41114 ! NEVT = 3000
FILE = /castor/cern.ch/delphi/MCprod/cern/kk2f4146/v94c/91.25/kk2f4146_qqpybe321_91.25_41115.sdst ! RUN = 41115 ! NEVT = 3000
FILE = /castor/cern.ch/delphi/MCprod/cern/kk2f4146/v94c/91.25/kk2f4146_qqpybe321_91.25_41116.sdst ! RUN = 41116 ! NEVT = 917
FILE = /castor/cern.ch/delphi/MCprod/cern/kk2f4146/v94c/91.25/kk2f4146_qqpybe321_91.25_41117.sdst ! RUN = 41117 ! NEVT = 2998
FILE = /castor/cern.ch/delphi/MCprod/cern/kk2f4146/v94c/91.25/kk2f4146_qqpybe321_91.25_41118.sdst ! RUN = 41118 ! NEVT = 3000
FILE = /castor/cern.ch/delphi/MCprod/cern/kk2f4146/v94c/91.25/kk2f4146_qqpybe321_91.25_41119.sdst ! RUN = 41119 ! NEVT = 3000
FILE = /castor/cern.ch/delphi/MCprod/cern/kk2f4146/v94c/91.25/kk2f4146_qqpybe321_91.25_41120.sdst ! RUN = 41120 ! NEVT = 3000
FILE = /castor/cern.ch/delphi/MCprod/cern/kk2f4146/v94c/91.25/kk2f4146_qqpybe321_91.25_41121.sdst ! RUN = 41121 ! NEVT = 3000
FILE = /castor/cern.ch/delphi/MCprod/cern/kk2f4146/v94c/91.25/kk2f4146_qqpybe321_91.25_41123.sdst ! RUN = 41123 ! NEVT = 3000
FILE = /castor/cern.ch/delphi/MCprod/cern/kk2f4146/v94c/91.25/kk2f4146_qqpybe321_91.25_41124.sdst ! RUN = 41124 ! NEVT = 3000
FILE = /castor/cern.ch/delphi/MCprod/cern/kk2f4146/v94c/91.25/kk2f4146_qqpybe321_91.25_41125.sdst ! RUN = 41125 ! NEVT = 2999
FILE = /castor/cern.ch/delphi/MCprod/cern/kk2f4146/v94c/91.25/kk2f4146_qqpybe321_91.25_41126.sdst ! RUN = 41126 ! NEVT = 2999
FILE = /castor/cern.ch/delphi/MCprod/cern/kk2f4146/v94c/91.25/kk2f4146_qqpybe321_91.25_41127.sdst ! RUN = 41127 ! NEVT = 3000
FILE = /castor/cern.ch/delphi/MCprod/cern/kk2f4146/v94c/91.25/kk2f4146_qqpybe321_91.25_41128.sdst ! RUN = 41128 ! NEVT = 3000
FILE = /castor/cern.ch/delphi/MCprod/cern/kk2f4146/v94c/91.25/kk2f4146_qqpybe321_91.25_41129.sdst ! RUN = 41129 ! NEVT = 3000
FILE = /castor/cern.ch/delphi/MCprod/cern/kk2f4146/v94c/91.25/kk2f4146_qqpybe321_91.25_41130.sdst ! RUN = 41130 ! NEVT = 3000
FILE = /castor/cern.ch/delphi/MCprod/cern/kk2f4146/v94c/91.25/kk2f4146_qqpybe321_91.25_41131.sdst ! RUN = 41131 ! NEVT = 3000
FILE = /castor/cern.ch/delphi/MCprod/cern/kk2f4146/v94c/91.25/kk2f4146_qqpybe321_91.25_41132.sdst ! RUN = 41132 ! NEVT = 3000
FILE = /castor/cern.ch/delphi/MCprod/cern/kk2f4146/v94c/91.25/kk2f4146_qqpybe321_91.25_41133.sdst ! RUN = 41133 ! NEVT = 3000
FILE = /castor/cern.ch/delphi/MCprod/cern/kk2f4146/v94c/91.25/kk2f4146_qqpybe321_91.25_41134.sdst ! RUN = 41134 ! NEVT = 3000
FILE = /castor/cern.ch/delphi/MCprod/cern/kk2f4146/v94c/91.25/kk2f4146_qqpybe321_91.25_41135.sdst ! RUN = 41135 ! NEVT = 3000
FILE = /castor/cern.ch/delphi/MCprod/cern/kk2f4146/v94c/91.25/kk2f4146_qqpybe321_91.25_41136.sdst ! RUN = 41136 ! NEVT = 3000
FILE = /castor/cern.ch/delphi/MCprod/cern/kk2f4146/v94c/91.25/kk2f4146_qqpybe321_91.25_41137.sdst ! RUN = 41137 ! NEVT = 3000
FILE = /castor/cern.ch/delphi/MCprod/cern/kk2f4146/v94c/91.25/kk2f4146_qqpybe321_91.25_41138.sdst ! RUN = 41138 ! NEVT = 3000
FILE = /castor/cern.ch/delphi/MCprod/cern/kk2f4146/v94c/91.25/kk2f4146_qqpybe321_91.25_41139.sdst ! RUN = 41139 ! NEVT = 3000
FILE = /castor/cern.ch/delphi/MCprod/cern/kk2f4146/v94c/91.25/kk2f4146_qqpybe321_91.25_41140.sdst ! RUN = 41140 ! NEVT = 3000
FILE = /castor/cern.ch/delphi/MCprod/cern/kk2f4146/v94c/91.25/kk2f4146_qqpybe321_91.25_41141.sdst ! RUN = 41141 ! NEVT = 2998
FILE = /castor/cern.ch/delphi/MCprod/cern/kk2f4146/v94c/91.25/kk2f4146_qqpybe321_91.25_41142.sdst ! RUN = 41142 ! NEVT = 3000
FILE = /castor/cern.ch/delphi/MCprod/cern/kk2f4146/v94c/91.25/kk2f4146_qqpybe321_91.25_41143.sdst ! RUN = 41143 ! NEVT = 2999
FILE = /castor/cern.ch/delphi/MCprod/cern/kk2f4146/v94c/91.25/kk2f4146_qqpybe321_91.25_41144.sdst ! RUN = 41144 ! NEVT = 2999
FILE = /castor/cern.ch/delphi/MCprod/cern/kk2f4146/v94c/91.25/kk2f4146_qqpybe321_91.25_41146.sdst ! RUN = 41146 ! NEVT = 3000
FILE = /castor/cern.ch/delphi/MCprod/cern/kk2f4146/v94c/91.25/kk2f4146_qqpybe321_91.25_41147.sdst ! RUN = 41147 ! NEVT = 3000
FILE = /castor/cern.ch/delphi/MCprod/cern/kk2f4146/v94c/91.25/kk2f4146_qqpybe321_91.25_41148.sdst ! RUN = 41148 ! NEVT = 3000
FILE = /castor/cern.ch/delphi/MCprod/cern/kk2f4146/v94c/91.25/kk2f4146_qqpybe321_91.25_41149.sdst ! RUN = 41149 ! NEVT = 3000
FILE = /castor/cern.ch/delphi/MCprod/cern/kk2f4146/v94c/91.25/kk2f4146_qqpybe321_91.25_41150.sdst ! RUN = 41150 ! NEVT = 2999
FILE = /castor/cern.ch/delphi/MCprod/cern/kk2f4146/v94c/91.25/kk2f4146_qqpybe321_91.25_41151.sdst ! RUN = 41151 ! NEVT = 3000
FILE = /castor/cern.ch/delphi/MCprod/cern/kk2f4146/v94c/91.25/kk2f4146_qqpybe321_91.25_41152.sdst ! RUN = 41152 ! NEVT = 3000
FILE = /castor/cern.ch/delphi/MCprod/cern/kk2f4146/v94c/91.25/kk2f4146_qqpybe321_91.25_41153.sdst ! RUN = 41153 ! NEVT = 3000
FILE = /castor/cern.ch/delphi/MCprod/cern/kk2f4146/v94c/91.25/kk2f4146_qqpybe321_91.25_41154.sdst ! RUN = 41154 ! NEVT = 2999
FILE = /castor/cern.ch/delphi/MCprod/cern/kk2f4146/v94c/91.25/kk2f4146_qqpybe321_91.25_41155.sdst ! RUN = 41155 ! NEVT = 2999
FILE = /castor/cern.ch/delphi/MCprod/cern/kk2f4146/v94c/91.25/kk2f4146_qqpybe321_91.25_41156.sdst ! RUN = 41156 ! NEVT = 3000
FILE = /castor/cern.ch/delphi/MCprod/cern/kk2f4146/v94c/91.25/kk2f4146_qqpybe321_91.25_41157.sdst ! RUN = 41157 ! NEVT = 2999
FILE = /castor/cern.ch/delphi/MCprod/cern/kk2f4146/v94c/91.25/kk2f4146_qqpybe321_91.25_41158.sdst ! RUN = 41158 ! NEVT = 3000
FILE = /castor/cern.ch/delphi/MCprod/cern/kk2f4146/v94c/91.25/kk2f4146_qqpybe321_91.25_41159.sdst ! RUN = 41159 ! NEVT = 3000
FILE = /castor/cern.ch/delphi/MCprod/cern/kk2f4146/v94c/91.25/kk2f4146_qqpybe321_91.25_41160.sdst ! RUN = 41160 ! NEVT = 3000
FILE = /castor/cern.ch/delphi/MCprod/cern/kk2f4146/v94c/91.25/kk2f4146_qqpybe321_91.25_41161.sdst ! RUN = 41161 ! NEVT = 3000
FILE = /castor/cern.ch/delphi/MCprod/cern/kk2f4146/v94c/91.25/kk2f4146_qqpybe321_91.25_41162.sdst ! RUN = 41162 ! NEVT = 3000
FILE = /castor/cern.ch/delphi/MCprod/cern/kk2f4146/v94c/91.25/kk2f4146_qqpybe321_91.25_41163.sdst ! RUN = 41163 ! NEVT = 3000
FILE = /castor/cern.ch/delphi/MCprod/cern/kk2f4146/v94c/91.25/kk2f4146_qqpybe321_91.25_41164.sdst ! RUN = 41164 ! NEVT = 3000
FILE = /castor/cern.ch/delphi/MCprod/cern/kk2f4146/v94c/91.25/kk2f4146_qqpybe321_91.25_41165.sdst ! RUN = 41165 ! NEVT = 3000
FILE = /castor/cern.ch/delphi/MCprod/cern/kk2f4146/v94c/91.25/kk2f4146_qqpybe321_91.25_41166.sdst ! RUN = 41166 ! NEVT = 3000
FILE = /castor/cern.ch/delphi/MCprod/cern/kk2f4146/v94c/91.25/kk2f4146_qqpybe321_91.25_41167.sdst ! RUN = 41167 ! NEVT = 3000
FILE = /castor/cern.ch/delphi/MCprod/cern/kk2f4146/v94c/91.25/kk2f4146_qqpybe321_91.25_41168.sdst ! RUN = 41168 ! NEVT = 3000
FILE = /castor/cern.ch/delphi/MCprod/cern/kk2f4146/v94c/91.25/kk2f4146_qqpybe321_91.25_41170.sdst ! RUN = 41170 ! NEVT = 3000
FILE = /castor/cern.ch/delphi/MCprod/cern/kk2f4146/v94c/91.25/kk2f4146_qqpybe321_91.25_41171.sdst ! RUN = 41171 ! NEVT = 3000
FILE = /castor/cern.ch/delphi/MCprod/cern/kk2f4146/v94c/91.25/kk2f4146_qqpybe321_91.25_41172.sdst ! RUN = 41172 ! NEVT = 3000
FILE = /castor/cern.ch/delphi/MCprod/cern/kk2f4146/v94c/91.25/kk2f4146_qqpybe321_91.25_41173.sdst ! RUN = 41173 ! NEVT = 3000
FILE = /castor/cern.ch/delphi/MCprod/cern/kk2f4146/v94c/91.25/kk2f4146_qqpybe321_91.25_41174.sdst ! RUN = 41174 ! NEVT = 2999
FILE = /castor/cern.ch/delphi/MCprod/cern/kk2f4146/v94c/91.25/kk2f4146_qqpybe321_91.25_41175.sdst ! RUN = 41175 ! NEVT = 3000
FILE = /castor/cern.ch/delphi/MCprod/cern/kk2f4146/v94c/91.25/kk2f4146_qqpybe321_91.25_41176.sdst ! RUN = 41176 ! NEVT = 3000
FILE = /castor/cern.ch/delphi/MCprod/cern/kk2f4146/v94c/91.25/kk2f4146_qqpybe321_91.25_41177.sdst ! RUN = 41177 ! NEVT = 3000
FILE = /castor/cern.ch/delphi/MCprod/cern/kk2f4146/v94c/91.25/kk2f4146_qqpybe321_91.25_41178.sdst ! RUN = 41178 ! NEVT = 3000
FILE = /castor/cern.ch/delphi/MCprod/cern/kk2f4146/v94c/91.25/kk2f4146_qqpybe321_91.25_41179.sdst ! RUN = 41179 ! NEVT = 3000
FILE = /castor/cern.ch/delphi/MCprod/cern/kk2f4146/v94c/91.25/kk2f4146_qqpybe321_91.25_41180.sdst ! RUN = 41180 ! NEVT = 3000
FILE = /castor/cern.ch/delphi/MCprod/cern/kk2f4146/v94c/91.25/kk2f4146_qqpybe321_91.25_41181.sdst ! RUN = 41181 ! NEVT = 3000
FILE = /castor/cern.ch/delphi/MCprod/cern/kk2f4146/v94c/91.25/kk2f4146_qqpybe321_91.25_41182.sdst ! RUN = 41182 ! NEVT = 3000
FILE = /castor/cern.ch/delphi/MCprod/cern/kk2f4146/v94c/91.25/kk2f4146_qqpybe321_91.25_41183.sdst ! RUN = 41183 ! NEVT = 2999
FILE = /castor/cern.ch/delphi/MCprod/cern/kk2f4146/v94c/91.25/kk2f4146_qqpybe321_91.25_41184.sdst ! RUN = 41184 ! NEVT = 3000
FILE = /castor/cern.ch/delphi/MCprod/cern/kk2f4146/v94c/91.25/kk2f4146_qqpybe321_91.25_41185.sdst ! RUN = 41185 ! NEVT = 3000
FILE = /castor/cern.ch/delphi/MCprod/cern/kk2f4146/v94c/91.25/kk2f4146_qqpybe321_91.25_41187.sdst ! RUN = 41187 ! NEVT = 3000
FILE = /castor/cern.ch/delphi/MCprod/cern/kk2f4146/v94c/91.25/kk2f4146_qqpybe321_91.25_41188.sdst ! RUN = 41188 ! NEVT = 3000
FILE = /castor/cern.ch/delphi/MCprod/cern/kk2f4146/v94c/91.25/kk2f4146_qqpybe321_91.25_41189.sdst ! RUN = 41189 ! NEVT = 3000
FILE = /castor/cern.ch/delphi/MCprod/cern/kk2f4146/v94c/91.25/kk2f4146_qqpybe321_91.25_41190.sdst ! RUN = 41190 ! NEVT = 3000
FILE = /castor/cern.ch/delphi/MCprod/cern/kk2f4146/v94c/91.25/kk2f4146_qqpybe321_91.25_41191.sdst ! RUN = 41191 ! NEVT = 3000
FILE = /castor/cern.ch/delphi/MCprod/cern/kk2f4146/v94c/91.25/kk2f4146_qqpybe321_91.25_41192.sdst ! RUN = 41192 ! NEVT = 3000
FILE = /castor/cern.ch/delphi/MCprod/cern/kk2f4146/v94c/91.25/kk2f4146_qqpybe321_91.25_41193.sdst ! RUN = 41193 ! NEVT = 3000
FILE = /castor/cern.ch/delphi/MCprod/cern/kk2f4146/v94c/91.25/kk2f4146_qqpybe321_91.25_41194.sdst ! RUN = 41194 ! NEVT = 3000
FILE = /castor/cern.ch/delphi/MCprod/cern/kk2f4146/v94c/91.25/kk2f4146_qqpybe321_91.25_41195.sdst ! RUN = 41195 ! NEVT = 3000
FILE = /castor/cern.ch/delphi/MCprod/cern/kk2f4146/v94c/91.25/kk2f4146_qqpybe321_91.25_41196.sdst ! RUN = 41196 ! NEVT = 3000
FILE = /castor/cern.ch/delphi/MCprod/cern/kk2f4146/v94c/91.25/kk2f4146_qqpybe321_91.25_41197.sdst ! RUN = 41197 ! NEVT = 2999
FILE = /castor/cern.ch/delphi/MCprod/cern/kk2f4146/v94c/91.25/kk2f4146_qqpybe321_91.25_41198.sdst ! RUN = 41198 ! NEVT = 3000
FILE = /castor/cern.ch/delphi/MCprod/cern/kk2f4146/v94c/91.25/kk2f4146_qqpybe321_91.25_41199.sdst ! RUN = 41199 ! NEVT = 3000
FILE = /castor/cern.ch/delphi/MCprod/cern/kk2f4146/v94c/91.25/kk2f4146_qqpybe321_91.25_41200.sdst ! RUN = 41200 ! NEVT = 3000
FILE = /castor/cern.ch/delphi/MCprod/cern/kk2f4146/v94c/91.25/kk2f4146_qqpybe321_91.25_41201.sdst ! RUN = 41201 ! NEVT = 3000
FILE = /castor/cern.ch/delphi/MCprod/cern/kk2f4146/v94c/91.25/kk2f4146_qqpybe321_91.25_41202.sdst ! RUN = 41202 ! NEVT = 2999
FILE = /castor/cern.ch/delphi/MCprod/cern/kk2f4146/v94c/91.25/kk2f4146_qqpybe321_91.25_41203.sdst ! RUN = 41203 ! NEVT = 3000
FILE = /castor/cern.ch/delphi/MCprod/cern/kk2f4146/v94c/91.25/kk2f4146_qqpybe321_91.25_41204.sdst ! RUN = 41204 ! NEVT = 3000
FILE = /castor/cern.ch/delphi/MCprod/cern/kk2f4146/v94c/91.25/kk2f4146_qqpybe321_91.25_41205.sdst ! RUN = 41205 ! NEVT = 3000
FILE = /castor/cern.ch/delphi/MCprod/cern/kk2f4146/v94c/91.25/kk2f4146_qqpybe321_91.25_41206.sdst ! RUN = 41206 ! NEVT = 3000
FILE = /castor/cern.ch/delphi/MCprod/cern/kk2f4146/v94c/91.25/kk2f4146_qqpybe321_91.25_41207.sdst ! RUN = 41207 ! NEVT = 2999
FILE = /castor/cern.ch/delphi/MCprod/cern/kk2f4146/v94c/91.25/kk2f4146_qqpybe321_91.25_41208.sdst ! RUN = 41208 ! NEVT = 2999
FILE = /castor/cern.ch/delphi/MCprod/cern/kk2f4146/v94c/91.25/kk2f4146_qqpybe321_91.25_41209.sdst ! RUN = 41209 ! NEVT = 3000
FILE = /castor/cern.ch/delphi/MCprod/cern/kk2f4146/v94c/91.25/kk2f4146_qqpybe321_91.25_41210.sdst ! RUN = 41210 ! NEVT = 3000
FILE = /castor/cern.ch/delphi/MCprod/cern/kk2f4146/v94c/91.25/kk2f4146_qqpybe321_91.25_41211.sdst ! RUN = 41211 ! NEVT = 3000
FILE = /castor/cern.ch/delphi/MCprod/cern/kk2f4146/v94c/91.25/kk2f4146_qqpybe321_91.25_41212.sdst ! RUN = 41212 ! NEVT = 3000
FILE = /castor/cern.ch/delphi/MCprod/cern/kk2f4146/v94c/91.25/kk2f4146_qqpybe321_91.25_41213.sdst ! RUN = 41213 ! NEVT = 3000
FILE = /castor/cern.ch/delphi/MCprod/cern/kk2f4146/v94c/91.25/kk2f4146_qqpybe321_91.25_41214.sdst ! RUN = 41214 ! NEVT = 3000
FILE = /castor/cern.ch/delphi/MCprod/cern/kk2f4146/v94c/91.25/kk2f4146_qqpybe321_91.25_41215.sdst ! RUN = 41215 ! NEVT = 2999
FILE = /castor/cern.ch/delphi/MCprod/cern/kk2f4146/v94c/91.25/kk2f4146_qqpybe321_91.25_41216.sdst ! RUN = 41216 ! NEVT = 3000
FILE = /castor/cern.ch/delphi/MCprod/cern/kk2f4146/v94c/91.25/kk2f4146_qqpybe321_91.25_41217.sdst ! RUN = 41217 ! NEVT = 3000
FILE = /castor/cern.ch/delphi/MCprod/cern/kk2f4146/v94c/91.25/kk2f4146_qqpybe321_91.25_41218.sdst ! RUN = 41218 ! NEVT = 1439
FILE = /castor/cern.ch/delphi/MCprod/cern/kk2f4146/v94c/91.25/kk2f4146_qqpybe321_91.25_41219.sdst ! RUN = 41219 ! NEVT = 3000
FILE = /castor/cern.ch/delphi/MCprod/cern/kk2f4146/v94c/91.25/kk2f4146_qqpybe321_91.25_41220.sdst ! RUN = 41220 ! NEVT = 3000
FILE = /castor/cern.ch/delphi/MCprod/cern/kk2f4146/v94c/91.25/kk2f4146_qqpybe321_91.25_41221.sdst ! RUN = 41221 ! NEVT = 3000
FILE = /castor/cern.ch/delphi/MCprod/cern/kk2f4146/v94c/91.25/kk2f4146_qqpybe321_91.25_41222.sdst ! RUN = 41222 ! NEVT = 3000
FILE = /castor/cern.ch/delphi/MCprod/cern/kk2f4146/v94c/91.25/kk2f4146_qqpybe321_91.25_41223.sdst ! RUN = 41223 ! NEVT = 743
FILE = /castor/cern.ch/delphi/MCprod/cern/kk2f4146/v94c/91.25/kk2f4146_qqpybe321_91.25_41224.sdst ! RUN = 41224 ! NEVT = 2999
FILE = /castor/cern.ch/delphi/MCprod/cern/kk2f4146/v94c/91.25/kk2f4146_qqpybe321_91.25_41226.sdst ! RUN = 41226 ! NEVT = 2999
FILE = /castor/cern.ch/delphi/MCprod/cern/kk2f4146/v94c/91.25/kk2f4146_qqpybe321_91.25_41227.sdst ! RUN = 41227 ! NEVT = 2999
FILE = /castor/cern.ch/delphi/MCprod/cern/kk2f4146/v94c/91.25/kk2f4146_qqpybe321_91.25_41228.sdst ! RUN = 41228 ! NEVT = 3000
FILE = /castor/cern.ch/delphi/MCprod/cern/kk2f4146/v94c/91.25/kk2f4146_qqpybe321_91.25_41229.sdst ! RUN = 41229 ! NEVT = 3000
FILE = /castor/cern.ch/delphi/MCprod/cern/kk2f4146/v94c/91.25/kk2f4146_qqpybe321_91.25_41230.sdst ! RUN = 41230 ! NEVT = 3000
FILE = /castor/cern.ch/delphi/MCprod/cern/kk2f4146/v94c/91.25/kk2f4146_qqpybe321_91.25_41231.sdst ! RUN = 41231 ! NEVT = 3000
FILE = /castor/cern.ch/delphi/MCprod/cern/kk2f4146/v94c/91.25/kk2f4146_qqpybe321_91.25_41232.sdst ! RUN = 41232 ! NEVT = 2999
FILE = /castor/cern.ch/delphi/MCprod/cern/kk2f4146/v94c/91.25/kk2f4146_qqpybe321_91.25_41233.sdst ! RUN = 41233 ! NEVT = 2997
FILE = /castor/cern.ch/delphi/MCprod/cern/kk2f4146/v94c/91.25/kk2f4146_qqpybe321_91.25_41234.sdst ! RUN = 41234 ! NEVT = 3000
FILE = /castor/cern.ch/delphi/MCprod/cern/kk2f4146/v94c/91.25/kk2f4146_qqpybe321_91.25_41235.sdst ! RUN = 41235 ! NEVT = 3000
FILE = /castor/cern.ch/delphi/MCprod/cern/kk2f4146/v94c/91.25/kk2f4146_qqpybe321_91.25_41236.sdst ! RUN = 41236 ! NEVT = 2999
FILE = /castor/cern.ch/delphi/MCprod/cern/kk2f4146/v94c/91.25/kk2f4146_qqpybe321_91.25_41237.sdst ! RUN = 41237 ! NEVT = 2563
FILE = /castor/cern.ch/delphi/MCprod/cern/kk2f4146/v94c/91.25/kk2f4146_qqpybe321_91.25_41238.sdst ! RUN = 41238 ! NEVT = 3000
FILE = /castor/cern.ch/delphi/MCprod/cern/kk2f4146/v94c/91.25/kk2f4146_qqpybe321_91.25_41239.sdst ! RUN = 41239 ! NEVT = 2998
FILE = /castor/cern.ch/delphi/MCprod/cern/kk2f4146/v94c/91.25/kk2f4146_qqpybe321_91.25_41240.sdst ! RUN = 41240 ! NEVT = 3000
FILE = /castor/cern.ch/delphi/MCprod/cern/kk2f4146/v94c/91.25/kk2f4146_qqpybe321_91.25_41241.sdst ! RUN = 41241 ! NEVT = 3000
FILE = /castor/cern.ch/delphi/MCprod/cern/kk2f4146/v94c/91.25/kk2f4146_qqpybe321_91.25_41242.sdst ! RUN = 41242 ! NEVT = 3000
FILE = /castor/cern.ch/delphi/MCprod/cern/kk2f4146/v94c/91.25/kk2f4146_qqpybe321_91.25_41243.sdst ! RUN = 41243 ! NEVT = 3000
FILE = /castor/cern.ch/delphi/MCprod/cern/kk2f4146/v94c/91.25/kk2f4146_qqpybe321_91.25_41244.sdst ! RUN = 41244 ! NEVT = 3000
FILE = /castor/cern.ch/delphi/MCprod/cern/kk2f4146/v94c/91.25/kk2f4146_qqpybe321_91.25_41245.sdst ! RUN = 41245 ! NEVT = 3000
FILE = /castor/cern.ch/delphi/MCprod/cern/kk2f4146/v94c/91.25/kk2f4146_qqpybe321_91.25_41246.sdst ! RUN = 41246 ! NEVT = 2999
FILE = /castor/cern.ch/delphi/MCprod/cern/kk2f4146/v94c/91.25/kk2f4146_qqpybe321_91.25_41247.sdst ! RUN = 41247 ! NEVT = 3000
FILE = /castor/cern.ch/delphi/MCprod/cern/kk2f4146/v94c/91.25/kk2f4146_qqpybe321_91.25_41248.sdst ! RUN = 41248 ! NEVT = 3000
FILE = /castor/cern.ch/delphi/MCprod/cern/kk2f4146/v94c/91.25/kk2f4146_qqpybe321_91.25_41249.sdst ! RUN = 41249 ! NEVT = 3000
FILE = /castor/cern.ch/delphi/MCprod/cern/kk2f4146/v94c/91.25/kk2f4146_qqpybe321_91.25_41250.sdst ! RUN = 41250 ! NEVT = 3000
FILE = /castor/cern.ch/delphi/MCprod/cern/kk2f4146/v94c/91.25/kk2f4146_qqpybe321_91.25_41251.sdst ! RUN = 41251 ! NEVT = 3000
FILE = /castor/cern.ch/delphi/MCprod/cern/kk2f4146/v94c/91.25/kk2f4146_qqpybe321_91.25_41252.sdst ! RUN = 41252 ! NEVT = 3000
FILE = /castor/cern.ch/delphi/MCprod/cern/kk2f4146/v94c/91.25/kk2f4146_qqpybe321_91.25_41253.sdst ! RUN = 41253 ! NEVT = 3000
FILE = /castor/cern.ch/delphi/MCprod/cern/kk2f4146/v94c/91.25/kk2f4146_qqpybe321_91.25_41254.sdst ! RUN = 41254 ! NEVT = 2644
FILE = /castor/cern.ch/delphi/MCprod/cern/kk2f4146/v94c/91.25/kk2f4146_qqpybe321_91.25_41255.sdst ! RUN = 41255 ! NEVT = 3000
FILE = /castor/cern.ch/delphi/MCprod/cern/kk2f4146/v94c/91.25/kk2f4146_qqpybe321_91.25_41256.sdst ! RUN = 41256 ! NEVT = 3000
FILE = /castor/cern.ch/delphi/MCprod/cern/kk2f4146/v94c/91.25/kk2f4146_qqpybe321_91.25_41257.sdst ! RUN = 41257 ! NEVT = 3000
FILE = /castor/cern.ch/delphi/MCprod/cern/kk2f4146/v94c/91.25/kk2f4146_qqpybe321_91.25_41258.sdst ! RUN = 41258 ! NEVT = 3000
FILE = /castor/cern.ch/delphi/MCprod/cern/kk2f4146/v94c/91.25/kk2f4146_qqpybe321_91.25_41259.sdst ! RUN = 41259 ! NEVT = 3000
FILE = /castor/cern.ch/delphi/MCprod/cern/kk2f4146/v94c/91.25/kk2f4146_qqpybe321_91.25_41260.sdst ! RUN = 41260 ! NEVT = 3000
FILE = /castor/cern.ch/delphi/MCprod/cern/kk2f4146/v94c/91.25/kk2f4146_qqpybe321_91.25_41261.sdst ! RUN = 41261 ! NEVT = 3000
FILE = /castor/cern.ch/delphi/MCprod/cern/kk2f4146/v94c/91.25/kk2f4146_qqpybe321_91.25_41262.sdst ! RUN = 41262 ! NEVT = 3000
FILE = /castor/cern.ch/delphi/MCprod/cern/kk2f4146/v94c/91.25/kk2f4146_qqpybe321_91.25_41263.sdst ! RUN = 41263 ! NEVT = 3000
FILE = /castor/cern.ch/delphi/MCprod/cern/kk2f4146/v94c/91.25/kk2f4146_qqpybe321_91.25_41264.sdst ! RUN = 41264 ! NEVT = 3000
FILE = /castor/cern.ch/delphi/MCprod/cern/kk2f4146/v94c/91.25/kk2f4146_qqpybe321_91.25_41265.sdst ! RUN = 41265 ! NEVT = 3000
FILE = /castor/cern.ch/delphi/MCprod/cern/kk2f4146/v94c/91.25/kk2f4146_qqpybe321_91.25_41266.sdst ! RUN = 41266 ! NEVT = 2999
FILE = /castor/cern.ch/delphi/MCprod/cern/kk2f4146/v94c/91.25/kk2f4146_qqpybe321_91.25_41267.sdst ! RUN = 41267 ! NEVT = 2999
FILE = /castor/cern.ch/delphi/MCprod/cern/kk2f4146/v94c/91.25/kk2f4146_qqpybe321_91.25_41268.sdst ! RUN = 41268 ! NEVT = 3000
FILE = /castor/cern.ch/delphi/MCprod/cern/kk2f4146/v94c/91.25/kk2f4146_qqpybe321_91.25_41269.sdst ! RUN = 41269 ! NEVT = 3000
FILE = /castor/cern.ch/delphi/MCprod/cern/kk2f4146/v94c/91.25/kk2f4146_qqpybe321_91.25_41270.sdst ! RUN = 41270 ! NEVT = 3000
FILE = /castor/cern.ch/delphi/MCprod/cern/kk2f4146/v94c/91.25/kk2f4146_qqpybe321_91.25_41271.sdst ! RUN = 41271 ! NEVT = 3000
FILE = /castor/cern.ch/delphi/MCprod/cern/kk2f4146/v94c/91.25/kk2f4146_qqpybe321_91.25_41272.sdst ! RUN = 41272 ! NEVT = 3000
FILE = /castor/cern.ch/delphi/MCprod/cern/kk2f4146/v94c/91.25/kk2f4146_qqpybe321_91.25_41273.sdst ! RUN = 41273 ! NEVT = 3000
FILE = /castor/cern.ch/delphi/MCprod/cern/kk2f4146/v94c/91.25/kk2f4146_qqpybe321_91.25_41274.sdst ! RUN = 41274 ! NEVT = 1183
FILE = /castor/cern.ch/delphi/MCprod/cern/kk2f4146/v94c/91.25/kk2f4146_qqpybe321_91.25_41275.sdst ! RUN = 41275 ! NEVT = 3000
FILE = /castor/cern.ch/delphi/MCprod/cern/kk2f4146/v94c/91.25/kk2f4146_qqpybe321_91.25_41276.sdst ! RUN = 41276 ! NEVT = 3000
FILE = /castor/cern.ch/delphi/MCprod/cern/kk2f4146/v94c/91.25/kk2f4146_qqpybe321_91.25_41277.sdst ! RUN = 41277 ! NEVT = 2999
FILE = /castor/cern.ch/delphi/MCprod/cern/kk2f4146/v94c/91.25/kk2f4146_qqpybe321_91.25_41278.sdst ! RUN = 41278 ! NEVT = 3000
FILE = /castor/cern.ch/delphi/MCprod/cern/kk2f4146/v94c/91.25/kk2f4146_qqpybe321_91.25_41279.sdst ! RUN = 41279 ! NEVT = 3000
FILE = /castor/cern.ch/delphi/MCprod/cern/kk2f4146/v94c/91.25/kk2f4146_qqpybe321_91.25_41280.sdst ! RUN = 41280 ! NEVT = 3000
FILE = /castor/cern.ch/delphi/MCprod/cern/kk2f4146/v94c/91.25/kk2f4146_qqpybe321_91.25_41281.sdst ! RUN = 41281 ! NEVT = 3000
FILE = /castor/cern.ch/delphi/MCprod/cern/kk2f4146/v94c/91.25/kk2f4146_qqpybe321_91.25_41282.sdst ! RUN = 41282 ! NEVT = 3000
FILE = /castor/cern.ch/delphi/MCprod/cern/kk2f4146/v94c/91.25/kk2f4146_qqpybe321_91.25_41283.sdst ! RUN = 41283 ! NEVT = 3000
FILE = /castor/cern.ch/delphi/MCprod/cern/kk2f4146/v94c/91.25/kk2f4146_qqpybe321_91.25_41284.sdst ! RUN = 41284 ! NEVT = 3000
FILE = /castor/cern.ch/delphi/MCprod/cern/kk2f4146/v94c/91.25/kk2f4146_qqpybe321_91.25_41285.sdst ! RUN = 41285 ! NEVT = 3000
FILE = /castor/cern.ch/delphi/MCprod/cern/kk2f4146/v94c/91.25/kk2f4146_qqpybe321_91.25_41286.sdst ! RUN = 41286 ! NEVT = 3000
FILE = /castor/cern.ch/delphi/MCprod/cern/kk2f4146/v94c/91.25/kk2f4146_qqpybe321_91.25_41287.sdst ! RUN = 41287 ! NEVT = 2999
FILE = /castor/cern.ch/delphi/MCprod/cern/kk2f4146/v94c/91.25/kk2f4146_qqpybe321_91.25_41288.sdst ! RUN = 41288 ! NEVT = 3000
FILE = /castor/cern.ch/delphi/MCprod/cern/kk2f4146/v94c/91.25/kk2f4146_qqpybe321_91.25_41289.sdst ! RUN = 41289 ! NEVT = 3000
FILE = /castor/cern.ch/delphi/MCprod/cern/kk2f4146/v94c/91.25/kk2f4146_qqpybe321_91.25_41290.sdst ! RUN = 41290 ! NEVT = 3000
FILE = /castor/cern.ch/delphi/MCprod/cern/kk2f4146/v94c/91.25/kk2f4146_qqpybe321_91.25_41291.sdst ! RUN = 41291 ! NEVT = 3000
FILE = /castor/cern.ch/delphi/MCprod/cern/kk2f4146/v94c/91.25/kk2f4146_qqpybe321_91.25_41292.sdst ! RUN = 41292 ! NEVT = 3000
FILE = /castor/cern.ch/delphi/MCprod/cern/kk2f4146/v94c/91.25/kk2f4146_qqpybe321_91.25_41293.sdst ! RUN = 41293 ! NEVT = 3000
FILE = /castor/cern.ch/delphi/MCprod/cern/kk2f4146/v94c/91.25/kk2f4146_qqpybe321_91.25_41294.sdst ! RUN = 41294 ! NEVT = 3000
FILE = /castor/cern.ch/delphi/MCprod/cern/kk2f4146/v94c/91.25/kk2f4146_qqpybe321_91.25_41295.sdst ! RUN = 41295 ! NEVT = 3000
FILE = /castor/cern.ch/delphi/MCprod/cern/kk2f4146/v94c/91.25/kk2f4146_qqpybe321_91.25_41296.sdst ! RUN = 41296 ! NEVT = 3000
FILE = /castor/cern.ch/delphi/MCprod/cern/kk2f4146/v94c/91.25/kk2f4146_qqpybe321_91.25_41297.sdst ! RUN = 41297 ! NEVT = 3000
FILE = /castor/cern.ch/delphi/MCprod/cern/kk2f4146/v94c/91.25/kk2f4146_qqpybe321_91.25_41298.sdst ! RUN = 41298 ! NEVT = 3000
FILE = /castor/cern.ch/delphi/MCprod/cern/kk2f4146/v94c/91.25/kk2f4146_qqpybe321_91.25_41299.sdst ! RUN = 41299 ! NEVT = 3000
FILE = /castor/cern.ch/delphi/MCprod/cern/kk2f4146/v94c/91.25/kk2f4146_qqpybe321_91.25_41300.sdst ! RUN = 41300 ! NEVT = 3000
FILE = /castor/cern.ch/delphi/MCprod/cern/kk2f4146/v94c/91.25/kk2f4146_qqpybe321_91.25_41301.sdst ! RUN = 41301 ! NEVT = 3000
FILE = /castor/cern.ch/delphi/MCprod/cern/kk2f4146/v94c/91.25/kk2f4146_qqpybe321_91.25_41302.sdst ! RUN = 41302 ! NEVT = 3000
FILE = /castor/cern.ch/delphi/MCprod/cern/kk2f4146/v94c/91.25/kk2f4146_qqpybe321_91.25_41303.sdst ! RUN = 41303 ! NEVT = 2999
FILE = /castor/cern.ch/delphi/MCprod/cern/kk2f4146/v94c/91.25/kk2f4146_qqpybe321_91.25_41304.sdst ! RUN = 41304 ! NEVT = 3000
FILE = /castor/cern.ch/delphi/MCprod/cern/kk2f4146/v94c/91.25/kk2f4146_qqpybe321_91.25_41305.sdst ! RUN = 41305 ! NEVT = 3000
FILE = /castor/cern.ch/delphi/MCprod/cern/kk2f4146/v94c/91.25/kk2f4146_qqpybe321_91.25_41306.sdst ! RUN = 41306 ! NEVT = 3000
FILE = /castor/cern.ch/delphi/MCprod/cern/kk2f4146/v94c/91.25/kk2f4146_qqpybe321_91.25_41307.sdst ! RUN = 41307 ! NEVT = 3000
FILE = /castor/cern.ch/delphi/MCprod/cern/kk2f4146/v94c/91.25/kk2f4146_qqpybe321_91.25_41308.sdst ! RUN = 41308 ! NEVT = 3000
FILE = /castor/cern.ch/delphi/MCprod/cern/kk2f4146/v94c/91.25/kk2f4146_qqpybe321_91.25_41309.sdst ! RUN = 41309 ! NEVT = 3000
FILE = /castor/cern.ch/delphi/MCprod/cern/kk2f4146/v94c/91.25/kk2f4146_qqpybe321_91.25_41310.sdst ! RUN = 41310 ! NEVT = 3000
FILE = /castor/cern.ch/delphi/MCprod/cern/kk2f4146/v94c/91.25/kk2f4146_qqpybe321_91.25_41311.sdst ! RUN = 41311 ! NEVT = 3000
FILE = /castor/cern.ch/delphi/MCprod/cern/kk2f4146/v94c/91.25/kk2f4146_qqpybe321_91.25_41312.sdst ! RUN = 41312 ! NEVT = 1116
FILE = /castor/cern.ch/delphi/MCprod/cern/kk2f4146/v94c/91.25/kk2f4146_qqpybe321_91.25_41313.sdst ! RUN = 41313 ! NEVT = 3000
FILE = /castor/cern.ch/delphi/MCprod/cern/kk2f4146/v94c/91.25/kk2f4146_qqpybe321_91.25_41314.sdst ! RUN = 41314 ! NEVT = 3000
FILE = /castor/cern.ch/delphi/MCprod/cern/kk2f4146/v94c/91.25/kk2f4146_qqpybe321_91.25_41315.sdst ! RUN = 41315 ! NEVT = 3000
FILE = /castor/cern.ch/delphi/MCprod/cern/kk2f4146/v94c/91.25/kk2f4146_qqpybe321_91.25_41316.sdst ! RUN = 41316 ! NEVT = 3000
FILE = /castor/cern.ch/delphi/MCprod/cern/kk2f4146/v94c/91.25/kk2f4146_qqpybe321_91.25_41317.sdst ! RUN = 41317 ! NEVT = 3000
FILE = /castor/cern.ch/delphi/MCprod/cern/kk2f4146/v94c/91.25/kk2f4146_qqpybe321_91.25_41318.sdst ! RUN = 41318 ! NEVT = 3000
FILE = /castor/cern.ch/delphi/MCprod/cern/kk2f4146/v94c/91.25/kk2f4146_qqpybe321_91.25_41319.sdst ! RUN = 41319 ! NEVT = 3000
FILE = /castor/cern.ch/delphi/MCprod/cern/kk2f4146/v94c/91.25/kk2f4146_qqpybe321_91.25_41320.sdst ! RUN = 41320 ! NEVT = 3000
FILE = /castor/cern.ch/delphi/MCprod/cern/kk2f4146/v94c/91.25/kk2f4146_qqpybe321_91.25_41321.sdst ! RUN = 41321 ! NEVT = 3000
FILE = /castor/cern.ch/delphi/MCprod/cern/kk2f4146/v94c/91.25/kk2f4146_qqpybe321_91.25_41322.sdst ! RUN = 41322 ! NEVT = 3000
FILE = /castor/cern.ch/delphi/MCprod/cern/kk2f4146/v94c/91.25/kk2f4146_qqpybe321_91.25_41323.sdst ! RUN = 41323 ! NEVT = 3000
FILE = /castor/cern.ch/delphi/MCprod/cern/kk2f4146/v94c/91.25/kk2f4146_qqpybe321_91.25_41324.sdst ! RUN = 41324 ! NEVT = 3000
FILE = /castor/cern.ch/delphi/MCprod/cern/kk2f4146/v94c/91.25/kk2f4146_qqpybe321_91.25_41325.sdst ! RUN = 41325 ! NEVT = 2999
FILE = /castor/cern.ch/delphi/MCprod/cern/kk2f4146/v94c/91.25/kk2f4146_qqpybe321_91.25_41326.sdst ! RUN = 41326 ! NEVT = 2999
FILE = /castor/cern.ch/delphi/MCprod/cern/kk2f4146/v94c/91.25/kk2f4146_qqpybe321_91.25_41327.sdst ! RUN = 41327 ! NEVT = 3000
FILE = /castor/cern.ch/delphi/MCprod/cern/kk2f4146/v94c/91.25/kk2f4146_qqpybe321_91.25_41328.sdst ! RUN = 41328 ! NEVT = 2999
FILE = /castor/cern.ch/delphi/MCprod/cern/kk2f4146/v94c/91.25/kk2f4146_qqpybe321_91.25_41329.sdst ! RUN = 41329 ! NEVT = 3000
FILE = /castor/cern.ch/delphi/MCprod/cern/kk2f4146/v94c/91.25/kk2f4146_qqpybe321_91.25_41330.sdst ! RUN = 41330 ! NEVT = 3000
FILE = /castor/cern.ch/delphi/MCprod/cern/kk2f4146/v94c/91.25/kk2f4146_qqpybe321_91.25_41331.sdst ! RUN = 41331 ! NEVT = 3000
FILE = /castor/cern.ch/delphi/MCprod/cern/kk2f4146/v94c/91.25/kk2f4146_qqpybe321_91.25_41332.sdst ! RUN = 41332 ! NEVT = 919
FILE = /castor/cern.ch/delphi/MCprod/cern/kk2f4146/v94c/91.25/kk2f4146_qqpybe321_91.25_41333.sdst ! RUN = 41333 ! NEVT = 3000
FILE = /castor/cern.ch/delphi/MCprod/cern/kk2f4146/v94c/91.25/kk2f4146_qqpybe321_91.25_41334.sdst ! RUN = 41334 ! NEVT = 2999
FILE = /castor/cern.ch/delphi/MCprod/cern/kk2f4146/v94c/91.25/kk2f4146_qqpybe321_91.25_41335.sdst ! RUN = 41335 ! NEVT = 3000
FILE = /castor/cern.ch/delphi/MCprod/cern/kk2f4146/v94c/91.25/kk2f4146_qqpybe321_91.25_41336.sdst ! RUN = 41336 ! NEVT = 2999
FILE = /castor/cern.ch/delphi/MCprod/cern/kk2f4146/v94c/91.25/kk2f4146_qqpybe321_91.25_41337.sdst ! RUN = 41337 ! NEVT = 2999
FILE = /castor/cern.ch/delphi/MCprod/cern/kk2f4146/v94c/91.25/kk2f4146_qqpybe321_91.25_41338.sdst ! RUN = 41338 ! NEVT = 3000
FILE = /castor/cern.ch/delphi/MCprod/cern/kk2f4146/v94c/91.25/kk2f4146_qqpybe321_91.25_41339.sdst ! RUN = 41339 ! NEVT = 3000
FILE = /castor/cern.ch/delphi/MCprod/cern/kk2f4146/v94c/91.25/kk2f4146_qqpybe321_91.25_41340.sdst ! RUN = 41340 ! NEVT = 3000
FILE = /castor/cern.ch/delphi/MCprod/cern/kk2f4146/v94c/91.25/kk2f4146_qqpybe321_91.25_41341.sdst ! RUN = 41341 ! NEVT = 3000
FILE = /castor/cern.ch/delphi/MCprod/cern/kk2f4146/v94c/91.25/kk2f4146_qqpybe321_91.25_41342.sdst ! RUN = 41342 ! NEVT = 3000
FILE = /castor/cern.ch/delphi/MCprod/cern/kk2f4146/v94c/91.25/kk2f4146_qqpybe321_91.25_41343.sdst ! RUN = 41343 ! NEVT = 3000
FILE = /castor/cern.ch/delphi/MCprod/cern/kk2f4146/v94c/91.25/kk2f4146_qqpybe321_91.25_41344.sdst ! RUN = 41344 ! NEVT = 3000
FILE = /castor/cern.ch/delphi/MCprod/cern/kk2f4146/v94c/91.25/kk2f4146_qqpybe321_91.25_41345.sdst ! RUN = 41345 ! NEVT = 2999
FILE = /castor/cern.ch/delphi/MCprod/cern/kk2f4146/v94c/91.25/kk2f4146_qqpybe321_91.25_41346.sdst ! RUN = 41346 ! NEVT = 3000
FILE = /castor/cern.ch/delphi/MCprod/cern/kk2f4146/v94c/91.25/kk2f4146_qqpybe321_91.25_41347.sdst ! RUN = 41347 ! NEVT = 3000
FILE = /castor/cern.ch/delphi/MCprod/cern/kk2f4146/v94c/91.25/kk2f4146_qqpybe321_91.25_41348.sdst ! RUN = 41348 ! NEVT = 957
FILE = /castor/cern.ch/delphi/MCprod/cern/kk2f4146/v94c/91.25/kk2f4146_qqpybe321_91.25_41349.sdst ! RUN = 41349 ! NEVT = 3000
FILE = /castor/cern.ch/delphi/MCprod/cern/kk2f4146/v94c/91.25/kk2f4146_qqpybe321_91.25_41350.sdst ! RUN = 41350 ! NEVT = 3000
FILE = /castor/cern.ch/delphi/MCprod/cern/kk2f4146/v94c/91.25/kk2f4146_qqpybe321_91.25_41351.sdst ! RUN = 41351 ! NEVT = 3000
FILE = /castor/cern.ch/delphi/MCprod/cern/kk2f4146/v94c/91.25/kk2f4146_qqpybe321_91.25_41352.sdst ! RUN = 41352 ! NEVT = 3000
FILE = /castor/cern.ch/delphi/MCprod/cern/kk2f4146/v94c/91.25/kk2f4146_qqpybe321_91.25_41353.sdst ! RUN = 41353 ! NEVT = 3000
FILE = /castor/cern.ch/delphi/MCprod/cern/kk2f4146/v94c/91.25/kk2f4146_qqpybe321_91.25_41354.sdst ! RUN = 41354 ! NEVT = 3000
FILE = /castor/cern.ch/delphi/MCprod/cern/kk2f4146/v94c/91.25/kk2f4146_qqpybe321_91.25_41355.sdst ! RUN = 41355 ! NEVT = 3000
FILE = /castor/cern.ch/delphi/MCprod/cern/kk2f4146/v94c/91.25/kk2f4146_qqpybe321_91.25_41356.sdst ! RUN = 41356 ! NEVT = 3000
FILE = /castor/cern.ch/delphi/MCprod/cern/kk2f4146/v94c/91.25/kk2f4146_qqpybe321_91.25_41357.sdst ! RUN = 41357 ! NEVT = 3000
FILE = /castor/cern.ch/delphi/MCprod/cern/kk2f4146/v94c/91.25/kk2f4146_qqpybe321_91.25_41358.sdst ! RUN = 41358 ! NEVT = 3000
FILE = /castor/cern.ch/delphi/MCprod/cern/kk2f4146/v94c/91.25/kk2f4146_qqpybe321_91.25_41359.sdst ! RUN = 41359 ! NEVT = 3000
FILE = /castor/cern.ch/delphi/MCprod/cern/kk2f4146/v94c/91.25/kk2f4146_qqpybe321_91.25_41360.sdst ! RUN = 41360 ! NEVT = 3000
FILE = /castor/cern.ch/delphi/MCprod/cern/kk2f4146/v94c/91.25/kk2f4146_qqpybe321_91.25_41361.sdst ! RUN = 41361 ! NEVT = 2999
FILE = /castor/cern.ch/delphi/MCprod/cern/kk2f4146/v94c/91.25/kk2f4146_qqpybe321_91.25_41362.sdst ! RUN = 41362 ! NEVT = 3000
FILE = /castor/cern.ch/delphi/MCprod/cern/kk2f4146/v94c/91.25/kk2f4146_qqpybe321_91.25_41363.sdst ! RUN = 41363 ! NEVT = 3000
FILE = /castor/cern.ch/delphi/MCprod/cern/kk2f4146/v94c/91.25/kk2f4146_qqpybe321_91.25_41364.sdst ! RUN = 41364 ! NEVT = 3000
FILE = /castor/cern.ch/delphi/MCprod/cern/kk2f4146/v94c/91.25/kk2f4146_qqpybe321_91.25_41365.sdst ! RUN = 41365 ! NEVT = 3000
FILE = /castor/cern.ch/delphi/MCprod/cern/kk2f4146/v94c/91.25/kk2f4146_qqpybe321_91.25_41366.sdst ! RUN = 41366 ! NEVT = 3000
FILE = /castor/cern.ch/delphi/MCprod/cern/kk2f4146/v94c/91.25/kk2f4146_qqpybe321_91.25_41367.sdst ! RUN = 41367 ! NEVT = 3000
FILE = /castor/cern.ch/delphi/MCprod/cern/kk2f4146/v94c/91.25/kk2f4146_qqpybe321_91.25_41368.sdst ! RUN = 41368 ! NEVT = 3000
FILE = /castor/cern.ch/delphi/MCprod/cern/kk2f4146/v94c/91.25/kk2f4146_qqpybe321_91.25_41369.sdst ! RUN = 41369 ! NEVT = 2999
FILE = /castor/cern.ch/delphi/MCprod/cern/kk2f4146/v94c/91.25/kk2f4146_qqpybe321_91.25_41370.sdst ! RUN = 41370 ! NEVT = 3000
FILE = /castor/cern.ch/delphi/MCprod/cern/kk2f4146/v94c/91.25/kk2f4146_qqpybe321_91.25_41371.sdst ! RUN = 41371 ! NEVT = 3000
FILE = /castor/cern.ch/delphi/MCprod/cern/kk2f4146/v94c/91.25/kk2f4146_qqpybe321_91.25_41372.sdst ! RUN = 41372 ! NEVT = 2999
FILE = /castor/cern.ch/delphi/MCprod/cern/kk2f4146/v94c/91.25/kk2f4146_qqpybe321_91.25_41373.sdst ! RUN = 41373 ! NEVT = 3000
FILE = /castor/cern.ch/delphi/MCprod/cern/kk2f4146/v94c/91.25/kk2f4146_qqpybe321_91.25_41374.sdst ! RUN = 41374 ! NEVT = 3000
FILE = /castor/cern.ch/delphi/MCprod/cern/kk2f4146/v94c/91.25/kk2f4146_qqpybe321_91.25_41375.sdst ! RUN = 41375 ! NEVT = 2999
FILE = /castor/cern.ch/delphi/MCprod/cern/kk2f4146/v94c/91.25/kk2f4146_qqpybe321_91.25_41376.sdst ! RUN = 41376 ! NEVT = 3000
FILE = /castor/cern.ch/delphi/MCprod/cern/kk2f4146/v94c/91.25/kk2f4146_qqpybe321_91.25_41377.sdst ! RUN = 41377 ! NEVT = 3000
FILE = /castor/cern.ch/delphi/MCprod/cern/kk2f4146/v94c/91.25/kk2f4146_qqpybe321_91.25_41378.sdst ! RUN = 41378 ! NEVT = 2999
FILE = /castor/cern.ch/delphi/MCprod/cern/kk2f4146/v94c/91.25/kk2f4146_qqpybe321_91.25_41379.sdst ! RUN = 41379 ! NEVT = 2999
FILE = /castor/cern.ch/delphi/MCprod/cern/kk2f4146/v94c/91.25/kk2f4146_qqpybe321_91.25_41380.sdst ! RUN = 41380 ! NEVT = 2999
FILE = /castor/cern.ch/delphi/MCprod/cern/kk2f4146/v94c/91.25/kk2f4146_qqpybe321_91.25_41381.sdst ! RUN = 41381 ! NEVT = 3000
FILE = /castor/cern.ch/delphi/MCprod/cern/kk2f4146/v94c/91.25/kk2f4146_qqpybe321_91.25_41382.sdst ! RUN = 41382 ! NEVT = 2998
FILE = /castor/cern.ch/delphi/MCprod/cern/kk2f4146/v94c/91.25/kk2f4146_qqpybe321_91.25_41383.sdst ! RUN = 41383 ! NEVT = 3000
FILE = /castor/cern.ch/delphi/MCprod/cern/kk2f4146/v94c/91.25/kk2f4146_qqpybe321_91.25_41384.sdst ! RUN = 41384 ! NEVT = 3000
FILE = /castor/cern.ch/delphi/MCprod/cern/kk2f4146/v94c/91.25/kk2f4146_qqpybe321_91.25_41385.sdst ! RUN = 41385 ! NEVT = 3000
FILE = /castor/cern.ch/delphi/MCprod/cern/kk2f4146/v94c/91.25/kk2f4146_qqpybe321_91.25_41386.sdst ! RUN = 41386 ! NEVT = 3000
FILE = /castor/cern.ch/delphi/MCprod/cern/kk2f4146/v94c/91.25/kk2f4146_qqpybe321_91.25_41387.sdst ! RUN = 41387 ! NEVT = 3000
FILE = /castor/cern.ch/delphi/MCprod/cern/kk2f4146/v94c/91.25/kk2f4146_qqpybe321_91.25_41388.sdst ! RUN = 41388 ! NEVT = 3000
FILE = /castor/cern.ch/delphi/MCprod/cern/kk2f4146/v94c/91.25/kk2f4146_qqpybe321_91.25_41389.sdst ! RUN = 41389 ! NEVT = 3000
FILE = /castor/cern.ch/delphi/MCprod/cern/kk2f4146/v94c/91.25/kk2f4146_qqpybe321_91.25_41390.sdst ! RUN = 41390 ! NEVT = 3000
FILE = /castor/cern.ch/delphi/MCprod/cern/kk2f4146/v94c/91.25/kk2f4146_qqpybe321_91.25_41391.sdst ! RUN = 41391 ! NEVT = 3000
FILE = /castor/cern.ch/delphi/MCprod/cern/kk2f4146/v94c/91.25/kk2f4146_qqpybe321_91.25_41392.sdst ! RUN = 41392 ! NEVT = 3000
FILE = /castor/cern.ch/delphi/MCprod/cern/kk2f4146/v94c/91.25/kk2f4146_qqpybe321_91.25_41393.sdst ! RUN = 41393 ! NEVT = 1245
FILE = /castor/cern.ch/delphi/MCprod/cern/kk2f4146/v94c/91.25/kk2f4146_qqpybe321_91.25_41394.sdst ! RUN = 41394 ! NEVT = 2999
FILE = /castor/cern.ch/delphi/MCprod/cern/kk2f4146/v94c/91.25/kk2f4146_qqpybe321_91.25_41395.sdst ! RUN = 41395 ! NEVT = 3000
FILE = /castor/cern.ch/delphi/MCprod/cern/kk2f4146/v94c/91.25/kk2f4146_qqpybe321_91.25_41396.sdst ! RUN = 41396 ! NEVT = 3000
FILE = /castor/cern.ch/delphi/MCprod/cern/kk2f4146/v94c/91.25/kk2f4146_qqpybe321_91.25_41397.sdst ! RUN = 41397 ! NEVT = 3000
FILE = /castor/cern.ch/delphi/MCprod/cern/kk2f4146/v94c/91.25/kk2f4146_qqpybe321_91.25_41398.sdst ! RUN = 41398 ! NEVT = 2999
FILE = /castor/cern.ch/delphi/MCprod/cern/kk2f4146/v94c/91.25/kk2f4146_qqpybe321_91.25_41399.sdst ! RUN = 41399 ! NEVT = 3000
FILE = /castor/cern.ch/delphi/MCprod/cern/kk2f4146/v94c/91.25/kk2f4146_qqpybe321_91.25_41400.sdst ! RUN = 41400 ! NEVT = 2999
FILE = /castor/cern.ch/delphi/MCprod/cern/kk2f4146/v94c/91.25/kk2f4146_qqpybe321_91.25_41401.sdst ! RUN = 41401 ! NEVT = 3000
FILE = /castor/cern.ch/delphi/MCprod/cern/kk2f4146/v94c/91.25/kk2f4146_qqpybe321_91.25_41402.sdst ! RUN = 41402 ! NEVT = 3000
FILE = /castor/cern.ch/delphi/MCprod/cern/kk2f4146/v94c/91.25/kk2f4146_qqpybe321_91.25_41403.sdst ! RUN = 41403 ! NEVT = 3000
FILE = /castor/cern.ch/delphi/MCprod/cern/kk2f4146/v94c/91.25/kk2f4146_qqpybe321_91.25_41404.sdst ! RUN = 41404 ! NEVT = 3000
FILE = /castor/cern.ch/delphi/MCprod/cern/kk2f4146/v94c/91.25/kk2f4146_qqpybe321_91.25_41406.sdst ! RUN = 41406 ! NEVT = 2999
FILE = /castor/cern.ch/delphi/MCprod/cern/kk2f4146/v94c/91.25/kk2f4146_qqpybe321_91.25_41407.sdst ! RUN = 41407 ! NEVT = 3000
FILE = /castor/cern.ch/delphi/MCprod/cern/kk2f4146/v94c/91.25/kk2f4146_qqpybe321_91.25_41408.sdst ! RUN = 41408 ! NEVT = 3000
FILE = /castor/cern.ch/delphi/MCprod/cern/kk2f4146/v94c/91.25/kk2f4146_qqpybe321_91.25_41409.sdst ! RUN = 41409 ! NEVT = 3000
FILE = /castor/cern.ch/delphi/MCprod/cern/kk2f4146/v94c/91.25/kk2f4146_qqpybe321_91.25_41411.sdst ! RUN = 41411 ! NEVT = 3000
FILE = /castor/cern.ch/delphi/MCprod/cern/kk2f4146/v94c/91.25/kk2f4146_qqpybe321_91.25_41412.sdst ! RUN = 41412 ! NEVT = 3000
FILE = /castor/cern.ch/delphi/MCprod/cern/kk2f4146/v94c/91.25/kk2f4146_qqpybe321_91.25_41413.sdst ! RUN = 41413 ! NEVT = 2999
FILE = /castor/cern.ch/delphi/MCprod/cern/kk2f4146/v94c/91.25/kk2f4146_qqpybe321_91.25_41414.sdst ! RUN = 41414 ! NEVT = 3000
FILE = /castor/cern.ch/delphi/MCprod/cern/kk2f4146/v94c/91.25/kk2f4146_qqpybe321_91.25_41415.sdst ! RUN = 41415 ! NEVT = 3000
FILE = /castor/cern.ch/delphi/MCprod/cern/kk2f4146/v94c/91.25/kk2f4146_qqpybe321_91.25_41416.sdst ! RUN = 41416 ! NEVT = 3000
FILE = /castor/cern.ch/delphi/MCprod/cern/kk2f4146/v94c/91.25/kk2f4146_qqpybe321_91.25_41417.sdst ! RUN = 41417 ! NEVT = 2999
FILE = /castor/cern.ch/delphi/MCprod/cern/kk2f4146/v94c/91.25/kk2f4146_qqpybe321_91.25_41418.sdst ! RUN = 41418 ! NEVT = 3000
FILE = /castor/cern.ch/delphi/MCprod/cern/kk2f4146/v94c/91.25/kk2f4146_qqpybe321_91.25_41419.sdst ! RUN = 41419 ! NEVT = 3000
FILE = /castor/cern.ch/delphi/MCprod/cern/kk2f4146/v94c/91.25/kk2f4146_qqpybe321_91.25_41420.sdst ! RUN = 41420 ! NEVT = 2999
FILE = /castor/cern.ch/delphi/MCprod/cern/kk2f4146/v94c/91.25/kk2f4146_qqpybe321_91.25_41421.sdst ! RUN = 41421 ! NEVT = 2999
FILE = /castor/cern.ch/delphi/MCprod/cern/kk2f4146/v94c/91.25/kk2f4146_qqpybe321_91.25_41422.sdst ! RUN = 41422 ! NEVT = 3000
FILE = /castor/cern.ch/delphi/MCprod/cern/kk2f4146/v94c/91.25/kk2f4146_qqpybe321_91.25_41423.sdst ! RUN = 41423 ! NEVT = 72
FILE = /castor/cern.ch/delphi/MCprod/cern/kk2f4146/v94c/91.25/kk2f4146_qqpybe321_91.25_41424.sdst ! RUN = 41424 ! NEVT = 3000
FILE = /castor/cern.ch/delphi/MCprod/cern/kk2f4146/v94c/91.25/kk2f4146_qqpybe321_91.25_41425.sdst ! RUN = 41425 ! NEVT = 3000
FILE = /castor/cern.ch/delphi/MCprod/cern/kk2f4146/v94c/91.25/kk2f4146_qqpybe321_91.25_41426.sdst ! RUN = 41426 ! NEVT = 3000
FILE = /castor/cern.ch/delphi/MCprod/cern/kk2f4146/v94c/91.25/kk2f4146_qqpybe321_91.25_41427.sdst ! RUN = 41427 ! NEVT = 3000
FILE = /castor/cern.ch/delphi/MCprod/cern/kk2f4146/v94c/91.25/kk2f4146_qqpybe321_91.25_41428.sdst ! RUN = 41428 ! NEVT = 3000
FILE = /castor/cern.ch/delphi/MCprod/cern/kk2f4146/v94c/91.25/kk2f4146_qqpybe321_91.25_41429.sdst ! RUN = 41429 ! NEVT = 3000
FILE = /castor/cern.ch/delphi/MCprod/cern/kk2f4146/v94c/91.25/kk2f4146_qqpybe321_91.25_41430.sdst ! RUN = 41430 ! NEVT = 3000
FILE = /castor/cern.ch/delphi/MCprod/cern/kk2f4146/v94c/91.25/kk2f4146_qqpybe321_91.25_41431.sdst ! RUN = 41431 ! NEVT = 3000
FILE = /castor/cern.ch/delphi/MCprod/cern/kk2f4146/v94c/91.25/kk2f4146_qqpybe321_91.25_41432.sdst ! RUN = 41432 ! NEVT = 1040
FILE = /castor/cern.ch/delphi/MCprod/cern/kk2f4146/v94c/91.25/kk2f4146_qqpybe321_91.25_41433.sdst ! RUN = 41433 ! NEVT = 3000
FILE = /castor/cern.ch/delphi/MCprod/cern/kk2f4146/v94c/91.25/kk2f4146_qqpybe321_91.25_41434.sdst ! RUN = 41434 ! NEVT = 3000
FILE = /castor/cern.ch/delphi/MCprod/cern/kk2f4146/v94c/91.25/kk2f4146_qqpybe321_91.25_41435.sdst ! RUN = 41435 ! NEVT = 3000
FILE = /castor/cern.ch/delphi/MCprod/cern/kk2f4146/v94c/91.25/kk2f4146_qqpybe321_91.25_41436.sdst ! RUN = 41436 ! NEVT = 3000
FILE = /castor/cern.ch/delphi/MCprod/cern/kk2f4146/v94c/91.25/kk2f4146_qqpybe321_91.25_41437.sdst ! RUN = 41437 ! NEVT = 3000
FILE = /castor/cern.ch/delphi/MCprod/cern/kk2f4146/v94c/91.25/kk2f4146_qqpybe321_91.25_41438.sdst ! RUN = 41438 ! NEVT = 2999
FILE = /castor/cern.ch/delphi/MCprod/cern/kk2f4146/v94c/91.25/kk2f4146_qqpybe321_91.25_41439.sdst ! RUN = 41439 ! NEVT = 3000
FILE = /castor/cern.ch/delphi/MCprod/cern/kk2f4146/v94c/91.25/kk2f4146_qqpybe321_91.25_41441.sdst ! RUN = 41441 ! NEVT = 3000
FILE = /castor/cern.ch/delphi/MCprod/cern/kk2f4146/v94c/91.25/kk2f4146_qqpybe321_91.25_41442.sdst ! RUN = 41442 ! NEVT = 3000
FILE = /castor/cern.ch/delphi/MCprod/cern/kk2f4146/v94c/91.25/kk2f4146_qqpybe321_91.25_41443.sdst ! RUN = 41443 ! NEVT = 2999
FILE = /castor/cern.ch/delphi/MCprod/cern/kk2f4146/v94c/91.25/kk2f4146_qqpybe321_91.25_41444.sdst ! RUN = 41444 ! NEVT = 3000
FILE = /castor/cern.ch/delphi/MCprod/cern/kk2f4146/v94c/91.25/kk2f4146_qqpybe321_91.25_41445.sdst ! RUN = 41445 ! NEVT = 3000
FILE = /castor/cern.ch/delphi/MCprod/cern/kk2f4146/v94c/91.25/kk2f4146_qqpybe321_91.25_41446.sdst ! RUN = 41446 ! NEVT = 3000
FILE = /castor/cern.ch/delphi/MCprod/cern/kk2f4146/v94c/91.25/kk2f4146_qqpybe321_91.25_41447.sdst ! RUN = 41447 ! NEVT = 3000
FILE = /castor/cern.ch/delphi/MCprod/cern/kk2f4146/v94c/91.25/kk2f4146_qqpybe321_91.25_41448.sdst ! RUN = 41448 ! NEVT = 2999
FILE = /castor/cern.ch/delphi/MCprod/cern/kk2f4146/v94c/91.25/kk2f4146_qqpybe321_91.25_41449.sdst ! RUN = 41449 ! NEVT = 3000
FILE = /castor/cern.ch/delphi/MCprod/cern/kk2f4146/v94c/91.25/kk2f4146_qqpybe321_91.25_41450.sdst ! RUN = 41450 ! NEVT = 3000
FILE = /castor/cern.ch/delphi/MCprod/cern/kk2f4146/v94c/91.25/kk2f4146_qqpybe321_91.25_41451.sdst ! RUN = 41451 ! NEVT = 3000
FILE = /castor/cern.ch/delphi/MCprod/cern/kk2f4146/v94c/91.25/kk2f4146_qqpybe321_91.25_41452.sdst ! RUN = 41452 ! NEVT = 3000
FILE = /castor/cern.ch/delphi/MCprod/cern/kk2f4146/v94c/91.25/kk2f4146_qqpybe321_91.25_41453.sdst ! RUN = 41453 ! NEVT = 3000
FILE = /castor/cern.ch/delphi/MCprod/cern/kk2f4146/v94c/91.25/kk2f4146_qqpybe321_91.25_41454.sdst ! RUN = 41454 ! NEVT = 3000
FILE = /castor/cern.ch/delphi/MCprod/cern/kk2f4146/v94c/91.25/kk2f4146_qqpybe321_91.25_41455.sdst ! RUN = 41455 ! NEVT = 3000
FILE = /castor/cern.ch/delphi/MCprod/cern/kk2f4146/v94c/91.25/kk2f4146_qqpybe321_91.25_41456.sdst ! RUN = 41456 ! NEVT = 2999
FILE = /castor/cern.ch/delphi/MCprod/cern/kk2f4146/v94c/91.25/kk2f4146_qqpybe321_91.25_41457.sdst ! RUN = 41457 ! NEVT = 2999
FILE = /castor/cern.ch/delphi/MCprod/cern/kk2f4146/v94c/91.25/kk2f4146_qqpybe321_91.25_41458.sdst ! RUN = 41458 ! NEVT = 2998
FILE = /castor/cern.ch/delphi/MCprod/cern/kk2f4146/v94c/91.25/kk2f4146_qqpybe321_91.25_41459.sdst ! RUN = 41459 ! NEVT = 3000
FILE = /castor/cern.ch/delphi/MCprod/cern/kk2f4146/v94c/91.25/kk2f4146_qqpybe321_91.25_41460.sdst ! RUN = 41460 ! NEVT = 3000
FILE = /castor/cern.ch/delphi/MCprod/cern/kk2f4146/v94c/91.25/kk2f4146_qqpybe321_91.25_41461.sdst ! RUN = 41461 ! NEVT = 2999
FILE = /castor/cern.ch/delphi/MCprod/cern/kk2f4146/v94c/91.25/kk2f4146_qqpybe321_91.25_41462.sdst ! RUN = 41462 ! NEVT = 3000
FILE = /castor/cern.ch/delphi/MCprod/cern/kk2f4146/v94c/91.25/kk2f4146_qqpybe321_91.25_41463.sdst ! RUN = 41463 ! NEVT = 3000
FILE = /castor/cern.ch/delphi/MCprod/cern/kk2f4146/v94c/91.25/kk2f4146_qqpybe321_91.25_41464.sdst ! RUN = 41464 ! NEVT = 3000
FILE = /castor/cern.ch/delphi/MCprod/cern/kk2f4146/v94c/91.25/kk2f4146_qqpybe321_91.25_41465.sdst ! RUN = 41465 ! NEVT = 3000
FILE = /castor/cern.ch/delphi/MCprod/cern/kk2f4146/v94c/91.25/kk2f4146_qqpybe321_91.25_41466.sdst ! RUN = 41466 ! NEVT = 3000
FILE = /castor/cern.ch/delphi/MCprod/cern/kk2f4146/v94c/91.25/kk2f4146_qqpybe321_91.25_41467.sdst ! RUN = 41467 ! NEVT = 3000
FILE = /castor/cern.ch/delphi/MCprod/cern/kk2f4146/v94c/91.25/kk2f4146_qqpybe321_91.25_41468.sdst ! RUN = 41468 ! NEVT = 2999
FILE = /castor/cern.ch/delphi/MCprod/cern/kk2f4146/v94c/91.25/kk2f4146_qqpybe321_91.25_41469.sdst ! RUN = 41469 ! NEVT = 221
FILE = /castor/cern.ch/delphi/MCprod/cern/kk2f4146/v94c/91.25/kk2f4146_qqpybe321_91.25_41470.sdst ! RUN = 41470 ! NEVT = 3000
FILE = /castor/cern.ch/delphi/MCprod/cern/kk2f4146/v94c/91.25/kk2f4146_qqpybe321_91.25_41471.sdst ! RUN = 41471 ! NEVT = 2997
FILE = /castor/cern.ch/delphi/MCprod/cern/kk2f4146/v94c/91.25/kk2f4146_qqpybe321_91.25_41472.sdst ! RUN = 41472 ! NEVT = 3000
FILE = /castor/cern.ch/delphi/MCprod/cern/kk2f4146/v94c/91.25/kk2f4146_qqpybe321_91.25_41473.sdst ! RUN = 41473 ! NEVT = 2727
FILE = /castor/cern.ch/delphi/MCprod/cern/kk2f4146/v94c/91.25/kk2f4146_qqpybe321_91.25_41474.sdst ! RUN = 41474 ! NEVT = 3000
FILE = /castor/cern.ch/delphi/MCprod/cern/kk2f4146/v94c/91.25/kk2f4146_qqpybe321_91.25_41475.sdst ! RUN = 41475 ! NEVT = 3000
FILE = /castor/cern.ch/delphi/MCprod/cern/kk2f4146/v94c/91.25/kk2f4146_qqpybe321_91.25_41476.sdst ! RUN = 41476 ! NEVT = 3000
FILE = /castor/cern.ch/delphi/MCprod/cern/kk2f4146/v94c/91.25/kk2f4146_qqpybe321_91.25_41477.sdst ! RUN = 41477 ! NEVT = 3000
FILE = /castor/cern.ch/delphi/MCprod/cern/kk2f4146/v94c/91.25/kk2f4146_qqpybe321_91.25_41478.sdst ! RUN = 41478 ! NEVT = 2999
FILE = /castor/cern.ch/delphi/MCprod/cern/kk2f4146/v94c/91.25/kk2f4146_qqpybe321_91.25_41481.sdst ! RUN = 41481 ! NEVT = 3000
FILE = /castor/cern.ch/delphi/MCprod/cern/kk2f4146/v94c/91.25/kk2f4146_qqpybe321_91.25_41482.sdst ! RUN = 41482 ! NEVT = 2999
FILE = /castor/cern.ch/delphi/MCprod/cern/kk2f4146/v94c/91.25/kk2f4146_qqpybe321_91.25_41483.sdst ! RUN = 41483 ! NEVT = 3000
FILE = /castor/cern.ch/delphi/MCprod/cern/kk2f4146/v94c/91.25/kk2f4146_qqpybe321_91.25_41484.sdst ! RUN = 41484 ! NEVT = 3000
FILE = /castor/cern.ch/delphi/MCprod/cern/kk2f4146/v94c/91.25/kk2f4146_qqpybe321_91.25_41485.sdst ! RUN = 41485 ! NEVT = 3000
FILE = /castor/cern.ch/delphi/MCprod/cern/kk2f4146/v94c/91.25/kk2f4146_qqpybe321_91.25_41486.sdst ! RUN = 41486 ! NEVT = 2999
FILE = /castor/cern.ch/delphi/MCprod/cern/kk2f4146/v94c/91.25/kk2f4146_qqpybe321_91.25_41487.sdst ! RUN = 41487 ! NEVT = 3000
FILE = /castor/cern.ch/delphi/MCprod/cern/kk2f4146/v94c/91.25/kk2f4146_qqpybe321_91.25_41488.sdst ! RUN = 41488 ! NEVT = 2999
FILE = /castor/cern.ch/delphi/MCprod/cern/kk2f4146/v94c/91.25/kk2f4146_qqpybe321_91.25_41489.sdst ! RUN = 41489 ! NEVT = 3000
FILE = /castor/cern.ch/delphi/MCprod/cern/kk2f4146/v94c/91.25/kk2f4146_qqpybe321_91.25_41490.sdst ! RUN = 41490 ! NEVT = 3000
FILE = /castor/cern.ch/delphi/MCprod/cern/kk2f4146/v94c/91.25/kk2f4146_qqpybe321_91.25_41491.sdst ! RUN = 41491 ! NEVT = 3000
FILE = /castor/cern.ch/delphi/MCprod/cern/kk2f4146/v94c/91.25/kk2f4146_qqpybe321_91.25_41492.sdst ! RUN = 41492 ! NEVT = 3000
FILE = /castor/cern.ch/delphi/MCprod/cern/kk2f4146/v94c/91.25/kk2f4146_qqpybe321_91.25_41493.sdst ! RUN = 41493 ! NEVT = 3000
FILE = /castor/cern.ch/delphi/MCprod/cern/kk2f4146/v94c/91.25/kk2f4146_qqpybe321_91.25_41494.sdst ! RUN = 41494 ! NEVT = 3000
FILE = /castor/cern.ch/delphi/MCprod/cern/kk2f4146/v94c/91.25/kk2f4146_qqpybe321_91.25_41495.sdst ! RUN = 41495 ! NEVT = 3000
FILE = /castor/cern.ch/delphi/MCprod/cern/kk2f4146/v94c/91.25/kk2f4146_qqpybe321_91.25_41496.sdst ! RUN = 41496 ! NEVT = 3000
FILE = /castor/cern.ch/delphi/MCprod/cern/kk2f4146/v94c/91.25/kk2f4146_qqpybe321_91.25_41497.sdst ! RUN = 41497 ! NEVT = 3000
FILE = /castor/cern.ch/delphi/MCprod/cern/kk2f4146/v94c/91.25/kk2f4146_qqpybe321_91.25_41498.sdst ! RUN = 41498 ! NEVT = 35
FILE = /castor/cern.ch/delphi/MCprod/cern/kk2f4146/v94c/91.25/kk2f4146_qqpybe321_91.25_41499.sdst ! RUN = 41499 ! NEVT = 3000
FILE = /castor/cern.ch/delphi/MCprod/cern/kk2f4146/v94c/91.25/kk2f4146_qqpybe321_91.25_41501.sdst ! RUN = 41501 ! NEVT = 3000
FILE = /castor/cern.ch/delphi/MCprod/cern/kk2f4146/v94c/91.25/kk2f4146_qqpybe321_91.25_41502.sdst ! RUN = 41502 ! NEVT = 3000
FILE = /castor/cern.ch/delphi/MCprod/cern/kk2f4146/v94c/91.25/kk2f4146_qqpybe321_91.25_41503.sdst ! RUN = 41503 ! NEVT = 2999
FILE = /castor/cern.ch/delphi/MCprod/cern/kk2f4146/v94c/91.25/kk2f4146_qqpybe321_91.25_41504.sdst ! RUN = 41504 ! NEVT = 3000
FILE = /castor/cern.ch/delphi/MCprod/cern/kk2f4146/v94c/91.25/kk2f4146_qqpybe321_91.25_41505.sdst ! RUN = 41505 ! NEVT = 3000
FILE = /castor/cern.ch/delphi/MCprod/cern/kk2f4146/v94c/91.25/kk2f4146_qqpybe321_91.25_41506.sdst ! RUN = 41506 ! NEVT = 3000
FILE = /castor/cern.ch/delphi/MCprod/cern/kk2f4146/v94c/91.25/kk2f4146_qqpybe321_91.25_41507.sdst ! RUN = 41507 ! NEVT = 3000
FILE = /castor/cern.ch/delphi/MCprod/cern/kk2f4146/v94c/91.25/kk2f4146_qqpybe321_91.25_41508.sdst ! RUN = 41508 ! NEVT = 3000
FILE = /castor/cern.ch/delphi/MCprod/cern/kk2f4146/v94c/91.25/kk2f4146_qqpybe321_91.25_41509.sdst ! RUN = 41509 ! NEVT = 3000
FILE = /castor/cern.ch/delphi/MCprod/cern/kk2f4146/v94c/91.25/kk2f4146_qqpybe321_91.25_41510.sdst ! RUN = 41510 ! NEVT = 2999
FILE = /castor/cern.ch/delphi/MCprod/cern/kk2f4146/v94c/91.25/kk2f4146_qqpybe321_91.25_41511.sdst ! RUN = 41511 ! NEVT = 3000
FILE = /castor/cern.ch/delphi/MCprod/cern/kk2f4146/v94c/91.25/kk2f4146_qqpybe321_91.25_41512.sdst ! RUN = 41512 ! NEVT = 2938
FILE = /castor/cern.ch/delphi/MCprod/cern/kk2f4146/v94c/91.25/kk2f4146_qqpybe321_91.25_41513.sdst ! RUN = 41513 ! NEVT = 3000
FILE = /castor/cern.ch/delphi/MCprod/cern/kk2f4146/v94c/91.25/kk2f4146_qqpybe321_91.25_41514.sdst ! RUN = 41514 ! NEVT = 3000
FILE = /castor/cern.ch/delphi/MCprod/cern/kk2f4146/v94c/91.25/kk2f4146_qqpybe321_91.25_41516.sdst ! RUN = 41516 ! NEVT = 2999
FILE = /castor/cern.ch/delphi/MCprod/cern/kk2f4146/v94c/91.25/kk2f4146_qqpybe321_91.25_41517.sdst ! RUN = 41517 ! NEVT = 3000
FILE = /castor/cern.ch/delphi/MCprod/cern/kk2f4146/v94c/91.25/kk2f4146_qqpybe321_91.25_41518.sdst ! RUN = 41518 ! NEVT = 3000
FILE = /castor/cern.ch/delphi/MCprod/cern/kk2f4146/v94c/91.25/kk2f4146_qqpybe321_91.25_41519.sdst ! RUN = 41519 ! NEVT = 2999
FILE = /castor/cern.ch/delphi/MCprod/cern/kk2f4146/v94c/91.25/kk2f4146_qqpybe321_91.25_41520.sdst ! RUN = 41520 ! NEVT = 3000
