*
*   Nickname     : sh_kk2f4145qqpybe321_e91.25_l94_2l_c2
*   Generic Name : //CERN/DELPHI/P01_SIMD/SHORT/KK2F4145QQPYBE321/E91.25/LYON/SUMT/C001-67
*   Description  :  Short DST simulation 94c2 done at ecms=91.25 , Lyon
*---
*   Comments     : in total 193566 events in 67 files time stamp: Mon Apr 15 01:11:04 2002
*---
*
*
*
*
*
FILE = /castor/cern.ch/delphi/MCprod/lyon/kk2f4145/v94c/91.25/kk2f4145_qqpybe321_91.25_10001.sdst ! RUN = 10001 ! NEVT = 2999
FILE = /castor/cern.ch/delphi/MCprod/lyon/kk2f4145/v94c/91.25/kk2f4145_qqpybe321_91.25_10002.sdst ! RUN = 10002 ! NEVT = 3000
FILE = /castor/cern.ch/delphi/MCprod/lyon/kk2f4145/v94c/91.25/kk2f4145_qqpybe321_91.25_10003.sdst ! RUN = 10003 ! NEVT = 3000
FILE = /castor/cern.ch/delphi/MCprod/lyon/kk2f4145/v94c/91.25/kk2f4145_qqpybe321_91.25_10004.sdst ! RUN = 10004 ! NEVT = 3000
FILE = /castor/cern.ch/delphi/MCprod/lyon/kk2f4145/v94c/91.25/kk2f4145_qqpybe321_91.25_10005.sdst ! RUN = 10005 ! NEVT = 3000
FILE = /castor/cern.ch/delphi/MCprod/lyon/kk2f4145/v94c/91.25/kk2f4145_qqpybe321_91.25_10006.sdst ! RUN = 10006 ! NEVT = 204
FILE = /castor/cern.ch/delphi/MCprod/lyon/kk2f4145/v94c/91.25/kk2f4145_qqpybe321_91.25_10007.sdst ! RUN = 10007 ! NEVT = 3000
FILE = /castor/cern.ch/delphi/MCprod/lyon/kk2f4145/v94c/91.25/kk2f4145_qqpybe321_91.25_10008.sdst ! RUN = 10008 ! NEVT = 2999
FILE = /castor/cern.ch/delphi/MCprod/lyon/kk2f4145/v94c/91.25/kk2f4145_qqpybe321_91.25_10009.sdst ! RUN = 10009 ! NEVT = 3000
FILE = /castor/cern.ch/delphi/MCprod/lyon/kk2f4145/v94c/91.25/kk2f4145_qqpybe321_91.25_10010.sdst ! RUN = 10010 ! NEVT = 3000
FILE = /castor/cern.ch/delphi/MCprod/lyon/kk2f4145/v94c/91.25/kk2f4145_qqpybe321_91.25_10011.sdst ! RUN = 10011 ! NEVT = 3000
FILE = /castor/cern.ch/delphi/MCprod/lyon/kk2f4145/v94c/91.25/kk2f4145_qqpybe321_91.25_10012.sdst ! RUN = 10012 ! NEVT = 3000
FILE = /castor/cern.ch/delphi/MCprod/lyon/kk2f4145/v94c/91.25/kk2f4145_qqpybe321_91.25_10013.sdst ! RUN = 10013 ! NEVT = 3000
FILE = /castor/cern.ch/delphi/MCprod/lyon/kk2f4145/v94c/91.25/kk2f4145_qqpybe321_91.25_10014.sdst ! RUN = 10014 ! NEVT = 2999
FILE = /castor/cern.ch/delphi/MCprod/lyon/kk2f4145/v94c/91.25/kk2f4145_qqpybe321_91.25_10015.sdst ! RUN = 10015 ! NEVT = 3000
FILE = /castor/cern.ch/delphi/MCprod/lyon/kk2f4145/v94c/91.25/kk2f4145_qqpybe321_91.25_10016.sdst ! RUN = 10016 ! NEVT = 3000
FILE = /castor/cern.ch/delphi/MCprod/lyon/kk2f4145/v94c/91.25/kk2f4145_qqpybe321_91.25_10017.sdst ! RUN = 10017 ! NEVT = 3000
FILE = /castor/cern.ch/delphi/MCprod/lyon/kk2f4145/v94c/91.25/kk2f4145_qqpybe321_91.25_10018.sdst ! RUN = 10018 ! NEVT = 2562
FILE = /castor/cern.ch/delphi/MCprod/lyon/kk2f4145/v94c/91.25/kk2f4145_qqpybe321_91.25_10019.sdst ! RUN = 10019 ! NEVT = 3000
FILE = /castor/cern.ch/delphi/MCprod/lyon/kk2f4145/v94c/91.25/kk2f4145_qqpybe321_91.25_10020.sdst ! RUN = 10020 ! NEVT = 3000
FILE = /castor/cern.ch/delphi/MCprod/lyon/kk2f4145/v94c/91.25/kk2f4145_qqpybe321_91.25_10021.sdst ! RUN = 10021 ! NEVT = 3000
FILE = /castor/cern.ch/delphi/MCprod/lyon/kk2f4145/v94c/91.25/kk2f4145_qqpybe321_91.25_10022.sdst ! RUN = 10022 ! NEVT = 3000
FILE = /castor/cern.ch/delphi/MCprod/lyon/kk2f4145/v94c/91.25/kk2f4145_qqpybe321_91.25_10023.sdst ! RUN = 10023 ! NEVT = 3000
FILE = /castor/cern.ch/delphi/MCprod/lyon/kk2f4145/v94c/91.25/kk2f4145_qqpybe321_91.25_10024.sdst ! RUN = 10024 ! NEVT = 2661
FILE = /castor/cern.ch/delphi/MCprod/lyon/kk2f4145/v94c/91.25/kk2f4145_qqpybe321_91.25_10025.sdst ! RUN = 10025 ! NEVT = 2999
FILE = /castor/cern.ch/delphi/MCprod/lyon/kk2f4145/v94c/91.25/kk2f4145_qqpybe321_91.25_10026.sdst ! RUN = 10026 ! NEVT = 2999
FILE = /castor/cern.ch/delphi/MCprod/lyon/kk2f4145/v94c/91.25/kk2f4145_qqpybe321_91.25_10027.sdst ! RUN = 10027 ! NEVT = 3000
FILE = /castor/cern.ch/delphi/MCprod/lyon/kk2f4145/v94c/91.25/kk2f4145_qqpybe321_91.25_10028.sdst ! RUN = 10028 ! NEVT = 2999
FILE = /castor/cern.ch/delphi/MCprod/lyon/kk2f4145/v94c/91.25/kk2f4145_qqpybe321_91.25_10029.sdst ! RUN = 10029 ! NEVT = 2999
FILE = /castor/cern.ch/delphi/MCprod/lyon/kk2f4145/v94c/91.25/kk2f4145_qqpybe321_91.25_10030.sdst ! RUN = 10030 ! NEVT = 3000
FILE = /castor/cern.ch/delphi/MCprod/lyon/kk2f4145/v94c/91.25/kk2f4145_qqpybe321_91.25_10031.sdst ! RUN = 10031 ! NEVT = 3000
FILE = /castor/cern.ch/delphi/MCprod/lyon/kk2f4145/v94c/91.25/kk2f4145_qqpybe321_91.25_10032.sdst ! RUN = 10032 ! NEVT = 3000
FILE = /castor/cern.ch/delphi/MCprod/lyon/kk2f4145/v94c/91.25/kk2f4145_qqpybe321_91.25_10033.sdst ! RUN = 10033 ! NEVT = 2999
FILE = /castor/cern.ch/delphi/MCprod/lyon/kk2f4145/v94c/91.25/kk2f4145_qqpybe321_91.25_10034.sdst ! RUN = 10034 ! NEVT = 3000
FILE = /castor/cern.ch/delphi/MCprod/lyon/kk2f4145/v94c/91.25/kk2f4145_qqpybe321_91.25_10035.sdst ! RUN = 10035 ! NEVT = 3000
FILE = /castor/cern.ch/delphi/MCprod/lyon/kk2f4145/v94c/91.25/kk2f4145_qqpybe321_91.25_10036.sdst ! RUN = 10036 ! NEVT = 3000
FILE = /castor/cern.ch/delphi/MCprod/lyon/kk2f4145/v94c/91.25/kk2f4145_qqpybe321_91.25_10037.sdst ! RUN = 10037 ! NEVT = 1855
FILE = /castor/cern.ch/delphi/MCprod/lyon/kk2f4145/v94c/91.25/kk2f4145_qqpybe321_91.25_10038.sdst ! RUN = 10038 ! NEVT = 3000
FILE = /castor/cern.ch/delphi/MCprod/lyon/kk2f4145/v94c/91.25/kk2f4145_qqpybe321_91.25_10039.sdst ! RUN = 10039 ! NEVT = 2999
FILE = /castor/cern.ch/delphi/MCprod/lyon/kk2f4145/v94c/91.25/kk2f4145_qqpybe321_91.25_10040.sdst ! RUN = 10040 ! NEVT = 3000
FILE = /castor/cern.ch/delphi/MCprod/lyon/kk2f4145/v94c/91.25/kk2f4145_qqpybe321_91.25_10041.sdst ! RUN = 10041 ! NEVT = 3000
FILE = /castor/cern.ch/delphi/MCprod/lyon/kk2f4145/v94c/91.25/kk2f4145_qqpybe321_91.25_10042.sdst ! RUN = 10042 ! NEVT = 3000
FILE = /castor/cern.ch/delphi/MCprod/lyon/kk2f4145/v94c/91.25/kk2f4145_qqpybe321_91.25_10043.sdst ! RUN = 10043 ! NEVT = 3000
FILE = /castor/cern.ch/delphi/MCprod/lyon/kk2f4145/v94c/91.25/kk2f4145_qqpybe321_91.25_10044.sdst ! RUN = 10044 ! NEVT = 3000
FILE = /castor/cern.ch/delphi/MCprod/lyon/kk2f4145/v94c/91.25/kk2f4145_qqpybe321_91.25_10045.sdst ! RUN = 10045 ! NEVT = 2999
FILE = /castor/cern.ch/delphi/MCprod/lyon/kk2f4145/v94c/91.25/kk2f4145_qqpybe321_91.25_10046.sdst ! RUN = 10046 ! NEVT = 3000
FILE = /castor/cern.ch/delphi/MCprod/lyon/kk2f4145/v94c/91.25/kk2f4145_qqpybe321_91.25_10047.sdst ! RUN = 10047 ! NEVT = 3000
FILE = /castor/cern.ch/delphi/MCprod/lyon/kk2f4145/v94c/91.25/kk2f4145_qqpybe321_91.25_10048.sdst ! RUN = 10048 ! NEVT = 3000
FILE = /castor/cern.ch/delphi/MCprod/lyon/kk2f4145/v94c/91.25/kk2f4145_qqpybe321_91.25_10049.sdst ! RUN = 10049 ! NEVT = 3000
FILE = /castor/cern.ch/delphi/MCprod/lyon/kk2f4145/v94c/91.25/kk2f4145_qqpybe321_91.25_10050.sdst ! RUN = 10050 ! NEVT = 2998
FILE = /castor/cern.ch/delphi/MCprod/lyon/kk2f4145/v94c/91.25/kk2f4145_qqpybe321_91.25_10051.sdst ! RUN = 10051 ! NEVT = 3000
FILE = /castor/cern.ch/delphi/MCprod/lyon/kk2f4145/v94c/91.25/kk2f4145_qqpybe321_91.25_10053.sdst ! RUN = 10053 ! NEVT = 2726
FILE = /castor/cern.ch/delphi/MCprod/lyon/kk2f4145/v94c/91.25/kk2f4145_qqpybe321_91.25_10054.sdst ! RUN = 10054 ! NEVT = 3000
FILE = /castor/cern.ch/delphi/MCprod/lyon/kk2f4145/v94c/91.25/kk2f4145_qqpybe321_91.25_10055.sdst ! RUN = 10055 ! NEVT = 2999
FILE = /castor/cern.ch/delphi/MCprod/lyon/kk2f4145/v94c/91.25/kk2f4145_qqpybe321_91.25_10056.sdst ! RUN = 10056 ! NEVT = 2999
FILE = /castor/cern.ch/delphi/MCprod/lyon/kk2f4145/v94c/91.25/kk2f4145_qqpybe321_91.25_10057.sdst ! RUN = 10057 ! NEVT = 3000
FILE = /castor/cern.ch/delphi/MCprod/lyon/kk2f4145/v94c/91.25/kk2f4145_qqpybe321_91.25_10058.sdst ! RUN = 10058 ! NEVT = 3000
FILE = /castor/cern.ch/delphi/MCprod/lyon/kk2f4145/v94c/91.25/kk2f4145_qqpybe321_91.25_10059.sdst ! RUN = 10059 ! NEVT = 3000
FILE = /castor/cern.ch/delphi/MCprod/lyon/kk2f4145/v94c/91.25/kk2f4145_qqpybe321_91.25_10060.sdst ! RUN = 10060 ! NEVT = 3000
FILE = /castor/cern.ch/delphi/MCprod/lyon/kk2f4145/v94c/91.25/kk2f4145_qqpybe321_91.25_10061.sdst ! RUN = 10061 ! NEVT = 3000
FILE = /castor/cern.ch/delphi/MCprod/lyon/kk2f4145/v94c/91.25/kk2f4145_qqpybe321_91.25_10062.sdst ! RUN = 10062 ! NEVT = 2999
FILE = /castor/cern.ch/delphi/MCprod/lyon/kk2f4145/v94c/91.25/kk2f4145_qqpybe321_91.25_10063.sdst ! RUN = 10063 ! NEVT = 2999
FILE = /castor/cern.ch/delphi/MCprod/lyon/kk2f4145/v94c/91.25/kk2f4145_qqpybe321_91.25_10065.sdst ! RUN = 10065 ! NEVT = 2999
FILE = /castor/cern.ch/delphi/MCprod/lyon/kk2f4145/v94c/91.25/kk2f4145_qqpybe321_91.25_10066.sdst ! RUN = 10066 ! NEVT = 576
FILE = /castor/cern.ch/delphi/MCprod/lyon/kk2f4145/v94c/91.25/kk2f4145_qqpybe321_91.25_10067.sdst ! RUN = 10067 ! NEVT = 3000
FILE = /castor/cern.ch/delphi/MCprod/lyon/kk2f4145/v94c/91.25/kk2f4145_qqpybe321_91.25_10069.sdst ! RUN = 10069 ! NEVT = 3000
FILE = /castor/cern.ch/delphi/MCprod/lyon/kk2f4145/v94c/91.25/kk2f4145_qqpybe321_91.25_10070.sdst ! RUN = 10070 ! NEVT = 2999
