*
*   Nickname     : xs_hgee_e206.7_m60.0_k99_1l_a1
*   Generic Name : //CERN/DELPHI/P02_SIMD/XSDST/HGEE/E206.7/KARLSRUHE/SUMT
*   Description  : ShortDST HZHA03 H->gluglu, Z->e+e-  Extended Short DST simulation 99_a1 done at ecms=206.7 , Karlsruhe
*---
*   Comments     :  time stamp: Mon Feb 12 15:52:37 2001
*---
*
*   Comments     : only short dst has been kept           
*
*
*
*
FILE = /castor/cern.ch/delphi/MCprod/karlsruhe/hzha03/v99_4/206.7/hglglee60.0_206.7_1.xsdst ! RUN = 14336 ! NEVT = 399
FILE = /castor/cern.ch/delphi/MCprod/karlsruhe/hzha03/v99_4/206.7/hglglee60.0_206.7_2.xsdst ! RUN = 14337 ! NEVT = 398
FILE = /castor/cern.ch/delphi/MCprod/karlsruhe/hzha03/v99_4/206.7/hglglee60.0_206.7_3.xsdst ! RUN = 14338 ! NEVT = 399
FILE = /castor/cern.ch/delphi/MCprod/karlsruhe/hzha03/v99_4/206.7/hglglee60.0_206.7_4.xsdst ! RUN = 14339 ! NEVT = 398
FILE = /castor/cern.ch/delphi/MCprod/karlsruhe/hzha03/v99_4/206.7/hglglee60.0_206.7_5.xsdst ! RUN = 14340 ! NEVT = 398
