*
*   Nickname     : xs_hgmm_e206.7_m85.0_k99_1l_a1
*   Generic Name : //CERN/DELPHI/P02_SIMD/XSDST/HGMM/E206.7/KARLSRUHE/SUMT
*   Description  : ShortDST HZHA03 H->gluglu, Z->mu+mu-  Extended Short DST simulation 99_a1 done at ecms=206.7 , Karlsruhe
*---
*   Comments     :  time stamp: Mon Feb 12 15:52:39 2001
*---
*
*   Comments     : only short dst has been kept           
*
*
*
*
FILE = /castor/cern.ch/delphi/MCprod/karlsruhe/hzha03/v99_4/206.7/hglglmm85.0_206.7_1.xsdst ! RUN = 14861 ! NEVT = 400
FILE = /castor/cern.ch/delphi/MCprod/karlsruhe/hzha03/v99_4/206.7/hglglmm85.0_206.7_2.xsdst ! RUN = 14862 ! NEVT = 400
FILE = /castor/cern.ch/delphi/MCprod/karlsruhe/hzha03/v99_4/206.7/hglglmm85.0_206.7_3.xsdst ! RUN = 14863 ! NEVT = 400
FILE = /castor/cern.ch/delphi/MCprod/karlsruhe/hzha03/v99_4/206.7/hglglmm85.0_206.7_4.xsdst ! RUN = 14864 ! NEVT = 400
FILE = /castor/cern.ch/delphi/MCprod/karlsruhe/hzha03/v99_4/206.7/hglglmm85.0_206.7_5.xsdst ! RUN = 14865 ! NEVT = 400
