*
*   Nickname     : xs_hgee_e200_m65.0_k99_1l_a1
*   Generic Name : //CERN/DELPHI/P02_SIMD/XSDST/HGEE/KARLSRUHE/SUMT
*   Description  : ShortDST HZHA03 H->gluglu, Z->e+e-  Extended Short DST simulation 99_a1 200 , Karlsruhe
*---
*   Comments     :  time stamp: Mon Feb 12 15:52:37 2001
*---
*
*   Comments     : only short dst has been kept           
*
*
*
*
FILE = /castor/cern.ch/delphi/MCprod/karlsruhe/hzha03/v99_4/200/hglglee65.0_200._1.xsdst ! RUN = 14146 ! NEVT = 400
FILE = /castor/cern.ch/delphi/MCprod/karlsruhe/hzha03/v99_4/200/hglglee65.0_200._2.xsdst ! RUN = 14147 ! NEVT = 399
FILE = /castor/cern.ch/delphi/MCprod/karlsruhe/hzha03/v99_4/200/hglglee65.0_200._3.xsdst ! RUN = 14148 ! NEVT = 398
FILE = /castor/cern.ch/delphi/MCprod/karlsruhe/hzha03/v99_4/200/hglglee65.0_200._4.xsdst ! RUN = 14149 ! NEVT = 400
FILE = /castor/cern.ch/delphi/MCprod/karlsruhe/hzha03/v99_4/200/hglglee65.0_200._5.xsdst ! RUN = 14150 ! NEVT = 400
