*
*   Nickname     : xs_hzha03p6156hgnn_e205_m35_c99_1l_a1
*   Generic Name : //CERN/DELPHI/P02_SIMD/XSDST/HZHA03P6156HGNN/CERN/SUMT
*   Description  : ShortDST HZHA03 H->gluglu, Z->nunubar  Extended Short DST simulation 99_a1 205 , CERN
*---
*   Comments     :  time stamp: Thu Apr 19 18:03:11 2001
*---
*
*   Comments     : only short dst has been kept           
*
*
*
*
FILE = /castor/cern.ch/delphi/MCprod/cern/hzha03pyth6156/v99_4/205/hzha03pyth6156_hZ_vvgg_205_35_3511.xsdst ! RUN = 3511 ! NEVT = 499
FILE = /castor/cern.ch/delphi/MCprod/cern/hzha03pyth6156/v99_4/205/hzha03pyth6156_hZ_vvgg_205_35_3512.xsdst ! RUN = 3512 ! NEVT = 500
FILE = /castor/cern.ch/delphi/MCprod/cern/hzha03pyth6156/v99_4/205/hzha03pyth6156_hZ_vvgg_205_35_3513.xsdst ! RUN = 3513 ! NEVT = 500
FILE = /castor/cern.ch/delphi/MCprod/cern/hzha03pyth6156/v99_4/205/hzha03pyth6156_hZ_vvgg_205_35_3514.xsdst ! RUN = 3514 ! NEVT = 500
