*
*   Nickname     : xs_hgqq_e206.7_m90.0_k99_1l_a1
*   Generic Name : //CERN/DELPHI/P02_SIMD/XSDST/HGQQ/E206.7/KARLSRUHE/SUMT
*   Description  : ShortDST HZHA03 H->gluglu, Z->qqbar  Extended Short DST simulation 99_a1 done at ecms=206.7 , Karlsruhe
*---
*   Comments     :  time stamp: Mon Feb 12 15:52:41 2001
*---
*
*   Comments     : only short dst has been kept           
*
*
*
*
FILE = /castor/cern.ch/delphi/MCprod/karlsruhe/hzha03/v99_4/206.7/hglglqq90.0_206.7_1.xsdst ! RUN = 13366 ! NEVT = 400
FILE = /castor/cern.ch/delphi/MCprod/karlsruhe/hzha03/v99_4/206.7/hglglqq90.0_206.7_2.xsdst ! RUN = 13367 ! NEVT = 400
FILE = /castor/cern.ch/delphi/MCprod/karlsruhe/hzha03/v99_4/206.7/hglglqq90.0_206.7_3.xsdst ! RUN = 13368 ! NEVT = 400
FILE = /castor/cern.ch/delphi/MCprod/karlsruhe/hzha03/v99_4/206.7/hglglqq90.0_206.7_4.xsdst ! RUN = 13369 ! NEVT = 400
FILE = /castor/cern.ch/delphi/MCprod/karlsruhe/hzha03/v99_4/206.7/hglglqq90.0_206.7_5.xsdst ! RUN = 13370 ! NEVT = 400
