*
*   Nickname     : xs_hgqq_e192_m55.0_k99_1l_a1
*   Generic Name : //CERN/DELPHI/P02_SIMD/XSDST/HGQQ/KARLSRUHE/SUMT
*   Description  : ShortDST HZHA03 H->gluglu, Z->qqbar  Extended Short DST simulation 99_a1 192 , Karlsruhe
*---
*   Comments     :  time stamp: Mon Feb 12 15:52:40 2001
*---
*
*   Comments     : only short dst has been kept           
*
*
*
*
FILE = /castor/cern.ch/delphi/MCprod/karlsruhe/hzha03/v99_4/192/hglglqq55.0_192._1.xsdst ! RUN = 13006 ! NEVT = 400
FILE = /castor/cern.ch/delphi/MCprod/karlsruhe/hzha03/v99_4/192/hglglqq55.0_192._2.xsdst ! RUN = 13007 ! NEVT = 400
FILE = /castor/cern.ch/delphi/MCprod/karlsruhe/hzha03/v99_4/192/hglglqq55.0_192._3.xsdst ! RUN = 13008 ! NEVT = 399
FILE = /castor/cern.ch/delphi/MCprod/karlsruhe/hzha03/v99_4/192/hglglqq55.0_192._4.xsdst ! RUN = 13009 ! NEVT = 400
FILE = /castor/cern.ch/delphi/MCprod/karlsruhe/hzha03/v99_4/192/hglglqq55.0_192._5.xsdst ! RUN = 13010 ! NEVT = 400
