*
*   Nickname     : xs_hgmm_e202_m50.0_k99_1l_a1
*   Generic Name : //CERN/DELPHI/P02_SIMD/XSDST/HGMM/KARLSRUHE/SUMT
*   Description  : ShortDST HZHA03 H->gluglu, Z->mu+mu-  Extended Short DST simulation 99_a1 202 , Karlsruhe
*---
*   Comments     :  time stamp: Mon Feb 12 15:52:38 2001
*---
*
*   Comments     : only short dst has been kept           
*
*
*
*
FILE = /castor/cern.ch/delphi/MCprod/karlsruhe/hzha03/v99_4/202/hglglmm50.0_202._1.xsdst ! RUN = 14696 ! NEVT = 400
FILE = /castor/cern.ch/delphi/MCprod/karlsruhe/hzha03/v99_4/202/hglglmm50.0_202._2.xsdst ! RUN = 14697 ! NEVT = 400
FILE = /castor/cern.ch/delphi/MCprod/karlsruhe/hzha03/v99_4/202/hglglmm50.0_202._3.xsdst ! RUN = 14698 ! NEVT = 400
FILE = /castor/cern.ch/delphi/MCprod/karlsruhe/hzha03/v99_4/202/hglglmm50.0_202._4.xsdst ! RUN = 14699 ! NEVT = 400
FILE = /castor/cern.ch/delphi/MCprod/karlsruhe/hzha03/v99_4/202/hglglmm50.0_202._5.xsdst ! RUN = 14700 ! NEVT = 400
