*
*   Nickname     : xs_hgee_e192_m110.0_k99_1l_a1
*   Generic Name : //CERN/DELPHI/P02_SIMD/XSDST/HGEE/KARLSRUHE/SUMT
*   Description  : ShortDST HZHA03 H->gluglu, Z->e+e-  Extended Short DST simulation 99_a1 192 , Karlsruhe
*---
*   Comments     :  time stamp: Mon Feb 12 15:52:37 2001
*---
*
*   Comments     : only short dst has been kept           
*
*
*
*
FILE = /castor/cern.ch/delphi/MCprod/karlsruhe/hzha03/v99_4/192/hglglee110.0_192._1.xsdst ! RUN = 14061 ! NEVT = 398
FILE = /castor/cern.ch/delphi/MCprod/karlsruhe/hzha03/v99_4/192/hglglee110.0_192._2.xsdst ! RUN = 14062 ! NEVT = 400
FILE = /castor/cern.ch/delphi/MCprod/karlsruhe/hzha03/v99_4/192/hglglee110.0_192._3.xsdst ! RUN = 14063 ! NEVT = 399
FILE = /castor/cern.ch/delphi/MCprod/karlsruhe/hzha03/v99_4/192/hglglee110.0_192._4.xsdst ! RUN = 14064 ! NEVT = 400
FILE = /castor/cern.ch/delphi/MCprod/karlsruhe/hzha03/v99_4/192/hglglee110.0_192._5.xsdst ! RUN = 14065 ! NEVT = 400
