*
*   Nickname     : xs_hgnn_e200_m110.0_k99_1l_a1
*   Generic Name : //CERN/DELPHI/P02_SIMD/XSDST/HGNN/KARLSRUHE/SUMT
*   Description  : ShortDST HZHA03 H->gluglu, Z->nunubar  Extended Short DST simulation 99_a1 200 , Karlsruhe
*---
*   Comments     :  time stamp: Mon Feb 12 15:52:39 2001
*---
*
*   Comments     : only short dst has been kept           
*
*
*
*
FILE = /castor/cern.ch/delphi/MCprod/karlsruhe/hzha03/v99_4/200/hglglnn110.0_200._1.xsdst ! RUN = 13691 ! NEVT = 400
FILE = /castor/cern.ch/delphi/MCprod/karlsruhe/hzha03/v99_4/200/hglglnn110.0_200._2.xsdst ! RUN = 13692 ! NEVT = 400
FILE = /castor/cern.ch/delphi/MCprod/karlsruhe/hzha03/v99_4/200/hglglnn110.0_200._3.xsdst ! RUN = 13693 ! NEVT = 400
FILE = /castor/cern.ch/delphi/MCprod/karlsruhe/hzha03/v99_4/200/hglglnn110.0_200._4.xsdst ! RUN = 13694 ! NEVT = 400
FILE = /castor/cern.ch/delphi/MCprod/karlsruhe/hzha03/v99_4/200/hglglnn110.0_200._5.xsdst ! RUN = 13695 ! NEVT = 400
