*
*   Nickname     : xs_hgtt_e202_m65.0_k99_1l_a1
*   Generic Name : //CERN/DELPHI/P02_SIMD/XSDST/HGTT/KARLSRUHE/SUMT
*   Description  : ShortDST HZHA03 H->gluglu, Z->tau+tau- Extended Short DST simulation 99_a1 202 , Karlsruhe
*---
*   Comments     :  time stamp: Mon Feb 12 15:52:43 2001
*---
*
*   Comments     : only short dst has been kept           
*
*
*
*
FILE = /castor/cern.ch/delphi/MCprod/karlsruhe/hzha03/v99_4/202/hglgltt65.0_202._1.xsdst ! RUN = 15211 ! NEVT = 400
FILE = /castor/cern.ch/delphi/MCprod/karlsruhe/hzha03/v99_4/202/hglgltt65.0_202._2.xsdst ! RUN = 15212 ! NEVT = 400
FILE = /castor/cern.ch/delphi/MCprod/karlsruhe/hzha03/v99_4/202/hglgltt65.0_202._3.xsdst ! RUN = 15213 ! NEVT = 400
FILE = /castor/cern.ch/delphi/MCprod/karlsruhe/hzha03/v99_4/202/hglgltt65.0_202._4.xsdst ! RUN = 15214 ! NEVT = 400
FILE = /castor/cern.ch/delphi/MCprod/karlsruhe/hzha03/v99_4/202/hglgltt65.0_202._5.xsdst ! RUN = 15215 ! NEVT = 400
