*
*   Nickname     : xs_hgtt_e200_m90.0_k99_1l_a1
*   Generic Name : //CERN/DELPHI/P02_SIMD/XSDST/HGTT/KARLSRUHE/SUMT
*   Description  : ShortDST HZHA03 H->gluglu, Z->tau+tau- Extended Short DST simulation 99_a1 200 , Karlsruhe
*---
*   Comments     :  time stamp: Mon Feb 12 15:52:42 2001
*---
*
*   Comments     : only short dst has been kept           
*
*
*
*
FILE = /castor/cern.ch/delphi/MCprod/karlsruhe/hzha03/v99_4/200/hglgltt90.0_200._1.xsdst ! RUN = 15171 ! NEVT = 400
FILE = /castor/cern.ch/delphi/MCprod/karlsruhe/hzha03/v99_4/200/hglgltt90.0_200._2.xsdst ! RUN = 15172 ! NEVT = 400
FILE = /castor/cern.ch/delphi/MCprod/karlsruhe/hzha03/v99_4/200/hglgltt90.0_200._3.xsdst ! RUN = 15173 ! NEVT = 400
FILE = /castor/cern.ch/delphi/MCprod/karlsruhe/hzha03/v99_4/200/hglgltt90.0_200._4.xsdst ! RUN = 15174 ! NEVT = 400
FILE = /castor/cern.ch/delphi/MCprod/karlsruhe/hzha03/v99_4/200/hglgltt90.0_200._5.xsdst ! RUN = 15175 ! NEVT = 400
