*
*   Nickname     : xs_hgqq_e205_m50.0_k99_1l_a1
*   Generic Name : //CERN/DELPHI/P02_SIMD/XSDST/HGQQ/KARLSRUHE/SUMT
*   Description  : ShortDST HZHA03 H->gluglu, Z->qqbar  Extended Short DST simulation 99_a1 205 , Karlsruhe
*---
*   Comments     :  time stamp: Mon Feb 12 15:52:41 2001
*---
*
*   Comments     : only short dst has been kept           
*
*
*
*
FILE = /castor/cern.ch/delphi/MCprod/karlsruhe/hzha03/v99_4/205/hglglqq50.0_205._1.xsdst ! RUN = 13261 ! NEVT = 399
FILE = /castor/cern.ch/delphi/MCprod/karlsruhe/hzha03/v99_4/205/hglglqq50.0_205._2.xsdst ! RUN = 13262 ! NEVT = 400
FILE = /castor/cern.ch/delphi/MCprod/karlsruhe/hzha03/v99_4/205/hglglqq50.0_205._3.xsdst ! RUN = 13263 ! NEVT = 400
FILE = /castor/cern.ch/delphi/MCprod/karlsruhe/hzha03/v99_4/205/hglglqq50.0_205._4.xsdst ! RUN = 13264 ! NEVT = 400
FILE = /castor/cern.ch/delphi/MCprod/karlsruhe/hzha03/v99_4/205/hglglqq50.0_205._5.xsdst ! RUN = 13265 ! NEVT = 400
