*
*   Nickname     : xs_hzha03p6156hgqq_e200_m25_c99_1l_a1
*   Generic Name : //CERN/DELPHI/P02_SIMD/XSDST/HZHA03P6156HGQQ/CERN/SUMT
*   Description  : ShortDST HZHA03 H->gluglu, Z->qqbar  Extended Short DST simulation 99_a1 200 , CERN
*---
*   Comments     :  time stamp: Thu Apr 19 18:02:50 2001
*---
*
*   Comments     : only short dst has been kept           
*
*
*
*
FILE = /castor/cern.ch/delphi/MCprod/cern/hzha03pyth6156/v99_4/200/hzha03pyth6156_hZ_qqgg_200_25_2522.xsdst ! RUN = 2522 ! NEVT = 499
FILE = /castor/cern.ch/delphi/MCprod/cern/hzha03pyth6156/v99_4/200/hzha03pyth6156_hZ_qqgg_200_25_2523.xsdst ! RUN = 2523 ! NEVT = 500
FILE = /castor/cern.ch/delphi/MCprod/cern/hzha03pyth6156/v99_4/200/hzha03pyth6156_hZ_qqgg_200_25_2524.xsdst ! RUN = 2524 ! NEVT = 500
FILE = /castor/cern.ch/delphi/MCprod/cern/hzha03pyth6156/v99_4/200/hzha03pyth6156_hZ_qqgg_200_25_2525.xsdst ! RUN = 2525 ! NEVT = 500
