*
*   Nickname     : xs_hgee_e202_m95.0_k99_1l_a1
*   Generic Name : //CERN/DELPHI/P02_SIMD/XSDST/HGEE/KARLSRUHE/SUMT
*   Description  : ShortDST HZHA03 H->gluglu, Z->e+e-  Extended Short DST simulation 99_a1 202 , Karlsruhe
*---
*   Comments     :  time stamp: Mon Feb 12 15:52:37 2001
*---
*
*   Comments     : only short dst has been kept           
*
*
*
*
FILE = /castor/cern.ch/delphi/MCprod/karlsruhe/hzha03/v99_4/202/hglglee95.0_202._1.xsdst ! RUN = 14241 ! NEVT = 399
FILE = /castor/cern.ch/delphi/MCprod/karlsruhe/hzha03/v99_4/202/hglglee95.0_202._2.xsdst ! RUN = 14242 ! NEVT = 398
FILE = /castor/cern.ch/delphi/MCprod/karlsruhe/hzha03/v99_4/202/hglglee95.0_202._3.xsdst ! RUN = 14243 ! NEVT = 399
FILE = /castor/cern.ch/delphi/MCprod/karlsruhe/hzha03/v99_4/202/hglglee95.0_202._4.xsdst ! RUN = 14244 ! NEVT = 399
FILE = /castor/cern.ch/delphi/MCprod/karlsruhe/hzha03/v99_4/202/hglglee95.0_202._5.xsdst ! RUN = 14245 ! NEVT = 399
