*
*   Nickname     : xs_hgqq_e196_m100.0_k99_1l_a1
*   Generic Name : //CERN/DELPHI/P02_SIMD/XSDST/HGQQ/KARLSRUHE/SUMT
*   Description  : ShortDST HZHA03 H->gluglu, Z->qqbar  Extended Short DST simulation 99_a1 196 , Karlsruhe
*---
*   Comments     :  time stamp: Mon Feb 12 15:52:40 2001
*---
*
*   Comments     : only short dst has been kept           
*
*
*
*
FILE = /castor/cern.ch/delphi/MCprod/karlsruhe/hzha03/v99_4/196/hglglqq100.0_196._1.xsdst ! RUN = 13116 ! NEVT = 400
FILE = /castor/cern.ch/delphi/MCprod/karlsruhe/hzha03/v99_4/196/hglglqq100.0_196._2.xsdst ! RUN = 13117 ! NEVT = 399
FILE = /castor/cern.ch/delphi/MCprod/karlsruhe/hzha03/v99_4/196/hglglqq100.0_196._3.xsdst ! RUN = 13118 ! NEVT = 400
FILE = /castor/cern.ch/delphi/MCprod/karlsruhe/hzha03/v99_4/196/hglglqq100.0_196._4.xsdst ! RUN = 13119 ! NEVT = 400
FILE = /castor/cern.ch/delphi/MCprod/karlsruhe/hzha03/v99_4/196/hglglqq100.0_196._5.xsdst ! RUN = 13120 ! NEVT = 400
