*
*   Nickname     : xs_hzha03p6156hgnn_e205_m40_c99_1l_a1
*   Generic Name : //CERN/DELPHI/P02_SIMD/XSDST/HZHA03P6156HGNN/CERN/SUMT
*   Description  : ShortDST HZHA03 H->gluglu, Z->nunubar  Extended Short DST simulation 99_a1 205 , CERN
*---
*   Comments     :  time stamp: Thu Apr 19 18:03:11 2001
*---
*
*   Comments     : only short dst has been kept           
*
*
*
*
FILE = /castor/cern.ch/delphi/MCprod/cern/hzha03pyth6156/v99_4/205/hzha03pyth6156_hZ_vvgg_205_40_4011.xsdst ! RUN = 4011 ! NEVT = 500
FILE = /castor/cern.ch/delphi/MCprod/cern/hzha03pyth6156/v99_4/205/hzha03pyth6156_hZ_vvgg_205_40_4012.xsdst ! RUN = 4012 ! NEVT = 500
FILE = /castor/cern.ch/delphi/MCprod/cern/hzha03pyth6156/v99_4/205/hzha03pyth6156_hZ_vvgg_205_40_4013.xsdst ! RUN = 4013 ! NEVT = 500
FILE = /castor/cern.ch/delphi/MCprod/cern/hzha03pyth6156/v99_4/205/hzha03pyth6156_hZ_vvgg_205_40_4014.xsdst ! RUN = 4014 ! NEVT = 500
