*
*   Nickname     : xs_hzha03pyth6156hgqq_e188.6_m65.0_k98_1l_e1
*   Generic Name : //CERN/DELPHI/P02_SIMD/XSDST/HZHA03PYTH6156HGQQ/E188.6/KARLSRUHE/SUMT/C001-5
*   Description  : XShortDst HZHA03 H->gluglu, Z->qqbar  Extended Short DST simulation 98_e1 done at ecms=188.6 , Karlsruhe
*---
*   Comments     : in total 1997 events in 5 files time stamp: Wed Jan 23 12:18:08 2002
*---
*
*
*
*
*
FILE = /castor/cern.ch/delphi/MCprod/karlsruhe/hzha03pyth6156/v98e/188.6/hzha03pyth6156_hgqq_188.6_65.0_8571.xsdst ! RUN = 8571 ! NEVT = 400
FILE = /castor/cern.ch/delphi/MCprod/karlsruhe/hzha03pyth6156/v98e/188.6/hzha03pyth6156_hgqq_188.6_65.0_8572.xsdst ! RUN = 8572 ! NEVT = 400
FILE = /castor/cern.ch/delphi/MCprod/karlsruhe/hzha03pyth6156/v98e/188.6/hzha03pyth6156_hgqq_188.6_65.0_8573.xsdst ! RUN = 8573 ! NEVT = 400
FILE = /castor/cern.ch/delphi/MCprod/karlsruhe/hzha03pyth6156/v98e/188.6/hzha03pyth6156_hgqq_188.6_65.0_8574.xsdst ! RUN = 8574 ! NEVT = 399
FILE = /castor/cern.ch/delphi/MCprod/karlsruhe/hzha03pyth6156/v98e/188.6/hzha03pyth6156_hgqq_188.6_65.0_8575.xsdst ! RUN = 8575 ! NEVT = 398
