*
*   Nickname     : xs_hzha03pyth6156hsqq_e188.6_m77.5_k98_1l_e1
*   Generic Name : //CERN/DELPHI/P02_SIMD/XSDST/HZHA03PYTH6156HSQQ/E188.6/KARLSRUHE/SUMT/C001-5
*   Description  : XShortDst HZHA03 H->ssbar, Z->qqbar  Extended Short DST simulation 98_e1 done at ecms=188.6 , Karlsruhe
*---
*   Comments     : in total 2000 events in 5 files time stamp: Sun Jan 27 18:11:06 2002
*---
*
*
*
*
*
FILE = /castor/cern.ch/delphi/MCprod/karlsruhe/hzha03pyth6156/v98e/188.6/hzha03pyth6156_hsqq_188.6_77.5_9216.xsdst ! RUN = 9216 ! NEVT = 400
FILE = /castor/cern.ch/delphi/MCprod/karlsruhe/hzha03pyth6156/v98e/188.6/hzha03pyth6156_hsqq_188.6_77.5_9217.xsdst ! RUN = 9217 ! NEVT = 400
FILE = /castor/cern.ch/delphi/MCprod/karlsruhe/hzha03pyth6156/v98e/188.6/hzha03pyth6156_hsqq_188.6_77.5_9218.xsdst ! RUN = 9218 ! NEVT = 400
FILE = /castor/cern.ch/delphi/MCprod/karlsruhe/hzha03pyth6156/v98e/188.6/hzha03pyth6156_hsqq_188.6_77.5_9219.xsdst ! RUN = 9219 ! NEVT = 400
FILE = /castor/cern.ch/delphi/MCprod/karlsruhe/hzha03pyth6156/v98e/188.6/hzha03pyth6156_hsqq_188.6_77.5_9220.xsdst ! RUN = 9220 ! NEVT = 400
