*
*   Nickname     : xs_hzha03pyth6156hsnn_e188.6_m107.5_k98_1l_e1
*   Generic Name : //CERN/DELPHI/P02_SIMD/XSDST/HZHA03PYTH6156HSNN/E188.6/KARLSRUHE/SUMT/C001-5
*   Description  : XShortDst HZHA03 H->ssbar, Z->nunubar  Extended Short DST simulation 98_e1 done at ecms=188.6 , Karlsruhe
*---
*   Comments     : in total 2000 events in 5 files time stamp: Tue Jan 22 22:16:02 2002
*---
*
*
*
*
*
FILE = /castor/cern.ch/delphi/MCprod/karlsruhe/hzha03pyth6156/v98e/188.6/hzha03pyth6156_hsnn_188.6_107.5_8346.xsdst ! RUN = 8346 ! NEVT = 400
FILE = /castor/cern.ch/delphi/MCprod/karlsruhe/hzha03pyth6156/v98e/188.6/hzha03pyth6156_hsnn_188.6_107.5_8347.xsdst ! RUN = 8347 ! NEVT = 400
FILE = /castor/cern.ch/delphi/MCprod/karlsruhe/hzha03pyth6156/v98e/188.6/hzha03pyth6156_hsnn_188.6_107.5_8348.xsdst ! RUN = 8348 ! NEVT = 400
FILE = /castor/cern.ch/delphi/MCprod/karlsruhe/hzha03pyth6156/v98e/188.6/hzha03pyth6156_hsnn_188.6_107.5_8349.xsdst ! RUN = 8349 ! NEVT = 400
FILE = /castor/cern.ch/delphi/MCprod/karlsruhe/hzha03pyth6156/v98e/188.6/hzha03pyth6156_hsnn_188.6_107.5_8350.xsdst ! RUN = 8350 ! NEVT = 400
