*
*   Nickname     : xs_hzha03pyth6156hsee_e188.6_m97.5_l98_1l_e1
*   Generic Name : //CERN/DELPHI/P02_SIMD/XSDST/HZHA03PYTH6156HSEE/E188.6/LYON/SUMT/C001-4
*   Description  : XShortDst HZHA03 H->ssbar, Z->e+e-  Extended Short DST simulation 98_e1 done at ecms=188.6 , Lyon
*---
*   Comments     : in total 1999 events in 4 files time stamp: Fri Nov 16 18:10:41 2001
*---
*
*
*
*
*
FILE = /castor/cern.ch/delphi/MCprod/lyon/hzha03pyth6156/v98e/188.6/hzha03pyth6156_hsee_188.6_97.5_59750.xsdst ! RUN = 59750 ! NEVT = 500
FILE = /castor/cern.ch/delphi/MCprod/lyon/hzha03pyth6156/v98e/188.6/hzha03pyth6156_hsee_188.6_97.5_59751.xsdst ! RUN = 59751 ! NEVT = 500
FILE = /castor/cern.ch/delphi/MCprod/lyon/hzha03pyth6156/v98e/188.6/hzha03pyth6156_hsee_188.6_97.5_59752.xsdst ! RUN = 59752 ! NEVT = 500
FILE = /castor/cern.ch/delphi/MCprod/lyon/hzha03pyth6156/v98e/188.6/hzha03pyth6156_hsee_188.6_97.5_59753.xsdst ! RUN = 59753 ! NEVT = 499
