*
*   Nickname     : xs_hzha03pyth6156hcqq_e188.6_m45.0_k98_1l_e1
*   Generic Name : //CERN/DELPHI/P02_SIMD/XSDST/HZHA03PYTH6156HCQQ/E188.6/KARLSRUHE/SUMT/C001-5
*   Description  :  Extended Short DST simulation 98_e1 done at ecms=188.6 , Karlsruhe
*---
*   Comments     : in total 2000 events in 5 files time stamp: Thu Jan 31 12:12:27 2002
*---
*
*
*
*
*
FILE = /castor/cern.ch/delphi/MCprod/karlsruhe/hzha03pyth6156/v98e/188.6/hzha03pyth6156_hcqq_188.6_45.0_9781.xsdst ! RUN = 9781 ! NEVT = 400
FILE = /castor/cern.ch/delphi/MCprod/karlsruhe/hzha03pyth6156/v98e/188.6/hzha03pyth6156_hcqq_188.6_45.0_9782.xsdst ! RUN = 9782 ! NEVT = 400
FILE = /castor/cern.ch/delphi/MCprod/karlsruhe/hzha03pyth6156/v98e/188.6/hzha03pyth6156_hcqq_188.6_45.0_9783.xsdst ! RUN = 9783 ! NEVT = 400
FILE = /castor/cern.ch/delphi/MCprod/karlsruhe/hzha03pyth6156/v98e/188.6/hzha03pyth6156_hcqq_188.6_45.0_9784.xsdst ! RUN = 9784 ! NEVT = 400
FILE = /castor/cern.ch/delphi/MCprod/karlsruhe/hzha03pyth6156/v98e/188.6/hzha03pyth6156_hcqq_188.6_45.0_9785.xsdst ! RUN = 9785 ! NEVT = 400
