*
*   Nickname     : xs_hzha03pyth6156hgmm_e188.6_m47.5_r98_1l_e1
*   Generic Name : //CERN/DELPHI/P02_SIMD/XSDST/HZHA03PYTH6156HGMM/E188.6/RAL/SUMT/C001-4
*   Description  : XShortDst HZHA03 H->gluglu, Z->mu+mu-  Extended Short DST simulation 98_e1 done at ecms=188.6 , RAL
*---
*   Comments     : in total 1999 events in 4 files time stamp: Sat Dec  8 22:12:47 2001
*---
*
*
*
*
*
FILE = /castor/cern.ch/delphi/MCprod/ral/hzha03pyth6156/v98e/188.6/hzha03pyth6156_hgmm_188.6_47.5_88759.xsdst ! RUN = 88759 ! NEVT = 500
FILE = /castor/cern.ch/delphi/MCprod/ral/hzha03pyth6156/v98e/188.6/hzha03pyth6156_hgmm_188.6_47.5_88760.xsdst ! RUN = 88760 ! NEVT = 499
FILE = /castor/cern.ch/delphi/MCprod/ral/hzha03pyth6156/v98e/188.6/hzha03pyth6156_hgmm_188.6_47.5_88761.xsdst ! RUN = 88761 ! NEVT = 500
FILE = /castor/cern.ch/delphi/MCprod/ral/hzha03pyth6156/v98e/188.6/hzha03pyth6156_hgmm_188.6_47.5_88762.xsdst ! RUN = 88762 ! NEVT = 500
