*
*   Nickname     : xs_hzha03pyth6156hgqq_e188.6_m105.0_k98_1l_e1
*   Generic Name : //CERN/DELPHI/P02_SIMD/XSDST/HZHA03PYTH6156HGQQ/E188.6/KARLSRUHE/SUMT/C001-5
*   Description  : XShortDst HZHA03 H->gluglu, Z->qqbar  Extended Short DST simulation 98_e1 done at ecms=188.6 , Karlsruhe
*---
*   Comments     : in total 1996 events in 5 files time stamp: Wed Jan 23 12:18:01 2002
*---
*
*
*
*
*
FILE = /castor/cern.ch/delphi/MCprod/karlsruhe/hzha03pyth6156/v98e/188.6/hzha03pyth6156_hgqq_188.6_105.0_8651.xsdst ! RUN = 8651 ! NEVT = 400
FILE = /castor/cern.ch/delphi/MCprod/karlsruhe/hzha03pyth6156/v98e/188.6/hzha03pyth6156_hgqq_188.6_105.0_8652.xsdst ! RUN = 8652 ! NEVT = 399
FILE = /castor/cern.ch/delphi/MCprod/karlsruhe/hzha03pyth6156/v98e/188.6/hzha03pyth6156_hgqq_188.6_105.0_8653.xsdst ! RUN = 8653 ! NEVT = 400
FILE = /castor/cern.ch/delphi/MCprod/karlsruhe/hzha03pyth6156/v98e/188.6/hzha03pyth6156_hgqq_188.6_105.0_8654.xsdst ! RUN = 8654 ! NEVT = 400
FILE = /castor/cern.ch/delphi/MCprod/karlsruhe/hzha03pyth6156/v98e/188.6/hzha03pyth6156_hgqq_188.6_105.0_8655.xsdst ! RUN = 8655 ! NEVT = 397
