*
*   Nickname     : xs_hzha03pyth6156hcqq_e188.6_m90.0_k98_1l_e1
*   Generic Name : //CERN/DELPHI/P02_SIMD/XSDST/HZHA03PYTH6156HCQQ/E188.6/KARLSRUHE/SUMT/C001-5
*   Description  :  Extended Short DST simulation 98_e1 done at ecms=188.6 , Karlsruhe
*---
*   Comments     : in total 1996 events in 5 files time stamp: Thu Jan 31 12:11:39 2002
*---
*
*
*
*
*
FILE = /castor/cern.ch/delphi/MCprod/karlsruhe/hzha03pyth6156/v98e/188.6/hzha03pyth6156_hcqq_188.6_90.0_9871.xsdst ! RUN = 9871 ! NEVT = 400
FILE = /castor/cern.ch/delphi/MCprod/karlsruhe/hzha03pyth6156/v98e/188.6/hzha03pyth6156_hcqq_188.6_90.0_9872.xsdst ! RUN = 9872 ! NEVT = 400
FILE = /castor/cern.ch/delphi/MCprod/karlsruhe/hzha03pyth6156/v98e/188.6/hzha03pyth6156_hcqq_188.6_90.0_9873.xsdst ! RUN = 9873 ! NEVT = 398
FILE = /castor/cern.ch/delphi/MCprod/karlsruhe/hzha03pyth6156/v98e/188.6/hzha03pyth6156_hcqq_188.6_90.0_9874.xsdst ! RUN = 9874 ! NEVT = 400
FILE = /castor/cern.ch/delphi/MCprod/karlsruhe/hzha03pyth6156/v98e/188.6/hzha03pyth6156_hcqq_188.6_90.0_9875.xsdst ! RUN = 9875 ! NEVT = 398
