*
*   Nickname     : dsto_hzha03pyth6156ha4g_e200_m100_m4_c99_1l_a
*   Generic Name : //CERN/DELPHI/P02_SIMD/DSTO/HZHA03PYTH6156HA4G/CERN/SUMT/C001-8
*   Description  :  Full DST/Delana output simulation 99_a 200 , CERN
*---
*   Comments     : in total 1775 events in 8 files time stamp: Sun Nov 11 09:30:42 2001
*---
*
*
*
*
*
FILE = /castor/cern.ch/delphi/MCprod/cern/hzha03pyth6156/v99_4/200/hzha03pyth6156_hA4g_200_100_4_10041.fadana ! RUN = 10041 ! NEVT = 250
FILE = /castor/cern.ch/delphi/MCprod/cern/hzha03pyth6156/v99_4/200/hzha03pyth6156_hA4g_200_100_4_10042.fadana ! RUN = 10042 ! NEVT = 250
FILE = /castor/cern.ch/delphi/MCprod/cern/hzha03pyth6156/v99_4/200/hzha03pyth6156_hA4g_200_100_4_10043.fadana ! RUN = 10043 ! NEVT = 250
FILE = /castor/cern.ch/delphi/MCprod/cern/hzha03pyth6156/v99_4/200/hzha03pyth6156_hA4g_200_100_4_10044.fadana ! RUN = 10044 ! NEVT = 25
FILE = /castor/cern.ch/delphi/MCprod/cern/hzha03pyth6156/v99_4/200/hzha03pyth6156_hA4g_200_100_4_10045.fadana ! RUN = 10045 ! NEVT = 250
FILE = /castor/cern.ch/delphi/MCprod/cern/hzha03pyth6156/v99_4/200/hzha03pyth6156_hA4g_200_100_4_10046.fadana ! RUN = 10046 ! NEVT = 250
FILE = /castor/cern.ch/delphi/MCprod/cern/hzha03pyth6156/v99_4/200/hzha03pyth6156_hA4g_200_100_4_10047.fadana ! RUN = 10047 ! NEVT = 250
FILE = /castor/cern.ch/delphi/MCprod/cern/hzha03pyth6156/v99_4/200/hzha03pyth6156_hA4g_200_100_4_10048.fadana ! RUN = 10048 ! NEVT = 250
