*
*   Nickname     : dsto_hzha03pyth6156ha4g_e200_m70_m8_c99_1l_a
*   Generic Name : //CERN/DELPHI/P02_SIMD/DSTO/HZHA03PYTH6156HA4G/CERN/SUMT/C001-8
*   Description  :  Full DST/Delana output simulation 99_a 200 , CERN
*---
*   Comments     : in total 1998 events in 8 files time stamp: Sun Nov 11 09:30:46 2001
*---
*
*
*
*
*
FILE = /castor/cern.ch/delphi/MCprod/cern/hzha03pyth6156/v99_4/200/hzha03pyth6156_hA4g_200_70_8_7081.fadana ! RUN = 7081 ! NEVT = 250
FILE = /castor/cern.ch/delphi/MCprod/cern/hzha03pyth6156/v99_4/200/hzha03pyth6156_hA4g_200_70_8_7082.fadana ! RUN = 7082 ! NEVT = 250
FILE = /castor/cern.ch/delphi/MCprod/cern/hzha03pyth6156/v99_4/200/hzha03pyth6156_hA4g_200_70_8_7083.fadana ! RUN = 7083 ! NEVT = 250
FILE = /castor/cern.ch/delphi/MCprod/cern/hzha03pyth6156/v99_4/200/hzha03pyth6156_hA4g_200_70_8_7084.fadana ! RUN = 7084 ! NEVT = 249
FILE = /castor/cern.ch/delphi/MCprod/cern/hzha03pyth6156/v99_4/200/hzha03pyth6156_hA4g_200_70_8_7085.fadana ! RUN = 7085 ! NEVT = 250
FILE = /castor/cern.ch/delphi/MCprod/cern/hzha03pyth6156/v99_4/200/hzha03pyth6156_hA4g_200_70_8_7086.fadana ! RUN = 7086 ! NEVT = 250
FILE = /castor/cern.ch/delphi/MCprod/cern/hzha03pyth6156/v99_4/200/hzha03pyth6156_hA4g_200_70_8_7087.fadana ! RUN = 7087 ! NEVT = 250
FILE = /castor/cern.ch/delphi/MCprod/cern/hzha03pyth6156/v99_4/200/hzha03pyth6156_hA4g_200_70_8_7088.fadana ! RUN = 7088 ! NEVT = 249
