*
*   Nickname     : dsto_hzha03pyth6156ha4g_e196_m110_m4_c99_1l_a
*   Generic Name : //CERN/DELPHI/P02_SIMD/DSTO/HZHA03PYTH6156HA4G/CERN/SUMT/C001-8
*   Description  :  Full DST/Delana output simulation 99_a 196 , CERN
*---
*   Comments     : in total 1999 events in 8 files time stamp: Sun Nov 11 09:30:43 2001
*---
*
*
*
*
*
FILE = /castor/cern.ch/delphi/MCprod/cern/hzha03pyth6156/v99_4/196/hzha03pyth6156_hA4g_196_110_4_11041.fadana ! RUN = 11041 ! NEVT = 250
FILE = /castor/cern.ch/delphi/MCprod/cern/hzha03pyth6156/v99_4/196/hzha03pyth6156_hA4g_196_110_4_11042.fadana ! RUN = 11042 ! NEVT = 250
FILE = /castor/cern.ch/delphi/MCprod/cern/hzha03pyth6156/v99_4/196/hzha03pyth6156_hA4g_196_110_4_11043.fadana ! RUN = 11043 ! NEVT = 250
FILE = /castor/cern.ch/delphi/MCprod/cern/hzha03pyth6156/v99_4/196/hzha03pyth6156_hA4g_196_110_4_11044.fadana ! RUN = 11044 ! NEVT = 249
FILE = /castor/cern.ch/delphi/MCprod/cern/hzha03pyth6156/v99_4/196/hzha03pyth6156_hA4g_196_110_4_11045.fadana ! RUN = 11045 ! NEVT = 250
FILE = /castor/cern.ch/delphi/MCprod/cern/hzha03pyth6156/v99_4/196/hzha03pyth6156_hA4g_196_110_4_11046.fadana ! RUN = 11046 ! NEVT = 250
FILE = /castor/cern.ch/delphi/MCprod/cern/hzha03pyth6156/v99_4/196/hzha03pyth6156_hA4g_196_110_4_11047.fadana ! RUN = 11047 ! NEVT = 250
FILE = /castor/cern.ch/delphi/MCprod/cern/hzha03pyth6156/v99_4/196/hzha03pyth6156_hA4g_196_110_4_11048.fadana ! RUN = 11048 ! NEVT = 250
