*
*   Nickname     : dsto_hzha03pyth6156ha4g_e206_m130_m12_c99_1l_a
*   Generic Name : //CERN/DELPHI/P02_SIMD/DSTO/HZHA03PYTH6156HA4G/CERN/SUMT/C001-8
*   Description  :  Full DST/Delana output simulation 99_a 206 , CERN
*---
*   Comments     : in total 2000 events in 8 files time stamp: Sun Nov 11 09:30:49 2001
*---
*
*
*
*
*
FILE = /castor/cern.ch/delphi/MCprod/cern/hzha03pyth6156/v99_4/206/hzha03pyth6156_hA4g_206_130_12_13121.fadana ! RUN = 13121 ! NEVT = 250
FILE = /castor/cern.ch/delphi/MCprod/cern/hzha03pyth6156/v99_4/206/hzha03pyth6156_hA4g_206_130_12_13122.fadana ! RUN = 13122 ! NEVT = 250
FILE = /castor/cern.ch/delphi/MCprod/cern/hzha03pyth6156/v99_4/206/hzha03pyth6156_hA4g_206_130_12_13123.fadana ! RUN = 13123 ! NEVT = 250
FILE = /castor/cern.ch/delphi/MCprod/cern/hzha03pyth6156/v99_4/206/hzha03pyth6156_hA4g_206_130_12_13124.fadana ! RUN = 13124 ! NEVT = 250
FILE = /castor/cern.ch/delphi/MCprod/cern/hzha03pyth6156/v99_4/206/hzha03pyth6156_hA4g_206_130_12_13125.fadana ! RUN = 13125 ! NEVT = 250
FILE = /castor/cern.ch/delphi/MCprod/cern/hzha03pyth6156/v99_4/206/hzha03pyth6156_hA4g_206_130_12_13126.fadana ! RUN = 13126 ! NEVT = 250
FILE = /castor/cern.ch/delphi/MCprod/cern/hzha03pyth6156/v99_4/206/hzha03pyth6156_hA4g_206_130_12_13127.fadana ! RUN = 13127 ! NEVT = 250
FILE = /castor/cern.ch/delphi/MCprod/cern/hzha03pyth6156/v99_4/206/hzha03pyth6156_hA4g_206_130_12_13128.fadana ! RUN = 13128 ! NEVT = 250
