*
*   Nickname     : dsto_hzha03pyth6156ha4g_e196_m12_m12_c99_1l_a
*   Generic Name : //CERN/DELPHI/P02_SIMD/DSTO/HZHA03PYTH6156HA4G/CERN/SUMT/C001-8
*   Description  :  Full DST/Delana output simulation 99_a 196 , CERN
*---
*   Comments     : in total 2000 events in 8 files time stamp: Sun Nov 11 09:30:43 2001
*---
*
*
*
*
*
FILE = /castor/cern.ch/delphi/MCprod/cern/hzha03pyth6156/v99_4/196/hzha03pyth6156_hA4g_196_12_12_1321.fadana ! RUN = 1321 ! NEVT = 250
FILE = /castor/cern.ch/delphi/MCprod/cern/hzha03pyth6156/v99_4/196/hzha03pyth6156_hA4g_196_12_12_1322.fadana ! RUN = 1322 ! NEVT = 250
FILE = /castor/cern.ch/delphi/MCprod/cern/hzha03pyth6156/v99_4/196/hzha03pyth6156_hA4g_196_12_12_1323.fadana ! RUN = 1323 ! NEVT = 250
FILE = /castor/cern.ch/delphi/MCprod/cern/hzha03pyth6156/v99_4/196/hzha03pyth6156_hA4g_196_12_12_1324.fadana ! RUN = 1324 ! NEVT = 250
FILE = /castor/cern.ch/delphi/MCprod/cern/hzha03pyth6156/v99_4/196/hzha03pyth6156_hA4g_196_12_12_1325.fadana ! RUN = 1325 ! NEVT = 250
FILE = /castor/cern.ch/delphi/MCprod/cern/hzha03pyth6156/v99_4/196/hzha03pyth6156_hA4g_196_12_12_1326.fadana ! RUN = 1326 ! NEVT = 250
FILE = /castor/cern.ch/delphi/MCprod/cern/hzha03pyth6156/v99_4/196/hzha03pyth6156_hA4g_196_12_12_1327.fadana ! RUN = 1327 ! NEVT = 250
FILE = /castor/cern.ch/delphi/MCprod/cern/hzha03pyth6156/v99_4/196/hzha03pyth6156_hA4g_196_12_12_1328.fadana ! RUN = 1328 ! NEVT = 250
