*
*   Nickname     : dsto_hzha03pyth6156ha4g_e196_m140_m4_c99_1l_a
*   Generic Name : //CERN/DELPHI/P02_SIMD/DSTO/HZHA03PYTH6156HA4G/CERN/SUMT/C001-8
*   Description  :  Full DST/Delana output simulation 99_a 196 , CERN
*---
*   Comments     : in total 1999 events in 8 files time stamp: Sun Nov 11 09:30:53 2001
*---
*
*
*
*
*
FILE = /castor/cern.ch/delphi/MCprod/cern/hzha03pyth6156/v99_4/196/hzha03pyth6156_hA4g_196_140_4_14041.fadana ! RUN = 14041 ! NEVT = 250
FILE = /castor/cern.ch/delphi/MCprod/cern/hzha03pyth6156/v99_4/196/hzha03pyth6156_hA4g_196_140_4_14042.fadana ! RUN = 14042 ! NEVT = 250
FILE = /castor/cern.ch/delphi/MCprod/cern/hzha03pyth6156/v99_4/196/hzha03pyth6156_hA4g_196_140_4_14043.fadana ! RUN = 14043 ! NEVT = 250
FILE = /castor/cern.ch/delphi/MCprod/cern/hzha03pyth6156/v99_4/196/hzha03pyth6156_hA4g_196_140_4_14044.fadana ! RUN = 14044 ! NEVT = 250
FILE = /castor/cern.ch/delphi/MCprod/cern/hzha03pyth6156/v99_4/196/hzha03pyth6156_hA4g_196_140_4_14045.fadana ! RUN = 14045 ! NEVT = 250
FILE = /castor/cern.ch/delphi/MCprod/cern/hzha03pyth6156/v99_4/196/hzha03pyth6156_hA4g_196_140_4_14046.fadana ! RUN = 14046 ! NEVT = 250
FILE = /castor/cern.ch/delphi/MCprod/cern/hzha03pyth6156/v99_4/196/hzha03pyth6156_hA4g_196_140_4_14047.fadana ! RUN = 14047 ! NEVT = 250
FILE = /castor/cern.ch/delphi/MCprod/cern/hzha03pyth6156/v99_4/196/hzha03pyth6156_hA4g_196_140_4_14048.fadana ! RUN = 14048 ! NEVT = 249
