*
*   Nickname     : xs_hzha03pyth6156ha4g_e200_m60_m4_c99_1l_a1
*   Generic Name : //CERN/DELPHI/P02_SIMD/XSDST/HZHA03PYTH6156HA4G/CERN/SUMT/C001-8
*   Description  :  Extended Short DST simulation 99_a1 200 , CERN
*---
*   Comments     : in total 1999 events in 8 files time stamp: Sun Nov 11 09:30:44 2001
*---
*
*
*
*
*
FILE = /castor/cern.ch/delphi/MCprod/cern/hzha03pyth6156/v99_4/200/hzha03pyth6156_hA4g_200_60_4_6041.xsdst ! RUN = 6041 ! NEVT = 250
FILE = /castor/cern.ch/delphi/MCprod/cern/hzha03pyth6156/v99_4/200/hzha03pyth6156_hA4g_200_60_4_6042.xsdst ! RUN = 6042 ! NEVT = 250
FILE = /castor/cern.ch/delphi/MCprod/cern/hzha03pyth6156/v99_4/200/hzha03pyth6156_hA4g_200_60_4_6043.xsdst ! RUN = 6043 ! NEVT = 250
FILE = /castor/cern.ch/delphi/MCprod/cern/hzha03pyth6156/v99_4/200/hzha03pyth6156_hA4g_200_60_4_6044.xsdst ! RUN = 6044 ! NEVT = 250
FILE = /castor/cern.ch/delphi/MCprod/cern/hzha03pyth6156/v99_4/200/hzha03pyth6156_hA4g_200_60_4_6045.xsdst ! RUN = 6045 ! NEVT = 249
FILE = /castor/cern.ch/delphi/MCprod/cern/hzha03pyth6156/v99_4/200/hzha03pyth6156_hA4g_200_60_4_6046.xsdst ! RUN = 6046 ! NEVT = 250
FILE = /castor/cern.ch/delphi/MCprod/cern/hzha03pyth6156/v99_4/200/hzha03pyth6156_hA4g_200_60_4_6047.xsdst ! RUN = 6047 ! NEVT = 250
FILE = /castor/cern.ch/delphi/MCprod/cern/hzha03pyth6156/v99_4/200/hzha03pyth6156_hA4g_200_60_4_6048.xsdst ! RUN = 6048 ! NEVT = 250
