*
*   Nickname     : xs_hzha03pyth6156ha4g_e200_m12_m8_c99_1l_a1
*   Generic Name : //CERN/DELPHI/P02_SIMD/XSDST/HZHA03PYTH6156HA4G/CERN/SUMT/C001-8
*   Description  :  Extended Short DST simulation 99_a1 200 , CERN
*---
*   Comments     : in total 1998 events in 8 files time stamp: Sun Nov 11 09:30:42 2001
*---
*
*
*
*
*
FILE = /castor/cern.ch/delphi/MCprod/cern/hzha03pyth6156/v99_4/200/hzha03pyth6156_hA4g_200_12_8_1281.xsdst ! RUN = 1281 ! NEVT = 250
FILE = /castor/cern.ch/delphi/MCprod/cern/hzha03pyth6156/v99_4/200/hzha03pyth6156_hA4g_200_12_8_1282.xsdst ! RUN = 1282 ! NEVT = 250
FILE = /castor/cern.ch/delphi/MCprod/cern/hzha03pyth6156/v99_4/200/hzha03pyth6156_hA4g_200_12_8_1283.xsdst ! RUN = 1283 ! NEVT = 250
FILE = /castor/cern.ch/delphi/MCprod/cern/hzha03pyth6156/v99_4/200/hzha03pyth6156_hA4g_200_12_8_1284.xsdst ! RUN = 1284 ! NEVT = 249
FILE = /castor/cern.ch/delphi/MCprod/cern/hzha03pyth6156/v99_4/200/hzha03pyth6156_hA4g_200_12_8_1285.xsdst ! RUN = 1285 ! NEVT = 250
FILE = /castor/cern.ch/delphi/MCprod/cern/hzha03pyth6156/v99_4/200/hzha03pyth6156_hA4g_200_12_8_1286.xsdst ! RUN = 1286 ! NEVT = 250
FILE = /castor/cern.ch/delphi/MCprod/cern/hzha03pyth6156/v99_4/200/hzha03pyth6156_hA4g_200_12_8_1287.xsdst ! RUN = 1287 ! NEVT = 249
FILE = /castor/cern.ch/delphi/MCprod/cern/hzha03pyth6156/v99_4/200/hzha03pyth6156_hA4g_200_12_8_1288.xsdst ! RUN = 1288 ! NEVT = 250
