*
*   Nickname     : xs_hzha03pyth6156ha4g_e206_m60_m8_c99_1l_a1
*   Generic Name : //CERN/DELPHI/P02_SIMD/XSDST/HZHA03PYTH6156HA4G/CERN/SUMT/C001-8
*   Description  :  Extended Short DST simulation 99_a1 206 , CERN
*---
*   Comments     : in total 1999 events in 8 files time stamp: Sun Nov 11 09:30:43 2001
*---
*
*
*
*
*
FILE = /castor/cern.ch/delphi/MCprod/cern/hzha03pyth6156/v99_4/206/hzha03pyth6156_hA4g_206_60_8_6081.xsdst ! RUN = 6081 ! NEVT = 250
FILE = /castor/cern.ch/delphi/MCprod/cern/hzha03pyth6156/v99_4/206/hzha03pyth6156_hA4g_206_60_8_6082.xsdst ! RUN = 6082 ! NEVT = 250
FILE = /castor/cern.ch/delphi/MCprod/cern/hzha03pyth6156/v99_4/206/hzha03pyth6156_hA4g_206_60_8_6083.xsdst ! RUN = 6083 ! NEVT = 250
FILE = /castor/cern.ch/delphi/MCprod/cern/hzha03pyth6156/v99_4/206/hzha03pyth6156_hA4g_206_60_8_6084.xsdst ! RUN = 6084 ! NEVT = 250
FILE = /castor/cern.ch/delphi/MCprod/cern/hzha03pyth6156/v99_4/206/hzha03pyth6156_hA4g_206_60_8_6085.xsdst ! RUN = 6085 ! NEVT = 250
FILE = /castor/cern.ch/delphi/MCprod/cern/hzha03pyth6156/v99_4/206/hzha03pyth6156_hA4g_206_60_8_6086.xsdst ! RUN = 6086 ! NEVT = 250
FILE = /castor/cern.ch/delphi/MCprod/cern/hzha03pyth6156/v99_4/206/hzha03pyth6156_hA4g_206_60_8_6087.xsdst ! RUN = 6087 ! NEVT = 250
FILE = /castor/cern.ch/delphi/MCprod/cern/hzha03pyth6156/v99_4/206/hzha03pyth6156_hA4g_206_60_8_6088.xsdst ! RUN = 6088 ! NEVT = 249
