*
*   Nickname     : xs_hzha03pyth6156ha4g_e196_m140_m8_c99_1l_a1
*   Generic Name : //CERN/DELPHI/P02_SIMD/XSDST/HZHA03PYTH6156HA4G/CERN/SUMT/C001-8
*   Description  :  Extended Short DST simulation 99_a1 196 , CERN
*---
*   Comments     : in total 2000 events in 8 files time stamp: Sun Nov 11 09:30:50 2001
*---
*
*
*
*
*
FILE = /castor/cern.ch/delphi/MCprod/cern/hzha03pyth6156/v99_4/196/hzha03pyth6156_hA4g_196_140_8_14081.xsdst ! RUN = 14081 ! NEVT = 250
FILE = /castor/cern.ch/delphi/MCprod/cern/hzha03pyth6156/v99_4/196/hzha03pyth6156_hA4g_196_140_8_14082.xsdst ! RUN = 14082 ! NEVT = 250
FILE = /castor/cern.ch/delphi/MCprod/cern/hzha03pyth6156/v99_4/196/hzha03pyth6156_hA4g_196_140_8_14083.xsdst ! RUN = 14083 ! NEVT = 250
FILE = /castor/cern.ch/delphi/MCprod/cern/hzha03pyth6156/v99_4/196/hzha03pyth6156_hA4g_196_140_8_14084.xsdst ! RUN = 14084 ! NEVT = 250
FILE = /castor/cern.ch/delphi/MCprod/cern/hzha03pyth6156/v99_4/196/hzha03pyth6156_hA4g_196_140_8_14085.xsdst ! RUN = 14085 ! NEVT = 250
FILE = /castor/cern.ch/delphi/MCprod/cern/hzha03pyth6156/v99_4/196/hzha03pyth6156_hA4g_196_140_8_14086.xsdst ! RUN = 14086 ! NEVT = 250
FILE = /castor/cern.ch/delphi/MCprod/cern/hzha03pyth6156/v99_4/196/hzha03pyth6156_hA4g_196_140_8_14087.xsdst ! RUN = 14087 ! NEVT = 250
FILE = /castor/cern.ch/delphi/MCprod/cern/hzha03pyth6156/v99_4/196/hzha03pyth6156_hA4g_196_140_8_14088.xsdst ! RUN = 14088 ! NEVT = 250
