*
*   Nickname     : xs_hzha03pyth6156ha4g_e196_m110_m8_c99_1l_a1
*   Generic Name : //CERN/DELPHI/P02_SIMD/XSDST/HZHA03PYTH6156HA4G/CERN/SUMT/C001-8
*   Description  :  Extended Short DST simulation 99_a1 196 , CERN
*---
*   Comments     : in total 1999 events in 8 files time stamp: Sun Nov 11 09:30:58 2001
*---
*
*
*
*
*
FILE = /castor/cern.ch/delphi/MCprod/cern/hzha03pyth6156/v99_4/196/hzha03pyth6156_hA4g_196_110_8_11081.xsdst ! RUN = 11081 ! NEVT = 250
FILE = /castor/cern.ch/delphi/MCprod/cern/hzha03pyth6156/v99_4/196/hzha03pyth6156_hA4g_196_110_8_11082.xsdst ! RUN = 11082 ! NEVT = 250
FILE = /castor/cern.ch/delphi/MCprod/cern/hzha03pyth6156/v99_4/196/hzha03pyth6156_hA4g_196_110_8_11083.xsdst ! RUN = 11083 ! NEVT = 250
FILE = /castor/cern.ch/delphi/MCprod/cern/hzha03pyth6156/v99_4/196/hzha03pyth6156_hA4g_196_110_8_11084.xsdst ! RUN = 11084 ! NEVT = 250
FILE = /castor/cern.ch/delphi/MCprod/cern/hzha03pyth6156/v99_4/196/hzha03pyth6156_hA4g_196_110_8_11085.xsdst ! RUN = 11085 ! NEVT = 249
FILE = /castor/cern.ch/delphi/MCprod/cern/hzha03pyth6156/v99_4/196/hzha03pyth6156_hA4g_196_110_8_11086.xsdst ! RUN = 11086 ! NEVT = 250
FILE = /castor/cern.ch/delphi/MCprod/cern/hzha03pyth6156/v99_4/196/hzha03pyth6156_hA4g_196_110_8_11087.xsdst ! RUN = 11087 ! NEVT = 250
FILE = /castor/cern.ch/delphi/MCprod/cern/hzha03pyth6156/v99_4/196/hzha03pyth6156_hA4g_196_110_8_11088.xsdst ! RUN = 11088 ! NEVT = 250
