*
*   Nickname     : xs_hzha03pyth6156ha4g_e206_m30_m8_c99_1l_a1
*   Generic Name : //CERN/DELPHI/P02_SIMD/XSDST/HZHA03PYTH6156HA4G/CERN/SUMT/C001-8
*   Description  :  Extended Short DST simulation 99_a1 206 , CERN
*---
*   Comments     : in total 1999 events in 8 files time stamp: Sun Nov 11 09:30:49 2001
*---
*
*
*
*
*
FILE = /castor/cern.ch/delphi/MCprod/cern/hzha03pyth6156/v99_4/206/hzha03pyth6156_hA4g_206_30_8_3081.xsdst ! RUN = 3081 ! NEVT = 250
FILE = /castor/cern.ch/delphi/MCprod/cern/hzha03pyth6156/v99_4/206/hzha03pyth6156_hA4g_206_30_8_3082.xsdst ! RUN = 3082 ! NEVT = 250
FILE = /castor/cern.ch/delphi/MCprod/cern/hzha03pyth6156/v99_4/206/hzha03pyth6156_hA4g_206_30_8_3083.xsdst ! RUN = 3083 ! NEVT = 250
FILE = /castor/cern.ch/delphi/MCprod/cern/hzha03pyth6156/v99_4/206/hzha03pyth6156_hA4g_206_30_8_3084.xsdst ! RUN = 3084 ! NEVT = 250
FILE = /castor/cern.ch/delphi/MCprod/cern/hzha03pyth6156/v99_4/206/hzha03pyth6156_hA4g_206_30_8_3085.xsdst ! RUN = 3085 ! NEVT = 250
FILE = /castor/cern.ch/delphi/MCprod/cern/hzha03pyth6156/v99_4/206/hzha03pyth6156_hA4g_206_30_8_3086.xsdst ! RUN = 3086 ! NEVT = 250
FILE = /castor/cern.ch/delphi/MCprod/cern/hzha03pyth6156/v99_4/206/hzha03pyth6156_hA4g_206_30_8_3087.xsdst ! RUN = 3087 ! NEVT = 249
FILE = /castor/cern.ch/delphi/MCprod/cern/hzha03pyth6156/v99_4/206/hzha03pyth6156_hA4g_206_30_8_3088.xsdst ! RUN = 3088 ! NEVT = 250
