*
*   Nickname     : xs_hzha03pyth6156ha4g_e206_m90_m12_c99_1l_a1
*   Generic Name : //CERN/DELPHI/P02_SIMD/XSDST/HZHA03PYTH6156HA4G/CERN/SUMT/C001-8
*   Description  :  Extended Short DST simulation 99_a1 206 , CERN
*---
*   Comments     : in total 1999 events in 8 files time stamp: Sun Nov 11 09:30:55 2001
*---
*
*
*
*
*
FILE = /castor/cern.ch/delphi/MCprod/cern/hzha03pyth6156/v99_4/206/hzha03pyth6156_hA4g_206_90_12_9121.xsdst ! RUN = 9121 ! NEVT = 250
FILE = /castor/cern.ch/delphi/MCprod/cern/hzha03pyth6156/v99_4/206/hzha03pyth6156_hA4g_206_90_12_9122.xsdst ! RUN = 9122 ! NEVT = 250
FILE = /castor/cern.ch/delphi/MCprod/cern/hzha03pyth6156/v99_4/206/hzha03pyth6156_hA4g_206_90_12_9123.xsdst ! RUN = 9123 ! NEVT = 250
FILE = /castor/cern.ch/delphi/MCprod/cern/hzha03pyth6156/v99_4/206/hzha03pyth6156_hA4g_206_90_12_9124.xsdst ! RUN = 9124 ! NEVT = 250
FILE = /castor/cern.ch/delphi/MCprod/cern/hzha03pyth6156/v99_4/206/hzha03pyth6156_hA4g_206_90_12_9125.xsdst ! RUN = 9125 ! NEVT = 250
FILE = /castor/cern.ch/delphi/MCprod/cern/hzha03pyth6156/v99_4/206/hzha03pyth6156_hA4g_206_90_12_9126.xsdst ! RUN = 9126 ! NEVT = 250
FILE = /castor/cern.ch/delphi/MCprod/cern/hzha03pyth6156/v99_4/206/hzha03pyth6156_hA4g_206_90_12_9127.xsdst ! RUN = 9127 ! NEVT = 249
FILE = /castor/cern.ch/delphi/MCprod/cern/hzha03pyth6156/v99_4/206/hzha03pyth6156_hA4g_206_90_12_9128.xsdst ! RUN = 9128 ! NEVT = 250
