*
*  Fatmen Nickname: alld99_e202_c1
*  Generic Name : /castor/cern.ch/delphi/tape/C001-50
*  Description    : XShort DSTs, all events after DAFNE tag; 99 data, 3th proc.  Fix 1
*   Comments     :    50 files, total size = 12.149 Gb, in 50 files
*
Y01414.[1-35].al ! NUM = 1-35
Y01415.[1-15].al ! NUM = 36-50
