*
*  Fatmen Nickname: alld99_e204_c1
*  Generic Name : /castor/cern.ch/delphi/tape/C001-1
*  Description    : XShort DSTs, all events after DAFNE tag; 99 data, 3th proc.  Fix 1
*   Comments     :    1 files, total size = 0.015 Gb, in 1 files
*
Y01415.16.al ! NUM = 1
