*
*  Fatmen Nickname: alld00_u1
*  Generic Name : /castor/cern.ch/delphi/tape/C001-134
*  Description    : XShort DSTs, all events after DAFNE tag; 2000 data,5th proc. Fix 1
*   Comments     :    134 files, total size = 32.620 Gb, in 134 files
*
R02107.[1-72].al ! NUM = 1-72
R02108.[1-62].al ! NUM = 73-134
