*
*  Fatmen Nickname: alld99_e202_e1
*  Generic Name : /castor/cern.ch/delphi/tape/C001-54
*  Description    : XShort DSTs, all events after DAFNE tag; 99 data, 5th proc.  Fix 1
*   Comments     :    54 files, total size = 12.919 Gb, in 54 files
*
R05111.[1-54].al ! NUM = 1-54
