*
*  Fatmen Nickname: cosd97_b
*  Generic name   : //CERN/DELPHI/P01_COSM/DSTO/PHYS/Y97V02/SUMT/C1-21
*  Description    : DST-only, Cosmic events            ; 97 data, 2nd proc.
*   Comments     :    21 files, total size = 3.244 Gb, 
*
VID = ES0372, NUM = 1
VID = ES0372, NUM = 2
VID = ES0372, NUM = 3
VID = ES0372, NUM = 4
VID = ES0372, NUM = 5
VID = ES0372, NUM = 6
VID = ES0372, NUM = 7
VID = ES0372, NUM = 8
VID = ES0372, NUM = 9
VID = ES0372, NUM = 10
VID = ES0372, NUM = 11
VID = ES0372, NUM = 12
VID = ES0372, NUM = 13
VID = ES0372, NUM = 14
VID = ES0372, NUM = 15
VID = ES0372, NUM = 16
VID = ES0372, NUM = 17
VID = ES0372, NUM = 18
VID = ES0372, NUM = 19
VID = ES0372, NUM = 20
VID = ES0372, NUM = 21
