*
*  Fatmen Nickname: dsto99z
*  Generic Name : /castor/cern.ch/delphi/tape/C001-62
*  Description    : DST-only, "OR" of the physics teams; 99 Z0 data, 5th  proc.
*   Comments     :    62 files, total size = 14.515 Gb, in 62 files
*
R01617.[1-62].al ! NUM = 1-62
