*
*  Fatmen Nickname: dsto99z_d
*  Generic Name : /castor/cern.ch/delphi/tape/C001-63
*  Description    : DST-only, "OR" of the physics teams; 99 Z0 data, 4th  proc.
*   Comments     :    63 files, total size = 14.567 Gb, in 63 files
*
R02126.[1-63].al ! NUM = 1-63
