*
*  Fatmen Nickname: dsto00z_u
*  Generic Name : /castor/cern.ch/delphi/tape/C001-8
*  Description    : DST-only, "OR" of physics teams        ; 2000 Z0 data, 5th  proc.
*   Comments     :    8 files, total size = 1.723 Gb, in 8 files
*
R02006.[1-8].al ! NUM = 1-8
