*
*  Fatmen Nickname: dsto99_e
*  Generic Name : /castor/cern.ch/delphi/tape/C001-4268
*  Description    : RTD or D only, all events after DELANA filter;99 data 5th proc.
*   Comments     :    4268 files, total size = 874.981 Gb, in 4268 files
*
R02112.[1-140].al ! NUM = 1-140
R02113.[1-122].al ! NUM = 141-262
R02114.[1-124].al ! NUM = 263-386
R02115.[1-124].al ! NUM = 387-510
R02116.[1-137].al ! NUM = 511-647
R02117.[1-131].al ! NUM = 648-778
R02118.[1-115].al ! NUM = 779-893
R02119.[1-109].al ! NUM = 894-1002
R02120.[1-105].al ! NUM = 1003-1107
R02121.[1-92].al ! NUM = 1108-1199
R02122.[1-46].al ! NUM = 1200-1245
R02114.125.al ! NUM = 1246
R02122.[47-107].al ! NUM = 1247-1307
R02123.[1-108].al ! NUM = 1308-1415
R02124.[1-42].al ! NUM = 1416-1457
R05071.[1-141].al ! NUM = 1458-1598
R05072.[1-124].al ! NUM = 1599-1722
R05073.[1-126].al ! NUM = 1723-1848
R05074.[1-141].al ! NUM = 1849-1989
R05075.[1-125].al ! NUM = 1990-2114
R05076.[1-107].al ! NUM = 2115-2221
R05077.[1-108].al ! NUM = 2222-2329
R05078.[1-126].al ! NUM = 2330-2455
R05079.[1-107].al ! NUM = 2456-2562
R05080.[1-45].al ! NUM = 2563-2607
R05076.[108-122].al ! NUM = 2608-2622
R05080.[46-121].al ! NUM = 2623-2698
R05081.[1-107].al ! NUM = 2699-2805
R05082.[1-75].al ! NUM = 2806-2880
R05091.[1-190].al ! NUM = 2881-3070
R05092.[1-170].al ! NUM = 3071-3240
R05093.[1-157].al ! NUM = 3241-3397
R05094.[1-123].al ! NUM = 3398-3520
R05095.[1-86].al ! NUM = 3521-3606
R05101.[1-106].al ! NUM = 3607-3712
R05102.[1-108].al ! NUM = 3713-3820
R05103.[1-123].al ! NUM = 3821-3943
R05104.[1-117].al ! NUM = 3944-4060
R05105.[1-115].al ! NUM = 4061-4175
R05106.[1-93].al ! NUM = 4176-4268
