*
*  Fatmen Nickname: dsto96_e172_g
*  Generic Name : /castor/cern.ch/delphi/tape/C001-518
*  Description    : DST-only, "OR" of the physics teams; 96 data, 7th proc.
*   Comments     :    518 files, total size = 52.157 Gb, in 518 files
*
R07559.[1-226].al ! NUM = 1-226
R07560.[1-283].al ! NUM = 227-509
R07571.[1-9].al ! NUM = 510-518
