*
*  Fatmen Nickname: dsto95p12_d
*  Generic Name : /castor/cern.ch/delphi/tape/C001-495
*  Description    : DST-only, "OR" of the physics teams; 95 P1,2 data, 4th  proc.
*   Comments     :    495 files, total size = 79.969 Gb, in 495 files
*
Y27546.[1-240].al ! NUM = 1-240
Y27547.[1-255].al ! NUM = 241-495
