*
*  Fatmen Nickname: dsto97z
*  Generic Name : /castor/cern.ch/delphi/tape/C001-27
*  Description    : DST-only, "OR" of the physics teams; 97 Z0 data, 7th  proc.
*   Comments     :    27 files, total size = 5.890 Gb, in 27 files
*
R07054.[1-27].al ! NUM = 1-27
