*
*  Fatmen Nickname: dsto00_c
*  Generic Name : /castor/cern.ch/delphi/tape/C001-5989
*  Description    : RTD or D only, all events after DELANA filter;2000 data 3rd proc.
*   Comments     :    5989 files, total size = 702.753 Gb, in 5989 files
*
Y16410.[1-279].al ! NUM = 1-279
Y16411.[1-256].al ! NUM = 280-535
Y16412.[1-225].al ! NUM = 536-760
Y16413.[1-212].al ! NUM = 761-972
Y16414.[1-116,118-207].al ! NUM = 973-1178
Y16415.[1-38].al ! NUM = 1179-1216
Y16410.[280-289].al ! NUM = 1217-1226
Y16411.[257-267].al ! NUM = 1227-1237
Y16412.[226-235].al ! NUM = 1238-1247
Y16415.[39-264].al ! NUM = 1248-1473
Y16416.[1-290].al ! NUM = 1474-1763
Y16417.[1-271].al ! NUM = 1764-2034
Y16418.[1-16].al ! NUM = 2035-2050
Y14117.[178-187].al ! NUM = 2051-2060
Y14118.[1-282].al ! NUM = 2061-2342
Y14119.[1-301].al ! NUM = 2343-2643
Y14120.[1-194].al ! NUM = 2644-2837
Y16418.[17-204,206-265].al ! NUM = 2838-3085
Y16419.[1-251].al ! NUM = 3086-3336
Y16420.[1-252].al ! NUM = 3337-3588
Y16421.[1-19,21-323].al ! NUM = 3589-3910
Y16422.[1-291].al ! NUM = 3911-4201
Y16423.[1-309].al ! NUM = 4202-4510
Y16424.[1-274].al ! NUM = 4511-4784
Y16425.[1-307].al ! NUM = 4785-5091
Y14120.[195-337].al ! NUM = 5092-5234
Y16377.[1-358].al ! NUM = 5235-5592
R02148.[1-221].al ! NUM = 5593-5813
R02149.[1-176].al ! NUM = 5814-5989
