*
*  Fatmen Nickname: dsto00z_s
*  Generic Name : /castor/cern.ch/delphi/tape/C001-7
*  Description    : DST-only, "OR" of physics teams        ; 2000 Z0 data, 3th  proc.
*   Comments     :    7 files, total size = 1.659 Gb, in 7 files
*
Y14111.[1-7].al ! NUM = 1-7
