*
*  Fatmen Nickname: hadr98_c2
*  Generic Name : /castor/cern.ch/delphi/tape/C001-100
*  Description    : XShort DSTs,hadronic events for analysis; 98 data, 3rd proc. Fix 2
*   Comments     :    100 files, total size = 0.694 Gb, in 100 files
*
Y12298.[1-99].al ! NUM = 1-99
Y12325.1.al ! NUM = 100
