*
*  Fatmen Nickname: hadr00_e2
*  Generic Name : /castor/cern.ch/delphi/tape/C001-35
*  Description    : XShort DSTs,hadronic events for analysis; 2000 data, 5th proc. Fix 2
*   Comments     :    35 files, total size = 8.269 Gb, in 35 files
*
R07575.[1-35].al ! NUM = 1-35
