*
*  Fatmen Nickname: hadr96_e161_g1
*  Generic Name : /castor/cern.ch/delphi/tape/C001-5
*  Description    : XShort DSTs, selected hadronic event;     96 data, 7th proc. Fix 1
*   Comments     :    5 files, total size = 0.989 Gb, in 5 files
*
R07564.[1-5].al ! NUM = 1-5
