*
*  Fatmen Nickname: hadr99_e200_e2
*  Generic Name : /castor/cern.ch/delphi/tape/C001-13
*  Description    : XShort DSTs,hadronic events for analysis; 99 data, 5th proc. Fix 2
*   Comments     :    13 files, total size = 2.836 Gb, in 13 files
*
R07917.[1-13].al ! NUM = 1-13
