*
*  Fatmen Nickname: hadr98_e2
*  Generic Name : /castor/cern.ch/delphi/tape/C001-31
*  Description    : XShort DSTs,hadronic events for analysis; 98 data, 5th proc. Fix 2
*   Comments     :    31 files, total size = 7.582 Gb, in 31 files
*
R07932.[1-31].al ! NUM = 1-31
