*
*  Fatmen Nickname: hadr99_e200_e1
*  Generic Name : /castor/cern.ch/delphi/tape/C001-12
*  Description    : XShort DSTs,hadronic events for analysis; 99 data, 5th proc. Fix 1
*   Comments     :    12 files, total size = 2.827 Gb, in 12 files
*
R02357.[1-12].al ! NUM = 1-12
