*
*  Fatmen Nickname: hadr97_e183_g1
*  Generic Name : /castor/cern.ch/delphi/tape/C001-14
*  Description    : XShort DSTs, had. events after DAFNE tag;  97 data,7th proc. Fix 1
*   Comments     :    14 files, total size = 3.204 Gb, in 14 files
*
R07150.[1-14].al ! NUM = 1-14
