*
*  Fatmen Nickname: hadr98_d2
*  Generic Name : /castor/cern.ch/delphi/tape/C001-27
*  Description    : XShort DSTs,hadronic events for analysis; 98 data, 4th proc. Fix 2
*   Comments     :    27 files, total size = 0.875 Gb, in 27 files
*
Y12280.[1-27].al ! NUM = 1-27
