*
*  Fatmen Nickname: lept00_c
*  Generic Name : /castor/cern.ch/delphi/tape/C001-6
*  Description    : DST data of the LEPTONIC events; 2000 Z0 data, 3th proc.
*   Comments     :    6 files, total size = 1.376 Gb, in 6 files
*
Y14114.[1-6].al ! NUM = 1-6
