*
*  Fatmen Nickname: lept92_e
*  Generic name   : //CERN/DELPHI/P01_ALLD/DSTO/LEPT/Y92V05/SUMT/C1-64
*  Description    : DST data of the LEPTONIC events; 1992 data, 5th proc.(DELANA E)
*   Comments     :    64 files, total size = 7.113 Gb, 
*
VID = ES0171, NUM = 1
VID = ES0171, NUM = 2
VID = ES0171, NUM = 3
VID = ES0171, NUM = 4
VID = ES0171, NUM = 5
VID = ES0171, NUM = 6
VID = ES0171, NUM = 7
VID = ES0171, NUM = 8
VID = ES0171, NUM = 9
VID = ES0171, NUM = 10
VID = ES0171, NUM = 11
VID = ES0171, NUM = 12
VID = ES0171, NUM = 13
VID = ES0171, NUM = 14
VID = ES0171, NUM = 15
VID = ES0171, NUM = 16
VID = ES0171, NUM = 17
VID = ES0171, NUM = 18
VID = ES0171, NUM = 19
VID = ES0171, NUM = 20
VID = ES0171, NUM = 21
VID = ES0171, NUM = 22
VID = ES0171, NUM = 23
VID = ES0171, NUM = 24
VID = ES0171, NUM = 25
VID = ES0171, NUM = 26
VID = ES0171, NUM = 27
VID = ES0171, NUM = 28
VID = ES0171, NUM = 29
VID = ES0171, NUM = 30
VID = ES0171, NUM = 31
VID = ES0171, NUM = 32
VID = ES0171, NUM = 33
VID = ES0171, NUM = 34
VID = ES0171, NUM = 35
VID = ES0171, NUM = 36
VID = ES0171, NUM = 37
VID = ES0171, NUM = 38
VID = ES0171, NUM = 39
VID = ES0171, NUM = 40
VID = ES0171, NUM = 41
VID = ES0171, NUM = 42
VID = ES0171, NUM = 43
VID = ES0171, NUM = 44
VID = ES0171, NUM = 45
VID = ES0171, NUM = 46
VID = ES0171, NUM = 47
VID = ES0171, NUM = 48
VID = ES0171, NUM = 49
VID = ES0171, NUM = 50
VID = ES0171, NUM = 51
VID = ES0171, NUM = 52
VID = ES0171, NUM = 53
VID = ES0171, NUM = 54
VID = ES0171, NUM = 55
VID = ES0171, NUM = 56
VID = ES0171, NUM = 57
VID = ES0171, NUM = 58
VID = ES0171, NUM = 59
VID = ES0171, NUM = 60
VID = ES0171, NUM = 61
VID = ES0171, NUM = 62
VID = ES0171, NUM = 63
VID = ES0171, NUM = 64
