*
*  Fatmen Nickname: lept96_g
*  Generic Name : /castor/cern.ch/delphi/tape/C001-3
*  Description    : DST data of the LEPTONIC events; 1996 data P1, 7th proc.
*   Comments     :    3 files, total size = 0.751 Gb, in 3 files
*
R07164.[1-3].al ! NUM = 1-3
