*
*  Fatmen Nickname: lept98_d
*  Generic Name : /castor/cern.ch/delphi/tape/C001-13
*  Description    : DST data of the LEPTONIC events; 1998 Z0 data, 4th proc.
*   Comments     :    13 files, total size = 1.539 Gb, in 13 files
*
Y00565.[1-13].al ! NUM = 1-13
