*
*  Fatmen Nickname: lept95
*  Generic name   : //CERN/DELPHI/P01_ALLD/DSTO/LEPT/Y95V04/SUMT/C1-77
*  Description    : DST data of the LEPTONIC events; 1995 data, 4th proc..
*   Comments     :    77 files, total size = 10.630 Gb, 
*
VID = ES0053, NUM = 1
VID = ES0053, NUM = 2
VID = ES0053, NUM = 3
VID = ES0053, NUM = 4
VID = ES0053, NUM = 5
VID = ES0053, NUM = 6
VID = ES0053, NUM = 7
VID = ES0053, NUM = 8
VID = ES0053, NUM = 9
VID = ES0053, NUM = 10
VID = ES0053, NUM = 11
VID = ES0053, NUM = 12
VID = ES0053, NUM = 13
VID = ES0053, NUM = 14
VID = ES0053, NUM = 15
VID = ES0053, NUM = 16
VID = ES0053, NUM = 17
VID = ES0053, NUM = 18
VID = ES0053, NUM = 19
VID = ES0053, NUM = 20
VID = ES0053, NUM = 21
VID = ES0053, NUM = 22
VID = ES0053, NUM = 23
VID = ES0053, NUM = 24
VID = ES0053, NUM = 25
VID = ES0053, NUM = 26
VID = ES0053, NUM = 27
VID = ES0053, NUM = 28
VID = ES0053, NUM = 29
VID = ES0053, NUM = 30
VID = ES0053, NUM = 31
VID = ES0053, NUM = 32
VID = ES0053, NUM = 33
VID = ES0053, NUM = 34
VID = ES0053, NUM = 35
VID = ES0053, NUM = 36
VID = ES0053, NUM = 37
VID = ES0053, NUM = 38
VID = ES0053, NUM = 39
VID = ES0053, NUM = 40
VID = ES0053, NUM = 41
VID = ES0053, NUM = 42
VID = ES0053, NUM = 43
VID = ES0053, NUM = 44
VID = ES0053, NUM = 45
VID = ES0053, NUM = 46
VID = ES0053, NUM = 47
VID = ES0053, NUM = 48
VID = ES0053, NUM = 49
VID = ES0053, NUM = 50
VID = ES0053, NUM = 51
VID = ES0053, NUM = 52
VID = ES0053, NUM = 53
VID = ES0053, NUM = 54
VID = ES0053, NUM = 55
VID = ES0053, NUM = 56
VID = ES0053, NUM = 57
VID = ES0053, NUM = 58
VID = ES0053, NUM = 59
VID = ES0053, NUM = 60
VID = ES0053, NUM = 61
VID = ES0053, NUM = 62
VID = ES0053, NUM = 63
VID = ES0053, NUM = 64
VID = ES0053, NUM = 65
VID = ES0053, NUM = 66
VID = ES0053, NUM = 67
VID = ES0053, NUM = 68
VID = ES0053, NUM = 69
VID = ES0053, NUM = 70
VID = ES0053, NUM = 71
VID = ES0053, NUM = 72
VID = ES0053, NUM = 73
VID = ES0053, NUM = 74
VID = ES0053, NUM = 75
VID = ES0053, NUM = 76
VID = ES0053, NUM = 77
