*
*  Fatmen Nickname: lo_baba_e136_r95_1l_a1
*  Generic Name : /castor/cern.ch/delphi/tape/C001-1
*  Description    : LongDST Bhabha (barrel only);Sim. of 95A  DELANA(liq) Fix 1 ; RUTH
*   Comments     :    1 files, total size = 0.023 Gb, in 1 files
*
Y10055.220.al ! NUM = 1
