*
*  Fatmen Nickname: lo_baba_e172_r96_1l_e1
*  Generic Name : /castor/cern.ch/delphi/tape/C001-2
*  Description    : LongDST bhabha barel , theta > 37 degrees;     ANA96E Fix 1 ; RUTH
*   Comments     :    2 files, total size = 0.059 Gb, in 2 files
*
Y13714.[7-8].al ! NUM = 1-2
