*
*  Fatmen Nickname: lo_bafo_m94_2l_c2
*  Generic Name : /castor/cern.ch/delphi/tape/C001-57
*  Description    : LongDST Bhabha(forward only);   Sim of 94 (liq) ANA94C Fix 2; MILA
*   Comments     :    57 files, total size = 2.797 Gb, in 57 files
*
Y13734.[42-98].al ! NUM = 1-57
