*
*  Fatmen Nickname: lo_baba_p93_1g_c1
*  Generic Name : /castor/cern.ch/delphi/tape/C001-9
*  Description    : LongDST Bhabha (barrel only); Sim. of 93 (gas) ANA93C Fix 1 ; PADU
*   Comments     :    9 files, total size = 0.770 Gb, in 9 files
*
Y10058.[217-225].al ! NUM = 1-9
