*
*  Fatmen Nickname: lo_bafo_e091_r96_1l_e1
*  Generic Name : /castor/cern.ch/delphi/tape/C001-3
*  Description    : LongDST Bhabha forward, theta > 9 degrees      ANA96E Fix 1 ; RUTH
*   Comments     :    3 files, total size = 0.179 Gb, in 3 files
*
Y13712.[203-205].al ! NUM = 1-3
