*
*  Fatmen Nickname: lo_bafo_m94_2l_b3
*  Generic Name : /castor/cern.ch/delphi/tape/C001-47
*  Description    : LongDST Bhabha(forward only);Sim. of 94 (liq) ANA94B Fix 3  ; MILA
*   Comments     :    47 files, total size = 3.491 Gb, in 47 files
*
Y10046.[149-153,156-162,164-169,174-182,184-201].al ! NUM = 1-45
Y10050.[213-214].al ! NUM = 46-47
