*
*  Fatmen Nickname: lo_baba_m93_1g_c1
*  Generic Name : /castor/cern.ch/delphi/tape/C001-14
*  Description    : LongDST Bhabha (barrel only); Sim. of 93 (gas) ANA93C Fix 1; MILAN
*   Comments     :    14 files, total size = 0.765 Gb, in 14 files
*
Y10058.[203-216].al ! NUM = 1-14
