*
*  Fatmen Nickname: lo_bafo_e170_r96_1l_e1
*  Generic Name : /castor/cern.ch/delphi/tape/C001-5
*  Description    : LongDST Bhabha forward, theta > 9 degrees      ANA96E Fix 1 ; RUTH
*   Comments     :    5 files, total size = 0.324 Gb, in 5 files
*
Y13714.[10-14].al ! NUM = 1-5
