*
*  Fatmen Nickname: lo_baba_e136_r95_1l_b1
*  Generic Name : /castor/cern.ch/delphi/tape/C001-2
*  Description    : LongDST Bhabha (barrel only);Sim. of 95B- DELANA(liq) Fix 1 ; RUTH
*   Comments     :    2 files, total size = 0.045 Gb, in 2 files
*
Y10053.[215,269].al ! NUM = 1-2
