*
*  Fatmen Nickname: lo_bafo_b95_1l_d2
*  Generic Name : /castor/cern.ch/delphi/tape/C001-168
*  Description    : LongDST Bhabha (barrel+forw); Sim. of 95(liq) ANA95D Fix 2  ; BAST
*   Comments     :    168 files, total size = 3.824 Gb, in 168 files
*
Y13750.[133-300].al ! NUM = 1-168
