*
*  Fatmen Nickname: lo_bbpy_e172_r96_1l_e1
*  Generic Name : /castor/cern.ch/delphi/tape/C001-13
*  Description    : LongDST Z0Gamma, Z0-->bbbar;        Sim. of 96 ANA96E Fix 1 ; RUTH
*   Comments     :    13 files, total size = 1.047 Gb, in 13 files
*
Y13713.[70-82].al ! NUM = 1-13
