*
*  Fatmen Nickname: lo_cmpt_r95_1l_d2
*  Generic Name : /castor/cern.ch/delphi/tape/C001-2
*  Description    :  LongDST EEGG Comptons (no STIC information)                 ;RUTH
*   Comments     :    2 files, total size = 0.147 Gb, in 2 files
*
Y13750.[303-304].al ! NUM = 1-2
