*
*  Fatmen Nickname: lo_dymu_r95_1l_c2
*  Generic Name : /castor/cern.ch/delphi/tape/C001-26
*  Description    : LongDST mu+mu- (DYMU3     ); Sim. of 95 (liq) ANA95C Fix 2  ; RUTH
*   Comments     :    26 files, total size = 2.705 Gb, in 26 files
*
Y10053.[30,33-40,43-48,51-52,54].al ! NUM = 1-18
Y13749.[326-333].al ! NUM = 19-26
