*
*  Fatmen Nickname: lo_dymu_r92_2l_e2
*  Generic Name : /castor/cern.ch/delphi/tape/C001-2
*  Description    : LongDST Muon pairs (DYMU3); ANA92E F2 (liq.)               ;  RUTH
*   Comments     :    2 files, total size = 0.264 Gb, in 2 files
*
Y13723.[237-238].al ! NUM = 1-2
