*
*  Fatmen Nickname: lo_dymu_r94_2l_c2
*  Generic Name : /castor/cern.ch/delphi/tape/C001-7
*  Description    :  Dimuons V94 from RAL      ; Sim. of 94 data  ANA94C Fix 2  ; RAL.
*   Comments     :    7 files, total size = 0.817 Gb, in 7 files
*
Y13734.[155-161].al ! NUM = 1-7
