*
*  Fatmen Nickname: lo_dymu_r93_1g_d2
*  Generic Name : /castor/cern.ch/delphi/tape/C001-4
*  Description    : LongDST Muon pairs (DYMU3); Sim. of 93 (gas) ANA93D Fix 2     RAL.
*   Comments     :    4 files, total size = 0.671 Gb, in 4 files
*
Y12339.[297-300].al ! NUM = 1-4
