*
*  Fatmen Nickname: lo_eevt_e130_r95_1l_d2
*  Generic Name : /castor/cern.ch/delphi/tape/C001-1
*  Description    :  LongDST e+e- --> e e nutau nutaubar                         ;RUTH
*   Comments     :    1 files, total size = 0.007 Gb, in 1 files
*
Y13750.343.al ! NUM = 1
