*
*  Fatmen Nickname: lo_eemm_e136_r95_1l_c2
*  Generic Name : /castor/cern.ch/delphi/tape/C001-2
*  Description    :  LongDST e+e- --> e+e- mu+mu-  ; Sim. 95C DELANA(liq) Fix 2 ; RUTH
*   Comments     :    2 files, total size = 0.010 Gb, in 2 files
*
Y10053.[171,180].al ! NUM = 1-2
