*
*  Fatmen Nickname: lo_evqq_e172_r96_1l_e1
*  Generic Name : /castor/cern.ch/delphi/tape/C001-15
*  Description    : LongDST e+ e- --> e v qqbar                    ANA96E Fix 1 ; RUTH
*   Comments     :    15 files, total size = 0.879 Gb, in 15 files
*
Y13714.[194,200,205,210,229,262,250,269-270,287-290,310,315].al ! NUM = 1-15
