*
*  Fatmen Nickname: lo_eemm_e172_r96_1l_e1
*  Generic Name : /castor/cern.ch/delphi/tape/C001-3
*  Description    : LongDST e+ e- -> e+ e- mu+ mu-                 ANA96E Fix 1 ; RUTH
*   Comments     :    3 files, total size = 0.043 Gb, in 3 files
*
Y13714.[183-184,303].al ! NUM = 1-3
