*
*  Fatmen Nickname: lo_eegg_r95_1l_c2
*  Generic Name : /castor/cern.ch/delphi/tape/C001-1
*  Description    : LongDST e+e- -> gamma + gamma (QED) ;   (liq) ANA95C Fix 2  ; BAST
*   Comments     :    1 files, total size = 0.035 Gb, in 1 files
*
Y10053.50.al ! NUM = 1
