*
*  Fatmen Nickname: lo_eeee_e130_r95_1l_d2
*  Generic Name : /castor/cern.ch/delphi/tape/C001-1
*  Description    :  LongDST e+e- --> e e e e                                    ;RUTH
*   Comments     :    1 files, total size = 0.024 Gb, in 1 files
*
Y13750.338.al ! NUM = 1
