*
*  Fatmen Nickname: lo_eegg_e172_r96_1l_e1
*  Generic Name : /castor/cern.ch/delphi/tape/C001-5
*  Description    : LongDST e+ e- --> gamma+gamma (+gamma)         ANA96E Fix 1 ; RUTH
*   Comments     :    5 files, total size = 0.113 Gb, in 5 files
*
Y13713.[56,68].al ! NUM = 1-2
Y13714.[157-159].al ! NUM = 3-5
