*
*  Fatmen Nickname: lo_eemm_e161_r96_1l_e1
*  Generic Name : /castor/cern.ch/delphi/tape/C001-1
*  Description    : LongDST e+ e- -> e+ e- mu+ mu-                 ANA96E Fix 1 ; RUTH
*   Comments     :    1 files, total size = 0.018 Gb, in 1 files
*
Y13713.198.al ! NUM = 1
