*
*  Fatmen Nickname: lo_eegg_r94_2l_c2
*  Generic Name : /castor/cern.ch/delphi/tape/C001-2
*  Description    :  LongDST e+e- -> gam+gam (+gam);Sim. of 94 data ANA94C Fix 2; RAL.
*   Comments     :    2 files, total size = 0.092 Gb, in 2 files
*
Y13734.[167-168].al ! NUM = 1-2
