*
*  Fatmen Nickname: lo_eeee_f94_2l_c2
*  Generic Name : /castor/cern.ch/delphi/tape/C001-3
*  Description    :  LongDST e+e- -> e+e-        ;  Sim of 94 (liq) ANA94C Fix 2; FARM
*   Comments     :    3 files, total size = 0.203 Gb, in 3 files
*
Y13734.[180-182].al ! NUM = 1-3
