*
*  Fatmen Nickname: lo_ffpy_e140_r95_1l_a1
*  Generic Name : /castor/cern.ch/delphi/tape/C001-4
*  Description    : LongDST e+e- -> Z0 + gamma ; Sim. of 95A  DELANA(liq) Fix 1 ; RUTH
*   Comments     :    4 files, total size = 0.366 Gb, in 4 files
*
Y10055.[232-233,238,241].al ! NUM = 1-4
