*
*  Fatmen Nickname: lo_ggmu_r94_2l_b3
*  Generic Name : /castor/cern.ch/delphi/tape/C001-9
*  Description    : LongDST gamma-gamma-->mu mu, no cuts;   (liq) ANA94B Fix 3  ; RUTH
*   Comments     :    9 files, total size = 0.521 Gb, in 9 files
*
Y10049.157.al ! NUM = 1
Y10046.[127-128,140-141].al ! NUM = 2-5
Y10050.205.al ! NUM = 6
Y10058.[277-279].al ! NUM = 7-9
