*
*  Fatmen Nickname: lo_ggqp_e130_r95_1l_b1
*  Generic Name : /castor/cern.ch/delphi/tape/C001-4
*  Description    : LongDST g g -> hadrons(QPM); Sim. of 95B- DELANA(liq) Fix 1 ; RUTH
*   Comments     :    4 files, total size = 0.073 Gb, in 4 files
*
Y10055.[182,187,189,205].al ! NUM = 1-4
