*
*  Fatmen Nickname: lo_ggqp_e184_r97_1l_a1
*  Generic Name : /castor/cern.ch/delphi/tape/C001-17
*  Description    : LongDST gamma gamma -> hadrons (QPM) ; Sim. 97 ANA97A Fix 1 ; RUTH
*   Comments     :    17 files, total size = 2.029 Gb, in 17 files
*
Y13706.[143-149,204-209].al ! NUM = 1-13
Y13707.[12-15].al ! NUM = 14-17
