*
*  Fatmen Nickname: lo_ggqc_e140_r95_1l_a1
*  Generic Name : /castor/cern.ch/delphi/tape/C001-2
*  Description    : LongDST g g -> hadrons(QCD); Sim. of 95A  DELANA(liq) Fix 1 ; RUTH
*   Comments     :    2 files, total size = 0.117 Gb, in 2 files
*
Y10055.[224-225].al ! NUM = 1-2
