*
*  Fatmen Nickname: lo_ggtt_e172_r96_1l_e1
*  Generic Name : /castor/cern.ch/delphi/tape/C001-5
*  Description    : LongDST gamma gamma -> tau+ tau- (gam)         ANA96E Fix 1 ; RUTH
*   Comments     :    5 files, total size = 0.400 Gb, in 5 files
*
Y13715.[23-27].al ! NUM = 1-5
