*
*  Fatmen Nickname: lo_ggtt_e184_r97_1l_a1
*  Generic Name : /castor/cern.ch/delphi/tape/C001-29
*  Description    : LongDST gamma gamma -> tau+ tau- (gam); Sim. 97 ANA97A Fix 1  RUTH
*   Comments     :    29 files, total size = 2.825 Gb, in 29 files
*
Y13706.[167-171,173-183,210-211].al ! NUM = 1-18
Y13707.[1-11].al ! NUM = 19-29
