*
*  Fatmen Nickname: lo_ggvd_e184_sa97_1l_a1
*  Generic Name : /castor/cern.ch/delphi/tape/C001-68
*  Description    : LongDST gamma gamma --> hadrons (VDM) ; Sim. 97 ANA97A Fix 1  SACL
*   Comments     :    68 files, total size = 5.991 Gb, in 68 files
*
Y13707.[52-119].al ! NUM = 1-68
