*
*  Fatmen Nickname: lo_hhpy_e184_sa97_1l_a1
*  Generic Name : /castor/cern.ch/delphi/tape/C001-16
*  Description    : LongDST e+e- -> H+H-                           ANA97A Fix 1 ; SACL
*   Comments     :    16 files, total size = 0.816 Gb, in 16 files
*
Y13706.[230-245].al ! NUM = 1-16
