*
*  Fatmen Nickname: lo_h0a0_e130_r95_1l_b1
*  Generic Name : /castor/cern.ch/delphi/tape/C001-1
*  Description    : LongDST Susy Higgs mA=55 GeV;Sim. of 95B- DELANA(liq) Fix 1 ; RUTH
*   Comments     :    1 files, total size = 0.018 Gb, in 1 files
*
Y10053.216.al ! NUM = 1
