*
*  Fatmen Nickname: lo_hzha_e161_sa96_1l_e1
*  Generic Name : /castor/cern.ch/delphi/tape/C001-4
*  Description    : LongDST e+ e- -> hZ                            ANA96E Fix 1 ; SACL
*   Comments     :    4 files, total size = 0.344 Gb, in 4 files
*
Y13713.[344-346,293].al ! NUM = 1-4
