*
*  Fatmen Nickname: lo_hphm_e130_sa95_1l_b1
*  Generic Name : /castor/cern.ch/delphi/tape/C001-4
*  Description    : LongDST e+e--> H+H-(cs0 any);Sim. of 95B- DELANA(liq) Fix 1 ; SACL
*   Comments     :    4 files, total size = 0.273 Gb, in 4 files
*
Y10053.[250-251,260-261].al ! NUM = 1-4
