*
*  Fatmen Nickname: lo_koz4_b94_2l_c2
*  Generic Name : /castor/cern.ch/delphi/tape/C001-41
*  Description    :  KORALZ40 Tau Pairs generator Delsim v94_4 Delana 94C       ; BAST
*   Comments     :    41 files, total size = 3.846 Gb, in 41 files
*
Y13734.[1-41].al ! NUM = 1-41
