*
*  Fatmen Nickname: lo_lvlv_e136_r95_1l_c2
*  Generic Name : /castor/cern.ch/delphi/tape/C001-1
*  Description    :  LongDST e+e- --> lv lv         ;Sim. 95C DELANA(liq) Fix 2 ; RUTH
*   Comments     :    1 files, total size = 0.003 Gb, in 1 files
*
Y10053.174.al ! NUM = 1
