*
*  Fatmen Nickname: lo_mumu_e130_r95_1l_c2
*  Generic Name : /castor/cern.ch/delphi/tape/C001-1
*  Description    : LongDST mu+ mu-  (KORALZ)   ; Sim. of 95C DELANA(liq) Fix 2 ; RUTH
*   Comments     :    1 files, total size = 0.012 Gb, in 1 files
*
Y10053.125.al ! NUM = 1
