*
*  Fatmen Nickname: lo_mumu_e184_r97_1l_a1
*  Generic Name : /castor/cern.ch/delphi/tape/C001-1
*  Description    : LongDST e+e- -> Z0+gammas,Z0->mu+mu- KORALZ4.2:ANA97A Fix 1 ; RUTH
*   Comments     :    1 files, total size = 0.096 Gb, in 1 files
*
Y13706.34.al ! NUM = 1
