*
*  Fatmen Nickname: lo_mumu_e161_r96_1l_e1
*  Generic Name : /castor/cern.ch/delphi/tape/C001-1
*  Description    : LongDST e+e- -> Z0+gammas,Z0 -> mu+mu- KORALZ  ANA96E Fix 1 ; RUTH
*   Comments     :    1 files, total size = 0.025 Gb, in 1 files
*
Y13713.37.al ! NUM = 1
