*
*  Fatmen Nickname: lo_qqhr_e136_r95_1l_d2
*  Generic Name : /castor/cern.ch/delphi/tape/C001-2
*  Description    :  LongDST e+ e- -> Z0/gam  HERWIG5.8d Delphi Tune             ;RUTH
*   Comments     :    2 files, total size = 0.186 Gb, in 2 files
*
Y13750.[353-354].al ! NUM = 1-2
