*
*  Fatmen Nickname: lo_susy_e172_st96_1l_e1
*  Generic Name : /castor/cern.ch/delphi/tape/C001-78
*  Description    : LongDST SUSY signal                            ANA96E Fix 1 ; STOC 
*   Comments     :    78 files, total size = 4.233 Gb, in 78 files
*
Y13715.[306-383].al ! NUM = 1-78
