*
*  Fatmen Nickname: lo_susy_e130_r95_1l_c2
*  Generic Name : /castor/cern.ch/delphi/tape/C001-12
*  Description    : LongDST SUSY signal        ; Sim. of 95C  DELANA(liq) Fix 2 ; RUTH
*   Comments     :    12 files, total size = 0.126 Gb, in 12 files
*
Y10053.[130-139,155-156].al ! NUM = 1-12
