*
*  Fatmen Nickname: lo_tvqq_e161_r96_1l_e1
*  Generic Name : /castor/cern.ch/delphi/tape/C001-1
*  Description    : LongDST e+e- --> tau v qqbar                   ANA96E Fix 1 ; RUTH 
*   Comments     :    1 files, total size = 0.059 Gb, in 1 files
*
Y13713.176.al ! NUM = 1
