*
*  Fatmen Nickname: lo_ttqq_e136_r95_1l_c2
*  Generic Name : /castor/cern.ch/delphi/tape/C001-1
*  Description    :  LongDST e+e- --> tau+tau- q qbar;Sim.95C DELANA(liq) Fix 2 ; RUTH
*   Comments     :    1 files, total size = 0.024 Gb, in 1 files
*
Y10053.178.al ! NUM = 1
