*
*  Fatmen Nickname: lo_ttpy_e172_r96_1l_e1
*  Generic Name : /castor/cern.ch/delphi/tape/C001-1
*  Description    : LongDST Z0Gamma, Z0 -> tau+ tau-               ANA96E Fix 1 ; RUTH
*   Comments     :    1 files, total size = 0.037 Gb, in 1 files
*
Y13713.46.al ! NUM = 1
