*
*  Fatmen Nickname: lo_tthn_f94_2l_b3
*  Generic Name : /castor/cern.ch/delphi/tape/C001-10
*  Description    : LongDST tau+tau- high multipl.negative (liq); ANA94B Fix 3  ; FARM
*   Comments     :    10 files, total size = 0.935 Gb, in 10 files
*
Y10046.[172-173,203].al ! NUM = 1-3
Y10050.[195-199,206-207].al ! NUM = 4-10
