*
*  Fatmen Nickname: lo_tthp_f94_2l_b3
*  Generic Name : /castor/cern.ch/delphi/tape/C001-9
*  Description    : LongDST tau+tau- high multipl.positive (liq); ANA94B Fix 3  ; FARM
*   Comments     :    9 files, total size = 0.923 Gb, in 9 files
*
Y10050.[200-204,208-211].al ! NUM = 1-9
