*
*  Fatmen Nickname: lo_vvqq_e172_r96_1l_e1
*  Generic Name : /castor/cern.ch/delphi/tape/C001-1
*  Description    : LongDST e+ e- -> vvqqbar                       ANA96E Fix 1 ; RUTH
*   Comments     :    1 files, total size = 0.007 Gb, in 1 files
*
Y13714.197.al ! NUM = 1
