*
*  Fatmen Nickname: lo_wwhr_e172_r96_1l_e1
*  Generic Name : /castor/cern.ch/delphi/tape/C001-8
*  Description    : LongDST e+e- --> W+ W-  HERWIG5.8d Delphi Tune;ANA96E Fix 1 ; RUTH
*   Comments     :    8 files, total size = 0.741 Gb, in 8 files
*
Y13714.[297-301,309,320-321].al ! NUM = 1-8
