*
*  Fatmen Nickname: lo_wpha_e184_g97_1l_a1
*  Generic Name : /castor/cern.ch/delphi/tape/C001-16
*  Description    : LongDST e+e- -> qq~ l+l- (WPHACT generator)    ANA97A Fix 1 ; GENO
*   Comments     :    16 files, total size = 0.278 Gb, in 16 files
*
Y13706.[127-142].al ! NUM = 1-16
