*
*  Fatmen Nickname: lo_wepy_e170_r96_1l_e1
*  Generic Name : /castor/cern.ch/delphi/tape/C001-1
*  Description    : LongDST e+ e- -> W e nu                        ANA96E Fix 1 ; RUTH
*   Comments     :    1 files, total size = 0.012 Gb, in 1 files
*
Y13714.243.al ! NUM = 1
