*
*  Fatmen Nickname: lo_wepy_e136_r95_1l_b1
*  Generic Name : /castor/cern.ch/delphi/tape/C001-1
*  Description    : LongDST e+e- -> Wenu       ; Sim. of 95B- DELANA(liq) Fix 1 ; RUTH
*   Comments     :    1 files, total size = 0.002 Gb, in 1 files
*
Y10055.196.al ! NUM = 1
