*
*  Fatmen Nickname: lo_wwpy_e184_r97_1l_a1
*  Generic Name : /castor/cern.ch/delphi/tape/C001-9
*  Description    : LongDST e+e- --> W+W- (W->anything)  ; Sim. 97 ANA97A Fix 1 ; RUTH
*   Comments     :    9 files, total size = 1.050 Gb, in 9 files
*
Y13706.[117,119-126].al ! NUM = 1-9
