*
*  Fatmen Nickname: lo_zgpy_e184_b97_1l_a1
*  Generic Name : /castor/cern.ch/delphi/tape/C001-32
*  Description    : LongDST Z0 Gamma, Z0 --> qqbar       ; Sim. 97 ANA97A Fix 1 ; BAST
*   Comments     :    32 files, total size = 3.467 Gb, in 32 files
*
Y13706.[43-74].al ! NUM = 1-32
