*
*  Fatmen Nickname: lo_zgpy_e130_r95_1l_c2
*  Generic Name : /castor/cern.ch/delphi/tape/C001-15
*  Description    :  Z0Gamma, Z0-->qqbar       ; Sim. of 95C  DELANA(liq) Fix 2 ; RUTH
*   Comments     :    15 files, total size = 0.990 Gb, in 15 files
*
Y10053.[140-154].al ! NUM = 1-15
