*
*  Fatmen Nickname: lo_zzpy_e140_r95_1l_b1
*  Generic Name : /castor/cern.ch/delphi/tape/C001-1
*  Description    : LongDST e+e- -> ZZ         ; Sim. of 95B- DELANA(liq) Fix 1 ; RUTH
*   Comments     :    1 files, total size = 0.003 Gb, in 1 files
*
Y10055.191.al ! NUM = 1
