*
*  Fatmen Nickname: lolept92_d2
*  Generic Name : /castor/cern.ch/delphi/tape/C001-47
*  Description    : Long DSTs of the LEPTONIC events;     92 data 4th pr.(ANA_D) Fix 2
*   Comments     :    47 files, total size = 2.727 Gb, in 47 files
*
Y10055.[98-144].al ! NUM = 1-47
