*
*  Fatmen Nickname: rawd93
*  Generic Name : /castor/cern.ch/delphi/rawd/y93/C001-2746
*  Description    : RAW data of ALL events; 1993 data
*   Comments     :    2746 files, total size = 390.175 Gb, in 2746 files
*
ED0116.[15-37].sl ! NUM = 1-23
ED0121.41.sl ! NUM = 24
ED0116.[38-60].sl ! NUM = 25-47
ED0117.[1-43].sl ! NUM = 48-90
ED0121.42.sl ! NUM = 91
ED0117.[44-60].sl ! NUM = 92-108
ED0118.[1-43].sl ! NUM = 109-151
ED0121.43.sl ! NUM = 152
ED0118.[44-60].sl ! NUM = 153-169
ED0119.[1-60].sl ! NUM = 170-229
ED0120.[1-60].sl ! NUM = 230-289
ED0121.[1-40,44-60].sl ! NUM = 290-346
ED0122.[1-33].sl ! NUM = 347-379
ED0150.[46-48].sl ! NUM = 380-382
ED0122.[59-60].sl ! NUM = 383-384
ED0123.[1-60].sl ! NUM = 385-444
ED0124.[1-60].sl ! NUM = 445-504
ED0125.[1-60].sl ! NUM = 505-564
ED0126.[1-60].sl ! NUM = 565-624
ED0127.[1-11].sl ! NUM = 625-635
ED0128.[36-60].sl ! NUM = 636-660
ED0129.[1-60].sl ! NUM = 661-720
ED0130.[1-60].sl ! NUM = 721-780
ED0131.[1-60].sl ! NUM = 781-840
ED0132.[1-60].sl ! NUM = 841-900
ED0133.[1-60].sl ! NUM = 901-960
ED0134.[1-60].sl ! NUM = 961-1020
ED0135.[1-60].sl ! NUM = 1021-1080
ED0136.[1-60].sl ! NUM = 1081-1140
ED0137.[1-60].sl ! NUM = 1141-1200
ED0138.[1-59].sl ! NUM = 1201-1259
ED0139.[1-60].sl ! NUM = 1260-1319
ED0140.[1-48].sl ! NUM = 1320-1367
ED0105.[1-60].sl ! NUM = 1368-1427
ED0106.[1-60].sl ! NUM = 1428-1487
ED0107.[1-60].sl ! NUM = 1488-1547
ED0108.[1-60].sl ! NUM = 1548-1607
ED0109.[1-60].sl ! NUM = 1608-1667
ED0110.[1-45].sl ! NUM = 1668-1712
ED0111.[22-60].sl ! NUM = 1713-1751
ED0112.[1-60].sl ! NUM = 1752-1811
ED0113.[1-60].sl ! NUM = 1812-1871
ED0114.[1-60].sl ! NUM = 1872-1931
ED0115.[1-39].sl ! NUM = 1932-1970
ED0110.[46-60].sl ! NUM = 1971-1985
ED0111.[1-21].sl ! NUM = 1986-2006
ED0115.[41-60].sl ! NUM = 2007-2026
ED0116.[1-14].sl ! NUM = 2027-2040
ED0122.[34-58].sl ! NUM = 2041-2065
ED0127.[12-60].sl ! NUM = 2066-2114
ED0128.[1-35].sl ! NUM = 2115-2149
ED0140.[49-60].sl ! NUM = 2150-2161
ED0141.[1-60].sl ! NUM = 2162-2221
ED0142.[1-60].sl ! NUM = 2222-2281
ED0143.[1-60].sl ! NUM = 2282-2341
ED0144.[1-60].sl ! NUM = 2342-2401
ED0145.[1-60].sl ! NUM = 2402-2461
ED0146.[1-60].sl ! NUM = 2462-2521
ED0147.[1-60].sl ! NUM = 2522-2581
ED0148.[1-60].sl ! NUM = 2582-2641
ED0149.[1-60].sl ! NUM = 2642-2701
ED0150.[1-45].sl ! NUM = 2702-2746
