*
*  Fatmen Nickname: scan99_e202_e1
*  Generic Name : /castor/cern.ch/delphi/tape/C001-662
*  Description    : RTXS, events after DAFNE tag for scanning; 99 data,5th proc. Fix 1
*   Comments     :    662 files, total size = 5.802 Gb, in 662 files
*
R05108.[1-662].al ! NUM = 1-662
