*
*  Fatmen Nickname: sh_bbsh_b93_2g_d2
*  Generic Name : /castor/cern.ch/delphi/tape/C001-5
*  Description    : B0 decays -->Ds+ l nu X with Ds-->Phi l X; phi-->K+ K-      ; BAST
*   Comments     :    5 files, total size = 0.152 Gb, in 5 files
*
Y12339.[160-164].al ! NUM = 1-5
