*
*  Fatmen Nickname: sh_bdlx_b94_2l_c2
*  Generic Name : /castor/cern.ch/delphi/tape/C001-56
*  Description    : ShortDST bbbar decays with b --> cbar --> 1 from D-,Ds,D0bar; BAST
*   Comments     :    56 files, total size = 2.005 Gb, in 56 files
*
Y10502.[216-271].al ! NUM = 1-56
