*
*  Fatmen Nickname: sh_bbsb_b92_2g_e2
*  Generic Name : /castor/cern.ch/delphi/tape/C001-4
*  Description    : B0s decays --> Ds+ 1 nu X with Ds+-->K*0 K; K*0-->K- pi+    ; BAST
*   Comments     :    4 files, total size = 0.108 Gb, in 4 files
*
Y13724.[115-118].al ! NUM = 1-4
