*
*  Fatmen Nickname: sh_bbsa_b93_2g_d2
*  Generic Name : /castor/cern.ch/delphi/tape/C001-16
*  Description    : B0s decays --> Ds+ 1nu X with Ds+-->phi pi; phi-->K+ K-     ; BAST
*   Comments     :    16 files, total size = 0.473 Gb, in 16 files
*
Y12339.[43-58].al ! NUM = 1-16
