*
*  Fatmen Nickname: sh_bbsf_b92_2g_e2
*  Generic Name : /castor/cern.ch/delphi/tape/C001-4
*  Description    : B decays -->Ds X with Ds+ -->K0s K                      Gas  ;BAST
*   Comments     :    4 files, total size = 0.120 Gb, in 4 files
*
Y13724.[123-126].al ! NUM = 1-4
