*
*  Fatmen Nickname: sh_bbps_b95_1l_d2
*  Generic Name : /castor/cern.ch/delphi/tape/C001-158
*  Description    :  ShortDST BBbar (b life 1.6);  Sim. of 95 (liq) ANA95D Fix 2; BAST
*   Comments     :    158 files, total size = 9.717 Gb, in 158 files
*
Y13749.[29-186].al ! NUM = 1-158
