*
*  Fatmen Nickname: sh_bbsb_b93_2g_d2
*  Generic Name : /castor/cern.ch/delphi/tape/C001-11
*  Description    : B0s decays --> Ds+ 1nu X with Ds+-->K*0 K; K*0-->K- pi+     ; BAST
*   Comments     :    11 files, total size = 0.321 Gb, in 11 files
*
Y12339.[59-69].al ! NUM = 1-11
