*
*  Fatmen Nickname: sh_bdpl_b94_2l_c2
*  Generic Name : /castor/cern.ch/delphi/tape/C001-7
*  Description    : ShortDST bbbar decays with bbar -> l lambdaC Nbar X -> l X  ; BAST
*   Comments     :    7 files, total size = 0.230 Gb, in 7 files
*
Y10502.[272-278].al ! NUM = 1-7
