*
*  Fatmen Nickname: sh_bbsh_b94_2l_c2
*  Generic Name : /castor/cern.ch/delphi/tape/C001-7
*  Description    :  ShortDST B0s decays->Ds+l nu X with Ds->Phi l X; phi->K+ K-; BAST
*   Comments     :    7 files, total size = 0.229 Gb, in 7 files
*
Y10059.[243-249].al ! NUM = 1-7
