*
*  Fatmen Nickname: sh_bdsp_b94_2l_c2
*  Generic Name : /castor/cern.ch/delphi/tape/C001-28
*  Description    :  B decays with B-->D* p X and D*+- -->D0 pi+- D0-->K+- pi+- ; BAST
*   Comments     :    28 files, total size = 1.180 Gb, in 28 files
*
Y10060.[169-196].al ! NUM = 1-28
