*
*  Fatmen Nickname: sh_bbsb_b92_2l_e2
*  Generic Name : /castor/cern.ch/delphi/tape/C001-3
*  Description    : B0s decays --> Ds+ 1 nu X with Ds+-->K*0 K; K*0-->K- pi+    ; BAST
*   Comments     :    3 files, total size = 0.107 Gb, in 3 files
*
Y13724.[160-162].al ! NUM = 1-3
