*
*  Fatmen Nickname: sh_bbps_r92_2l_d2
*  Generic Name : /castor/cern.ch/delphi/tape/C001-11
*  Description    : ShortDST BBbar (b life 1.6); Sim. of 92 (liq.) ANA92D Fix 2 ; RAL.
*   Comments     :    11 files, total size = 1.938 Gb, in 11 files
*
Y22669.[1-11].al ! NUM = 1-11
