*
*  Fatmen Nickname: sh_bbps_b94_2l_b3
*  Generic Name : /castor/cern.ch/delphi/tape/C001-80
*  Description    : ShortDST BBbar (b life 1.6); Sim. of 94 (liq.) ANA94B Fix 3 ; BAST
*   Comments     :    80 files, total size = 7.553 Gb, in 80 files
*
Y10050.[1-70,76-80,177-180,193].al ! NUM = 1-80
