*
*  Fatmen Nickname: sh_bbsc_b92_2g_e2
*  Generic Name : /castor/cern.ch/delphi/tape/C001-4
*  Description    : B0s decays --> Ds+ 1 nu X with Ds+-->KOs K                  ; BAST
*   Comments     :    4 files, total size = 0.108 Gb, in 4 files
*
Y13724.[119-122].al ! NUM = 1-4
