*
*  Fatmen Nickname: sh_bbse_b92_2g_e2
*  Generic Name : /castor/cern.ch/delphi/tape/C001-7
*  Description    : B decays -->Ds X with Ds-->K*0 K; K*0-->K- pi+ (92E Gas)    ; BAST
*   Comments     :    7 files, total size = 0.244 Gb, in 7 files
*
Y13724.[104-110].al ! NUM = 1-7
