*
*  Fatmen Nickname: sh_cdst_b94_2l_c2
*  Generic Name : /castor/cern.ch/delphi/tape/C001-3
*  Description    : ShortDST ccbar --> D**0 X --> D*+ pi- X--> (K3pi)pi+ pi- X  ; BAST
*   Comments     :    3 files, total size = 0.141 Gb, in 3 files
*
Y10059.[321-323].al ! NUM = 1-3
