*
*  Fatmen Nickname: sh_ccdt_b94_2l_c2
*  Generic Name : /castor/cern.ch/delphi/tape/C001-3
*  Description    : ShortDST ccbar -> D*+' X -> D*+ pi+pi- X ->(K3pi)pi+pi+pi- X; BAST
*   Comments     :    3 files, total size = 0.139 Gb, in 3 files
*
Y10059.[308-310].al ! NUM = 1-3
