*
*  Fatmen Nickname: sh_ccps_b92_2g_d2
*  Generic Name : /castor/cern.ch/delphi/tape/C001-28
*  Description    : ShortDST CCbar (b life 1.6); Sim. of 92 (gas) ANA92D Fix 2 ; BASTA
*   Comments     :    28 files, total size = 3.752 Gb, in 28 files
*
Y22669.[41-68].al ! NUM = 1-28
