*
*  Fatmen Nickname: sh_dsse_b93_2g_d2
*  Generic Name : /castor/cern.ch/delphi/tape/C001-5
*  Description    : B decays with D** -->D*+ -->D0 -->K- pi+ pi+ pi+ Gas 93D    ; BAST
*   Comments     :    5 files, total size = 0.167 Gb, in 5 files
*
Y12339.[219-223].al ! NUM = 1-5
