*
*  Fatmen Nickname: sh_dsse_b93_2l_d2
*  Generic Name : /castor/cern.ch/delphi/tape/C001-2
*  Description    : B decays with D** -->D*+ -->D0 -->K- pi+ pi+ pi+  Liq 93D   ; BAST
*   Comments     :    2 files, total size = 0.068 Gb, in 2 files
*
Y12339.[242-243].al ! NUM = 1-2
