*
*  Fatmen Nickname: sh_dssa_b92_2g_e2
*  Generic Name : /castor/cern.ch/delphi/tape/C001-2
*  Description    : B decays with D**0 -->D*+ -->D0 -->K0s pi+ pi- Gas 92E      ; BAST
*   Comments     :    2 files, total size = 0.059 Gb, in 2 files
*
Y13724.[129-130].al ! NUM = 1-2
