*
*  Fatmen Nickname: sh_dsuc_b94_2l_c2
*  Generic Name : /castor/cern.ch/delphi/tape/C001-4
*  Description    : ShortDST ccbar ->D**0 + X -> D*+ pi- + X -->(k-pi+(pi0))pi+ pi-X
*   Comments     :    4 files, total size = 0.181 Gb, in 4 files
*
Y10059.[327-329,332].al ! NUM = 1-4
