*
*  Fatmen Nickname: sh_dssb_b92_2g_e2
*  Generic Name : /castor/cern.ch/delphi/tape/C001-2
*  Description    : B decays with D**0 -->D*+ -->D+ -->K-  pi+ pi- Gas 92E      ; BAST
*   Comments     :    2 files, total size = 0.057 Gb, in 2 files
*
Y13724.[131-132].al ! NUM = 1-2
