*
*  Fatmen Nickname: sh_dsfc_b94_2l_c2
*  Generic Name : /castor/cern.ch/delphi/tape/C001-14
*  Description    :  C decays with DS --> phi pi and phi --> K+ K-    (94C2)    ; BAST
*   Comments     :    14 files, total size = 0.525 Gb, in 14 files
*
Y10060.[1-14].al ! NUM = 1-14
