*
*  Fatmen Nickname: sh_dskc_b95_1l_d2
*  Generic Name : /castor/cern.ch/delphi/tape/C001-14
*  Description    : ShortDST C decays with DS --> K*0 and K*0 --> K+ pi-         ;BAST
*   Comments     :    14 files, total size = 0.612 Gb, in 14 files
*
Y13749.[250-263].al ! NUM = 1-14
