*
*  Fatmen Nickname: sh_dsxc_b94_2l_c2
*  Generic Name : /castor/cern.ch/delphi/tape/C001-3
*  Description    : ShortDST bbbar ->D*+'+ X ->D*+ pi-pi+ X ->(k-pi+(pi0))pi+pi-pi+ X 
*   Comments     :    3 files, total size = 0.150 Gb, in 3 files
*
Y10059.[339-341].al ! NUM = 1-3
