*
*  Fatmen Nickname: sh_dssg_b94_2l_c2
*  Generic Name : /castor/cern.ch/delphi/tape/C001-7
*  Description    :  ShortDST B decays with D0,D*,D**-->D0 -->K- pi+ pi+ pi-    ; BAST
*   Comments     :    7 files, total size = 0.243 Gb, in 7 files
*
Y10059.[278-284].al ! NUM = 1-7
