*
*  Fatmen Nickname: sh_dsks_b94_2l_c2
*  Generic Name : /castor/cern.ch/delphi/tape/C001-4
*  Description    : ShortDST D+s1 -> D* + K0 -> (k-pi+)pi + K0;  Sim.94  Fix 2  ; BAST   
*   Comments     :    4 files, total size = 0.075 Gb, in 4 files
*
Y10059.[299-302].al ! NUM = 1-4
