*
*  Fatmen Nickname: sh_dssk_b94_2l_c2
*  Generic Name : /castor/cern.ch/delphi/tape/C001-7
*  Description    :  B decays with D+ -->K- pi+ l+ nu                           ; BAST
*   Comments     :    7 files, total size = 0.237 Gb, in 7 files
*
Y10059.[377-383].al ! NUM = 1-7
