*
*  Fatmen Nickname: sh_dssj_b93_2g_d2
*  Generic Name : /castor/cern.ch/delphi/tape/C001-5
*  Description    : B decays with D0 -->K- l+ nu                      Gas 93D   ; BAST
*   Comments     :    5 files, total size = 0.154 Gb, in 5 files
*
Y12339.[268-272].al ! NUM = 1-5
