*
*  Fatmen Nickname: sh_ggqc_r94_2l_c2
*  Generic Name : /castor/cern.ch/delphi/tape/C001-2
*  Description    :  gamma-gamma --> hadrons (QCD)                              ; RAL.
*   Comments     :    2 files, total size = 0.137 Gb, in 2 files
*
Y13708.[309-310].al ! NUM = 1-2
