*
*  Fatmen Nickname: sh_ggmh_r94_2l_c2
*  Generic Name : /castor/cern.ch/delphi/tape/C001-1
*  Description    : ShortDST  gamma gamma -> hadrons, TWOGAM20                  ; RAL.
*   Comments     :    1 files, total size = 0.071 Gb, in 1 files
*
Y13708.313.al ! NUM = 1
