*
*  Fatmen Nickname: sh_qqps_b95_1l_c2
*  Generic Name : /castor/cern.ch/delphi/tape/C001-35
*  Description    : ShortDST QQbar (b life 1.6); Sim. of 95 (liq) ANA95C Fix 2  ; BAST
*   Comments     :    35 files, total size = 2.551 Gb, in 35 files
*
Y10052.[143-177].al ! NUM = 1-35
