*
*  Fatmen Nickname: sh_qqps_k92_2l_d2
*  Generic Name : /castor/cern.ch/delphi/tape/C001-98
*  Description    : ShortDST QQbar (b life 1.6); Sim. of 92 (liq.) ANA92D Fix 2 ; KARL
*   Comments     :    98 files, total size = 12.999 Gb, in 98 files
*
Y22670.[99-196].al ! NUM = 1-98
