*
*  Fatmen Nickname: sh_qqar_f94_2l_c2
*  Generic Name : /castor/cern.ch/delphi/tape/C001-111
*  Description    : ShortDST QQbar with Ariadne; Sim. of 94 (liq) ANA94C Fix 2  ; FARM
*   Comments     :    111 files, total size = 9.733 Gb, in 111 files
*
Y10059.[1-111].al ! NUM = 1-111
