*
*  Fatmen Nickname: sh_qqps_m91_2_f1
*  Generic Name : /castor/cern.ch/delphi/tape/C001-20
*  Description    : ShortDST QQbar (b lifetime 1.2 ps); Sim. of 91 ANA91F Fix 1 ; MILA
*   Comments     :    20 files, total size = 3.037 Gb, in 20 files
*
Y10041.[101-120].al ! NUM = 1-20
