*
*  Fatmen Nickname: sh_qqpo_b95_1l_d2
*  Generic Name : /castor/cern.ch/delphi/tape/C001-159
*  Description    : ShortDST QQbar ( off peak );  Sim. of 95 (liq) ANA95D Fix 2 ; BAST
*   Comments     :    159 files, total size = 15.025 Gb, in 159 files
*
Y13748.[76-234].al ! NUM = 1-159
