*
*  Fatmen Nickname: sh_qqps_r94_2l_b3
*  Generic Name : /castor/cern.ch/delphi/tape/C001-82
*  Description    : ShortDST QQbar (b life 1.6); Sim. of 94 (liq) ANA94B Fix 3  ; RAL.
*   Comments     :    82 files, total size = 9.461 Gb, in 82 files
*
Y10042.[1-81,91].al ! NUM = 1-82
