*
*  Fatmen Nickname: sh_tauj_s92_2l_e2
*  Generic Name : /castor/cern.ch/delphi/tape/C001-1
*  Description    : ShortDST e+e- --> Z0 --> tau+ tau-  liq  rep. with92_E Fix 2 ;KARL
*   Comments     :    1 files, total size = 0.014 Gb, in 1 files
*
R04869.1.al ! NUM = 1
