*
*  Fatmen Nickname: sh_te11_r92_2l_e2
*  Generic Name : /castor/cern.ch/delphi/tape/C001-3
*  Description    : ShortDST Z0->bbbar -> B_u -> psi K, psi -> l+l- only         ;RUTH
*   Comments     :    3 files, total size = 0.155 Gb, in 3 files
*
Y13724.[193-195].al ! NUM = 1-3
