*
*  Fatmen Nickname: sh_te11_r93_2l_d2
*  Generic Name : /castor/cern.ch/delphi/tape/C001-4
*  Description    : ShortDST Z0->b bbar -> B_u -> psi K, psi -> l+l- only       ; RUTH
*   Comments     :    4 files, total size = 0.195 Gb, in 4 files
*
Y12339.[39-42].al ! NUM = 1-4
