*
*  Fatmen Nickname: sh_tauj_s93_2g_d2
*  Generic Name : /castor/cern.ch/delphi/tape/C001-3
*  Description    : ShortDST e+e- --> Z0 --> tau+ tau-  gas  rep.  ANA93D Fix 2; KARL
*   Comments     :    3 files, total size = 0.042 Gb, in 3 files
*
R04868.[2,4,6].al ! NUM = 1-3
