*
*  Fatmen Nickname: short96_f1
*  Generic Name : /castor/cern.ch/delphi/tape/C001-10
*  Description    : Short DSTs,"OR" of the physics teams; 96 P1 data 6th proc. Fix 1
*   Comments     :    10 files, total size = 0.901 Gb, in 10 files
*
Y13719.[167-176].al ! NUM = 1-10
