*
*  Fatmen Nickname: short93_d2
*  Generic Name : /castor/cern.ch/delphi/tape/C001-181
*  Description    : Short DSTs,"OR" of the physics teams; 93 data 4th pr.(ANA_D) Fix 2
*   Comments     :    181 files, total size = 17.233 Gb, in 181 files
*
Y12340.[1-181].al ! NUM = 1-181
