*
*  Fatmen Nickname: stic99_e202_c1
*  Generic Name : /castor/cern.ch/delphi/tape/C001-10
*  Description    : XShort DSTs, STIC single arm events     ; 99 data, 3th proc. Fix 1
*   Comments     :    10 files, total size = 2.499 Gb, in 10 files
*
Y01412.[1-10].al ! NUM = 1-10
