*
*  Fatmen Nickname: stic99_e202_d1
*  Generic Name : /castor/cern.ch/delphi/tape/C001-10
*  Description    : XShort DSTs, STIC single arm events     ; 99 data, 4th proc. Fix 1
*   Comments     :    10 files, total size = 2.463 Gb, in 10 files
*
R02332.[1-10].al ! NUM = 1-10
