*
*  Fatmen Nickname: stic98_e1
*  Generic Name : /castor/cern.ch/delphi/tape/C001-91
*  Description    : XShort DSTs, STIC single arm events     ; 98 data, 5th proc. Fix 1
*   Comments     :    91 files, total size = 22.639 Gb, in 91 files
*
R07051.[1-76].al ! NUM = 1-76
R07052.[1-15].al ! NUM = 77-91
