*
*  Fatmen Nickname: xs_bafo_e091_r97_1l_a1
*  Generic Name : /castor/cern.ch/delphi/tape/C001-3
*  Description    : XShortDST Bhabha (forward)           ; Sim. 97 ANA97A Fix 1 ; RUTH
*   Comments     :    3 files, total size = 0.176 Gb, in 3 files
*
Y16359.[98-100].al ! NUM = 1-3
