*
*  Fatmen Nickname: xs_bhfo_e207_s99_1l_a1
*  Generic Name : /castor/cern.ch/delphi/tape/C001-109
*  Description    : XShortDST e+e- -> e+e- + gammas     theta-e > 9 deg.         SNAK; 
*   Comments     :    109 files, total size = 24.040 Gb, in 109 files
*
Y01474.[7-39].al ! NUM = 1-33
R02385.[1-76].al ! NUM = 34-109
