*
*  Fatmen Nickname: xs_bbbb_e206.7_r99_1l_a1
*  Generic Name : /castor/cern.ch/delphi/tape/C001-5
*  Description    : XShortDST e+ e- --> ZZ -> bbbb PYTHIA6.131 DELPHI Mar 95 tune RAL; 
*   Comments     :    5 files, total size = 0.605 Gb, in 5 files
*
Y02556.[14-18].al ! NUM = 1-5
