*
*  Fatmen Nickname: xs_bbpy_e184_f97_1l_f3
*  Generic Name : /castor/cern.ch/delphi/tape/C001-29
*  Description    : XShortDST Z0Gamma, Z0 --> bbbar     rep.97F                   FARM 
*   Comments     :    29 files, total size = 6.335 Gb, in 29 files
*
Y16358.[17-45].al ! NUM = 1-29
