*
*  Fatmen Nickname: xs_bbpy_e184_sa97_1l_e2
*  Generic Name : /castor/cern.ch/delphi/tape/C001-13
*  Description    : XShortDST Z0Gamma, Z0-->bbbar;      Sim. of 97 ANA97E Fix 2 ; SACL
*   Comments     :    13 files, total size = 1.660 Gb, in 13 files
*
Y16360.[96-108].al ! NUM = 1-13
