*
*  Fatmen Nickname: xs_bafo_e188_b98_1l_d2
*  Generic Name : /castor/cern.ch/delphi/tape/C001-9
*  Description    : XShortDST e+e- Bhabha Forward                                BAST;
*   Comments     :    9 files, total size = 0.273 Gb, in 9 files
*
Y13745.[89-97].al ! NUM = 1-9
