*
*  Fatmen Nickname: xs_bbpy_e184_sa97_1l_a1
*  Generic Name : /castor/cern.ch/delphi/tape/C001-27
*  Description    : XShortDST Z0Gamma, Z0-->bbbar;      Sim. of 97 ANA97A Fix 1 ; SACL
*   Comments     :    27 files, total size = 1.754 Gb, in 27 files
*
Y13703.[242-268].al ! NUM = 1-27
