*
*  Fatmen Nickname: xs_bhfo_e206_s99_1l_a1
*  Generic Name : /castor/cern.ch/delphi/tape/C001-6
*  Description    : XShortDST e+e- -> e+e- + gammas                              SNAK; 
*   Comments     :    6 files, total size = 1.232 Gb, in 6 files
*
Y01474.[1-6].al ! NUM = 1-6
