*
*  Fatmen Nickname: xs_baba_e091_b98_1l_a1
*  Generic Name : /castor/cern.ch/delphi/tape/C001-7
*  Description    : XShortDST e+e- Bhabha Barrel                                 BAST;
*   Comments     :    7 files, total size = 0.084 Gb, in 7 files
*
Y13730.[338-344].al ! NUM = 1-7
