*
*  Fatmen Nickname: xs_bhfo_e184_r97_1l_f3
*  Generic Name : /castor/cern.ch/delphi/tape/C001-1
*  Description    : XShortDST e+e- -> e+ e- + 2 or more gammas                    RAL; 
*   Comments     :    1 files, total size = 0.017 Gb, in 1 files
*
Y16356.193.al ! NUM = 1
