*
*  Fatmen Nickname: xs_bbpy_e184_f97_1l_a1
*  Generic Name : /castor/cern.ch/delphi/tape/C001-72
*  Description    : XShortDST Z0Gamma, Z0-->bbbar;      Sim. of 97 ANA97A Fix 1 ; FARM
*   Comments     :    72 files, total size = 4.586 Gb, in 72 files
*
Y13703.[170-241].al ! NUM = 1-72
