*
*  Fatmen Nickname: xs_baba_e091_r97_1l_a1
*  Generic Name : /castor/cern.ch/delphi/tape/C001-1
*  Description    : XShortDST Bhabha (barrel only)       ; Sim. 97 ANA97A Fix 1 ; RUTH
*   Comments     :    1 files, total size = 0.058 Gb, in 1 files
*
Y16359.97.al ! NUM = 1
