*
*  Fatmen Nickname: xs_bhfo_e204_s99_1l_a1
*  Generic Name : /castor/cern.ch/delphi/tape/C001-6
*  Description    : XShortDST e+ e- --> e+ e- + gammas                           SNAK;
*   Comments     :    6 files, total size = 1.243 Gb, in 6 files
*
Y01780.[14-19].al ! NUM = 1-6
