*
*  Fatmen Nickname: xs_cmpt_e204_r99_1l_a1
*  Generic Name : /castor/cern.ch/delphi/tape/C001-6
*  Description    : XShortDST e+e- --> e + e + gamma                              RAL; 
*   Comments     :    6 files, total size = 0.613 Gb, in 6 files
*
Y01754.[17-20,37-38].al ! NUM = 1-6
