*
*  Fatmen Nickname: xs_cmpt_e205_r99_1l_a1
*  Generic Name : /castor/cern.ch/delphi/tape/C001-8
*  Description    : XShortDST e+e- --> e + e + gamma                              RAL; 
*   Comments     :    8 files, total size = 0.408 Gb, in 8 files
*
Y01754.[77-84].al ! NUM = 1-8
