*
*  Fatmen Nickname: xs_cmpt_e206.7_r00_1l_s1
*  Generic Name : /castor/cern.ch/delphi/tape/C001-8
*  Description    : XShortDST e e --> e + e+ gamma                                RAL; 
*   Comments     :    8 files, total size = 0.394 Gb, in 8 files
*
R04852.[10-17].al ! NUM = 1-8
