*
*  Fatmen Nickname: xs_cscs_e196_sa99_1l_a1
*  Generic Name : /castor/cern.ch/delphi/tape/C001-6
*  Description    : XShortDST e+e- --> H+H- --> cscs          HZHA03             SACL; 
*   Comments     :    6 files, total size = 0.916 Gb, in 6 files
*
Y02088.[67-72].al ! NUM = 1-6
