*
*  Fatmen Nickname: xs_clsp_e189_w98_1l_a1
*  Generic Name : /castor/cern.ch/delphi/tape/C001-50
*  Description    : XShortDST e+e- --> stop+stop, stop --> c+lsp                 WIEN;
*   Comments     :    50 files, total size = 1.549 Gb, in 50 files
*
Y13730.[253-302].al ! NUM = 1-50
