*
*  Fatmen Nickname: xs_eeqq_e196_c99_1l_a1
*  Generic Name : /castor/cern.ch/delphi/tape/C001-1
*  Description    : XShortDST e+e- -> e+e- rho(pi+pi-) KORALW                    CRAC;     
*   Comments     :    1 files, total size = 0.008 Gb, in 1 files
*
Y01722.26.al ! NUM = 1
