*
*  Fatmen Nickname: xs_eeee_e189_r98_1l_a1
*  Generic Name : /castor/cern.ch/delphi/tape/C001-1
*  Description    : XShortDST e+e- --> e e e e                                    RAL;     
*   Comments     :    1 files, total size = 0.038 Gb, in 1 files
*
Y13728.70.al ! NUM = 1
