*
*  Fatmen Nickname: xs_eeee_e205_r99_1l_a1
*  Generic Name : /castor/cern.ch/delphi/tape/C001-1
*  Description    : XShortDST e+ e- --> e e e e                                   RAL; 
*   Comments     :    1 files, total size = 0.088 Gb, in 1 files
*
Y02556.66.al ! NUM = 1
