*
*  Fatmen Nickname: xs_eemm_e206.7_r99_1l_a1
*  Generic Name : /castor/cern.ch/delphi/tape/C001-1
*  Description    : XShortDST e+ e- --> e e mu mu                                 RAL; 
*   Comments     :    1 files, total size = 0.045 Gb, in 1 files
*
Y02556.62.al ! NUM = 1
