*
*  Fatmen Nickname: xs_eeee_e184_r97_1l_e2
*  Generic Name : /castor/cern.ch/delphi/tape/C001-1
*  Description    : XShortDST e+ e- -> e e e e          DELPHI tune               RAL; 
*   Comments     :    1 files, total size = 0.022 Gb, in 1 files
*
Y16361.49.al ! NUM = 1
