*
*  Fatmen Nickname: xs_evqq_e202_f99_1l_a1
*  Generic Name : /castor/cern.ch/delphi/tape/C001-2
*  Description    : XShortDST e+ e- --> e- ve-bar q q'-bar +CC                   FARM; 
*   Comments     :    2 files, total size = 0.229 Gb, in 2 files
*
Y01784.[24-25].al ! NUM = 1-2
