*
*  Fatmen Nickname: xs_evqq_e208_m99_1l_a1
*  Generic Name : /castor/cern.ch/delphi/tape/C001-2
*  Description    : XShortDST e+ e- -> W (q qbar) e v  for cos(theta e)>0.9999   MILA; 
*   Comments     :    2 files, total size = 0.230 Gb, in 2 files
*
Y01757.[17-18].al ! NUM = 1-2
