*
*  Fatmen Nickname: xs_eegg_e208_r99_1l_a1
*  Generic Name : /castor/cern.ch/delphi/tape/C001-2
*  Description    : XShortDST e+ e- --> gamma + gamma (+ gamma) QED               RAL; 
*   Comments     :    2 files, total size = 0.065 Gb, in 2 files
*
Y01749.[27-28].al ! NUM = 1-2
