*
*  Fatmen Nickname: xs_eett_e206_r99_1l_a1
*  Generic Name : /castor/cern.ch/delphi/tape/C001-1
*  Description    : XShortDST e+ e- --> e e tau tau                               RAL; 
*   Comments     :    1 files, total size = 0.042 Gb, in 1 files
*
Y01773.8.al ! NUM = 1
