*
*  Fatmen Nickname: xs_eemm_e189_r98_1l_d2
*  Generic Name : /castor/cern.ch/delphi/tape/C001-1
*  Description    : XShortDST e+e- --> e e mu mu                                  RAL;     
*   Comments     :    1 files, total size = 0.019 Gb, in 1 files
*
Y13737.101.al ! NUM = 1
