*
*  Fatmen Nickname: xs_emg2_e196_c99_1l_a1
*  Generic Name : /castor/cern.ch/delphi/tape/C001-3
*  Description    : XShortDST e+e- -> mu+ mu- e+ e-                              CRAC;     
*   Comments     :    3 files, total size = 0.224 Gb, in 3 files
*
Y01784.[26-28].al ! NUM = 1-3
