*
*  Fatmen Nickname: xs_evqq_e184_r97_1l_a1
*  Generic Name : /castor/cern.ch/delphi/tape/C001-12
*  Description    : XShortDST e+e- -> e nu qqbar         ; Sim. 97 ANA97A Fix 1 ; RUTH
*   Comments     :    12 files, total size = 0.549 Gb, in 12 files
*
Y13704.[167-168,189-194,219-221,239].al ! NUM = 1-12
