*
*  Fatmen Nickname: xs_evqq_e200_r99_1l_a1
*  Generic Name : /castor/cern.ch/delphi/tape/C001-13
*  Description    : XShortDST e+ e- --> qqev (chan -11) EXCALIBUR 1.08            RAL; 
*   Comments     :    13 files, total size = 0.611 Gb, in 13 files
*
Y01748.[22-27,35,42-47].al ! NUM = 1-13
