*
*  Fatmen Nickname: xs_eeqq_e184_r97_1l_a1
*  Generic Name : /castor/cern.ch/delphi/tape/C001-1
*  Description    : XShortDST e+e- -> e e qqbar          ; Sim. 97 ANA97A Fix 1 ; RUTH
*   Comments     :    1 files, total size = 0.064 Gb, in 1 files
*
Y13704.186.al ! NUM = 1
