*
*  Fatmen Nickname: xs_evtv_e206.7_m99_1l_a1
*  Generic Name : /castor/cern.ch/delphi/tape/C001-2
*  Description    : XShortDST e+e- -> e v t v                                    MILA; 
*   Comments     :    2 files, total size = 0.025 Gb, in 2 files
*
Y01757.[23,35].al ! NUM = 1-2
