*
*  Fatmen Nickname: xs_evqq_e196_r99_1l_a1
*  Generic Name : /castor/cern.ch/delphi/tape/C001-2
*  Description    : XShortDST e+ e- -> qqbar e nu for cos(theta e)>0.9999         RAL; 
*   Comments     :    2 files, total size = 0.110 Gb, in 2 files
*
Y01746.[1-2].al ! NUM = 1-2
