*
*  Fatmen Nickname: xs_ggm2_e189_r98_1l_d2
*  Generic Name : /castor/cern.ch/delphi/tape/C001-2
*  Description    : XShortDST gamma gamma -> hadrons, TWOGAM2 sample 2 VDM+QPM    RAL;
*   Comments     :    2 files, total size = 0.088 Gb, in 2 files
*
Y13738.[53-54].al ! NUM = 1-2
