*
*  Fatmen Nickname: xs_ggmu_e196_s99_1l_a1
*  Generic Name : /castor/cern.ch/delphi/tape/C001-5
*  Description    : XShortDST gamma gamma -> mu+ mu-                             SNAK; 
*   Comments     :    5 files, total size = 1.096 Gb, in 5 files
*
Y01733.[29-33].al ! NUM = 1-5
