*
*  Fatmen Nickname: xs_gpm1_e189_k98_1l_d2
*  Generic Name : /castor/cern.ch/delphi/tape/C001-17
*  Description    : XShortDST gamma gamma -> hadrons, PHOJET sample 1            KARL;
*   Comments     :    17 files, total size = 3.423 Gb, in 17 files
*
Y01727.[25-41].al ! NUM = 1-17
