*
*  Fatmen Nickname: xs_ggmh_e200_r99_1l_a1
*  Generic Name : /castor/cern.ch/delphi/tape/C001-6
*  Description    : XShortDST gamma gamma -> mixed hadronics,                    RAL.;
*   Comments     :    6 files, total size = 0.084 Gb, in 6 files
*
Y01760.[1-6].al ! NUM = 1-6
