*
*  Fatmen Nickname: xs_gmsb_e192_r99_1l_a1
*  Generic Name : /castor/cern.ch/delphi/tape/C001-76
*  Description    : XShortDST SUSY signal                                         RAL; 
*   Comments     :    76 files, total size = 0.501 Gb, in 76 files
*
Y01751.[215,217-290,292].al ! NUM = 1-76
