*
*  Fatmen Nickname: xs_ggmm_e196_sa99_1l_a1
*  Generic Name : /castor/cern.ch/delphi/tape/C001-29
*  Description    : XShortDST gamma gamma --> mu+mu- (gammma)                    SACL; 
*   Comments     :    29 files, total size = 2.028 Gb, in 29 files
*
Y02075.[1-29].al ! NUM = 1-29
