*
*  Fatmen Nickname: xs_gmsb_e200_f99_1l_a1
*  Generic Name : /castor/cern.ch/delphi/tape/C001-32
*  Description    : XShortDST Stau with displaced neutralino decays              FARM; 
*   Comments     :    32 files, total size = 0.254 Gb, in 32 files
*
Y01711.[61-92].al ! NUM = 1-32
