*
*  Fatmen Nickname: xs_gams_e183_r97_1l_f3
*  Generic Name : /castor/cern.ch/delphi/tape/C001-2
*  Description    : XShortDST Z0/gam, Z0-> nu nubar + 1 gam                       RAL; 
*   Comments     :    2 files, total size = 0.023 Gb, in 2 files
*
Y16358.[8,16].al ! NUM = 1-2
