*
*  Fatmen Nickname: xs_ggvd_e184_sa97_1l_a1
*  Generic Name : /castor/cern.ch/delphi/tape/C001-74
*  Description    : XShortDST gamma gamma --> hadrons (VDM); Sim.97 ANA97A Fix 1  SACL
*   Comments     :    74 files, total size = 4.356 Gb, in 74 files
*
Y13704.[1-36,70-74,37-69].al ! NUM = 1-74
