*
*  Fatmen Nickname: xs_gpym_e204_r99_1l_a1
*  Generic Name : /castor/cern.ch/delphi/tape/C001-5
*  Description    : ShortDST gamma gamma -> hadrons  TWOGAM202D generator        RAL.; 
*   Comments     :    5 files, total size = 0.530 Gb, in 5 files
*
Y01760.[28-32].al ! NUM = 1-5
