*
*  Fatmen Nickname: xs_gams_e188_r98_1l_d2
*  Generic Name : /castor/cern.ch/delphi/tape/C001-1
*  Description    : XShortDST e+e- -> Z0/Gamma, Z0 -> nu nubar + gams             RAL;    
*   Comments     :    1 files, total size = 0.012 Gb, in 1 files
*
Y13741.82.al ! NUM = 1
