*
*  Fatmen Nickname: xs_gmsb_e206_f99_1l_a1
*  Generic Name : /castor/cern.ch/delphi/tape/C001-42
*  Description    : XShortDST Stau with displaced neutralino decays              FARM; 
*   Comments     :    42 files, total size = 0.342 Gb, in 42 files
*
Y01711.[135-176].al ! NUM = 1-42
