*
*  Fatmen Nickname: xs_ggmm_e200_sa99_1l_a1
*  Generic Name : /castor/cern.ch/delphi/tape/C001-22
*  Description    : XShortDST gamma gamma --> mu+mu- (gammma)                    SACL; 
*   Comments     :    22 files, total size = 2.054 Gb, in 22 files
*
Y02078.[14-35].al ! NUM = 1-22
