*
*  Fatmen Nickname: xs_ggmu_e184_r97_1l_e2
*  Generic Name : /castor/cern.ch/delphi/tape/C001-38
*  Description    : XShortDST gamma gamma -> mu+ mu- (gam) Jun 96 BDKRC           RAL; 
*   Comments     :    38 files, total size = 3.244 Gb, in 38 files
*
Y16361.[184-221].al ! NUM = 1-38
