*
*  Fatmen Nickname: xs_ggmu_e130_r97_1l_f3
*  Generic Name : /castor/cern.ch/delphi/tape/C001-1
*  Description    : XShortDST gamma gamma -> mu+ mu- (gam)   Jun 1996 BDKRC       RAL; 
*   Comments     :    1 files, total size = 0.017 Gb, in 1 files
*
Y16358.211.al ! NUM = 1
