*
*  Fatmen Nickname: xs_ggee_e204_s99_1l_a1
*  Generic Name : /castor/cern.ch/delphi/tape/C001-22
*  Description    : XShortDST gamma gamma -> e+ e-                               SNAK; 
*   Comments     :    22 files, total size = 4.688 Gb, in 22 files
*
Y01799.[1-22].al ! NUM = 1-22
