*
*  Fatmen Nickname: xs_ggtt_e136_r97_1l_f3
*  Generic Name : /castor/cern.ch/delphi/tape/C001-1
*  Description    : XShortDSt gamma gamma -> tau+ tau= (gam) Jun 1996 BDKRC       RAL; 
*   Comments     :    1 files, total size = 0.010 Gb, in 1 files
*
Y16358.214.al ! NUM = 1
