*
*  Fatmen Nickname: xs_ggqp_e184_r97_1l_e2
*  Generic Name : /castor/cern.ch/delphi/tape/C001-33
*  Description    : XShortDST gamma gamma -> hadrons (QPM) BDKRC                  RAL; 
*   Comments     :    33 files, total size = 3.098 Gb, in 33 files
*
Y16362.[1-20,59-71].al ! NUM = 1-33
