*
*  Fatmen Nickname: xs_gams_e183_r97_1l_a1
*  Generic Name : /castor/cern.ch/delphi/tape/C001-1
*  Description    : XShortDST Z0/Gamma, Z0 -> nu nubar + 1 gam                    RUTH
*   Comments     :    1 files, total size = 0.011 Gb, in 1 files
*
Y13703.2.al ! NUM = 1
