*
*  Fatmen Nickname: xs_ggmm_e204_s99_1l_a1
*  Generic Name : /castor/cern.ch/delphi/tape/C001-18
*  Description    : XShortDST g+g -> mu mu BDRKC                                 SNAK; 
*   Comments     :    18 files, total size = 3.758 Gb, in 18 files
*
Y01775.[22-39].al ! NUM = 1-18
