*
*  Fatmen Nickname: xs_ha20_e184_sa97_1l_a1
*  Generic Name : /castor/cern.ch/delphi/tape/C001-18
*  Description    : XShortDST e+e- -> hA (both in bbbar)    ;Sim.97 ANA97A Fix 1 ;SACL
*   Comments     :    18 files, total size = 1.246 Gb, in 18 files
*
Y13705.[196-213].al ! NUM = 1-18
