*
*  Fatmen Nickname: xs_hzha_e202_g99_1l_a1
*  Generic Name : /castor/cern.ch/delphi/tape/C001-8
*  Description    : XShortDST e+e- --> h0 + Z0 (h0 -> any; Z0 -> e+e-)           GENO;
*   Comments     :    8 files, total size = 0.903 Gb, in 8 files
*
Y02061.[18-23,37-38].al ! NUM = 1-8
