*
*  Fatmen Nickname: xs_hzmu_e202_sa99_1l_a1
*  Generic Name : /castor/cern.ch/delphi/tape/C001-9
*  Description    : XShortDST e+e- --> hZ (h -> any , Z -> mumu)                 SACL; 
*   Comments     :    9 files, total size = 0.662 Gb, in 9 files
*
Y02078.[3-4].al ! NUM = 1-2
Y00741.[33-39].al ! NUM = 3-9
