*
*  Fatmen Nickname: xs_hzmu_e184_sa97_1l_f3
*  Generic Name : /castor/cern.ch/delphi/tape/C001-2
*  Description    : XshortDST e+e- --> HZ (H -> any, Z -> mumu)                  SACL; 
*   Comments     :    2 files, total size = 0.105 Gb, in 2 files
*
Y16358.[61-62].al ! NUM = 1-2
