*
*  Fatmen Nickname: xs_hznu_e188_sa98_1l_a1
*  Generic Name : /castor/cern.ch/delphi/tape/C001-16
*  Description    : XShortDST  e+e- --> hZ (h -> any , Z -> nunu)                SACL;
*   Comments     :    16 files, total size = 1.269 Gb, in 16 files
*
Y13732.[22-33,80-83].al ! NUM = 1-16
