*
*  Fatmen Nickname: xs_hiwp_e189_g98_1l_d2
*  Generic Name : /castor/cern.ch/delphi/tape/C001-2
*  Description    : XShortDST e+e- --> h0 + Z0 (h0 -> bb~; Z0 -> nu nu) ANA98A   GENO;
*   Comments     :    2 files, total size = 0.201 Gb, in 2 files
*
Y13738.[173,178].al ! NUM = 1-2
