*
*  Fatmen Nickname: xs_ha02_e196_sa99_1l_a1
*  Generic Name : /castor/cern.ch/delphi/tape/C001-7
*  Description    : XShortDST e+e- --> hA --> 4b  tanbeta = 2   HZHA  m(A)       SACL; 
*   Comments     :    7 files, total size = 1.094 Gb, in 7 files
*
Y02075.[35-41].al ! NUM = 1-7
