*
*  Fatmen Nickname: xs_hzha_e192_sa99_1l_a1
*  Generic Name : /castor/cern.ch/delphi/tape/C001-5
*  Description    : XShortDST e+e- --> hZ                                        SACL; 
*   Comments     :    5 files, total size = 0.376 Gb, in 5 files
*
Y02063.[9-13].al ! NUM = 1-5
