*
*  Fatmen Nickname: xs_hzfu_e205_sa99_1l_a1
*  Generic Name : /castor/cern.ch/delphi/tape/C001-9
*  Description    : XShortDST e+e- --> hZ (h -> any , Z -> nunu)                  SACL; 
*   Comments     :    9 files, total size = 0.850 Gb, in 9 files
*
Y02088.[8-14,32-33].al ! NUM = 1-9
