*
*  Fatmen Nickname: xs_hgqq_e200_k99_1l_a1
*  Generic Name : /castor/cern.ch/delphi/tape/C001-11
*  Description    : XShortDST e+e- --> hZ (h -> glu, Z --> qqbar)     HZHA03     KARL; 
*   Comments     :    11 files, total size = 2.018 Gb, in 11 files
*
Y00720.[23-33].al ! NUM = 1-11
