*
*  Fatmen Nickname: xs_hzmu_e207_sa99_1l_a1
*  Generic Name : /castor/cern.ch/delphi/tape/C001-7
*  Description    : XShortDST e+e- --> hZ (h -> any , Z -> mumu)                 SACL; 
*   Comments     :    7 files, total size = 0.717 Gb, in 7 files
*
Y02291.[53-59].al ! NUM = 1-7
