*
*  Fatmen Nickname: xs_hzha_e184_sa97_1l_f3
*  Generic Name : /castor/cern.ch/delphi/tape/C001-33
*  Description    : XshortDST e+e- --> hA --> 4b                                 SACL; 
*   Comments     :    33 files, total size = 4.769 Gb, in 33 files
*
Y16358.[68-100].al ! NUM = 1-33
