*
*  Fatmen Nickname: xs_hiqq_e202_k99_1l_a1
*  Generic Name : /castor/cern.ch/delphi/tape/C001-3
*  Description    : XShortDST e+e- --> hZ (h -> invisible, Z --> qq)  HZHA03     KARL; 
*   Comments     :    3 files, total size = 0.259 Gb, in 3 files
*
Y00726.[4-6].al ! NUM = 1-3
