*
*  Fatmen Nickname: xs_ha50_e206.7_sa00_1l_s1
*  Generic Name : /castor/cern.ch/delphi/tape/C001-3
*  Description    : XShortDST e+e- --> hA --> 4b  tanbeta = 50  HZHA03  m(A)     SACL; 
*   Comments     :    3 files, total size = 0.499 Gb, in 3 files
*
Y15976.[27,66-67].al ! NUM = 1-3
