*
*  Fatmen Nickname: xs_hzmu_e208_sa99_1l_a1
*  Generic Name : /castor/cern.ch/delphi/tape/C001-6
*  Description    : XShortDST e+e- --> hZ (h -> any , Z -> mumu)                 SACL; 
*   Comments     :    6 files, total size = 0.558 Gb, in 6 files
*
Y02088.[15-20].al ! NUM = 1-6
