*
*  Fatmen Nickname: xs_hiqq_e188_st98_1l_a1
*  Generic Name : /castor/cern.ch/delphi/tape/C001-10
*  Description    : XShortDST ee -> hZ (h -> invis; Z -> qq)      ANA98A         STOC;
*   Comments     :    10 files, total size = 0.868 Gb, in 10 files
*
Y13732.[169-175,190-192].al ! NUM = 1-10
