*
*  Fatmen Nickname: xs_hphm_e206.7_sa00_1l_s1
*  Generic Name : /castor/cern.ch/delphi/tape/C001-21
*  Description    : XShortDST e+e- --> H+H-                     HZHA03  m(A)     SACL; 
*   Comments     :    21 files, total size = 1.819 Gb, in 21 files
*
Y15976.[35-49].al ! NUM = 1-15
Y16370.[26-31].al ! NUM = 16-21
