*
*  Fatmen Nickname: xs_hzfu_e206_f99_1l_a1
*  Generic Name : /castor/cern.ch/delphi/tape/C001-5
*  Description    : XShortDST e+e- --> hZ (h -> any , Z -> nunu)                 FARM; 
*   Comments     :    5 files, total size = 0.490 Gb, in 5 files
*
R04511.[46-50].al ! NUM = 1-5
