*
*  Fatmen Nickname: xs_ha20_e206.7_sa00_1l_s1
*  Generic Name : /castor/cern.ch/delphi/tape/C001-9
*  Description    : XShortDST e+e- --> hA --> 4b  tanbeta = 20  HZHA03  m(A)     SACL; 
*   Comments     :    9 files, total size = 1.576 Gb, in 9 files
*
Y15976.[13-19,64-65].al ! NUM = 1-9
