*
*  Fatmen Nickname: xs_hphm_e189_sa98_1l_a1
*  Generic Name : /castor/cern.ch/delphi/tape/C001-37
*  Description    : XShortDST  e+e- --> H+H- --> cscs, cstn, tntn                SACL;
*   Comments     :    37 files, total size = 3.057 Gb, in 37 files
*
Y13732.[88-112].al ! NUM = 1-25
Y13730.[241-252].al ! NUM = 26-37
