*
*  Fatmen Nickname: xs_hzmu_e188_sa98_1l_d2
*  Generic Name : /castor/cern.ch/delphi/tape/C001-26
*  Description    : XShortDST  e+e- --> hZ (h -> any , Z -> mumu)                SACL;
*   Comments     :    26 files, total size = 2.205 Gb, in 26 files
*
Y13738.[230-248].al ! NUM = 1-19
Y15976.[121-127].al ! NUM = 20-26
