*
*  Fatmen Nickname: xs_hzqq_e202_sa99_1l_a1
*  Generic Name : /castor/cern.ch/delphi/tape/C001-9
*  Description    : XShortDST e+e- --> hZ (h -> any but tau, Z -> qq)            SACL; 
*   Comments     :    9 files, total size = 1.237 Gb, in 9 files
*
Y02078.[1-2].al ! NUM = 1-2
Y00741.[5-11].al ! NUM = 3-9
