*
*  Fatmen Nickname: xs_hzqq_e205_f99_1l_a1
*  Generic Name : /castor/cern.ch/delphi/tape/C001-10
*  Description    : XShortDST e+e- --> hZ (h -> any but tau, Z -> qq)            FARM; 
*   Comments     :    10 files, total size = 2.256 Gb, in 10 files
*
R04511.[1-10].al ! NUM = 1-10
