*
*  Fatmen Nickname: xs_ha02_e188_sa98_1l_d2
*  Generic Name : /castor/cern.ch/delphi/tape/C001-27
*  Description    : XShortDST  e+e- --> hA --> 4b tanbeta = 2  HZHA  m(A)        SACL;
*   Comments     :    27 files, total size = 2.772 Gb, in 27 files
*
Y13738.[249-268].al ! NUM = 1-20
Y15976.[96-102].al ! NUM = 21-27
