*
*  Fatmen Nickname: xs_hzha_e206_f99_1l_a1
*  Generic Name : /castor/cern.ch/delphi/tape/C001-8
*  Description    : XShortDST e+e- -->  hA --> 4b   tanbeta = 2, 20    HZHA03    FARM;
*   Comments     :    8 files, total size = 1.439 Gb, in 8 files
*
Y01791.[1-5,7-8,12].al ! NUM = 1-8
