*
*  Fatmen Nickname: xs_hsqq_e200_k99_1l_a1
*  Generic Name : /castor/cern.ch/delphi/tape/C001-11
*  Description    : XShortDST e+e- --> hZ (h -> s sbar, Z --> qqbar)  HZHA03     KARL; 
*   Comments     :    11 files, total size = 1.743 Gb, in 11 files
*
Y00720.[34-44].al ! NUM = 1-11
