*
*  Fatmen Nickname: xs_hznu_e200_sa99_1l_a1
*  Generic Name : /castor/cern.ch/delphi/tape/C001-6
*  Description    : XShortDST e+e- --> hZ (h -> any, Z -> nu nu)                 SACL; 
*   Comments     :    6 files, total size = 0.714 Gb, in 6 files
*
Y02071.[33-38].al ! NUM = 1-6
