*
*  Fatmen Nickname: xs_hznu_e196_sa99_1l_a1
*  Generic Name : /castor/cern.ch/delphi/tape/C001-5
*  Description    : XShortDST e+e- --> hZ (h -> any , Z -> nunu)                 SACL; 
*   Comments     :    5 files, total size = 0.547 Gb, in 5 files
*
Y02075.[54-58].al ! NUM = 1-5
