*
*  Fatmen Nickname: xs_hhpy_e184_sa97_1l_f3
*  Generic Name : /castor/cern.ch/delphi/tape/C001-16
*  Description    : XShortDST e+e- -> H+H-                     ANA97F            SACL; 
*   Comments     :    16 files, total size = 0.608 Gb, in 16 files
*
Y16357.[99-114].al ! NUM = 1-16
