*
*  Fatmen Nickname: xs_hsee_e200_k99_1l_a1
*  Generic Name : /castor/cern.ch/delphi/tape/C001-11
*  Description    : XShortDST e+e- --> hZ (h -> s sbar, Z --> e+e-)   HZHA03     KARL; 
*   Comments     :    11 files, total size = 0.973 Gb, in 11 files
*
Y00720.[56-66].al ! NUM = 1-11
