*
*  Fatmen Nickname: xs_hiqq_e206_k99_1l_a1
*  Generic Name : /castor/cern.ch/delphi/tape/C001-9
*  Description    : XShortDST e+e- --> hZ (h -> invisible, Z --> qq)  HZHA03     KARL; 
*   Comments     :    9 files, total size = 0.781 Gb, in 9 files
*
Y00726.[16-24].al ! NUM = 1-9
