*
*  Fatmen Nickname: xs_ha02_e206.7_sa99_1l_a1
*  Generic Name : /castor/cern.ch/delphi/tape/C001-2
*  Description    : XShortDST e+e- --> hA --> 4b  tanbeta = 2   HZHA03  m(A)     SACL; 
*   Comments     :    2 files, total size = 0.335 Gb, in 2 files
*
Y15976.[56-57].al ! NUM = 1-2
