*
*  Fatmen Nickname: xs_ha6b_e183_b97_1l_f3
*  Generic Name : /castor/cern.ch/delphi/tape/C001-13
*  Description    : XShortDST e+ e- --> h A A, A --> b bbar                      BAST; 
*   Comments     :    13 files, total size = 1.043 Gb, in 13 files
*
Y16358.[132-144].al ! NUM = 1-13
