*
*  Fatmen Nickname: xs_hhpy_e184_sa97_1l_a1
*  Generic Name : /castor/cern.ch/delphi/tape/C001-15
*  Description    : XShortDST e+e- -> H+H- -> csbarscbar; Sim.of 97 ANA97A Fix 1; SACL
*   Comments     :    15 files, total size = 0.880 Gb, in 15 files
*
Y13705.[111-125].al ! NUM = 1-15
