*
*  Fatmen Nickname: xs_hztt_e206_f99_1l_a1
*  Generic Name : /castor/cern.ch/delphi/tape/C001-10
*  Description    : XShortDST e+e- --> hZ (h -> any but tau, Z -> tau tau)       FARM; 
*   Comments     :    10 files, total size = 0.560 Gb, in 10 files
*
R04511.[61-70].al ! NUM = 1-10
