*
*  Fatmen Nickname: xs_hzfu_e208_sa99_1l_a1
*  Generic Name : /castor/cern.ch/delphi/tape/C001-7
*  Description    : XShortDST e+e- --> hZ (h -> any , Z -> nunu)                 SACL; 
*   Comments     :    7 files, total size = 0.655 Gb, in 7 files
*
Y00741.[51-57].al ! NUM = 1-7
