*
*  Fatmen Nickname: xs_hzqq_e189_sa98_1l_d2
*  Generic Name : /castor/cern.ch/delphi/tape/C001-15
*  Description    : XShortDST e+e- -->hZ (h -> any but tau, Z -> qq)             SACL;
*   Comments     :    15 files, total size = 1.826 Gb, in 15 files
*
Y13736.[105-119].al ! NUM = 1-15
