*
*  Fatmen Nickname: xs_hgtt_e200_k99_1l_a1
*  Generic Name : /castor/cern.ch/delphi/tape/C001-11
*  Description    : XShortDST e+e- --> hZ (h -> gluglu, Z --> tau+tau-) HZHA03   KARL; 
*   Comments     :    11 files, total size = 1.350 Gb, in 11 files
*
Y02541.[14-24].al ! NUM = 1-11
