*
*  Fatmen Nickname: xs_hzfu_e200_sa99_1l_a1
*  Generic Name : /castor/cern.ch/delphi/tape/C001-8
*  Description    : XShortDST e+e- --> hZ (h -> any , Z -> nunu)                 SACL; 
*   Comments     :    8 files, total size = 0.801 Gb, in 8 files
*
Y02078.[5-7].al ! NUM = 1-3
Y02063.[42-45,58].al ! NUM = 4-8
