*
*  Fatmen Nickname: xs_ha50_e206.7_sa99_1l_a1
*  Generic Name : /castor/cern.ch/delphi/tape/C001-2
*  Description    : XShortDST e+e- --> hA --> 4b              HZHA03  m(A)       SACL; 
*   Comments     :    2 files, total size = 0.331 Gb, in 2 files
*
Y15976.[60-61].al ! NUM = 1-2
