*
*  Fatmen Nickname: xs_hzmu_e206_sa99_1l_a1
*  Generic Name : /castor/cern.ch/delphi/tape/C001-6
*  Description    : XShortDST e+e- --> hZ (h -> any , Z -> mumu)                 SACL; 
*   Comments     :    6 files, total size = 0.561 Gb, in 6 files
*
Y00741.[62-67].al ! NUM = 1-6
