*
*  Fatmen Nickname: xs_hznu_e184_sa97_1l_f3
*  Generic Name : /castor/cern.ch/delphi/tape/C001-2
*  Description    : XshortDST e+e- --> hZ (h -> any, Z -> nunu)                  SACL; 
*   Comments     :    2 files, total size = 0.096 Gb, in 2 files
*
Y16358.[59-60].al ! NUM = 1-2
