*
*  Fatmen Nickname: xs_hinv_e189_sa98_1l_d2
*  Generic Name : /castor/cern.ch/delphi/tape/C001-21
*  Description    : XShortDST  e+e- --> H(invisible) Z(tautau)                   SACL;
*   Comments     :    21 files, total size = 0.649 Gb, in 21 files
*
Y15976.[68-88].al ! NUM = 1-21
