*
*  Fatmen Nickname: xs_kora_e206_r99_1l_a1
*  Generic Name : /castor/cern.ch/delphi/tape/C001-3
*  Description    : XShortDST e+ e- --> Z0 + gammas, Z0 ->tau+tau- KORALZ4.2      RAL; 
*   Comments     :    3 files, total size = 0.221 Gb, in 3 files
*
Y01754.[25-27].al ! NUM = 1-3
