*
*  Fatmen Nickname: xs_kora_e205_r99_1l_a1
*  Generic Name : /castor/cern.ch/delphi/tape/C001-7
*  Description    : XShortDST e+ e- --> Z0 + gammas, Z0 ->tau+tau- KORALZ4.2      RAL; 
*   Comments     :    7 files, total size = 0.739 Gb, in 7 files
*
Y01754.[70-76].al ! NUM = 1-7
