*
*  Fatmen Nickname: xs_kora_e188_r98_1l_d2
*  Generic Name : /castor/cern.ch/delphi/tape/C001-1
*  Description    : XShortDST e+e- -> Z0 + gammas, Z0 -> tau+ tau- KORALZ 4.2     RAL;    
*   Comments     :    1 files, total size = 0.132 Gb, in 1 files
*
Y13741.69.al ! NUM = 1
