*
*  Fatmen Nickname: xs_lvlv_e206.7_r99_1l_a1
*  Generic Name : /castor/cern.ch/delphi/tape/C001-1
*  Description    : XShortDST e+ e- --> lvlv (chan -30)                           RAL; 
*   Comments     :    1 files, total size = 0.096 Gb, in 1 files
*
Y02556.60.al ! NUM = 1
