*
*  Fatmen Nickname: xs_lvlv_e206_r99_1l_a1
*  Generic Name : /castor/cern.ch/delphi/tape/C001-1
*  Description    : XShortDST e+ e- --> lvlv (chan -30)                           RAL; 
*   Comments     :    1 files, total size = 0.107 Gb, in 1 files
*
Y01773.5.al ! NUM = 1
