*
*  Fatmen Nickname: xs_llll_e208_r99_1l_a1
*  Generic Name : /castor/cern.ch/delphi/tape/C001-1
*  Description    : XShortDST e+ e- --> llll (mu, tau)                            RAL; 
*   Comments     :    1 files, total size = 0.030 Gb, in 1 files
*
Y01763.3.al ! NUM = 1
