*
*  Fatmen Nickname: xs_llll_e189_r98_1l_a1
*  Generic Name : /castor/cern.ch/delphi/tape/C001-1
*  Description    : XShortDST e+e- --> llll (mu,tau)                              RAL;    
*   Comments     :    1 files, total size = 0.008 Gb, in 1 files
*
Y13728.65.al ! NUM = 1
