*
*  Fatmen Nickname: xs_mmqq_e183_r97_1l_f3
*  Generic Name : /castor/cern.ch/delphi/tape/C001-2
*  Description    : XShortDST e+e- -> mu mu qqbar                                 RAL; 
*   Comments     :    2 files, total size = 0.191 Gb, in 2 files
*
Y16356.[194-195].al ! NUM = 1-2
