*
*  Fatmen Nickname: xs_mumu_e188_r98_1l_a1
*  Generic Name : /castor/cern.ch/delphi/tape/C001-1
*  Description    : XShortDST e+e- -> Z0 + gammas, Z0 -> mu+ mu- KORALZ 4.2       RAL;    
*   Comments     :    1 files, total size = 0.074 Gb, in 1 files
*
Y13731.65.al ! NUM = 1
