*
*  Fatmen Nickname: xs_mumu_e196_r99_1l_a1
*  Generic Name : /castor/cern.ch/delphi/tape/C001-2
*  Description    : XShortDST e+ e- --> Z0 + gammas, Z0 -> mu+mu- KORALZ4.2       RAL; 
*   Comments     :    2 files, total size = 0.089 Gb, in 2 files
*
Y01747.[19-20].al ! NUM = 1-2
