*
*  Fatmen Nickname: xs_mvqq_e189_r98_1l_a1
*  Generic Name : /castor/cern.ch/delphi/tape/C001-7
*  Description    : XshortDST e+e- --> q qbar mu nu  (chan -12)                   RAL;      
*   Comments     :    7 files, total size = 0.329 Gb, in 7 files
*
Y13728.[143-149].al ! NUM = 1-7
