*
*  Fatmen Nickname: xs_mmqq_e196_r99_1l_a1
*  Generic Name : /castor/cern.ch/delphi/tape/C001-1
*  Description    : XShortDST e+ e- --> mu mu qqbar                               RAL; 
*   Comments     :    1 files, total size = 0.081 Gb, in 1 files
*
Y01746.10.al ! NUM = 1
