*
*  Fatmen Nickname: xs_mvqq_e206.7_r99_1l_a1
*  Generic Name : /castor/cern.ch/delphi/tape/C001-13
*  Description    : XShortDST e+ e- --> qqmv (chan -12) EXCALIBUR 2.01            RAL; 
*   Comments     :    13 files, total size = 0.607 Gb, in 13 files
*
Y02556.[19-25,41-46].al ! NUM = 1-13
