*
*  Fatmen Nickname: xs_mvqq_e184_r97_1l_e2
*  Generic Name : /castor/cern.ch/delphi/tape/C001-1
*  Description    : XShortDST e+ e- -> mu nu q qbar)    DELPHI tune               RAL; 
*   Comments     :    1 files, total size = 0.094 Gb, in 1 files
*
Y16361.39.al ! NUM = 1
