*
*  Fatmen Nickname: xs_necg_e200_f99_1l_a1
*  Generic Name : /castor/cern.ch/delphi/tape/C001-34
*  Description    : XShortDST e+e- -> chi02 chi02 -> (chi01 gamma)(chi01 gamma)  FARM; 
*   Comments     :    34 files, total size = 0.173 Gb, in 34 files
*
Y01734.[139-172].al ! NUM = 1-34
