*
*  Fatmen Nickname: xs_qqee_e189_sa98_1l_d2
*  Generic Name : /castor/cern.ch/delphi/tape/C001-5
*  Description    : XShortDST  e+e- --> qqee by EXALIBUR 1.8   MW=80.35          SACL;
*   Comments     :    5 files, total size = 0.607 Gb, in 5 files
*
Y13735.[114,117-120].al ! NUM = 1-5
