*
*  Fatmen Nickname: xs_qqvv_e208_s99_1l_a1
*  Generic Name : /castor/cern.ch/delphi/tape/C001-4
*  Description    : XShortDST e+e- --> qqbarnunu by EXALIBUR 2.01                SNAK; 
*   Comments     :    4 files, total size = 0.622 Gb, in 4 files
*
Y01794.[19-22].al ! NUM = 1-4
