*
*  Fatmen Nickname: xs_qqtt_e189_sa98_1l_d2
*  Generic Name : /castor/cern.ch/delphi/tape/C001-5
*  Description    : XShortDST  e+e- --> qqtautau by EXALIBUR 1.8   MW=80.35      SACL;
*   Comments     :    5 files, total size = 0.740 Gb, in 5 files
*
Y13735.[116,125-128].al ! NUM = 1-5
