*
*  Fatmen Nickname: xs_qqmm_e205_s99_1l_a1
*  Generic Name : /castor/cern.ch/delphi/tape/C001-8
*  Description    : XShortDST e+e- --> qqbarmumu by EXALIBUR 2.01                SNAK; 
*   Comments     :    8 files, total size = 0.735 Gb, in 8 files
*
Y01795.[8-14,32].al ! NUM = 1-8
