*
*  Fatmen Nickname: xs_qqhr_e184_r97_1l_f3
*  Generic Name : /castor/cern.ch/delphi/tape/C001-8
*  Description    : XShortDST e+e- -> W+ W-                                       RAL; 
*   Comments     :    8 files, total size = 0.836 Gb, in 8 files
*
Y16358.[7,9-15].al ! NUM = 1-8
