*
*  Fatmen Nickname: xs_qqqq_e196_c99_1l_a1
*  Generic Name : /castor/cern.ch/delphi/tape/C001-1
*  Description    : XShortDST e+e- -> q qbar rho(pi+pi-) KORALW                  CRAC;     
*   Comments     :    1 files, total size = 0.080 Gb, in 1 files
*
Y01722.34.al ! NUM = 1
