*
*  Fatmen Nickname: xs_qqtt_e204_sa99_1l_a1
*  Generic Name : /castor/cern.ch/delphi/tape/C001-5
*  Description    : XShortDST e+e- --> tau tau qqbar by EXCALIBUR 1.08 MW=80.35  SACL; 
*   Comments     :    5 files, total size = 0.748 Gb, in 5 files
*
Y02079.[46-50].al ! NUM = 1-5
