*
*  Fatmen Nickname: xs_qqtt_e192_sa99_1l_a1
*  Generic Name : /castor/cern.ch/delphi/tape/C001-5
*  Description    : XShortDST e+e- --> tau tau qqbar by EXCALIBUR 2.01 MW=80.35  SACL; 
*   Comments     :    5 files, total size = 0.736 Gb, in 5 files
*
Y02087.[11-15].al ! NUM = 1-5
