*
*  Fatmen Nickname: xs_qqnn_e202_f99_1l_a1
*  Generic Name : /castor/cern.ch/delphi/tape/C001-3
*  Description    : XShortDST e+e- --> nu nu qqbar by EXCALIBUR 2.01 MW=         FARM; 
*   Comments     :    3 files, total size = 0.674 Gb, in 3 files
*
Y01784.[38-40].al ! NUM = 1-3
