*
*  Fatmen Nickname: xs_qqee_e210_s99_1l_a1
*  Generic Name : /castor/cern.ch/delphi/tape/C001-3
*  Description    : XShortDST e+e- --> qqbaree   by EXALIBUR 2.01                SNAK; 
*   Comments     :    3 files, total size = 0.639 Gb, in 3 files
*
Y01470.[27-29].al ! NUM = 1-3
