*
*  Fatmen Nickname: xs_qqee_e183_sa97_1l_f3
*  Generic Name : /castor/cern.ch/delphi/tape/C001-2
*  Description    : XShortDST e+e- -> qqee    Exalibur 0.91    ANA97F            SACL; 
*   Comments     :    2 files, total size = 0.229 Gb, in 2 files
*
Y16357.[97-98].al ! NUM = 1-2
