*
*  Fatmen Nickname: xs_qqqq_e200_r99_1l_a1
*  Generic Name : /castor/cern.ch/delphi/tape/C001-13
*  Description    : XShortDST e+ e- --> qqqq (chan -3) EXCALIBUR 1.08             RAL; 
*   Comments     :    13 files, total size = 1.674 Gb, in 13 files
*
Y01748.[28-34,48-53].al ! NUM = 1-13
