*
*  Fatmen Nickname: xs_qqee_e205_s99_1l_a1
*  Generic Name : /castor/cern.ch/delphi/tape/C001-8
*  Description    : XShortDST e+e- --> qqbaree   by EXALIBUR 2.01                SNAK; 
*   Comments     :    8 files, total size = 0.631 Gb, in 8 files
*
Y01795.[23-30].al ! NUM = 1-8
