*
*  Fatmen Nickname: xs_qqtt_e210_s99_1l_a1
*  Generic Name : /castor/cern.ch/delphi/tape/C001-4
*  Description    : XShortDST e+e- --> qqbartautau by EXALIBUR 2.01              SNAK; 
*   Comments     :    4 files, total size = 0.781 Gb, in 4 files
*
Y01470.[23-26].al ! NUM = 1-4
