*
*  Fatmen Nickname: xs_qqhr_e189_r98_1l_a1
*  Generic Name : /castor/cern.ch/delphi/tape/C001-32
*  Description    : XShortDST e+e- --> Z0/gam HERWIG 5.8d Delphi Tune             RAL;
*   Comments     :    32 files, total size = 3.569 Gb, in 32 files
*
Y13731.[70-74,77-79,81-104].al ! NUM = 1-32
