*
*  Fatmen Nickname: xs_qqmm_e208_s99_1l_a1
*  Generic Name : /castor/cern.ch/delphi/tape/C001-7
*  Description    : XShortDST e+e- --> qqbarmumu by EXALIBUR 2.01                SNAK; 
*   Comments     :    7 files, total size = 0.737 Gb, in 7 files
*
Y01794.[23-29].al ! NUM = 1-7
