*
*  Fatmen Nickname: xs_qqvv_e205_s99_1l_a1
*  Generic Name : /castor/cern.ch/delphi/tape/C001-8
*  Description    : XShortDST e+e- --> qqbarnunu by EXALIBUR 2.01                SNAK; 
*   Comments     :    8 files, total size = 0.613 Gb, in 8 files
*
Y01795.[1-7,31].al ! NUM = 1-8
