*
*  Fatmen Nickname: xs_scan_e200_k99_1l_a1
*  Generic Name : /castor/cern.ch/delphi/tape/C001-92
*  Description    : XShortDST e+e- --> hA (h -> bb, A -> bb)    HZHA03           KARL; 
*   Comments     :    92 files, total size = 7.275 Gb, in 92 files
*
Y00725.[1-54].al ! NUM = 1-54
Y00726.[57-94].al ! NUM = 55-92
