*
*  Fatmen Nickname: xs_sbod_e200_s99_1l_a1
*  Generic Name : /castor/cern.ch/delphi/tape/C001-10
*  Description    : XShortDST e+e- -> sbottom pair production, with RPV UDD      SNAK; 
*   Comments     :    10 files, total size = 0.268 Gb, in 10 files
*
Y01755.[111-120].al ! NUM = 1-10
