*
*  Fatmen Nickname: xs_susy_e208_r99_1l_a1
*  Generic Name : /castor/cern.ch/delphi/tape/C001-119
*  Description    : XShortDST SUSY signal                                         RAL; 
*   Comments     :    119 files, total size = 1.023 Gb, in 119 files
*
Y01751.[297-415].al ! NUM = 1-119
