*
*  Fatmen Nickname: xs_stop_e184_w97_1l_a1
*  Generic Name : /castor/cern.ch/delphi/tape/C001-40
*  Description    : XShortDST Signal stop->c+neutralino,R-parity conserv.;ANA97A  WIEN
*   Comments     :    40 files, total size = 0.966 Gb, in 40 files
*
Y13705.[350-389].al ! NUM = 1-40
