*
*  Fatmen Nickname: xs_stop_e189_s98_1l_d2
*  Generic Name : /castor/cern.ch/delphi/tape/C001-10
*  Description    : XShortDST e+e- -> sbottom pair production, with RPV UDD      SNAK; 
*   Comments     :    10 files, total size = 0.331 Gb, in 10 files
*
Y13746.[321-330].al ! NUM = 1-10
