*
*  Fatmen Nickname: xs_tvev_e200_m99_1l_a1
*  Generic Name : /castor/cern.ch/delphi/tape/C001-1
*  Description    : XShortDST e+ e- -> e tau e nu for cos(theta e)>0.9999        MILA; 
*   Comments     :    1 files, total size = 0.041 Gb, in 1 files
*
Y01757.3.al ! NUM = 1
