*
*  Fatmen Nickname: xs_ttqq_e189_r98_1l_d2
*  Generic Name : /castor/cern.ch/delphi/tape/C001-1
*  Description    : XShortDST e+e- --> tau tau qqbar                              RAL;     
*   Comments     :    1 files, total size = 0.037 Gb, in 1 files
*
Y13737.97.al ! NUM = 1
