*
*  Fatmen Nickname: xs_tvev_e196_r99_1l_a1
*  Generic Name : /castor/cern.ch/delphi/tape/C001-1
*  Description    : XShortDST e+e- --> e nu tau nu for cos(theta e)>0.9999        RAL; 
*   Comments     :    1 files, total size = 0.014 Gb, in 1 files
*
Y01746.17.al ! NUM = 1
