*
*  Fatmen Nickname: xs_ttqq_e189_c98_1l_d2
*  Generic Name : /castor/cern.ch/delphi/tape/C001-1
*  Description    : XShortDST e+e- -> tau+tau- rho(pi+pi-) KORALW                CRAC;     
*   Comments     :    1 files, total size = 0.022 Gb, in 1 files
*
Y13745.124.al ! NUM = 1
