*
*  Fatmen Nickname: xs_topc_e189_r98_1l_a1
*  Generic Name : /castor/cern.ch/delphi/tape/C001-4
*  Description    : XShortDST e+e- --> t cbar                                     RAL;    
*   Comments     :    4 files, total size = 0.466 Gb, in 4 files
*
Y13731.[69,106-108].al ! NUM = 1-4
