*
*  Fatmen Nickname: xs_tvqq_e184_r97_1l_f3
*  Generic Name : /castor/cern.ch/delphi/tape/C001-13
*  Description    : XShortDST e+e- -> tau nu qqbar                                RAL; 
*   Comments     :    13 files, total size = 0.818 Gb, in 13 files
*
Y16356.[118,138-143,156-158,177-179].al ! NUM = 1-13
