*
*  Fatmen Nickname: xs_vvkz_e189_r98_1l_d2
*  Generic Name : /castor/cern.ch/delphi/tape/C001-2
*  Description    : XShortDST e+ e- -> nu nubar + gammas KORALZ 4.02              RAL;
*   Comments     :    2 files, total size = 0.088 Gb, in 2 files
*
Y13741.[88-89].al ! NUM = 1-2
