*
*  Fatmen Nickname: xs_vvkz_e192_r99_1l_a1
*  Generic Name : /castor/cern.ch/delphi/tape/C001-1
*  Description    : XShortDST e+ e- --> nu nubar + gamma KORALZ 4.02              RAL; 
*   Comments     :    1 files, total size = 0.046 Gb, in 1 files
*
Y01747.14.al ! NUM = 1
