*
*  Fatmen Nickname: xs_vvqq_e189_c98_1l_d2
*  Generic Name : /castor/cern.ch/delphi/tape/C001-1
*  Description    : XShortDST e+e- -> nu nubar rho(pi+pi-) KORALW                CRAC;     
*   Comments     :    1 files, total size = 0.021 Gb, in 1 files
*
Y13745.125.al ! NUM = 1
