*
*  Fatmen Nickname: xs_wenu_e189_sa98_1l_d2
*  Generic Name : /castor/cern.ch/delphi/tape/C001-4
*  Description    : XShortDST  e+e- --> W e nu by PYTHIA5.722+JETSET7.409        SACL;
*   Comments     :    4 files, total size = 0.362 Gb, in 4 files
*
Y13745.[118-121].al ! NUM = 1-4
