*
*  Fatmen Nickname: xs_wwex_e206.7_f99_1l_a1
*  Generic Name : /castor/cern.ch/delphi/tape/C001-63
*  Description    : XShortDST  e+e- --> WW-like by EXCALIBUR                     FARM; 
*   Comments     :    63 files, total size = 13.801 Gb, in 63 files
*
R04502.[1-63].al ! NUM = 1-63
