*
*  Fatmen Nickname: xs_wwex_e183_r97_1l_f3
*  Generic Name : /castor/cern.ch/delphi/tape/C001-20
*  Description    : XShortDST e+ e- -> W+W-                    ANA97F             RAL; 
*   Comments     :    20 files, total size = 2.680 Gb, in 20 files
*
Y16357.[115-134].al ! NUM = 1-20
