*
*  Fatmen Nickname: xs_wwpy_e189_r98_1l_d2
*  Generic Name : /castor/cern.ch/delphi/tape/C001-10
*  Description    : XShortDST e+e- -> W+W- Pythia with Bose-Einstein correlation  RAL;
*   Comments     :    10 files, total size = 1.403 Gb, in 10 files
*
Y13737.[105-114].al ! NUM = 1-10
