*
*  Fatmen Nickname: xs_wepy_e189_r98_1l_d2
*  Generic Name : /castor/cern.ch/delphi/tape/C001-2
*  Description    : XShortDST e+e- --> W e nu                                     RAL;    
*   Comments     :    2 files, total size = 0.169 Gb, in 2 files
*
Y01736.[34-35].al ! NUM = 1-2
