*
*  Fatmen Nickname: xs_wwex_e183_r97_1l_a1
*  Generic Name : /castor/cern.ch/delphi/tape/C001-44
*  Description    : XShortDST e+e- -> W+W- (chan-4) mW=80.35;Sim.97 ANA97A Fix 1 ;RUTH
*   Comments     :    44 files, total size = 4.340 Gb, in 44 files
*
Y13704.[232-233,254-275,279-298].al ! NUM = 1-44
