*
*  Fatmen Nickname: xs_wwex_e189_sa98_1l_d2
*  Generic Name : /castor/cern.ch/delphi/tape/C001-210
*  Description    : XShortDST  e+e- --> WW-like by EXCALIBUR 1.8   MW=80.35      SACL;
*   Comments     :    210 files, total size = 34.381 Gb, in 210 files
*
Y13735.[1-106].al ! NUM = 1-106
Y13736.[1-104].al ! NUM = 107-210
