*
*  Fatmen Nickname: xs_wwex_e210_s99_1l_a1
*  Generic Name : /castor/cern.ch/delphi/tape/C001-15
*  Description    : XShortDST e+e- --> WW-like by EXCALIBUR 2.01 MW=80.35        SNAK; 
*   Comments     :    15 files, total size = 3.456 Gb, in 15 files
*
Y01470.[1-15].al ! NUM = 1-15
