*
*  Fatmen Nickname: xs_wwex_e205_f99_1l_a1
*  Generic Name : /castor/cern.ch/delphi/tape/C001-64
*  Description    : XShortDST  e+e- --> WW-like by EXCALIBUR                     FARM; 
*   Comments     :    64 files, total size = 14.225 Gb, in 64 files
*
Y01446.[1-14].al ! NUM = 1-14
R04501.[1-50].al ! NUM = 15-64
