*
*  Fatmen Nickname: xs_wwex_e207_f99_1l_a1
*  Generic Name : /castor/cern.ch/delphi/tape/C001-15
*  Description    : XShortDST  e+e- --> WW-like by EXCALIBUR                     FARM; 
*   Comments     :    15 files, total size = 3.484 Gb, in 15 files
*
Y02510.[1-15].al ! NUM = 1-15
