*
*  Fatmen Nickname: xs_zgpy_e091_r97_1l_f3
*  Generic Name : /castor/cern.ch/delphi/tape/C001-4
*  Description    : XShortDST Z0Gamma, Z0--qqbar Mars 95 tune  ANA97F             RAL; 
*   Comments     :    4 files, total size = 0.930 Gb, in 4 files
*
Y16359.[20-23].al ! NUM = 1-4
