*
*  Fatmen Nickname: xs_zzpy_e200_r99_1l_a1
*  Generic Name : /castor/cern.ch/delphi/tape/C001-5
*  Description    : XShortDST e+ e- --> ZZ, Mll>2GeV                              RAL; 
*   Comments     :    5 files, total size = 0.612 Gb, in 5 files
*
Y01748.[7-11].al ! NUM = 1-5
