*
*  Fatmen Nickname: xs_zgpy_e091_s99_1l_a1
*  Generic Name : /castor/cern.ch/delphi/tape/C001-108
*  Description    : XShortDST zgqq generator 99A Delana in Anastasie RS Lyon     SNAK; 
*   Comments     :    108 files, total size = 22.217 Gb, in 108 files
*
Y01737.[1-22].al ! NUM = 1-22
Y01739.[5-39].al ! NUM = 23-57
Y01460.[1-39].al ! NUM = 58-96
Y01719.[1-12].al ! NUM = 97-108
