*
*  Fatmen Nickname: xs_zgpy_e205_r99_1l_a1
*  Generic Name : /castor/cern.ch/delphi/tape/C001-171
*  Description    : XShortDST Z0Gamma, Z0 -> qqbar                                RAL; 
*   Comments     :    171 files, total size = 20.197 Gb, in 171 files
*
R04519.[1-160].al ! NUM = 1-160
R04520.[1-11].al ! NUM = 161-171
