*
*  Fatmen Nickname: xs_zepy_e184_r97_1l_a1
*  Generic Name : /castor/cern.ch/delphi/tape/C001-1
*  Description    : XShortDST e+ e- -> Z e+ e-             ; Sim.97 ANA97A Fix 1  RUTH  
*   Comments     :    1 files, total size = 0.052 Gb, in 1 files
*
Y13704.155.al ! NUM = 1
