*
*  Fatmen Nickname: xs_zegr_e206_f99_1l_a1
*  Generic Name : /castor/cern.ch/delphi/tape/C001-14
*  Description    : XShortDST e+e- -> Z e e GRC4F + JETSET 7.409 Delphi tune     FARM; 
*   Comments     :    14 files, total size = 1.043 Gb, in 14 files
*
Y01784.[8-21].al ! NUM = 1-14
