*
*  Fatmen Nickname: xs_zgpy_e136_r97_1l_f3
*  Generic Name : /castor/cern.ch/delphi/tape/C001-4
*  Description    : XShortDST Z0Gamma, Z0--qqbar Mars 95 tune                     RAL; 
*   Comments     :    4 files, total size = 0.424 Gb, in 4 files
*
Y16358.[204-207].al ! NUM = 1-4
