*
*  Fatmen Nickname: xs_zgpy_e196_f99_1l_a1
*  Generic Name : /castor/cern.ch/delphi/tape/C001-24
*  Description    : XShortDST Z0Gamma, Z0 -> qqbar                               FARM; 
*   Comments     :    24 files, total size = 5.163 Gb, in 24 files
*
Y02514.[11-34].al ! NUM = 1-24
