*
*  Fatmen Nickname: xs_zzpy_e196_r99_1l_a1
*  Generic Name : /castor/cern.ch/delphi/tape/C001-4
*  Description    : XShortDST e+ e- --> ZZ, Mll>2GeV DELPYT 1.23 tau polarisation RAL; 
*   Comments     :    4 files, total size = 0.492 Gb, in 4 files
*
Y01746.[4-7].al ! NUM = 1-4
