*
*  Fatmen Nickname: xs_zgpy_e205_s99_1l_a1
*  Generic Name : /castor/cern.ch/delphi/tape/C001-44
*  Description    : XShortDST zgqq99 generator v99_2 Pyth 6.125                  SNAK; 
*   Comments     :    44 files, total size = 10.412 Gb, in 44 files
*
Y01796.[1-35].al ! NUM = 1-35
Y01798.[1-9].al ! NUM = 36-44
