*
*  Fatmen Nickname: xs_zgpy_e206.7_f00_1l_s1
*  Generic Name : /castor/cern.ch/delphi/tape/C001-249
*  Description    : XShortDST zgqq generator 99A Delana    TPC sector 6 dead     FARM; 
*   Comments     :    249 files, total size = 50.780 Gb, in 249 files
*
Y02519.[1-42].al ! NUM = 1-42
Y02520.[1-40].al ! NUM = 43-82
Y02521.[1-42].al ! NUM = 83-124
Y02522.[1-42].al ! NUM = 125-166
Y02523.[1-42].al ! NUM = 167-208
Y02524.[1-41].al ! NUM = 209-249
