*
*  Fatmen Nickname: xs_zzpy_e202_r99_1l_a1
*  Generic Name : /castor/cern.ch/delphi/tape/C001-2
*  Description    : XShortDST e+ e- --> ZZ, Mll>2GeV                              RAL; 
*   Comments     :    2 files, total size = 0.268 Gb, in 2 files
*
Y01753.[9-10].al ! NUM = 1-2
