*
*  Fatmen Nickname: xs_zgpy_e133_r97_1l_a1
*  Generic Name : /castor/cern.ch/delphi/tape/C001-4
*  Description    : XShortDST Z0Gamma, Z0-->qqbar        ; Sim. 97 ANA97A Fix 1 ; RUTH 
*   Comments     :    4 files, total size = 0.391 Gb, in 4 files
*
Y16359.[82-85].al ! NUM = 1-4
