*
*  Fatmen Nickname: xs_zgpy_e200_f99_1l_a1
*  Generic Name : /castor/cern.ch/delphi/tape/C001-121
*  Description    : XShortDST Z0Gamma, Z0 -> qqbar                               FARM; 
*   Comments     :    121 files, total size = 25.711 Gb, in 121 files
*
Y01479.[1-41].al ! NUM = 1-41
Y01480.[1-8].al ! NUM = 42-49
Y01477.[1-39].al ! NUM = 50-88
Y01478.[1-33].al ! NUM = 89-121
