*
*  Fatmen Nickname: xs_zzpy_e133_r97_1l_a1
*  Generic Name : /castor/cern.ch/delphi/tape/C001-1
*  Description    : XShortDST e+ e- --> ZZ, Mll>2 GeV    ; Sim. 97 ANA97A Fix 1 ; RUTH
*   Comments     :    1 files, total size = 0.040 Gb, in 1 files
*
Y16359.94.al ! NUM = 1
