*
*  Fatmen Nickname: xs_zgpy_e206_f99_1l_a1
*  Generic Name : /castor/cern.ch/delphi/tape/C001-122
*  Description    : XShortDST  Z0Gamma, Z0 -> qqbar                              FARM; 
*   Comments     :    122 files, total size = 26.298 Gb, in 122 files
*
Y01453.[13-40].al ! NUM = 1-28
Y01456.[1-39].al ! NUM = 29-67
Y01457.[1-39].al ! NUM = 68-106
Y01458.[1-16].al ! NUM = 107-122
