*
*  Fatmen Nickname: xs_zepy_e189_r98_1l_d2
*  Generic Name : /castor/cern.ch/delphi/tape/C001-10
*  Description    : XShortDST e+e- --> Z e e, m_ll > 12 GeV                       RAL;    
*   Comments     :    10 files, total size = 0.633 Gb, in 10 files
*
Y13737.[141-150].al ! NUM = 1-10
