*
*  Fatmen Nickname: xs_zgpy_e184_sa97_1l_e2
*  Generic Name : /castor/cern.ch/delphi/tape/C001-3
*  Description    : XShortDST Z0Gamma, Z0-->qqbar;      Sim. of 97 ANA97E Fix 2 ; SACL
*   Comments     :    3 files, total size = 0.457 Gb, in 3 files
*
Y16360.[109-111].al ! NUM = 1-3
