*
*  Fatmen Nickname: xs_zegr_e189_m98_1l_d2
*  Generic Name : /castor/cern.ch/delphi/tape/C001-5
*  Description    : XShortDST                                                    MILA;
*   Comments     :    5 files, total size = 0.345 Gb, in 5 files
*
Y13745.[113-115].al ! NUM = 1-3
Y01786.[1-2].al ! NUM = 4-5
