*
*  Fatmen Nickname: xs_zzpy_e183_sa97_1l_f3
*  Generic Name : /castor/cern.ch/delphi/tape/C001-1
*  Description    : XShortDST e+e- -> ZZ, Mll > 2GeV           ANA97F            SACL; 
*   Comments     :    1 files, total size = 0.084 Gb, in 1 files
*
Y16356.21.al ! NUM = 1
