*
*  Fatmen Nickname: xs_zgpy_e136_r97_1l_e2
*  Generic Name : /castor/cern.ch/delphi/tape/C001-4
*  Description    : XShortDST Z0 gamma, Z0--> qqbar                               RAL; 
*   Comments     :    4 files, total size = 0.339 Gb, in 4 files
*
Y16361.[222-225].al ! NUM = 1-4
