*
*  Fatmen Nickname: xs_zgpy_e184_r97_1l_e2
*  Generic Name : /castor/cern.ch/delphi/tape/C001-18
*  Description    : XShortDST Z0Gamma, Z0--> qqbar    Delphi Mar 95 tune          RAL; 
*   Comments     :    18 files, total size = 1.118 Gb, in 18 files
*
Y16360.[1-18].al ! NUM = 1-18
