*
*  Fatmen Nickname: xs_zgpy_e210_s99_1l_a1
*  Generic Name : /castor/cern.ch/delphi/tape/C001-25
*  Description    : XShortDST zgqq99 generator v99_2 Pyth 6.125                  SNAK; 
*   Comments     :    25 files, total size = 5.282 Gb, in 25 files
*
Y01797.[1-25].al ! NUM = 1-25
