*
*  Fatmen Nickname: xs_zgpy_e206_l99_1l_a1
*  Generic Name : /castor/cern.ch/delphi/tape/C001-68
*  Description    : XShortDST zgqq99 generator v99_2 Pyth 6.125                  LIVE; 
*   Comments     :    68 files, total size = 13.481 Gb, in 68 files
*
R04518.[1-68].al ! NUM = 1-68
