*
*  Fatmen Nickname: xs_zgpy_e189_r98_1l_d2
*  Generic Name : /castor/cern.ch/delphi/tape/C001-3
*  Description    : XShortDST Z0 Gamma, Z0 --> qqbar                              RAL;
*   Comments     :    3 files, total size = 0.536 Gb, in 3 files
*
Y13741.[125-127].al ! NUM = 1-3
