*
*  Fatmen Nickname: xsdst99_e192_c1
*  Generic Name : /castor/cern.ch/delphi/tape/C001-11
*  Description    : XShort DSTs, events after DELANA filter; 99 data, 3th proc.  Fix 1
*   Comments     :    11 files, total size = 2.690 Gb, in 11 files
*
Y00805.[1-11].al ! NUM = 1-11
