*
*  Fatmen Nickname: xsdst99_e202_c1
*  Generic Name : /castor/cern.ch/delphi/tape/C001-14
*  Description    : XShort DSTs, events after DELANA filter; 99 data, 3th proc.  Fix 1
*   Comments     :    14 files, total size = 3.404 Gb, in 14 files
*
Y01410.[1-14].al ! NUM = 1-14
