*
*  Fatmen Nickname: xsdst00_u2
*  Generic Name : /castor/cern.ch/delphi/tape/C001-30
*  Description    : XShort DSTs, events after DELANA filter; 2000 data, 5th proc. Fix 2
*   Comments     :    30 files, total size = 7.249 Gb, in 30 files
*
R07911.[1-30].al ! NUM = 1-30
