*
*  Fatmen Nickname: xsdst96_e161_g1
*  Generic Name : /castor/cern.ch/delphi/tape/C001-8
*  Description    : XShort DSTs, most events after DAFNE tag;  96 data,7th proc. Fix 1
*   Comments     :    8 files, total size = 1.653 Gb, in 8 files
*
R07562.[1-8].al ! NUM = 1-8
