*
*  Fatmen Nickname: xsdst99_e200_c1
*  Generic Name : /castor/cern.ch/delphi/tape/C001-29
*  Description    : XShort DSTs, events after DELANA filter; 99 data, 3th proc.  Fix 1
*   Comments     :    29 files, total size = 7.198 Gb, in 29 files
*
Y01416.[1-29].al ! NUM = 1-29
