*
*  Fatmen Nickname: xsdst97_e183_g2
*  Generic Name : /castor/cern.ch/delphi/tape/C001-28
*  Description    : XShort DSTs, most events after DAFNE tag;  97 data,7th proc. Fix 2
*   Comments     :    28 files, total size = 6.900 Gb, in 28 files
*
R07940.[1-28].al ! NUM = 1-28
