*
*  Fatmen Nickname: xshort99z_e2
*  Generic Name : /castor/cern.ch/delphi/tape/C001-31
*  Description    : XShort DSTs,"OR" of the physics teams; 99 Z0 data, 5th proc. Fix 2
*   Comments     :    31 files, total size = 6.822 Gb, in 31 files
*
R07915.[1-31].al ! NUM = 1-31
