*
*  Fatmen Nickname: xshort00z_c1
*  Generic Name : /castor/cern.ch/delphi/tape/C001-21
*  Description    : XShort DSTs,"OR" of physics teams;  2000 Z0 data, 3th proc.  Fix 1
*   Comments     :    21 files, total size = 4.723 Gb, in 21 files
*
R01604.[1-21].al ! NUM = 1-21
