*
*  Fatmen Nickname: xshort00z_e2
*  Generic Name : /castor/cern.ch/delphi/tape/C001-21
*  Description    : XShort DSTs,"OR" of physics teams;  2000 Z0 data, 5th proc.  Fix 2
*   Comments     :    21 files, total size = 4.773 Gb, in 21 files
*
R07572.[1-21].al ! NUM = 1-21
