*
*  Fatmen Nickname: xshort98z_d1
*  Generic Name : /castor/cern.ch/delphi/tape/C001-25
*  Description    : XShort DSTs,"OR" of the physics teams; 98 Z0 data, 4th proc. Fix 1
*   Comments     :    25 files, total size = 5.072 Gb, in 25 files
*
Y00566.[1-25].al ! NUM = 1-25
