*
*  Fatmen Nickname: xshort97z_g2
*  Generic Name : /castor/cern.ch/delphi/tape/C001-13
*  Description    : XShort DSTs,"OR" of the physics teams; 97 Z0 data, 7th proc. Fix 2
*   Comments     :    13 files, total size = 2.690 Gb, in 13 files
*
R07939.[1-13].al ! NUM = 1-13
