*
*  Fatmen Nickname: xshort96z_g2
*  Generic Name : /castor/cern.ch/delphi/tape/C001-8
*  Description    : XShort DSTs,"OR" of the physics teams; 96 Z0 data, 7th proc. Fix 2
*   Comments     :    8 files, total size = 1.648 Gb, in 8 files
*
R07944.[1-8].al ! NUM = 1-8
