*
*  Fatmen Nickname: xshort99z_c1
*  Generic Name : /castor/cern.ch/delphi/tape/C001-31
*  Description    : XShort DSTs,"OR" of the physics teams; 99 Z0 data, 3th proc. Fix 1
*   Comments     :    31 files, total size = 6.827 Gb, in 31 files
*
Y01397.[1-31].al ! NUM = 1-31
