*
*   Nickname     : xs_pyth6156hpphmmr_e192.0_m95_c99_1l_e1
*   Generic Name : //CERN/DELPHI/P02_SIMD/XSDST/PYTH6156HPPHMMR/E192.0/CERN/SUMT/C001-1
*   Description  :  Extended Short DST simulation 99_e1 done at ecms=192.0 , CERN
*---
*   Comments     : in total 999 events in 1 files time stamp: Mon Oct 15 11:28:39 2001
*---
*
*
*
*
*
FILE = /castor/cern.ch/delphi/MCprod/cern/pyth6156/v99e/192.0/pyth6156_hpphmm_r_192.0_95_66695.xsdst ! RUN = 66695 ! NEVT = 999
