# index of html fragments. Provides additional information for sorting files. DO NOT REMOVE.
#File Name                                       year processing   category      files          events     energy       mass      mass2       labo
dsto_susygen212chaneu_e196_c99_1l_a             1999       v99a       SUSY         29           14500        196          -          -       cern
dsto_susygen212chaneu_e200_c99_1l_a             1999       v99a       SUSY         31           15500        200          -          -       cern
dsto_susygen212chaneu_e207_c00_1l_s             2000       v00s       SUSY         33           16500        207          -          -       cern
dsto_susygen212chaneu_e207_c99_1l_a             2000       v99a       SUSY         33           16499        207          -          -       cern
dsto_susygen212chasnu_e207_c99_1l_a             2000       v99a       SUSY          8            7999        207          -          -       cern
xs_charsusy_e207_r00_1l_s1                      2000      v00s1       SUSY        579          289496        207          -          -       ruth
xs_charsusy_e207_r99_1l_a1                      2000      v99a1       SUSY        580          289991        207          -          -       ruth
xs_susygen200_e189_c99_1l_a1                    1998      v99a1       SUSY         24           23482        189          -          -       cern
xs_susygen200_e192_c99_1l_a1                    1999      v99a1       SUSY         26           25994        192          -          -       cern
xs_susygen200_e196_c99_1l_a1                    1999      v99a1       SUSY         28           27988        196          -          -       cern
xs_susygen200_e200_c99_1l_a1                    1999      v99a1       SUSY         30           29989        200          -          -       cern
xs_susygen200_e202_c99_1l_a1                    1999      v99a1       SUSY         32           31987        202          -          -       cern
xs_susygen200_e205_c99_1l_a1                    2000      v99a1       SUSY         34           33994        205          -          -       cern
xs_susygen200_e206.7_c00_1l_s1                  2000      v00s1       SUSY         33           32988      206.7          -          -       cern
xs_susygen200_e206.7_c99_1l_a1                  2000      v99a1       SUSY         34           33994      206.7          -          -       cern
xs_susygen200_e208_c00_1l_s1                    2000      v00s1       SUSY         33           32992        208          -          -       cern
xs_susygen200_e208_c99_1l_a1                    2000      v99a1       SUSY         34           33990        208          -          -       cern
xs_susygen212chaneu_e196_c99_1l_a1              1999      v99a1       SUSY         29           14500        196          -          -       cern
xs_susygen212chaneu_e200_c99_1l_a1              1999      v99a1       SUSY         31           15500        200          -          -       cern
xs_susygen212chaneu_e207_c00_1l_s1              2000      v00s1       SUSY         33           16500        207          -          -       cern
xs_susygen212chaneu_e207_c99_1l_a1              2000      v99a1       SUSY         33           16499        207          -          -       cern
xs_susygen212chasnu_e207_c99_1l_a1              2000      v99a1       SUSY          8            7999        207          -          -       cern
