*
*   Nickname     : xs_hzha03pyth6156ha4b_e199.5_m40_m50_r99_1l_e1
*   Generic Name : //CERN/DELPHI/P02_SIMD/XSDST/HZHA03PYTH6156HA4B/E199.5/RAL/SUMT/C001-10
*   Description  : XShortDst HZHA03  e+e- --> hA -> 4b Extended Short DST simulation 99_e1 done at ecms=199.5 , RAL
*---
*   Comments     : in total 4994 events in 10 files time stamp: Thu Nov  1 10:52:57 2001
*---
*
*
*
*
*
FILE = /castor/cern.ch/delphi/MCprod/ral/hzha03pyth6156/v99e/199.5/hzha03pyth6156_ha4b_199.5_40_50_70221.xsdst ! RUN = 70221 ! NEVT = 500
FILE = /castor/cern.ch/delphi/MCprod/ral/hzha03pyth6156/v99e/199.5/hzha03pyth6156_ha4b_199.5_40_50_70222.xsdst ! RUN = 70222 ! NEVT = 499
FILE = /castor/cern.ch/delphi/MCprod/ral/hzha03pyth6156/v99e/199.5/hzha03pyth6156_ha4b_199.5_40_50_70223.xsdst ! RUN = 70223 ! NEVT = 499
FILE = /castor/cern.ch/delphi/MCprod/ral/hzha03pyth6156/v99e/199.5/hzha03pyth6156_ha4b_199.5_40_50_70224.xsdst ! RUN = 70224 ! NEVT = 499
FILE = /castor/cern.ch/delphi/MCprod/ral/hzha03pyth6156/v99e/199.5/hzha03pyth6156_ha4b_199.5_40_50_70225.xsdst ! RUN = 70225 ! NEVT = 500
FILE = /castor/cern.ch/delphi/MCprod/ral/hzha03pyth6156/v99e/199.5/hzha03pyth6156_ha4b_199.5_40_50_70226.xsdst ! RUN = 70226 ! NEVT = 500
FILE = /castor/cern.ch/delphi/MCprod/ral/hzha03pyth6156/v99e/199.5/hzha03pyth6156_ha4b_199.5_40_50_70227.xsdst ! RUN = 70227 ! NEVT = 499
FILE = /castor/cern.ch/delphi/MCprod/ral/hzha03pyth6156/v99e/199.5/hzha03pyth6156_ha4b_199.5_40_50_70228.xsdst ! RUN = 70228 ! NEVT = 500
FILE = /castor/cern.ch/delphi/MCprod/ral/hzha03pyth6156/v99e/199.5/hzha03pyth6156_ha4b_199.5_40_50_70229.xsdst ! RUN = 70229 ! NEVT = 498
FILE = /castor/cern.ch/delphi/MCprod/ral/hzha03pyth6156/v99e/199.5/hzha03pyth6156_ha4b_199.5_40_50_70230.xsdst ! RUN = 70230 ! NEVT = 500
