*
*   Nickname     : xs_hzha03pyth6156hwqqlnqq_e206.5_m100.0_ra0_1l_u1
*   Generic Name : //CERN/DELPHI/P02_SIMD/XSDST/HZHA03PYTH6156HWQQLNQQ/E206.5/RAL/SUMT/C001-12
*   Description  :  Extended Short DST simulation a0u1 done at ecms=206.5 , RAL
*---
*   Comments     : in total 5999 events in 12 files time stamp: Sat Aug  3 22:13:14 2002
*---
*
*
*
*
*
FILE = /castor/cern.ch/delphi/MCprod/ral/hzha03pyth6156/va0u/206.5/hzha03pyth6156_hwqqlnqq_206.5_100.0_108002.xsdst ! RUN = 108002 ! NEVT = 500
FILE = /castor/cern.ch/delphi/MCprod/ral/hzha03pyth6156/va0u/206.5/hzha03pyth6156_hwqqlnqq_206.5_100.0_108003.xsdst ! RUN = 108003 ! NEVT = 500
FILE = /castor/cern.ch/delphi/MCprod/ral/hzha03pyth6156/va0u/206.5/hzha03pyth6156_hwqqlnqq_206.5_100.0_108004.xsdst ! RUN = 108004 ! NEVT = 500
FILE = /castor/cern.ch/delphi/MCprod/ral/hzha03pyth6156/va0u/206.5/hzha03pyth6156_hwqqlnqq_206.5_100.0_108005.xsdst ! RUN = 108005 ! NEVT = 500
FILE = /castor/cern.ch/delphi/MCprod/ral/hzha03pyth6156/va0u/206.5/hzha03pyth6156_hwqqlnqq_206.5_100.0_108006.xsdst ! RUN = 108006 ! NEVT = 500
FILE = /castor/cern.ch/delphi/MCprod/ral/hzha03pyth6156/va0u/206.5/hzha03pyth6156_hwqqlnqq_206.5_100.0_108007.xsdst ! RUN = 108007 ! NEVT = 500
FILE = /castor/cern.ch/delphi/MCprod/ral/hzha03pyth6156/va0u/206.5/hzha03pyth6156_hwqqlnqq_206.5_100.0_108009.xsdst ! RUN = 108009 ! NEVT = 500
FILE = /castor/cern.ch/delphi/MCprod/ral/hzha03pyth6156/va0u/206.5/hzha03pyth6156_hwqqlnqq_206.5_100.0_108011.xsdst ! RUN = 108011 ! NEVT = 500
FILE = /castor/cern.ch/delphi/MCprod/ral/hzha03pyth6156/va0u/206.5/hzha03pyth6156_hwqqlnqq_206.5_100.0_108012.xsdst ! RUN = 108012 ! NEVT = 500
FILE = /castor/cern.ch/delphi/MCprod/ral/hzha03pyth6156/va0u/206.5/hzha03pyth6156_hwqqlnqq_206.5_100.0_108013.xsdst ! RUN = 108013 ! NEVT = 499
FILE = /castor/cern.ch/delphi/MCprod/ral/hzha03pyth6156/va0u/206.5/hzha03pyth6156_hwqqlnqq_206.5_100.0_108014.xsdst ! RUN = 108014 ! NEVT = 500
FILE = /castor/cern.ch/delphi/MCprod/ral/hzha03pyth6156/va0u/206.5/hzha03pyth6156_hwqqlnqq_206.5_100.0_108015.xsdst ! RUN = 108015 ! NEVT = 500
