*
*   Nickname     : xs_hzha03pyth6156hwqqlnqq_e206.5_m102.5_ra0_1l_u1
*   Generic Name : //CERN/DELPHI/P02_SIMD/XSDST/HZHA03PYTH6156HWQQLNQQ/E206.5/RAL/SUMT/C001-15
*   Description  :  Extended Short DST simulation a0u1 done at ecms=206.5 , RAL
*---
*   Comments     : in total 7498 events in 15 files time stamp: Sat Aug  3 18:24:03 2002
*---
*
*
*
*
*
FILE = /castor/cern.ch/delphi/MCprod/ral/hzha03pyth6156/va0u/206.5/hzha03pyth6156_hwqqlnqq_206.5_102.5_108251.xsdst ! RUN = 108251 ! NEVT = 500
FILE = /castor/cern.ch/delphi/MCprod/ral/hzha03pyth6156/va0u/206.5/hzha03pyth6156_hwqqlnqq_206.5_102.5_108252.xsdst ! RUN = 108252 ! NEVT = 500
FILE = /castor/cern.ch/delphi/MCprod/ral/hzha03pyth6156/va0u/206.5/hzha03pyth6156_hwqqlnqq_206.5_102.5_108253.xsdst ! RUN = 108253 ! NEVT = 500
FILE = /castor/cern.ch/delphi/MCprod/ral/hzha03pyth6156/va0u/206.5/hzha03pyth6156_hwqqlnqq_206.5_102.5_108254.xsdst ! RUN = 108254 ! NEVT = 500
FILE = /castor/cern.ch/delphi/MCprod/ral/hzha03pyth6156/va0u/206.5/hzha03pyth6156_hwqqlnqq_206.5_102.5_108255.xsdst ! RUN = 108255 ! NEVT = 500
FILE = /castor/cern.ch/delphi/MCprod/ral/hzha03pyth6156/va0u/206.5/hzha03pyth6156_hwqqlnqq_206.5_102.5_108256.xsdst ! RUN = 108256 ! NEVT = 500
FILE = /castor/cern.ch/delphi/MCprod/ral/hzha03pyth6156/va0u/206.5/hzha03pyth6156_hwqqlnqq_206.5_102.5_108257.xsdst ! RUN = 108257 ! NEVT = 500
FILE = /castor/cern.ch/delphi/MCprod/ral/hzha03pyth6156/va0u/206.5/hzha03pyth6156_hwqqlnqq_206.5_102.5_108258.xsdst ! RUN = 108258 ! NEVT = 499
FILE = /castor/cern.ch/delphi/MCprod/ral/hzha03pyth6156/va0u/206.5/hzha03pyth6156_hwqqlnqq_206.5_102.5_108259.xsdst ! RUN = 108259 ! NEVT = 500
FILE = /castor/cern.ch/delphi/MCprod/ral/hzha03pyth6156/va0u/206.5/hzha03pyth6156_hwqqlnqq_206.5_102.5_108260.xsdst ! RUN = 108260 ! NEVT = 500
FILE = /castor/cern.ch/delphi/MCprod/ral/hzha03pyth6156/va0u/206.5/hzha03pyth6156_hwqqlnqq_206.5_102.5_108261.xsdst ! RUN = 108261 ! NEVT = 500
FILE = /castor/cern.ch/delphi/MCprod/ral/hzha03pyth6156/va0u/206.5/hzha03pyth6156_hwqqlnqq_206.5_102.5_108262.xsdst ! RUN = 108262 ! NEVT = 499
FILE = /castor/cern.ch/delphi/MCprod/ral/hzha03pyth6156/va0u/206.5/hzha03pyth6156_hwqqlnqq_206.5_102.5_108263.xsdst ! RUN = 108263 ! NEVT = 500
FILE = /castor/cern.ch/delphi/MCprod/ral/hzha03pyth6156/va0u/206.5/hzha03pyth6156_hwqqlnqq_206.5_102.5_108264.xsdst ! RUN = 108264 ! NEVT = 500
FILE = /castor/cern.ch/delphi/MCprod/ral/hzha03pyth6156/va0u/206.5/hzha03pyth6156_hwqqlnqq_206.5_102.5_108265.xsdst ! RUN = 108265 ! NEVT = 500
