*
*   Nickname     : xs_wwex201_e206.7_c99_1l_a1
*   Generic Name : //CERN/DELPHI/P02_SIMD/XSDST/WWEX201/E206.7/CERN, FEB/MAR. 2001 US, EXTENDED 27/6/2001/SUMT
*   Description  : XSHORT WW like Excalibur events, version 201. Reprocessed from raw simulation Extended Short DST simulation 99a1 done at ecms=206.7 , CERN, Feb/Mar. 2001 US, extended 27/6/2001
*---
*   Comments     :  time stamp: Wed Jun 27 09:23:41 2001
*---
*
*  Comments     : runs 52001 to 52100 are the same events as in  xs_wwex201_e206.7_c00_1l_s1
*
*
*   found 345336 events in 346 files 
*
*
FILE = /castor/cern.ch/delphi/MCprod/cern/wwex201/v99_4/206.7/run52001.xsdst ! RUN =   52001 ! NEVT =     999
FILE = /castor/cern.ch/delphi/MCprod/cern/wwex201/v99_4/206.7/run52002.xsdst ! RUN =   52002 ! NEVT =    1000
FILE = /castor/cern.ch/delphi/MCprod/cern/wwex201/v99_4/206.7/run52003.xsdst ! RUN =   52003 ! NEVT =    1000
FILE = /castor/cern.ch/delphi/MCprod/cern/wwex201/v99_4/206.7/run52004.xsdst ! RUN =   52004 ! NEVT =    1000
FILE = /castor/cern.ch/delphi/MCprod/cern/wwex201/v99_4/206.7/run52005.xsdst ! RUN =   52005 ! NEVT =    1000
FILE = /castor/cern.ch/delphi/MCprod/cern/wwex201/v99_4/206.7/run52006.xsdst ! RUN =   52006 ! NEVT =    1000
FILE = /castor/cern.ch/delphi/MCprod/cern/wwex201/v99_4/206.7/run52007.xsdst ! RUN =   52007 ! NEVT =    1000
FILE = /castor/cern.ch/delphi/MCprod/cern/wwex201/v99_4/206.7/run52008.xsdst ! RUN =   52008 ! NEVT =    1000
FILE = /castor/cern.ch/delphi/MCprod/cern/wwex201/v99_4/206.7/run52009.xsdst ! RUN =   52009 ! NEVT =    1000
FILE = /castor/cern.ch/delphi/MCprod/cern/wwex201/v99_4/206.7/run52010.xsdst ! RUN =   52010 ! NEVT =    1000
FILE = /castor/cern.ch/delphi/MCprod/cern/wwex201/v99_4/206.7/run52011.xsdst ! RUN =   52011 ! NEVT =    1000
FILE = /castor/cern.ch/delphi/MCprod/cern/wwex201/v99_4/206.7/run52012.xsdst ! RUN =   52012 ! NEVT =     999
FILE = /castor/cern.ch/delphi/MCprod/cern/wwex201/v99_4/206.7/run52013.xsdst ! RUN =   52013 ! NEVT =     999
FILE = /castor/cern.ch/delphi/MCprod/cern/wwex201/v99_4/206.7/run52014.xsdst ! RUN =   52014 ! NEVT =    1000
FILE = /castor/cern.ch/delphi/MCprod/cern/wwex201/v99_4/206.7/run52015.xsdst ! RUN =   52015 ! NEVT =     999
FILE = /castor/cern.ch/delphi/MCprod/cern/wwex201/v99_4/206.7/run52016.xsdst ! RUN =   52016 ! NEVT =    1000
FILE = /castor/cern.ch/delphi/MCprod/cern/wwex201/v99_4/206.7/run52017.xsdst ! RUN =   52017 ! NEVT =     998
FILE = /castor/cern.ch/delphi/MCprod/cern/wwex201/v99_4/206.7/run52018.xsdst ! RUN =   52018 ! NEVT =    1000
FILE = /castor/cern.ch/delphi/MCprod/cern/wwex201/v99_4/206.7/run52019.xsdst ! RUN =   52019 ! NEVT =    1000
FILE = /castor/cern.ch/delphi/MCprod/cern/wwex201/v99_4/206.7/run52020.xsdst ! RUN =   52020 ! NEVT =    1000
FILE = /castor/cern.ch/delphi/MCprod/cern/wwex201/v99_4/206.7/run52021.xsdst ! RUN =   52021 ! NEVT =    1000
FILE = /castor/cern.ch/delphi/MCprod/cern/wwex201/v99_4/206.7/run52022.xsdst ! RUN =   52022 ! NEVT =    1000
FILE = /castor/cern.ch/delphi/MCprod/cern/wwex201/v99_4/206.7/run52023.xsdst ! RUN =   52023 ! NEVT =    1000
FILE = /castor/cern.ch/delphi/MCprod/cern/wwex201/v99_4/206.7/run52024.xsdst ! RUN =   52024 ! NEVT =    1000
FILE = /castor/cern.ch/delphi/MCprod/cern/wwex201/v99_4/206.7/run52025.xsdst ! RUN =   52025 ! NEVT =    1000
FILE = /castor/cern.ch/delphi/MCprod/cern/wwex201/v99_4/206.7/run52026.xsdst ! RUN =   52026 ! NEVT =    1000
FILE = /castor/cern.ch/delphi/MCprod/cern/wwex201/v99_4/206.7/run52027.xsdst ! RUN =   52027 ! NEVT =    1000
FILE = /castor/cern.ch/delphi/MCprod/cern/wwex201/v99_4/206.7/run52028.xsdst ! RUN =   52028 ! NEVT =    1000
FILE = /castor/cern.ch/delphi/MCprod/cern/wwex201/v99_4/206.7/run52029.xsdst ! RUN =   52029 ! NEVT =    1000
FILE = /castor/cern.ch/delphi/MCprod/cern/wwex201/v99_4/206.7/run52030.xsdst ! RUN =   52030 ! NEVT =    1000
FILE = /castor/cern.ch/delphi/MCprod/cern/wwex201/v99_4/206.7/run52031.xsdst ! RUN =   52031 ! NEVT =     997
FILE = /castor/cern.ch/delphi/MCprod/cern/wwex201/v99_4/206.7/run52032.xsdst ! RUN =   52032 ! NEVT =    1000
FILE = /castor/cern.ch/delphi/MCprod/cern/wwex201/v99_4/206.7/run52033.xsdst ! RUN =   52033 ! NEVT =     999
FILE = /castor/cern.ch/delphi/MCprod/cern/wwex201/v99_4/206.7/run52034.xsdst ! RUN =   52034 ! NEVT =     999
FILE = /castor/cern.ch/delphi/MCprod/cern/wwex201/v99_4/206.7/run52035.xsdst ! RUN =   52035 ! NEVT =    1000
FILE = /castor/cern.ch/delphi/MCprod/cern/wwex201/v99_4/206.7/run52036.xsdst ! RUN =   52036 ! NEVT =    1000
FILE = /castor/cern.ch/delphi/MCprod/cern/wwex201/v99_4/206.7/run52037.xsdst ! RUN =   52037 ! NEVT =     999
FILE = /castor/cern.ch/delphi/MCprod/cern/wwex201/v99_4/206.7/run52038.xsdst ! RUN =   52038 ! NEVT =    1000
FILE = /castor/cern.ch/delphi/MCprod/cern/wwex201/v99_4/206.7/run52039.xsdst ! RUN =   52039 ! NEVT =    1000
FILE = /castor/cern.ch/delphi/MCprod/cern/wwex201/v99_4/206.7/run52040.xsdst ! RUN =   52040 ! NEVT =    1000
FILE = /castor/cern.ch/delphi/MCprod/cern/wwex201/v99_4/206.7/run52041.xsdst ! RUN =   52041 ! NEVT =    1000
FILE = /castor/cern.ch/delphi/MCprod/cern/wwex201/v99_4/206.7/run52042.xsdst ! RUN =   52042 ! NEVT =    1000
FILE = /castor/cern.ch/delphi/MCprod/cern/wwex201/v99_4/206.7/run52043.xsdst ! RUN =   52043 ! NEVT =    1000
FILE = /castor/cern.ch/delphi/MCprod/cern/wwex201/v99_4/206.7/run52044.xsdst ! RUN =   52044 ! NEVT =     999
FILE = /castor/cern.ch/delphi/MCprod/cern/wwex201/v99_4/206.7/run52045.xsdst ! RUN =   52045 ! NEVT =    1000
FILE = /castor/cern.ch/delphi/MCprod/cern/wwex201/v99_4/206.7/run52046.xsdst ! RUN =   52046 ! NEVT =    1000
FILE = /castor/cern.ch/delphi/MCprod/cern/wwex201/v99_4/206.7/run52047.xsdst ! RUN =   52047 ! NEVT =    1000
FILE = /castor/cern.ch/delphi/MCprod/cern/wwex201/v99_4/206.7/run52048.xsdst ! RUN =   52048 ! NEVT =    1000
FILE = /castor/cern.ch/delphi/MCprod/cern/wwex201/v99_4/206.7/run52049.xsdst ! RUN =   52049 ! NEVT =    1000
FILE = /castor/cern.ch/delphi/MCprod/cern/wwex201/v99_4/206.7/run52050.xsdst ! RUN =   52050 ! NEVT =     999
FILE = /castor/cern.ch/delphi/MCprod/cern/wwex201/v99_4/206.7/run52051.xsdst ! RUN =   52051 ! NEVT =     999
FILE = /castor/cern.ch/delphi/MCprod/cern/wwex201/v99_4/206.7/run52052.xsdst ! RUN =   52052 ! NEVT =    1000
FILE = /castor/cern.ch/delphi/MCprod/cern/wwex201/v99_4/206.7/run52053.xsdst ! RUN =   52053 ! NEVT =     999
FILE = /castor/cern.ch/delphi/MCprod/cern/wwex201/v99_4/206.7/run52054.xsdst ! RUN =   52054 ! NEVT =    1000
FILE = /castor/cern.ch/delphi/MCprod/cern/wwex201/v99_4/206.7/run52055.xsdst ! RUN =   52055 ! NEVT =     999
FILE = /castor/cern.ch/delphi/MCprod/cern/wwex201/v99_4/206.7/run52056.xsdst ! RUN =   52056 ! NEVT =     999
FILE = /castor/cern.ch/delphi/MCprod/cern/wwex201/v99_4/206.7/run52057.xsdst ! RUN =   52057 ! NEVT =     997
FILE = /castor/cern.ch/delphi/MCprod/cern/wwex201/v99_4/206.7/run52058.xsdst ! RUN =   52058 ! NEVT =     998
FILE = /castor/cern.ch/delphi/MCprod/cern/wwex201/v99_4/206.7/run52059.xsdst ! RUN =   52059 ! NEVT =    1000
FILE = /castor/cern.ch/delphi/MCprod/cern/wwex201/v99_4/206.7/run52060.xsdst ! RUN =   52060 ! NEVT =    1000
FILE = /castor/cern.ch/delphi/MCprod/cern/wwex201/v99_4/206.7/run52061.xsdst ! RUN =   52061 ! NEVT =    1000
FILE = /castor/cern.ch/delphi/MCprod/cern/wwex201/v99_4/206.7/run52062.xsdst ! RUN =   52062 ! NEVT =    1000
FILE = /castor/cern.ch/delphi/MCprod/cern/wwex201/v99_4/206.7/run52063.xsdst ! RUN =   52063 ! NEVT =    1000
FILE = /castor/cern.ch/delphi/MCprod/cern/wwex201/v99_4/206.7/run52064.xsdst ! RUN =   52064 ! NEVT =     998
FILE = /castor/cern.ch/delphi/MCprod/cern/wwex201/v99_4/206.7/run52065.xsdst ! RUN =   52065 ! NEVT =    1000
FILE = /castor/cern.ch/delphi/MCprod/cern/wwex201/v99_4/206.7/run52066.xsdst ! RUN =   52066 ! NEVT =    1000
FILE = /castor/cern.ch/delphi/MCprod/cern/wwex201/v99_4/206.7/run52067.xsdst ! RUN =   52067 ! NEVT =    1000
FILE = /castor/cern.ch/delphi/MCprod/cern/wwex201/v99_4/206.7/run52068.xsdst ! RUN =   52068 ! NEVT =     999
FILE = /castor/cern.ch/delphi/MCprod/cern/wwex201/v99_4/206.7/run52069.xsdst ! RUN =   52069 ! NEVT =    1000
FILE = /castor/cern.ch/delphi/MCprod/cern/wwex201/v99_4/206.7/run52070.xsdst ! RUN =   52070 ! NEVT =    1000
FILE = /castor/cern.ch/delphi/MCprod/cern/wwex201/v99_4/206.7/run52071.xsdst ! RUN =   52071 ! NEVT =    1000
FILE = /castor/cern.ch/delphi/MCprod/cern/wwex201/v99_4/206.7/run52072.xsdst ! RUN =   52072 ! NEVT =    1000
FILE = /castor/cern.ch/delphi/MCprod/cern/wwex201/v99_4/206.7/run52073.xsdst ! RUN =   52073 ! NEVT =    1000
FILE = /castor/cern.ch/delphi/MCprod/cern/wwex201/v99_4/206.7/run52074.xsdst ! RUN =   52074 ! NEVT =    1000
FILE = /castor/cern.ch/delphi/MCprod/cern/wwex201/v99_4/206.7/run52075.xsdst ! RUN =   52075 ! NEVT =     999
FILE = /castor/cern.ch/delphi/MCprod/cern/wwex201/v99_4/206.7/run52076.xsdst ! RUN =   52076 ! NEVT =     998
FILE = /castor/cern.ch/delphi/MCprod/cern/wwex201/v99_4/206.7/run52077.xsdst ! RUN =   52077 ! NEVT =    1000
FILE = /castor/cern.ch/delphi/MCprod/cern/wwex201/v99_4/206.7/run52078.xsdst ! RUN =   52078 ! NEVT =    1000
FILE = /castor/cern.ch/delphi/MCprod/cern/wwex201/v99_4/206.7/run52079.xsdst ! RUN =   52079 ! NEVT =    1000
FILE = /castor/cern.ch/delphi/MCprod/cern/wwex201/v99_4/206.7/run52080.xsdst ! RUN =   52080 ! NEVT =    1000
FILE = /castor/cern.ch/delphi/MCprod/cern/wwex201/v99_4/206.7/run52081.xsdst ! RUN =   52081 ! NEVT =    1000
FILE = /castor/cern.ch/delphi/MCprod/cern/wwex201/v99_4/206.7/run52082.xsdst ! RUN =   52082 ! NEVT =    1000
FILE = /castor/cern.ch/delphi/MCprod/cern/wwex201/v99_4/206.7/run52083.xsdst ! RUN =   52083 ! NEVT =    1000
FILE = /castor/cern.ch/delphi/MCprod/cern/wwex201/v99_4/206.7/run52084.xsdst ! RUN =   52084 ! NEVT =    1000
FILE = /castor/cern.ch/delphi/MCprod/cern/wwex201/v99_4/206.7/run52085.xsdst ! RUN =   52085 ! NEVT =     999
FILE = /castor/cern.ch/delphi/MCprod/cern/wwex201/v99_4/206.7/run52086.xsdst ! RUN =   52086 ! NEVT =    1000
FILE = /castor/cern.ch/delphi/MCprod/cern/wwex201/v99_4/206.7/run52087.xsdst ! RUN =   52087 ! NEVT =     999
FILE = /castor/cern.ch/delphi/MCprod/cern/wwex201/v99_4/206.7/run52088.xsdst ! RUN =   52088 ! NEVT =    1000
FILE = /castor/cern.ch/delphi/MCprod/cern/wwex201/v99_4/206.7/run52089.xsdst ! RUN =   52089 ! NEVT =    1000
FILE = /castor/cern.ch/delphi/MCprod/cern/wwex201/v99_4/206.7/run52090.xsdst ! RUN =   52090 ! NEVT =     999
FILE = /castor/cern.ch/delphi/MCprod/cern/wwex201/v99_4/206.7/run52091.xsdst ! RUN =   52091 ! NEVT =    1000
FILE = /castor/cern.ch/delphi/MCprod/cern/wwex201/v99_4/206.7/run52092.xsdst ! RUN =   52092 ! NEVT =    1000
FILE = /castor/cern.ch/delphi/MCprod/cern/wwex201/v99_4/206.7/run52093.xsdst ! RUN =   52093 ! NEVT =    1000
FILE = /castor/cern.ch/delphi/MCprod/cern/wwex201/v99_4/206.7/run52094.xsdst ! RUN =   52094 ! NEVT =    1000
FILE = /castor/cern.ch/delphi/MCprod/cern/wwex201/v99_4/206.7/run52095.xsdst ! RUN =   52095 ! NEVT =    1000
FILE = /castor/cern.ch/delphi/MCprod/cern/wwex201/v99_4/206.7/run52096.xsdst ! RUN =   52096 ! NEVT =    1000
FILE = /castor/cern.ch/delphi/MCprod/cern/wwex201/v99_4/206.7/run52097.xsdst ! RUN =   52097 ! NEVT =    1000
FILE = /castor/cern.ch/delphi/MCprod/cern/wwex201/v99_4/206.7/run52098.xsdst ! RUN =   52098 ! NEVT =    1000
FILE = /castor/cern.ch/delphi/MCprod/cern/wwex201/v99_4/206.7/run52099.xsdst ! RUN =   52099 ! NEVT =    1000
FILE = /castor/cern.ch/delphi/MCprod/cern/wwex201/v99_4/206.7/run52100.xsdst ! RUN =   52100 ! NEVT =     999
*
FILE = /castor/cern.ch/delphi/MCprod/cern/wwex201/v99_4/206.7/run42051.xsdst ! RUN =   42051 ! NEVT =    1000
FILE = /castor/cern.ch/delphi/MCprod/cern/wwex201/v99_4/206.7/run42052.xsdst ! RUN =   42052 ! NEVT =    1000
FILE = /castor/cern.ch/delphi/MCprod/cern/wwex201/v99_4/206.7/run42053.xsdst ! RUN =   42053 ! NEVT =     999
FILE = /castor/cern.ch/delphi/MCprod/cern/wwex201/v99_4/206.7/run42054.xsdst ! RUN =   42054 ! NEVT =    1000
FILE = /castor/cern.ch/delphi/MCprod/cern/wwex201/v99_4/206.7/run42055.xsdst ! RUN =   42055 ! NEVT =    1000
FILE = /castor/cern.ch/delphi/MCprod/cern/wwex201/v99_4/206.7/run42056.xsdst ! RUN =   42056 ! NEVT =    1000
FILE = /castor/cern.ch/delphi/MCprod/cern/wwex201/v99_4/206.7/run42057.xsdst ! RUN =   42057 ! NEVT =    1000
FILE = /castor/cern.ch/delphi/MCprod/cern/wwex201/v99_4/206.7/run42058.xsdst ! RUN =   42058 ! NEVT =    1000
FILE = /castor/cern.ch/delphi/MCprod/cern/wwex201/v99_4/206.7/run42059.xsdst ! RUN =   42059 ! NEVT =    1000
FILE = /castor/cern.ch/delphi/MCprod/cern/wwex201/v99_4/206.7/run42060.xsdst ! RUN =   42060 ! NEVT =    1000
FILE = /castor/cern.ch/delphi/MCprod/cern/wwex201/v99_4/206.7/run42061.xsdst ! RUN =   42061 ! NEVT =    1000
FILE = /castor/cern.ch/delphi/MCprod/cern/wwex201/v99_4/206.7/run42062.xsdst ! RUN =   42062 ! NEVT =    1000
FILE = /castor/cern.ch/delphi/MCprod/cern/wwex201/v99_4/206.7/run42063.xsdst ! RUN =   42063 ! NEVT =    1000
FILE = /castor/cern.ch/delphi/MCprod/cern/wwex201/v99_4/206.7/run42064.xsdst ! RUN =   42064 ! NEVT =     999
FILE = /castor/cern.ch/delphi/MCprod/cern/wwex201/v99_4/206.7/run42065.xsdst ! RUN =   42065 ! NEVT =    1000
FILE = /castor/cern.ch/delphi/MCprod/cern/wwex201/v99_4/206.7/run42066.xsdst ! RUN =   42066 ! NEVT =    1000
FILE = /castor/cern.ch/delphi/MCprod/cern/wwex201/v99_4/206.7/run42067.xsdst ! RUN =   42067 ! NEVT =    1000
FILE = /castor/cern.ch/delphi/MCprod/cern/wwex201/v99_4/206.7/run42068.xsdst ! RUN =   42068 ! NEVT =    1000
FILE = /castor/cern.ch/delphi/MCprod/cern/wwex201/v99_4/206.7/run42069.xsdst ! RUN =   42069 ! NEVT =     999
FILE = /castor/cern.ch/delphi/MCprod/cern/wwex201/v99_4/206.7/run42071.xsdst ! RUN =   42071 ! NEVT =    1000
FILE = /castor/cern.ch/delphi/MCprod/cern/wwex201/v99_4/206.7/run42072.xsdst ! RUN =   42072 ! NEVT =    1000
FILE = /castor/cern.ch/delphi/MCprod/cern/wwex201/v99_4/206.7/run42073.xsdst ! RUN =   42073 ! NEVT =    1000
FILE = /castor/cern.ch/delphi/MCprod/cern/wwex201/v99_4/206.7/run42074.xsdst ! RUN =   42074 ! NEVT =    1000
FILE = /castor/cern.ch/delphi/MCprod/cern/wwex201/v99_4/206.7/run42075.xsdst ! RUN =   42075 ! NEVT =    1000
FILE = /castor/cern.ch/delphi/MCprod/cern/wwex201/v99_4/206.7/run42076.xsdst ! RUN =   42076 ! NEVT =     999
FILE = /castor/cern.ch/delphi/MCprod/cern/wwex201/v99_4/206.7/run42077.xsdst ! RUN =   42077 ! NEVT =    1000
FILE = /castor/cern.ch/delphi/MCprod/cern/wwex201/v99_4/206.7/run42079.xsdst ! RUN =   42079 ! NEVT =     999
FILE = /castor/cern.ch/delphi/MCprod/cern/wwex201/v99_4/206.7/run42080.xsdst ! RUN =   42080 ! NEVT =    1000
FILE = /castor/cern.ch/delphi/MCprod/cern/wwex201/v99_4/206.7/run42081.xsdst ! RUN =   42081 ! NEVT =     998
FILE = /castor/cern.ch/delphi/MCprod/cern/wwex201/v99_4/206.7/run42082.xsdst ! RUN =   42082 ! NEVT =    1000
FILE = /castor/cern.ch/delphi/MCprod/cern/wwex201/v99_4/206.7/run42083.xsdst ! RUN =   42083 ! NEVT =     999
FILE = /castor/cern.ch/delphi/MCprod/cern/wwex201/v99_4/206.7/run42084.xsdst ! RUN =   42084 ! NEVT =    1000
FILE = /castor/cern.ch/delphi/MCprod/cern/wwex201/v99_4/206.7/run42085.xsdst ! RUN =   42085 ! NEVT =    1000
FILE = /castor/cern.ch/delphi/MCprod/cern/wwex201/v99_4/206.7/run42086.xsdst ! RUN =   42086 ! NEVT =    1000
FILE = /castor/cern.ch/delphi/MCprod/cern/wwex201/v99_4/206.7/run42087.xsdst ! RUN =   42087 ! NEVT =    1000
FILE = /castor/cern.ch/delphi/MCprod/cern/wwex201/v99_4/206.7/run42088.xsdst ! RUN =   42088 ! NEVT =     999
FILE = /castor/cern.ch/delphi/MCprod/cern/wwex201/v99_4/206.7/run42089.xsdst ! RUN =   42089 ! NEVT =     999
FILE = /castor/cern.ch/delphi/MCprod/cern/wwex201/v99_4/206.7/run42090.xsdst ! RUN =   42090 ! NEVT =    1000
FILE = /castor/cern.ch/delphi/MCprod/cern/wwex201/v99_4/206.7/run42091.xsdst ! RUN =   42091 ! NEVT =    1000
FILE = /castor/cern.ch/delphi/MCprod/cern/wwex201/v99_4/206.7/run42092.xsdst ! RUN =   42092 ! NEVT =    1000
FILE = /castor/cern.ch/delphi/MCprod/cern/wwex201/v99_4/206.7/run42093.xsdst ! RUN =   42093 ! NEVT =    1000
FILE = /castor/cern.ch/delphi/MCprod/cern/wwex201/v99_4/206.7/run42094.xsdst ! RUN =   42094 ! NEVT =    1000
FILE = /castor/cern.ch/delphi/MCprod/cern/wwex201/v99_4/206.7/run42096.xsdst ! RUN =   42096 ! NEVT =    1000
FILE = /castor/cern.ch/delphi/MCprod/cern/wwex201/v99_4/206.7/run42097.xsdst ! RUN =   42097 ! NEVT =    1000
FILE = /castor/cern.ch/delphi/MCprod/cern/wwex201/v99_4/206.7/run42098.xsdst ! RUN =   42098 ! NEVT =    1000
FILE = /castor/cern.ch/delphi/MCprod/cern/wwex201/v99_4/206.7/run42099.xsdst ! RUN =   42099 ! NEVT =    1000
FILE = /castor/cern.ch/delphi/MCprod/cern/wwex201/v99_4/206.7/run42100.xsdst ! RUN =   42100 ! NEVT =    1000
FILE = /castor/cern.ch/delphi/MCprod/cern/wwex201/v99_4/206.7/run42101.xsdst ! RUN =   42101 ! NEVT =    1000
FILE = /castor/cern.ch/delphi/MCprod/cern/wwex201/v99_4/206.7/run42102.xsdst ! RUN =   42102 ! NEVT =    1000
FILE = /castor/cern.ch/delphi/MCprod/cern/wwex201/v99_4/206.7/run42103.xsdst ! RUN =   42103 ! NEVT =     999
FILE = /castor/cern.ch/delphi/MCprod/cern/wwex201/v99_4/206.7/run42104.xsdst ! RUN =   42104 ! NEVT =    1000
FILE = /castor/cern.ch/delphi/MCprod/cern/wwex201/v99_4/206.7/run42105.xsdst ! RUN =   42105 ! NEVT =     998
FILE = /castor/cern.ch/delphi/MCprod/cern/wwex201/v99_4/206.7/run42106.xsdst ! RUN =   42106 ! NEVT =    1000
FILE = /castor/cern.ch/delphi/MCprod/cern/wwex201/v99_4/206.7/run42107.xsdst ! RUN =   42107 ! NEVT =    1000
FILE = /castor/cern.ch/delphi/MCprod/cern/wwex201/v99_4/206.7/run42108.xsdst ! RUN =   42108 ! NEVT =    1000
FILE = /castor/cern.ch/delphi/MCprod/cern/wwex201/v99_4/206.7/run42109.xsdst ! RUN =   42109 ! NEVT =     999
FILE = /castor/cern.ch/delphi/MCprod/cern/wwex201/v99_4/206.7/run42110.xsdst ! RUN =   42110 ! NEVT =     999
FILE = /castor/cern.ch/delphi/MCprod/cern/wwex201/v99_4/206.7/run42111.xsdst ! RUN =   42111 ! NEVT =    1000
FILE = /castor/cern.ch/delphi/MCprod/cern/wwex201/v99_4/206.7/run42112.xsdst ! RUN =   42112 ! NEVT =    1000
FILE = /castor/cern.ch/delphi/MCprod/cern/wwex201/v99_4/206.7/run42113.xsdst ! RUN =   42113 ! NEVT =    1000
FILE = /castor/cern.ch/delphi/MCprod/cern/wwex201/v99_4/206.7/run42114.xsdst ! RUN =   42114 ! NEVT =    1000
FILE = /castor/cern.ch/delphi/MCprod/cern/wwex201/v99_4/206.7/run42115.xsdst ! RUN =   42115 ! NEVT =    1000
FILE = /castor/cern.ch/delphi/MCprod/cern/wwex201/v99_4/206.7/run42116.xsdst ! RUN =   42116 ! NEVT =    1000
FILE = /castor/cern.ch/delphi/MCprod/cern/wwex201/v99_4/206.7/run42117.xsdst ! RUN =   42117 ! NEVT =    1000
FILE = /castor/cern.ch/delphi/MCprod/cern/wwex201/v99_4/206.7/run42118.xsdst ! RUN =   42118 ! NEVT =    1000
FILE = /castor/cern.ch/delphi/MCprod/cern/wwex201/v99_4/206.7/run42119.xsdst ! RUN =   42119 ! NEVT =    1000
FILE = /castor/cern.ch/delphi/MCprod/cern/wwex201/v99_4/206.7/run42120.xsdst ! RUN =   42120 ! NEVT =    1000
FILE = /castor/cern.ch/delphi/MCprod/cern/wwex201/v99_4/206.7/run42121.xsdst ! RUN =   42121 ! NEVT =    1000
FILE = /castor/cern.ch/delphi/MCprod/cern/wwex201/v99_4/206.7/run42122.xsdst ! RUN =   42122 ! NEVT =     999
FILE = /castor/cern.ch/delphi/MCprod/cern/wwex201/v99_4/206.7/run42123.xsdst ! RUN =   42123 ! NEVT =    1000
FILE = /castor/cern.ch/delphi/MCprod/cern/wwex201/v99_4/206.7/run42124.xsdst ! RUN =   42124 ! NEVT =    1000
FILE = /castor/cern.ch/delphi/MCprod/cern/wwex201/v99_4/206.7/run42125.xsdst ! RUN =   42125 ! NEVT =     999
FILE = /castor/cern.ch/delphi/MCprod/cern/wwex201/v99_4/206.7/run42126.xsdst ! RUN =   42126 ! NEVT =    1000
FILE = /castor/cern.ch/delphi/MCprod/cern/wwex201/v99_4/206.7/run42127.xsdst ! RUN =   42127 ! NEVT =    1000
FILE = /castor/cern.ch/delphi/MCprod/cern/wwex201/v99_4/206.7/run42128.xsdst ! RUN =   42128 ! NEVT =     999
FILE = /castor/cern.ch/delphi/MCprod/cern/wwex201/v99_4/206.7/run42129.xsdst ! RUN =   42129 ! NEVT =    1000
FILE = /castor/cern.ch/delphi/MCprod/cern/wwex201/v99_4/206.7/run42130.xsdst ! RUN =   42130 ! NEVT =    1000
FILE = /castor/cern.ch/delphi/MCprod/cern/wwex201/v99_4/206.7/run42131.xsdst ! RUN =   42131 ! NEVT =    1000
FILE = /castor/cern.ch/delphi/MCprod/cern/wwex201/v99_4/206.7/run42132.xsdst ! RUN =   42132 ! NEVT =    1000
FILE = /castor/cern.ch/delphi/MCprod/cern/wwex201/v99_4/206.7/run42133.xsdst ! RUN =   42133 ! NEVT =     998
FILE = /castor/cern.ch/delphi/MCprod/cern/wwex201/v99_4/206.7/run42134.xsdst ! RUN =   42134 ! NEVT =    1000
FILE = /castor/cern.ch/delphi/MCprod/cern/wwex201/v99_4/206.7/run42135.xsdst ! RUN =   42135 ! NEVT =    1000
FILE = /castor/cern.ch/delphi/MCprod/cern/wwex201/v99_4/206.7/run42136.xsdst ! RUN =   42136 ! NEVT =     999
FILE = /castor/cern.ch/delphi/MCprod/cern/wwex201/v99_4/206.7/run42137.xsdst ! RUN =   42137 ! NEVT =     999
FILE = /castor/cern.ch/delphi/MCprod/cern/wwex201/v99_4/206.7/run42138.xsdst ! RUN =   42138 ! NEVT =    1000
FILE = /castor/cern.ch/delphi/MCprod/cern/wwex201/v99_4/206.7/run42139.xsdst ! RUN =   42139 ! NEVT =    1000
FILE = /castor/cern.ch/delphi/MCprod/cern/wwex201/v99_4/206.7/run42140.xsdst ! RUN =   42140 ! NEVT =    1000
FILE = /castor/cern.ch/delphi/MCprod/cern/wwex201/v99_4/206.7/run42141.xsdst ! RUN =   42141 ! NEVT =    1000
FILE = /castor/cern.ch/delphi/MCprod/cern/wwex201/v99_4/206.7/run42142.xsdst ! RUN =   42142 ! NEVT =    1000
FILE = /castor/cern.ch/delphi/MCprod/cern/wwex201/v99_4/206.7/run42143.xsdst ! RUN =   42143 ! NEVT =    1000
FILE = /castor/cern.ch/delphi/MCprod/cern/wwex201/v99_4/206.7/run42144.xsdst ! RUN =   42144 ! NEVT =     999
FILE = /castor/cern.ch/delphi/MCprod/cern/wwex201/v99_4/206.7/run42146.xsdst ! RUN =   42146 ! NEVT =    1000
FILE = /castor/cern.ch/delphi/MCprod/cern/wwex201/v99_4/206.7/run42147.xsdst ! RUN =   42147 ! NEVT =    1000
FILE = /castor/cern.ch/delphi/MCprod/cern/wwex201/v99_4/206.7/run42148.xsdst ! RUN =   42148 ! NEVT =    1000
FILE = /castor/cern.ch/delphi/MCprod/cern/wwex201/v99_4/206.7/run42149.xsdst ! RUN =   42149 ! NEVT =    1000
FILE = /castor/cern.ch/delphi/MCprod/cern/wwex201/v99_4/206.7/run42150.xsdst ! RUN =   42150 ! NEVT =     999
FILE = /castor/cern.ch/delphi/MCprod/cern/wwex201/v99_4/206.7/run42151.xsdst ! RUN =   42151 ! NEVT =    1000
FILE = /castor/cern.ch/delphi/MCprod/cern/wwex201/v99_4/206.7/run42152.xsdst ! RUN =   42152 ! NEVT =    1000
FILE = /castor/cern.ch/delphi/MCprod/cern/wwex201/v99_4/206.7/run42153.xsdst ! RUN =   42153 ! NEVT =    1000
FILE = /castor/cern.ch/delphi/MCprod/cern/wwex201/v99_4/206.7/run42154.xsdst ! RUN =   42154 ! NEVT =    1000
FILE = /castor/cern.ch/delphi/MCprod/cern/wwex201/v99_4/206.7/run42155.xsdst ! RUN =   42155 ! NEVT =    1000
FILE = /castor/cern.ch/delphi/MCprod/cern/wwex201/v99_4/206.7/run42156.xsdst ! RUN =   42156 ! NEVT =    1000
FILE = /castor/cern.ch/delphi/MCprod/cern/wwex201/v99_4/206.7/run42157.xsdst ! RUN =   42157 ! NEVT =    1000
FILE = /castor/cern.ch/delphi/MCprod/cern/wwex201/v99_4/206.7/run42158.xsdst ! RUN =   42158 ! NEVT =     999
FILE = /castor/cern.ch/delphi/MCprod/cern/wwex201/v99_4/206.7/run42159.xsdst ! RUN =   42159 ! NEVT =    1000
FILE = /castor/cern.ch/delphi/MCprod/cern/wwex201/v99_4/206.7/run42160.xsdst ! RUN =   42160 ! NEVT =     999
FILE = /castor/cern.ch/delphi/MCprod/cern/wwex201/v99_4/206.7/run42161.xsdst ! RUN =   42161 ! NEVT =     999
FILE = /castor/cern.ch/delphi/MCprod/cern/wwex201/v99_4/206.7/run42162.xsdst ! RUN =   42162 ! NEVT =    1000
FILE = /castor/cern.ch/delphi/MCprod/cern/wwex201/v99_4/206.7/run42163.xsdst ! RUN =   42163 ! NEVT =    1000
FILE = /castor/cern.ch/delphi/MCprod/cern/wwex201/v99_4/206.7/run42164.xsdst ! RUN =   42164 ! NEVT =    1000
FILE = /castor/cern.ch/delphi/MCprod/cern/wwex201/v99_4/206.7/run42165.xsdst ! RUN =   42165 ! NEVT =    1000
FILE = /castor/cern.ch/delphi/MCprod/cern/wwex201/v99_4/206.7/run42166.xsdst ! RUN =   42166 ! NEVT =     999
FILE = /castor/cern.ch/delphi/MCprod/cern/wwex201/v99_4/206.7/run42167.xsdst ! RUN =   42167 ! NEVT =     999
FILE = /castor/cern.ch/delphi/MCprod/cern/wwex201/v99_4/206.7/run42168.xsdst ! RUN =   42168 ! NEVT =     999
FILE = /castor/cern.ch/delphi/MCprod/cern/wwex201/v99_4/206.7/run42169.xsdst ! RUN =   42169 ! NEVT =    1000
FILE = /castor/cern.ch/delphi/MCprod/cern/wwex201/v99_4/206.7/run42170.xsdst ! RUN =   42170 ! NEVT =    1000
FILE = /castor/cern.ch/delphi/MCprod/cern/wwex201/v99_4/206.7/run42171.xsdst ! RUN =   42171 ! NEVT =     999
FILE = /castor/cern.ch/delphi/MCprod/cern/wwex201/v99_4/206.7/run42172.xsdst ! RUN =   42172 ! NEVT =     999
FILE = /castor/cern.ch/delphi/MCprod/cern/wwex201/v99_4/206.7/run42173.xsdst ! RUN =   42173 ! NEVT =    1000
FILE = /castor/cern.ch/delphi/MCprod/cern/wwex201/v99_4/206.7/run42174.xsdst ! RUN =   42174 ! NEVT =    1000
FILE = /castor/cern.ch/delphi/MCprod/cern/wwex201/v99_4/206.7/run42175.xsdst ! RUN =   42175 ! NEVT =     999
FILE = /castor/cern.ch/delphi/MCprod/cern/wwex201/v99_4/206.7/run42176.xsdst ! RUN =   42176 ! NEVT =     999
FILE = /castor/cern.ch/delphi/MCprod/cern/wwex201/v99_4/206.7/run42177.xsdst ! RUN =   42177 ! NEVT =    1000
FILE = /castor/cern.ch/delphi/MCprod/cern/wwex201/v99_4/206.7/run42178.xsdst ! RUN =   42178 ! NEVT =    1000
FILE = /castor/cern.ch/delphi/MCprod/cern/wwex201/v99_4/206.7/run42179.xsdst ! RUN =   42179 ! NEVT =    1000
FILE = /castor/cern.ch/delphi/MCprod/cern/wwex201/v99_4/206.7/run42180.xsdst ! RUN =   42180 ! NEVT =    1000
FILE = /castor/cern.ch/delphi/MCprod/cern/wwex201/v99_4/206.7/run42181.xsdst ! RUN =   42181 ! NEVT =    1000
FILE = /castor/cern.ch/delphi/MCprod/cern/wwex201/v99_4/206.7/run42182.xsdst ! RUN =   42182 ! NEVT =     999
FILE = /castor/cern.ch/delphi/MCprod/cern/wwex201/v99_4/206.7/run42183.xsdst ! RUN =   42183 ! NEVT =    1000
FILE = /castor/cern.ch/delphi/MCprod/cern/wwex201/v99_4/206.7/run42184.xsdst ! RUN =   42184 ! NEVT =    1000
FILE = /castor/cern.ch/delphi/MCprod/cern/wwex201/v99_4/206.7/run42185.xsdst ! RUN =   42185 ! NEVT =     999
FILE = /castor/cern.ch/delphi/MCprod/cern/wwex201/v99_4/206.7/run42186.xsdst ! RUN =   42186 ! NEVT =    1000
FILE = /castor/cern.ch/delphi/MCprod/cern/wwex201/v99_4/206.7/run42187.xsdst ! RUN =   42187 ! NEVT =    1000
FILE = /castor/cern.ch/delphi/MCprod/cern/wwex201/v99_4/206.7/run42188.xsdst ! RUN =   42188 ! NEVT =    1000
FILE = /castor/cern.ch/delphi/MCprod/cern/wwex201/v99_4/206.7/run42189.xsdst ! RUN =   42189 ! NEVT =    1000
FILE = /castor/cern.ch/delphi/MCprod/cern/wwex201/v99_4/206.7/run42190.xsdst ! RUN =   42190 ! NEVT =     999
FILE = /castor/cern.ch/delphi/MCprod/cern/wwex201/v99_4/206.7/run42191.xsdst ! RUN =   42191 ! NEVT =    1000
FILE = /castor/cern.ch/delphi/MCprod/cern/wwex201/v99_4/206.7/run42192.xsdst ! RUN =   42192 ! NEVT =    1000
FILE = /castor/cern.ch/delphi/MCprod/cern/wwex201/v99_4/206.7/run42193.xsdst ! RUN =   42193 ! NEVT =     999
FILE = /castor/cern.ch/delphi/MCprod/cern/wwex201/v99_4/206.7/run42194.xsdst ! RUN =   42194 ! NEVT =    1000
FILE = /castor/cern.ch/delphi/MCprod/cern/wwex201/v99_4/206.7/run42195.xsdst ! RUN =   42195 ! NEVT =    1000
FILE = /castor/cern.ch/delphi/MCprod/cern/wwex201/v99_4/206.7/run42196.xsdst ! RUN =   42196 ! NEVT =    1000
FILE = /castor/cern.ch/delphi/MCprod/cern/wwex201/v99_4/206.7/run42197.xsdst ! RUN =   42197 ! NEVT =    1000
FILE = /castor/cern.ch/delphi/MCprod/cern/wwex201/v99_4/206.7/run42198.xsdst ! RUN =   42198 ! NEVT =    1000
FILE = /castor/cern.ch/delphi/MCprod/cern/wwex201/v99_4/206.7/run42199.xsdst ! RUN =   42199 ! NEVT =    1000
FILE = /castor/cern.ch/delphi/MCprod/cern/wwex201/v99_4/206.7/run42200.xsdst ! RUN =   42200 ! NEVT =    1000
FILE = /castor/cern.ch/delphi/MCprod/cern/wwex201/v99_4/206.7/run42201.xsdst ! RUN =   42201 ! NEVT =    1000
FILE = /castor/cern.ch/delphi/MCprod/cern/wwex201/v99_4/206.7/run42202.xsdst ! RUN =   42202 ! NEVT =    1000
FILE = /castor/cern.ch/delphi/MCprod/cern/wwex201/v99_4/206.7/run42203.xsdst ! RUN =   42203 ! NEVT =     999
FILE = /castor/cern.ch/delphi/MCprod/cern/wwex201/v99_4/206.7/run42204.xsdst ! RUN =   42204 ! NEVT =     999
FILE = /castor/cern.ch/delphi/MCprod/cern/wwex201/v99_4/206.7/run42205.xsdst ! RUN =   42205 ! NEVT =    1000
FILE = /castor/cern.ch/delphi/MCprod/cern/wwex201/v99_4/206.7/run42206.xsdst ! RUN =   42206 ! NEVT =    1000
FILE = /castor/cern.ch/delphi/MCprod/cern/wwex201/v99_4/206.7/run42207.xsdst ! RUN =   42207 ! NEVT =     999
FILE = /castor/cern.ch/delphi/MCprod/cern/wwex201/v99_4/206.7/run42208.xsdst ! RUN =   42208 ! NEVT =     999
FILE = /castor/cern.ch/delphi/MCprod/cern/wwex201/v99_4/206.7/run42209.xsdst ! RUN =   42209 ! NEVT =    1000
FILE = /castor/cern.ch/delphi/MCprod/cern/wwex201/v99_4/206.7/run42210.xsdst ! RUN =   42210 ! NEVT =    1000
FILE = /castor/cern.ch/delphi/MCprod/cern/wwex201/v99_4/206.7/run42211.xsdst ! RUN =   42211 ! NEVT =     999
FILE = /castor/cern.ch/delphi/MCprod/cern/wwex201/v99_4/206.7/run42212.xsdst ! RUN =   42212 ! NEVT =    1000
FILE = /castor/cern.ch/delphi/MCprod/cern/wwex201/v99_4/206.7/run42213.xsdst ! RUN =   42213 ! NEVT =     667
FILE = /castor/cern.ch/delphi/MCprod/cern/wwex201/v99_4/206.7/run42214.xsdst ! RUN =   42214 ! NEVT =    1000
FILE = /castor/cern.ch/delphi/MCprod/cern/wwex201/v99_4/206.7/run42215.xsdst ! RUN =   42215 ! NEVT =    1000
FILE = /castor/cern.ch/delphi/MCprod/cern/wwex201/v99_4/206.7/run42216.xsdst ! RUN =   42216 ! NEVT =    1000
FILE = /castor/cern.ch/delphi/MCprod/cern/wwex201/v99_4/206.7/run42217.xsdst ! RUN =   42217 ! NEVT =    1000
FILE = /castor/cern.ch/delphi/MCprod/cern/wwex201/v99_4/206.7/run42218.xsdst ! RUN =   42218 ! NEVT =    1000
FILE = /castor/cern.ch/delphi/MCprod/cern/wwex201/v99_4/206.7/run42219.xsdst ! RUN =   42219 ! NEVT =    1000
FILE = /castor/cern.ch/delphi/MCprod/cern/wwex201/v99_4/206.7/run42220.xsdst ! RUN =   42220 ! NEVT =     999
FILE = /castor/cern.ch/delphi/MCprod/cern/wwex201/v99_4/206.7/run42221.xsdst ! RUN =   42221 ! NEVT =    1000
FILE = /castor/cern.ch/delphi/MCprod/cern/wwex201/v99_4/206.7/run42222.xsdst ! RUN =   42222 ! NEVT =     999
FILE = /castor/cern.ch/delphi/MCprod/cern/wwex201/v99_4/206.7/run42223.xsdst ! RUN =   42223 ! NEVT =     999
FILE = /castor/cern.ch/delphi/MCprod/cern/wwex201/v99_4/206.7/run42224.xsdst ! RUN =   42224 ! NEVT =    1000
FILE = /castor/cern.ch/delphi/MCprod/cern/wwex201/v99_4/206.7/run42225.xsdst ! RUN =   42225 ! NEVT =     999
FILE = /castor/cern.ch/delphi/MCprod/cern/wwex201/v99_4/206.7/run42226.xsdst ! RUN =   42226 ! NEVT =    1000
FILE = /castor/cern.ch/delphi/MCprod/cern/wwex201/v99_4/206.7/run42227.xsdst ! RUN =   42227 ! NEVT =    1000
FILE = /castor/cern.ch/delphi/MCprod/cern/wwex201/v99_4/206.7/run42228.xsdst ! RUN =   42228 ! NEVT =    1000
FILE = /castor/cern.ch/delphi/MCprod/cern/wwex201/v99_4/206.7/run42229.xsdst ! RUN =   42229 ! NEVT =    1000
FILE = /castor/cern.ch/delphi/MCprod/cern/wwex201/v99_4/206.7/run42230.xsdst ! RUN =   42230 ! NEVT =     998
FILE = /castor/cern.ch/delphi/MCprod/cern/wwex201/v99_4/206.7/run42231.xsdst ! RUN =   42231 ! NEVT =    1000
FILE = /castor/cern.ch/delphi/MCprod/cern/wwex201/v99_4/206.7/run42232.xsdst ! RUN =   42232 ! NEVT =    1000
FILE = /castor/cern.ch/delphi/MCprod/cern/wwex201/v99_4/206.7/run42233.xsdst ! RUN =   42233 ! NEVT =     999
FILE = /castor/cern.ch/delphi/MCprod/cern/wwex201/v99_4/206.7/run42234.xsdst ! RUN =   42234 ! NEVT =    1000
FILE = /castor/cern.ch/delphi/MCprod/cern/wwex201/v99_4/206.7/run42235.xsdst ! RUN =   42235 ! NEVT =    1000
FILE = /castor/cern.ch/delphi/MCprod/cern/wwex201/v99_4/206.7/run42236.xsdst ! RUN =   42236 ! NEVT =    1000
FILE = /castor/cern.ch/delphi/MCprod/cern/wwex201/v99_4/206.7/run42237.xsdst ! RUN =   42237 ! NEVT =    1000
FILE = /castor/cern.ch/delphi/MCprod/cern/wwex201/v99_4/206.7/run42238.xsdst ! RUN =   42238 ! NEVT =    1000
FILE = /castor/cern.ch/delphi/MCprod/cern/wwex201/v99_4/206.7/run42239.xsdst ! RUN =   42239 ! NEVT =    1000
FILE = /castor/cern.ch/delphi/MCprod/cern/wwex201/v99_4/206.7/run42240.xsdst ! RUN =   42240 ! NEVT =    1000
FILE = /castor/cern.ch/delphi/MCprod/cern/wwex201/v99_4/206.7/run42241.xsdst ! RUN =   42241 ! NEVT =    1000
FILE = /castor/cern.ch/delphi/MCprod/cern/wwex201/v99_4/206.7/run42242.xsdst ! RUN =   42242 ! NEVT =     999
FILE = /castor/cern.ch/delphi/MCprod/cern/wwex201/v99_4/206.7/run42243.xsdst ! RUN =   42243 ! NEVT =     999
FILE = /castor/cern.ch/delphi/MCprod/cern/wwex201/v99_4/206.7/run42244.xsdst ! RUN =   42244 ! NEVT =    1000
FILE = /castor/cern.ch/delphi/MCprod/cern/wwex201/v99_4/206.7/run42245.xsdst ! RUN =   42245 ! NEVT =     998
FILE = /castor/cern.ch/delphi/MCprod/cern/wwex201/v99_4/206.7/run42246.xsdst ! RUN =   42246 ! NEVT =    1000
FILE = /castor/cern.ch/delphi/MCprod/cern/wwex201/v99_4/206.7/run42247.xsdst ! RUN =   42247 ! NEVT =     999
FILE = /castor/cern.ch/delphi/MCprod/cern/wwex201/v99_4/206.7/run42248.xsdst ! RUN =   42248 ! NEVT =    1000
FILE = /castor/cern.ch/delphi/MCprod/cern/wwex201/v99_4/206.7/run42249.xsdst ! RUN =   42249 ! NEVT =    1000
FILE = /castor/cern.ch/delphi/MCprod/cern/wwex201/v99_4/206.7/run42250.xsdst ! RUN =   42250 ! NEVT =    1000
FILE = /castor/cern.ch/delphi/MCprod/cern/wwex201/v99_4/206.7/run42251.xsdst ! RUN =   42251 ! NEVT =    1000
FILE = /castor/cern.ch/delphi/MCprod/cern/wwex201/v99_4/206.7/run42252.xsdst ! RUN =   42252 ! NEVT =    1000
FILE = /castor/cern.ch/delphi/MCprod/cern/wwex201/v99_4/206.7/run42253.xsdst ! RUN =   42253 ! NEVT =     999
FILE = /castor/cern.ch/delphi/MCprod/cern/wwex201/v99_4/206.7/run42254.xsdst ! RUN =   42254 ! NEVT =     999
FILE = /castor/cern.ch/delphi/MCprod/cern/wwex201/v99_4/206.7/run42255.xsdst ! RUN =   42255 ! NEVT =     999
FILE = /castor/cern.ch/delphi/MCprod/cern/wwex201/v99_4/206.7/run42256.xsdst ! RUN =   42256 ! NEVT =    1000
FILE = /castor/cern.ch/delphi/MCprod/cern/wwex201/v99_4/206.7/run42257.xsdst ! RUN =   42257 ! NEVT =     999
FILE = /castor/cern.ch/delphi/MCprod/cern/wwex201/v99_4/206.7/run42258.xsdst ! RUN =   42258 ! NEVT =     999
FILE = /castor/cern.ch/delphi/MCprod/cern/wwex201/v99_4/206.7/run42259.xsdst ! RUN =   42259 ! NEVT =     773
FILE = /castor/cern.ch/delphi/MCprod/cern/wwex201/v99_4/206.7/run42260.xsdst ! RUN =   42260 ! NEVT =    1000
FILE = /castor/cern.ch/delphi/MCprod/cern/wwex201/v99_4/206.7/run42261.xsdst ! RUN =   42261 ! NEVT =     999
FILE = /castor/cern.ch/delphi/MCprod/cern/wwex201/v99_4/206.7/run42262.xsdst ! RUN =   42262 ! NEVT =     999
FILE = /castor/cern.ch/delphi/MCprod/cern/wwex201/v99_4/206.7/run42263.xsdst ! RUN =   42263 ! NEVT =    1000
FILE = /castor/cern.ch/delphi/MCprod/cern/wwex201/v99_4/206.7/run42264.xsdst ! RUN =   42264 ! NEVT =    1000
FILE = /castor/cern.ch/delphi/MCprod/cern/wwex201/v99_4/206.7/run42265.xsdst ! RUN =   42265 ! NEVT =    1000
FILE = /castor/cern.ch/delphi/MCprod/cern/wwex201/v99_4/206.7/run42266.xsdst ! RUN =   42266 ! NEVT =    1000
FILE = /castor/cern.ch/delphi/MCprod/cern/wwex201/v99_4/206.7/run42267.xsdst ! RUN =   42267 ! NEVT =    1000
FILE = /castor/cern.ch/delphi/MCprod/cern/wwex201/v99_4/206.7/run42268.xsdst ! RUN =   42268 ! NEVT =    1000
FILE = /castor/cern.ch/delphi/MCprod/cern/wwex201/v99_4/206.7/run42269.xsdst ! RUN =   42269 ! NEVT =    1000
FILE = /castor/cern.ch/delphi/MCprod/cern/wwex201/v99_4/206.7/run42270.xsdst ! RUN =   42270 ! NEVT =    1000
FILE = /castor/cern.ch/delphi/MCprod/cern/wwex201/v99_4/206.7/run42271.xsdst ! RUN =   42271 ! NEVT =    1000
FILE = /castor/cern.ch/delphi/MCprod/cern/wwex201/v99_4/206.7/run42272.xsdst ! RUN =   42272 ! NEVT =    1000
FILE = /castor/cern.ch/delphi/MCprod/cern/wwex201/v99_4/206.7/run42273.xsdst ! RUN =   42273 ! NEVT =    1000
FILE = /castor/cern.ch/delphi/MCprod/cern/wwex201/v99_4/206.7/run42274.xsdst ! RUN =   42274 ! NEVT =    1000
FILE = /castor/cern.ch/delphi/MCprod/cern/wwex201/v99_4/206.7/run42275.xsdst ! RUN =   42275 ! NEVT =    1000
FILE = /castor/cern.ch/delphi/MCprod/cern/wwex201/v99_4/206.7/run42276.xsdst ! RUN =   42276 ! NEVT =    1000
FILE = /castor/cern.ch/delphi/MCprod/cern/wwex201/v99_4/206.7/run42277.xsdst ! RUN =   42277 ! NEVT =    1000
FILE = /castor/cern.ch/delphi/MCprod/cern/wwex201/v99_4/206.7/run42278.xsdst ! RUN =   42278 ! NEVT =    1000
FILE = /castor/cern.ch/delphi/MCprod/cern/wwex201/v99_4/206.7/run42279.xsdst ! RUN =   42279 ! NEVT =    1000
FILE = /castor/cern.ch/delphi/MCprod/cern/wwex201/v99_4/206.7/run42280.xsdst ! RUN =   42280 ! NEVT =    1000
FILE = /castor/cern.ch/delphi/MCprod/cern/wwex201/v99_4/206.7/run42281.xsdst ! RUN =   42281 ! NEVT =    1000
FILE = /castor/cern.ch/delphi/MCprod/cern/wwex201/v99_4/206.7/run42282.xsdst ! RUN =   42282 ! NEVT =     999
FILE = /castor/cern.ch/delphi/MCprod/cern/wwex201/v99_4/206.7/run42283.xsdst ! RUN =   42283 ! NEVT =    1000
FILE = /castor/cern.ch/delphi/MCprod/cern/wwex201/v99_4/206.7/run42284.xsdst ! RUN =   42284 ! NEVT =    1000
FILE = /castor/cern.ch/delphi/MCprod/cern/wwex201/v99_4/206.7/run42285.xsdst ! RUN =   42285 ! NEVT =     998
FILE = /castor/cern.ch/delphi/MCprod/cern/wwex201/v99_4/206.7/run42286.xsdst ! RUN =   42286 ! NEVT =     998
FILE = /castor/cern.ch/delphi/MCprod/cern/wwex201/v99_4/206.7/run42287.xsdst ! RUN =   42287 ! NEVT =    1000
FILE = /castor/cern.ch/delphi/MCprod/cern/wwex201/v99_4/206.7/run42288.xsdst ! RUN =   42288 ! NEVT =    1000
FILE = /castor/cern.ch/delphi/MCprod/cern/wwex201/v99_4/206.7/run42289.xsdst ! RUN =   42289 ! NEVT =    1000
FILE = /castor/cern.ch/delphi/MCprod/cern/wwex201/v99_4/206.7/run42290.xsdst ! RUN =   42290 ! NEVT =     999
FILE = /castor/cern.ch/delphi/MCprod/cern/wwex201/v99_4/206.7/run42291.xsdst ! RUN =   42291 ! NEVT =     999
FILE = /castor/cern.ch/delphi/MCprod/cern/wwex201/v99_4/206.7/run42292.xsdst ! RUN =   42292 ! NEVT =    1000
FILE = /castor/cern.ch/delphi/MCprod/cern/wwex201/v99_4/206.7/run42293.xsdst ! RUN =   42293 ! NEVT =     999
FILE = /castor/cern.ch/delphi/MCprod/cern/wwex201/v99_4/206.7/run42294.xsdst ! RUN =   42294 ! NEVT =    1000
FILE = /castor/cern.ch/delphi/MCprod/cern/wwex201/v99_4/206.7/run42295.xsdst ! RUN =   42295 ! NEVT =    1000
FILE = /castor/cern.ch/delphi/MCprod/cern/wwex201/v99_4/206.7/run42295.xsdst ! RUN =   42295 ! NEVT =    1000
FILE = /castor/cern.ch/delphi/MCprod/cern/wwex201/v99_4/206.7/run42296.xsdst ! RUN =   42296 ! NEVT =    1000
FILE = /castor/cern.ch/delphi/MCprod/cern/wwex201/v99_4/206.7/run42297.xsdst ! RUN =   42297 ! NEVT =     999
FILE = /castor/cern.ch/delphi/MCprod/cern/wwex201/v99_4/206.7/run42298.xsdst ! RUN =   42298 ! NEVT =    1000
FILE = /castor/cern.ch/delphi/MCprod/cern/wwex201/v99_4/206.7/run42300.xsdst ! RUN =   42300 ! NEVT =    1000
