*
*   Nickname     : xs_hzha03pyth6156hztt_e206.5_m12_ca0_1l_e1
*   Generic Name : //CERN/DELPHI/P02_SIMD/XSDST/HZHA03PYTH6156HZTT/E206.5/CERN/SUMT/C001-10
*   Description  : XShortDst HZHA03  e+e- --> HZ (H ->  any but tau Z -> tau+tau-) Extended Short DST simulation a0_e1 done at ecms=206.5 , CERN
*---
*   Comments     : in total 4995 events in 10 files time stamp: Tue Sep  4 11:30:34 2001
*---
*
*
*
*
*
FILE = /castor/cern.ch/delphi/MCprod/cern/hzha03pyth6156/va0e/206.5/hzha03pyth6156_hztt_206.5_12_11241.xsdst ! RUN = 11241 ! NEVT = 500
FILE = /castor/cern.ch/delphi/MCprod/cern/hzha03pyth6156/va0e/206.5/hzha03pyth6156_hztt_206.5_12_11242.xsdst ! RUN = 11242 ! NEVT = 500
FILE = /castor/cern.ch/delphi/MCprod/cern/hzha03pyth6156/va0e/206.5/hzha03pyth6156_hztt_206.5_12_11243.xsdst ! RUN = 11243 ! NEVT = 499
FILE = /castor/cern.ch/delphi/MCprod/cern/hzha03pyth6156/va0e/206.5/hzha03pyth6156_hztt_206.5_12_11244.xsdst ! RUN = 11244 ! NEVT = 499
FILE = /castor/cern.ch/delphi/MCprod/cern/hzha03pyth6156/va0e/206.5/hzha03pyth6156_hztt_206.5_12_11245.xsdst ! RUN = 11245 ! NEVT = 500
FILE = /castor/cern.ch/delphi/MCprod/cern/hzha03pyth6156/va0e/206.5/hzha03pyth6156_hztt_206.5_12_11246.xsdst ! RUN = 11246 ! NEVT = 500
FILE = /castor/cern.ch/delphi/MCprod/cern/hzha03pyth6156/va0e/206.5/hzha03pyth6156_hztt_206.5_12_11247.xsdst ! RUN = 11247 ! NEVT = 498
FILE = /castor/cern.ch/delphi/MCprod/cern/hzha03pyth6156/va0e/206.5/hzha03pyth6156_hztt_206.5_12_11248.xsdst ! RUN = 11248 ! NEVT = 500
FILE = /castor/cern.ch/delphi/MCprod/cern/hzha03pyth6156/va0e/206.5/hzha03pyth6156_hztt_206.5_12_11249.xsdst ! RUN = 11249 ! NEVT = 499
FILE = /castor/cern.ch/delphi/MCprod/cern/hzha03pyth6156/va0e/206.5/hzha03pyth6156_hztt_206.5_12_11250.xsdst ! RUN = 11250 ! NEVT = 500
