*
*   Nickname     : xs_hzha03pyth6156hznu_e208_m30_ca0_1l_e1
*   Generic Name : //CERN/DELPHI/P02_SIMD/XSDST/HZHA03PYTH6156HZNU/CERN/SUMT/C001-10
*   Description  : XShortDst HZHA03  e+e- --> HZ (H ->  any Z -> nu nubar)(HZ+interference+fusion) Extended Short DST simulation a0_e1 208 , CERN
*---
*   Comments     : in total 4998 events in 10 files time stamp: Fri Aug 31 08:38:51 2001
*---
*
*
*
*
*
FILE = /castor/cern.ch/delphi/MCprod/cern/hzha03pyth6156/va0e/208/hzha03pyth6156_hznu_208_30_13111.xsdst ! RUN = 13111 ! NEVT = 500
FILE = /castor/cern.ch/delphi/MCprod/cern/hzha03pyth6156/va0e/208/hzha03pyth6156_hznu_208_30_13112.xsdst ! RUN = 13112 ! NEVT = 500
FILE = /castor/cern.ch/delphi/MCprod/cern/hzha03pyth6156/va0e/208/hzha03pyth6156_hznu_208_30_13113.xsdst ! RUN = 13113 ! NEVT = 500
FILE = /castor/cern.ch/delphi/MCprod/cern/hzha03pyth6156/va0e/208/hzha03pyth6156_hznu_208_30_13114.xsdst ! RUN = 13114 ! NEVT = 500
FILE = /castor/cern.ch/delphi/MCprod/cern/hzha03pyth6156/va0e/208/hzha03pyth6156_hznu_208_30_13115.xsdst ! RUN = 13115 ! NEVT = 500
FILE = /castor/cern.ch/delphi/MCprod/cern/hzha03pyth6156/va0e/208/hzha03pyth6156_hznu_208_30_13116.xsdst ! RUN = 13116 ! NEVT = 500
FILE = /castor/cern.ch/delphi/MCprod/cern/hzha03pyth6156/va0e/208/hzha03pyth6156_hznu_208_30_13117.xsdst ! RUN = 13117 ! NEVT = 499
FILE = /castor/cern.ch/delphi/MCprod/cern/hzha03pyth6156/va0e/208/hzha03pyth6156_hznu_208_30_13118.xsdst ! RUN = 13118 ! NEVT = 500
FILE = /castor/cern.ch/delphi/MCprod/cern/hzha03pyth6156/va0e/208/hzha03pyth6156_hznu_208_30_13119.xsdst ! RUN = 13119 ! NEVT = 500
FILE = /castor/cern.ch/delphi/MCprod/cern/hzha03pyth6156/va0e/208/hzha03pyth6156_hznu_208_30_13120.xsdst ! RUN = 13120 ! NEVT = 499
