*
*   Nickname     : xs_bdk01eeee_e206.5_la0_1l_e1
*   Generic Name : //CERN/DELPHI/P02_SIMD/XSDST/BDK01EEEE/E206.5/LYON/SUMT/C001-500
*   Description  :  Extended Short DST simulation a0_e1 done at ecms=206.5 , Lyon
*---
*   Comments     : in total 997760 events in 500 files time stamp: Sun Oct  7 14:14:18 2001
*---
*
*
*
*
*
FILE = /castor/cern.ch/delphi/MCprod/lyon/bdk01/va0e/206.5/bdk01_eeee_206.5_10001.xsdst ! RUN = 10001 ! NEVT = 2000
FILE = /castor/cern.ch/delphi/MCprod/lyon/bdk01/va0e/206.5/bdk01_eeee_206.5_10002.xsdst ! RUN = 10002 ! NEVT = 2000
FILE = /castor/cern.ch/delphi/MCprod/lyon/bdk01/va0e/206.5/bdk01_eeee_206.5_10003.xsdst ! RUN = 10003 ! NEVT = 2000
FILE = /castor/cern.ch/delphi/MCprod/lyon/bdk01/va0e/206.5/bdk01_eeee_206.5_10004.xsdst ! RUN = 10004 ! NEVT = 2000
FILE = /castor/cern.ch/delphi/MCprod/lyon/bdk01/va0e/206.5/bdk01_eeee_206.5_10005.xsdst ! RUN = 10005 ! NEVT = 2000
FILE = /castor/cern.ch/delphi/MCprod/lyon/bdk01/va0e/206.5/bdk01_eeee_206.5_10006.xsdst ! RUN = 10006 ! NEVT = 2000
FILE = /castor/cern.ch/delphi/MCprod/lyon/bdk01/va0e/206.5/bdk01_eeee_206.5_10007.xsdst ! RUN = 10007 ! NEVT = 2000
FILE = /castor/cern.ch/delphi/MCprod/lyon/bdk01/va0e/206.5/bdk01_eeee_206.5_10008.xsdst ! RUN = 10008 ! NEVT = 2000
FILE = /castor/cern.ch/delphi/MCprod/lyon/bdk01/va0e/206.5/bdk01_eeee_206.5_10009.xsdst ! RUN = 10009 ! NEVT = 2000
FILE = /castor/cern.ch/delphi/MCprod/lyon/bdk01/va0e/206.5/bdk01_eeee_206.5_10010.xsdst ! RUN = 10010 ! NEVT = 2000
FILE = /castor/cern.ch/delphi/MCprod/lyon/bdk01/va0e/206.5/bdk01_eeee_206.5_10011.xsdst ! RUN = 10011 ! NEVT = 2000
FILE = /castor/cern.ch/delphi/MCprod/lyon/bdk01/va0e/206.5/bdk01_eeee_206.5_10012.xsdst ! RUN = 10012 ! NEVT = 2000
FILE = /castor/cern.ch/delphi/MCprod/lyon/bdk01/va0e/206.5/bdk01_eeee_206.5_10013.xsdst ! RUN = 10013 ! NEVT = 2000
FILE = /castor/cern.ch/delphi/MCprod/lyon/bdk01/va0e/206.5/bdk01_eeee_206.5_10014.xsdst ! RUN = 10014 ! NEVT = 2000
FILE = /castor/cern.ch/delphi/MCprod/lyon/bdk01/va0e/206.5/bdk01_eeee_206.5_10015.xsdst ! RUN = 10015 ! NEVT = 2000
FILE = /castor/cern.ch/delphi/MCprod/lyon/bdk01/va0e/206.5/bdk01_eeee_206.5_10016.xsdst ! RUN = 10016 ! NEVT = 2000
FILE = /castor/cern.ch/delphi/MCprod/lyon/bdk01/va0e/206.5/bdk01_eeee_206.5_10017.xsdst ! RUN = 10017 ! NEVT = 2000
FILE = /castor/cern.ch/delphi/MCprod/lyon/bdk01/va0e/206.5/bdk01_eeee_206.5_10018.xsdst ! RUN = 10018 ! NEVT = 2000
FILE = /castor/cern.ch/delphi/MCprod/lyon/bdk01/va0e/206.5/bdk01_eeee_206.5_10019.xsdst ! RUN = 10019 ! NEVT = 2000
FILE = /castor/cern.ch/delphi/MCprod/lyon/bdk01/va0e/206.5/bdk01_eeee_206.5_10020.xsdst ! RUN = 10020 ! NEVT = 2000
FILE = /castor/cern.ch/delphi/MCprod/lyon/bdk01/va0e/206.5/bdk01_eeee_206.5_10021.xsdst ! RUN = 10021 ! NEVT = 2000
FILE = /castor/cern.ch/delphi/MCprod/lyon/bdk01/va0e/206.5/bdk01_eeee_206.5_10022.xsdst ! RUN = 10022 ! NEVT = 2000
FILE = /castor/cern.ch/delphi/MCprod/lyon/bdk01/va0e/206.5/bdk01_eeee_206.5_10023.xsdst ! RUN = 10023 ! NEVT = 2000
FILE = /castor/cern.ch/delphi/MCprod/lyon/bdk01/va0e/206.5/bdk01_eeee_206.5_10024.xsdst ! RUN = 10024 ! NEVT = 2000
FILE = /castor/cern.ch/delphi/MCprod/lyon/bdk01/va0e/206.5/bdk01_eeee_206.5_10025.xsdst ! RUN = 10025 ! NEVT = 2000
FILE = /castor/cern.ch/delphi/MCprod/lyon/bdk01/va0e/206.5/bdk01_eeee_206.5_10026.xsdst ! RUN = 10026 ! NEVT = 2000
FILE = /castor/cern.ch/delphi/MCprod/lyon/bdk01/va0e/206.5/bdk01_eeee_206.5_10027.xsdst ! RUN = 10027 ! NEVT = 2000
FILE = /castor/cern.ch/delphi/MCprod/lyon/bdk01/va0e/206.5/bdk01_eeee_206.5_10028.xsdst ! RUN = 10028 ! NEVT = 2000
FILE = /castor/cern.ch/delphi/MCprod/lyon/bdk01/va0e/206.5/bdk01_eeee_206.5_10029.xsdst ! RUN = 10029 ! NEVT = 2000
FILE = /castor/cern.ch/delphi/MCprod/lyon/bdk01/va0e/206.5/bdk01_eeee_206.5_10030.xsdst ! RUN = 10030 ! NEVT = 2000
FILE = /castor/cern.ch/delphi/MCprod/lyon/bdk01/va0e/206.5/bdk01_eeee_206.5_10031.xsdst ! RUN = 10031 ! NEVT = 2000
FILE = /castor/cern.ch/delphi/MCprod/lyon/bdk01/va0e/206.5/bdk01_eeee_206.5_10032.xsdst ! RUN = 10032 ! NEVT = 2000
FILE = /castor/cern.ch/delphi/MCprod/lyon/bdk01/va0e/206.5/bdk01_eeee_206.5_10033.xsdst ! RUN = 10033 ! NEVT = 2000
FILE = /castor/cern.ch/delphi/MCprod/lyon/bdk01/va0e/206.5/bdk01_eeee_206.5_10034.xsdst ! RUN = 10034 ! NEVT = 2000
FILE = /castor/cern.ch/delphi/MCprod/lyon/bdk01/va0e/206.5/bdk01_eeee_206.5_10035.xsdst ! RUN = 10035 ! NEVT = 2000
FILE = /castor/cern.ch/delphi/MCprod/lyon/bdk01/va0e/206.5/bdk01_eeee_206.5_10036.xsdst ! RUN = 10036 ! NEVT = 2000
FILE = /castor/cern.ch/delphi/MCprod/lyon/bdk01/va0e/206.5/bdk01_eeee_206.5_10037.xsdst ! RUN = 10037 ! NEVT = 2000
FILE = /castor/cern.ch/delphi/MCprod/lyon/bdk01/va0e/206.5/bdk01_eeee_206.5_10038.xsdst ! RUN = 10038 ! NEVT = 2000
FILE = /castor/cern.ch/delphi/MCprod/lyon/bdk01/va0e/206.5/bdk01_eeee_206.5_10039.xsdst ! RUN = 10039 ! NEVT = 2000
FILE = /castor/cern.ch/delphi/MCprod/lyon/bdk01/va0e/206.5/bdk01_eeee_206.5_10040.xsdst ! RUN = 10040 ! NEVT = 2000
FILE = /castor/cern.ch/delphi/MCprod/lyon/bdk01/va0e/206.5/bdk01_eeee_206.5_10041.xsdst ! RUN = 10041 ! NEVT = 2000
FILE = /castor/cern.ch/delphi/MCprod/lyon/bdk01/va0e/206.5/bdk01_eeee_206.5_10042.xsdst ! RUN = 10042 ! NEVT = 2000
FILE = /castor/cern.ch/delphi/MCprod/lyon/bdk01/va0e/206.5/bdk01_eeee_206.5_10043.xsdst ! RUN = 10043 ! NEVT = 2000
FILE = /castor/cern.ch/delphi/MCprod/lyon/bdk01/va0e/206.5/bdk01_eeee_206.5_10044.xsdst ! RUN = 10044 ! NEVT = 2000
FILE = /castor/cern.ch/delphi/MCprod/lyon/bdk01/va0e/206.5/bdk01_eeee_206.5_10045.xsdst ! RUN = 10045 ! NEVT = 2000
FILE = /castor/cern.ch/delphi/MCprod/lyon/bdk01/va0e/206.5/bdk01_eeee_206.5_10046.xsdst ! RUN = 10046 ! NEVT = 2000
FILE = /castor/cern.ch/delphi/MCprod/lyon/bdk01/va0e/206.5/bdk01_eeee_206.5_10047.xsdst ! RUN = 10047 ! NEVT = 2000
FILE = /castor/cern.ch/delphi/MCprod/lyon/bdk01/va0e/206.5/bdk01_eeee_206.5_10048.xsdst ! RUN = 10048 ! NEVT = 2000
FILE = /castor/cern.ch/delphi/MCprod/lyon/bdk01/va0e/206.5/bdk01_eeee_206.5_10049.xsdst ! RUN = 10049 ! NEVT = 2000
FILE = /castor/cern.ch/delphi/MCprod/lyon/bdk01/va0e/206.5/bdk01_eeee_206.5_10050.xsdst ! RUN = 10050 ! NEVT = 2000
FILE = /castor/cern.ch/delphi/MCprod/lyon/bdk01/va0e/206.5/bdk01_eeee_206.5_10051.xsdst ! RUN = 10051 ! NEVT = 2000
FILE = /castor/cern.ch/delphi/MCprod/lyon/bdk01/va0e/206.5/bdk01_eeee_206.5_10052.xsdst ! RUN = 10052 ! NEVT = 2000
FILE = /castor/cern.ch/delphi/MCprod/lyon/bdk01/va0e/206.5/bdk01_eeee_206.5_10053.xsdst ! RUN = 10053 ! NEVT = 2000
FILE = /castor/cern.ch/delphi/MCprod/lyon/bdk01/va0e/206.5/bdk01_eeee_206.5_10054.xsdst ! RUN = 10054 ! NEVT = 2000
FILE = /castor/cern.ch/delphi/MCprod/lyon/bdk01/va0e/206.5/bdk01_eeee_206.5_10055.xsdst ! RUN = 10055 ! NEVT = 2000
FILE = /castor/cern.ch/delphi/MCprod/lyon/bdk01/va0e/206.5/bdk01_eeee_206.5_10056.xsdst ! RUN = 10056 ! NEVT = 2000
FILE = /castor/cern.ch/delphi/MCprod/lyon/bdk01/va0e/206.5/bdk01_eeee_206.5_10057.xsdst ! RUN = 10057 ! NEVT = 2000
FILE = /castor/cern.ch/delphi/MCprod/lyon/bdk01/va0e/206.5/bdk01_eeee_206.5_10058.xsdst ! RUN = 10058 ! NEVT = 2000
FILE = /castor/cern.ch/delphi/MCprod/lyon/bdk01/va0e/206.5/bdk01_eeee_206.5_10059.xsdst ! RUN = 10059 ! NEVT = 2000
FILE = /castor/cern.ch/delphi/MCprod/lyon/bdk01/va0e/206.5/bdk01_eeee_206.5_10060.xsdst ! RUN = 10060 ! NEVT = 2000
FILE = /castor/cern.ch/delphi/MCprod/lyon/bdk01/va0e/206.5/bdk01_eeee_206.5_10061.xsdst ! RUN = 10061 ! NEVT = 2000
FILE = /castor/cern.ch/delphi/MCprod/lyon/bdk01/va0e/206.5/bdk01_eeee_206.5_10062.xsdst ! RUN = 10062 ! NEVT = 2000
FILE = /castor/cern.ch/delphi/MCprod/lyon/bdk01/va0e/206.5/bdk01_eeee_206.5_10063.xsdst ! RUN = 10063 ! NEVT = 2000
FILE = /castor/cern.ch/delphi/MCprod/lyon/bdk01/va0e/206.5/bdk01_eeee_206.5_10064.xsdst ! RUN = 10064 ! NEVT = 2000
FILE = /castor/cern.ch/delphi/MCprod/lyon/bdk01/va0e/206.5/bdk01_eeee_206.5_10065.xsdst ! RUN = 10065 ! NEVT = 2000
FILE = /castor/cern.ch/delphi/MCprod/lyon/bdk01/va0e/206.5/bdk01_eeee_206.5_10066.xsdst ! RUN = 10066 ! NEVT = 2000
FILE = /castor/cern.ch/delphi/MCprod/lyon/bdk01/va0e/206.5/bdk01_eeee_206.5_10067.xsdst ! RUN = 10067 ! NEVT = 2000
FILE = /castor/cern.ch/delphi/MCprod/lyon/bdk01/va0e/206.5/bdk01_eeee_206.5_10068.xsdst ! RUN = 10068 ! NEVT = 2000
FILE = /castor/cern.ch/delphi/MCprod/lyon/bdk01/va0e/206.5/bdk01_eeee_206.5_10069.xsdst ! RUN = 10069 ! NEVT = 2000
FILE = /castor/cern.ch/delphi/MCprod/lyon/bdk01/va0e/206.5/bdk01_eeee_206.5_10070.xsdst ! RUN = 10070 ! NEVT = 2000
FILE = /castor/cern.ch/delphi/MCprod/lyon/bdk01/va0e/206.5/bdk01_eeee_206.5_10071.xsdst ! RUN = 10071 ! NEVT = 2000
FILE = /castor/cern.ch/delphi/MCprod/lyon/bdk01/va0e/206.5/bdk01_eeee_206.5_10072.xsdst ! RUN = 10072 ! NEVT = 2000
FILE = /castor/cern.ch/delphi/MCprod/lyon/bdk01/va0e/206.5/bdk01_eeee_206.5_10073.xsdst ! RUN = 10073 ! NEVT = 2000
FILE = /castor/cern.ch/delphi/MCprod/lyon/bdk01/va0e/206.5/bdk01_eeee_206.5_10074.xsdst ! RUN = 10074 ! NEVT = 2000
FILE = /castor/cern.ch/delphi/MCprod/lyon/bdk01/va0e/206.5/bdk01_eeee_206.5_10075.xsdst ! RUN = 10075 ! NEVT = 2000
FILE = /castor/cern.ch/delphi/MCprod/lyon/bdk01/va0e/206.5/bdk01_eeee_206.5_10076.xsdst ! RUN = 10076 ! NEVT = 2000
FILE = /castor/cern.ch/delphi/MCprod/lyon/bdk01/va0e/206.5/bdk01_eeee_206.5_10077.xsdst ! RUN = 10077 ! NEVT = 2000
FILE = /castor/cern.ch/delphi/MCprod/lyon/bdk01/va0e/206.5/bdk01_eeee_206.5_10078.xsdst ! RUN = 10078 ! NEVT = 2000
FILE = /castor/cern.ch/delphi/MCprod/lyon/bdk01/va0e/206.5/bdk01_eeee_206.5_10079.xsdst ! RUN = 10079 ! NEVT = 749
FILE = /castor/cern.ch/delphi/MCprod/lyon/bdk01/va0e/206.5/bdk01_eeee_206.5_10080.xsdst ! RUN = 10080 ! NEVT = 1976
FILE = /castor/cern.ch/delphi/MCprod/lyon/bdk01/va0e/206.5/bdk01_eeee_206.5_10081.xsdst ! RUN = 10081 ! NEVT = 2000
FILE = /castor/cern.ch/delphi/MCprod/lyon/bdk01/va0e/206.5/bdk01_eeee_206.5_10082.xsdst ! RUN = 10082 ! NEVT = 2000
FILE = /castor/cern.ch/delphi/MCprod/lyon/bdk01/va0e/206.5/bdk01_eeee_206.5_10083.xsdst ! RUN = 10083 ! NEVT = 2000
FILE = /castor/cern.ch/delphi/MCprod/lyon/bdk01/va0e/206.5/bdk01_eeee_206.5_10084.xsdst ! RUN = 10084 ! NEVT = 2000
FILE = /castor/cern.ch/delphi/MCprod/lyon/bdk01/va0e/206.5/bdk01_eeee_206.5_10085.xsdst ! RUN = 10085 ! NEVT = 2000
FILE = /castor/cern.ch/delphi/MCprod/lyon/bdk01/va0e/206.5/bdk01_eeee_206.5_10086.xsdst ! RUN = 10086 ! NEVT = 2000
FILE = /castor/cern.ch/delphi/MCprod/lyon/bdk01/va0e/206.5/bdk01_eeee_206.5_10087.xsdst ! RUN = 10087 ! NEVT = 2000
FILE = /castor/cern.ch/delphi/MCprod/lyon/bdk01/va0e/206.5/bdk01_eeee_206.5_10088.xsdst ! RUN = 10088 ! NEVT = 2000
FILE = /castor/cern.ch/delphi/MCprod/lyon/bdk01/va0e/206.5/bdk01_eeee_206.5_10089.xsdst ! RUN = 10089 ! NEVT = 2000
FILE = /castor/cern.ch/delphi/MCprod/lyon/bdk01/va0e/206.5/bdk01_eeee_206.5_10090.xsdst ! RUN = 10090 ! NEVT = 2000
FILE = /castor/cern.ch/delphi/MCprod/lyon/bdk01/va0e/206.5/bdk01_eeee_206.5_10091.xsdst ! RUN = 10091 ! NEVT = 2000
FILE = /castor/cern.ch/delphi/MCprod/lyon/bdk01/va0e/206.5/bdk01_eeee_206.5_10092.xsdst ! RUN = 10092 ! NEVT = 2000
FILE = /castor/cern.ch/delphi/MCprod/lyon/bdk01/va0e/206.5/bdk01_eeee_206.5_10093.xsdst ! RUN = 10093 ! NEVT = 2000
FILE = /castor/cern.ch/delphi/MCprod/lyon/bdk01/va0e/206.5/bdk01_eeee_206.5_10094.xsdst ! RUN = 10094 ! NEVT = 2000
FILE = /castor/cern.ch/delphi/MCprod/lyon/bdk01/va0e/206.5/bdk01_eeee_206.5_10095.xsdst ! RUN = 10095 ! NEVT = 2000
FILE = /castor/cern.ch/delphi/MCprod/lyon/bdk01/va0e/206.5/bdk01_eeee_206.5_10096.xsdst ! RUN = 10096 ! NEVT = 2000
FILE = /castor/cern.ch/delphi/MCprod/lyon/bdk01/va0e/206.5/bdk01_eeee_206.5_10097.xsdst ! RUN = 10097 ! NEVT = 2000
FILE = /castor/cern.ch/delphi/MCprod/lyon/bdk01/va0e/206.5/bdk01_eeee_206.5_10098.xsdst ! RUN = 10098 ! NEVT = 2000
FILE = /castor/cern.ch/delphi/MCprod/lyon/bdk01/va0e/206.5/bdk01_eeee_206.5_10099.xsdst ! RUN = 10099 ! NEVT = 2000
FILE = /castor/cern.ch/delphi/MCprod/lyon/bdk01/va0e/206.5/bdk01_eeee_206.5_10100.xsdst ! RUN = 10100 ! NEVT = 2000
FILE = /castor/cern.ch/delphi/MCprod/lyon/bdk01/va0e/206.5/bdk01_eeee_206.5_10101.xsdst ! RUN = 10101 ! NEVT = 2000
FILE = /castor/cern.ch/delphi/MCprod/lyon/bdk01/va0e/206.5/bdk01_eeee_206.5_10102.xsdst ! RUN = 10102 ! NEVT = 2000
FILE = /castor/cern.ch/delphi/MCprod/lyon/bdk01/va0e/206.5/bdk01_eeee_206.5_10103.xsdst ! RUN = 10103 ! NEVT = 2000
FILE = /castor/cern.ch/delphi/MCprod/lyon/bdk01/va0e/206.5/bdk01_eeee_206.5_10104.xsdst ! RUN = 10104 ! NEVT = 2000
FILE = /castor/cern.ch/delphi/MCprod/lyon/bdk01/va0e/206.5/bdk01_eeee_206.5_10105.xsdst ! RUN = 10105 ! NEVT = 2000
FILE = /castor/cern.ch/delphi/MCprod/lyon/bdk01/va0e/206.5/bdk01_eeee_206.5_10106.xsdst ! RUN = 10106 ! NEVT = 2000
FILE = /castor/cern.ch/delphi/MCprod/lyon/bdk01/va0e/206.5/bdk01_eeee_206.5_10107.xsdst ! RUN = 10107 ! NEVT = 2000
FILE = /castor/cern.ch/delphi/MCprod/lyon/bdk01/va0e/206.5/bdk01_eeee_206.5_10108.xsdst ! RUN = 10108 ! NEVT = 2000
FILE = /castor/cern.ch/delphi/MCprod/lyon/bdk01/va0e/206.5/bdk01_eeee_206.5_10109.xsdst ! RUN = 10109 ! NEVT = 2000
FILE = /castor/cern.ch/delphi/MCprod/lyon/bdk01/va0e/206.5/bdk01_eeee_206.5_10110.xsdst ! RUN = 10110 ! NEVT = 2000
FILE = /castor/cern.ch/delphi/MCprod/lyon/bdk01/va0e/206.5/bdk01_eeee_206.5_10111.xsdst ! RUN = 10111 ! NEVT = 2000
FILE = /castor/cern.ch/delphi/MCprod/lyon/bdk01/va0e/206.5/bdk01_eeee_206.5_10112.xsdst ! RUN = 10112 ! NEVT = 2000
FILE = /castor/cern.ch/delphi/MCprod/lyon/bdk01/va0e/206.5/bdk01_eeee_206.5_10113.xsdst ! RUN = 10113 ! NEVT = 2000
FILE = /castor/cern.ch/delphi/MCprod/lyon/bdk01/va0e/206.5/bdk01_eeee_206.5_10114.xsdst ! RUN = 10114 ! NEVT = 2000
FILE = /castor/cern.ch/delphi/MCprod/lyon/bdk01/va0e/206.5/bdk01_eeee_206.5_10115.xsdst ! RUN = 10115 ! NEVT = 2000
FILE = /castor/cern.ch/delphi/MCprod/lyon/bdk01/va0e/206.5/bdk01_eeee_206.5_10116.xsdst ! RUN = 10116 ! NEVT = 2000
FILE = /castor/cern.ch/delphi/MCprod/lyon/bdk01/va0e/206.5/bdk01_eeee_206.5_10117.xsdst ! RUN = 10117 ! NEVT = 2000
FILE = /castor/cern.ch/delphi/MCprod/lyon/bdk01/va0e/206.5/bdk01_eeee_206.5_10118.xsdst ! RUN = 10118 ! NEVT = 2000
FILE = /castor/cern.ch/delphi/MCprod/lyon/bdk01/va0e/206.5/bdk01_eeee_206.5_10119.xsdst ! RUN = 10119 ! NEVT = 2000
FILE = /castor/cern.ch/delphi/MCprod/lyon/bdk01/va0e/206.5/bdk01_eeee_206.5_10120.xsdst ! RUN = 10120 ! NEVT = 2000
FILE = /castor/cern.ch/delphi/MCprod/lyon/bdk01/va0e/206.5/bdk01_eeee_206.5_10121.xsdst ! RUN = 10121 ! NEVT = 2000
FILE = /castor/cern.ch/delphi/MCprod/lyon/bdk01/va0e/206.5/bdk01_eeee_206.5_10122.xsdst ! RUN = 10122 ! NEVT = 2000
FILE = /castor/cern.ch/delphi/MCprod/lyon/bdk01/va0e/206.5/bdk01_eeee_206.5_10123.xsdst ! RUN = 10123 ! NEVT = 2000
FILE = /castor/cern.ch/delphi/MCprod/lyon/bdk01/va0e/206.5/bdk01_eeee_206.5_10124.xsdst ! RUN = 10124 ! NEVT = 2000
FILE = /castor/cern.ch/delphi/MCprod/lyon/bdk01/va0e/206.5/bdk01_eeee_206.5_10125.xsdst ! RUN = 10125 ! NEVT = 2000
FILE = /castor/cern.ch/delphi/MCprod/lyon/bdk01/va0e/206.5/bdk01_eeee_206.5_10126.xsdst ! RUN = 10126 ! NEVT = 2000
FILE = /castor/cern.ch/delphi/MCprod/lyon/bdk01/va0e/206.5/bdk01_eeee_206.5_10127.xsdst ! RUN = 10127 ! NEVT = 2000
FILE = /castor/cern.ch/delphi/MCprod/lyon/bdk01/va0e/206.5/bdk01_eeee_206.5_10128.xsdst ! RUN = 10128 ! NEVT = 2000
FILE = /castor/cern.ch/delphi/MCprod/lyon/bdk01/va0e/206.5/bdk01_eeee_206.5_10129.xsdst ! RUN = 10129 ! NEVT = 2000
FILE = /castor/cern.ch/delphi/MCprod/lyon/bdk01/va0e/206.5/bdk01_eeee_206.5_10130.xsdst ! RUN = 10130 ! NEVT = 2000
FILE = /castor/cern.ch/delphi/MCprod/lyon/bdk01/va0e/206.5/bdk01_eeee_206.5_10131.xsdst ! RUN = 10131 ! NEVT = 2000
FILE = /castor/cern.ch/delphi/MCprod/lyon/bdk01/va0e/206.5/bdk01_eeee_206.5_10132.xsdst ! RUN = 10132 ! NEVT = 2000
FILE = /castor/cern.ch/delphi/MCprod/lyon/bdk01/va0e/206.5/bdk01_eeee_206.5_10133.xsdst ! RUN = 10133 ! NEVT = 2000
FILE = /castor/cern.ch/delphi/MCprod/lyon/bdk01/va0e/206.5/bdk01_eeee_206.5_10134.xsdst ! RUN = 10134 ! NEVT = 2000
FILE = /castor/cern.ch/delphi/MCprod/lyon/bdk01/va0e/206.5/bdk01_eeee_206.5_10135.xsdst ! RUN = 10135 ! NEVT = 2000
FILE = /castor/cern.ch/delphi/MCprod/lyon/bdk01/va0e/206.5/bdk01_eeee_206.5_10136.xsdst ! RUN = 10136 ! NEVT = 2000
FILE = /castor/cern.ch/delphi/MCprod/lyon/bdk01/va0e/206.5/bdk01_eeee_206.5_10137.xsdst ! RUN = 10137 ! NEVT = 2000
FILE = /castor/cern.ch/delphi/MCprod/lyon/bdk01/va0e/206.5/bdk01_eeee_206.5_10138.xsdst ! RUN = 10138 ! NEVT = 2000
FILE = /castor/cern.ch/delphi/MCprod/lyon/bdk01/va0e/206.5/bdk01_eeee_206.5_10139.xsdst ! RUN = 10139 ! NEVT = 2000
FILE = /castor/cern.ch/delphi/MCprod/lyon/bdk01/va0e/206.5/bdk01_eeee_206.5_10140.xsdst ! RUN = 10140 ! NEVT = 2000
FILE = /castor/cern.ch/delphi/MCprod/lyon/bdk01/va0e/206.5/bdk01_eeee_206.5_10141.xsdst ! RUN = 10141 ! NEVT = 2000
FILE = /castor/cern.ch/delphi/MCprod/lyon/bdk01/va0e/206.5/bdk01_eeee_206.5_10142.xsdst ! RUN = 10142 ! NEVT = 1939
FILE = /castor/cern.ch/delphi/MCprod/lyon/bdk01/va0e/206.5/bdk01_eeee_206.5_10143.xsdst ! RUN = 10143 ! NEVT = 2000
FILE = /castor/cern.ch/delphi/MCprod/lyon/bdk01/va0e/206.5/bdk01_eeee_206.5_10144.xsdst ! RUN = 10144 ! NEVT = 2000
FILE = /castor/cern.ch/delphi/MCprod/lyon/bdk01/va0e/206.5/bdk01_eeee_206.5_10145.xsdst ! RUN = 10145 ! NEVT = 2000
FILE = /castor/cern.ch/delphi/MCprod/lyon/bdk01/va0e/206.5/bdk01_eeee_206.5_10146.xsdst ! RUN = 10146 ! NEVT = 2000
FILE = /castor/cern.ch/delphi/MCprod/lyon/bdk01/va0e/206.5/bdk01_eeee_206.5_10147.xsdst ! RUN = 10147 ! NEVT = 2000
FILE = /castor/cern.ch/delphi/MCprod/lyon/bdk01/va0e/206.5/bdk01_eeee_206.5_10148.xsdst ! RUN = 10148 ! NEVT = 2000
FILE = /castor/cern.ch/delphi/MCprod/lyon/bdk01/va0e/206.5/bdk01_eeee_206.5_10149.xsdst ! RUN = 10149 ! NEVT = 2000
FILE = /castor/cern.ch/delphi/MCprod/lyon/bdk01/va0e/206.5/bdk01_eeee_206.5_10150.xsdst ! RUN = 10150 ! NEVT = 2000
FILE = /castor/cern.ch/delphi/MCprod/lyon/bdk01/va0e/206.5/bdk01_eeee_206.5_10151.xsdst ! RUN = 10151 ! NEVT = 2000
FILE = /castor/cern.ch/delphi/MCprod/lyon/bdk01/va0e/206.5/bdk01_eeee_206.5_10152.xsdst ! RUN = 10152 ! NEVT = 2000
FILE = /castor/cern.ch/delphi/MCprod/lyon/bdk01/va0e/206.5/bdk01_eeee_206.5_10153.xsdst ! RUN = 10153 ! NEVT = 2000
FILE = /castor/cern.ch/delphi/MCprod/lyon/bdk01/va0e/206.5/bdk01_eeee_206.5_10154.xsdst ! RUN = 10154 ! NEVT = 2000
FILE = /castor/cern.ch/delphi/MCprod/lyon/bdk01/va0e/206.5/bdk01_eeee_206.5_10155.xsdst ! RUN = 10155 ! NEVT = 2000
FILE = /castor/cern.ch/delphi/MCprod/lyon/bdk01/va0e/206.5/bdk01_eeee_206.5_10156.xsdst ! RUN = 10156 ! NEVT = 2000
FILE = /castor/cern.ch/delphi/MCprod/lyon/bdk01/va0e/206.5/bdk01_eeee_206.5_10157.xsdst ! RUN = 10157 ! NEVT = 2000
FILE = /castor/cern.ch/delphi/MCprod/lyon/bdk01/va0e/206.5/bdk01_eeee_206.5_10158.xsdst ! RUN = 10158 ! NEVT = 2000
FILE = /castor/cern.ch/delphi/MCprod/lyon/bdk01/va0e/206.5/bdk01_eeee_206.5_10159.xsdst ! RUN = 10159 ! NEVT = 2000
FILE = /castor/cern.ch/delphi/MCprod/lyon/bdk01/va0e/206.5/bdk01_eeee_206.5_10160.xsdst ! RUN = 10160 ! NEVT = 2000
FILE = /castor/cern.ch/delphi/MCprod/lyon/bdk01/va0e/206.5/bdk01_eeee_206.5_10161.xsdst ! RUN = 10161 ! NEVT = 2000
FILE = /castor/cern.ch/delphi/MCprod/lyon/bdk01/va0e/206.5/bdk01_eeee_206.5_10162.xsdst ! RUN = 10162 ! NEVT = 2000
FILE = /castor/cern.ch/delphi/MCprod/lyon/bdk01/va0e/206.5/bdk01_eeee_206.5_10163.xsdst ! RUN = 10163 ! NEVT = 2000
FILE = /castor/cern.ch/delphi/MCprod/lyon/bdk01/va0e/206.5/bdk01_eeee_206.5_10164.xsdst ! RUN = 10164 ! NEVT = 2000
FILE = /castor/cern.ch/delphi/MCprod/lyon/bdk01/va0e/206.5/bdk01_eeee_206.5_10165.xsdst ! RUN = 10165 ! NEVT = 2000
FILE = /castor/cern.ch/delphi/MCprod/lyon/bdk01/va0e/206.5/bdk01_eeee_206.5_10166.xsdst ! RUN = 10166 ! NEVT = 2000
FILE = /castor/cern.ch/delphi/MCprod/lyon/bdk01/va0e/206.5/bdk01_eeee_206.5_10167.xsdst ! RUN = 10167 ! NEVT = 2000
FILE = /castor/cern.ch/delphi/MCprod/lyon/bdk01/va0e/206.5/bdk01_eeee_206.5_10168.xsdst ! RUN = 10168 ! NEVT = 2000
FILE = /castor/cern.ch/delphi/MCprod/lyon/bdk01/va0e/206.5/bdk01_eeee_206.5_10169.xsdst ! RUN = 10169 ! NEVT = 2000
FILE = /castor/cern.ch/delphi/MCprod/lyon/bdk01/va0e/206.5/bdk01_eeee_206.5_10170.xsdst ! RUN = 10170 ! NEVT = 2000
FILE = /castor/cern.ch/delphi/MCprod/lyon/bdk01/va0e/206.5/bdk01_eeee_206.5_10171.xsdst ! RUN = 10171 ! NEVT = 2000
FILE = /castor/cern.ch/delphi/MCprod/lyon/bdk01/va0e/206.5/bdk01_eeee_206.5_10172.xsdst ! RUN = 10172 ! NEVT = 2000
FILE = /castor/cern.ch/delphi/MCprod/lyon/bdk01/va0e/206.5/bdk01_eeee_206.5_10173.xsdst ! RUN = 10173 ! NEVT = 2000
FILE = /castor/cern.ch/delphi/MCprod/lyon/bdk01/va0e/206.5/bdk01_eeee_206.5_10174.xsdst ! RUN = 10174 ! NEVT = 2000
FILE = /castor/cern.ch/delphi/MCprod/lyon/bdk01/va0e/206.5/bdk01_eeee_206.5_10175.xsdst ! RUN = 10175 ! NEVT = 2000
FILE = /castor/cern.ch/delphi/MCprod/lyon/bdk01/va0e/206.5/bdk01_eeee_206.5_10176.xsdst ! RUN = 10176 ! NEVT = 2000
FILE = /castor/cern.ch/delphi/MCprod/lyon/bdk01/va0e/206.5/bdk01_eeee_206.5_10177.xsdst ! RUN = 10177 ! NEVT = 2000
FILE = /castor/cern.ch/delphi/MCprod/lyon/bdk01/va0e/206.5/bdk01_eeee_206.5_10178.xsdst ! RUN = 10178 ! NEVT = 2000
FILE = /castor/cern.ch/delphi/MCprod/lyon/bdk01/va0e/206.5/bdk01_eeee_206.5_10179.xsdst ! RUN = 10179 ! NEVT = 2000
FILE = /castor/cern.ch/delphi/MCprod/lyon/bdk01/va0e/206.5/bdk01_eeee_206.5_10180.xsdst ! RUN = 10180 ! NEVT = 2000
FILE = /castor/cern.ch/delphi/MCprod/lyon/bdk01/va0e/206.5/bdk01_eeee_206.5_10181.xsdst ! RUN = 10181 ! NEVT = 2000
FILE = /castor/cern.ch/delphi/MCprod/lyon/bdk01/va0e/206.5/bdk01_eeee_206.5_10182.xsdst ! RUN = 10182 ! NEVT = 2000
FILE = /castor/cern.ch/delphi/MCprod/lyon/bdk01/va0e/206.5/bdk01_eeee_206.5_10183.xsdst ! RUN = 10183 ! NEVT = 2000
FILE = /castor/cern.ch/delphi/MCprod/lyon/bdk01/va0e/206.5/bdk01_eeee_206.5_10184.xsdst ! RUN = 10184 ! NEVT = 2000
FILE = /castor/cern.ch/delphi/MCprod/lyon/bdk01/va0e/206.5/bdk01_eeee_206.5_10185.xsdst ! RUN = 10185 ! NEVT = 2000
FILE = /castor/cern.ch/delphi/MCprod/lyon/bdk01/va0e/206.5/bdk01_eeee_206.5_10186.xsdst ! RUN = 10186 ! NEVT = 2000
FILE = /castor/cern.ch/delphi/MCprod/lyon/bdk01/va0e/206.5/bdk01_eeee_206.5_10187.xsdst ! RUN = 10187 ! NEVT = 2000
FILE = /castor/cern.ch/delphi/MCprod/lyon/bdk01/va0e/206.5/bdk01_eeee_206.5_10188.xsdst ! RUN = 10188 ! NEVT = 2000
FILE = /castor/cern.ch/delphi/MCprod/lyon/bdk01/va0e/206.5/bdk01_eeee_206.5_10189.xsdst ! RUN = 10189 ! NEVT = 2000
FILE = /castor/cern.ch/delphi/MCprod/lyon/bdk01/va0e/206.5/bdk01_eeee_206.5_10190.xsdst ! RUN = 10190 ! NEVT = 2000
FILE = /castor/cern.ch/delphi/MCprod/lyon/bdk01/va0e/206.5/bdk01_eeee_206.5_10191.xsdst ! RUN = 10191 ! NEVT = 2000
FILE = /castor/cern.ch/delphi/MCprod/lyon/bdk01/va0e/206.5/bdk01_eeee_206.5_10192.xsdst ! RUN = 10192 ! NEVT = 2000
FILE = /castor/cern.ch/delphi/MCprod/lyon/bdk01/va0e/206.5/bdk01_eeee_206.5_10193.xsdst ! RUN = 10193 ! NEVT = 2000
FILE = /castor/cern.ch/delphi/MCprod/lyon/bdk01/va0e/206.5/bdk01_eeee_206.5_10194.xsdst ! RUN = 10194 ! NEVT = 2000
FILE = /castor/cern.ch/delphi/MCprod/lyon/bdk01/va0e/206.5/bdk01_eeee_206.5_10195.xsdst ! RUN = 10195 ! NEVT = 2000
FILE = /castor/cern.ch/delphi/MCprod/lyon/bdk01/va0e/206.5/bdk01_eeee_206.5_10196.xsdst ! RUN = 10196 ! NEVT = 2000
FILE = /castor/cern.ch/delphi/MCprod/lyon/bdk01/va0e/206.5/bdk01_eeee_206.5_10197.xsdst ! RUN = 10197 ! NEVT = 2000
FILE = /castor/cern.ch/delphi/MCprod/lyon/bdk01/va0e/206.5/bdk01_eeee_206.5_10198.xsdst ! RUN = 10198 ! NEVT = 2000
FILE = /castor/cern.ch/delphi/MCprod/lyon/bdk01/va0e/206.5/bdk01_eeee_206.5_10199.xsdst ! RUN = 10199 ! NEVT = 2000
FILE = /castor/cern.ch/delphi/MCprod/lyon/bdk01/va0e/206.5/bdk01_eeee_206.5_10200.xsdst ! RUN = 10200 ! NEVT = 2000
FILE = /castor/cern.ch/delphi/MCprod/lyon/bdk01/va0e/206.5/bdk01_eeee_206.5_10201.xsdst ! RUN = 10201 ! NEVT = 2000
FILE = /castor/cern.ch/delphi/MCprod/lyon/bdk01/va0e/206.5/bdk01_eeee_206.5_10202.xsdst ! RUN = 10202 ! NEVT = 2000
FILE = /castor/cern.ch/delphi/MCprod/lyon/bdk01/va0e/206.5/bdk01_eeee_206.5_10203.xsdst ! RUN = 10203 ! NEVT = 2000
FILE = /castor/cern.ch/delphi/MCprod/lyon/bdk01/va0e/206.5/bdk01_eeee_206.5_10204.xsdst ! RUN = 10204 ! NEVT = 2000
FILE = /castor/cern.ch/delphi/MCprod/lyon/bdk01/va0e/206.5/bdk01_eeee_206.5_10205.xsdst ! RUN = 10205 ! NEVT = 2000
FILE = /castor/cern.ch/delphi/MCprod/lyon/bdk01/va0e/206.5/bdk01_eeee_206.5_10206.xsdst ! RUN = 10206 ! NEVT = 2000
FILE = /castor/cern.ch/delphi/MCprod/lyon/bdk01/va0e/206.5/bdk01_eeee_206.5_10207.xsdst ! RUN = 10207 ! NEVT = 2000
FILE = /castor/cern.ch/delphi/MCprod/lyon/bdk01/va0e/206.5/bdk01_eeee_206.5_10208.xsdst ! RUN = 10208 ! NEVT = 2000
FILE = /castor/cern.ch/delphi/MCprod/lyon/bdk01/va0e/206.5/bdk01_eeee_206.5_10209.xsdst ! RUN = 10209 ! NEVT = 2000
FILE = /castor/cern.ch/delphi/MCprod/lyon/bdk01/va0e/206.5/bdk01_eeee_206.5_10210.xsdst ! RUN = 10210 ! NEVT = 2000
FILE = /castor/cern.ch/delphi/MCprod/lyon/bdk01/va0e/206.5/bdk01_eeee_206.5_10211.xsdst ! RUN = 10211 ! NEVT = 2000
FILE = /castor/cern.ch/delphi/MCprod/lyon/bdk01/va0e/206.5/bdk01_eeee_206.5_10212.xsdst ! RUN = 10212 ! NEVT = 2000
FILE = /castor/cern.ch/delphi/MCprod/lyon/bdk01/va0e/206.5/bdk01_eeee_206.5_10213.xsdst ! RUN = 10213 ! NEVT = 2000
FILE = /castor/cern.ch/delphi/MCprod/lyon/bdk01/va0e/206.5/bdk01_eeee_206.5_10214.xsdst ! RUN = 10214 ! NEVT = 2000
FILE = /castor/cern.ch/delphi/MCprod/lyon/bdk01/va0e/206.5/bdk01_eeee_206.5_10215.xsdst ! RUN = 10215 ! NEVT = 2000
FILE = /castor/cern.ch/delphi/MCprod/lyon/bdk01/va0e/206.5/bdk01_eeee_206.5_10216.xsdst ! RUN = 10216 ! NEVT = 2000
FILE = /castor/cern.ch/delphi/MCprod/lyon/bdk01/va0e/206.5/bdk01_eeee_206.5_10217.xsdst ! RUN = 10217 ! NEVT = 2000
FILE = /castor/cern.ch/delphi/MCprod/lyon/bdk01/va0e/206.5/bdk01_eeee_206.5_10218.xsdst ! RUN = 10218 ! NEVT = 2000
FILE = /castor/cern.ch/delphi/MCprod/lyon/bdk01/va0e/206.5/bdk01_eeee_206.5_10219.xsdst ! RUN = 10219 ! NEVT = 2000
FILE = /castor/cern.ch/delphi/MCprod/lyon/bdk01/va0e/206.5/bdk01_eeee_206.5_10220.xsdst ! RUN = 10220 ! NEVT = 2000
FILE = /castor/cern.ch/delphi/MCprod/lyon/bdk01/va0e/206.5/bdk01_eeee_206.5_10221.xsdst ! RUN = 10221 ! NEVT = 2000
FILE = /castor/cern.ch/delphi/MCprod/lyon/bdk01/va0e/206.5/bdk01_eeee_206.5_10222.xsdst ! RUN = 10222 ! NEVT = 2000
FILE = /castor/cern.ch/delphi/MCprod/lyon/bdk01/va0e/206.5/bdk01_eeee_206.5_10223.xsdst ! RUN = 10223 ! NEVT = 2000
FILE = /castor/cern.ch/delphi/MCprod/lyon/bdk01/va0e/206.5/bdk01_eeee_206.5_10224.xsdst ! RUN = 10224 ! NEVT = 2000
FILE = /castor/cern.ch/delphi/MCprod/lyon/bdk01/va0e/206.5/bdk01_eeee_206.5_10225.xsdst ! RUN = 10225 ! NEVT = 2000
FILE = /castor/cern.ch/delphi/MCprod/lyon/bdk01/va0e/206.5/bdk01_eeee_206.5_10226.xsdst ! RUN = 10226 ! NEVT = 2000
FILE = /castor/cern.ch/delphi/MCprod/lyon/bdk01/va0e/206.5/bdk01_eeee_206.5_10227.xsdst ! RUN = 10227 ! NEVT = 2000
FILE = /castor/cern.ch/delphi/MCprod/lyon/bdk01/va0e/206.5/bdk01_eeee_206.5_10228.xsdst ! RUN = 10228 ! NEVT = 2000
FILE = /castor/cern.ch/delphi/MCprod/lyon/bdk01/va0e/206.5/bdk01_eeee_206.5_10229.xsdst ! RUN = 10229 ! NEVT = 2000
FILE = /castor/cern.ch/delphi/MCprod/lyon/bdk01/va0e/206.5/bdk01_eeee_206.5_10230.xsdst ! RUN = 10230 ! NEVT = 2000
FILE = /castor/cern.ch/delphi/MCprod/lyon/bdk01/va0e/206.5/bdk01_eeee_206.5_10231.xsdst ! RUN = 10231 ! NEVT = 2000
FILE = /castor/cern.ch/delphi/MCprod/lyon/bdk01/va0e/206.5/bdk01_eeee_206.5_10232.xsdst ! RUN = 10232 ! NEVT = 2000
FILE = /castor/cern.ch/delphi/MCprod/lyon/bdk01/va0e/206.5/bdk01_eeee_206.5_10233.xsdst ! RUN = 10233 ! NEVT = 2000
FILE = /castor/cern.ch/delphi/MCprod/lyon/bdk01/va0e/206.5/bdk01_eeee_206.5_10234.xsdst ! RUN = 10234 ! NEVT = 2000
FILE = /castor/cern.ch/delphi/MCprod/lyon/bdk01/va0e/206.5/bdk01_eeee_206.5_10235.xsdst ! RUN = 10235 ! NEVT = 2000
FILE = /castor/cern.ch/delphi/MCprod/lyon/bdk01/va0e/206.5/bdk01_eeee_206.5_10236.xsdst ! RUN = 10236 ! NEVT = 2000
FILE = /castor/cern.ch/delphi/MCprod/lyon/bdk01/va0e/206.5/bdk01_eeee_206.5_10237.xsdst ! RUN = 10237 ! NEVT = 2000
FILE = /castor/cern.ch/delphi/MCprod/lyon/bdk01/va0e/206.5/bdk01_eeee_206.5_10238.xsdst ! RUN = 10238 ! NEVT = 2000
FILE = /castor/cern.ch/delphi/MCprod/lyon/bdk01/va0e/206.5/bdk01_eeee_206.5_10239.xsdst ! RUN = 10239 ! NEVT = 2000
FILE = /castor/cern.ch/delphi/MCprod/lyon/bdk01/va0e/206.5/bdk01_eeee_206.5_10240.xsdst ! RUN = 10240 ! NEVT = 2000
FILE = /castor/cern.ch/delphi/MCprod/lyon/bdk01/va0e/206.5/bdk01_eeee_206.5_10241.xsdst ! RUN = 10241 ! NEVT = 2000
FILE = /castor/cern.ch/delphi/MCprod/lyon/bdk01/va0e/206.5/bdk01_eeee_206.5_10242.xsdst ! RUN = 10242 ! NEVT = 2000
FILE = /castor/cern.ch/delphi/MCprod/lyon/bdk01/va0e/206.5/bdk01_eeee_206.5_10243.xsdst ! RUN = 10243 ! NEVT = 2000
FILE = /castor/cern.ch/delphi/MCprod/lyon/bdk01/va0e/206.5/bdk01_eeee_206.5_10244.xsdst ! RUN = 10244 ! NEVT = 2000
FILE = /castor/cern.ch/delphi/MCprod/lyon/bdk01/va0e/206.5/bdk01_eeee_206.5_10245.xsdst ! RUN = 10245 ! NEVT = 2000
FILE = /castor/cern.ch/delphi/MCprod/lyon/bdk01/va0e/206.5/bdk01_eeee_206.5_10246.xsdst ! RUN = 10246 ! NEVT = 2000
FILE = /castor/cern.ch/delphi/MCprod/lyon/bdk01/va0e/206.5/bdk01_eeee_206.5_10247.xsdst ! RUN = 10247 ! NEVT = 2000
FILE = /castor/cern.ch/delphi/MCprod/lyon/bdk01/va0e/206.5/bdk01_eeee_206.5_10248.xsdst ! RUN = 10248 ! NEVT = 2000
FILE = /castor/cern.ch/delphi/MCprod/lyon/bdk01/va0e/206.5/bdk01_eeee_206.5_10249.xsdst ! RUN = 10249 ! NEVT = 2000
FILE = /castor/cern.ch/delphi/MCprod/lyon/bdk01/va0e/206.5/bdk01_eeee_206.5_10250.xsdst ! RUN = 10250 ! NEVT = 2000
FILE = /castor/cern.ch/delphi/MCprod/lyon/bdk01/va0e/206.5/bdk01_eeee_206.5_10251.xsdst ! RUN = 10251 ! NEVT = 2000
FILE = /castor/cern.ch/delphi/MCprod/lyon/bdk01/va0e/206.5/bdk01_eeee_206.5_10252.xsdst ! RUN = 10252 ! NEVT = 2000
FILE = /castor/cern.ch/delphi/MCprod/lyon/bdk01/va0e/206.5/bdk01_eeee_206.5_10253.xsdst ! RUN = 10253 ! NEVT = 2000
FILE = /castor/cern.ch/delphi/MCprod/lyon/bdk01/va0e/206.5/bdk01_eeee_206.5_10254.xsdst ! RUN = 10254 ! NEVT = 2000
FILE = /castor/cern.ch/delphi/MCprod/lyon/bdk01/va0e/206.5/bdk01_eeee_206.5_10255.xsdst ! RUN = 10255 ! NEVT = 2000
FILE = /castor/cern.ch/delphi/MCprod/lyon/bdk01/va0e/206.5/bdk01_eeee_206.5_10256.xsdst ! RUN = 10256 ! NEVT = 2000
FILE = /castor/cern.ch/delphi/MCprod/lyon/bdk01/va0e/206.5/bdk01_eeee_206.5_10257.xsdst ! RUN = 10257 ! NEVT = 2000
FILE = /castor/cern.ch/delphi/MCprod/lyon/bdk01/va0e/206.5/bdk01_eeee_206.5_10258.xsdst ! RUN = 10258 ! NEVT = 2000
FILE = /castor/cern.ch/delphi/MCprod/lyon/bdk01/va0e/206.5/bdk01_eeee_206.5_10259.xsdst ! RUN = 10259 ! NEVT = 2000
FILE = /castor/cern.ch/delphi/MCprod/lyon/bdk01/va0e/206.5/bdk01_eeee_206.5_10260.xsdst ! RUN = 10260 ! NEVT = 2000
FILE = /castor/cern.ch/delphi/MCprod/lyon/bdk01/va0e/206.5/bdk01_eeee_206.5_10261.xsdst ! RUN = 10261 ! NEVT = 2000
FILE = /castor/cern.ch/delphi/MCprod/lyon/bdk01/va0e/206.5/bdk01_eeee_206.5_10262.xsdst ! RUN = 10262 ! NEVT = 2000
FILE = /castor/cern.ch/delphi/MCprod/lyon/bdk01/va0e/206.5/bdk01_eeee_206.5_10263.xsdst ! RUN = 10263 ! NEVT = 2000
FILE = /castor/cern.ch/delphi/MCprod/lyon/bdk01/va0e/206.5/bdk01_eeee_206.5_10264.xsdst ! RUN = 10264 ! NEVT = 2000
FILE = /castor/cern.ch/delphi/MCprod/lyon/bdk01/va0e/206.5/bdk01_eeee_206.5_10265.xsdst ! RUN = 10265 ! NEVT = 2000
FILE = /castor/cern.ch/delphi/MCprod/lyon/bdk01/va0e/206.5/bdk01_eeee_206.5_10266.xsdst ! RUN = 10266 ! NEVT = 2000
FILE = /castor/cern.ch/delphi/MCprod/lyon/bdk01/va0e/206.5/bdk01_eeee_206.5_10267.xsdst ! RUN = 10267 ! NEVT = 2000
FILE = /castor/cern.ch/delphi/MCprod/lyon/bdk01/va0e/206.5/bdk01_eeee_206.5_10268.xsdst ! RUN = 10268 ! NEVT = 2000
FILE = /castor/cern.ch/delphi/MCprod/lyon/bdk01/va0e/206.5/bdk01_eeee_206.5_10269.xsdst ! RUN = 10269 ! NEVT = 2000
FILE = /castor/cern.ch/delphi/MCprod/lyon/bdk01/va0e/206.5/bdk01_eeee_206.5_10270.xsdst ! RUN = 10270 ! NEVT = 2000
FILE = /castor/cern.ch/delphi/MCprod/lyon/bdk01/va0e/206.5/bdk01_eeee_206.5_10271.xsdst ! RUN = 10271 ! NEVT = 2000
FILE = /castor/cern.ch/delphi/MCprod/lyon/bdk01/va0e/206.5/bdk01_eeee_206.5_10272.xsdst ! RUN = 10272 ! NEVT = 2000
FILE = /castor/cern.ch/delphi/MCprod/lyon/bdk01/va0e/206.5/bdk01_eeee_206.5_10273.xsdst ! RUN = 10273 ! NEVT = 2000
FILE = /castor/cern.ch/delphi/MCprod/lyon/bdk01/va0e/206.5/bdk01_eeee_206.5_10274.xsdst ! RUN = 10274 ! NEVT = 2000
FILE = /castor/cern.ch/delphi/MCprod/lyon/bdk01/va0e/206.5/bdk01_eeee_206.5_10275.xsdst ! RUN = 10275 ! NEVT = 2000
FILE = /castor/cern.ch/delphi/MCprod/lyon/bdk01/va0e/206.5/bdk01_eeee_206.5_10276.xsdst ! RUN = 10276 ! NEVT = 2000
FILE = /castor/cern.ch/delphi/MCprod/lyon/bdk01/va0e/206.5/bdk01_eeee_206.5_10277.xsdst ! RUN = 10277 ! NEVT = 2000
FILE = /castor/cern.ch/delphi/MCprod/lyon/bdk01/va0e/206.5/bdk01_eeee_206.5_10278.xsdst ! RUN = 10278 ! NEVT = 2000
FILE = /castor/cern.ch/delphi/MCprod/lyon/bdk01/va0e/206.5/bdk01_eeee_206.5_10279.xsdst ! RUN = 10279 ! NEVT = 2000
FILE = /castor/cern.ch/delphi/MCprod/lyon/bdk01/va0e/206.5/bdk01_eeee_206.5_10280.xsdst ! RUN = 10280 ! NEVT = 2000
FILE = /castor/cern.ch/delphi/MCprod/lyon/bdk01/va0e/206.5/bdk01_eeee_206.5_10281.xsdst ! RUN = 10281 ! NEVT = 2000
FILE = /castor/cern.ch/delphi/MCprod/lyon/bdk01/va0e/206.5/bdk01_eeee_206.5_10282.xsdst ! RUN = 10282 ! NEVT = 2000
FILE = /castor/cern.ch/delphi/MCprod/lyon/bdk01/va0e/206.5/bdk01_eeee_206.5_10283.xsdst ! RUN = 10283 ! NEVT = 2000
FILE = /castor/cern.ch/delphi/MCprod/lyon/bdk01/va0e/206.5/bdk01_eeee_206.5_10284.xsdst ! RUN = 10284 ! NEVT = 2000
FILE = /castor/cern.ch/delphi/MCprod/lyon/bdk01/va0e/206.5/bdk01_eeee_206.5_10285.xsdst ! RUN = 10285 ! NEVT = 1999
FILE = /castor/cern.ch/delphi/MCprod/lyon/bdk01/va0e/206.5/bdk01_eeee_206.5_10286.xsdst ! RUN = 10286 ! NEVT = 2000
FILE = /castor/cern.ch/delphi/MCprod/lyon/bdk01/va0e/206.5/bdk01_eeee_206.5_10287.xsdst ! RUN = 10287 ! NEVT = 2000
FILE = /castor/cern.ch/delphi/MCprod/lyon/bdk01/va0e/206.5/bdk01_eeee_206.5_10288.xsdst ! RUN = 10288 ! NEVT = 2000
FILE = /castor/cern.ch/delphi/MCprod/lyon/bdk01/va0e/206.5/bdk01_eeee_206.5_10289.xsdst ! RUN = 10289 ! NEVT = 2000
FILE = /castor/cern.ch/delphi/MCprod/lyon/bdk01/va0e/206.5/bdk01_eeee_206.5_10290.xsdst ! RUN = 10290 ! NEVT = 2000
FILE = /castor/cern.ch/delphi/MCprod/lyon/bdk01/va0e/206.5/bdk01_eeee_206.5_10291.xsdst ! RUN = 10291 ! NEVT = 2000
FILE = /castor/cern.ch/delphi/MCprod/lyon/bdk01/va0e/206.5/bdk01_eeee_206.5_10292.xsdst ! RUN = 10292 ! NEVT = 2000
FILE = /castor/cern.ch/delphi/MCprod/lyon/bdk01/va0e/206.5/bdk01_eeee_206.5_10293.xsdst ! RUN = 10293 ! NEVT = 2000
FILE = /castor/cern.ch/delphi/MCprod/lyon/bdk01/va0e/206.5/bdk01_eeee_206.5_10294.xsdst ! RUN = 10294 ! NEVT = 2000
FILE = /castor/cern.ch/delphi/MCprod/lyon/bdk01/va0e/206.5/bdk01_eeee_206.5_10295.xsdst ! RUN = 10295 ! NEVT = 2000
FILE = /castor/cern.ch/delphi/MCprod/lyon/bdk01/va0e/206.5/bdk01_eeee_206.5_10296.xsdst ! RUN = 10296 ! NEVT = 2000
FILE = /castor/cern.ch/delphi/MCprod/lyon/bdk01/va0e/206.5/bdk01_eeee_206.5_10297.xsdst ! RUN = 10297 ! NEVT = 2000
FILE = /castor/cern.ch/delphi/MCprod/lyon/bdk01/va0e/206.5/bdk01_eeee_206.5_10298.xsdst ! RUN = 10298 ! NEVT = 2000
FILE = /castor/cern.ch/delphi/MCprod/lyon/bdk01/va0e/206.5/bdk01_eeee_206.5_10299.xsdst ! RUN = 10299 ! NEVT = 2000
FILE = /castor/cern.ch/delphi/MCprod/lyon/bdk01/va0e/206.5/bdk01_eeee_206.5_10300.xsdst ! RUN = 10300 ! NEVT = 2000
FILE = /castor/cern.ch/delphi/MCprod/lyon/bdk01/va0e/206.5/bdk01_eeee_206.5_10301.xsdst ! RUN = 10301 ! NEVT = 2000
FILE = /castor/cern.ch/delphi/MCprod/lyon/bdk01/va0e/206.5/bdk01_eeee_206.5_10302.xsdst ! RUN = 10302 ! NEVT = 1097
FILE = /castor/cern.ch/delphi/MCprod/lyon/bdk01/va0e/206.5/bdk01_eeee_206.5_10303.xsdst ! RUN = 10303 ! NEVT = 2000
FILE = /castor/cern.ch/delphi/MCprod/lyon/bdk01/va0e/206.5/bdk01_eeee_206.5_10304.xsdst ! RUN = 10304 ! NEVT = 2000
FILE = /castor/cern.ch/delphi/MCprod/lyon/bdk01/va0e/206.5/bdk01_eeee_206.5_10305.xsdst ! RUN = 10305 ! NEVT = 2000
FILE = /castor/cern.ch/delphi/MCprod/lyon/bdk01/va0e/206.5/bdk01_eeee_206.5_10306.xsdst ! RUN = 10306 ! NEVT = 2000
FILE = /castor/cern.ch/delphi/MCprod/lyon/bdk01/va0e/206.5/bdk01_eeee_206.5_10307.xsdst ! RUN = 10307 ! NEVT = 2000
FILE = /castor/cern.ch/delphi/MCprod/lyon/bdk01/va0e/206.5/bdk01_eeee_206.5_10308.xsdst ! RUN = 10308 ! NEVT = 2000
FILE = /castor/cern.ch/delphi/MCprod/lyon/bdk01/va0e/206.5/bdk01_eeee_206.5_10309.xsdst ! RUN = 10309 ! NEVT = 2000
FILE = /castor/cern.ch/delphi/MCprod/lyon/bdk01/va0e/206.5/bdk01_eeee_206.5_10310.xsdst ! RUN = 10310 ! NEVT = 2000
FILE = /castor/cern.ch/delphi/MCprod/lyon/bdk01/va0e/206.5/bdk01_eeee_206.5_10311.xsdst ! RUN = 10311 ! NEVT = 2000
FILE = /castor/cern.ch/delphi/MCprod/lyon/bdk01/va0e/206.5/bdk01_eeee_206.5_10312.xsdst ! RUN = 10312 ! NEVT = 2000
FILE = /castor/cern.ch/delphi/MCprod/lyon/bdk01/va0e/206.5/bdk01_eeee_206.5_10313.xsdst ! RUN = 10313 ! NEVT = 2000
FILE = /castor/cern.ch/delphi/MCprod/lyon/bdk01/va0e/206.5/bdk01_eeee_206.5_10314.xsdst ! RUN = 10314 ! NEVT = 2000
FILE = /castor/cern.ch/delphi/MCprod/lyon/bdk01/va0e/206.5/bdk01_eeee_206.5_10315.xsdst ! RUN = 10315 ! NEVT = 2000
FILE = /castor/cern.ch/delphi/MCprod/lyon/bdk01/va0e/206.5/bdk01_eeee_206.5_10316.xsdst ! RUN = 10316 ! NEVT = 2000
FILE = /castor/cern.ch/delphi/MCprod/lyon/bdk01/va0e/206.5/bdk01_eeee_206.5_10317.xsdst ! RUN = 10317 ! NEVT = 2000
FILE = /castor/cern.ch/delphi/MCprod/lyon/bdk01/va0e/206.5/bdk01_eeee_206.5_10318.xsdst ! RUN = 10318 ! NEVT = 2000
FILE = /castor/cern.ch/delphi/MCprod/lyon/bdk01/va0e/206.5/bdk01_eeee_206.5_10319.xsdst ! RUN = 10319 ! NEVT = 2000
FILE = /castor/cern.ch/delphi/MCprod/lyon/bdk01/va0e/206.5/bdk01_eeee_206.5_10320.xsdst ! RUN = 10320 ! NEVT = 2000
FILE = /castor/cern.ch/delphi/MCprod/lyon/bdk01/va0e/206.5/bdk01_eeee_206.5_10321.xsdst ! RUN = 10321 ! NEVT = 2000
FILE = /castor/cern.ch/delphi/MCprod/lyon/bdk01/va0e/206.5/bdk01_eeee_206.5_10322.xsdst ! RUN = 10322 ! NEVT = 2000
FILE = /castor/cern.ch/delphi/MCprod/lyon/bdk01/va0e/206.5/bdk01_eeee_206.5_10323.xsdst ! RUN = 10323 ! NEVT = 2000
FILE = /castor/cern.ch/delphi/MCprod/lyon/bdk01/va0e/206.5/bdk01_eeee_206.5_10324.xsdst ! RUN = 10324 ! NEVT = 2000
FILE = /castor/cern.ch/delphi/MCprod/lyon/bdk01/va0e/206.5/bdk01_eeee_206.5_10325.xsdst ! RUN = 10325 ! NEVT = 2000
FILE = /castor/cern.ch/delphi/MCprod/lyon/bdk01/va0e/206.5/bdk01_eeee_206.5_10326.xsdst ! RUN = 10326 ! NEVT = 2000
FILE = /castor/cern.ch/delphi/MCprod/lyon/bdk01/va0e/206.5/bdk01_eeee_206.5_10327.xsdst ! RUN = 10327 ! NEVT = 2000
FILE = /castor/cern.ch/delphi/MCprod/lyon/bdk01/va0e/206.5/bdk01_eeee_206.5_10328.xsdst ! RUN = 10328 ! NEVT = 2000
FILE = /castor/cern.ch/delphi/MCprod/lyon/bdk01/va0e/206.5/bdk01_eeee_206.5_10329.xsdst ! RUN = 10329 ! NEVT = 2000
FILE = /castor/cern.ch/delphi/MCprod/lyon/bdk01/va0e/206.5/bdk01_eeee_206.5_10330.xsdst ! RUN = 10330 ! NEVT = 2000
FILE = /castor/cern.ch/delphi/MCprod/lyon/bdk01/va0e/206.5/bdk01_eeee_206.5_10331.xsdst ! RUN = 10331 ! NEVT = 2000
FILE = /castor/cern.ch/delphi/MCprod/lyon/bdk01/va0e/206.5/bdk01_eeee_206.5_10332.xsdst ! RUN = 10332 ! NEVT = 2000
FILE = /castor/cern.ch/delphi/MCprod/lyon/bdk01/va0e/206.5/bdk01_eeee_206.5_10333.xsdst ! RUN = 10333 ! NEVT = 2000
FILE = /castor/cern.ch/delphi/MCprod/lyon/bdk01/va0e/206.5/bdk01_eeee_206.5_10334.xsdst ! RUN = 10334 ! NEVT = 2000
FILE = /castor/cern.ch/delphi/MCprod/lyon/bdk01/va0e/206.5/bdk01_eeee_206.5_10335.xsdst ! RUN = 10335 ! NEVT = 2000
FILE = /castor/cern.ch/delphi/MCprod/lyon/bdk01/va0e/206.5/bdk01_eeee_206.5_10336.xsdst ! RUN = 10336 ! NEVT = 2000
FILE = /castor/cern.ch/delphi/MCprod/lyon/bdk01/va0e/206.5/bdk01_eeee_206.5_10337.xsdst ! RUN = 10337 ! NEVT = 2000
FILE = /castor/cern.ch/delphi/MCprod/lyon/bdk01/va0e/206.5/bdk01_eeee_206.5_10338.xsdst ! RUN = 10338 ! NEVT = 2000
FILE = /castor/cern.ch/delphi/MCprod/lyon/bdk01/va0e/206.5/bdk01_eeee_206.5_10339.xsdst ! RUN = 10339 ! NEVT = 2000
FILE = /castor/cern.ch/delphi/MCprod/lyon/bdk01/va0e/206.5/bdk01_eeee_206.5_10340.xsdst ! RUN = 10340 ! NEVT = 2000
FILE = /castor/cern.ch/delphi/MCprod/lyon/bdk01/va0e/206.5/bdk01_eeee_206.5_10341.xsdst ! RUN = 10341 ! NEVT = 2000
FILE = /castor/cern.ch/delphi/MCprod/lyon/bdk01/va0e/206.5/bdk01_eeee_206.5_10342.xsdst ! RUN = 10342 ! NEVT = 2000
FILE = /castor/cern.ch/delphi/MCprod/lyon/bdk01/va0e/206.5/bdk01_eeee_206.5_10343.xsdst ! RUN = 10343 ! NEVT = 2000
FILE = /castor/cern.ch/delphi/MCprod/lyon/bdk01/va0e/206.5/bdk01_eeee_206.5_10344.xsdst ! RUN = 10344 ! NEVT = 2000
FILE = /castor/cern.ch/delphi/MCprod/lyon/bdk01/va0e/206.5/bdk01_eeee_206.5_10345.xsdst ! RUN = 10345 ! NEVT = 2000
FILE = /castor/cern.ch/delphi/MCprod/lyon/bdk01/va0e/206.5/bdk01_eeee_206.5_10346.xsdst ! RUN = 10346 ! NEVT = 2000
FILE = /castor/cern.ch/delphi/MCprod/lyon/bdk01/va0e/206.5/bdk01_eeee_206.5_10347.xsdst ! RUN = 10347 ! NEVT = 2000
FILE = /castor/cern.ch/delphi/MCprod/lyon/bdk01/va0e/206.5/bdk01_eeee_206.5_10348.xsdst ! RUN = 10348 ! NEVT = 2000
FILE = /castor/cern.ch/delphi/MCprod/lyon/bdk01/va0e/206.5/bdk01_eeee_206.5_10349.xsdst ! RUN = 10349 ! NEVT = 2000
FILE = /castor/cern.ch/delphi/MCprod/lyon/bdk01/va0e/206.5/bdk01_eeee_206.5_10350.xsdst ! RUN = 10350 ! NEVT = 2000
FILE = /castor/cern.ch/delphi/MCprod/lyon/bdk01/va0e/206.5/bdk01_eeee_206.5_10351.xsdst ! RUN = 10351 ! NEVT = 2000
FILE = /castor/cern.ch/delphi/MCprod/lyon/bdk01/va0e/206.5/bdk01_eeee_206.5_10352.xsdst ! RUN = 10352 ! NEVT = 2000
FILE = /castor/cern.ch/delphi/MCprod/lyon/bdk01/va0e/206.5/bdk01_eeee_206.5_10353.xsdst ! RUN = 10353 ! NEVT = 2000
FILE = /castor/cern.ch/delphi/MCprod/lyon/bdk01/va0e/206.5/bdk01_eeee_206.5_10354.xsdst ! RUN = 10354 ! NEVT = 2000
FILE = /castor/cern.ch/delphi/MCprod/lyon/bdk01/va0e/206.5/bdk01_eeee_206.5_10355.xsdst ! RUN = 10355 ! NEVT = 2000
FILE = /castor/cern.ch/delphi/MCprod/lyon/bdk01/va0e/206.5/bdk01_eeee_206.5_10356.xsdst ! RUN = 10356 ! NEVT = 2000
FILE = /castor/cern.ch/delphi/MCprod/lyon/bdk01/va0e/206.5/bdk01_eeee_206.5_10357.xsdst ! RUN = 10357 ! NEVT = 2000
FILE = /castor/cern.ch/delphi/MCprod/lyon/bdk01/va0e/206.5/bdk01_eeee_206.5_10358.xsdst ! RUN = 10358 ! NEVT = 2000
FILE = /castor/cern.ch/delphi/MCprod/lyon/bdk01/va0e/206.5/bdk01_eeee_206.5_10359.xsdst ! RUN = 10359 ! NEVT = 2000
FILE = /castor/cern.ch/delphi/MCprod/lyon/bdk01/va0e/206.5/bdk01_eeee_206.5_10360.xsdst ! RUN = 10360 ! NEVT = 2000
FILE = /castor/cern.ch/delphi/MCprod/lyon/bdk01/va0e/206.5/bdk01_eeee_206.5_10361.xsdst ! RUN = 10361 ! NEVT = 2000
FILE = /castor/cern.ch/delphi/MCprod/lyon/bdk01/va0e/206.5/bdk01_eeee_206.5_10362.xsdst ! RUN = 10362 ! NEVT = 2000
FILE = /castor/cern.ch/delphi/MCprod/lyon/bdk01/va0e/206.5/bdk01_eeee_206.5_10363.xsdst ! RUN = 10363 ! NEVT = 2000
FILE = /castor/cern.ch/delphi/MCprod/lyon/bdk01/va0e/206.5/bdk01_eeee_206.5_10364.xsdst ! RUN = 10364 ! NEVT = 2000
FILE = /castor/cern.ch/delphi/MCprod/lyon/bdk01/va0e/206.5/bdk01_eeee_206.5_10365.xsdst ! RUN = 10365 ! NEVT = 2000
FILE = /castor/cern.ch/delphi/MCprod/lyon/bdk01/va0e/206.5/bdk01_eeee_206.5_10366.xsdst ! RUN = 10366 ! NEVT = 2000
FILE = /castor/cern.ch/delphi/MCprod/lyon/bdk01/va0e/206.5/bdk01_eeee_206.5_10367.xsdst ! RUN = 10367 ! NEVT = 2000
FILE = /castor/cern.ch/delphi/MCprod/lyon/bdk01/va0e/206.5/bdk01_eeee_206.5_10368.xsdst ! RUN = 10368 ! NEVT = 2000
FILE = /castor/cern.ch/delphi/MCprod/lyon/bdk01/va0e/206.5/bdk01_eeee_206.5_10369.xsdst ! RUN = 10369 ! NEVT = 2000
FILE = /castor/cern.ch/delphi/MCprod/lyon/bdk01/va0e/206.5/bdk01_eeee_206.5_10370.xsdst ! RUN = 10370 ! NEVT = 2000
FILE = /castor/cern.ch/delphi/MCprod/lyon/bdk01/va0e/206.5/bdk01_eeee_206.5_10371.xsdst ! RUN = 10371 ! NEVT = 2000
FILE = /castor/cern.ch/delphi/MCprod/lyon/bdk01/va0e/206.5/bdk01_eeee_206.5_10372.xsdst ! RUN = 10372 ! NEVT = 2000
FILE = /castor/cern.ch/delphi/MCprod/lyon/bdk01/va0e/206.5/bdk01_eeee_206.5_10373.xsdst ! RUN = 10373 ! NEVT = 2000
FILE = /castor/cern.ch/delphi/MCprod/lyon/bdk01/va0e/206.5/bdk01_eeee_206.5_10374.xsdst ! RUN = 10374 ! NEVT = 2000
FILE = /castor/cern.ch/delphi/MCprod/lyon/bdk01/va0e/206.5/bdk01_eeee_206.5_10375.xsdst ! RUN = 10375 ! NEVT = 2000
FILE = /castor/cern.ch/delphi/MCprod/lyon/bdk01/va0e/206.5/bdk01_eeee_206.5_10376.xsdst ! RUN = 10376 ! NEVT = 2000
FILE = /castor/cern.ch/delphi/MCprod/lyon/bdk01/va0e/206.5/bdk01_eeee_206.5_10377.xsdst ! RUN = 10377 ! NEVT = 2000
FILE = /castor/cern.ch/delphi/MCprod/lyon/bdk01/va0e/206.5/bdk01_eeee_206.5_10378.xsdst ! RUN = 10378 ! NEVT = 2000
FILE = /castor/cern.ch/delphi/MCprod/lyon/bdk01/va0e/206.5/bdk01_eeee_206.5_10379.xsdst ! RUN = 10379 ! NEVT = 2000
FILE = /castor/cern.ch/delphi/MCprod/lyon/bdk01/va0e/206.5/bdk01_eeee_206.5_10380.xsdst ! RUN = 10380 ! NEVT = 2000
FILE = /castor/cern.ch/delphi/MCprod/lyon/bdk01/va0e/206.5/bdk01_eeee_206.5_10381.xsdst ! RUN = 10381 ! NEVT = 2000
FILE = /castor/cern.ch/delphi/MCprod/lyon/bdk01/va0e/206.5/bdk01_eeee_206.5_10382.xsdst ! RUN = 10382 ! NEVT = 2000
FILE = /castor/cern.ch/delphi/MCprod/lyon/bdk01/va0e/206.5/bdk01_eeee_206.5_10383.xsdst ! RUN = 10383 ! NEVT = 2000
FILE = /castor/cern.ch/delphi/MCprod/lyon/bdk01/va0e/206.5/bdk01_eeee_206.5_10384.xsdst ! RUN = 10384 ! NEVT = 2000
FILE = /castor/cern.ch/delphi/MCprod/lyon/bdk01/va0e/206.5/bdk01_eeee_206.5_10385.xsdst ! RUN = 10385 ! NEVT = 2000
FILE = /castor/cern.ch/delphi/MCprod/lyon/bdk01/va0e/206.5/bdk01_eeee_206.5_10386.xsdst ! RUN = 10386 ! NEVT = 2000
FILE = /castor/cern.ch/delphi/MCprod/lyon/bdk01/va0e/206.5/bdk01_eeee_206.5_10387.xsdst ! RUN = 10387 ! NEVT = 2000
FILE = /castor/cern.ch/delphi/MCprod/lyon/bdk01/va0e/206.5/bdk01_eeee_206.5_10388.xsdst ! RUN = 10388 ! NEVT = 2000
FILE = /castor/cern.ch/delphi/MCprod/lyon/bdk01/va0e/206.5/bdk01_eeee_206.5_10389.xsdst ! RUN = 10389 ! NEVT = 2000
FILE = /castor/cern.ch/delphi/MCprod/lyon/bdk01/va0e/206.5/bdk01_eeee_206.5_10390.xsdst ! RUN = 10390 ! NEVT = 2000
FILE = /castor/cern.ch/delphi/MCprod/lyon/bdk01/va0e/206.5/bdk01_eeee_206.5_10391.xsdst ! RUN = 10391 ! NEVT = 2000
FILE = /castor/cern.ch/delphi/MCprod/lyon/bdk01/va0e/206.5/bdk01_eeee_206.5_10392.xsdst ! RUN = 10392 ! NEVT = 2000
FILE = /castor/cern.ch/delphi/MCprod/lyon/bdk01/va0e/206.5/bdk01_eeee_206.5_10393.xsdst ! RUN = 10393 ! NEVT = 2000
FILE = /castor/cern.ch/delphi/MCprod/lyon/bdk01/va0e/206.5/bdk01_eeee_206.5_10394.xsdst ! RUN = 10394 ! NEVT = 2000
FILE = /castor/cern.ch/delphi/MCprod/lyon/bdk01/va0e/206.5/bdk01_eeee_206.5_10395.xsdst ! RUN = 10395 ! NEVT = 2000
FILE = /castor/cern.ch/delphi/MCprod/lyon/bdk01/va0e/206.5/bdk01_eeee_206.5_10396.xsdst ! RUN = 10396 ! NEVT = 2000
FILE = /castor/cern.ch/delphi/MCprod/lyon/bdk01/va0e/206.5/bdk01_eeee_206.5_10397.xsdst ! RUN = 10397 ! NEVT = 2000
FILE = /castor/cern.ch/delphi/MCprod/lyon/bdk01/va0e/206.5/bdk01_eeee_206.5_10398.xsdst ! RUN = 10398 ! NEVT = 2000
FILE = /castor/cern.ch/delphi/MCprod/lyon/bdk01/va0e/206.5/bdk01_eeee_206.5_10399.xsdst ! RUN = 10399 ! NEVT = 2000
FILE = /castor/cern.ch/delphi/MCprod/lyon/bdk01/va0e/206.5/bdk01_eeee_206.5_10400.xsdst ! RUN = 10400 ! NEVT = 2000
FILE = /castor/cern.ch/delphi/MCprod/lyon/bdk01/va0e/206.5/bdk01_eeee_206.5_10401.xsdst ! RUN = 10401 ! NEVT = 2000
FILE = /castor/cern.ch/delphi/MCprod/lyon/bdk01/va0e/206.5/bdk01_eeee_206.5_10402.xsdst ! RUN = 10402 ! NEVT = 2000
FILE = /castor/cern.ch/delphi/MCprod/lyon/bdk01/va0e/206.5/bdk01_eeee_206.5_10403.xsdst ! RUN = 10403 ! NEVT = 2000
FILE = /castor/cern.ch/delphi/MCprod/lyon/bdk01/va0e/206.5/bdk01_eeee_206.5_10404.xsdst ! RUN = 10404 ! NEVT = 2000
FILE = /castor/cern.ch/delphi/MCprod/lyon/bdk01/va0e/206.5/bdk01_eeee_206.5_10405.xsdst ! RUN = 10405 ! NEVT = 2000
FILE = /castor/cern.ch/delphi/MCprod/lyon/bdk01/va0e/206.5/bdk01_eeee_206.5_10406.xsdst ! RUN = 10406 ! NEVT = 2000
FILE = /castor/cern.ch/delphi/MCprod/lyon/bdk01/va0e/206.5/bdk01_eeee_206.5_10407.xsdst ! RUN = 10407 ! NEVT = 2000
FILE = /castor/cern.ch/delphi/MCprod/lyon/bdk01/va0e/206.5/bdk01_eeee_206.5_10408.xsdst ! RUN = 10408 ! NEVT = 2000
FILE = /castor/cern.ch/delphi/MCprod/lyon/bdk01/va0e/206.5/bdk01_eeee_206.5_10409.xsdst ! RUN = 10409 ! NEVT = 2000
FILE = /castor/cern.ch/delphi/MCprod/lyon/bdk01/va0e/206.5/bdk01_eeee_206.5_10410.xsdst ! RUN = 10410 ! NEVT = 2000
FILE = /castor/cern.ch/delphi/MCprod/lyon/bdk01/va0e/206.5/bdk01_eeee_206.5_10411.xsdst ! RUN = 10411 ! NEVT = 2000
FILE = /castor/cern.ch/delphi/MCprod/lyon/bdk01/va0e/206.5/bdk01_eeee_206.5_10412.xsdst ! RUN = 10412 ! NEVT = 2000
FILE = /castor/cern.ch/delphi/MCprod/lyon/bdk01/va0e/206.5/bdk01_eeee_206.5_10413.xsdst ! RUN = 10413 ! NEVT = 2000
FILE = /castor/cern.ch/delphi/MCprod/lyon/bdk01/va0e/206.5/bdk01_eeee_206.5_10414.xsdst ! RUN = 10414 ! NEVT = 2000
FILE = /castor/cern.ch/delphi/MCprod/lyon/bdk01/va0e/206.5/bdk01_eeee_206.5_10415.xsdst ! RUN = 10415 ! NEVT = 2000
FILE = /castor/cern.ch/delphi/MCprod/lyon/bdk01/va0e/206.5/bdk01_eeee_206.5_10416.xsdst ! RUN = 10416 ! NEVT = 2000
FILE = /castor/cern.ch/delphi/MCprod/lyon/bdk01/va0e/206.5/bdk01_eeee_206.5_10417.xsdst ! RUN = 10417 ! NEVT = 2000
FILE = /castor/cern.ch/delphi/MCprod/lyon/bdk01/va0e/206.5/bdk01_eeee_206.5_10418.xsdst ! RUN = 10418 ! NEVT = 2000
FILE = /castor/cern.ch/delphi/MCprod/lyon/bdk01/va0e/206.5/bdk01_eeee_206.5_10419.xsdst ! RUN = 10419 ! NEVT = 2000
FILE = /castor/cern.ch/delphi/MCprod/lyon/bdk01/va0e/206.5/bdk01_eeee_206.5_10420.xsdst ! RUN = 10420 ! NEVT = 2000
FILE = /castor/cern.ch/delphi/MCprod/lyon/bdk01/va0e/206.5/bdk01_eeee_206.5_10421.xsdst ! RUN = 10421 ! NEVT = 2000
FILE = /castor/cern.ch/delphi/MCprod/lyon/bdk01/va0e/206.5/bdk01_eeee_206.5_10422.xsdst ! RUN = 10422 ! NEVT = 2000
FILE = /castor/cern.ch/delphi/MCprod/lyon/bdk01/va0e/206.5/bdk01_eeee_206.5_10423.xsdst ! RUN = 10423 ! NEVT = 2000
FILE = /castor/cern.ch/delphi/MCprod/lyon/bdk01/va0e/206.5/bdk01_eeee_206.5_10424.xsdst ! RUN = 10424 ! NEVT = 2000
FILE = /castor/cern.ch/delphi/MCprod/lyon/bdk01/va0e/206.5/bdk01_eeee_206.5_10425.xsdst ! RUN = 10425 ! NEVT = 2000
FILE = /castor/cern.ch/delphi/MCprod/lyon/bdk01/va0e/206.5/bdk01_eeee_206.5_10426.xsdst ! RUN = 10426 ! NEVT = 2000
FILE = /castor/cern.ch/delphi/MCprod/lyon/bdk01/va0e/206.5/bdk01_eeee_206.5_10427.xsdst ! RUN = 10427 ! NEVT = 2000
FILE = /castor/cern.ch/delphi/MCprod/lyon/bdk01/va0e/206.5/bdk01_eeee_206.5_10428.xsdst ! RUN = 10428 ! NEVT = 2000
FILE = /castor/cern.ch/delphi/MCprod/lyon/bdk01/va0e/206.5/bdk01_eeee_206.5_10429.xsdst ! RUN = 10429 ! NEVT = 2000
FILE = /castor/cern.ch/delphi/MCprod/lyon/bdk01/va0e/206.5/bdk01_eeee_206.5_10430.xsdst ! RUN = 10430 ! NEVT = 2000
FILE = /castor/cern.ch/delphi/MCprod/lyon/bdk01/va0e/206.5/bdk01_eeee_206.5_10431.xsdst ! RUN = 10431 ! NEVT = 2000
FILE = /castor/cern.ch/delphi/MCprod/lyon/bdk01/va0e/206.5/bdk01_eeee_206.5_10432.xsdst ! RUN = 10432 ! NEVT = 2000
FILE = /castor/cern.ch/delphi/MCprod/lyon/bdk01/va0e/206.5/bdk01_eeee_206.5_10433.xsdst ! RUN = 10433 ! NEVT = 2000
FILE = /castor/cern.ch/delphi/MCprod/lyon/bdk01/va0e/206.5/bdk01_eeee_206.5_10434.xsdst ! RUN = 10434 ! NEVT = 2000
FILE = /castor/cern.ch/delphi/MCprod/lyon/bdk01/va0e/206.5/bdk01_eeee_206.5_10435.xsdst ! RUN = 10435 ! NEVT = 2000
FILE = /castor/cern.ch/delphi/MCprod/lyon/bdk01/va0e/206.5/bdk01_eeee_206.5_10436.xsdst ! RUN = 10436 ! NEVT = 2000
FILE = /castor/cern.ch/delphi/MCprod/lyon/bdk01/va0e/206.5/bdk01_eeee_206.5_10437.xsdst ! RUN = 10437 ! NEVT = 2000
FILE = /castor/cern.ch/delphi/MCprod/lyon/bdk01/va0e/206.5/bdk01_eeee_206.5_10438.xsdst ! RUN = 10438 ! NEVT = 2000
FILE = /castor/cern.ch/delphi/MCprod/lyon/bdk01/va0e/206.5/bdk01_eeee_206.5_10439.xsdst ! RUN = 10439 ! NEVT = 2000
FILE = /castor/cern.ch/delphi/MCprod/lyon/bdk01/va0e/206.5/bdk01_eeee_206.5_10440.xsdst ! RUN = 10440 ! NEVT = 2000
FILE = /castor/cern.ch/delphi/MCprod/lyon/bdk01/va0e/206.5/bdk01_eeee_206.5_10441.xsdst ! RUN = 10441 ! NEVT = 2000
FILE = /castor/cern.ch/delphi/MCprod/lyon/bdk01/va0e/206.5/bdk01_eeee_206.5_10442.xsdst ! RUN = 10442 ! NEVT = 2000
FILE = /castor/cern.ch/delphi/MCprod/lyon/bdk01/va0e/206.5/bdk01_eeee_206.5_10443.xsdst ! RUN = 10443 ! NEVT = 2000
FILE = /castor/cern.ch/delphi/MCprod/lyon/bdk01/va0e/206.5/bdk01_eeee_206.5_10444.xsdst ! RUN = 10444 ! NEVT = 2000
FILE = /castor/cern.ch/delphi/MCprod/lyon/bdk01/va0e/206.5/bdk01_eeee_206.5_10445.xsdst ! RUN = 10445 ! NEVT = 2000
FILE = /castor/cern.ch/delphi/MCprod/lyon/bdk01/va0e/206.5/bdk01_eeee_206.5_10446.xsdst ! RUN = 10446 ! NEVT = 2000
FILE = /castor/cern.ch/delphi/MCprod/lyon/bdk01/va0e/206.5/bdk01_eeee_206.5_10447.xsdst ! RUN = 10447 ! NEVT = 2000
FILE = /castor/cern.ch/delphi/MCprod/lyon/bdk01/va0e/206.5/bdk01_eeee_206.5_10448.xsdst ! RUN = 10448 ! NEVT = 2000
FILE = /castor/cern.ch/delphi/MCprod/lyon/bdk01/va0e/206.5/bdk01_eeee_206.5_10449.xsdst ! RUN = 10449 ! NEVT = 2000
FILE = /castor/cern.ch/delphi/MCprod/lyon/bdk01/va0e/206.5/bdk01_eeee_206.5_10450.xsdst ! RUN = 10450 ! NEVT = 2000
FILE = /castor/cern.ch/delphi/MCprod/lyon/bdk01/va0e/206.5/bdk01_eeee_206.5_10451.xsdst ! RUN = 10451 ! NEVT = 2000
FILE = /castor/cern.ch/delphi/MCprod/lyon/bdk01/va0e/206.5/bdk01_eeee_206.5_10452.xsdst ! RUN = 10452 ! NEVT = 2000
FILE = /castor/cern.ch/delphi/MCprod/lyon/bdk01/va0e/206.5/bdk01_eeee_206.5_10453.xsdst ! RUN = 10453 ! NEVT = 2000
FILE = /castor/cern.ch/delphi/MCprod/lyon/bdk01/va0e/206.5/bdk01_eeee_206.5_10454.xsdst ! RUN = 10454 ! NEVT = 2000
FILE = /castor/cern.ch/delphi/MCprod/lyon/bdk01/va0e/206.5/bdk01_eeee_206.5_10455.xsdst ! RUN = 10455 ! NEVT = 2000
FILE = /castor/cern.ch/delphi/MCprod/lyon/bdk01/va0e/206.5/bdk01_eeee_206.5_10456.xsdst ! RUN = 10456 ! NEVT = 2000
FILE = /castor/cern.ch/delphi/MCprod/lyon/bdk01/va0e/206.5/bdk01_eeee_206.5_10457.xsdst ! RUN = 10457 ! NEVT = 2000
FILE = /castor/cern.ch/delphi/MCprod/lyon/bdk01/va0e/206.5/bdk01_eeee_206.5_10458.xsdst ! RUN = 10458 ! NEVT = 2000
FILE = /castor/cern.ch/delphi/MCprod/lyon/bdk01/va0e/206.5/bdk01_eeee_206.5_10459.xsdst ! RUN = 10459 ! NEVT = 2000
FILE = /castor/cern.ch/delphi/MCprod/lyon/bdk01/va0e/206.5/bdk01_eeee_206.5_10460.xsdst ! RUN = 10460 ! NEVT = 2000
FILE = /castor/cern.ch/delphi/MCprod/lyon/bdk01/va0e/206.5/bdk01_eeee_206.5_10461.xsdst ! RUN = 10461 ! NEVT = 2000
FILE = /castor/cern.ch/delphi/MCprod/lyon/bdk01/va0e/206.5/bdk01_eeee_206.5_10462.xsdst ! RUN = 10462 ! NEVT = 2000
FILE = /castor/cern.ch/delphi/MCprod/lyon/bdk01/va0e/206.5/bdk01_eeee_206.5_10463.xsdst ! RUN = 10463 ! NEVT = 2000
FILE = /castor/cern.ch/delphi/MCprod/lyon/bdk01/va0e/206.5/bdk01_eeee_206.5_10464.xsdst ! RUN = 10464 ! NEVT = 2000
FILE = /castor/cern.ch/delphi/MCprod/lyon/bdk01/va0e/206.5/bdk01_eeee_206.5_10465.xsdst ! RUN = 10465 ! NEVT = 2000
FILE = /castor/cern.ch/delphi/MCprod/lyon/bdk01/va0e/206.5/bdk01_eeee_206.5_10466.xsdst ! RUN = 10466 ! NEVT = 2000
FILE = /castor/cern.ch/delphi/MCprod/lyon/bdk01/va0e/206.5/bdk01_eeee_206.5_10467.xsdst ! RUN = 10467 ! NEVT = 2000
FILE = /castor/cern.ch/delphi/MCprod/lyon/bdk01/va0e/206.5/bdk01_eeee_206.5_10468.xsdst ! RUN = 10468 ! NEVT = 2000
FILE = /castor/cern.ch/delphi/MCprod/lyon/bdk01/va0e/206.5/bdk01_eeee_206.5_10469.xsdst ! RUN = 10469 ! NEVT = 2000
FILE = /castor/cern.ch/delphi/MCprod/lyon/bdk01/va0e/206.5/bdk01_eeee_206.5_10470.xsdst ! RUN = 10470 ! NEVT = 2000
FILE = /castor/cern.ch/delphi/MCprod/lyon/bdk01/va0e/206.5/bdk01_eeee_206.5_10471.xsdst ! RUN = 10471 ! NEVT = 2000
FILE = /castor/cern.ch/delphi/MCprod/lyon/bdk01/va0e/206.5/bdk01_eeee_206.5_10472.xsdst ! RUN = 10472 ! NEVT = 2000
FILE = /castor/cern.ch/delphi/MCprod/lyon/bdk01/va0e/206.5/bdk01_eeee_206.5_10473.xsdst ! RUN = 10473 ! NEVT = 2000
FILE = /castor/cern.ch/delphi/MCprod/lyon/bdk01/va0e/206.5/bdk01_eeee_206.5_10474.xsdst ! RUN = 10474 ! NEVT = 2000
FILE = /castor/cern.ch/delphi/MCprod/lyon/bdk01/va0e/206.5/bdk01_eeee_206.5_10475.xsdst ! RUN = 10475 ! NEVT = 2000
FILE = /castor/cern.ch/delphi/MCprod/lyon/bdk01/va0e/206.5/bdk01_eeee_206.5_10476.xsdst ! RUN = 10476 ! NEVT = 2000
FILE = /castor/cern.ch/delphi/MCprod/lyon/bdk01/va0e/206.5/bdk01_eeee_206.5_10477.xsdst ! RUN = 10477 ! NEVT = 2000
FILE = /castor/cern.ch/delphi/MCprod/lyon/bdk01/va0e/206.5/bdk01_eeee_206.5_10478.xsdst ! RUN = 10478 ! NEVT = 2000
FILE = /castor/cern.ch/delphi/MCprod/lyon/bdk01/va0e/206.5/bdk01_eeee_206.5_10479.xsdst ! RUN = 10479 ! NEVT = 2000
FILE = /castor/cern.ch/delphi/MCprod/lyon/bdk01/va0e/206.5/bdk01_eeee_206.5_10480.xsdst ! RUN = 10480 ! NEVT = 2000
FILE = /castor/cern.ch/delphi/MCprod/lyon/bdk01/va0e/206.5/bdk01_eeee_206.5_10481.xsdst ! RUN = 10481 ! NEVT = 2000
FILE = /castor/cern.ch/delphi/MCprod/lyon/bdk01/va0e/206.5/bdk01_eeee_206.5_10482.xsdst ! RUN = 10482 ! NEVT = 2000
FILE = /castor/cern.ch/delphi/MCprod/lyon/bdk01/va0e/206.5/bdk01_eeee_206.5_10483.xsdst ! RUN = 10483 ! NEVT = 2000
FILE = /castor/cern.ch/delphi/MCprod/lyon/bdk01/va0e/206.5/bdk01_eeee_206.5_10484.xsdst ! RUN = 10484 ! NEVT = 2000
FILE = /castor/cern.ch/delphi/MCprod/lyon/bdk01/va0e/206.5/bdk01_eeee_206.5_10485.xsdst ! RUN = 10485 ! NEVT = 2000
FILE = /castor/cern.ch/delphi/MCprod/lyon/bdk01/va0e/206.5/bdk01_eeee_206.5_10486.xsdst ! RUN = 10486 ! NEVT = 2000
FILE = /castor/cern.ch/delphi/MCprod/lyon/bdk01/va0e/206.5/bdk01_eeee_206.5_10487.xsdst ! RUN = 10487 ! NEVT = 2000
FILE = /castor/cern.ch/delphi/MCprod/lyon/bdk01/va0e/206.5/bdk01_eeee_206.5_10488.xsdst ! RUN = 10488 ! NEVT = 2000
FILE = /castor/cern.ch/delphi/MCprod/lyon/bdk01/va0e/206.5/bdk01_eeee_206.5_10489.xsdst ! RUN = 10489 ! NEVT = 2000
FILE = /castor/cern.ch/delphi/MCprod/lyon/bdk01/va0e/206.5/bdk01_eeee_206.5_10490.xsdst ! RUN = 10490 ! NEVT = 2000
FILE = /castor/cern.ch/delphi/MCprod/lyon/bdk01/va0e/206.5/bdk01_eeee_206.5_10491.xsdst ! RUN = 10491 ! NEVT = 2000
FILE = /castor/cern.ch/delphi/MCprod/lyon/bdk01/va0e/206.5/bdk01_eeee_206.5_10492.xsdst ! RUN = 10492 ! NEVT = 2000
FILE = /castor/cern.ch/delphi/MCprod/lyon/bdk01/va0e/206.5/bdk01_eeee_206.5_10493.xsdst ! RUN = 10493 ! NEVT = 2000
FILE = /castor/cern.ch/delphi/MCprod/lyon/bdk01/va0e/206.5/bdk01_eeee_206.5_10494.xsdst ! RUN = 10494 ! NEVT = 2000
FILE = /castor/cern.ch/delphi/MCprod/lyon/bdk01/va0e/206.5/bdk01_eeee_206.5_10495.xsdst ! RUN = 10495 ! NEVT = 2000
FILE = /castor/cern.ch/delphi/MCprod/lyon/bdk01/va0e/206.5/bdk01_eeee_206.5_10496.xsdst ! RUN = 10496 ! NEVT = 2000
FILE = /castor/cern.ch/delphi/MCprod/lyon/bdk01/va0e/206.5/bdk01_eeee_206.5_10497.xsdst ! RUN = 10497 ! NEVT = 2000
FILE = /castor/cern.ch/delphi/MCprod/lyon/bdk01/va0e/206.5/bdk01_eeee_206.5_10498.xsdst ! RUN = 10498 ! NEVT = 2000
FILE = /castor/cern.ch/delphi/MCprod/lyon/bdk01/va0e/206.5/bdk01_eeee_206.5_10499.xsdst ! RUN = 10499 ! NEVT = 2000
FILE = /castor/cern.ch/delphi/MCprod/lyon/bdk01/va0e/206.5/bdk01_eeee_206.5_10500.xsdst ! RUN = 10500 ! NEVT = 2000
