*
*   Nickname     : xs_bdkrc02eemm_e203.7_la0_1l_e1
*   Generic Name : //CERN/DELPHI/P02_SIMD/XSDST/BDKRC02EEMM/E203.7/LYON/SUMT/C001-145
*   Description  :  Extended Short DST simulation a0_e1 done at ecms=203.7 , Lyon
*---
*   Comments     : in total 1007795 events in 145 files time stamp: Tue Jan  8 15:47:19 2002
*---
*
*
*
*
*
FILE = /castor/cern.ch/delphi/MCprod/lyon/bdkrc02/va0e/203.7/bdkrc02_eemm_203.7_5101.xsdst ! RUN = 5101 ! NEVT = 7000
FILE = /castor/cern.ch/delphi/MCprod/lyon/bdkrc02/va0e/203.7/bdkrc02_eemm_203.7_5102.xsdst ! RUN = 5102 ! NEVT = 7000
FILE = /castor/cern.ch/delphi/MCprod/lyon/bdkrc02/va0e/203.7/bdkrc02_eemm_203.7_5103.xsdst ! RUN = 5103 ! NEVT = 7000
FILE = /castor/cern.ch/delphi/MCprod/lyon/bdkrc02/va0e/203.7/bdkrc02_eemm_203.7_5104.xsdst ! RUN = 5104 ! NEVT = 7000
FILE = /castor/cern.ch/delphi/MCprod/lyon/bdkrc02/va0e/203.7/bdkrc02_eemm_203.7_5105.xsdst ! RUN = 5105 ! NEVT = 7000
FILE = /castor/cern.ch/delphi/MCprod/lyon/bdkrc02/va0e/203.7/bdkrc02_eemm_203.7_5106.xsdst ! RUN = 5106 ! NEVT = 7000
FILE = /castor/cern.ch/delphi/MCprod/lyon/bdkrc02/va0e/203.7/bdkrc02_eemm_203.7_5107.xsdst ! RUN = 5107 ! NEVT = 7000
FILE = /castor/cern.ch/delphi/MCprod/lyon/bdkrc02/va0e/203.7/bdkrc02_eemm_203.7_5108.xsdst ! RUN = 5108 ! NEVT = 7000
FILE = /castor/cern.ch/delphi/MCprod/lyon/bdkrc02/va0e/203.7/bdkrc02_eemm_203.7_5109.xsdst ! RUN = 5109 ! NEVT = 7000
FILE = /castor/cern.ch/delphi/MCprod/lyon/bdkrc02/va0e/203.7/bdkrc02_eemm_203.7_5110.xsdst ! RUN = 5110 ! NEVT = 7000
FILE = /castor/cern.ch/delphi/MCprod/lyon/bdkrc02/va0e/203.7/bdkrc02_eemm_203.7_5111.xsdst ! RUN = 5111 ! NEVT = 7000
FILE = /castor/cern.ch/delphi/MCprod/lyon/bdkrc02/va0e/203.7/bdkrc02_eemm_203.7_5112.xsdst ! RUN = 5112 ! NEVT = 7000
FILE = /castor/cern.ch/delphi/MCprod/lyon/bdkrc02/va0e/203.7/bdkrc02_eemm_203.7_5113.xsdst ! RUN = 5113 ! NEVT = 7000
FILE = /castor/cern.ch/delphi/MCprod/lyon/bdkrc02/va0e/203.7/bdkrc02_eemm_203.7_5114.xsdst ! RUN = 5114 ! NEVT = 7000
FILE = /castor/cern.ch/delphi/MCprod/lyon/bdkrc02/va0e/203.7/bdkrc02_eemm_203.7_5115.xsdst ! RUN = 5115 ! NEVT = 7000
FILE = /castor/cern.ch/delphi/MCprod/lyon/bdkrc02/va0e/203.7/bdkrc02_eemm_203.7_5116.xsdst ! RUN = 5116 ! NEVT = 7000
FILE = /castor/cern.ch/delphi/MCprod/lyon/bdkrc02/va0e/203.7/bdkrc02_eemm_203.7_5117.xsdst ! RUN = 5117 ! NEVT = 7000
FILE = /castor/cern.ch/delphi/MCprod/lyon/bdkrc02/va0e/203.7/bdkrc02_eemm_203.7_5118.xsdst ! RUN = 5118 ! NEVT = 7000
FILE = /castor/cern.ch/delphi/MCprod/lyon/bdkrc02/va0e/203.7/bdkrc02_eemm_203.7_5119.xsdst ! RUN = 5119 ! NEVT = 7000
FILE = /castor/cern.ch/delphi/MCprod/lyon/bdkrc02/va0e/203.7/bdkrc02_eemm_203.7_5120.xsdst ! RUN = 5120 ! NEVT = 7000
FILE = /castor/cern.ch/delphi/MCprod/lyon/bdkrc02/va0e/203.7/bdkrc02_eemm_203.7_5121.xsdst ! RUN = 5121 ! NEVT = 7000
FILE = /castor/cern.ch/delphi/MCprod/lyon/bdkrc02/va0e/203.7/bdkrc02_eemm_203.7_5122.xsdst ! RUN = 5122 ! NEVT = 7000
FILE = /castor/cern.ch/delphi/MCprod/lyon/bdkrc02/va0e/203.7/bdkrc02_eemm_203.7_5123.xsdst ! RUN = 5123 ! NEVT = 7000
FILE = /castor/cern.ch/delphi/MCprod/lyon/bdkrc02/va0e/203.7/bdkrc02_eemm_203.7_5124.xsdst ! RUN = 5124 ! NEVT = 7000
FILE = /castor/cern.ch/delphi/MCprod/lyon/bdkrc02/va0e/203.7/bdkrc02_eemm_203.7_5125.xsdst ! RUN = 5125 ! NEVT = 7000
FILE = /castor/cern.ch/delphi/MCprod/lyon/bdkrc02/va0e/203.7/bdkrc02_eemm_203.7_5126.xsdst ! RUN = 5126 ! NEVT = 7000
FILE = /castor/cern.ch/delphi/MCprod/lyon/bdkrc02/va0e/203.7/bdkrc02_eemm_203.7_5127.xsdst ! RUN = 5127 ! NEVT = 7000
FILE = /castor/cern.ch/delphi/MCprod/lyon/bdkrc02/va0e/203.7/bdkrc02_eemm_203.7_5128.xsdst ! RUN = 5128 ! NEVT = 7000
FILE = /castor/cern.ch/delphi/MCprod/lyon/bdkrc02/va0e/203.7/bdkrc02_eemm_203.7_5129.xsdst ! RUN = 5129 ! NEVT = 7000
FILE = /castor/cern.ch/delphi/MCprod/lyon/bdkrc02/va0e/203.7/bdkrc02_eemm_203.7_5130.xsdst ! RUN = 5130 ! NEVT = 7000
FILE = /castor/cern.ch/delphi/MCprod/lyon/bdkrc02/va0e/203.7/bdkrc02_eemm_203.7_5131.xsdst ! RUN = 5131 ! NEVT = 7000
FILE = /castor/cern.ch/delphi/MCprod/lyon/bdkrc02/va0e/203.7/bdkrc02_eemm_203.7_5132.xsdst ! RUN = 5132 ! NEVT = 7000
FILE = /castor/cern.ch/delphi/MCprod/lyon/bdkrc02/va0e/203.7/bdkrc02_eemm_203.7_5133.xsdst ! RUN = 5133 ! NEVT = 7000
FILE = /castor/cern.ch/delphi/MCprod/lyon/bdkrc02/va0e/203.7/bdkrc02_eemm_203.7_5134.xsdst ! RUN = 5134 ! NEVT = 7000
FILE = /castor/cern.ch/delphi/MCprod/lyon/bdkrc02/va0e/203.7/bdkrc02_eemm_203.7_5135.xsdst ! RUN = 5135 ! NEVT = 7000
FILE = /castor/cern.ch/delphi/MCprod/lyon/bdkrc02/va0e/203.7/bdkrc02_eemm_203.7_5136.xsdst ! RUN = 5136 ! NEVT = 7000
FILE = /castor/cern.ch/delphi/MCprod/lyon/bdkrc02/va0e/203.7/bdkrc02_eemm_203.7_5137.xsdst ! RUN = 5137 ! NEVT = 7000
FILE = /castor/cern.ch/delphi/MCprod/lyon/bdkrc02/va0e/203.7/bdkrc02_eemm_203.7_5138.xsdst ! RUN = 5138 ! NEVT = 7000
FILE = /castor/cern.ch/delphi/MCprod/lyon/bdkrc02/va0e/203.7/bdkrc02_eemm_203.7_5139.xsdst ! RUN = 5139 ! NEVT = 7000
FILE = /castor/cern.ch/delphi/MCprod/lyon/bdkrc02/va0e/203.7/bdkrc02_eemm_203.7_5140.xsdst ! RUN = 5140 ! NEVT = 7000
FILE = /castor/cern.ch/delphi/MCprod/lyon/bdkrc02/va0e/203.7/bdkrc02_eemm_203.7_5141.xsdst ! RUN = 5141 ! NEVT = 7000
FILE = /castor/cern.ch/delphi/MCprod/lyon/bdkrc02/va0e/203.7/bdkrc02_eemm_203.7_5142.xsdst ! RUN = 5142 ! NEVT = 7000
FILE = /castor/cern.ch/delphi/MCprod/lyon/bdkrc02/va0e/203.7/bdkrc02_eemm_203.7_5143.xsdst ! RUN = 5143 ! NEVT = 7000
FILE = /castor/cern.ch/delphi/MCprod/lyon/bdkrc02/va0e/203.7/bdkrc02_eemm_203.7_5144.xsdst ! RUN = 5144 ! NEVT = 7000
FILE = /castor/cern.ch/delphi/MCprod/lyon/bdkrc02/va0e/203.7/bdkrc02_eemm_203.7_5145.xsdst ! RUN = 5145 ! NEVT = 7000
FILE = /castor/cern.ch/delphi/MCprod/lyon/bdkrc02/va0e/203.7/bdkrc02_eemm_203.7_5146.xsdst ! RUN = 5146 ! NEVT = 7000
FILE = /castor/cern.ch/delphi/MCprod/lyon/bdkrc02/va0e/203.7/bdkrc02_eemm_203.7_5147.xsdst ! RUN = 5147 ! NEVT = 7000
FILE = /castor/cern.ch/delphi/MCprod/lyon/bdkrc02/va0e/203.7/bdkrc02_eemm_203.7_5148.xsdst ! RUN = 5148 ! NEVT = 7000
FILE = /castor/cern.ch/delphi/MCprod/lyon/bdkrc02/va0e/203.7/bdkrc02_eemm_203.7_5149.xsdst ! RUN = 5149 ! NEVT = 7000
FILE = /castor/cern.ch/delphi/MCprod/lyon/bdkrc02/va0e/203.7/bdkrc02_eemm_203.7_5150.xsdst ! RUN = 5150 ! NEVT = 7000
FILE = /castor/cern.ch/delphi/MCprod/lyon/bdkrc02/va0e/203.7/bdkrc02_eemm_203.7_5151.xsdst ! RUN = 5151 ! NEVT = 6813
FILE = /castor/cern.ch/delphi/MCprod/lyon/bdkrc02/va0e/203.7/bdkrc02_eemm_203.7_5152.xsdst ! RUN = 5152 ! NEVT = 7000
FILE = /castor/cern.ch/delphi/MCprod/lyon/bdkrc02/va0e/203.7/bdkrc02_eemm_203.7_5153.xsdst ! RUN = 5153 ! NEVT = 7000
FILE = /castor/cern.ch/delphi/MCprod/lyon/bdkrc02/va0e/203.7/bdkrc02_eemm_203.7_5154.xsdst ! RUN = 5154 ! NEVT = 7000
FILE = /castor/cern.ch/delphi/MCprod/lyon/bdkrc02/va0e/203.7/bdkrc02_eemm_203.7_5155.xsdst ! RUN = 5155 ! NEVT = 7000
FILE = /castor/cern.ch/delphi/MCprod/lyon/bdkrc02/va0e/203.7/bdkrc02_eemm_203.7_5156.xsdst ! RUN = 5156 ! NEVT = 7000
FILE = /castor/cern.ch/delphi/MCprod/lyon/bdkrc02/va0e/203.7/bdkrc02_eemm_203.7_5157.xsdst ! RUN = 5157 ! NEVT = 7000
FILE = /castor/cern.ch/delphi/MCprod/lyon/bdkrc02/va0e/203.7/bdkrc02_eemm_203.7_5158.xsdst ! RUN = 5158 ! NEVT = 7000
FILE = /castor/cern.ch/delphi/MCprod/lyon/bdkrc02/va0e/203.7/bdkrc02_eemm_203.7_5159.xsdst ! RUN = 5159 ! NEVT = 7000
FILE = /castor/cern.ch/delphi/MCprod/lyon/bdkrc02/va0e/203.7/bdkrc02_eemm_203.7_5160.xsdst ! RUN = 5160 ! NEVT = 7000
FILE = /castor/cern.ch/delphi/MCprod/lyon/bdkrc02/va0e/203.7/bdkrc02_eemm_203.7_5161.xsdst ! RUN = 5161 ! NEVT = 7000
FILE = /castor/cern.ch/delphi/MCprod/lyon/bdkrc02/va0e/203.7/bdkrc02_eemm_203.7_5162.xsdst ! RUN = 5162 ! NEVT = 7000
FILE = /castor/cern.ch/delphi/MCprod/lyon/bdkrc02/va0e/203.7/bdkrc02_eemm_203.7_5163.xsdst ! RUN = 5163 ! NEVT = 7000
FILE = /castor/cern.ch/delphi/MCprod/lyon/bdkrc02/va0e/203.7/bdkrc02_eemm_203.7_5164.xsdst ! RUN = 5164 ! NEVT = 7000
FILE = /castor/cern.ch/delphi/MCprod/lyon/bdkrc02/va0e/203.7/bdkrc02_eemm_203.7_5165.xsdst ! RUN = 5165 ! NEVT = 7000
FILE = /castor/cern.ch/delphi/MCprod/lyon/bdkrc02/va0e/203.7/bdkrc02_eemm_203.7_5166.xsdst ! RUN = 5166 ! NEVT = 7000
FILE = /castor/cern.ch/delphi/MCprod/lyon/bdkrc02/va0e/203.7/bdkrc02_eemm_203.7_5167.xsdst ! RUN = 5167 ! NEVT = 7000
FILE = /castor/cern.ch/delphi/MCprod/lyon/bdkrc02/va0e/203.7/bdkrc02_eemm_203.7_5168.xsdst ! RUN = 5168 ! NEVT = 7000
FILE = /castor/cern.ch/delphi/MCprod/lyon/bdkrc02/va0e/203.7/bdkrc02_eemm_203.7_5169.xsdst ! RUN = 5169 ! NEVT = 7000
FILE = /castor/cern.ch/delphi/MCprod/lyon/bdkrc02/va0e/203.7/bdkrc02_eemm_203.7_5170.xsdst ! RUN = 5170 ! NEVT = 7000
FILE = /castor/cern.ch/delphi/MCprod/lyon/bdkrc02/va0e/203.7/bdkrc02_eemm_203.7_5171.xsdst ! RUN = 5171 ! NEVT = 7000
FILE = /castor/cern.ch/delphi/MCprod/lyon/bdkrc02/va0e/203.7/bdkrc02_eemm_203.7_5172.xsdst ! RUN = 5172 ! NEVT = 7000
FILE = /castor/cern.ch/delphi/MCprod/lyon/bdkrc02/va0e/203.7/bdkrc02_eemm_203.7_5173.xsdst ! RUN = 5173 ! NEVT = 7000
FILE = /castor/cern.ch/delphi/MCprod/lyon/bdkrc02/va0e/203.7/bdkrc02_eemm_203.7_5174.xsdst ! RUN = 5174 ! NEVT = 7000
FILE = /castor/cern.ch/delphi/MCprod/lyon/bdkrc02/va0e/203.7/bdkrc02_eemm_203.7_5175.xsdst ! RUN = 5175 ! NEVT = 1441
FILE = /castor/cern.ch/delphi/MCprod/lyon/bdkrc02/va0e/203.7/bdkrc02_eemm_203.7_5176.xsdst ! RUN = 5176 ! NEVT = 7000
FILE = /castor/cern.ch/delphi/MCprod/lyon/bdkrc02/va0e/203.7/bdkrc02_eemm_203.7_5177.xsdst ! RUN = 5177 ! NEVT = 7000
FILE = /castor/cern.ch/delphi/MCprod/lyon/bdkrc02/va0e/203.7/bdkrc02_eemm_203.7_5178.xsdst ! RUN = 5178 ! NEVT = 7000
FILE = /castor/cern.ch/delphi/MCprod/lyon/bdkrc02/va0e/203.7/bdkrc02_eemm_203.7_5179.xsdst ! RUN = 5179 ! NEVT = 7000
FILE = /castor/cern.ch/delphi/MCprod/lyon/bdkrc02/va0e/203.7/bdkrc02_eemm_203.7_5180.xsdst ! RUN = 5180 ! NEVT = 7000
FILE = /castor/cern.ch/delphi/MCprod/lyon/bdkrc02/va0e/203.7/bdkrc02_eemm_203.7_5181.xsdst ! RUN = 5181 ! NEVT = 7000
FILE = /castor/cern.ch/delphi/MCprod/lyon/bdkrc02/va0e/203.7/bdkrc02_eemm_203.7_5182.xsdst ! RUN = 5182 ! NEVT = 7000
FILE = /castor/cern.ch/delphi/MCprod/lyon/bdkrc02/va0e/203.7/bdkrc02_eemm_203.7_5183.xsdst ! RUN = 5183 ! NEVT = 7000
FILE = /castor/cern.ch/delphi/MCprod/lyon/bdkrc02/va0e/203.7/bdkrc02_eemm_203.7_5184.xsdst ! RUN = 5184 ! NEVT = 7000
FILE = /castor/cern.ch/delphi/MCprod/lyon/bdkrc02/va0e/203.7/bdkrc02_eemm_203.7_5185.xsdst ! RUN = 5185 ! NEVT = 7000
FILE = /castor/cern.ch/delphi/MCprod/lyon/bdkrc02/va0e/203.7/bdkrc02_eemm_203.7_5186.xsdst ! RUN = 5186 ! NEVT = 7000
FILE = /castor/cern.ch/delphi/MCprod/lyon/bdkrc02/va0e/203.7/bdkrc02_eemm_203.7_5187.xsdst ! RUN = 5187 ! NEVT = 7000
FILE = /castor/cern.ch/delphi/MCprod/lyon/bdkrc02/va0e/203.7/bdkrc02_eemm_203.7_5188.xsdst ! RUN = 5188 ! NEVT = 7000
FILE = /castor/cern.ch/delphi/MCprod/lyon/bdkrc02/va0e/203.7/bdkrc02_eemm_203.7_5189.xsdst ! RUN = 5189 ! NEVT = 7000
FILE = /castor/cern.ch/delphi/MCprod/lyon/bdkrc02/va0e/203.7/bdkrc02_eemm_203.7_5190.xsdst ! RUN = 5190 ! NEVT = 7000
FILE = /castor/cern.ch/delphi/MCprod/lyon/bdkrc02/va0e/203.7/bdkrc02_eemm_203.7_5191.xsdst ! RUN = 5191 ! NEVT = 7000
FILE = /castor/cern.ch/delphi/MCprod/lyon/bdkrc02/va0e/203.7/bdkrc02_eemm_203.7_5192.xsdst ! RUN = 5192 ! NEVT = 7000
FILE = /castor/cern.ch/delphi/MCprod/lyon/bdkrc02/va0e/203.7/bdkrc02_eemm_203.7_5193.xsdst ! RUN = 5193 ! NEVT = 7000
FILE = /castor/cern.ch/delphi/MCprod/lyon/bdkrc02/va0e/203.7/bdkrc02_eemm_203.7_5194.xsdst ! RUN = 5194 ! NEVT = 7000
FILE = /castor/cern.ch/delphi/MCprod/lyon/bdkrc02/va0e/203.7/bdkrc02_eemm_203.7_5195.xsdst ! RUN = 5195 ! NEVT = 7000
FILE = /castor/cern.ch/delphi/MCprod/lyon/bdkrc02/va0e/203.7/bdkrc02_eemm_203.7_5196.xsdst ! RUN = 5196 ! NEVT = 7000
FILE = /castor/cern.ch/delphi/MCprod/lyon/bdkrc02/va0e/203.7/bdkrc02_eemm_203.7_5197.xsdst ! RUN = 5197 ! NEVT = 7000
FILE = /castor/cern.ch/delphi/MCprod/lyon/bdkrc02/va0e/203.7/bdkrc02_eemm_203.7_5198.xsdst ! RUN = 5198 ! NEVT = 7000
FILE = /castor/cern.ch/delphi/MCprod/lyon/bdkrc02/va0e/203.7/bdkrc02_eemm_203.7_5199.xsdst ! RUN = 5199 ! NEVT = 7000
FILE = /castor/cern.ch/delphi/MCprod/lyon/bdkrc02/va0e/203.7/bdkrc02_eemm_203.7_5200.xsdst ! RUN = 5200 ! NEVT = 7000
FILE = /castor/cern.ch/delphi/MCprod/lyon/bdkrc02/va0e/203.7/bdkrc02_eemm_203.7_5201.xsdst ! RUN = 5201 ! NEVT = 7000
FILE = /castor/cern.ch/delphi/MCprod/lyon/bdkrc02/va0e/203.7/bdkrc02_eemm_203.7_5202.xsdst ! RUN = 5202 ! NEVT = 7000
FILE = /castor/cern.ch/delphi/MCprod/lyon/bdkrc02/va0e/203.7/bdkrc02_eemm_203.7_5203.xsdst ! RUN = 5203 ! NEVT = 7000
FILE = /castor/cern.ch/delphi/MCprod/lyon/bdkrc02/va0e/203.7/bdkrc02_eemm_203.7_5204.xsdst ! RUN = 5204 ! NEVT = 7000
FILE = /castor/cern.ch/delphi/MCprod/lyon/bdkrc02/va0e/203.7/bdkrc02_eemm_203.7_5205.xsdst ! RUN = 5205 ! NEVT = 7000
FILE = /castor/cern.ch/delphi/MCprod/lyon/bdkrc02/va0e/203.7/bdkrc02_eemm_203.7_5206.xsdst ! RUN = 5206 ! NEVT = 7000
FILE = /castor/cern.ch/delphi/MCprod/lyon/bdkrc02/va0e/203.7/bdkrc02_eemm_203.7_5207.xsdst ! RUN = 5207 ! NEVT = 7000
FILE = /castor/cern.ch/delphi/MCprod/lyon/bdkrc02/va0e/203.7/bdkrc02_eemm_203.7_5208.xsdst ! RUN = 5208 ! NEVT = 7000
FILE = /castor/cern.ch/delphi/MCprod/lyon/bdkrc02/va0e/203.7/bdkrc02_eemm_203.7_5209.xsdst ! RUN = 5209 ! NEVT = 7000
FILE = /castor/cern.ch/delphi/MCprod/lyon/bdkrc02/va0e/203.7/bdkrc02_eemm_203.7_5210.xsdst ! RUN = 5210 ! NEVT = 7000
FILE = /castor/cern.ch/delphi/MCprod/lyon/bdkrc02/va0e/203.7/bdkrc02_eemm_203.7_5211.xsdst ! RUN = 5211 ! NEVT = 7000
FILE = /castor/cern.ch/delphi/MCprod/lyon/bdkrc02/va0e/203.7/bdkrc02_eemm_203.7_5212.xsdst ! RUN = 5212 ! NEVT = 7000
FILE = /castor/cern.ch/delphi/MCprod/lyon/bdkrc02/va0e/203.7/bdkrc02_eemm_203.7_5213.xsdst ! RUN = 5213 ! NEVT = 7000
FILE = /castor/cern.ch/delphi/MCprod/lyon/bdkrc02/va0e/203.7/bdkrc02_eemm_203.7_5214.xsdst ! RUN = 5214 ! NEVT = 7000
FILE = /castor/cern.ch/delphi/MCprod/lyon/bdkrc02/va0e/203.7/bdkrc02_eemm_203.7_5215.xsdst ! RUN = 5215 ! NEVT = 7000
FILE = /castor/cern.ch/delphi/MCprod/lyon/bdkrc02/va0e/203.7/bdkrc02_eemm_203.7_5216.xsdst ! RUN = 5216 ! NEVT = 7000
FILE = /castor/cern.ch/delphi/MCprod/lyon/bdkrc02/va0e/203.7/bdkrc02_eemm_203.7_5217.xsdst ! RUN = 5217 ! NEVT = 7000
FILE = /castor/cern.ch/delphi/MCprod/lyon/bdkrc02/va0e/203.7/bdkrc02_eemm_203.7_5218.xsdst ! RUN = 5218 ! NEVT = 7000
FILE = /castor/cern.ch/delphi/MCprod/lyon/bdkrc02/va0e/203.7/bdkrc02_eemm_203.7_5219.xsdst ! RUN = 5219 ! NEVT = 7000
FILE = /castor/cern.ch/delphi/MCprod/lyon/bdkrc02/va0e/203.7/bdkrc02_eemm_203.7_5220.xsdst ! RUN = 5220 ! NEVT = 7000
FILE = /castor/cern.ch/delphi/MCprod/lyon/bdkrc02/va0e/203.7/bdkrc02_eemm_203.7_5221.xsdst ! RUN = 5221 ! NEVT = 7000
FILE = /castor/cern.ch/delphi/MCprod/lyon/bdkrc02/va0e/203.7/bdkrc02_eemm_203.7_5222.xsdst ! RUN = 5222 ! NEVT = 7000
FILE = /castor/cern.ch/delphi/MCprod/lyon/bdkrc02/va0e/203.7/bdkrc02_eemm_203.7_5223.xsdst ! RUN = 5223 ! NEVT = 7000
FILE = /castor/cern.ch/delphi/MCprod/lyon/bdkrc02/va0e/203.7/bdkrc02_eemm_203.7_5224.xsdst ! RUN = 5224 ! NEVT = 7000
FILE = /castor/cern.ch/delphi/MCprod/lyon/bdkrc02/va0e/203.7/bdkrc02_eemm_203.7_5225.xsdst ! RUN = 5225 ! NEVT = 7000
FILE = /castor/cern.ch/delphi/MCprod/lyon/bdkrc02/va0e/203.7/bdkrc02_eemm_203.7_5226.xsdst ! RUN = 5226 ! NEVT = 7000
FILE = /castor/cern.ch/delphi/MCprod/lyon/bdkrc02/va0e/203.7/bdkrc02_eemm_203.7_5227.xsdst ! RUN = 5227 ! NEVT = 5541
FILE = /castor/cern.ch/delphi/MCprod/lyon/bdkrc02/va0e/203.7/bdkrc02_eemm_203.7_5228.xsdst ! RUN = 5228 ! NEVT = 7000
FILE = /castor/cern.ch/delphi/MCprod/lyon/bdkrc02/va0e/203.7/bdkrc02_eemm_203.7_5229.xsdst ! RUN = 5229 ! NEVT = 7000
FILE = /castor/cern.ch/delphi/MCprod/lyon/bdkrc02/va0e/203.7/bdkrc02_eemm_203.7_5230.xsdst ! RUN = 5230 ! NEVT = 7000
FILE = /castor/cern.ch/delphi/MCprod/lyon/bdkrc02/va0e/203.7/bdkrc02_eemm_203.7_5231.xsdst ! RUN = 5231 ! NEVT = 7000
FILE = /castor/cern.ch/delphi/MCprod/lyon/bdkrc02/va0e/203.7/bdkrc02_eemm_203.7_5232.xsdst ! RUN = 5232 ! NEVT = 7000
FILE = /castor/cern.ch/delphi/MCprod/lyon/bdkrc02/va0e/203.7/bdkrc02_eemm_203.7_5233.xsdst ! RUN = 5233 ! NEVT = 7000
FILE = /castor/cern.ch/delphi/MCprod/lyon/bdkrc02/va0e/203.7/bdkrc02_eemm_203.7_5234.xsdst ! RUN = 5234 ! NEVT = 7000
FILE = /castor/cern.ch/delphi/MCprod/lyon/bdkrc02/va0e/203.7/bdkrc02_eemm_203.7_5235.xsdst ! RUN = 5235 ! NEVT = 7000
FILE = /castor/cern.ch/delphi/MCprod/lyon/bdkrc02/va0e/203.7/bdkrc02_eemm_203.7_5236.xsdst ! RUN = 5236 ! NEVT = 7000
FILE = /castor/cern.ch/delphi/MCprod/lyon/bdkrc02/va0e/203.7/bdkrc02_eemm_203.7_5237.xsdst ! RUN = 5237 ! NEVT = 7000
FILE = /castor/cern.ch/delphi/MCprod/lyon/bdkrc02/va0e/203.7/bdkrc02_eemm_203.7_5238.xsdst ! RUN = 5238 ! NEVT = 7000
FILE = /castor/cern.ch/delphi/MCprod/lyon/bdkrc02/va0e/203.7/bdkrc02_eemm_203.7_5239.xsdst ! RUN = 5239 ! NEVT = 7000
FILE = /castor/cern.ch/delphi/MCprod/lyon/bdkrc02/va0e/203.7/bdkrc02_eemm_203.7_5240.xsdst ! RUN = 5240 ! NEVT = 7000
FILE = /castor/cern.ch/delphi/MCprod/lyon/bdkrc02/va0e/203.7/bdkrc02_eemm_203.7_5241.xsdst ! RUN = 5241 ! NEVT = 7000
FILE = /castor/cern.ch/delphi/MCprod/lyon/bdkrc02/va0e/203.7/bdkrc02_eemm_203.7_5242.xsdst ! RUN = 5242 ! NEVT = 7000
FILE = /castor/cern.ch/delphi/MCprod/lyon/bdkrc02/va0e/203.7/bdkrc02_eemm_203.7_5243.xsdst ! RUN = 5243 ! NEVT = 7000
FILE = /castor/cern.ch/delphi/MCprod/lyon/bdkrc02/va0e/203.7/bdkrc02_eemm_203.7_5244.xsdst ! RUN = 5244 ! NEVT = 7000
FILE = /castor/cern.ch/delphi/MCprod/lyon/bdkrc02/va0e/203.7/bdkrc02_eemm_203.7_5245.xsdst ! RUN = 5245 ! NEVT = 7000
