*
*   Nickname     : xs_bdkrc02eett_e205_la0_1l_e1
*   Generic Name : //CERN/DELPHI/P02_SIMD/XSDST/BDKRC02EETT/LYON/SUMT/C001-145
*   Description  :  Extended Short DST simulation a0_e1 205 , Lyon
*---
*   Comments     : in total 999523 events in 145 files time stamp: Wed Jan  9 19:02:48 2002
*---
*
*
*
*
*
FILE = /castor/cern.ch/delphi/MCprod/lyon/bdkrc02/va0e/205/bdkrc02_eett_205_41001.xsdst ! RUN = 41001 ! NEVT = 7000
FILE = /castor/cern.ch/delphi/MCprod/lyon/bdkrc02/va0e/205/bdkrc02_eett_205_41002.xsdst ! RUN = 41002 ! NEVT = 7000
FILE = /castor/cern.ch/delphi/MCprod/lyon/bdkrc02/va0e/205/bdkrc02_eett_205_41003.xsdst ! RUN = 41003 ! NEVT = 7000
FILE = /castor/cern.ch/delphi/MCprod/lyon/bdkrc02/va0e/205/bdkrc02_eett_205_41004.xsdst ! RUN = 41004 ! NEVT = 3387
FILE = /castor/cern.ch/delphi/MCprod/lyon/bdkrc02/va0e/205/bdkrc02_eett_205_41005.xsdst ! RUN = 41005 ! NEVT = 7000
FILE = /castor/cern.ch/delphi/MCprod/lyon/bdkrc02/va0e/205/bdkrc02_eett_205_41006.xsdst ! RUN = 41006 ! NEVT = 7000
FILE = /castor/cern.ch/delphi/MCprod/lyon/bdkrc02/va0e/205/bdkrc02_eett_205_41007.xsdst ! RUN = 41007 ! NEVT = 7000
FILE = /castor/cern.ch/delphi/MCprod/lyon/bdkrc02/va0e/205/bdkrc02_eett_205_41008.xsdst ! RUN = 41008 ! NEVT = 7000
FILE = /castor/cern.ch/delphi/MCprod/lyon/bdkrc02/va0e/205/bdkrc02_eett_205_41009.xsdst ! RUN = 41009 ! NEVT = 7000
FILE = /castor/cern.ch/delphi/MCprod/lyon/bdkrc02/va0e/205/bdkrc02_eett_205_41010.xsdst ! RUN = 41010 ! NEVT = 7000
FILE = /castor/cern.ch/delphi/MCprod/lyon/bdkrc02/va0e/205/bdkrc02_eett_205_41011.xsdst ! RUN = 41011 ! NEVT = 7000
FILE = /castor/cern.ch/delphi/MCprod/lyon/bdkrc02/va0e/205/bdkrc02_eett_205_41012.xsdst ! RUN = 41012 ! NEVT = 7000
FILE = /castor/cern.ch/delphi/MCprod/lyon/bdkrc02/va0e/205/bdkrc02_eett_205_41013.xsdst ! RUN = 41013 ! NEVT = 7000
FILE = /castor/cern.ch/delphi/MCprod/lyon/bdkrc02/va0e/205/bdkrc02_eett_205_41014.xsdst ! RUN = 41014 ! NEVT = 7000
FILE = /castor/cern.ch/delphi/MCprod/lyon/bdkrc02/va0e/205/bdkrc02_eett_205_41015.xsdst ! RUN = 41015 ! NEVT = 7000
FILE = /castor/cern.ch/delphi/MCprod/lyon/bdkrc02/va0e/205/bdkrc02_eett_205_41016.xsdst ! RUN = 41016 ! NEVT = 7000
FILE = /castor/cern.ch/delphi/MCprod/lyon/bdkrc02/va0e/205/bdkrc02_eett_205_41017.xsdst ! RUN = 41017 ! NEVT = 7000
FILE = /castor/cern.ch/delphi/MCprod/lyon/bdkrc02/va0e/205/bdkrc02_eett_205_41018.xsdst ! RUN = 41018 ! NEVT = 7000
FILE = /castor/cern.ch/delphi/MCprod/lyon/bdkrc02/va0e/205/bdkrc02_eett_205_41019.xsdst ! RUN = 41019 ! NEVT = 7000
FILE = /castor/cern.ch/delphi/MCprod/lyon/bdkrc02/va0e/205/bdkrc02_eett_205_41020.xsdst ! RUN = 41020 ! NEVT = 7000
FILE = /castor/cern.ch/delphi/MCprod/lyon/bdkrc02/va0e/205/bdkrc02_eett_205_41021.xsdst ! RUN = 41021 ! NEVT = 7000
FILE = /castor/cern.ch/delphi/MCprod/lyon/bdkrc02/va0e/205/bdkrc02_eett_205_41022.xsdst ! RUN = 41022 ! NEVT = 7000
FILE = /castor/cern.ch/delphi/MCprod/lyon/bdkrc02/va0e/205/bdkrc02_eett_205_41023.xsdst ! RUN = 41023 ! NEVT = 7000
FILE = /castor/cern.ch/delphi/MCprod/lyon/bdkrc02/va0e/205/bdkrc02_eett_205_41024.xsdst ! RUN = 41024 ! NEVT = 7000
FILE = /castor/cern.ch/delphi/MCprod/lyon/bdkrc02/va0e/205/bdkrc02_eett_205_41025.xsdst ! RUN = 41025 ! NEVT = 7000
FILE = /castor/cern.ch/delphi/MCprod/lyon/bdkrc02/va0e/205/bdkrc02_eett_205_41026.xsdst ! RUN = 41026 ! NEVT = 7000
FILE = /castor/cern.ch/delphi/MCprod/lyon/bdkrc02/va0e/205/bdkrc02_eett_205_41027.xsdst ! RUN = 41027 ! NEVT = 7000
FILE = /castor/cern.ch/delphi/MCprod/lyon/bdkrc02/va0e/205/bdkrc02_eett_205_41028.xsdst ! RUN = 41028 ! NEVT = 7000
FILE = /castor/cern.ch/delphi/MCprod/lyon/bdkrc02/va0e/205/bdkrc02_eett_205_41029.xsdst ! RUN = 41029 ! NEVT = 7000
FILE = /castor/cern.ch/delphi/MCprod/lyon/bdkrc02/va0e/205/bdkrc02_eett_205_41030.xsdst ! RUN = 41030 ! NEVT = 7000
FILE = /castor/cern.ch/delphi/MCprod/lyon/bdkrc02/va0e/205/bdkrc02_eett_205_41031.xsdst ! RUN = 41031 ! NEVT = 7000
FILE = /castor/cern.ch/delphi/MCprod/lyon/bdkrc02/va0e/205/bdkrc02_eett_205_41032.xsdst ! RUN = 41032 ! NEVT = 7000
FILE = /castor/cern.ch/delphi/MCprod/lyon/bdkrc02/va0e/205/bdkrc02_eett_205_41033.xsdst ! RUN = 41033 ! NEVT = 7000
FILE = /castor/cern.ch/delphi/MCprod/lyon/bdkrc02/va0e/205/bdkrc02_eett_205_41034.xsdst ! RUN = 41034 ! NEVT = 7000
FILE = /castor/cern.ch/delphi/MCprod/lyon/bdkrc02/va0e/205/bdkrc02_eett_205_41035.xsdst ! RUN = 41035 ! NEVT = 7000
FILE = /castor/cern.ch/delphi/MCprod/lyon/bdkrc02/va0e/205/bdkrc02_eett_205_41036.xsdst ! RUN = 41036 ! NEVT = 7000
FILE = /castor/cern.ch/delphi/MCprod/lyon/bdkrc02/va0e/205/bdkrc02_eett_205_41037.xsdst ! RUN = 41037 ! NEVT = 7000
FILE = /castor/cern.ch/delphi/MCprod/lyon/bdkrc02/va0e/205/bdkrc02_eett_205_41038.xsdst ! RUN = 41038 ! NEVT = 7000
FILE = /castor/cern.ch/delphi/MCprod/lyon/bdkrc02/va0e/205/bdkrc02_eett_205_41039.xsdst ! RUN = 41039 ! NEVT = 7000
FILE = /castor/cern.ch/delphi/MCprod/lyon/bdkrc02/va0e/205/bdkrc02_eett_205_41040.xsdst ! RUN = 41040 ! NEVT = 7000
FILE = /castor/cern.ch/delphi/MCprod/lyon/bdkrc02/va0e/205/bdkrc02_eett_205_41041.xsdst ! RUN = 41041 ! NEVT = 7000
FILE = /castor/cern.ch/delphi/MCprod/lyon/bdkrc02/va0e/205/bdkrc02_eett_205_41042.xsdst ! RUN = 41042 ! NEVT = 7000
FILE = /castor/cern.ch/delphi/MCprod/lyon/bdkrc02/va0e/205/bdkrc02_eett_205_41043.xsdst ! RUN = 41043 ! NEVT = 7000
FILE = /castor/cern.ch/delphi/MCprod/lyon/bdkrc02/va0e/205/bdkrc02_eett_205_41044.xsdst ! RUN = 41044 ! NEVT = 7000
FILE = /castor/cern.ch/delphi/MCprod/lyon/bdkrc02/va0e/205/bdkrc02_eett_205_41045.xsdst ! RUN = 41045 ! NEVT = 7000
FILE = /castor/cern.ch/delphi/MCprod/lyon/bdkrc02/va0e/205/bdkrc02_eett_205_41046.xsdst ! RUN = 41046 ! NEVT = 7000
FILE = /castor/cern.ch/delphi/MCprod/lyon/bdkrc02/va0e/205/bdkrc02_eett_205_41047.xsdst ! RUN = 41047 ! NEVT = 7000
FILE = /castor/cern.ch/delphi/MCprod/lyon/bdkrc02/va0e/205/bdkrc02_eett_205_41048.xsdst ! RUN = 41048 ! NEVT = 7000
FILE = /castor/cern.ch/delphi/MCprod/lyon/bdkrc02/va0e/205/bdkrc02_eett_205_41049.xsdst ! RUN = 41049 ! NEVT = 7000
FILE = /castor/cern.ch/delphi/MCprod/lyon/bdkrc02/va0e/205/bdkrc02_eett_205_41050.xsdst ! RUN = 41050 ! NEVT = 7000
FILE = /castor/cern.ch/delphi/MCprod/lyon/bdkrc02/va0e/205/bdkrc02_eett_205_41051.xsdst ! RUN = 41051 ! NEVT = 7000
FILE = /castor/cern.ch/delphi/MCprod/lyon/bdkrc02/va0e/205/bdkrc02_eett_205_41052.xsdst ! RUN = 41052 ! NEVT = 7000
FILE = /castor/cern.ch/delphi/MCprod/lyon/bdkrc02/va0e/205/bdkrc02_eett_205_41053.xsdst ! RUN = 41053 ! NEVT = 7000
FILE = /castor/cern.ch/delphi/MCprod/lyon/bdkrc02/va0e/205/bdkrc02_eett_205_41054.xsdst ! RUN = 41054 ! NEVT = 7000
FILE = /castor/cern.ch/delphi/MCprod/lyon/bdkrc02/va0e/205/bdkrc02_eett_205_41055.xsdst ! RUN = 41055 ! NEVT = 7000
FILE = /castor/cern.ch/delphi/MCprod/lyon/bdkrc02/va0e/205/bdkrc02_eett_205_41056.xsdst ! RUN = 41056 ! NEVT = 7000
FILE = /castor/cern.ch/delphi/MCprod/lyon/bdkrc02/va0e/205/bdkrc02_eett_205_41057.xsdst ! RUN = 41057 ! NEVT = 214
FILE = /castor/cern.ch/delphi/MCprod/lyon/bdkrc02/va0e/205/bdkrc02_eett_205_41058.xsdst ! RUN = 41058 ! NEVT = 7000
FILE = /castor/cern.ch/delphi/MCprod/lyon/bdkrc02/va0e/205/bdkrc02_eett_205_41059.xsdst ! RUN = 41059 ! NEVT = 7000
FILE = /castor/cern.ch/delphi/MCprod/lyon/bdkrc02/va0e/205/bdkrc02_eett_205_41060.xsdst ! RUN = 41060 ! NEVT = 7000
FILE = /castor/cern.ch/delphi/MCprod/lyon/bdkrc02/va0e/205/bdkrc02_eett_205_41061.xsdst ! RUN = 41061 ! NEVT = 7000
FILE = /castor/cern.ch/delphi/MCprod/lyon/bdkrc02/va0e/205/bdkrc02_eett_205_41062.xsdst ! RUN = 41062 ! NEVT = 7000
FILE = /castor/cern.ch/delphi/MCprod/lyon/bdkrc02/va0e/205/bdkrc02_eett_205_41063.xsdst ! RUN = 41063 ! NEVT = 7000
FILE = /castor/cern.ch/delphi/MCprod/lyon/bdkrc02/va0e/205/bdkrc02_eett_205_41064.xsdst ! RUN = 41064 ! NEVT = 7000
FILE = /castor/cern.ch/delphi/MCprod/lyon/bdkrc02/va0e/205/bdkrc02_eett_205_41065.xsdst ! RUN = 41065 ! NEVT = 7000
FILE = /castor/cern.ch/delphi/MCprod/lyon/bdkrc02/va0e/205/bdkrc02_eett_205_41066.xsdst ! RUN = 41066 ! NEVT = 7000
FILE = /castor/cern.ch/delphi/MCprod/lyon/bdkrc02/va0e/205/bdkrc02_eett_205_41067.xsdst ! RUN = 41067 ! NEVT = 7000
FILE = /castor/cern.ch/delphi/MCprod/lyon/bdkrc02/va0e/205/bdkrc02_eett_205_41068.xsdst ! RUN = 41068 ! NEVT = 7000
FILE = /castor/cern.ch/delphi/MCprod/lyon/bdkrc02/va0e/205/bdkrc02_eett_205_41069.xsdst ! RUN = 41069 ! NEVT = 7000
FILE = /castor/cern.ch/delphi/MCprod/lyon/bdkrc02/va0e/205/bdkrc02_eett_205_41070.xsdst ! RUN = 41070 ! NEVT = 7000
FILE = /castor/cern.ch/delphi/MCprod/lyon/bdkrc02/va0e/205/bdkrc02_eett_205_41071.xsdst ! RUN = 41071 ! NEVT = 7000
FILE = /castor/cern.ch/delphi/MCprod/lyon/bdkrc02/va0e/205/bdkrc02_eett_205_41072.xsdst ! RUN = 41072 ! NEVT = 7000
FILE = /castor/cern.ch/delphi/MCprod/lyon/bdkrc02/va0e/205/bdkrc02_eett_205_41073.xsdst ! RUN = 41073 ! NEVT = 7000
FILE = /castor/cern.ch/delphi/MCprod/lyon/bdkrc02/va0e/205/bdkrc02_eett_205_41074.xsdst ! RUN = 41074 ! NEVT = 7000
FILE = /castor/cern.ch/delphi/MCprod/lyon/bdkrc02/va0e/205/bdkrc02_eett_205_41075.xsdst ! RUN = 41075 ! NEVT = 7000
FILE = /castor/cern.ch/delphi/MCprod/lyon/bdkrc02/va0e/205/bdkrc02_eett_205_41076.xsdst ! RUN = 41076 ! NEVT = 7000
FILE = /castor/cern.ch/delphi/MCprod/lyon/bdkrc02/va0e/205/bdkrc02_eett_205_41077.xsdst ! RUN = 41077 ! NEVT = 7000
FILE = /castor/cern.ch/delphi/MCprod/lyon/bdkrc02/va0e/205/bdkrc02_eett_205_41078.xsdst ! RUN = 41078 ! NEVT = 7000
FILE = /castor/cern.ch/delphi/MCprod/lyon/bdkrc02/va0e/205/bdkrc02_eett_205_41079.xsdst ! RUN = 41079 ! NEVT = 7000
FILE = /castor/cern.ch/delphi/MCprod/lyon/bdkrc02/va0e/205/bdkrc02_eett_205_41080.xsdst ! RUN = 41080 ! NEVT = 7000
FILE = /castor/cern.ch/delphi/MCprod/lyon/bdkrc02/va0e/205/bdkrc02_eett_205_41081.xsdst ! RUN = 41081 ! NEVT = 7000
FILE = /castor/cern.ch/delphi/MCprod/lyon/bdkrc02/va0e/205/bdkrc02_eett_205_41082.xsdst ! RUN = 41082 ! NEVT = 7000
FILE = /castor/cern.ch/delphi/MCprod/lyon/bdkrc02/va0e/205/bdkrc02_eett_205_41083.xsdst ! RUN = 41083 ! NEVT = 1922
FILE = /castor/cern.ch/delphi/MCprod/lyon/bdkrc02/va0e/205/bdkrc02_eett_205_41084.xsdst ! RUN = 41084 ! NEVT = 7000
FILE = /castor/cern.ch/delphi/MCprod/lyon/bdkrc02/va0e/205/bdkrc02_eett_205_41085.xsdst ! RUN = 41085 ! NEVT = 7000
FILE = /castor/cern.ch/delphi/MCprod/lyon/bdkrc02/va0e/205/bdkrc02_eett_205_41086.xsdst ! RUN = 41086 ! NEVT = 7000
FILE = /castor/cern.ch/delphi/MCprod/lyon/bdkrc02/va0e/205/bdkrc02_eett_205_41087.xsdst ! RUN = 41087 ! NEVT = 7000
FILE = /castor/cern.ch/delphi/MCprod/lyon/bdkrc02/va0e/205/bdkrc02_eett_205_41088.xsdst ! RUN = 41088 ! NEVT = 7000
FILE = /castor/cern.ch/delphi/MCprod/lyon/bdkrc02/va0e/205/bdkrc02_eett_205_41089.xsdst ! RUN = 41089 ! NEVT = 7000
FILE = /castor/cern.ch/delphi/MCprod/lyon/bdkrc02/va0e/205/bdkrc02_eett_205_41090.xsdst ! RUN = 41090 ! NEVT = 7000
FILE = /castor/cern.ch/delphi/MCprod/lyon/bdkrc02/va0e/205/bdkrc02_eett_205_41091.xsdst ! RUN = 41091 ! NEVT = 7000
FILE = /castor/cern.ch/delphi/MCprod/lyon/bdkrc02/va0e/205/bdkrc02_eett_205_41092.xsdst ! RUN = 41092 ! NEVT = 7000
FILE = /castor/cern.ch/delphi/MCprod/lyon/bdkrc02/va0e/205/bdkrc02_eett_205_41093.xsdst ! RUN = 41093 ! NEVT = 7000
FILE = /castor/cern.ch/delphi/MCprod/lyon/bdkrc02/va0e/205/bdkrc02_eett_205_41094.xsdst ! RUN = 41094 ! NEVT = 7000
FILE = /castor/cern.ch/delphi/MCprod/lyon/bdkrc02/va0e/205/bdkrc02_eett_205_41095.xsdst ! RUN = 41095 ! NEVT = 7000
FILE = /castor/cern.ch/delphi/MCprod/lyon/bdkrc02/va0e/205/bdkrc02_eett_205_41096.xsdst ! RUN = 41096 ! NEVT = 7000
FILE = /castor/cern.ch/delphi/MCprod/lyon/bdkrc02/va0e/205/bdkrc02_eett_205_41097.xsdst ! RUN = 41097 ! NEVT = 7000
FILE = /castor/cern.ch/delphi/MCprod/lyon/bdkrc02/va0e/205/bdkrc02_eett_205_41098.xsdst ! RUN = 41098 ! NEVT = 7000
FILE = /castor/cern.ch/delphi/MCprod/lyon/bdkrc02/va0e/205/bdkrc02_eett_205_41099.xsdst ! RUN = 41099 ! NEVT = 7000
FILE = /castor/cern.ch/delphi/MCprod/lyon/bdkrc02/va0e/205/bdkrc02_eett_205_41100.xsdst ! RUN = 41100 ! NEVT = 7000
FILE = /castor/cern.ch/delphi/MCprod/lyon/bdkrc02/va0e/205/bdkrc02_eett_205_41101.xsdst ! RUN = 41101 ! NEVT = 7000
FILE = /castor/cern.ch/delphi/MCprod/lyon/bdkrc02/va0e/205/bdkrc02_eett_205_41102.xsdst ! RUN = 41102 ! NEVT = 7000
FILE = /castor/cern.ch/delphi/MCprod/lyon/bdkrc02/va0e/205/bdkrc02_eett_205_41103.xsdst ! RUN = 41103 ! NEVT = 7000
FILE = /castor/cern.ch/delphi/MCprod/lyon/bdkrc02/va0e/205/bdkrc02_eett_205_41104.xsdst ! RUN = 41104 ! NEVT = 7000
FILE = /castor/cern.ch/delphi/MCprod/lyon/bdkrc02/va0e/205/bdkrc02_eett_205_41105.xsdst ! RUN = 41105 ! NEVT = 7000
FILE = /castor/cern.ch/delphi/MCprod/lyon/bdkrc02/va0e/205/bdkrc02_eett_205_41106.xsdst ! RUN = 41106 ! NEVT = 7000
FILE = /castor/cern.ch/delphi/MCprod/lyon/bdkrc02/va0e/205/bdkrc02_eett_205_41107.xsdst ! RUN = 41107 ! NEVT = 7000
FILE = /castor/cern.ch/delphi/MCprod/lyon/bdkrc02/va0e/205/bdkrc02_eett_205_41108.xsdst ! RUN = 41108 ! NEVT = 7000
FILE = /castor/cern.ch/delphi/MCprod/lyon/bdkrc02/va0e/205/bdkrc02_eett_205_41109.xsdst ! RUN = 41109 ! NEVT = 7000
FILE = /castor/cern.ch/delphi/MCprod/lyon/bdkrc02/va0e/205/bdkrc02_eett_205_41110.xsdst ! RUN = 41110 ! NEVT = 7000
FILE = /castor/cern.ch/delphi/MCprod/lyon/bdkrc02/va0e/205/bdkrc02_eett_205_41111.xsdst ! RUN = 41111 ! NEVT = 7000
FILE = /castor/cern.ch/delphi/MCprod/lyon/bdkrc02/va0e/205/bdkrc02_eett_205_41112.xsdst ! RUN = 41112 ! NEVT = 7000
FILE = /castor/cern.ch/delphi/MCprod/lyon/bdkrc02/va0e/205/bdkrc02_eett_205_41113.xsdst ! RUN = 41113 ! NEVT = 7000
FILE = /castor/cern.ch/delphi/MCprod/lyon/bdkrc02/va0e/205/bdkrc02_eett_205_41114.xsdst ! RUN = 41114 ! NEVT = 7000
FILE = /castor/cern.ch/delphi/MCprod/lyon/bdkrc02/va0e/205/bdkrc02_eett_205_41115.xsdst ! RUN = 41115 ! NEVT = 7000
FILE = /castor/cern.ch/delphi/MCprod/lyon/bdkrc02/va0e/205/bdkrc02_eett_205_41116.xsdst ! RUN = 41116 ! NEVT = 7000
FILE = /castor/cern.ch/delphi/MCprod/lyon/bdkrc02/va0e/205/bdkrc02_eett_205_41117.xsdst ! RUN = 41117 ! NEVT = 7000
FILE = /castor/cern.ch/delphi/MCprod/lyon/bdkrc02/va0e/205/bdkrc02_eett_205_41118.xsdst ! RUN = 41118 ! NEVT = 7000
FILE = /castor/cern.ch/delphi/MCprod/lyon/bdkrc02/va0e/205/bdkrc02_eett_205_41119.xsdst ! RUN = 41119 ! NEVT = 7000
FILE = /castor/cern.ch/delphi/MCprod/lyon/bdkrc02/va0e/205/bdkrc02_eett_205_41120.xsdst ! RUN = 41120 ! NEVT = 7000
FILE = /castor/cern.ch/delphi/MCprod/lyon/bdkrc02/va0e/205/bdkrc02_eett_205_41121.xsdst ! RUN = 41121 ! NEVT = 7000
FILE = /castor/cern.ch/delphi/MCprod/lyon/bdkrc02/va0e/205/bdkrc02_eett_205_41122.xsdst ! RUN = 41122 ! NEVT = 7000
FILE = /castor/cern.ch/delphi/MCprod/lyon/bdkrc02/va0e/205/bdkrc02_eett_205_41123.xsdst ! RUN = 41123 ! NEVT = 7000
FILE = /castor/cern.ch/delphi/MCprod/lyon/bdkrc02/va0e/205/bdkrc02_eett_205_41124.xsdst ! RUN = 41124 ! NEVT = 7000
FILE = /castor/cern.ch/delphi/MCprod/lyon/bdkrc02/va0e/205/bdkrc02_eett_205_41125.xsdst ! RUN = 41125 ! NEVT = 7000
FILE = /castor/cern.ch/delphi/MCprod/lyon/bdkrc02/va0e/205/bdkrc02_eett_205_41126.xsdst ! RUN = 41126 ! NEVT = 7000
FILE = /castor/cern.ch/delphi/MCprod/lyon/bdkrc02/va0e/205/bdkrc02_eett_205_41127.xsdst ! RUN = 41127 ! NEVT = 7000
FILE = /castor/cern.ch/delphi/MCprod/lyon/bdkrc02/va0e/205/bdkrc02_eett_205_41128.xsdst ! RUN = 41128 ! NEVT = 7000
FILE = /castor/cern.ch/delphi/MCprod/lyon/bdkrc02/va0e/205/bdkrc02_eett_205_41129.xsdst ! RUN = 41129 ! NEVT = 7000
FILE = /castor/cern.ch/delphi/MCprod/lyon/bdkrc02/va0e/205/bdkrc02_eett_205_41130.xsdst ! RUN = 41130 ! NEVT = 7000
FILE = /castor/cern.ch/delphi/MCprod/lyon/bdkrc02/va0e/205/bdkrc02_eett_205_41131.xsdst ! RUN = 41131 ! NEVT = 7000
FILE = /castor/cern.ch/delphi/MCprod/lyon/bdkrc02/va0e/205/bdkrc02_eett_205_41132.xsdst ! RUN = 41132 ! NEVT = 7000
FILE = /castor/cern.ch/delphi/MCprod/lyon/bdkrc02/va0e/205/bdkrc02_eett_205_41133.xsdst ! RUN = 41133 ! NEVT = 7000
FILE = /castor/cern.ch/delphi/MCprod/lyon/bdkrc02/va0e/205/bdkrc02_eett_205_41134.xsdst ! RUN = 41134 ! NEVT = 7000
FILE = /castor/cern.ch/delphi/MCprod/lyon/bdkrc02/va0e/205/bdkrc02_eett_205_41135.xsdst ! RUN = 41135 ! NEVT = 7000
FILE = /castor/cern.ch/delphi/MCprod/lyon/bdkrc02/va0e/205/bdkrc02_eett_205_41136.xsdst ! RUN = 41136 ! NEVT = 7000
FILE = /castor/cern.ch/delphi/MCprod/lyon/bdkrc02/va0e/205/bdkrc02_eett_205_41137.xsdst ! RUN = 41137 ! NEVT = 7000
FILE = /castor/cern.ch/delphi/MCprod/lyon/bdkrc02/va0e/205/bdkrc02_eett_205_41138.xsdst ! RUN = 41138 ! NEVT = 7000
FILE = /castor/cern.ch/delphi/MCprod/lyon/bdkrc02/va0e/205/bdkrc02_eett_205_41139.xsdst ! RUN = 41139 ! NEVT = 7000
FILE = /castor/cern.ch/delphi/MCprod/lyon/bdkrc02/va0e/205/bdkrc02_eett_205_41140.xsdst ! RUN = 41140 ! NEVT = 7000
FILE = /castor/cern.ch/delphi/MCprod/lyon/bdkrc02/va0e/205/bdkrc02_eett_205_41141.xsdst ! RUN = 41141 ! NEVT = 7000
FILE = /castor/cern.ch/delphi/MCprod/lyon/bdkrc02/va0e/205/bdkrc02_eett_205_41142.xsdst ! RUN = 41142 ! NEVT = 7000
FILE = /castor/cern.ch/delphi/MCprod/lyon/bdkrc02/va0e/205/bdkrc02_eett_205_41143.xsdst ! RUN = 41143 ! NEVT = 7000
FILE = /castor/cern.ch/delphi/MCprod/lyon/bdkrc02/va0e/205/bdkrc02_eett_205_41144.xsdst ! RUN = 41144 ! NEVT = 7000
FILE = /castor/cern.ch/delphi/MCprod/lyon/bdkrc02/va0e/205/bdkrc02_eett_205_41145.xsdst ! RUN = 41145 ! NEVT = 7000
