*
*   Nickname     : xs_bdk01eeee_e203.7_ca0_1l_e1
*   Generic Name : //CERN/DELPHI/P02_SIMD/XSDST/BDK01EEEE/E203.7/CERN/SUMT/C001-199
*   Description  :  Extended Short DST simulation a0_e1 done at ecms=203.7 , CERN
*---
*   Comments     : in total 983470 events in 199 files time stamp: Sun Oct 28 00:28:21 2001
*---
*
*
*
*
*
FILE = /castor/cern.ch/delphi/MCprod/cern/bdk01/va0e/203.7/bdk01_eeee_203.7_50001.xsdst ! RUN = 50001 ! NEVT = 5000
FILE = /castor/cern.ch/delphi/MCprod/cern/bdk01/va0e/203.7/bdk01_eeee_203.7_50002.xsdst ! RUN = 50002 ! NEVT = 5000
FILE = /castor/cern.ch/delphi/MCprod/cern/bdk01/va0e/203.7/bdk01_eeee_203.7_50003.xsdst ! RUN = 50003 ! NEVT = 5000
FILE = /castor/cern.ch/delphi/MCprod/cern/bdk01/va0e/203.7/bdk01_eeee_203.7_50004.xsdst ! RUN = 50004 ! NEVT = 5000
FILE = /castor/cern.ch/delphi/MCprod/cern/bdk01/va0e/203.7/bdk01_eeee_203.7_50005.xsdst ! RUN = 50005 ! NEVT = 5000
FILE = /castor/cern.ch/delphi/MCprod/cern/bdk01/va0e/203.7/bdk01_eeee_203.7_50006.xsdst ! RUN = 50006 ! NEVT = 5000
FILE = /castor/cern.ch/delphi/MCprod/cern/bdk01/va0e/203.7/bdk01_eeee_203.7_50007.xsdst ! RUN = 50007 ! NEVT = 5000
FILE = /castor/cern.ch/delphi/MCprod/cern/bdk01/va0e/203.7/bdk01_eeee_203.7_50008.xsdst ! RUN = 50008 ! NEVT = 5000
FILE = /castor/cern.ch/delphi/MCprod/cern/bdk01/va0e/203.7/bdk01_eeee_203.7_50009.xsdst ! RUN = 50009 ! NEVT = 5000
FILE = /castor/cern.ch/delphi/MCprod/cern/bdk01/va0e/203.7/bdk01_eeee_203.7_50010.xsdst ! RUN = 50010 ! NEVT = 5000
FILE = /castor/cern.ch/delphi/MCprod/cern/bdk01/va0e/203.7/bdk01_eeee_203.7_50011.xsdst ! RUN = 50011 ! NEVT = 5000
FILE = /castor/cern.ch/delphi/MCprod/cern/bdk01/va0e/203.7/bdk01_eeee_203.7_50012.xsdst ! RUN = 50012 ! NEVT = 5000
FILE = /castor/cern.ch/delphi/MCprod/cern/bdk01/va0e/203.7/bdk01_eeee_203.7_50013.xsdst ! RUN = 50013 ! NEVT = 5000
FILE = /castor/cern.ch/delphi/MCprod/cern/bdk01/va0e/203.7/bdk01_eeee_203.7_50014.xsdst ! RUN = 50014 ! NEVT = 5000
FILE = /castor/cern.ch/delphi/MCprod/cern/bdk01/va0e/203.7/bdk01_eeee_203.7_50015.xsdst ! RUN = 50015 ! NEVT = 5000
FILE = /castor/cern.ch/delphi/MCprod/cern/bdk01/va0e/203.7/bdk01_eeee_203.7_50016.xsdst ! RUN = 50016 ! NEVT = 5000
FILE = /castor/cern.ch/delphi/MCprod/cern/bdk01/va0e/203.7/bdk01_eeee_203.7_50017.xsdst ! RUN = 50017 ! NEVT = 5000
FILE = /castor/cern.ch/delphi/MCprod/cern/bdk01/va0e/203.7/bdk01_eeee_203.7_50018.xsdst ! RUN = 50018 ! NEVT = 5000
FILE = /castor/cern.ch/delphi/MCprod/cern/bdk01/va0e/203.7/bdk01_eeee_203.7_50019.xsdst ! RUN = 50019 ! NEVT = 5000
FILE = /castor/cern.ch/delphi/MCprod/cern/bdk01/va0e/203.7/bdk01_eeee_203.7_50020.xsdst ! RUN = 50020 ! NEVT = 5000
FILE = /castor/cern.ch/delphi/MCprod/cern/bdk01/va0e/203.7/bdk01_eeee_203.7_50021.xsdst ! RUN = 50021 ! NEVT = 5000
FILE = /castor/cern.ch/delphi/MCprod/cern/bdk01/va0e/203.7/bdk01_eeee_203.7_50022.xsdst ! RUN = 50022 ! NEVT = 5000
FILE = /castor/cern.ch/delphi/MCprod/cern/bdk01/va0e/203.7/bdk01_eeee_203.7_50023.xsdst ! RUN = 50023 ! NEVT = 5000
FILE = /castor/cern.ch/delphi/MCprod/cern/bdk01/va0e/203.7/bdk01_eeee_203.7_50024.xsdst ! RUN = 50024 ! NEVT = 5000
FILE = /castor/cern.ch/delphi/MCprod/cern/bdk01/va0e/203.7/bdk01_eeee_203.7_50025.xsdst ! RUN = 50025 ! NEVT = 5000
FILE = /castor/cern.ch/delphi/MCprod/cern/bdk01/va0e/203.7/bdk01_eeee_203.7_50026.xsdst ! RUN = 50026 ! NEVT = 5000
FILE = /castor/cern.ch/delphi/MCprod/cern/bdk01/va0e/203.7/bdk01_eeee_203.7_50027.xsdst ! RUN = 50027 ! NEVT = 5000
FILE = /castor/cern.ch/delphi/MCprod/cern/bdk01/va0e/203.7/bdk01_eeee_203.7_50028.xsdst ! RUN = 50028 ! NEVT = 5000
FILE = /castor/cern.ch/delphi/MCprod/cern/bdk01/va0e/203.7/bdk01_eeee_203.7_50029.xsdst ! RUN = 50029 ! NEVT = 5000
FILE = /castor/cern.ch/delphi/MCprod/cern/bdk01/va0e/203.7/bdk01_eeee_203.7_50030.xsdst ! RUN = 50030 ! NEVT = 5000
FILE = /castor/cern.ch/delphi/MCprod/cern/bdk01/va0e/203.7/bdk01_eeee_203.7_50031.xsdst ! RUN = 50031 ! NEVT = 5000
FILE = /castor/cern.ch/delphi/MCprod/cern/bdk01/va0e/203.7/bdk01_eeee_203.7_50032.xsdst ! RUN = 50032 ! NEVT = 5000
FILE = /castor/cern.ch/delphi/MCprod/cern/bdk01/va0e/203.7/bdk01_eeee_203.7_50033.xsdst ! RUN = 50033 ! NEVT = 5000
FILE = /castor/cern.ch/delphi/MCprod/cern/bdk01/va0e/203.7/bdk01_eeee_203.7_50034.xsdst ! RUN = 50034 ! NEVT = 5000
FILE = /castor/cern.ch/delphi/MCprod/cern/bdk01/va0e/203.7/bdk01_eeee_203.7_50035.xsdst ! RUN = 50035 ! NEVT = 5000
FILE = /castor/cern.ch/delphi/MCprod/cern/bdk01/va0e/203.7/bdk01_eeee_203.7_50036.xsdst ! RUN = 50036 ! NEVT = 5000
FILE = /castor/cern.ch/delphi/MCprod/cern/bdk01/va0e/203.7/bdk01_eeee_203.7_50037.xsdst ! RUN = 50037 ! NEVT = 5000
FILE = /castor/cern.ch/delphi/MCprod/cern/bdk01/va0e/203.7/bdk01_eeee_203.7_50038.xsdst ! RUN = 50038 ! NEVT = 5000
FILE = /castor/cern.ch/delphi/MCprod/cern/bdk01/va0e/203.7/bdk01_eeee_203.7_50039.xsdst ! RUN = 50039 ! NEVT = 5000
FILE = /castor/cern.ch/delphi/MCprod/cern/bdk01/va0e/203.7/bdk01_eeee_203.7_50040.xsdst ! RUN = 50040 ! NEVT = 5000
FILE = /castor/cern.ch/delphi/MCprod/cern/bdk01/va0e/203.7/bdk01_eeee_203.7_50041.xsdst ! RUN = 50041 ! NEVT = 5000
FILE = /castor/cern.ch/delphi/MCprod/cern/bdk01/va0e/203.7/bdk01_eeee_203.7_50042.xsdst ! RUN = 50042 ! NEVT = 5000
FILE = /castor/cern.ch/delphi/MCprod/cern/bdk01/va0e/203.7/bdk01_eeee_203.7_50043.xsdst ! RUN = 50043 ! NEVT = 5000
FILE = /castor/cern.ch/delphi/MCprod/cern/bdk01/va0e/203.7/bdk01_eeee_203.7_50044.xsdst ! RUN = 50044 ! NEVT = 5000
FILE = /castor/cern.ch/delphi/MCprod/cern/bdk01/va0e/203.7/bdk01_eeee_203.7_50045.xsdst ! RUN = 50045 ! NEVT = 5000
FILE = /castor/cern.ch/delphi/MCprod/cern/bdk01/va0e/203.7/bdk01_eeee_203.7_50046.xsdst ! RUN = 50046 ! NEVT = 5000
FILE = /castor/cern.ch/delphi/MCprod/cern/bdk01/va0e/203.7/bdk01_eeee_203.7_50047.xsdst ! RUN = 50047 ! NEVT = 5000
FILE = /castor/cern.ch/delphi/MCprod/cern/bdk01/va0e/203.7/bdk01_eeee_203.7_50048.xsdst ! RUN = 50048 ! NEVT = 5000
FILE = /castor/cern.ch/delphi/MCprod/cern/bdk01/va0e/203.7/bdk01_eeee_203.7_50049.xsdst ! RUN = 50049 ! NEVT = 5000
FILE = /castor/cern.ch/delphi/MCprod/cern/bdk01/va0e/203.7/bdk01_eeee_203.7_50050.xsdst ! RUN = 50050 ! NEVT = 5000
FILE = /castor/cern.ch/delphi/MCprod/cern/bdk01/va0e/203.7/bdk01_eeee_203.7_50051.xsdst ! RUN = 50051 ! NEVT = 3457
FILE = /castor/cern.ch/delphi/MCprod/cern/bdk01/va0e/203.7/bdk01_eeee_203.7_50052.xsdst ! RUN = 50052 ! NEVT = 5000
FILE = /castor/cern.ch/delphi/MCprod/cern/bdk01/va0e/203.7/bdk01_eeee_203.7_50053.xsdst ! RUN = 50053 ! NEVT = 5000
FILE = /castor/cern.ch/delphi/MCprod/cern/bdk01/va0e/203.7/bdk01_eeee_203.7_50054.xsdst ! RUN = 50054 ! NEVT = 5000
FILE = /castor/cern.ch/delphi/MCprod/cern/bdk01/va0e/203.7/bdk01_eeee_203.7_50055.xsdst ! RUN = 50055 ! NEVT = 5000
FILE = /castor/cern.ch/delphi/MCprod/cern/bdk01/va0e/203.7/bdk01_eeee_203.7_50056.xsdst ! RUN = 50056 ! NEVT = 5000
FILE = /castor/cern.ch/delphi/MCprod/cern/bdk01/va0e/203.7/bdk01_eeee_203.7_50057.xsdst ! RUN = 50057 ! NEVT = 5000
FILE = /castor/cern.ch/delphi/MCprod/cern/bdk01/va0e/203.7/bdk01_eeee_203.7_50058.xsdst ! RUN = 50058 ! NEVT = 5000
FILE = /castor/cern.ch/delphi/MCprod/cern/bdk01/va0e/203.7/bdk01_eeee_203.7_50059.xsdst ! RUN = 50059 ! NEVT = 5000
FILE = /castor/cern.ch/delphi/MCprod/cern/bdk01/va0e/203.7/bdk01_eeee_203.7_50060.xsdst ! RUN = 50060 ! NEVT = 5000
FILE = /castor/cern.ch/delphi/MCprod/cern/bdk01/va0e/203.7/bdk01_eeee_203.7_50061.xsdst ! RUN = 50061 ! NEVT = 5000
FILE = /castor/cern.ch/delphi/MCprod/cern/bdk01/va0e/203.7/bdk01_eeee_203.7_50062.xsdst ! RUN = 50062 ! NEVT = 5000
FILE = /castor/cern.ch/delphi/MCprod/cern/bdk01/va0e/203.7/bdk01_eeee_203.7_50063.xsdst ! RUN = 50063 ! NEVT = 5000
FILE = /castor/cern.ch/delphi/MCprod/cern/bdk01/va0e/203.7/bdk01_eeee_203.7_50064.xsdst ! RUN = 50064 ! NEVT = 5000
FILE = /castor/cern.ch/delphi/MCprod/cern/bdk01/va0e/203.7/bdk01_eeee_203.7_50065.xsdst ! RUN = 50065 ! NEVT = 5000
FILE = /castor/cern.ch/delphi/MCprod/cern/bdk01/va0e/203.7/bdk01_eeee_203.7_50066.xsdst ! RUN = 50066 ! NEVT = 5000
FILE = /castor/cern.ch/delphi/MCprod/cern/bdk01/va0e/203.7/bdk01_eeee_203.7_50067.xsdst ! RUN = 50067 ! NEVT = 5000
FILE = /castor/cern.ch/delphi/MCprod/cern/bdk01/va0e/203.7/bdk01_eeee_203.7_50068.xsdst ! RUN = 50068 ! NEVT = 5000
FILE = /castor/cern.ch/delphi/MCprod/cern/bdk01/va0e/203.7/bdk01_eeee_203.7_50069.xsdst ! RUN = 50069 ! NEVT = 5000
FILE = /castor/cern.ch/delphi/MCprod/cern/bdk01/va0e/203.7/bdk01_eeee_203.7_50070.xsdst ! RUN = 50070 ! NEVT = 5000
FILE = /castor/cern.ch/delphi/MCprod/cern/bdk01/va0e/203.7/bdk01_eeee_203.7_50071.xsdst ! RUN = 50071 ! NEVT = 5000
FILE = /castor/cern.ch/delphi/MCprod/cern/bdk01/va0e/203.7/bdk01_eeee_203.7_50072.xsdst ! RUN = 50072 ! NEVT = 5000
FILE = /castor/cern.ch/delphi/MCprod/cern/bdk01/va0e/203.7/bdk01_eeee_203.7_50073.xsdst ! RUN = 50073 ! NEVT = 5000
FILE = /castor/cern.ch/delphi/MCprod/cern/bdk01/va0e/203.7/bdk01_eeee_203.7_50074.xsdst ! RUN = 50074 ! NEVT = 5000
FILE = /castor/cern.ch/delphi/MCprod/cern/bdk01/va0e/203.7/bdk01_eeee_203.7_50075.xsdst ! RUN = 50075 ! NEVT = 5000
FILE = /castor/cern.ch/delphi/MCprod/cern/bdk01/va0e/203.7/bdk01_eeee_203.7_50076.xsdst ! RUN = 50076 ! NEVT = 5000
FILE = /castor/cern.ch/delphi/MCprod/cern/bdk01/va0e/203.7/bdk01_eeee_203.7_50077.xsdst ! RUN = 50077 ! NEVT = 5000
FILE = /castor/cern.ch/delphi/MCprod/cern/bdk01/va0e/203.7/bdk01_eeee_203.7_50078.xsdst ! RUN = 50078 ! NEVT = 5000
FILE = /castor/cern.ch/delphi/MCprod/cern/bdk01/va0e/203.7/bdk01_eeee_203.7_50079.xsdst ! RUN = 50079 ! NEVT = 5000
FILE = /castor/cern.ch/delphi/MCprod/cern/bdk01/va0e/203.7/bdk01_eeee_203.7_50080.xsdst ! RUN = 50080 ! NEVT = 5000
FILE = /castor/cern.ch/delphi/MCprod/cern/bdk01/va0e/203.7/bdk01_eeee_203.7_50081.xsdst ! RUN = 50081 ! NEVT = 5000
FILE = /castor/cern.ch/delphi/MCprod/cern/bdk01/va0e/203.7/bdk01_eeee_203.7_50082.xsdst ! RUN = 50082 ! NEVT = 5000
FILE = /castor/cern.ch/delphi/MCprod/cern/bdk01/va0e/203.7/bdk01_eeee_203.7_50083.xsdst ! RUN = 50083 ! NEVT = 5000
FILE = /castor/cern.ch/delphi/MCprod/cern/bdk01/va0e/203.7/bdk01_eeee_203.7_50084.xsdst ! RUN = 50084 ! NEVT = 5000
FILE = /castor/cern.ch/delphi/MCprod/cern/bdk01/va0e/203.7/bdk01_eeee_203.7_50085.xsdst ! RUN = 50085 ! NEVT = 5000
FILE = /castor/cern.ch/delphi/MCprod/cern/bdk01/va0e/203.7/bdk01_eeee_203.7_50086.xsdst ! RUN = 50086 ! NEVT = 5000
FILE = /castor/cern.ch/delphi/MCprod/cern/bdk01/va0e/203.7/bdk01_eeee_203.7_50087.xsdst ! RUN = 50087 ! NEVT = 5000
FILE = /castor/cern.ch/delphi/MCprod/cern/bdk01/va0e/203.7/bdk01_eeee_203.7_50088.xsdst ! RUN = 50088 ! NEVT = 5000
FILE = /castor/cern.ch/delphi/MCprod/cern/bdk01/va0e/203.7/bdk01_eeee_203.7_50089.xsdst ! RUN = 50089 ! NEVT = 5000
FILE = /castor/cern.ch/delphi/MCprod/cern/bdk01/va0e/203.7/bdk01_eeee_203.7_50090.xsdst ! RUN = 50090 ! NEVT = 1399
FILE = /castor/cern.ch/delphi/MCprod/cern/bdk01/va0e/203.7/bdk01_eeee_203.7_50091.xsdst ! RUN = 50091 ! NEVT = 5000
FILE = /castor/cern.ch/delphi/MCprod/cern/bdk01/va0e/203.7/bdk01_eeee_203.7_50092.xsdst ! RUN = 50092 ! NEVT = 5000
FILE = /castor/cern.ch/delphi/MCprod/cern/bdk01/va0e/203.7/bdk01_eeee_203.7_50093.xsdst ! RUN = 50093 ! NEVT = 5000
FILE = /castor/cern.ch/delphi/MCprod/cern/bdk01/va0e/203.7/bdk01_eeee_203.7_50094.xsdst ! RUN = 50094 ! NEVT = 5000
FILE = /castor/cern.ch/delphi/MCprod/cern/bdk01/va0e/203.7/bdk01_eeee_203.7_50095.xsdst ! RUN = 50095 ! NEVT = 5000
FILE = /castor/cern.ch/delphi/MCprod/cern/bdk01/va0e/203.7/bdk01_eeee_203.7_50096.xsdst ! RUN = 50096 ! NEVT = 5000
FILE = /castor/cern.ch/delphi/MCprod/cern/bdk01/va0e/203.7/bdk01_eeee_203.7_50097.xsdst ! RUN = 50097 ! NEVT = 5000
FILE = /castor/cern.ch/delphi/MCprod/cern/bdk01/va0e/203.7/bdk01_eeee_203.7_50098.xsdst ! RUN = 50098 ! NEVT = 4999
FILE = /castor/cern.ch/delphi/MCprod/cern/bdk01/va0e/203.7/bdk01_eeee_203.7_50099.xsdst ! RUN = 50099 ! NEVT = 5000
FILE = /castor/cern.ch/delphi/MCprod/cern/bdk01/va0e/203.7/bdk01_eeee_203.7_50100.xsdst ! RUN = 50100 ! NEVT = 5000
FILE = /castor/cern.ch/delphi/MCprod/cern/bdk01/va0e/203.7/bdk01_eeee_203.7_50101.xsdst ! RUN = 50101 ! NEVT = 5000
FILE = /castor/cern.ch/delphi/MCprod/cern/bdk01/va0e/203.7/bdk01_eeee_203.7_50102.xsdst ! RUN = 50102 ! NEVT = 5000
FILE = /castor/cern.ch/delphi/MCprod/cern/bdk01/va0e/203.7/bdk01_eeee_203.7_50103.xsdst ! RUN = 50103 ! NEVT = 5000
FILE = /castor/cern.ch/delphi/MCprod/cern/bdk01/va0e/203.7/bdk01_eeee_203.7_50104.xsdst ! RUN = 50104 ! NEVT = 5000
FILE = /castor/cern.ch/delphi/MCprod/cern/bdk01/va0e/203.7/bdk01_eeee_203.7_50105.xsdst ! RUN = 50105 ! NEVT = 5000
FILE = /castor/cern.ch/delphi/MCprod/cern/bdk01/va0e/203.7/bdk01_eeee_203.7_50106.xsdst ! RUN = 50106 ! NEVT = 5000
FILE = /castor/cern.ch/delphi/MCprod/cern/bdk01/va0e/203.7/bdk01_eeee_203.7_50107.xsdst ! RUN = 50107 ! NEVT = 5000
FILE = /castor/cern.ch/delphi/MCprod/cern/bdk01/va0e/203.7/bdk01_eeee_203.7_50108.xsdst ! RUN = 50108 ! NEVT = 5000
FILE = /castor/cern.ch/delphi/MCprod/cern/bdk01/va0e/203.7/bdk01_eeee_203.7_50109.xsdst ! RUN = 50109 ! NEVT = 5000
FILE = /castor/cern.ch/delphi/MCprod/cern/bdk01/va0e/203.7/bdk01_eeee_203.7_50110.xsdst ! RUN = 50110 ! NEVT = 5000
FILE = /castor/cern.ch/delphi/MCprod/cern/bdk01/va0e/203.7/bdk01_eeee_203.7_50111.xsdst ! RUN = 50111 ! NEVT = 5000
FILE = /castor/cern.ch/delphi/MCprod/cern/bdk01/va0e/203.7/bdk01_eeee_203.7_50112.xsdst ! RUN = 50112 ! NEVT = 5000
FILE = /castor/cern.ch/delphi/MCprod/cern/bdk01/va0e/203.7/bdk01_eeee_203.7_50113.xsdst ! RUN = 50113 ! NEVT = 5000
FILE = /castor/cern.ch/delphi/MCprod/cern/bdk01/va0e/203.7/bdk01_eeee_203.7_50114.xsdst ! RUN = 50114 ! NEVT = 5000
FILE = /castor/cern.ch/delphi/MCprod/cern/bdk01/va0e/203.7/bdk01_eeee_203.7_50115.xsdst ! RUN = 50115 ! NEVT = 5000
FILE = /castor/cern.ch/delphi/MCprod/cern/bdk01/va0e/203.7/bdk01_eeee_203.7_50116.xsdst ! RUN = 50116 ! NEVT = 5000
FILE = /castor/cern.ch/delphi/MCprod/cern/bdk01/va0e/203.7/bdk01_eeee_203.7_50117.xsdst ! RUN = 50117 ! NEVT = 5000
FILE = /castor/cern.ch/delphi/MCprod/cern/bdk01/va0e/203.7/bdk01_eeee_203.7_50118.xsdst ! RUN = 50118 ! NEVT = 5000
FILE = /castor/cern.ch/delphi/MCprod/cern/bdk01/va0e/203.7/bdk01_eeee_203.7_50119.xsdst ! RUN = 50119 ! NEVT = 5000
FILE = /castor/cern.ch/delphi/MCprod/cern/bdk01/va0e/203.7/bdk01_eeee_203.7_50120.xsdst ! RUN = 50120 ! NEVT = 5000
FILE = /castor/cern.ch/delphi/MCprod/cern/bdk01/va0e/203.7/bdk01_eeee_203.7_50121.xsdst ! RUN = 50121 ! NEVT = 5000
FILE = /castor/cern.ch/delphi/MCprod/cern/bdk01/va0e/203.7/bdk01_eeee_203.7_50122.xsdst ! RUN = 50122 ! NEVT = 5000
FILE = /castor/cern.ch/delphi/MCprod/cern/bdk01/va0e/203.7/bdk01_eeee_203.7_50123.xsdst ! RUN = 50123 ! NEVT = 5000
FILE = /castor/cern.ch/delphi/MCprod/cern/bdk01/va0e/203.7/bdk01_eeee_203.7_50124.xsdst ! RUN = 50124 ! NEVT = 5000
FILE = /castor/cern.ch/delphi/MCprod/cern/bdk01/va0e/203.7/bdk01_eeee_203.7_50125.xsdst ! RUN = 50125 ! NEVT = 5000
FILE = /castor/cern.ch/delphi/MCprod/cern/bdk01/va0e/203.7/bdk01_eeee_203.7_50126.xsdst ! RUN = 50126 ! NEVT = 5000
FILE = /castor/cern.ch/delphi/MCprod/cern/bdk01/va0e/203.7/bdk01_eeee_203.7_50127.xsdst ! RUN = 50127 ! NEVT = 5000
FILE = /castor/cern.ch/delphi/MCprod/cern/bdk01/va0e/203.7/bdk01_eeee_203.7_50128.xsdst ! RUN = 50128 ! NEVT = 5000
FILE = /castor/cern.ch/delphi/MCprod/cern/bdk01/va0e/203.7/bdk01_eeee_203.7_50129.xsdst ! RUN = 50129 ! NEVT = 5000
FILE = /castor/cern.ch/delphi/MCprod/cern/bdk01/va0e/203.7/bdk01_eeee_203.7_50130.xsdst ! RUN = 50130 ! NEVT = 5000
FILE = /castor/cern.ch/delphi/MCprod/cern/bdk01/va0e/203.7/bdk01_eeee_203.7_50131.xsdst ! RUN = 50131 ! NEVT = 5000
FILE = /castor/cern.ch/delphi/MCprod/cern/bdk01/va0e/203.7/bdk01_eeee_203.7_50132.xsdst ! RUN = 50132 ! NEVT = 5000
FILE = /castor/cern.ch/delphi/MCprod/cern/bdk01/va0e/203.7/bdk01_eeee_203.7_50133.xsdst ! RUN = 50133 ! NEVT = 5000
FILE = /castor/cern.ch/delphi/MCprod/cern/bdk01/va0e/203.7/bdk01_eeee_203.7_50134.xsdst ! RUN = 50134 ! NEVT = 5000
FILE = /castor/cern.ch/delphi/MCprod/cern/bdk01/va0e/203.7/bdk01_eeee_203.7_50135.xsdst ! RUN = 50135 ! NEVT = 5000
FILE = /castor/cern.ch/delphi/MCprod/cern/bdk01/va0e/203.7/bdk01_eeee_203.7_50136.xsdst ! RUN = 50136 ! NEVT = 5000
FILE = /castor/cern.ch/delphi/MCprod/cern/bdk01/va0e/203.7/bdk01_eeee_203.7_50137.xsdst ! RUN = 50137 ! NEVT = 1650
FILE = /castor/cern.ch/delphi/MCprod/cern/bdk01/va0e/203.7/bdk01_eeee_203.7_50138.xsdst ! RUN = 50138 ! NEVT = 2442
FILE = /castor/cern.ch/delphi/MCprod/cern/bdk01/va0e/203.7/bdk01_eeee_203.7_50139.xsdst ! RUN = 50139 ! NEVT = 5000
FILE = /castor/cern.ch/delphi/MCprod/cern/bdk01/va0e/203.7/bdk01_eeee_203.7_50140.xsdst ! RUN = 50140 ! NEVT = 5000
FILE = /castor/cern.ch/delphi/MCprod/cern/bdk01/va0e/203.7/bdk01_eeee_203.7_50141.xsdst ! RUN = 50141 ! NEVT = 4524
FILE = /castor/cern.ch/delphi/MCprod/cern/bdk01/va0e/203.7/bdk01_eeee_203.7_50142.xsdst ! RUN = 50142 ! NEVT = 5000
FILE = /castor/cern.ch/delphi/MCprod/cern/bdk01/va0e/203.7/bdk01_eeee_203.7_50143.xsdst ! RUN = 50143 ! NEVT = 5000
FILE = /castor/cern.ch/delphi/MCprod/cern/bdk01/va0e/203.7/bdk01_eeee_203.7_50144.xsdst ! RUN = 50144 ! NEVT = 5000
FILE = /castor/cern.ch/delphi/MCprod/cern/bdk01/va0e/203.7/bdk01_eeee_203.7_50145.xsdst ! RUN = 50145 ! NEVT = 5000
FILE = /castor/cern.ch/delphi/MCprod/cern/bdk01/va0e/203.7/bdk01_eeee_203.7_50146.xsdst ! RUN = 50146 ! NEVT = 5000
FILE = /castor/cern.ch/delphi/MCprod/cern/bdk01/va0e/203.7/bdk01_eeee_203.7_50147.xsdst ! RUN = 50147 ! NEVT = 5000
FILE = /castor/cern.ch/delphi/MCprod/cern/bdk01/va0e/203.7/bdk01_eeee_203.7_50148.xsdst ! RUN = 50148 ! NEVT = 5000
FILE = /castor/cern.ch/delphi/MCprod/cern/bdk01/va0e/203.7/bdk01_eeee_203.7_50149.xsdst ! RUN = 50149 ! NEVT = 5000
FILE = /castor/cern.ch/delphi/MCprod/cern/bdk01/va0e/203.7/bdk01_eeee_203.7_50150.xsdst ! RUN = 50150 ! NEVT = 5000
FILE = /castor/cern.ch/delphi/MCprod/cern/bdk01/va0e/203.7/bdk01_eeee_203.7_50151.xsdst ! RUN = 50151 ! NEVT = 5000
FILE = /castor/cern.ch/delphi/MCprod/cern/bdk01/va0e/203.7/bdk01_eeee_203.7_50152.xsdst ! RUN = 50152 ! NEVT = 5000
FILE = /castor/cern.ch/delphi/MCprod/cern/bdk01/va0e/203.7/bdk01_eeee_203.7_50153.xsdst ! RUN = 50153 ! NEVT = 5000
FILE = /castor/cern.ch/delphi/MCprod/cern/bdk01/va0e/203.7/bdk01_eeee_203.7_50154.xsdst ! RUN = 50154 ! NEVT = 5000
FILE = /castor/cern.ch/delphi/MCprod/cern/bdk01/va0e/203.7/bdk01_eeee_203.7_50155.xsdst ! RUN = 50155 ! NEVT = 5000
FILE = /castor/cern.ch/delphi/MCprod/cern/bdk01/va0e/203.7/bdk01_eeee_203.7_50156.xsdst ! RUN = 50156 ! NEVT = 5000
FILE = /castor/cern.ch/delphi/MCprod/cern/bdk01/va0e/203.7/bdk01_eeee_203.7_50157.xsdst ! RUN = 50157 ! NEVT = 5000
FILE = /castor/cern.ch/delphi/MCprod/cern/bdk01/va0e/203.7/bdk01_eeee_203.7_50158.xsdst ! RUN = 50158 ! NEVT = 5000
FILE = /castor/cern.ch/delphi/MCprod/cern/bdk01/va0e/203.7/bdk01_eeee_203.7_50159.xsdst ! RUN = 50159 ! NEVT = 5000
FILE = /castor/cern.ch/delphi/MCprod/cern/bdk01/va0e/203.7/bdk01_eeee_203.7_50160.xsdst ! RUN = 50160 ! NEVT = 5000
FILE = /castor/cern.ch/delphi/MCprod/cern/bdk01/va0e/203.7/bdk01_eeee_203.7_50161.xsdst ! RUN = 50161 ! NEVT = 5000
FILE = /castor/cern.ch/delphi/MCprod/cern/bdk01/va0e/203.7/bdk01_eeee_203.7_50162.xsdst ! RUN = 50162 ! NEVT = 5000
FILE = /castor/cern.ch/delphi/MCprod/cern/bdk01/va0e/203.7/bdk01_eeee_203.7_50163.xsdst ! RUN = 50163 ! NEVT = 5000
FILE = /castor/cern.ch/delphi/MCprod/cern/bdk01/va0e/203.7/bdk01_eeee_203.7_50164.xsdst ! RUN = 50164 ! NEVT = 5000
FILE = /castor/cern.ch/delphi/MCprod/cern/bdk01/va0e/203.7/bdk01_eeee_203.7_50165.xsdst ! RUN = 50165 ! NEVT = 5000
FILE = /castor/cern.ch/delphi/MCprod/cern/bdk01/va0e/203.7/bdk01_eeee_203.7_50166.xsdst ! RUN = 50166 ! NEVT = 5000
FILE = /castor/cern.ch/delphi/MCprod/cern/bdk01/va0e/203.7/bdk01_eeee_203.7_50167.xsdst ! RUN = 50167 ! NEVT = 4999
FILE = /castor/cern.ch/delphi/MCprod/cern/bdk01/va0e/203.7/bdk01_eeee_203.7_50168.xsdst ! RUN = 50168 ! NEVT = 5000
FILE = /castor/cern.ch/delphi/MCprod/cern/bdk01/va0e/203.7/bdk01_eeee_203.7_50169.xsdst ! RUN = 50169 ! NEVT = 5000
FILE = /castor/cern.ch/delphi/MCprod/cern/bdk01/va0e/203.7/bdk01_eeee_203.7_50170.xsdst ! RUN = 50170 ! NEVT = 5000
FILE = /castor/cern.ch/delphi/MCprod/cern/bdk01/va0e/203.7/bdk01_eeee_203.7_50171.xsdst ! RUN = 50171 ! NEVT = 5000
FILE = /castor/cern.ch/delphi/MCprod/cern/bdk01/va0e/203.7/bdk01_eeee_203.7_50172.xsdst ! RUN = 50172 ! NEVT = 5000
FILE = /castor/cern.ch/delphi/MCprod/cern/bdk01/va0e/203.7/bdk01_eeee_203.7_50173.xsdst ! RUN = 50173 ! NEVT = 5000
FILE = /castor/cern.ch/delphi/MCprod/cern/bdk01/va0e/203.7/bdk01_eeee_203.7_50174.xsdst ! RUN = 50174 ! NEVT = 5000
FILE = /castor/cern.ch/delphi/MCprod/cern/bdk01/va0e/203.7/bdk01_eeee_203.7_50175.xsdst ! RUN = 50175 ! NEVT = 5000
FILE = /castor/cern.ch/delphi/MCprod/cern/bdk01/va0e/203.7/bdk01_eeee_203.7_50176.xsdst ! RUN = 50176 ! NEVT = 5000
FILE = /castor/cern.ch/delphi/MCprod/cern/bdk01/va0e/203.7/bdk01_eeee_203.7_50177.xsdst ! RUN = 50177 ! NEVT = 5000
FILE = /castor/cern.ch/delphi/MCprod/cern/bdk01/va0e/203.7/bdk01_eeee_203.7_50178.xsdst ! RUN = 50178 ! NEVT = 5000
FILE = /castor/cern.ch/delphi/MCprod/cern/bdk01/va0e/203.7/bdk01_eeee_203.7_50179.xsdst ! RUN = 50179 ! NEVT = 5000
FILE = /castor/cern.ch/delphi/MCprod/cern/bdk01/va0e/203.7/bdk01_eeee_203.7_50180.xsdst ! RUN = 50180 ! NEVT = 5000
FILE = /castor/cern.ch/delphi/MCprod/cern/bdk01/va0e/203.7/bdk01_eeee_203.7_50181.xsdst ! RUN = 50181 ! NEVT = 5000
FILE = /castor/cern.ch/delphi/MCprod/cern/bdk01/va0e/203.7/bdk01_eeee_203.7_50182.xsdst ! RUN = 50182 ! NEVT = 5000
FILE = /castor/cern.ch/delphi/MCprod/cern/bdk01/va0e/203.7/bdk01_eeee_203.7_50183.xsdst ! RUN = 50183 ! NEVT = 5000
FILE = /castor/cern.ch/delphi/MCprod/cern/bdk01/va0e/203.7/bdk01_eeee_203.7_50184.xsdst ! RUN = 50184 ! NEVT = 5000
FILE = /castor/cern.ch/delphi/MCprod/cern/bdk01/va0e/203.7/bdk01_eeee_203.7_50185.xsdst ! RUN = 50185 ! NEVT = 5000
FILE = /castor/cern.ch/delphi/MCprod/cern/bdk01/va0e/203.7/bdk01_eeee_203.7_50186.xsdst ! RUN = 50186 ! NEVT = 5000
FILE = /castor/cern.ch/delphi/MCprod/cern/bdk01/va0e/203.7/bdk01_eeee_203.7_50187.xsdst ! RUN = 50187 ! NEVT = 5000
FILE = /castor/cern.ch/delphi/MCprod/cern/bdk01/va0e/203.7/bdk01_eeee_203.7_50188.xsdst ! RUN = 50188 ! NEVT = 5000
FILE = /castor/cern.ch/delphi/MCprod/cern/bdk01/va0e/203.7/bdk01_eeee_203.7_50189.xsdst ! RUN = 50189 ! NEVT = 5000
FILE = /castor/cern.ch/delphi/MCprod/cern/bdk01/va0e/203.7/bdk01_eeee_203.7_50190.xsdst ! RUN = 50190 ! NEVT = 5000
FILE = /castor/cern.ch/delphi/MCprod/cern/bdk01/va0e/203.7/bdk01_eeee_203.7_50191.xsdst ! RUN = 50191 ! NEVT = 5000
FILE = /castor/cern.ch/delphi/MCprod/cern/bdk01/va0e/203.7/bdk01_eeee_203.7_50192.xsdst ! RUN = 50192 ! NEVT = 5000
FILE = /castor/cern.ch/delphi/MCprod/cern/bdk01/va0e/203.7/bdk01_eeee_203.7_50193.xsdst ! RUN = 50193 ! NEVT = 5000
FILE = /castor/cern.ch/delphi/MCprod/cern/bdk01/va0e/203.7/bdk01_eeee_203.7_50194.xsdst ! RUN = 50194 ! NEVT = 5000
FILE = /castor/cern.ch/delphi/MCprod/cern/bdk01/va0e/203.7/bdk01_eeee_203.7_50195.xsdst ! RUN = 50195 ! NEVT = 5000
FILE = /castor/cern.ch/delphi/MCprod/cern/bdk01/va0e/203.7/bdk01_eeee_203.7_50196.xsdst ! RUN = 50196 ! NEVT = 5000
FILE = /castor/cern.ch/delphi/MCprod/cern/bdk01/va0e/203.7/bdk01_eeee_203.7_50197.xsdst ! RUN = 50197 ! NEVT = 5000
FILE = /castor/cern.ch/delphi/MCprod/cern/bdk01/va0e/203.7/bdk01_eeee_203.7_50198.xsdst ! RUN = 50198 ! NEVT = 5000
FILE = /castor/cern.ch/delphi/MCprod/cern/bdk01/va0e/203.7/bdk01_eeee_203.7_50199.xsdst ! RUN = 50199 ! NEVT = 5000
