*
*   Nickname     : xs_bdk01eeee_e208_ca0_1l_e1
*   Generic Name : //CERN/DELPHI/P02_SIMD/XSDST/BDK01EEEE/CERN/SUMT/C001-198
*   Description  :  Extended Short DST simulation a0_e1 208 , CERN
*---
*   Comments     : in total 984687 events in 198 files time stamp: Sun Oct 21 18:15:58 2001
*---
*
*
*
*
*
FILE = /castor/cern.ch/delphi/MCprod/cern/bdk01/va0e/208/bdk01_eeee_208_30001.xsdst ! RUN = 30001 ! NEVT = 5000
FILE = /castor/cern.ch/delphi/MCprod/cern/bdk01/va0e/208/bdk01_eeee_208_30002.xsdst ! RUN = 30002 ! NEVT = 5000
FILE = /castor/cern.ch/delphi/MCprod/cern/bdk01/va0e/208/bdk01_eeee_208_30003.xsdst ! RUN = 30003 ! NEVT = 5000
FILE = /castor/cern.ch/delphi/MCprod/cern/bdk01/va0e/208/bdk01_eeee_208_30004.xsdst ! RUN = 30004 ! NEVT = 5000
FILE = /castor/cern.ch/delphi/MCprod/cern/bdk01/va0e/208/bdk01_eeee_208_30005.xsdst ! RUN = 30005 ! NEVT = 4999
FILE = /castor/cern.ch/delphi/MCprod/cern/bdk01/va0e/208/bdk01_eeee_208_30006.xsdst ! RUN = 30006 ! NEVT = 5000
FILE = /castor/cern.ch/delphi/MCprod/cern/bdk01/va0e/208/bdk01_eeee_208_30007.xsdst ! RUN = 30007 ! NEVT = 5000
FILE = /castor/cern.ch/delphi/MCprod/cern/bdk01/va0e/208/bdk01_eeee_208_30008.xsdst ! RUN = 30008 ! NEVT = 5000
FILE = /castor/cern.ch/delphi/MCprod/cern/bdk01/va0e/208/bdk01_eeee_208_30009.xsdst ! RUN = 30009 ! NEVT = 5000
FILE = /castor/cern.ch/delphi/MCprod/cern/bdk01/va0e/208/bdk01_eeee_208_30010.xsdst ! RUN = 30010 ! NEVT = 5000
FILE = /castor/cern.ch/delphi/MCprod/cern/bdk01/va0e/208/bdk01_eeee_208_30011.xsdst ! RUN = 30011 ! NEVT = 5000
FILE = /castor/cern.ch/delphi/MCprod/cern/bdk01/va0e/208/bdk01_eeee_208_30012.xsdst ! RUN = 30012 ! NEVT = 5000
FILE = /castor/cern.ch/delphi/MCprod/cern/bdk01/va0e/208/bdk01_eeee_208_30013.xsdst ! RUN = 30013 ! NEVT = 5000
FILE = /castor/cern.ch/delphi/MCprod/cern/bdk01/va0e/208/bdk01_eeee_208_30014.xsdst ! RUN = 30014 ! NEVT = 5000
FILE = /castor/cern.ch/delphi/MCprod/cern/bdk01/va0e/208/bdk01_eeee_208_30015.xsdst ! RUN = 30015 ! NEVT = 5000
FILE = /castor/cern.ch/delphi/MCprod/cern/bdk01/va0e/208/bdk01_eeee_208_30016.xsdst ! RUN = 30016 ! NEVT = 5000
FILE = /castor/cern.ch/delphi/MCprod/cern/bdk01/va0e/208/bdk01_eeee_208_30017.xsdst ! RUN = 30017 ! NEVT = 5000
FILE = /castor/cern.ch/delphi/MCprod/cern/bdk01/va0e/208/bdk01_eeee_208_30018.xsdst ! RUN = 30018 ! NEVT = 5000
FILE = /castor/cern.ch/delphi/MCprod/cern/bdk01/va0e/208/bdk01_eeee_208_30019.xsdst ! RUN = 30019 ! NEVT = 5000
FILE = /castor/cern.ch/delphi/MCprod/cern/bdk01/va0e/208/bdk01_eeee_208_30020.xsdst ! RUN = 30020 ! NEVT = 5000
FILE = /castor/cern.ch/delphi/MCprod/cern/bdk01/va0e/208/bdk01_eeee_208_30021.xsdst ! RUN = 30021 ! NEVT = 5000
FILE = /castor/cern.ch/delphi/MCprod/cern/bdk01/va0e/208/bdk01_eeee_208_30022.xsdst ! RUN = 30022 ! NEVT = 5000
FILE = /castor/cern.ch/delphi/MCprod/cern/bdk01/va0e/208/bdk01_eeee_208_30023.xsdst ! RUN = 30023 ! NEVT = 5000
FILE = /castor/cern.ch/delphi/MCprod/cern/bdk01/va0e/208/bdk01_eeee_208_30024.xsdst ! RUN = 30024 ! NEVT = 5000
FILE = /castor/cern.ch/delphi/MCprod/cern/bdk01/va0e/208/bdk01_eeee_208_30025.xsdst ! RUN = 30025 ! NEVT = 5000
FILE = /castor/cern.ch/delphi/MCprod/cern/bdk01/va0e/208/bdk01_eeee_208_30026.xsdst ! RUN = 30026 ! NEVT = 5000
FILE = /castor/cern.ch/delphi/MCprod/cern/bdk01/va0e/208/bdk01_eeee_208_30027.xsdst ! RUN = 30027 ! NEVT = 5000
FILE = /castor/cern.ch/delphi/MCprod/cern/bdk01/va0e/208/bdk01_eeee_208_30028.xsdst ! RUN = 30028 ! NEVT = 5000
FILE = /castor/cern.ch/delphi/MCprod/cern/bdk01/va0e/208/bdk01_eeee_208_30029.xsdst ! RUN = 30029 ! NEVT = 5000
FILE = /castor/cern.ch/delphi/MCprod/cern/bdk01/va0e/208/bdk01_eeee_208_30030.xsdst ! RUN = 30030 ! NEVT = 5000
FILE = /castor/cern.ch/delphi/MCprod/cern/bdk01/va0e/208/bdk01_eeee_208_30031.xsdst ! RUN = 30031 ! NEVT = 5000
FILE = /castor/cern.ch/delphi/MCprod/cern/bdk01/va0e/208/bdk01_eeee_208_30032.xsdst ! RUN = 30032 ! NEVT = 5000
FILE = /castor/cern.ch/delphi/MCprod/cern/bdk01/va0e/208/bdk01_eeee_208_30033.xsdst ! RUN = 30033 ! NEVT = 5000
FILE = /castor/cern.ch/delphi/MCprod/cern/bdk01/va0e/208/bdk01_eeee_208_30034.xsdst ! RUN = 30034 ! NEVT = 5000
FILE = /castor/cern.ch/delphi/MCprod/cern/bdk01/va0e/208/bdk01_eeee_208_30035.xsdst ! RUN = 30035 ! NEVT = 5000
FILE = /castor/cern.ch/delphi/MCprod/cern/bdk01/va0e/208/bdk01_eeee_208_30036.xsdst ! RUN = 30036 ! NEVT = 5000
FILE = /castor/cern.ch/delphi/MCprod/cern/bdk01/va0e/208/bdk01_eeee_208_30037.xsdst ! RUN = 30037 ! NEVT = 5000
FILE = /castor/cern.ch/delphi/MCprod/cern/bdk01/va0e/208/bdk01_eeee_208_30038.xsdst ! RUN = 30038 ! NEVT = 5000
FILE = /castor/cern.ch/delphi/MCprod/cern/bdk01/va0e/208/bdk01_eeee_208_30039.xsdst ! RUN = 30039 ! NEVT = 5000
FILE = /castor/cern.ch/delphi/MCprod/cern/bdk01/va0e/208/bdk01_eeee_208_30040.xsdst ! RUN = 30040 ! NEVT = 5000
FILE = /castor/cern.ch/delphi/MCprod/cern/bdk01/va0e/208/bdk01_eeee_208_30041.xsdst ! RUN = 30041 ! NEVT = 5000
FILE = /castor/cern.ch/delphi/MCprod/cern/bdk01/va0e/208/bdk01_eeee_208_30042.xsdst ! RUN = 30042 ! NEVT = 5000
FILE = /castor/cern.ch/delphi/MCprod/cern/bdk01/va0e/208/bdk01_eeee_208_30043.xsdst ! RUN = 30043 ! NEVT = 5000
FILE = /castor/cern.ch/delphi/MCprod/cern/bdk01/va0e/208/bdk01_eeee_208_30044.xsdst ! RUN = 30044 ! NEVT = 5000
FILE = /castor/cern.ch/delphi/MCprod/cern/bdk01/va0e/208/bdk01_eeee_208_30045.xsdst ! RUN = 30045 ! NEVT = 5000
FILE = /castor/cern.ch/delphi/MCprod/cern/bdk01/va0e/208/bdk01_eeee_208_30046.xsdst ! RUN = 30046 ! NEVT = 5000
FILE = /castor/cern.ch/delphi/MCprod/cern/bdk01/va0e/208/bdk01_eeee_208_30047.xsdst ! RUN = 30047 ! NEVT = 5000
FILE = /castor/cern.ch/delphi/MCprod/cern/bdk01/va0e/208/bdk01_eeee_208_30048.xsdst ! RUN = 30048 ! NEVT = 5000
FILE = /castor/cern.ch/delphi/MCprod/cern/bdk01/va0e/208/bdk01_eeee_208_30049.xsdst ! RUN = 30049 ! NEVT = 5000
FILE = /castor/cern.ch/delphi/MCprod/cern/bdk01/va0e/208/bdk01_eeee_208_30050.xsdst ! RUN = 30050 ! NEVT = 5000
FILE = /castor/cern.ch/delphi/MCprod/cern/bdk01/va0e/208/bdk01_eeee_208_30051.xsdst ! RUN = 30051 ! NEVT = 5000
FILE = /castor/cern.ch/delphi/MCprod/cern/bdk01/va0e/208/bdk01_eeee_208_30052.xsdst ! RUN = 30052 ! NEVT = 5000
FILE = /castor/cern.ch/delphi/MCprod/cern/bdk01/va0e/208/bdk01_eeee_208_30053.xsdst ! RUN = 30053 ! NEVT = 5000
FILE = /castor/cern.ch/delphi/MCprod/cern/bdk01/va0e/208/bdk01_eeee_208_30054.xsdst ! RUN = 30054 ! NEVT = 5000
FILE = /castor/cern.ch/delphi/MCprod/cern/bdk01/va0e/208/bdk01_eeee_208_30055.xsdst ! RUN = 30055 ! NEVT = 5000
FILE = /castor/cern.ch/delphi/MCprod/cern/bdk01/va0e/208/bdk01_eeee_208_30056.xsdst ! RUN = 30056 ! NEVT = 5000
FILE = /castor/cern.ch/delphi/MCprod/cern/bdk01/va0e/208/bdk01_eeee_208_30057.xsdst ! RUN = 30057 ! NEVT = 5000
FILE = /castor/cern.ch/delphi/MCprod/cern/bdk01/va0e/208/bdk01_eeee_208_30058.xsdst ! RUN = 30058 ! NEVT = 5000
FILE = /castor/cern.ch/delphi/MCprod/cern/bdk01/va0e/208/bdk01_eeee_208_30059.xsdst ! RUN = 30059 ! NEVT = 5000
FILE = /castor/cern.ch/delphi/MCprod/cern/bdk01/va0e/208/bdk01_eeee_208_30060.xsdst ! RUN = 30060 ! NEVT = 5000
FILE = /castor/cern.ch/delphi/MCprod/cern/bdk01/va0e/208/bdk01_eeee_208_30061.xsdst ! RUN = 30061 ! NEVT = 5000
FILE = /castor/cern.ch/delphi/MCprod/cern/bdk01/va0e/208/bdk01_eeee_208_30062.xsdst ! RUN = 30062 ! NEVT = 5000
FILE = /castor/cern.ch/delphi/MCprod/cern/bdk01/va0e/208/bdk01_eeee_208_30063.xsdst ! RUN = 30063 ! NEVT = 5000
FILE = /castor/cern.ch/delphi/MCprod/cern/bdk01/va0e/208/bdk01_eeee_208_30064.xsdst ! RUN = 30064 ! NEVT = 5000
FILE = /castor/cern.ch/delphi/MCprod/cern/bdk01/va0e/208/bdk01_eeee_208_30065.xsdst ! RUN = 30065 ! NEVT = 5000
FILE = /castor/cern.ch/delphi/MCprod/cern/bdk01/va0e/208/bdk01_eeee_208_30066.xsdst ! RUN = 30066 ! NEVT = 5000
FILE = /castor/cern.ch/delphi/MCprod/cern/bdk01/va0e/208/bdk01_eeee_208_30067.xsdst ! RUN = 30067 ! NEVT = 5000
FILE = /castor/cern.ch/delphi/MCprod/cern/bdk01/va0e/208/bdk01_eeee_208_30068.xsdst ! RUN = 30068 ! NEVT = 5000
FILE = /castor/cern.ch/delphi/MCprod/cern/bdk01/va0e/208/bdk01_eeee_208_30069.xsdst ! RUN = 30069 ! NEVT = 5000
FILE = /castor/cern.ch/delphi/MCprod/cern/bdk01/va0e/208/bdk01_eeee_208_30070.xsdst ! RUN = 30070 ! NEVT = 5000
FILE = /castor/cern.ch/delphi/MCprod/cern/bdk01/va0e/208/bdk01_eeee_208_30071.xsdst ! RUN = 30071 ! NEVT = 5000
FILE = /castor/cern.ch/delphi/MCprod/cern/bdk01/va0e/208/bdk01_eeee_208_30072.xsdst ! RUN = 30072 ! NEVT = 5000
FILE = /castor/cern.ch/delphi/MCprod/cern/bdk01/va0e/208/bdk01_eeee_208_30073.xsdst ! RUN = 30073 ! NEVT = 5000
FILE = /castor/cern.ch/delphi/MCprod/cern/bdk01/va0e/208/bdk01_eeee_208_30074.xsdst ! RUN = 30074 ! NEVT = 5000
FILE = /castor/cern.ch/delphi/MCprod/cern/bdk01/va0e/208/bdk01_eeee_208_30075.xsdst ! RUN = 30075 ! NEVT = 5000
FILE = /castor/cern.ch/delphi/MCprod/cern/bdk01/va0e/208/bdk01_eeee_208_30076.xsdst ! RUN = 30076 ! NEVT = 4583
FILE = /castor/cern.ch/delphi/MCprod/cern/bdk01/va0e/208/bdk01_eeee_208_30077.xsdst ! RUN = 30077 ! NEVT = 5000
FILE = /castor/cern.ch/delphi/MCprod/cern/bdk01/va0e/208/bdk01_eeee_208_30078.xsdst ! RUN = 30078 ! NEVT = 5000
FILE = /castor/cern.ch/delphi/MCprod/cern/bdk01/va0e/208/bdk01_eeee_208_30079.xsdst ! RUN = 30079 ! NEVT = 5000
FILE = /castor/cern.ch/delphi/MCprod/cern/bdk01/va0e/208/bdk01_eeee_208_30080.xsdst ! RUN = 30080 ! NEVT = 5000
FILE = /castor/cern.ch/delphi/MCprod/cern/bdk01/va0e/208/bdk01_eeee_208_30081.xsdst ! RUN = 30081 ! NEVT = 5000
FILE = /castor/cern.ch/delphi/MCprod/cern/bdk01/va0e/208/bdk01_eeee_208_30082.xsdst ! RUN = 30082 ! NEVT = 5000
FILE = /castor/cern.ch/delphi/MCprod/cern/bdk01/va0e/208/bdk01_eeee_208_30083.xsdst ! RUN = 30083 ! NEVT = 5000
FILE = /castor/cern.ch/delphi/MCprod/cern/bdk01/va0e/208/bdk01_eeee_208_30084.xsdst ! RUN = 30084 ! NEVT = 5000
FILE = /castor/cern.ch/delphi/MCprod/cern/bdk01/va0e/208/bdk01_eeee_208_30085.xsdst ! RUN = 30085 ! NEVT = 5000
FILE = /castor/cern.ch/delphi/MCprod/cern/bdk01/va0e/208/bdk01_eeee_208_30086.xsdst ! RUN = 30086 ! NEVT = 5000
FILE = /castor/cern.ch/delphi/MCprod/cern/bdk01/va0e/208/bdk01_eeee_208_30087.xsdst ! RUN = 30087 ! NEVT = 5000
FILE = /castor/cern.ch/delphi/MCprod/cern/bdk01/va0e/208/bdk01_eeee_208_30088.xsdst ! RUN = 30088 ! NEVT = 5000
FILE = /castor/cern.ch/delphi/MCprod/cern/bdk01/va0e/208/bdk01_eeee_208_30089.xsdst ! RUN = 30089 ! NEVT = 5000
FILE = /castor/cern.ch/delphi/MCprod/cern/bdk01/va0e/208/bdk01_eeee_208_30090.xsdst ! RUN = 30090 ! NEVT = 5000
FILE = /castor/cern.ch/delphi/MCprod/cern/bdk01/va0e/208/bdk01_eeee_208_30091.xsdst ! RUN = 30091 ! NEVT = 5000
FILE = /castor/cern.ch/delphi/MCprod/cern/bdk01/va0e/208/bdk01_eeee_208_30092.xsdst ! RUN = 30092 ! NEVT = 5000
FILE = /castor/cern.ch/delphi/MCprod/cern/bdk01/va0e/208/bdk01_eeee_208_30093.xsdst ! RUN = 30093 ! NEVT = 5000
FILE = /castor/cern.ch/delphi/MCprod/cern/bdk01/va0e/208/bdk01_eeee_208_30094.xsdst ! RUN = 30094 ! NEVT = 5000
FILE = /castor/cern.ch/delphi/MCprod/cern/bdk01/va0e/208/bdk01_eeee_208_30095.xsdst ! RUN = 30095 ! NEVT = 5000
FILE = /castor/cern.ch/delphi/MCprod/cern/bdk01/va0e/208/bdk01_eeee_208_30096.xsdst ! RUN = 30096 ! NEVT = 5000
FILE = /castor/cern.ch/delphi/MCprod/cern/bdk01/va0e/208/bdk01_eeee_208_30097.xsdst ! RUN = 30097 ! NEVT = 5000
FILE = /castor/cern.ch/delphi/MCprod/cern/bdk01/va0e/208/bdk01_eeee_208_30098.xsdst ! RUN = 30098 ! NEVT = 5000
FILE = /castor/cern.ch/delphi/MCprod/cern/bdk01/va0e/208/bdk01_eeee_208_30099.xsdst ! RUN = 30099 ! NEVT = 5000
FILE = /castor/cern.ch/delphi/MCprod/cern/bdk01/va0e/208/bdk01_eeee_208_30100.xsdst ! RUN = 30100 ! NEVT = 5000
FILE = /castor/cern.ch/delphi/MCprod/cern/bdk01/va0e/208/bdk01_eeee_208_30101.xsdst ! RUN = 30101 ! NEVT = 5000
FILE = /castor/cern.ch/delphi/MCprod/cern/bdk01/va0e/208/bdk01_eeee_208_30102.xsdst ! RUN = 30102 ! NEVT = 5000
FILE = /castor/cern.ch/delphi/MCprod/cern/bdk01/va0e/208/bdk01_eeee_208_30103.xsdst ! RUN = 30103 ! NEVT = 5000
FILE = /castor/cern.ch/delphi/MCprod/cern/bdk01/va0e/208/bdk01_eeee_208_30104.xsdst ! RUN = 30104 ! NEVT = 5000
FILE = /castor/cern.ch/delphi/MCprod/cern/bdk01/va0e/208/bdk01_eeee_208_30105.xsdst ! RUN = 30105 ! NEVT = 5000
FILE = /castor/cern.ch/delphi/MCprod/cern/bdk01/va0e/208/bdk01_eeee_208_30106.xsdst ! RUN = 30106 ! NEVT = 5000
FILE = /castor/cern.ch/delphi/MCprod/cern/bdk01/va0e/208/bdk01_eeee_208_30107.xsdst ! RUN = 30107 ! NEVT = 5000
FILE = /castor/cern.ch/delphi/MCprod/cern/bdk01/va0e/208/bdk01_eeee_208_30108.xsdst ! RUN = 30108 ! NEVT = 5000
FILE = /castor/cern.ch/delphi/MCprod/cern/bdk01/va0e/208/bdk01_eeee_208_30109.xsdst ! RUN = 30109 ! NEVT = 5000
FILE = /castor/cern.ch/delphi/MCprod/cern/bdk01/va0e/208/bdk01_eeee_208_30110.xsdst ! RUN = 30110 ! NEVT = 5000
FILE = /castor/cern.ch/delphi/MCprod/cern/bdk01/va0e/208/bdk01_eeee_208_30111.xsdst ! RUN = 30111 ! NEVT = 5000
FILE = /castor/cern.ch/delphi/MCprod/cern/bdk01/va0e/208/bdk01_eeee_208_30112.xsdst ! RUN = 30112 ! NEVT = 5000
FILE = /castor/cern.ch/delphi/MCprod/cern/bdk01/va0e/208/bdk01_eeee_208_30113.xsdst ! RUN = 30113 ! NEVT = 5000
FILE = /castor/cern.ch/delphi/MCprod/cern/bdk01/va0e/208/bdk01_eeee_208_30114.xsdst ! RUN = 30114 ! NEVT = 5000
FILE = /castor/cern.ch/delphi/MCprod/cern/bdk01/va0e/208/bdk01_eeee_208_30115.xsdst ! RUN = 30115 ! NEVT = 5000
FILE = /castor/cern.ch/delphi/MCprod/cern/bdk01/va0e/208/bdk01_eeee_208_30116.xsdst ! RUN = 30116 ! NEVT = 5000
FILE = /castor/cern.ch/delphi/MCprod/cern/bdk01/va0e/208/bdk01_eeee_208_30119.xsdst ! RUN = 30119 ! NEVT = 105
FILE = /castor/cern.ch/delphi/MCprod/cern/bdk01/va0e/208/bdk01_eeee_208_30120.xsdst ! RUN = 30120 ! NEVT = 5000
FILE = /castor/cern.ch/delphi/MCprod/cern/bdk01/va0e/208/bdk01_eeee_208_30121.xsdst ! RUN = 30121 ! NEVT = 5000
FILE = /castor/cern.ch/delphi/MCprod/cern/bdk01/va0e/208/bdk01_eeee_208_30122.xsdst ! RUN = 30122 ! NEVT = 5000
FILE = /castor/cern.ch/delphi/MCprod/cern/bdk01/va0e/208/bdk01_eeee_208_30123.xsdst ! RUN = 30123 ! NEVT = 5000
FILE = /castor/cern.ch/delphi/MCprod/cern/bdk01/va0e/208/bdk01_eeee_208_30124.xsdst ! RUN = 30124 ! NEVT = 5000
FILE = /castor/cern.ch/delphi/MCprod/cern/bdk01/va0e/208/bdk01_eeee_208_30125.xsdst ! RUN = 30125 ! NEVT = 5000
FILE = /castor/cern.ch/delphi/MCprod/cern/bdk01/va0e/208/bdk01_eeee_208_30126.xsdst ! RUN = 30126 ! NEVT = 5000
FILE = /castor/cern.ch/delphi/MCprod/cern/bdk01/va0e/208/bdk01_eeee_208_30127.xsdst ! RUN = 30127 ! NEVT = 5000
FILE = /castor/cern.ch/delphi/MCprod/cern/bdk01/va0e/208/bdk01_eeee_208_30128.xsdst ! RUN = 30128 ! NEVT = 5000
FILE = /castor/cern.ch/delphi/MCprod/cern/bdk01/va0e/208/bdk01_eeee_208_30129.xsdst ! RUN = 30129 ! NEVT = 5000
FILE = /castor/cern.ch/delphi/MCprod/cern/bdk01/va0e/208/bdk01_eeee_208_30130.xsdst ! RUN = 30130 ! NEVT = 5000
FILE = /castor/cern.ch/delphi/MCprod/cern/bdk01/va0e/208/bdk01_eeee_208_30131.xsdst ! RUN = 30131 ! NEVT = 5000
FILE = /castor/cern.ch/delphi/MCprod/cern/bdk01/va0e/208/bdk01_eeee_208_30132.xsdst ! RUN = 30132 ! NEVT = 5000
FILE = /castor/cern.ch/delphi/MCprod/cern/bdk01/va0e/208/bdk01_eeee_208_30133.xsdst ! RUN = 30133 ! NEVT = 5000
FILE = /castor/cern.ch/delphi/MCprod/cern/bdk01/va0e/208/bdk01_eeee_208_30134.xsdst ! RUN = 30134 ! NEVT = 5000
FILE = /castor/cern.ch/delphi/MCprod/cern/bdk01/va0e/208/bdk01_eeee_208_30135.xsdst ! RUN = 30135 ! NEVT = 5000
FILE = /castor/cern.ch/delphi/MCprod/cern/bdk01/va0e/208/bdk01_eeee_208_30136.xsdst ! RUN = 30136 ! NEVT = 5000
FILE = /castor/cern.ch/delphi/MCprod/cern/bdk01/va0e/208/bdk01_eeee_208_30137.xsdst ! RUN = 30137 ! NEVT = 5000
FILE = /castor/cern.ch/delphi/MCprod/cern/bdk01/va0e/208/bdk01_eeee_208_30138.xsdst ! RUN = 30138 ! NEVT = 5000
FILE = /castor/cern.ch/delphi/MCprod/cern/bdk01/va0e/208/bdk01_eeee_208_30139.xsdst ! RUN = 30139 ! NEVT = 5000
FILE = /castor/cern.ch/delphi/MCprod/cern/bdk01/va0e/208/bdk01_eeee_208_30140.xsdst ! RUN = 30140 ! NEVT = 5000
FILE = /castor/cern.ch/delphi/MCprod/cern/bdk01/va0e/208/bdk01_eeee_208_30141.xsdst ! RUN = 30141 ! NEVT = 5000
FILE = /castor/cern.ch/delphi/MCprod/cern/bdk01/va0e/208/bdk01_eeee_208_30142.xsdst ! RUN = 30142 ! NEVT = 5000
FILE = /castor/cern.ch/delphi/MCprod/cern/bdk01/va0e/208/bdk01_eeee_208_30143.xsdst ! RUN = 30143 ! NEVT = 5000
FILE = /castor/cern.ch/delphi/MCprod/cern/bdk01/va0e/208/bdk01_eeee_208_30144.xsdst ! RUN = 30144 ! NEVT = 5000
FILE = /castor/cern.ch/delphi/MCprod/cern/bdk01/va0e/208/bdk01_eeee_208_30145.xsdst ! RUN = 30145 ! NEVT = 5000
FILE = /castor/cern.ch/delphi/MCprod/cern/bdk01/va0e/208/bdk01_eeee_208_30146.xsdst ! RUN = 30146 ! NEVT = 5000
FILE = /castor/cern.ch/delphi/MCprod/cern/bdk01/va0e/208/bdk01_eeee_208_30147.xsdst ! RUN = 30147 ! NEVT = 5000
FILE = /castor/cern.ch/delphi/MCprod/cern/bdk01/va0e/208/bdk01_eeee_208_30148.xsdst ! RUN = 30148 ! NEVT = 5000
FILE = /castor/cern.ch/delphi/MCprod/cern/bdk01/va0e/208/bdk01_eeee_208_30149.xsdst ! RUN = 30149 ! NEVT = 5000
FILE = /castor/cern.ch/delphi/MCprod/cern/bdk01/va0e/208/bdk01_eeee_208_30150.xsdst ! RUN = 30150 ! NEVT = 5000
FILE = /castor/cern.ch/delphi/MCprod/cern/bdk01/va0e/208/bdk01_eeee_208_30151.xsdst ! RUN = 30151 ! NEVT = 5000
FILE = /castor/cern.ch/delphi/MCprod/cern/bdk01/va0e/208/bdk01_eeee_208_30152.xsdst ! RUN = 30152 ! NEVT = 5000
FILE = /castor/cern.ch/delphi/MCprod/cern/bdk01/va0e/208/bdk01_eeee_208_30153.xsdst ! RUN = 30153 ! NEVT = 5000
FILE = /castor/cern.ch/delphi/MCprod/cern/bdk01/va0e/208/bdk01_eeee_208_30154.xsdst ! RUN = 30154 ! NEVT = 5000
FILE = /castor/cern.ch/delphi/MCprod/cern/bdk01/va0e/208/bdk01_eeee_208_30155.xsdst ! RUN = 30155 ! NEVT = 5000
FILE = /castor/cern.ch/delphi/MCprod/cern/bdk01/va0e/208/bdk01_eeee_208_30156.xsdst ! RUN = 30156 ! NEVT = 5000
FILE = /castor/cern.ch/delphi/MCprod/cern/bdk01/va0e/208/bdk01_eeee_208_30157.xsdst ! RUN = 30157 ! NEVT = 5000
FILE = /castor/cern.ch/delphi/MCprod/cern/bdk01/va0e/208/bdk01_eeee_208_30158.xsdst ! RUN = 30158 ! NEVT = 5000
FILE = /castor/cern.ch/delphi/MCprod/cern/bdk01/va0e/208/bdk01_eeee_208_30159.xsdst ! RUN = 30159 ! NEVT = 5000
FILE = /castor/cern.ch/delphi/MCprod/cern/bdk01/va0e/208/bdk01_eeee_208_30160.xsdst ! RUN = 30160 ! NEVT = 5000
FILE = /castor/cern.ch/delphi/MCprod/cern/bdk01/va0e/208/bdk01_eeee_208_30161.xsdst ! RUN = 30161 ! NEVT = 5000
FILE = /castor/cern.ch/delphi/MCprod/cern/bdk01/va0e/208/bdk01_eeee_208_30162.xsdst ! RUN = 30162 ! NEVT = 5000
FILE = /castor/cern.ch/delphi/MCprod/cern/bdk01/va0e/208/bdk01_eeee_208_30163.xsdst ! RUN = 30163 ! NEVT = 5000
FILE = /castor/cern.ch/delphi/MCprod/cern/bdk01/va0e/208/bdk01_eeee_208_30164.xsdst ! RUN = 30164 ! NEVT = 5000
FILE = /castor/cern.ch/delphi/MCprod/cern/bdk01/va0e/208/bdk01_eeee_208_30165.xsdst ! RUN = 30165 ! NEVT = 5000
FILE = /castor/cern.ch/delphi/MCprod/cern/bdk01/va0e/208/bdk01_eeee_208_30166.xsdst ! RUN = 30166 ! NEVT = 5000
FILE = /castor/cern.ch/delphi/MCprod/cern/bdk01/va0e/208/bdk01_eeee_208_30167.xsdst ! RUN = 30167 ! NEVT = 5000
FILE = /castor/cern.ch/delphi/MCprod/cern/bdk01/va0e/208/bdk01_eeee_208_30168.xsdst ! RUN = 30168 ! NEVT = 5000
FILE = /castor/cern.ch/delphi/MCprod/cern/bdk01/va0e/208/bdk01_eeee_208_30169.xsdst ! RUN = 30169 ! NEVT = 5000
FILE = /castor/cern.ch/delphi/MCprod/cern/bdk01/va0e/208/bdk01_eeee_208_30170.xsdst ! RUN = 30170 ! NEVT = 5000
FILE = /castor/cern.ch/delphi/MCprod/cern/bdk01/va0e/208/bdk01_eeee_208_30171.xsdst ! RUN = 30171 ! NEVT = 5000
FILE = /castor/cern.ch/delphi/MCprod/cern/bdk01/va0e/208/bdk01_eeee_208_30172.xsdst ! RUN = 30172 ! NEVT = 5000
FILE = /castor/cern.ch/delphi/MCprod/cern/bdk01/va0e/208/bdk01_eeee_208_30173.xsdst ! RUN = 30173 ! NEVT = 5000
FILE = /castor/cern.ch/delphi/MCprod/cern/bdk01/va0e/208/bdk01_eeee_208_30174.xsdst ! RUN = 30174 ! NEVT = 5000
FILE = /castor/cern.ch/delphi/MCprod/cern/bdk01/va0e/208/bdk01_eeee_208_30175.xsdst ! RUN = 30175 ! NEVT = 5000
FILE = /castor/cern.ch/delphi/MCprod/cern/bdk01/va0e/208/bdk01_eeee_208_30176.xsdst ! RUN = 30176 ! NEVT = 5000
FILE = /castor/cern.ch/delphi/MCprod/cern/bdk01/va0e/208/bdk01_eeee_208_30177.xsdst ! RUN = 30177 ! NEVT = 5000
FILE = /castor/cern.ch/delphi/MCprod/cern/bdk01/va0e/208/bdk01_eeee_208_30178.xsdst ! RUN = 30178 ! NEVT = 5000
FILE = /castor/cern.ch/delphi/MCprod/cern/bdk01/va0e/208/bdk01_eeee_208_30179.xsdst ! RUN = 30179 ! NEVT = 5000
FILE = /castor/cern.ch/delphi/MCprod/cern/bdk01/va0e/208/bdk01_eeee_208_30180.xsdst ! RUN = 30180 ! NEVT = 5000
FILE = /castor/cern.ch/delphi/MCprod/cern/bdk01/va0e/208/bdk01_eeee_208_30181.xsdst ! RUN = 30181 ! NEVT = 5000
FILE = /castor/cern.ch/delphi/MCprod/cern/bdk01/va0e/208/bdk01_eeee_208_30182.xsdst ! RUN = 30182 ! NEVT = 5000
FILE = /castor/cern.ch/delphi/MCprod/cern/bdk01/va0e/208/bdk01_eeee_208_30183.xsdst ! RUN = 30183 ! NEVT = 5000
FILE = /castor/cern.ch/delphi/MCprod/cern/bdk01/va0e/208/bdk01_eeee_208_30184.xsdst ! RUN = 30184 ! NEVT = 5000
FILE = /castor/cern.ch/delphi/MCprod/cern/bdk01/va0e/208/bdk01_eeee_208_30185.xsdst ! RUN = 30185 ! NEVT = 5000
FILE = /castor/cern.ch/delphi/MCprod/cern/bdk01/va0e/208/bdk01_eeee_208_30186.xsdst ! RUN = 30186 ! NEVT = 5000
FILE = /castor/cern.ch/delphi/MCprod/cern/bdk01/va0e/208/bdk01_eeee_208_30187.xsdst ! RUN = 30187 ! NEVT = 5000
FILE = /castor/cern.ch/delphi/MCprod/cern/bdk01/va0e/208/bdk01_eeee_208_30188.xsdst ! RUN = 30188 ! NEVT = 5000
FILE = /castor/cern.ch/delphi/MCprod/cern/bdk01/va0e/208/bdk01_eeee_208_30189.xsdst ! RUN = 30189 ! NEVT = 5000
FILE = /castor/cern.ch/delphi/MCprod/cern/bdk01/va0e/208/bdk01_eeee_208_30190.xsdst ! RUN = 30190 ! NEVT = 5000
FILE = /castor/cern.ch/delphi/MCprod/cern/bdk01/va0e/208/bdk01_eeee_208_30191.xsdst ! RUN = 30191 ! NEVT = 5000
FILE = /castor/cern.ch/delphi/MCprod/cern/bdk01/va0e/208/bdk01_eeee_208_30192.xsdst ! RUN = 30192 ! NEVT = 5000
FILE = /castor/cern.ch/delphi/MCprod/cern/bdk01/va0e/208/bdk01_eeee_208_30193.xsdst ! RUN = 30193 ! NEVT = 5000
FILE = /castor/cern.ch/delphi/MCprod/cern/bdk01/va0e/208/bdk01_eeee_208_30194.xsdst ! RUN = 30194 ! NEVT = 5000
FILE = /castor/cern.ch/delphi/MCprod/cern/bdk01/va0e/208/bdk01_eeee_208_30195.xsdst ! RUN = 30195 ! NEVT = 5000
FILE = /castor/cern.ch/delphi/MCprod/cern/bdk01/va0e/208/bdk01_eeee_208_30196.xsdst ! RUN = 30196 ! NEVT = 5000
FILE = /castor/cern.ch/delphi/MCprod/cern/bdk01/va0e/208/bdk01_eeee_208_30197.xsdst ! RUN = 30197 ! NEVT = 5000
FILE = /castor/cern.ch/delphi/MCprod/cern/bdk01/va0e/208/bdk01_eeee_208_30198.xsdst ! RUN = 30198 ! NEVT = 5000
FILE = /castor/cern.ch/delphi/MCprod/cern/bdk01/va0e/208/bdk01_eeee_208_30199.xsdst ! RUN = 30199 ! NEVT = 5000
FILE = /castor/cern.ch/delphi/MCprod/cern/bdk01/va0e/208/bdk01_eeee_208_30200.xsdst ! RUN = 30200 ! NEVT = 5000
