*
*   Nickname     : xs_wphact22cc_e206.5_m80.4_ca0_1l_e1
*   Generic Name : //CERN/DELPHI/P02_SIMD/XSDST/WPHACT22CC/E206.5/CERN/SUMT/C001-481
*   Description  :  Extended Short DST simulation a0_e1 done at ecms=206.5 , CERN
*---
*   Comments     : in total 954435 events in 481 files time stamp: Sun Feb  3 12:24:43 2002
*---
*
*
*
*
*
FILE = /castor/cern.ch/delphi/MCprod/cern/wphact22/va0e/206.5/wphact22_cc_206.5_80.4_20001.xsdst ! RUN = 20001 ! NEVT = 2000
FILE = /castor/cern.ch/delphi/MCprod/cern/wphact22/va0e/206.5/wphact22_cc_206.5_80.4_20002.xsdst ! RUN = 20002 ! NEVT = 1998
FILE = /castor/cern.ch/delphi/MCprod/cern/wphact22/va0e/206.5/wphact22_cc_206.5_80.4_20003.xsdst ! RUN = 20003 ! NEVT = 1994
FILE = /castor/cern.ch/delphi/MCprod/cern/wphact22/va0e/206.5/wphact22_cc_206.5_80.4_20004.xsdst ! RUN = 20004 ! NEVT = 1998
FILE = /castor/cern.ch/delphi/MCprod/cern/wphact22/va0e/206.5/wphact22_cc_206.5_80.4_20005.xsdst ! RUN = 20005 ! NEVT = 2000
FILE = /castor/cern.ch/delphi/MCprod/cern/wphact22/va0e/206.5/wphact22_cc_206.5_80.4_20006.xsdst ! RUN = 20006 ! NEVT = 1999
FILE = /castor/cern.ch/delphi/MCprod/cern/wphact22/va0e/206.5/wphact22_cc_206.5_80.4_20007.xsdst ! RUN = 20007 ! NEVT = 1999
FILE = /castor/cern.ch/delphi/MCprod/cern/wphact22/va0e/206.5/wphact22_cc_206.5_80.4_20008.xsdst ! RUN = 20008 ! NEVT = 2000
FILE = /castor/cern.ch/delphi/MCprod/cern/wphact22/va0e/206.5/wphact22_cc_206.5_80.4_20009.xsdst ! RUN = 20009 ! NEVT = 2000
FILE = /castor/cern.ch/delphi/MCprod/cern/wphact22/va0e/206.5/wphact22_cc_206.5_80.4_20010.xsdst ! RUN = 20010 ! NEVT = 1999
FILE = /castor/cern.ch/delphi/MCprod/cern/wphact22/va0e/206.5/wphact22_cc_206.5_80.4_20012.xsdst ! RUN = 20012 ! NEVT = 1998
FILE = /castor/cern.ch/delphi/MCprod/cern/wphact22/va0e/206.5/wphact22_cc_206.5_80.4_20013.xsdst ! RUN = 20013 ! NEVT = 1998
FILE = /castor/cern.ch/delphi/MCprod/cern/wphact22/va0e/206.5/wphact22_cc_206.5_80.4_20014.xsdst ! RUN = 20014 ! NEVT = 1999
FILE = /castor/cern.ch/delphi/MCprod/cern/wphact22/va0e/206.5/wphact22_cc_206.5_80.4_20015.xsdst ! RUN = 20015 ! NEVT = 1999
FILE = /castor/cern.ch/delphi/MCprod/cern/wphact22/va0e/206.5/wphact22_cc_206.5_80.4_20016.xsdst ! RUN = 20016 ! NEVT = 1999
FILE = /castor/cern.ch/delphi/MCprod/cern/wphact22/va0e/206.5/wphact22_cc_206.5_80.4_20017.xsdst ! RUN = 20017 ! NEVT = 1999
FILE = /castor/cern.ch/delphi/MCprod/cern/wphact22/va0e/206.5/wphact22_cc_206.5_80.4_20018.xsdst ! RUN = 20018 ! NEVT = 1999
FILE = /castor/cern.ch/delphi/MCprod/cern/wphact22/va0e/206.5/wphact22_cc_206.5_80.4_20019.xsdst ! RUN = 20019 ! NEVT = 2000
FILE = /castor/cern.ch/delphi/MCprod/cern/wphact22/va0e/206.5/wphact22_cc_206.5_80.4_20020.xsdst ! RUN = 20020 ! NEVT = 2000
FILE = /castor/cern.ch/delphi/MCprod/cern/wphact22/va0e/206.5/wphact22_cc_206.5_80.4_20021.xsdst ! RUN = 20021 ! NEVT = 1999
FILE = /castor/cern.ch/delphi/MCprod/cern/wphact22/va0e/206.5/wphact22_cc_206.5_80.4_20022.xsdst ! RUN = 20022 ! NEVT = 2000
FILE = /castor/cern.ch/delphi/MCprod/cern/wphact22/va0e/206.5/wphact22_cc_206.5_80.4_20023.xsdst ! RUN = 20023 ! NEVT = 2000
FILE = /castor/cern.ch/delphi/MCprod/cern/wphact22/va0e/206.5/wphact22_cc_206.5_80.4_20024.xsdst ! RUN = 20024 ! NEVT = 2000
FILE = /castor/cern.ch/delphi/MCprod/cern/wphact22/va0e/206.5/wphact22_cc_206.5_80.4_20025.xsdst ! RUN = 20025 ! NEVT = 2000
FILE = /castor/cern.ch/delphi/MCprod/cern/wphact22/va0e/206.5/wphact22_cc_206.5_80.4_20026.xsdst ! RUN = 20026 ! NEVT = 2000
FILE = /castor/cern.ch/delphi/MCprod/cern/wphact22/va0e/206.5/wphact22_cc_206.5_80.4_20027.xsdst ! RUN = 20027 ! NEVT = 1998
FILE = /castor/cern.ch/delphi/MCprod/cern/wphact22/va0e/206.5/wphact22_cc_206.5_80.4_20028.xsdst ! RUN = 20028 ! NEVT = 2000
FILE = /castor/cern.ch/delphi/MCprod/cern/wphact22/va0e/206.5/wphact22_cc_206.5_80.4_20029.xsdst ! RUN = 20029 ! NEVT = 1999
FILE = /castor/cern.ch/delphi/MCprod/cern/wphact22/va0e/206.5/wphact22_cc_206.5_80.4_20030.xsdst ! RUN = 20030 ! NEVT = 2000
FILE = /castor/cern.ch/delphi/MCprod/cern/wphact22/va0e/206.5/wphact22_cc_206.5_80.4_20031.xsdst ! RUN = 20031 ! NEVT = 2000
FILE = /castor/cern.ch/delphi/MCprod/cern/wphact22/va0e/206.5/wphact22_cc_206.5_80.4_20032.xsdst ! RUN = 20032 ! NEVT = 1999
FILE = /castor/cern.ch/delphi/MCprod/cern/wphact22/va0e/206.5/wphact22_cc_206.5_80.4_20033.xsdst ! RUN = 20033 ! NEVT = 1999
FILE = /castor/cern.ch/delphi/MCprod/cern/wphact22/va0e/206.5/wphact22_cc_206.5_80.4_20034.xsdst ! RUN = 20034 ! NEVT = 1999
FILE = /castor/cern.ch/delphi/MCprod/cern/wphact22/va0e/206.5/wphact22_cc_206.5_80.4_20035.xsdst ! RUN = 20035 ! NEVT = 1999
FILE = /castor/cern.ch/delphi/MCprod/cern/wphact22/va0e/206.5/wphact22_cc_206.5_80.4_20036.xsdst ! RUN = 20036 ! NEVT = 1999
FILE = /castor/cern.ch/delphi/MCprod/cern/wphact22/va0e/206.5/wphact22_cc_206.5_80.4_20037.xsdst ! RUN = 20037 ! NEVT = 2000
FILE = /castor/cern.ch/delphi/MCprod/cern/wphact22/va0e/206.5/wphact22_cc_206.5_80.4_20038.xsdst ! RUN = 20038 ! NEVT = 1999
FILE = /castor/cern.ch/delphi/MCprod/cern/wphact22/va0e/206.5/wphact22_cc_206.5_80.4_20039.xsdst ! RUN = 20039 ! NEVT = 2000
FILE = /castor/cern.ch/delphi/MCprod/cern/wphact22/va0e/206.5/wphact22_cc_206.5_80.4_20040.xsdst ! RUN = 20040 ! NEVT = 1999
FILE = /castor/cern.ch/delphi/MCprod/cern/wphact22/va0e/206.5/wphact22_cc_206.5_80.4_20041.xsdst ! RUN = 20041 ! NEVT = 2000
FILE = /castor/cern.ch/delphi/MCprod/cern/wphact22/va0e/206.5/wphact22_cc_206.5_80.4_20042.xsdst ! RUN = 20042 ! NEVT = 2000
FILE = /castor/cern.ch/delphi/MCprod/cern/wphact22/va0e/206.5/wphact22_cc_206.5_80.4_20043.xsdst ! RUN = 20043 ! NEVT = 1999
FILE = /castor/cern.ch/delphi/MCprod/cern/wphact22/va0e/206.5/wphact22_cc_206.5_80.4_20044.xsdst ! RUN = 20044 ! NEVT = 2000
FILE = /castor/cern.ch/delphi/MCprod/cern/wphact22/va0e/206.5/wphact22_cc_206.5_80.4_20045.xsdst ! RUN = 20045 ! NEVT = 1999
FILE = /castor/cern.ch/delphi/MCprod/cern/wphact22/va0e/206.5/wphact22_cc_206.5_80.4_20046.xsdst ! RUN = 20046 ! NEVT = 1999
FILE = /castor/cern.ch/delphi/MCprod/cern/wphact22/va0e/206.5/wphact22_cc_206.5_80.4_20047.xsdst ! RUN = 20047 ! NEVT = 1998
FILE = /castor/cern.ch/delphi/MCprod/cern/wphact22/va0e/206.5/wphact22_cc_206.5_80.4_20048.xsdst ! RUN = 20048 ! NEVT = 1999
FILE = /castor/cern.ch/delphi/MCprod/cern/wphact22/va0e/206.5/wphact22_cc_206.5_80.4_20049.xsdst ! RUN = 20049 ! NEVT = 1998
FILE = /castor/cern.ch/delphi/MCprod/cern/wphact22/va0e/206.5/wphact22_cc_206.5_80.4_20050.xsdst ! RUN = 20050 ! NEVT = 1999
FILE = /castor/cern.ch/delphi/MCprod/cern/wphact22/va0e/206.5/wphact22_cc_206.5_80.4_20051.xsdst ! RUN = 20051 ! NEVT = 1995
FILE = /castor/cern.ch/delphi/MCprod/cern/wphact22/va0e/206.5/wphact22_cc_206.5_80.4_20052.xsdst ! RUN = 20052 ! NEVT = 2000
FILE = /castor/cern.ch/delphi/MCprod/cern/wphact22/va0e/206.5/wphact22_cc_206.5_80.4_20053.xsdst ! RUN = 20053 ! NEVT = 1998
FILE = /castor/cern.ch/delphi/MCprod/cern/wphact22/va0e/206.5/wphact22_cc_206.5_80.4_20054.xsdst ! RUN = 20054 ! NEVT = 1999
FILE = /castor/cern.ch/delphi/MCprod/cern/wphact22/va0e/206.5/wphact22_cc_206.5_80.4_20055.xsdst ! RUN = 20055 ! NEVT = 2000
FILE = /castor/cern.ch/delphi/MCprod/cern/wphact22/va0e/206.5/wphact22_cc_206.5_80.4_20056.xsdst ! RUN = 20056 ! NEVT = 1999
FILE = /castor/cern.ch/delphi/MCprod/cern/wphact22/va0e/206.5/wphact22_cc_206.5_80.4_20057.xsdst ! RUN = 20057 ! NEVT = 1999
FILE = /castor/cern.ch/delphi/MCprod/cern/wphact22/va0e/206.5/wphact22_cc_206.5_80.4_20058.xsdst ! RUN = 20058 ! NEVT = 2000
FILE = /castor/cern.ch/delphi/MCprod/cern/wphact22/va0e/206.5/wphact22_cc_206.5_80.4_20060.xsdst ! RUN = 20060 ! NEVT = 2000
FILE = /castor/cern.ch/delphi/MCprod/cern/wphact22/va0e/206.5/wphact22_cc_206.5_80.4_20061.xsdst ! RUN = 20061 ! NEVT = 2000
FILE = /castor/cern.ch/delphi/MCprod/cern/wphact22/va0e/206.5/wphact22_cc_206.5_80.4_20062.xsdst ! RUN = 20062 ! NEVT = 2000
FILE = /castor/cern.ch/delphi/MCprod/cern/wphact22/va0e/206.5/wphact22_cc_206.5_80.4_20063.xsdst ! RUN = 20063 ! NEVT = 2000
FILE = /castor/cern.ch/delphi/MCprod/cern/wphact22/va0e/206.5/wphact22_cc_206.5_80.4_20064.xsdst ! RUN = 20064 ! NEVT = 1999
FILE = /castor/cern.ch/delphi/MCprod/cern/wphact22/va0e/206.5/wphact22_cc_206.5_80.4_20065.xsdst ! RUN = 20065 ! NEVT = 1999
FILE = /castor/cern.ch/delphi/MCprod/cern/wphact22/va0e/206.5/wphact22_cc_206.5_80.4_20066.xsdst ! RUN = 20066 ! NEVT = 1999
FILE = /castor/cern.ch/delphi/MCprod/cern/wphact22/va0e/206.5/wphact22_cc_206.5_80.4_20067.xsdst ! RUN = 20067 ! NEVT = 1995
FILE = /castor/cern.ch/delphi/MCprod/cern/wphact22/va0e/206.5/wphact22_cc_206.5_80.4_20068.xsdst ! RUN = 20068 ! NEVT = 2000
FILE = /castor/cern.ch/delphi/MCprod/cern/wphact22/va0e/206.5/wphact22_cc_206.5_80.4_20069.xsdst ! RUN = 20069 ! NEVT = 1999
FILE = /castor/cern.ch/delphi/MCprod/cern/wphact22/va0e/206.5/wphact22_cc_206.5_80.4_20070.xsdst ! RUN = 20070 ! NEVT = 2000
FILE = /castor/cern.ch/delphi/MCprod/cern/wphact22/va0e/206.5/wphact22_cc_206.5_80.4_20071.xsdst ! RUN = 20071 ! NEVT = 2000
FILE = /castor/cern.ch/delphi/MCprod/cern/wphact22/va0e/206.5/wphact22_cc_206.5_80.4_20072.xsdst ! RUN = 20072 ! NEVT = 2000
FILE = /castor/cern.ch/delphi/MCprod/cern/wphact22/va0e/206.5/wphact22_cc_206.5_80.4_20073.xsdst ! RUN = 20073 ! NEVT = 140
FILE = /castor/cern.ch/delphi/MCprod/cern/wphact22/va0e/206.5/wphact22_cc_206.5_80.4_20074.xsdst ! RUN = 20074 ! NEVT = 2000
FILE = /castor/cern.ch/delphi/MCprod/cern/wphact22/va0e/206.5/wphact22_cc_206.5_80.4_20075.xsdst ! RUN = 20075 ! NEVT = 1999
FILE = /castor/cern.ch/delphi/MCprod/cern/wphact22/va0e/206.5/wphact22_cc_206.5_80.4_20077.xsdst ! RUN = 20077 ! NEVT = 2000
FILE = /castor/cern.ch/delphi/MCprod/cern/wphact22/va0e/206.5/wphact22_cc_206.5_80.4_20078.xsdst ! RUN = 20078 ! NEVT = 1998
FILE = /castor/cern.ch/delphi/MCprod/cern/wphact22/va0e/206.5/wphact22_cc_206.5_80.4_20079.xsdst ! RUN = 20079 ! NEVT = 2000
FILE = /castor/cern.ch/delphi/MCprod/cern/wphact22/va0e/206.5/wphact22_cc_206.5_80.4_20080.xsdst ! RUN = 20080 ! NEVT = 2000
FILE = /castor/cern.ch/delphi/MCprod/cern/wphact22/va0e/206.5/wphact22_cc_206.5_80.4_20081.xsdst ! RUN = 20081 ! NEVT = 1996
FILE = /castor/cern.ch/delphi/MCprod/cern/wphact22/va0e/206.5/wphact22_cc_206.5_80.4_20083.xsdst ! RUN = 20083 ! NEVT = 1998
FILE = /castor/cern.ch/delphi/MCprod/cern/wphact22/va0e/206.5/wphact22_cc_206.5_80.4_20084.xsdst ! RUN = 20084 ! NEVT = 1999
FILE = /castor/cern.ch/delphi/MCprod/cern/wphact22/va0e/206.5/wphact22_cc_206.5_80.4_20085.xsdst ! RUN = 20085 ! NEVT = 2000
FILE = /castor/cern.ch/delphi/MCprod/cern/wphact22/va0e/206.5/wphact22_cc_206.5_80.4_20086.xsdst ! RUN = 20086 ! NEVT = 2000
FILE = /castor/cern.ch/delphi/MCprod/cern/wphact22/va0e/206.5/wphact22_cc_206.5_80.4_20087.xsdst ! RUN = 20087 ! NEVT = 2000
FILE = /castor/cern.ch/delphi/MCprod/cern/wphact22/va0e/206.5/wphact22_cc_206.5_80.4_20088.xsdst ! RUN = 20088 ! NEVT = 1999
FILE = /castor/cern.ch/delphi/MCprod/cern/wphact22/va0e/206.5/wphact22_cc_206.5_80.4_20089.xsdst ! RUN = 20089 ! NEVT = 2000
FILE = /castor/cern.ch/delphi/MCprod/cern/wphact22/va0e/206.5/wphact22_cc_206.5_80.4_20090.xsdst ! RUN = 20090 ! NEVT = 2000
FILE = /castor/cern.ch/delphi/MCprod/cern/wphact22/va0e/206.5/wphact22_cc_206.5_80.4_20091.xsdst ! RUN = 20091 ! NEVT = 1999
FILE = /castor/cern.ch/delphi/MCprod/cern/wphact22/va0e/206.5/wphact22_cc_206.5_80.4_20092.xsdst ! RUN = 20092 ! NEVT = 1999
FILE = /castor/cern.ch/delphi/MCprod/cern/wphact22/va0e/206.5/wphact22_cc_206.5_80.4_20093.xsdst ! RUN = 20093 ! NEVT = 1999
FILE = /castor/cern.ch/delphi/MCprod/cern/wphact22/va0e/206.5/wphact22_cc_206.5_80.4_20094.xsdst ! RUN = 20094 ! NEVT = 2000
FILE = /castor/cern.ch/delphi/MCprod/cern/wphact22/va0e/206.5/wphact22_cc_206.5_80.4_20095.xsdst ! RUN = 20095 ! NEVT = 2000
FILE = /castor/cern.ch/delphi/MCprod/cern/wphact22/va0e/206.5/wphact22_cc_206.5_80.4_20096.xsdst ! RUN = 20096 ! NEVT = 2000
FILE = /castor/cern.ch/delphi/MCprod/cern/wphact22/va0e/206.5/wphact22_cc_206.5_80.4_20097.xsdst ! RUN = 20097 ! NEVT = 1998
FILE = /castor/cern.ch/delphi/MCprod/cern/wphact22/va0e/206.5/wphact22_cc_206.5_80.4_20098.xsdst ! RUN = 20098 ! NEVT = 2000
FILE = /castor/cern.ch/delphi/MCprod/cern/wphact22/va0e/206.5/wphact22_cc_206.5_80.4_20099.xsdst ! RUN = 20099 ! NEVT = 1998
FILE = /castor/cern.ch/delphi/MCprod/cern/wphact22/va0e/206.5/wphact22_cc_206.5_80.4_20100.xsdst ! RUN = 20100 ! NEVT = 2000
FILE = /castor/cern.ch/delphi/MCprod/cern/wphact22/va0e/206.5/wphact22_cc_206.5_80.4_20101.xsdst ! RUN = 20101 ! NEVT = 1998
FILE = /castor/cern.ch/delphi/MCprod/cern/wphact22/va0e/206.5/wphact22_cc_206.5_80.4_20103.xsdst ! RUN = 20103 ! NEVT = 1998
FILE = /castor/cern.ch/delphi/MCprod/cern/wphact22/va0e/206.5/wphact22_cc_206.5_80.4_20104.xsdst ! RUN = 20104 ! NEVT = 1998
FILE = /castor/cern.ch/delphi/MCprod/cern/wphact22/va0e/206.5/wphact22_cc_206.5_80.4_20105.xsdst ! RUN = 20105 ! NEVT = 1999
FILE = /castor/cern.ch/delphi/MCprod/cern/wphact22/va0e/206.5/wphact22_cc_206.5_80.4_20106.xsdst ! RUN = 20106 ! NEVT = 1997
FILE = /castor/cern.ch/delphi/MCprod/cern/wphact22/va0e/206.5/wphact22_cc_206.5_80.4_20107.xsdst ! RUN = 20107 ! NEVT = 2000
FILE = /castor/cern.ch/delphi/MCprod/cern/wphact22/va0e/206.5/wphact22_cc_206.5_80.4_20108.xsdst ! RUN = 20108 ! NEVT = 2000
FILE = /castor/cern.ch/delphi/MCprod/cern/wphact22/va0e/206.5/wphact22_cc_206.5_80.4_20109.xsdst ! RUN = 20109 ! NEVT = 1998
FILE = /castor/cern.ch/delphi/MCprod/cern/wphact22/va0e/206.5/wphact22_cc_206.5_80.4_20110.xsdst ! RUN = 20110 ! NEVT = 1999
FILE = /castor/cern.ch/delphi/MCprod/cern/wphact22/va0e/206.5/wphact22_cc_206.5_80.4_20111.xsdst ! RUN = 20111 ! NEVT = 1999
FILE = /castor/cern.ch/delphi/MCprod/cern/wphact22/va0e/206.5/wphact22_cc_206.5_80.4_20112.xsdst ! RUN = 20112 ! NEVT = 2000
FILE = /castor/cern.ch/delphi/MCprod/cern/wphact22/va0e/206.5/wphact22_cc_206.5_80.4_20113.xsdst ! RUN = 20113 ! NEVT = 2000
FILE = /castor/cern.ch/delphi/MCprod/cern/wphact22/va0e/206.5/wphact22_cc_206.5_80.4_20114.xsdst ! RUN = 20114 ! NEVT = 2000
FILE = /castor/cern.ch/delphi/MCprod/cern/wphact22/va0e/206.5/wphact22_cc_206.5_80.4_20115.xsdst ! RUN = 20115 ! NEVT = 2000
FILE = /castor/cern.ch/delphi/MCprod/cern/wphact22/va0e/206.5/wphact22_cc_206.5_80.4_20116.xsdst ! RUN = 20116 ! NEVT = 1999
FILE = /castor/cern.ch/delphi/MCprod/cern/wphact22/va0e/206.5/wphact22_cc_206.5_80.4_20117.xsdst ! RUN = 20117 ! NEVT = 1998
FILE = /castor/cern.ch/delphi/MCprod/cern/wphact22/va0e/206.5/wphact22_cc_206.5_80.4_20118.xsdst ! RUN = 20118 ! NEVT = 1998
FILE = /castor/cern.ch/delphi/MCprod/cern/wphact22/va0e/206.5/wphact22_cc_206.5_80.4_20119.xsdst ! RUN = 20119 ! NEVT = 1999
FILE = /castor/cern.ch/delphi/MCprod/cern/wphact22/va0e/206.5/wphact22_cc_206.5_80.4_20120.xsdst ! RUN = 20120 ! NEVT = 2000
FILE = /castor/cern.ch/delphi/MCprod/cern/wphact22/va0e/206.5/wphact22_cc_206.5_80.4_20121.xsdst ! RUN = 20121 ! NEVT = 2000
FILE = /castor/cern.ch/delphi/MCprod/cern/wphact22/va0e/206.5/wphact22_cc_206.5_80.4_20123.xsdst ! RUN = 20123 ! NEVT = 2000
FILE = /castor/cern.ch/delphi/MCprod/cern/wphact22/va0e/206.5/wphact22_cc_206.5_80.4_20124.xsdst ! RUN = 20124 ! NEVT = 1999
FILE = /castor/cern.ch/delphi/MCprod/cern/wphact22/va0e/206.5/wphact22_cc_206.5_80.4_20125.xsdst ! RUN = 20125 ! NEVT = 1999
FILE = /castor/cern.ch/delphi/MCprod/cern/wphact22/va0e/206.5/wphact22_cc_206.5_80.4_20126.xsdst ! RUN = 20126 ! NEVT = 1998
FILE = /castor/cern.ch/delphi/MCprod/cern/wphact22/va0e/206.5/wphact22_cc_206.5_80.4_20127.xsdst ! RUN = 20127 ! NEVT = 2000
FILE = /castor/cern.ch/delphi/MCprod/cern/wphact22/va0e/206.5/wphact22_cc_206.5_80.4_20128.xsdst ! RUN = 20128 ! NEVT = 1292
FILE = /castor/cern.ch/delphi/MCprod/cern/wphact22/va0e/206.5/wphact22_cc_206.5_80.4_20129.xsdst ! RUN = 20129 ! NEVT = 1999
FILE = /castor/cern.ch/delphi/MCprod/cern/wphact22/va0e/206.5/wphact22_cc_206.5_80.4_20130.xsdst ! RUN = 20130 ! NEVT = 1998
FILE = /castor/cern.ch/delphi/MCprod/cern/wphact22/va0e/206.5/wphact22_cc_206.5_80.4_20131.xsdst ! RUN = 20131 ! NEVT = 1998
FILE = /castor/cern.ch/delphi/MCprod/cern/wphact22/va0e/206.5/wphact22_cc_206.5_80.4_20132.xsdst ! RUN = 20132 ! NEVT = 1999
FILE = /castor/cern.ch/delphi/MCprod/cern/wphact22/va0e/206.5/wphact22_cc_206.5_80.4_20133.xsdst ! RUN = 20133 ! NEVT = 1999
FILE = /castor/cern.ch/delphi/MCprod/cern/wphact22/va0e/206.5/wphact22_cc_206.5_80.4_20134.xsdst ! RUN = 20134 ! NEVT = 1998
FILE = /castor/cern.ch/delphi/MCprod/cern/wphact22/va0e/206.5/wphact22_cc_206.5_80.4_20135.xsdst ! RUN = 20135 ! NEVT = 1999
FILE = /castor/cern.ch/delphi/MCprod/cern/wphact22/va0e/206.5/wphact22_cc_206.5_80.4_20136.xsdst ! RUN = 20136 ! NEVT = 1998
FILE = /castor/cern.ch/delphi/MCprod/cern/wphact22/va0e/206.5/wphact22_cc_206.5_80.4_20137.xsdst ! RUN = 20137 ! NEVT = 2000
FILE = /castor/cern.ch/delphi/MCprod/cern/wphact22/va0e/206.5/wphact22_cc_206.5_80.4_20138.xsdst ! RUN = 20138 ! NEVT = 1998
FILE = /castor/cern.ch/delphi/MCprod/cern/wphact22/va0e/206.5/wphact22_cc_206.5_80.4_20139.xsdst ! RUN = 20139 ! NEVT = 1999
FILE = /castor/cern.ch/delphi/MCprod/cern/wphact22/va0e/206.5/wphact22_cc_206.5_80.4_20140.xsdst ! RUN = 20140 ! NEVT = 1999
FILE = /castor/cern.ch/delphi/MCprod/cern/wphact22/va0e/206.5/wphact22_cc_206.5_80.4_20141.xsdst ! RUN = 20141 ! NEVT = 2000
FILE = /castor/cern.ch/delphi/MCprod/cern/wphact22/va0e/206.5/wphact22_cc_206.5_80.4_20142.xsdst ! RUN = 20142 ! NEVT = 2000
FILE = /castor/cern.ch/delphi/MCprod/cern/wphact22/va0e/206.5/wphact22_cc_206.5_80.4_20143.xsdst ! RUN = 20143 ! NEVT = 1999
FILE = /castor/cern.ch/delphi/MCprod/cern/wphact22/va0e/206.5/wphact22_cc_206.5_80.4_20144.xsdst ! RUN = 20144 ! NEVT = 1527
FILE = /castor/cern.ch/delphi/MCprod/cern/wphact22/va0e/206.5/wphact22_cc_206.5_80.4_20145.xsdst ! RUN = 20145 ! NEVT = 1999
FILE = /castor/cern.ch/delphi/MCprod/cern/wphact22/va0e/206.5/wphact22_cc_206.5_80.4_20146.xsdst ! RUN = 20146 ! NEVT = 1998
FILE = /castor/cern.ch/delphi/MCprod/cern/wphact22/va0e/206.5/wphact22_cc_206.5_80.4_20147.xsdst ! RUN = 20147 ! NEVT = 1999
FILE = /castor/cern.ch/delphi/MCprod/cern/wphact22/va0e/206.5/wphact22_cc_206.5_80.4_20149.xsdst ! RUN = 20149 ! NEVT = 2000
FILE = /castor/cern.ch/delphi/MCprod/cern/wphact22/va0e/206.5/wphact22_cc_206.5_80.4_20151.xsdst ! RUN = 20151 ! NEVT = 2000
FILE = /castor/cern.ch/delphi/MCprod/cern/wphact22/va0e/206.5/wphact22_cc_206.5_80.4_20152.xsdst ! RUN = 20152 ! NEVT = 1998
FILE = /castor/cern.ch/delphi/MCprod/cern/wphact22/va0e/206.5/wphact22_cc_206.5_80.4_20153.xsdst ! RUN = 20153 ! NEVT = 1999
FILE = /castor/cern.ch/delphi/MCprod/cern/wphact22/va0e/206.5/wphact22_cc_206.5_80.4_20154.xsdst ! RUN = 20154 ! NEVT = 1999
FILE = /castor/cern.ch/delphi/MCprod/cern/wphact22/va0e/206.5/wphact22_cc_206.5_80.4_20156.xsdst ! RUN = 20156 ! NEVT = 2000
FILE = /castor/cern.ch/delphi/MCprod/cern/wphact22/va0e/206.5/wphact22_cc_206.5_80.4_20157.xsdst ! RUN = 20157 ! NEVT = 1999
FILE = /castor/cern.ch/delphi/MCprod/cern/wphact22/va0e/206.5/wphact22_cc_206.5_80.4_20158.xsdst ! RUN = 20158 ! NEVT = 1999
FILE = /castor/cern.ch/delphi/MCprod/cern/wphact22/va0e/206.5/wphact22_cc_206.5_80.4_20159.xsdst ! RUN = 20159 ! NEVT = 1999
FILE = /castor/cern.ch/delphi/MCprod/cern/wphact22/va0e/206.5/wphact22_cc_206.5_80.4_20160.xsdst ! RUN = 20160 ! NEVT = 2000
FILE = /castor/cern.ch/delphi/MCprod/cern/wphact22/va0e/206.5/wphact22_cc_206.5_80.4_20161.xsdst ! RUN = 20161 ! NEVT = 2000
FILE = /castor/cern.ch/delphi/MCprod/cern/wphact22/va0e/206.5/wphact22_cc_206.5_80.4_20162.xsdst ! RUN = 20162 ! NEVT = 1998
FILE = /castor/cern.ch/delphi/MCprod/cern/wphact22/va0e/206.5/wphact22_cc_206.5_80.4_20163.xsdst ! RUN = 20163 ! NEVT = 1998
FILE = /castor/cern.ch/delphi/MCprod/cern/wphact22/va0e/206.5/wphact22_cc_206.5_80.4_20164.xsdst ! RUN = 20164 ! NEVT = 1999
FILE = /castor/cern.ch/delphi/MCprod/cern/wphact22/va0e/206.5/wphact22_cc_206.5_80.4_20165.xsdst ! RUN = 20165 ! NEVT = 2000
FILE = /castor/cern.ch/delphi/MCprod/cern/wphact22/va0e/206.5/wphact22_cc_206.5_80.4_20166.xsdst ! RUN = 20166 ! NEVT = 2000
FILE = /castor/cern.ch/delphi/MCprod/cern/wphact22/va0e/206.5/wphact22_cc_206.5_80.4_20167.xsdst ! RUN = 20167 ! NEVT = 1998
FILE = /castor/cern.ch/delphi/MCprod/cern/wphact22/va0e/206.5/wphact22_cc_206.5_80.4_20168.xsdst ! RUN = 20168 ! NEVT = 2000
FILE = /castor/cern.ch/delphi/MCprod/cern/wphact22/va0e/206.5/wphact22_cc_206.5_80.4_20169.xsdst ! RUN = 20169 ! NEVT = 2000
FILE = /castor/cern.ch/delphi/MCprod/cern/wphact22/va0e/206.5/wphact22_cc_206.5_80.4_20170.xsdst ! RUN = 20170 ! NEVT = 1999
FILE = /castor/cern.ch/delphi/MCprod/cern/wphact22/va0e/206.5/wphact22_cc_206.5_80.4_20171.xsdst ! RUN = 20171 ! NEVT = 1999
FILE = /castor/cern.ch/delphi/MCprod/cern/wphact22/va0e/206.5/wphact22_cc_206.5_80.4_20172.xsdst ! RUN = 20172 ! NEVT = 2000
FILE = /castor/cern.ch/delphi/MCprod/cern/wphact22/va0e/206.5/wphact22_cc_206.5_80.4_20173.xsdst ! RUN = 20173 ! NEVT = 1998
FILE = /castor/cern.ch/delphi/MCprod/cern/wphact22/va0e/206.5/wphact22_cc_206.5_80.4_20174.xsdst ! RUN = 20174 ! NEVT = 1999
FILE = /castor/cern.ch/delphi/MCprod/cern/wphact22/va0e/206.5/wphact22_cc_206.5_80.4_20175.xsdst ! RUN = 20175 ! NEVT = 2000
FILE = /castor/cern.ch/delphi/MCprod/cern/wphact22/va0e/206.5/wphact22_cc_206.5_80.4_20176.xsdst ! RUN = 20176 ! NEVT = 955
FILE = /castor/cern.ch/delphi/MCprod/cern/wphact22/va0e/206.5/wphact22_cc_206.5_80.4_20177.xsdst ! RUN = 20177 ! NEVT = 1998
FILE = /castor/cern.ch/delphi/MCprod/cern/wphact22/va0e/206.5/wphact22_cc_206.5_80.4_20179.xsdst ! RUN = 20179 ! NEVT = 2000
FILE = /castor/cern.ch/delphi/MCprod/cern/wphact22/va0e/206.5/wphact22_cc_206.5_80.4_20180.xsdst ! RUN = 20180 ! NEVT = 1998
FILE = /castor/cern.ch/delphi/MCprod/cern/wphact22/va0e/206.5/wphact22_cc_206.5_80.4_20182.xsdst ! RUN = 20182 ! NEVT = 1999
FILE = /castor/cern.ch/delphi/MCprod/cern/wphact22/va0e/206.5/wphact22_cc_206.5_80.4_20183.xsdst ! RUN = 20183 ! NEVT = 2000
FILE = /castor/cern.ch/delphi/MCprod/cern/wphact22/va0e/206.5/wphact22_cc_206.5_80.4_20184.xsdst ! RUN = 20184 ! NEVT = 1998
FILE = /castor/cern.ch/delphi/MCprod/cern/wphact22/va0e/206.5/wphact22_cc_206.5_80.4_20185.xsdst ! RUN = 20185 ! NEVT = 2000
FILE = /castor/cern.ch/delphi/MCprod/cern/wphact22/va0e/206.5/wphact22_cc_206.5_80.4_20186.xsdst ! RUN = 20186 ! NEVT = 2000
FILE = /castor/cern.ch/delphi/MCprod/cern/wphact22/va0e/206.5/wphact22_cc_206.5_80.4_20187.xsdst ! RUN = 20187 ! NEVT = 1998
FILE = /castor/cern.ch/delphi/MCprod/cern/wphact22/va0e/206.5/wphact22_cc_206.5_80.4_20188.xsdst ! RUN = 20188 ! NEVT = 1999
FILE = /castor/cern.ch/delphi/MCprod/cern/wphact22/va0e/206.5/wphact22_cc_206.5_80.4_20189.xsdst ! RUN = 20189 ! NEVT = 2000
FILE = /castor/cern.ch/delphi/MCprod/cern/wphact22/va0e/206.5/wphact22_cc_206.5_80.4_20190.xsdst ! RUN = 20190 ! NEVT = 1997
FILE = /castor/cern.ch/delphi/MCprod/cern/wphact22/va0e/206.5/wphact22_cc_206.5_80.4_20191.xsdst ! RUN = 20191 ! NEVT = 1999
FILE = /castor/cern.ch/delphi/MCprod/cern/wphact22/va0e/206.5/wphact22_cc_206.5_80.4_20192.xsdst ! RUN = 20192 ! NEVT = 2000
FILE = /castor/cern.ch/delphi/MCprod/cern/wphact22/va0e/206.5/wphact22_cc_206.5_80.4_20195.xsdst ! RUN = 20195 ! NEVT = 2000
FILE = /castor/cern.ch/delphi/MCprod/cern/wphact22/va0e/206.5/wphact22_cc_206.5_80.4_20196.xsdst ! RUN = 20196 ! NEVT = 2000
FILE = /castor/cern.ch/delphi/MCprod/cern/wphact22/va0e/206.5/wphact22_cc_206.5_80.4_20197.xsdst ! RUN = 20197 ! NEVT = 2000
FILE = /castor/cern.ch/delphi/MCprod/cern/wphact22/va0e/206.5/wphact22_cc_206.5_80.4_20198.xsdst ! RUN = 20198 ! NEVT = 2000
FILE = /castor/cern.ch/delphi/MCprod/cern/wphact22/va0e/206.5/wphact22_cc_206.5_80.4_20199.xsdst ! RUN = 20199 ! NEVT = 1999
FILE = /castor/cern.ch/delphi/MCprod/cern/wphact22/va0e/206.5/wphact22_cc_206.5_80.4_20201.xsdst ! RUN = 20201 ! NEVT = 1999
FILE = /castor/cern.ch/delphi/MCprod/cern/wphact22/va0e/206.5/wphact22_cc_206.5_80.4_20202.xsdst ! RUN = 20202 ! NEVT = 2000
FILE = /castor/cern.ch/delphi/MCprod/cern/wphact22/va0e/206.5/wphact22_cc_206.5_80.4_20203.xsdst ! RUN = 20203 ! NEVT = 2000
FILE = /castor/cern.ch/delphi/MCprod/cern/wphact22/va0e/206.5/wphact22_cc_206.5_80.4_20204.xsdst ! RUN = 20204 ! NEVT = 1998
FILE = /castor/cern.ch/delphi/MCprod/cern/wphact22/va0e/206.5/wphact22_cc_206.5_80.4_20205.xsdst ! RUN = 20205 ! NEVT = 2000
FILE = /castor/cern.ch/delphi/MCprod/cern/wphact22/va0e/206.5/wphact22_cc_206.5_80.4_20206.xsdst ! RUN = 20206 ! NEVT = 1999
FILE = /castor/cern.ch/delphi/MCprod/cern/wphact22/va0e/206.5/wphact22_cc_206.5_80.4_20207.xsdst ! RUN = 20207 ! NEVT = 1999
FILE = /castor/cern.ch/delphi/MCprod/cern/wphact22/va0e/206.5/wphact22_cc_206.5_80.4_20208.xsdst ! RUN = 20208 ! NEVT = 1999
FILE = /castor/cern.ch/delphi/MCprod/cern/wphact22/va0e/206.5/wphact22_cc_206.5_80.4_20209.xsdst ! RUN = 20209 ! NEVT = 1997
FILE = /castor/cern.ch/delphi/MCprod/cern/wphact22/va0e/206.5/wphact22_cc_206.5_80.4_20210.xsdst ! RUN = 20210 ! NEVT = 1998
FILE = /castor/cern.ch/delphi/MCprod/cern/wphact22/va0e/206.5/wphact22_cc_206.5_80.4_20211.xsdst ! RUN = 20211 ! NEVT = 2000
FILE = /castor/cern.ch/delphi/MCprod/cern/wphact22/va0e/206.5/wphact22_cc_206.5_80.4_20212.xsdst ! RUN = 20212 ! NEVT = 2000
FILE = /castor/cern.ch/delphi/MCprod/cern/wphact22/va0e/206.5/wphact22_cc_206.5_80.4_20213.xsdst ! RUN = 20213 ! NEVT = 1999
FILE = /castor/cern.ch/delphi/MCprod/cern/wphact22/va0e/206.5/wphact22_cc_206.5_80.4_20214.xsdst ! RUN = 20214 ! NEVT = 1999
FILE = /castor/cern.ch/delphi/MCprod/cern/wphact22/va0e/206.5/wphact22_cc_206.5_80.4_20215.xsdst ! RUN = 20215 ! NEVT = 1999
FILE = /castor/cern.ch/delphi/MCprod/cern/wphact22/va0e/206.5/wphact22_cc_206.5_80.4_20216.xsdst ! RUN = 20216 ! NEVT = 1999
FILE = /castor/cern.ch/delphi/MCprod/cern/wphact22/va0e/206.5/wphact22_cc_206.5_80.4_20217.xsdst ! RUN = 20217 ! NEVT = 2000
FILE = /castor/cern.ch/delphi/MCprod/cern/wphact22/va0e/206.5/wphact22_cc_206.5_80.4_20218.xsdst ! RUN = 20218 ! NEVT = 2000
FILE = /castor/cern.ch/delphi/MCprod/cern/wphact22/va0e/206.5/wphact22_cc_206.5_80.4_20219.xsdst ! RUN = 20219 ! NEVT = 2000
FILE = /castor/cern.ch/delphi/MCprod/cern/wphact22/va0e/206.5/wphact22_cc_206.5_80.4_20220.xsdst ! RUN = 20220 ! NEVT = 1997
FILE = /castor/cern.ch/delphi/MCprod/cern/wphact22/va0e/206.5/wphact22_cc_206.5_80.4_20221.xsdst ! RUN = 20221 ! NEVT = 1999
FILE = /castor/cern.ch/delphi/MCprod/cern/wphact22/va0e/206.5/wphact22_cc_206.5_80.4_20222.xsdst ! RUN = 20222 ! NEVT = 2000
FILE = /castor/cern.ch/delphi/MCprod/cern/wphact22/va0e/206.5/wphact22_cc_206.5_80.4_20223.xsdst ! RUN = 20223 ! NEVT = 1998
FILE = /castor/cern.ch/delphi/MCprod/cern/wphact22/va0e/206.5/wphact22_cc_206.5_80.4_20224.xsdst ! RUN = 20224 ! NEVT = 1999
FILE = /castor/cern.ch/delphi/MCprod/cern/wphact22/va0e/206.5/wphact22_cc_206.5_80.4_20225.xsdst ! RUN = 20225 ! NEVT = 1999
FILE = /castor/cern.ch/delphi/MCprod/cern/wphact22/va0e/206.5/wphact22_cc_206.5_80.4_20226.xsdst ! RUN = 20226 ! NEVT = 2000
FILE = /castor/cern.ch/delphi/MCprod/cern/wphact22/va0e/206.5/wphact22_cc_206.5_80.4_20227.xsdst ! RUN = 20227 ! NEVT = 2000
FILE = /castor/cern.ch/delphi/MCprod/cern/wphact22/va0e/206.5/wphact22_cc_206.5_80.4_20228.xsdst ! RUN = 20228 ! NEVT = 2000
FILE = /castor/cern.ch/delphi/MCprod/cern/wphact22/va0e/206.5/wphact22_cc_206.5_80.4_20229.xsdst ! RUN = 20229 ! NEVT = 2000
FILE = /castor/cern.ch/delphi/MCprod/cern/wphact22/va0e/206.5/wphact22_cc_206.5_80.4_20230.xsdst ! RUN = 20230 ! NEVT = 2000
FILE = /castor/cern.ch/delphi/MCprod/cern/wphact22/va0e/206.5/wphact22_cc_206.5_80.4_20232.xsdst ! RUN = 20232 ! NEVT = 2000
FILE = /castor/cern.ch/delphi/MCprod/cern/wphact22/va0e/206.5/wphact22_cc_206.5_80.4_20233.xsdst ! RUN = 20233 ! NEVT = 1998
FILE = /castor/cern.ch/delphi/MCprod/cern/wphact22/va0e/206.5/wphact22_cc_206.5_80.4_20234.xsdst ! RUN = 20234 ! NEVT = 2000
FILE = /castor/cern.ch/delphi/MCprod/cern/wphact22/va0e/206.5/wphact22_cc_206.5_80.4_20235.xsdst ! RUN = 20235 ! NEVT = 1998
FILE = /castor/cern.ch/delphi/MCprod/cern/wphact22/va0e/206.5/wphact22_cc_206.5_80.4_20236.xsdst ! RUN = 20236 ! NEVT = 1998
FILE = /castor/cern.ch/delphi/MCprod/cern/wphact22/va0e/206.5/wphact22_cc_206.5_80.4_20237.xsdst ! RUN = 20237 ! NEVT = 1998
FILE = /castor/cern.ch/delphi/MCprod/cern/wphact22/va0e/206.5/wphact22_cc_206.5_80.4_20238.xsdst ! RUN = 20238 ! NEVT = 2000
FILE = /castor/cern.ch/delphi/MCprod/cern/wphact22/va0e/206.5/wphact22_cc_206.5_80.4_20239.xsdst ! RUN = 20239 ! NEVT = 1999
FILE = /castor/cern.ch/delphi/MCprod/cern/wphact22/va0e/206.5/wphact22_cc_206.5_80.4_20240.xsdst ! RUN = 20240 ! NEVT = 1797
FILE = /castor/cern.ch/delphi/MCprod/cern/wphact22/va0e/206.5/wphact22_cc_206.5_80.4_20241.xsdst ! RUN = 20241 ! NEVT = 1998
FILE = /castor/cern.ch/delphi/MCprod/cern/wphact22/va0e/206.5/wphact22_cc_206.5_80.4_20242.xsdst ! RUN = 20242 ! NEVT = 2000
FILE = /castor/cern.ch/delphi/MCprod/cern/wphact22/va0e/206.5/wphact22_cc_206.5_80.4_20243.xsdst ! RUN = 20243 ! NEVT = 2000
FILE = /castor/cern.ch/delphi/MCprod/cern/wphact22/va0e/206.5/wphact22_cc_206.5_80.4_20244.xsdst ! RUN = 20244 ! NEVT = 2000
FILE = /castor/cern.ch/delphi/MCprod/cern/wphact22/va0e/206.5/wphact22_cc_206.5_80.4_20245.xsdst ! RUN = 20245 ! NEVT = 1998
FILE = /castor/cern.ch/delphi/MCprod/cern/wphact22/va0e/206.5/wphact22_cc_206.5_80.4_20246.xsdst ! RUN = 20246 ! NEVT = 2000
FILE = /castor/cern.ch/delphi/MCprod/cern/wphact22/va0e/206.5/wphact22_cc_206.5_80.4_20247.xsdst ! RUN = 20247 ! NEVT = 1999
FILE = /castor/cern.ch/delphi/MCprod/cern/wphact22/va0e/206.5/wphact22_cc_206.5_80.4_20248.xsdst ! RUN = 20248 ! NEVT = 1999
FILE = /castor/cern.ch/delphi/MCprod/cern/wphact22/va0e/206.5/wphact22_cc_206.5_80.4_20249.xsdst ! RUN = 20249 ! NEVT = 1999
FILE = /castor/cern.ch/delphi/MCprod/cern/wphact22/va0e/206.5/wphact22_cc_206.5_80.4_20250.xsdst ! RUN = 20250 ! NEVT = 1999
FILE = /castor/cern.ch/delphi/MCprod/cern/wphact22/va0e/206.5/wphact22_cc_206.5_80.4_20251.xsdst ! RUN = 20251 ! NEVT = 2000
FILE = /castor/cern.ch/delphi/MCprod/cern/wphact22/va0e/206.5/wphact22_cc_206.5_80.4_20252.xsdst ! RUN = 20252 ! NEVT = 2000
FILE = /castor/cern.ch/delphi/MCprod/cern/wphact22/va0e/206.5/wphact22_cc_206.5_80.4_20253.xsdst ! RUN = 20253 ! NEVT = 1999
FILE = /castor/cern.ch/delphi/MCprod/cern/wphact22/va0e/206.5/wphact22_cc_206.5_80.4_20254.xsdst ! RUN = 20254 ! NEVT = 1998
FILE = /castor/cern.ch/delphi/MCprod/cern/wphact22/va0e/206.5/wphact22_cc_206.5_80.4_20255.xsdst ! RUN = 20255 ! NEVT = 2000
FILE = /castor/cern.ch/delphi/MCprod/cern/wphact22/va0e/206.5/wphact22_cc_206.5_80.4_20256.xsdst ! RUN = 20256 ! NEVT = 1999
FILE = /castor/cern.ch/delphi/MCprod/cern/wphact22/va0e/206.5/wphact22_cc_206.5_80.4_20257.xsdst ! RUN = 20257 ! NEVT = 1998
FILE = /castor/cern.ch/delphi/MCprod/cern/wphact22/va0e/206.5/wphact22_cc_206.5_80.4_20258.xsdst ! RUN = 20258 ! NEVT = 2000
FILE = /castor/cern.ch/delphi/MCprod/cern/wphact22/va0e/206.5/wphact22_cc_206.5_80.4_20259.xsdst ! RUN = 20259 ! NEVT = 1997
FILE = /castor/cern.ch/delphi/MCprod/cern/wphact22/va0e/206.5/wphact22_cc_206.5_80.4_20260.xsdst ! RUN = 20260 ! NEVT = 2000
FILE = /castor/cern.ch/delphi/MCprod/cern/wphact22/va0e/206.5/wphact22_cc_206.5_80.4_20261.xsdst ! RUN = 20261 ! NEVT = 1999
FILE = /castor/cern.ch/delphi/MCprod/cern/wphact22/va0e/206.5/wphact22_cc_206.5_80.4_20262.xsdst ! RUN = 20262 ! NEVT = 2000
FILE = /castor/cern.ch/delphi/MCprod/cern/wphact22/va0e/206.5/wphact22_cc_206.5_80.4_20263.xsdst ! RUN = 20263 ! NEVT = 2000
FILE = /castor/cern.ch/delphi/MCprod/cern/wphact22/va0e/206.5/wphact22_cc_206.5_80.4_20264.xsdst ! RUN = 20264 ! NEVT = 1999
FILE = /castor/cern.ch/delphi/MCprod/cern/wphact22/va0e/206.5/wphact22_cc_206.5_80.4_20265.xsdst ! RUN = 20265 ! NEVT = 1998
FILE = /castor/cern.ch/delphi/MCprod/cern/wphact22/va0e/206.5/wphact22_cc_206.5_80.4_20266.xsdst ! RUN = 20266 ! NEVT = 2000
FILE = /castor/cern.ch/delphi/MCprod/cern/wphact22/va0e/206.5/wphact22_cc_206.5_80.4_20267.xsdst ! RUN = 20267 ! NEVT = 1999
FILE = /castor/cern.ch/delphi/MCprod/cern/wphact22/va0e/206.5/wphact22_cc_206.5_80.4_20268.xsdst ! RUN = 20268 ! NEVT = 1999
FILE = /castor/cern.ch/delphi/MCprod/cern/wphact22/va0e/206.5/wphact22_cc_206.5_80.4_20269.xsdst ! RUN = 20269 ! NEVT = 2000
FILE = /castor/cern.ch/delphi/MCprod/cern/wphact22/va0e/206.5/wphact22_cc_206.5_80.4_20270.xsdst ! RUN = 20270 ! NEVT = 1999
FILE = /castor/cern.ch/delphi/MCprod/cern/wphact22/va0e/206.5/wphact22_cc_206.5_80.4_20271.xsdst ! RUN = 20271 ! NEVT = 1999
FILE = /castor/cern.ch/delphi/MCprod/cern/wphact22/va0e/206.5/wphact22_cc_206.5_80.4_20272.xsdst ! RUN = 20272 ! NEVT = 1999
FILE = /castor/cern.ch/delphi/MCprod/cern/wphact22/va0e/206.5/wphact22_cc_206.5_80.4_20273.xsdst ! RUN = 20273 ! NEVT = 2000
FILE = /castor/cern.ch/delphi/MCprod/cern/wphact22/va0e/206.5/wphact22_cc_206.5_80.4_20274.xsdst ! RUN = 20274 ! NEVT = 1998
FILE = /castor/cern.ch/delphi/MCprod/cern/wphact22/va0e/206.5/wphact22_cc_206.5_80.4_20275.xsdst ! RUN = 20275 ! NEVT = 2000
FILE = /castor/cern.ch/delphi/MCprod/cern/wphact22/va0e/206.5/wphact22_cc_206.5_80.4_20276.xsdst ! RUN = 20276 ! NEVT = 2000
FILE = /castor/cern.ch/delphi/MCprod/cern/wphact22/va0e/206.5/wphact22_cc_206.5_80.4_20277.xsdst ! RUN = 20277 ! NEVT = 2000
FILE = /castor/cern.ch/delphi/MCprod/cern/wphact22/va0e/206.5/wphact22_cc_206.5_80.4_20278.xsdst ! RUN = 20278 ! NEVT = 1998
FILE = /castor/cern.ch/delphi/MCprod/cern/wphact22/va0e/206.5/wphact22_cc_206.5_80.4_20279.xsdst ! RUN = 20279 ! NEVT = 2000
FILE = /castor/cern.ch/delphi/MCprod/cern/wphact22/va0e/206.5/wphact22_cc_206.5_80.4_20280.xsdst ! RUN = 20280 ! NEVT = 1999
FILE = /castor/cern.ch/delphi/MCprod/cern/wphact22/va0e/206.5/wphact22_cc_206.5_80.4_20281.xsdst ! RUN = 20281 ! NEVT = 1999
FILE = /castor/cern.ch/delphi/MCprod/cern/wphact22/va0e/206.5/wphact22_cc_206.5_80.4_20282.xsdst ! RUN = 20282 ! NEVT = 1999
FILE = /castor/cern.ch/delphi/MCprod/cern/wphact22/va0e/206.5/wphact22_cc_206.5_80.4_20283.xsdst ! RUN = 20283 ! NEVT = 1999
FILE = /castor/cern.ch/delphi/MCprod/cern/wphact22/va0e/206.5/wphact22_cc_206.5_80.4_20284.xsdst ! RUN = 20284 ! NEVT = 71
FILE = /castor/cern.ch/delphi/MCprod/cern/wphact22/va0e/206.5/wphact22_cc_206.5_80.4_20285.xsdst ! RUN = 20285 ! NEVT = 1997
FILE = /castor/cern.ch/delphi/MCprod/cern/wphact22/va0e/206.5/wphact22_cc_206.5_80.4_20287.xsdst ! RUN = 20287 ! NEVT = 1999
FILE = /castor/cern.ch/delphi/MCprod/cern/wphact22/va0e/206.5/wphact22_cc_206.5_80.4_20288.xsdst ! RUN = 20288 ! NEVT = 2000
FILE = /castor/cern.ch/delphi/MCprod/cern/wphact22/va0e/206.5/wphact22_cc_206.5_80.4_20289.xsdst ! RUN = 20289 ! NEVT = 2000
FILE = /castor/cern.ch/delphi/MCprod/cern/wphact22/va0e/206.5/wphact22_cc_206.5_80.4_20290.xsdst ! RUN = 20290 ! NEVT = 2000
FILE = /castor/cern.ch/delphi/MCprod/cern/wphact22/va0e/206.5/wphact22_cc_206.5_80.4_20291.xsdst ! RUN = 20291 ! NEVT = 1999
FILE = /castor/cern.ch/delphi/MCprod/cern/wphact22/va0e/206.5/wphact22_cc_206.5_80.4_20292.xsdst ! RUN = 20292 ! NEVT = 1999
FILE = /castor/cern.ch/delphi/MCprod/cern/wphact22/va0e/206.5/wphact22_cc_206.5_80.4_20293.xsdst ! RUN = 20293 ! NEVT = 1999
FILE = /castor/cern.ch/delphi/MCprod/cern/wphact22/va0e/206.5/wphact22_cc_206.5_80.4_20294.xsdst ! RUN = 20294 ! NEVT = 1999
FILE = /castor/cern.ch/delphi/MCprod/cern/wphact22/va0e/206.5/wphact22_cc_206.5_80.4_20295.xsdst ! RUN = 20295 ! NEVT = 2000
FILE = /castor/cern.ch/delphi/MCprod/cern/wphact22/va0e/206.5/wphact22_cc_206.5_80.4_20296.xsdst ! RUN = 20296 ! NEVT = 2000
FILE = /castor/cern.ch/delphi/MCprod/cern/wphact22/va0e/206.5/wphact22_cc_206.5_80.4_20297.xsdst ! RUN = 20297 ! NEVT = 1999
FILE = /castor/cern.ch/delphi/MCprod/cern/wphact22/va0e/206.5/wphact22_cc_206.5_80.4_20298.xsdst ! RUN = 20298 ! NEVT = 2000
FILE = /castor/cern.ch/delphi/MCprod/cern/wphact22/va0e/206.5/wphact22_cc_206.5_80.4_20299.xsdst ! RUN = 20299 ! NEVT = 1999
FILE = /castor/cern.ch/delphi/MCprod/cern/wphact22/va0e/206.5/wphact22_cc_206.5_80.4_20300.xsdst ! RUN = 20300 ! NEVT = 1998
FILE = /castor/cern.ch/delphi/MCprod/cern/wphact22/va0e/206.5/wphact22_cc_206.5_80.4_20301.xsdst ! RUN = 20301 ! NEVT = 1998
FILE = /castor/cern.ch/delphi/MCprod/cern/wphact22/va0e/206.5/wphact22_cc_206.5_80.4_20302.xsdst ! RUN = 20302 ! NEVT = 2000
FILE = /castor/cern.ch/delphi/MCprod/cern/wphact22/va0e/206.5/wphact22_cc_206.5_80.4_20303.xsdst ! RUN = 20303 ! NEVT = 2000
FILE = /castor/cern.ch/delphi/MCprod/cern/wphact22/va0e/206.5/wphact22_cc_206.5_80.4_20304.xsdst ! RUN = 20304 ! NEVT = 2000
FILE = /castor/cern.ch/delphi/MCprod/cern/wphact22/va0e/206.5/wphact22_cc_206.5_80.4_20305.xsdst ! RUN = 20305 ! NEVT = 1999
FILE = /castor/cern.ch/delphi/MCprod/cern/wphact22/va0e/206.5/wphact22_cc_206.5_80.4_20306.xsdst ! RUN = 20306 ! NEVT = 1999
FILE = /castor/cern.ch/delphi/MCprod/cern/wphact22/va0e/206.5/wphact22_cc_206.5_80.4_20307.xsdst ! RUN = 20307 ! NEVT = 2000
FILE = /castor/cern.ch/delphi/MCprod/cern/wphact22/va0e/206.5/wphact22_cc_206.5_80.4_20308.xsdst ! RUN = 20308 ! NEVT = 2000
FILE = /castor/cern.ch/delphi/MCprod/cern/wphact22/va0e/206.5/wphact22_cc_206.5_80.4_20309.xsdst ! RUN = 20309 ! NEVT = 2000
FILE = /castor/cern.ch/delphi/MCprod/cern/wphact22/va0e/206.5/wphact22_cc_206.5_80.4_20310.xsdst ! RUN = 20310 ! NEVT = 2000
FILE = /castor/cern.ch/delphi/MCprod/cern/wphact22/va0e/206.5/wphact22_cc_206.5_80.4_20311.xsdst ! RUN = 20311 ! NEVT = 1998
FILE = /castor/cern.ch/delphi/MCprod/cern/wphact22/va0e/206.5/wphact22_cc_206.5_80.4_20312.xsdst ! RUN = 20312 ! NEVT = 2000
FILE = /castor/cern.ch/delphi/MCprod/cern/wphact22/va0e/206.5/wphact22_cc_206.5_80.4_20313.xsdst ! RUN = 20313 ! NEVT = 2000
FILE = /castor/cern.ch/delphi/MCprod/cern/wphact22/va0e/206.5/wphact22_cc_206.5_80.4_20314.xsdst ! RUN = 20314 ! NEVT = 2000
FILE = /castor/cern.ch/delphi/MCprod/cern/wphact22/va0e/206.5/wphact22_cc_206.5_80.4_20315.xsdst ! RUN = 20315 ! NEVT = 2000
FILE = /castor/cern.ch/delphi/MCprod/cern/wphact22/va0e/206.5/wphact22_cc_206.5_80.4_20316.xsdst ! RUN = 20316 ! NEVT = 2000
FILE = /castor/cern.ch/delphi/MCprod/cern/wphact22/va0e/206.5/wphact22_cc_206.5_80.4_20317.xsdst ! RUN = 20317 ! NEVT = 2000
FILE = /castor/cern.ch/delphi/MCprod/cern/wphact22/va0e/206.5/wphact22_cc_206.5_80.4_20318.xsdst ! RUN = 20318 ! NEVT = 1998
FILE = /castor/cern.ch/delphi/MCprod/cern/wphact22/va0e/206.5/wphact22_cc_206.5_80.4_20319.xsdst ! RUN = 20319 ! NEVT = 1999
FILE = /castor/cern.ch/delphi/MCprod/cern/wphact22/va0e/206.5/wphact22_cc_206.5_80.4_20320.xsdst ! RUN = 20320 ! NEVT = 1999
FILE = /castor/cern.ch/delphi/MCprod/cern/wphact22/va0e/206.5/wphact22_cc_206.5_80.4_20321.xsdst ! RUN = 20321 ! NEVT = 1999
FILE = /castor/cern.ch/delphi/MCprod/cern/wphact22/va0e/206.5/wphact22_cc_206.5_80.4_20322.xsdst ! RUN = 20322 ! NEVT = 1999
FILE = /castor/cern.ch/delphi/MCprod/cern/wphact22/va0e/206.5/wphact22_cc_206.5_80.4_20323.xsdst ! RUN = 20323 ! NEVT = 2000
FILE = /castor/cern.ch/delphi/MCprod/cern/wphact22/va0e/206.5/wphact22_cc_206.5_80.4_20324.xsdst ! RUN = 20324 ! NEVT = 2000
FILE = /castor/cern.ch/delphi/MCprod/cern/wphact22/va0e/206.5/wphact22_cc_206.5_80.4_20325.xsdst ! RUN = 20325 ! NEVT = 1999
FILE = /castor/cern.ch/delphi/MCprod/cern/wphact22/va0e/206.5/wphact22_cc_206.5_80.4_20326.xsdst ! RUN = 20326 ! NEVT = 1999
FILE = /castor/cern.ch/delphi/MCprod/cern/wphact22/va0e/206.5/wphact22_cc_206.5_80.4_20327.xsdst ! RUN = 20327 ! NEVT = 1999
FILE = /castor/cern.ch/delphi/MCprod/cern/wphact22/va0e/206.5/wphact22_cc_206.5_80.4_20328.xsdst ! RUN = 20328 ! NEVT = 2000
FILE = /castor/cern.ch/delphi/MCprod/cern/wphact22/va0e/206.5/wphact22_cc_206.5_80.4_20329.xsdst ! RUN = 20329 ! NEVT = 2000
FILE = /castor/cern.ch/delphi/MCprod/cern/wphact22/va0e/206.5/wphact22_cc_206.5_80.4_20330.xsdst ! RUN = 20330 ! NEVT = 1999
FILE = /castor/cern.ch/delphi/MCprod/cern/wphact22/va0e/206.5/wphact22_cc_206.5_80.4_20331.xsdst ! RUN = 20331 ! NEVT = 1999
FILE = /castor/cern.ch/delphi/MCprod/cern/wphact22/va0e/206.5/wphact22_cc_206.5_80.4_20332.xsdst ! RUN = 20332 ! NEVT = 2000
FILE = /castor/cern.ch/delphi/MCprod/cern/wphact22/va0e/206.5/wphact22_cc_206.5_80.4_20333.xsdst ! RUN = 20333 ! NEVT = 2000
FILE = /castor/cern.ch/delphi/MCprod/cern/wphact22/va0e/206.5/wphact22_cc_206.5_80.4_20334.xsdst ! RUN = 20334 ! NEVT = 1116
FILE = /castor/cern.ch/delphi/MCprod/cern/wphact22/va0e/206.5/wphact22_cc_206.5_80.4_20335.xsdst ! RUN = 20335 ! NEVT = 2000
FILE = /castor/cern.ch/delphi/MCprod/cern/wphact22/va0e/206.5/wphact22_cc_206.5_80.4_20336.xsdst ! RUN = 20336 ! NEVT = 2000
FILE = /castor/cern.ch/delphi/MCprod/cern/wphact22/va0e/206.5/wphact22_cc_206.5_80.4_20337.xsdst ! RUN = 20337 ! NEVT = 2000
FILE = /castor/cern.ch/delphi/MCprod/cern/wphact22/va0e/206.5/wphact22_cc_206.5_80.4_20338.xsdst ! RUN = 20338 ! NEVT = 1999
FILE = /castor/cern.ch/delphi/MCprod/cern/wphact22/va0e/206.5/wphact22_cc_206.5_80.4_20339.xsdst ! RUN = 20339 ! NEVT = 1999
FILE = /castor/cern.ch/delphi/MCprod/cern/wphact22/va0e/206.5/wphact22_cc_206.5_80.4_20340.xsdst ! RUN = 20340 ! NEVT = 2000
FILE = /castor/cern.ch/delphi/MCprod/cern/wphact22/va0e/206.5/wphact22_cc_206.5_80.4_20341.xsdst ! RUN = 20341 ! NEVT = 1998
FILE = /castor/cern.ch/delphi/MCprod/cern/wphact22/va0e/206.5/wphact22_cc_206.5_80.4_20342.xsdst ! RUN = 20342 ! NEVT = 1998
FILE = /castor/cern.ch/delphi/MCprod/cern/wphact22/va0e/206.5/wphact22_cc_206.5_80.4_20343.xsdst ! RUN = 20343 ! NEVT = 2000
FILE = /castor/cern.ch/delphi/MCprod/cern/wphact22/va0e/206.5/wphact22_cc_206.5_80.4_20344.xsdst ! RUN = 20344 ! NEVT = 1999
FILE = /castor/cern.ch/delphi/MCprod/cern/wphact22/va0e/206.5/wphact22_cc_206.5_80.4_20345.xsdst ! RUN = 20345 ! NEVT = 1999
FILE = /castor/cern.ch/delphi/MCprod/cern/wphact22/va0e/206.5/wphact22_cc_206.5_80.4_20346.xsdst ! RUN = 20346 ! NEVT = 1999
FILE = /castor/cern.ch/delphi/MCprod/cern/wphact22/va0e/206.5/wphact22_cc_206.5_80.4_20347.xsdst ! RUN = 20347 ! NEVT = 1999
FILE = /castor/cern.ch/delphi/MCprod/cern/wphact22/va0e/206.5/wphact22_cc_206.5_80.4_20348.xsdst ! RUN = 20348 ! NEVT = 1999
FILE = /castor/cern.ch/delphi/MCprod/cern/wphact22/va0e/206.5/wphact22_cc_206.5_80.4_20349.xsdst ! RUN = 20349 ! NEVT = 1999
FILE = /castor/cern.ch/delphi/MCprod/cern/wphact22/va0e/206.5/wphact22_cc_206.5_80.4_20350.xsdst ! RUN = 20350 ! NEVT = 2000
FILE = /castor/cern.ch/delphi/MCprod/cern/wphact22/va0e/206.5/wphact22_cc_206.5_80.4_20351.xsdst ! RUN = 20351 ! NEVT = 1999
FILE = /castor/cern.ch/delphi/MCprod/cern/wphact22/va0e/206.5/wphact22_cc_206.5_80.4_20352.xsdst ! RUN = 20352 ! NEVT = 1999
FILE = /castor/cern.ch/delphi/MCprod/cern/wphact22/va0e/206.5/wphact22_cc_206.5_80.4_20353.xsdst ! RUN = 20353 ! NEVT = 2000
FILE = /castor/cern.ch/delphi/MCprod/cern/wphact22/va0e/206.5/wphact22_cc_206.5_80.4_20354.xsdst ! RUN = 20354 ! NEVT = 2000
FILE = /castor/cern.ch/delphi/MCprod/cern/wphact22/va0e/206.5/wphact22_cc_206.5_80.4_20355.xsdst ! RUN = 20355 ! NEVT = 2000
FILE = /castor/cern.ch/delphi/MCprod/cern/wphact22/va0e/206.5/wphact22_cc_206.5_80.4_20356.xsdst ! RUN = 20356 ! NEVT = 2000
FILE = /castor/cern.ch/delphi/MCprod/cern/wphact22/va0e/206.5/wphact22_cc_206.5_80.4_20357.xsdst ! RUN = 20357 ! NEVT = 1998
FILE = /castor/cern.ch/delphi/MCprod/cern/wphact22/va0e/206.5/wphact22_cc_206.5_80.4_20358.xsdst ! RUN = 20358 ! NEVT = 1999
FILE = /castor/cern.ch/delphi/MCprod/cern/wphact22/va0e/206.5/wphact22_cc_206.5_80.4_20359.xsdst ! RUN = 20359 ! NEVT = 1999
FILE = /castor/cern.ch/delphi/MCprod/cern/wphact22/va0e/206.5/wphact22_cc_206.5_80.4_20360.xsdst ! RUN = 20360 ! NEVT = 1999
FILE = /castor/cern.ch/delphi/MCprod/cern/wphact22/va0e/206.5/wphact22_cc_206.5_80.4_20361.xsdst ! RUN = 20361 ! NEVT = 1998
FILE = /castor/cern.ch/delphi/MCprod/cern/wphact22/va0e/206.5/wphact22_cc_206.5_80.4_20362.xsdst ! RUN = 20362 ! NEVT = 1998
FILE = /castor/cern.ch/delphi/MCprod/cern/wphact22/va0e/206.5/wphact22_cc_206.5_80.4_20363.xsdst ! RUN = 20363 ! NEVT = 2000
FILE = /castor/cern.ch/delphi/MCprod/cern/wphact22/va0e/206.5/wphact22_cc_206.5_80.4_20364.xsdst ! RUN = 20364 ! NEVT = 2000
FILE = /castor/cern.ch/delphi/MCprod/cern/wphact22/va0e/206.5/wphact22_cc_206.5_80.4_20365.xsdst ! RUN = 20365 ! NEVT = 1999
FILE = /castor/cern.ch/delphi/MCprod/cern/wphact22/va0e/206.5/wphact22_cc_206.5_80.4_20366.xsdst ! RUN = 20366 ! NEVT = 1999
FILE = /castor/cern.ch/delphi/MCprod/cern/wphact22/va0e/206.5/wphact22_cc_206.5_80.4_20367.xsdst ! RUN = 20367 ! NEVT = 2000
FILE = /castor/cern.ch/delphi/MCprod/cern/wphact22/va0e/206.5/wphact22_cc_206.5_80.4_20368.xsdst ! RUN = 20368 ! NEVT = 1999
FILE = /castor/cern.ch/delphi/MCprod/cern/wphact22/va0e/206.5/wphact22_cc_206.5_80.4_20369.xsdst ! RUN = 20369 ! NEVT = 1999
FILE = /castor/cern.ch/delphi/MCprod/cern/wphact22/va0e/206.5/wphact22_cc_206.5_80.4_20370.xsdst ! RUN = 20370 ! NEVT = 2000
FILE = /castor/cern.ch/delphi/MCprod/cern/wphact22/va0e/206.5/wphact22_cc_206.5_80.4_20371.xsdst ! RUN = 20371 ! NEVT = 1999
FILE = /castor/cern.ch/delphi/MCprod/cern/wphact22/va0e/206.5/wphact22_cc_206.5_80.4_20373.xsdst ! RUN = 20373 ! NEVT = 1999
FILE = /castor/cern.ch/delphi/MCprod/cern/wphact22/va0e/206.5/wphact22_cc_206.5_80.4_20374.xsdst ! RUN = 20374 ! NEVT = 2000
FILE = /castor/cern.ch/delphi/MCprod/cern/wphact22/va0e/206.5/wphact22_cc_206.5_80.4_20375.xsdst ! RUN = 20375 ! NEVT = 2000
FILE = /castor/cern.ch/delphi/MCprod/cern/wphact22/va0e/206.5/wphact22_cc_206.5_80.4_20376.xsdst ! RUN = 20376 ! NEVT = 2000
FILE = /castor/cern.ch/delphi/MCprod/cern/wphact22/va0e/206.5/wphact22_cc_206.5_80.4_20377.xsdst ! RUN = 20377 ! NEVT = 2000
FILE = /castor/cern.ch/delphi/MCprod/cern/wphact22/va0e/206.5/wphact22_cc_206.5_80.4_20378.xsdst ! RUN = 20378 ! NEVT = 1999
FILE = /castor/cern.ch/delphi/MCprod/cern/wphact22/va0e/206.5/wphact22_cc_206.5_80.4_20379.xsdst ! RUN = 20379 ! NEVT = 2000
FILE = /castor/cern.ch/delphi/MCprod/cern/wphact22/va0e/206.5/wphact22_cc_206.5_80.4_20380.xsdst ! RUN = 20380 ! NEVT = 2000
FILE = /castor/cern.ch/delphi/MCprod/cern/wphact22/va0e/206.5/wphact22_cc_206.5_80.4_20381.xsdst ! RUN = 20381 ! NEVT = 1999
FILE = /castor/cern.ch/delphi/MCprod/cern/wphact22/va0e/206.5/wphact22_cc_206.5_80.4_20382.xsdst ! RUN = 20382 ! NEVT = 1999
FILE = /castor/cern.ch/delphi/MCprod/cern/wphact22/va0e/206.5/wphact22_cc_206.5_80.4_20383.xsdst ! RUN = 20383 ! NEVT = 2000
FILE = /castor/cern.ch/delphi/MCprod/cern/wphact22/va0e/206.5/wphact22_cc_206.5_80.4_20384.xsdst ! RUN = 20384 ! NEVT = 2000
FILE = /castor/cern.ch/delphi/MCprod/cern/wphact22/va0e/206.5/wphact22_cc_206.5_80.4_20385.xsdst ! RUN = 20385 ! NEVT = 1999
FILE = /castor/cern.ch/delphi/MCprod/cern/wphact22/va0e/206.5/wphact22_cc_206.5_80.4_20386.xsdst ! RUN = 20386 ! NEVT = 2000
FILE = /castor/cern.ch/delphi/MCprod/cern/wphact22/va0e/206.5/wphact22_cc_206.5_80.4_20387.xsdst ! RUN = 20387 ! NEVT = 1998
FILE = /castor/cern.ch/delphi/MCprod/cern/wphact22/va0e/206.5/wphact22_cc_206.5_80.4_20388.xsdst ! RUN = 20388 ! NEVT = 2000
FILE = /castor/cern.ch/delphi/MCprod/cern/wphact22/va0e/206.5/wphact22_cc_206.5_80.4_20389.xsdst ! RUN = 20389 ! NEVT = 2000
FILE = /castor/cern.ch/delphi/MCprod/cern/wphact22/va0e/206.5/wphact22_cc_206.5_80.4_20390.xsdst ! RUN = 20390 ! NEVT = 1999
FILE = /castor/cern.ch/delphi/MCprod/cern/wphact22/va0e/206.5/wphact22_cc_206.5_80.4_20391.xsdst ! RUN = 20391 ! NEVT = 1999
FILE = /castor/cern.ch/delphi/MCprod/cern/wphact22/va0e/206.5/wphact22_cc_206.5_80.4_20392.xsdst ! RUN = 20392 ! NEVT = 1997
FILE = /castor/cern.ch/delphi/MCprod/cern/wphact22/va0e/206.5/wphact22_cc_206.5_80.4_20393.xsdst ! RUN = 20393 ! NEVT = 2000
FILE = /castor/cern.ch/delphi/MCprod/cern/wphact22/va0e/206.5/wphact22_cc_206.5_80.4_20394.xsdst ! RUN = 20394 ! NEVT = 2000
FILE = /castor/cern.ch/delphi/MCprod/cern/wphact22/va0e/206.5/wphact22_cc_206.5_80.4_20395.xsdst ! RUN = 20395 ! NEVT = 2000
FILE = /castor/cern.ch/delphi/MCprod/cern/wphact22/va0e/206.5/wphact22_cc_206.5_80.4_20396.xsdst ! RUN = 20396 ! NEVT = 2000
FILE = /castor/cern.ch/delphi/MCprod/cern/wphact22/va0e/206.5/wphact22_cc_206.5_80.4_20397.xsdst ! RUN = 20397 ! NEVT = 2000
FILE = /castor/cern.ch/delphi/MCprod/cern/wphact22/va0e/206.5/wphact22_cc_206.5_80.4_20398.xsdst ! RUN = 20398 ! NEVT = 1998
FILE = /castor/cern.ch/delphi/MCprod/cern/wphact22/va0e/206.5/wphact22_cc_206.5_80.4_20399.xsdst ! RUN = 20399 ! NEVT = 1999
FILE = /castor/cern.ch/delphi/MCprod/cern/wphact22/va0e/206.5/wphact22_cc_206.5_80.4_20400.xsdst ! RUN = 20400 ! NEVT = 1999
FILE = /castor/cern.ch/delphi/MCprod/cern/wphact22/va0e/206.5/wphact22_cc_206.5_80.4_20401.xsdst ! RUN = 20401 ! NEVT = 2000
FILE = /castor/cern.ch/delphi/MCprod/cern/wphact22/va0e/206.5/wphact22_cc_206.5_80.4_20402.xsdst ! RUN = 20402 ! NEVT = 2000
FILE = /castor/cern.ch/delphi/MCprod/cern/wphact22/va0e/206.5/wphact22_cc_206.5_80.4_20403.xsdst ! RUN = 20403 ! NEVT = 1999
FILE = /castor/cern.ch/delphi/MCprod/cern/wphact22/va0e/206.5/wphact22_cc_206.5_80.4_20404.xsdst ! RUN = 20404 ! NEVT = 2000
FILE = /castor/cern.ch/delphi/MCprod/cern/wphact22/va0e/206.5/wphact22_cc_206.5_80.4_20405.xsdst ! RUN = 20405 ! NEVT = 1998
FILE = /castor/cern.ch/delphi/MCprod/cern/wphact22/va0e/206.5/wphact22_cc_206.5_80.4_20406.xsdst ! RUN = 20406 ! NEVT = 1999
FILE = /castor/cern.ch/delphi/MCprod/cern/wphact22/va0e/206.5/wphact22_cc_206.5_80.4_20407.xsdst ! RUN = 20407 ! NEVT = 1999
FILE = /castor/cern.ch/delphi/MCprod/cern/wphact22/va0e/206.5/wphact22_cc_206.5_80.4_20408.xsdst ! RUN = 20408 ! NEVT = 2000
FILE = /castor/cern.ch/delphi/MCprod/cern/wphact22/va0e/206.5/wphact22_cc_206.5_80.4_20409.xsdst ! RUN = 20409 ! NEVT = 1999
FILE = /castor/cern.ch/delphi/MCprod/cern/wphact22/va0e/206.5/wphact22_cc_206.5_80.4_20410.xsdst ! RUN = 20410 ! NEVT = 1997
FILE = /castor/cern.ch/delphi/MCprod/cern/wphact22/va0e/206.5/wphact22_cc_206.5_80.4_20411.xsdst ! RUN = 20411 ! NEVT = 1999
FILE = /castor/cern.ch/delphi/MCprod/cern/wphact22/va0e/206.5/wphact22_cc_206.5_80.4_20412.xsdst ! RUN = 20412 ! NEVT = 1999
FILE = /castor/cern.ch/delphi/MCprod/cern/wphact22/va0e/206.5/wphact22_cc_206.5_80.4_20413.xsdst ! RUN = 20413 ! NEVT = 2000
FILE = /castor/cern.ch/delphi/MCprod/cern/wphact22/va0e/206.5/wphact22_cc_206.5_80.4_20414.xsdst ! RUN = 20414 ! NEVT = 1999
FILE = /castor/cern.ch/delphi/MCprod/cern/wphact22/va0e/206.5/wphact22_cc_206.5_80.4_20415.xsdst ! RUN = 20415 ! NEVT = 1999
FILE = /castor/cern.ch/delphi/MCprod/cern/wphact22/va0e/206.5/wphact22_cc_206.5_80.4_20416.xsdst ! RUN = 20416 ! NEVT = 2000
FILE = /castor/cern.ch/delphi/MCprod/cern/wphact22/va0e/206.5/wphact22_cc_206.5_80.4_20417.xsdst ! RUN = 20417 ! NEVT = 2000
FILE = /castor/cern.ch/delphi/MCprod/cern/wphact22/va0e/206.5/wphact22_cc_206.5_80.4_20418.xsdst ! RUN = 20418 ! NEVT = 1931
FILE = /castor/cern.ch/delphi/MCprod/cern/wphact22/va0e/206.5/wphact22_cc_206.5_80.4_20419.xsdst ! RUN = 20419 ! NEVT = 1999
FILE = /castor/cern.ch/delphi/MCprod/cern/wphact22/va0e/206.5/wphact22_cc_206.5_80.4_20420.xsdst ! RUN = 20420 ! NEVT = 1997
FILE = /castor/cern.ch/delphi/MCprod/cern/wphact22/va0e/206.5/wphact22_cc_206.5_80.4_20421.xsdst ! RUN = 20421 ! NEVT = 1998
FILE = /castor/cern.ch/delphi/MCprod/cern/wphact22/va0e/206.5/wphact22_cc_206.5_80.4_20422.xsdst ! RUN = 20422 ! NEVT = 1998
FILE = /castor/cern.ch/delphi/MCprod/cern/wphact22/va0e/206.5/wphact22_cc_206.5_80.4_20423.xsdst ! RUN = 20423 ! NEVT = 1998
FILE = /castor/cern.ch/delphi/MCprod/cern/wphact22/va0e/206.5/wphact22_cc_206.5_80.4_20424.xsdst ! RUN = 20424 ! NEVT = 1999
FILE = /castor/cern.ch/delphi/MCprod/cern/wphact22/va0e/206.5/wphact22_cc_206.5_80.4_20425.xsdst ! RUN = 20425 ! NEVT = 2000
FILE = /castor/cern.ch/delphi/MCprod/cern/wphact22/va0e/206.5/wphact22_cc_206.5_80.4_20426.xsdst ! RUN = 20426 ! NEVT = 2000
FILE = /castor/cern.ch/delphi/MCprod/cern/wphact22/va0e/206.5/wphact22_cc_206.5_80.4_20427.xsdst ! RUN = 20427 ! NEVT = 1999
FILE = /castor/cern.ch/delphi/MCprod/cern/wphact22/va0e/206.5/wphact22_cc_206.5_80.4_20428.xsdst ! RUN = 20428 ! NEVT = 1999
FILE = /castor/cern.ch/delphi/MCprod/cern/wphact22/va0e/206.5/wphact22_cc_206.5_80.4_20429.xsdst ! RUN = 20429 ! NEVT = 2000
FILE = /castor/cern.ch/delphi/MCprod/cern/wphact22/va0e/206.5/wphact22_cc_206.5_80.4_20430.xsdst ! RUN = 20430 ! NEVT = 1999
FILE = /castor/cern.ch/delphi/MCprod/cern/wphact22/va0e/206.5/wphact22_cc_206.5_80.4_20431.xsdst ! RUN = 20431 ! NEVT = 1999
FILE = /castor/cern.ch/delphi/MCprod/cern/wphact22/va0e/206.5/wphact22_cc_206.5_80.4_20432.xsdst ! RUN = 20432 ! NEVT = 2000
FILE = /castor/cern.ch/delphi/MCprod/cern/wphact22/va0e/206.5/wphact22_cc_206.5_80.4_20433.xsdst ! RUN = 20433 ! NEVT = 1998
FILE = /castor/cern.ch/delphi/MCprod/cern/wphact22/va0e/206.5/wphact22_cc_206.5_80.4_20434.xsdst ! RUN = 20434 ! NEVT = 1998
FILE = /castor/cern.ch/delphi/MCprod/cern/wphact22/va0e/206.5/wphact22_cc_206.5_80.4_20435.xsdst ! RUN = 20435 ! NEVT = 2000
FILE = /castor/cern.ch/delphi/MCprod/cern/wphact22/va0e/206.5/wphact22_cc_206.5_80.4_20436.xsdst ! RUN = 20436 ! NEVT = 1999
FILE = /castor/cern.ch/delphi/MCprod/cern/wphact22/va0e/206.5/wphact22_cc_206.5_80.4_20437.xsdst ! RUN = 20437 ! NEVT = 1998
FILE = /castor/cern.ch/delphi/MCprod/cern/wphact22/va0e/206.5/wphact22_cc_206.5_80.4_20438.xsdst ! RUN = 20438 ! NEVT = 1999
FILE = /castor/cern.ch/delphi/MCprod/cern/wphact22/va0e/206.5/wphact22_cc_206.5_80.4_20439.xsdst ! RUN = 20439 ! NEVT = 2000
FILE = /castor/cern.ch/delphi/MCprod/cern/wphact22/va0e/206.5/wphact22_cc_206.5_80.4_20440.xsdst ! RUN = 20440 ! NEVT = 1999
FILE = /castor/cern.ch/delphi/MCprod/cern/wphact22/va0e/206.5/wphact22_cc_206.5_80.4_20441.xsdst ! RUN = 20441 ! NEVT = 2000
FILE = /castor/cern.ch/delphi/MCprod/cern/wphact22/va0e/206.5/wphact22_cc_206.5_80.4_20442.xsdst ! RUN = 20442 ! NEVT = 2000
FILE = /castor/cern.ch/delphi/MCprod/cern/wphact22/va0e/206.5/wphact22_cc_206.5_80.4_20443.xsdst ! RUN = 20443 ! NEVT = 1999
FILE = /castor/cern.ch/delphi/MCprod/cern/wphact22/va0e/206.5/wphact22_cc_206.5_80.4_20444.xsdst ! RUN = 20444 ! NEVT = 2000
FILE = /castor/cern.ch/delphi/MCprod/cern/wphact22/va0e/206.5/wphact22_cc_206.5_80.4_20445.xsdst ! RUN = 20445 ! NEVT = 1999
FILE = /castor/cern.ch/delphi/MCprod/cern/wphact22/va0e/206.5/wphact22_cc_206.5_80.4_20446.xsdst ! RUN = 20446 ! NEVT = 2000
FILE = /castor/cern.ch/delphi/MCprod/cern/wphact22/va0e/206.5/wphact22_cc_206.5_80.4_20447.xsdst ! RUN = 20447 ! NEVT = 1999
FILE = /castor/cern.ch/delphi/MCprod/cern/wphact22/va0e/206.5/wphact22_cc_206.5_80.4_20448.xsdst ! RUN = 20448 ! NEVT = 2000
FILE = /castor/cern.ch/delphi/MCprod/cern/wphact22/va0e/206.5/wphact22_cc_206.5_80.4_20449.xsdst ! RUN = 20449 ! NEVT = 1998
FILE = /castor/cern.ch/delphi/MCprod/cern/wphact22/va0e/206.5/wphact22_cc_206.5_80.4_20450.xsdst ! RUN = 20450 ! NEVT = 2000
FILE = /castor/cern.ch/delphi/MCprod/cern/wphact22/va0e/206.5/wphact22_cc_206.5_80.4_20451.xsdst ! RUN = 20451 ! NEVT = 1997
FILE = /castor/cern.ch/delphi/MCprod/cern/wphact22/va0e/206.5/wphact22_cc_206.5_80.4_20452.xsdst ! RUN = 20452 ! NEVT = 2000
FILE = /castor/cern.ch/delphi/MCprod/cern/wphact22/va0e/206.5/wphact22_cc_206.5_80.4_20453.xsdst ! RUN = 20453 ! NEVT = 1999
FILE = /castor/cern.ch/delphi/MCprod/cern/wphact22/va0e/206.5/wphact22_cc_206.5_80.4_20454.xsdst ! RUN = 20454 ! NEVT = 1998
FILE = /castor/cern.ch/delphi/MCprod/cern/wphact22/va0e/206.5/wphact22_cc_206.5_80.4_20455.xsdst ! RUN = 20455 ! NEVT = 1999
FILE = /castor/cern.ch/delphi/MCprod/cern/wphact22/va0e/206.5/wphact22_cc_206.5_80.4_20456.xsdst ! RUN = 20456 ! NEVT = 1999
FILE = /castor/cern.ch/delphi/MCprod/cern/wphact22/va0e/206.5/wphact22_cc_206.5_80.4_20457.xsdst ! RUN = 20457 ! NEVT = 1999
FILE = /castor/cern.ch/delphi/MCprod/cern/wphact22/va0e/206.5/wphact22_cc_206.5_80.4_20458.xsdst ! RUN = 20458 ! NEVT = 1999
FILE = /castor/cern.ch/delphi/MCprod/cern/wphact22/va0e/206.5/wphact22_cc_206.5_80.4_20459.xsdst ! RUN = 20459 ! NEVT = 1999
FILE = /castor/cern.ch/delphi/MCprod/cern/wphact22/va0e/206.5/wphact22_cc_206.5_80.4_20460.xsdst ! RUN = 20460 ! NEVT = 1999
FILE = /castor/cern.ch/delphi/MCprod/cern/wphact22/va0e/206.5/wphact22_cc_206.5_80.4_20461.xsdst ! RUN = 20461 ! NEVT = 1998
FILE = /castor/cern.ch/delphi/MCprod/cern/wphact22/va0e/206.5/wphact22_cc_206.5_80.4_20462.xsdst ! RUN = 20462 ! NEVT = 2000
FILE = /castor/cern.ch/delphi/MCprod/cern/wphact22/va0e/206.5/wphact22_cc_206.5_80.4_20463.xsdst ! RUN = 20463 ! NEVT = 1999
FILE = /castor/cern.ch/delphi/MCprod/cern/wphact22/va0e/206.5/wphact22_cc_206.5_80.4_20464.xsdst ! RUN = 20464 ! NEVT = 1999
FILE = /castor/cern.ch/delphi/MCprod/cern/wphact22/va0e/206.5/wphact22_cc_206.5_80.4_20465.xsdst ! RUN = 20465 ! NEVT = 2000
FILE = /castor/cern.ch/delphi/MCprod/cern/wphact22/va0e/206.5/wphact22_cc_206.5_80.4_20466.xsdst ! RUN = 20466 ! NEVT = 1999
FILE = /castor/cern.ch/delphi/MCprod/cern/wphact22/va0e/206.5/wphact22_cc_206.5_80.4_20467.xsdst ! RUN = 20467 ! NEVT = 2000
FILE = /castor/cern.ch/delphi/MCprod/cern/wphact22/va0e/206.5/wphact22_cc_206.5_80.4_20468.xsdst ! RUN = 20468 ! NEVT = 1999
FILE = /castor/cern.ch/delphi/MCprod/cern/wphact22/va0e/206.5/wphact22_cc_206.5_80.4_20469.xsdst ! RUN = 20469 ! NEVT = 2000
FILE = /castor/cern.ch/delphi/MCprod/cern/wphact22/va0e/206.5/wphact22_cc_206.5_80.4_20470.xsdst ! RUN = 20470 ! NEVT = 1999
FILE = /castor/cern.ch/delphi/MCprod/cern/wphact22/va0e/206.5/wphact22_cc_206.5_80.4_20471.xsdst ! RUN = 20471 ! NEVT = 1998
FILE = /castor/cern.ch/delphi/MCprod/cern/wphact22/va0e/206.5/wphact22_cc_206.5_80.4_20472.xsdst ! RUN = 20472 ! NEVT = 2000
FILE = /castor/cern.ch/delphi/MCprod/cern/wphact22/va0e/206.5/wphact22_cc_206.5_80.4_20473.xsdst ! RUN = 20473 ! NEVT = 1999
FILE = /castor/cern.ch/delphi/MCprod/cern/wphact22/va0e/206.5/wphact22_cc_206.5_80.4_20474.xsdst ! RUN = 20474 ! NEVT = 1998
FILE = /castor/cern.ch/delphi/MCprod/cern/wphact22/va0e/206.5/wphact22_cc_206.5_80.4_20475.xsdst ! RUN = 20475 ! NEVT = 1998
FILE = /castor/cern.ch/delphi/MCprod/cern/wphact22/va0e/206.5/wphact22_cc_206.5_80.4_20476.xsdst ! RUN = 20476 ! NEVT = 1997
FILE = /castor/cern.ch/delphi/MCprod/cern/wphact22/va0e/206.5/wphact22_cc_206.5_80.4_20477.xsdst ! RUN = 20477 ! NEVT = 1999
FILE = /castor/cern.ch/delphi/MCprod/cern/wphact22/va0e/206.5/wphact22_cc_206.5_80.4_20478.xsdst ! RUN = 20478 ! NEVT = 2000
FILE = /castor/cern.ch/delphi/MCprod/cern/wphact22/va0e/206.5/wphact22_cc_206.5_80.4_20479.xsdst ! RUN = 20479 ! NEVT = 1998
FILE = /castor/cern.ch/delphi/MCprod/cern/wphact22/va0e/206.5/wphact22_cc_206.5_80.4_20480.xsdst ! RUN = 20480 ! NEVT = 2000
FILE = /castor/cern.ch/delphi/MCprod/cern/wphact22/va0e/206.5/wphact22_cc_206.5_80.4_20481.xsdst ! RUN = 20481 ! NEVT = 1999
FILE = /castor/cern.ch/delphi/MCprod/cern/wphact22/va0e/206.5/wphact22_cc_206.5_80.4_20482.xsdst ! RUN = 20482 ! NEVT = 1998
FILE = /castor/cern.ch/delphi/MCprod/cern/wphact22/va0e/206.5/wphact22_cc_206.5_80.4_20483.xsdst ! RUN = 20483 ! NEVT = 2000
FILE = /castor/cern.ch/delphi/MCprod/cern/wphact22/va0e/206.5/wphact22_cc_206.5_80.4_20484.xsdst ! RUN = 20484 ! NEVT = 2000
FILE = /castor/cern.ch/delphi/MCprod/cern/wphact22/va0e/206.5/wphact22_cc_206.5_80.4_20485.xsdst ! RUN = 20485 ! NEVT = 1999
FILE = /castor/cern.ch/delphi/MCprod/cern/wphact22/va0e/206.5/wphact22_cc_206.5_80.4_20486.xsdst ! RUN = 20486 ! NEVT = 1999
FILE = /castor/cern.ch/delphi/MCprod/cern/wphact22/va0e/206.5/wphact22_cc_206.5_80.4_20487.xsdst ! RUN = 20487 ! NEVT = 1999
FILE = /castor/cern.ch/delphi/MCprod/cern/wphact22/va0e/206.5/wphact22_cc_206.5_80.4_20488.xsdst ! RUN = 20488 ! NEVT = 1998
FILE = /castor/cern.ch/delphi/MCprod/cern/wphact22/va0e/206.5/wphact22_cc_206.5_80.4_20489.xsdst ! RUN = 20489 ! NEVT = 1999
FILE = /castor/cern.ch/delphi/MCprod/cern/wphact22/va0e/206.5/wphact22_cc_206.5_80.4_20490.xsdst ! RUN = 20490 ! NEVT = 2000
FILE = /castor/cern.ch/delphi/MCprod/cern/wphact22/va0e/206.5/wphact22_cc_206.5_80.4_20491.xsdst ! RUN = 20491 ! NEVT = 1999
FILE = /castor/cern.ch/delphi/MCprod/cern/wphact22/va0e/206.5/wphact22_cc_206.5_80.4_20492.xsdst ! RUN = 20492 ! NEVT = 1998
FILE = /castor/cern.ch/delphi/MCprod/cern/wphact22/va0e/206.5/wphact22_cc_206.5_80.4_20493.xsdst ! RUN = 20493 ! NEVT = 1999
FILE = /castor/cern.ch/delphi/MCprod/cern/wphact22/va0e/206.5/wphact22_cc_206.5_80.4_20496.xsdst ! RUN = 20496 ! NEVT = 1999
FILE = /castor/cern.ch/delphi/MCprod/cern/wphact22/va0e/206.5/wphact22_cc_206.5_80.4_20497.xsdst ! RUN = 20497 ! NEVT = 1998
FILE = /castor/cern.ch/delphi/MCprod/cern/wphact22/va0e/206.5/wphact22_cc_206.5_80.4_20498.xsdst ! RUN = 20498 ! NEVT = 1996
FILE = /castor/cern.ch/delphi/MCprod/cern/wphact22/va0e/206.5/wphact22_cc_206.5_80.4_20499.xsdst ! RUN = 20499 ! NEVT = 2000
FILE = /castor/cern.ch/delphi/MCprod/cern/wphact22/va0e/206.5/wphact22_cc_206.5_80.4_20500.xsdst ! RUN = 20500 ! NEVT = 1997
