*
*   Nickname     : xs_wphact21ncgg_e206.5_m80.4_ca0_1l_e1
*   Generic Name : //CERN/DELPHI/P02_SIMD/XSDST/WPHACT21NCGG/E206.5/CERN/SUMT/C001-243
*   Description  :  Extended Short DST simulation a0_e1 done at ecms=206.5 , CERN
*---
*   Comments     : in total 953074 events in 243 files time stamp: Sat Sep 29 20:14:03 2001
*---
*
*
*
*
*
FILE = /castor/cern.ch/delphi/MCprod/cern/wphact21/va0e/206.5/wphact21_ncgg_206.5_80.4_10001.xsdst ! RUN = 10001 ! NEVT = 1000
FILE = /castor/cern.ch/delphi/MCprod/cern/wphact21/va0e/206.5/wphact21_ncgg_206.5_80.4_10002.xsdst ! RUN = 10002 ! NEVT = 1000
FILE = /castor/cern.ch/delphi/MCprod/cern/wphact21/va0e/206.5/wphact21_ncgg_206.5_80.4_10003.xsdst ! RUN = 10003 ! NEVT = 1000
FILE = /castor/cern.ch/delphi/MCprod/cern/wphact21/va0e/206.5/wphact21_ncgg_206.5_80.4_10004.xsdst ! RUN = 10004 ! NEVT = 1000
FILE = /castor/cern.ch/delphi/MCprod/cern/wphact21/va0e/206.5/wphact21_ncgg_206.5_80.4_10005.xsdst ! RUN = 10005 ! NEVT = 1000
FILE = /castor/cern.ch/delphi/MCprod/cern/wphact21/va0e/206.5/wphact21_ncgg_206.5_80.4_10006.xsdst ! RUN = 10006 ! NEVT = 1000
FILE = /castor/cern.ch/delphi/MCprod/cern/wphact21/va0e/206.5/wphact21_ncgg_206.5_80.4_10007.xsdst ! RUN = 10007 ! NEVT = 1000
FILE = /castor/cern.ch/delphi/MCprod/cern/wphact21/va0e/206.5/wphact21_ncgg_206.5_80.4_10008.xsdst ! RUN = 10008 ! NEVT = 1000
FILE = /castor/cern.ch/delphi/MCprod/cern/wphact21/va0e/206.5/wphact21_ncgg_206.5_80.4_10009.xsdst ! RUN = 10009 ! NEVT = 1000
FILE = /castor/cern.ch/delphi/MCprod/cern/wphact21/va0e/206.5/wphact21_ncgg_206.5_80.4_10010.xsdst ! RUN = 10010 ! NEVT = 1000
FILE = /castor/cern.ch/delphi/MCprod/cern/wphact21/va0e/206.5/wphact21_ncgg_206.5_80.4_10011.xsdst ! RUN = 10011 ! NEVT = 1000
FILE = /castor/cern.ch/delphi/MCprod/cern/wphact21/va0e/206.5/wphact21_ncgg_206.5_80.4_10012.xsdst ! RUN = 10012 ! NEVT = 1000
FILE = /castor/cern.ch/delphi/MCprod/cern/wphact21/va0e/206.5/wphact21_ncgg_206.5_80.4_10013.xsdst ! RUN = 10013 ! NEVT = 1000
FILE = /castor/cern.ch/delphi/MCprod/cern/wphact21/va0e/206.5/wphact21_ncgg_206.5_80.4_10014.xsdst ! RUN = 10014 ! NEVT = 1000
FILE = /castor/cern.ch/delphi/MCprod/cern/wphact21/va0e/206.5/wphact21_ncgg_206.5_80.4_10015.xsdst ! RUN = 10015 ! NEVT = 1000
FILE = /castor/cern.ch/delphi/MCprod/cern/wphact21/va0e/206.5/wphact21_ncgg_206.5_80.4_10016.xsdst ! RUN = 10016 ! NEVT = 1000
FILE = /castor/cern.ch/delphi/MCprod/cern/wphact21/va0e/206.5/wphact21_ncgg_206.5_80.4_10017.xsdst ! RUN = 10017 ! NEVT = 1000
FILE = /castor/cern.ch/delphi/MCprod/cern/wphact21/va0e/206.5/wphact21_ncgg_206.5_80.4_10018.xsdst ! RUN = 10018 ! NEVT = 1000
FILE = /castor/cern.ch/delphi/MCprod/cern/wphact21/va0e/206.5/wphact21_ncgg_206.5_80.4_10019.xsdst ! RUN = 10019 ! NEVT = 1000
FILE = /castor/cern.ch/delphi/MCprod/cern/wphact21/va0e/206.5/wphact21_ncgg_206.5_80.4_10020.xsdst ! RUN = 10020 ! NEVT = 1000
FILE = /castor/cern.ch/delphi/MCprod/cern/wphact21/va0e/206.5/wphact21_ncgg_206.5_80.4_10021.xsdst ! RUN = 10021 ! NEVT = 1000
FILE = /castor/cern.ch/delphi/MCprod/cern/wphact21/va0e/206.5/wphact21_ncgg_206.5_80.4_10022.xsdst ! RUN = 10022 ! NEVT = 1000
FILE = /castor/cern.ch/delphi/MCprod/cern/wphact21/va0e/206.5/wphact21_ncgg_206.5_80.4_10023.xsdst ! RUN = 10023 ! NEVT = 1000
FILE = /castor/cern.ch/delphi/MCprod/cern/wphact21/va0e/206.5/wphact21_ncgg_206.5_80.4_10024.xsdst ! RUN = 10024 ! NEVT = 1000
FILE = /castor/cern.ch/delphi/MCprod/cern/wphact21/va0e/206.5/wphact21_ncgg_206.5_80.4_10025.xsdst ! RUN = 10025 ! NEVT = 1000
FILE = /castor/cern.ch/delphi/MCprod/cern/wphact21/va0e/206.5/wphact21_ncgg_206.5_80.4_10026.xsdst ! RUN = 10026 ! NEVT = 1000
FILE = /castor/cern.ch/delphi/MCprod/cern/wphact21/va0e/206.5/wphact21_ncgg_206.5_80.4_10027.xsdst ! RUN = 10027 ! NEVT = 1000
FILE = /castor/cern.ch/delphi/MCprod/cern/wphact21/va0e/206.5/wphact21_ncgg_206.5_80.4_10028.xsdst ! RUN = 10028 ! NEVT = 1000
FILE = /castor/cern.ch/delphi/MCprod/cern/wphact21/va0e/206.5/wphact21_ncgg_206.5_80.4_10029.xsdst ! RUN = 10029 ! NEVT = 1000
FILE = /castor/cern.ch/delphi/MCprod/cern/wphact21/va0e/206.5/wphact21_ncgg_206.5_80.4_10030.xsdst ! RUN = 10030 ! NEVT = 1000
FILE = /castor/cern.ch/delphi/MCprod/cern/wphact21/va0e/206.5/wphact21_ncgg_206.5_80.4_10031.xsdst ! RUN = 10031 ! NEVT = 1000
FILE = /castor/cern.ch/delphi/MCprod/cern/wphact21/va0e/206.5/wphact21_ncgg_206.5_80.4_10032.xsdst ! RUN = 10032 ! NEVT = 1000
FILE = /castor/cern.ch/delphi/MCprod/cern/wphact21/va0e/206.5/wphact21_ncgg_206.5_80.4_10033.xsdst ! RUN = 10033 ! NEVT = 1000
FILE = /castor/cern.ch/delphi/MCprod/cern/wphact21/va0e/206.5/wphact21_ncgg_206.5_80.4_10034.xsdst ! RUN = 10034 ! NEVT = 1000
FILE = /castor/cern.ch/delphi/MCprod/cern/wphact21/va0e/206.5/wphact21_ncgg_206.5_80.4_10035.xsdst ! RUN = 10035 ! NEVT = 1000
FILE = /castor/cern.ch/delphi/MCprod/cern/wphact21/va0e/206.5/wphact21_ncgg_206.5_80.4_10036.xsdst ! RUN = 10036 ! NEVT = 1000
FILE = /castor/cern.ch/delphi/MCprod/cern/wphact21/va0e/206.5/wphact21_ncgg_206.5_80.4_10037.xsdst ! RUN = 10037 ! NEVT = 1000
FILE = /castor/cern.ch/delphi/MCprod/cern/wphact21/va0e/206.5/wphact21_ncgg_206.5_80.4_10038.xsdst ! RUN = 10038 ! NEVT = 1000
FILE = /castor/cern.ch/delphi/MCprod/cern/wphact21/va0e/206.5/wphact21_ncgg_206.5_80.4_10039.xsdst ! RUN = 10039 ! NEVT = 1000
FILE = /castor/cern.ch/delphi/MCprod/cern/wphact21/va0e/206.5/wphact21_ncgg_206.5_80.4_10040.xsdst ! RUN = 10040 ! NEVT = 1000
FILE = /castor/cern.ch/delphi/MCprod/cern/wphact21/va0e/206.5/wphact21_ncgg_206.5_80.4_10041.xsdst ! RUN = 10041 ! NEVT = 1000
FILE = /castor/cern.ch/delphi/MCprod/cern/wphact21/va0e/206.5/wphact21_ncgg_206.5_80.4_10042.xsdst ! RUN = 10042 ! NEVT = 1000
FILE = /castor/cern.ch/delphi/MCprod/cern/wphact21/va0e/206.5/wphact21_ncgg_206.5_80.4_10043.xsdst ! RUN = 10043 ! NEVT = 1000
FILE = /castor/cern.ch/delphi/MCprod/cern/wphact21/va0e/206.5/wphact21_ncgg_206.5_80.4_10044.xsdst ! RUN = 10044 ! NEVT = 1000
FILE = /castor/cern.ch/delphi/MCprod/cern/wphact21/va0e/206.5/wphact21_ncgg_206.5_80.4_10045.xsdst ! RUN = 10045 ! NEVT = 1000
FILE = /castor/cern.ch/delphi/MCprod/cern/wphact21/va0e/206.5/wphact21_ncgg_206.5_80.4_10046.xsdst ! RUN = 10046 ! NEVT = 1000
FILE = /castor/cern.ch/delphi/MCprod/cern/wphact21/va0e/206.5/wphact21_ncgg_206.5_80.4_10047.xsdst ! RUN = 10047 ! NEVT = 1000
FILE = /castor/cern.ch/delphi/MCprod/cern/wphact21/va0e/206.5/wphact21_ncgg_206.5_80.4_10048.xsdst ! RUN = 10048 ! NEVT = 1000
FILE = /castor/cern.ch/delphi/MCprod/cern/wphact21/va0e/206.5/wphact21_ncgg_206.5_80.4_10049.xsdst ! RUN = 10049 ! NEVT = 1000
FILE = /castor/cern.ch/delphi/MCprod/cern/wphact21/va0e/206.5/wphact21_ncgg_206.5_80.4_10050.xsdst ! RUN = 10050 ! NEVT = 1000
FILE = /castor/cern.ch/delphi/MCprod/cern/wphact21/va0e/206.5/wphact21_ncgg_206.5_80.4_10051.xsdst ! RUN = 10051 ! NEVT = 5000
FILE = /castor/cern.ch/delphi/MCprod/cern/wphact21/va0e/206.5/wphact21_ncgg_206.5_80.4_10052.xsdst ! RUN = 10052 ! NEVT = 5000
FILE = /castor/cern.ch/delphi/MCprod/cern/wphact21/va0e/206.5/wphact21_ncgg_206.5_80.4_10053.xsdst ! RUN = 10053 ! NEVT = 3499
FILE = /castor/cern.ch/delphi/MCprod/cern/wphact21/va0e/206.5/wphact21_ncgg_206.5_80.4_10054.xsdst ! RUN = 10054 ! NEVT = 5000
FILE = /castor/cern.ch/delphi/MCprod/cern/wphact21/va0e/206.5/wphact21_ncgg_206.5_80.4_10055.xsdst ! RUN = 10055 ! NEVT = 5000
FILE = /castor/cern.ch/delphi/MCprod/cern/wphact21/va0e/206.5/wphact21_ncgg_206.5_80.4_10056.xsdst ! RUN = 10056 ! NEVT = 5000
FILE = /castor/cern.ch/delphi/MCprod/cern/wphact21/va0e/206.5/wphact21_ncgg_206.5_80.4_10057.xsdst ! RUN = 10057 ! NEVT = 5000
FILE = /castor/cern.ch/delphi/MCprod/cern/wphact21/va0e/206.5/wphact21_ncgg_206.5_80.4_10058.xsdst ! RUN = 10058 ! NEVT = 5000
FILE = /castor/cern.ch/delphi/MCprod/cern/wphact21/va0e/206.5/wphact21_ncgg_206.5_80.4_10059.xsdst ! RUN = 10059 ! NEVT = 5000
FILE = /castor/cern.ch/delphi/MCprod/cern/wphact21/va0e/206.5/wphact21_ncgg_206.5_80.4_10060.xsdst ! RUN = 10060 ! NEVT = 5000
FILE = /castor/cern.ch/delphi/MCprod/cern/wphact21/va0e/206.5/wphact21_ncgg_206.5_80.4_10061.xsdst ! RUN = 10061 ! NEVT = 5000
FILE = /castor/cern.ch/delphi/MCprod/cern/wphact21/va0e/206.5/wphact21_ncgg_206.5_80.4_10062.xsdst ! RUN = 10062 ! NEVT = 5000
FILE = /castor/cern.ch/delphi/MCprod/cern/wphact21/va0e/206.5/wphact21_ncgg_206.5_80.4_10063.xsdst ! RUN = 10063 ! NEVT = 5000
FILE = /castor/cern.ch/delphi/MCprod/cern/wphact21/va0e/206.5/wphact21_ncgg_206.5_80.4_10064.xsdst ! RUN = 10064 ! NEVT = 5000
FILE = /castor/cern.ch/delphi/MCprod/cern/wphact21/va0e/206.5/wphact21_ncgg_206.5_80.4_10065.xsdst ! RUN = 10065 ! NEVT = 5000
FILE = /castor/cern.ch/delphi/MCprod/cern/wphact21/va0e/206.5/wphact21_ncgg_206.5_80.4_10066.xsdst ! RUN = 10066 ! NEVT = 5000
FILE = /castor/cern.ch/delphi/MCprod/cern/wphact21/va0e/206.5/wphact21_ncgg_206.5_80.4_10067.xsdst ! RUN = 10067 ! NEVT = 5000
FILE = /castor/cern.ch/delphi/MCprod/cern/wphact21/va0e/206.5/wphact21_ncgg_206.5_80.4_10068.xsdst ! RUN = 10068 ! NEVT = 4999
FILE = /castor/cern.ch/delphi/MCprod/cern/wphact21/va0e/206.5/wphact21_ncgg_206.5_80.4_10069.xsdst ! RUN = 10069 ! NEVT = 5000
FILE = /castor/cern.ch/delphi/MCprod/cern/wphact21/va0e/206.5/wphact21_ncgg_206.5_80.4_10070.xsdst ! RUN = 10070 ! NEVT = 3764
FILE = /castor/cern.ch/delphi/MCprod/cern/wphact21/va0e/206.5/wphact21_ncgg_206.5_80.4_10071.xsdst ! RUN = 10071 ! NEVT = 5000
FILE = /castor/cern.ch/delphi/MCprod/cern/wphact21/va0e/206.5/wphact21_ncgg_206.5_80.4_10072.xsdst ! RUN = 10072 ! NEVT = 5000
FILE = /castor/cern.ch/delphi/MCprod/cern/wphact21/va0e/206.5/wphact21_ncgg_206.5_80.4_10073.xsdst ! RUN = 10073 ! NEVT = 5000
FILE = /castor/cern.ch/delphi/MCprod/cern/wphact21/va0e/206.5/wphact21_ncgg_206.5_80.4_10074.xsdst ! RUN = 10074 ! NEVT = 5000
FILE = /castor/cern.ch/delphi/MCprod/cern/wphact21/va0e/206.5/wphact21_ncgg_206.5_80.4_10075.xsdst ! RUN = 10075 ! NEVT = 5000
FILE = /castor/cern.ch/delphi/MCprod/cern/wphact21/va0e/206.5/wphact21_ncgg_206.5_80.4_10076.xsdst ! RUN = 10076 ! NEVT = 5000
FILE = /castor/cern.ch/delphi/MCprod/cern/wphact21/va0e/206.5/wphact21_ncgg_206.5_80.4_10077.xsdst ! RUN = 10077 ! NEVT = 1134
FILE = /castor/cern.ch/delphi/MCprod/cern/wphact21/va0e/206.5/wphact21_ncgg_206.5_80.4_10078.xsdst ! RUN = 10078 ! NEVT = 21
FILE = /castor/cern.ch/delphi/MCprod/cern/wphact21/va0e/206.5/wphact21_ncgg_206.5_80.4_10079.xsdst ! RUN = 10079 ! NEVT = 5000
FILE = /castor/cern.ch/delphi/MCprod/cern/wphact21/va0e/206.5/wphact21_ncgg_206.5_80.4_10080.xsdst ! RUN = 10080 ! NEVT = 5000
FILE = /castor/cern.ch/delphi/MCprod/cern/wphact21/va0e/206.5/wphact21_ncgg_206.5_80.4_10081.xsdst ! RUN = 10081 ! NEVT = 735
FILE = /castor/cern.ch/delphi/MCprod/cern/wphact21/va0e/206.5/wphact21_ncgg_206.5_80.4_10082.xsdst ! RUN = 10082 ! NEVT = 5000
FILE = /castor/cern.ch/delphi/MCprod/cern/wphact21/va0e/206.5/wphact21_ncgg_206.5_80.4_10083.xsdst ! RUN = 10083 ! NEVT = 5000
FILE = /castor/cern.ch/delphi/MCprod/cern/wphact21/va0e/206.5/wphact21_ncgg_206.5_80.4_10084.xsdst ! RUN = 10084 ! NEVT = 5000
FILE = /castor/cern.ch/delphi/MCprod/cern/wphact21/va0e/206.5/wphact21_ncgg_206.5_80.4_10086.xsdst ! RUN = 10086 ! NEVT = 5000
FILE = /castor/cern.ch/delphi/MCprod/cern/wphact21/va0e/206.5/wphact21_ncgg_206.5_80.4_10087.xsdst ! RUN = 10087 ! NEVT = 4999
FILE = /castor/cern.ch/delphi/MCprod/cern/wphact21/va0e/206.5/wphact21_ncgg_206.5_80.4_10088.xsdst ! RUN = 10088 ! NEVT = 336
FILE = /castor/cern.ch/delphi/MCprod/cern/wphact21/va0e/206.5/wphact21_ncgg_206.5_80.4_10089.xsdst ! RUN = 10089 ! NEVT = 5000
FILE = /castor/cern.ch/delphi/MCprod/cern/wphact21/va0e/206.5/wphact21_ncgg_206.5_80.4_10090.xsdst ! RUN = 10090 ! NEVT = 5000
FILE = /castor/cern.ch/delphi/MCprod/cern/wphact21/va0e/206.5/wphact21_ncgg_206.5_80.4_10091.xsdst ! RUN = 10091 ! NEVT = 5000
FILE = /castor/cern.ch/delphi/MCprod/cern/wphact21/va0e/206.5/wphact21_ncgg_206.5_80.4_10092.xsdst ! RUN = 10092 ! NEVT = 5000
FILE = /castor/cern.ch/delphi/MCprod/cern/wphact21/va0e/206.5/wphact21_ncgg_206.5_80.4_10093.xsdst ! RUN = 10093 ! NEVT = 5000
FILE = /castor/cern.ch/delphi/MCprod/cern/wphact21/va0e/206.5/wphact21_ncgg_206.5_80.4_10094.xsdst ! RUN = 10094 ! NEVT = 5000
FILE = /castor/cern.ch/delphi/MCprod/cern/wphact21/va0e/206.5/wphact21_ncgg_206.5_80.4_10095.xsdst ! RUN = 10095 ! NEVT = 5000
FILE = /castor/cern.ch/delphi/MCprod/cern/wphact21/va0e/206.5/wphact21_ncgg_206.5_80.4_10096.xsdst ! RUN = 10096 ! NEVT = 5000
FILE = /castor/cern.ch/delphi/MCprod/cern/wphact21/va0e/206.5/wphact21_ncgg_206.5_80.4_10097.xsdst ! RUN = 10097 ! NEVT = 5000
FILE = /castor/cern.ch/delphi/MCprod/cern/wphact21/va0e/206.5/wphact21_ncgg_206.5_80.4_10098.xsdst ! RUN = 10098 ! NEVT = 5000
FILE = /castor/cern.ch/delphi/MCprod/cern/wphact21/va0e/206.5/wphact21_ncgg_206.5_80.4_10099.xsdst ! RUN = 10099 ! NEVT = 4999
FILE = /castor/cern.ch/delphi/MCprod/cern/wphact21/va0e/206.5/wphact21_ncgg_206.5_80.4_10100.xsdst ! RUN = 10100 ! NEVT = 5000
FILE = /castor/cern.ch/delphi/MCprod/cern/wphact21/va0e/206.5/wphact21_ncgg_206.5_80.4_10101.xsdst ! RUN = 10101 ! NEVT = 5000
FILE = /castor/cern.ch/delphi/MCprod/cern/wphact21/va0e/206.5/wphact21_ncgg_206.5_80.4_10102.xsdst ! RUN = 10102 ! NEVT = 1855
FILE = /castor/cern.ch/delphi/MCprod/cern/wphact21/va0e/206.5/wphact21_ncgg_206.5_80.4_10103.xsdst ! RUN = 10103 ! NEVT = 5000
FILE = /castor/cern.ch/delphi/MCprod/cern/wphact21/va0e/206.5/wphact21_ncgg_206.5_80.4_10106.xsdst ! RUN = 10106 ! NEVT = 4999
FILE = /castor/cern.ch/delphi/MCprod/cern/wphact21/va0e/206.5/wphact21_ncgg_206.5_80.4_10107.xsdst ! RUN = 10107 ! NEVT = 5000
FILE = /castor/cern.ch/delphi/MCprod/cern/wphact21/va0e/206.5/wphact21_ncgg_206.5_80.4_10108.xsdst ! RUN = 10108 ! NEVT = 5000
FILE = /castor/cern.ch/delphi/MCprod/cern/wphact21/va0e/206.5/wphact21_ncgg_206.5_80.4_10109.xsdst ! RUN = 10109 ! NEVT = 5000
FILE = /castor/cern.ch/delphi/MCprod/cern/wphact21/va0e/206.5/wphact21_ncgg_206.5_80.4_10110.xsdst ! RUN = 10110 ! NEVT = 5000
FILE = /castor/cern.ch/delphi/MCprod/cern/wphact21/va0e/206.5/wphact21_ncgg_206.5_80.4_10111.xsdst ! RUN = 10111 ! NEVT = 5000
FILE = /castor/cern.ch/delphi/MCprod/cern/wphact21/va0e/206.5/wphact21_ncgg_206.5_80.4_10112.xsdst ! RUN = 10112 ! NEVT = 5000
FILE = /castor/cern.ch/delphi/MCprod/cern/wphact21/va0e/206.5/wphact21_ncgg_206.5_80.4_10113.xsdst ! RUN = 10113 ! NEVT = 5000
FILE = /castor/cern.ch/delphi/MCprod/cern/wphact21/va0e/206.5/wphact21_ncgg_206.5_80.4_10114.xsdst ! RUN = 10114 ! NEVT = 5000
FILE = /castor/cern.ch/delphi/MCprod/cern/wphact21/va0e/206.5/wphact21_ncgg_206.5_80.4_10115.xsdst ! RUN = 10115 ! NEVT = 5000
FILE = /castor/cern.ch/delphi/MCprod/cern/wphact21/va0e/206.5/wphact21_ncgg_206.5_80.4_10116.xsdst ! RUN = 10116 ! NEVT = 5000
FILE = /castor/cern.ch/delphi/MCprod/cern/wphact21/va0e/206.5/wphact21_ncgg_206.5_80.4_10117.xsdst ! RUN = 10117 ! NEVT = 4174
FILE = /castor/cern.ch/delphi/MCprod/cern/wphact21/va0e/206.5/wphact21_ncgg_206.5_80.4_10118.xsdst ! RUN = 10118 ! NEVT = 5000
FILE = /castor/cern.ch/delphi/MCprod/cern/wphact21/va0e/206.5/wphact21_ncgg_206.5_80.4_10119.xsdst ! RUN = 10119 ! NEVT = 5000
FILE = /castor/cern.ch/delphi/MCprod/cern/wphact21/va0e/206.5/wphact21_ncgg_206.5_80.4_10120.xsdst ! RUN = 10120 ! NEVT = 3634
FILE = /castor/cern.ch/delphi/MCprod/cern/wphact21/va0e/206.5/wphact21_ncgg_206.5_80.4_10121.xsdst ! RUN = 10121 ! NEVT = 5000
FILE = /castor/cern.ch/delphi/MCprod/cern/wphact21/va0e/206.5/wphact21_ncgg_206.5_80.4_10122.xsdst ! RUN = 10122 ! NEVT = 5000
FILE = /castor/cern.ch/delphi/MCprod/cern/wphact21/va0e/206.5/wphact21_ncgg_206.5_80.4_10123.xsdst ! RUN = 10123 ! NEVT = 5000
FILE = /castor/cern.ch/delphi/MCprod/cern/wphact21/va0e/206.5/wphact21_ncgg_206.5_80.4_10124.xsdst ! RUN = 10124 ! NEVT = 5000
FILE = /castor/cern.ch/delphi/MCprod/cern/wphact21/va0e/206.5/wphact21_ncgg_206.5_80.4_10125.xsdst ! RUN = 10125 ! NEVT = 5000
FILE = /castor/cern.ch/delphi/MCprod/cern/wphact21/va0e/206.5/wphact21_ncgg_206.5_80.4_10126.xsdst ! RUN = 10126 ! NEVT = 5000
FILE = /castor/cern.ch/delphi/MCprod/cern/wphact21/va0e/206.5/wphact21_ncgg_206.5_80.4_10127.xsdst ! RUN = 10127 ! NEVT = 5000
FILE = /castor/cern.ch/delphi/MCprod/cern/wphact21/va0e/206.5/wphact21_ncgg_206.5_80.4_10128.xsdst ! RUN = 10128 ! NEVT = 5000
FILE = /castor/cern.ch/delphi/MCprod/cern/wphact21/va0e/206.5/wphact21_ncgg_206.5_80.4_10130.xsdst ! RUN = 10130 ! NEVT = 5000
FILE = /castor/cern.ch/delphi/MCprod/cern/wphact21/va0e/206.5/wphact21_ncgg_206.5_80.4_10131.xsdst ! RUN = 10131 ! NEVT = 5000
FILE = /castor/cern.ch/delphi/MCprod/cern/wphact21/va0e/206.5/wphact21_ncgg_206.5_80.4_10132.xsdst ! RUN = 10132 ! NEVT = 5000
FILE = /castor/cern.ch/delphi/MCprod/cern/wphact21/va0e/206.5/wphact21_ncgg_206.5_80.4_10133.xsdst ! RUN = 10133 ! NEVT = 5000
FILE = /castor/cern.ch/delphi/MCprod/cern/wphact21/va0e/206.5/wphact21_ncgg_206.5_80.4_10134.xsdst ! RUN = 10134 ! NEVT = 5000
FILE = /castor/cern.ch/delphi/MCprod/cern/wphact21/va0e/206.5/wphact21_ncgg_206.5_80.4_10135.xsdst ! RUN = 10135 ! NEVT = 5000
FILE = /castor/cern.ch/delphi/MCprod/cern/wphact21/va0e/206.5/wphact21_ncgg_206.5_80.4_10136.xsdst ! RUN = 10136 ! NEVT = 5000
FILE = /castor/cern.ch/delphi/MCprod/cern/wphact21/va0e/206.5/wphact21_ncgg_206.5_80.4_10137.xsdst ! RUN = 10137 ! NEVT = 5000
FILE = /castor/cern.ch/delphi/MCprod/cern/wphact21/va0e/206.5/wphact21_ncgg_206.5_80.4_10138.xsdst ! RUN = 10138 ! NEVT = 5000
FILE = /castor/cern.ch/delphi/MCprod/cern/wphact21/va0e/206.5/wphact21_ncgg_206.5_80.4_10139.xsdst ! RUN = 10139 ! NEVT = 5000
FILE = /castor/cern.ch/delphi/MCprod/cern/wphact21/va0e/206.5/wphact21_ncgg_206.5_80.4_10140.xsdst ! RUN = 10140 ! NEVT = 5000
FILE = /castor/cern.ch/delphi/MCprod/cern/wphact21/va0e/206.5/wphact21_ncgg_206.5_80.4_10141.xsdst ! RUN = 10141 ! NEVT = 5000
FILE = /castor/cern.ch/delphi/MCprod/cern/wphact21/va0e/206.5/wphact21_ncgg_206.5_80.4_10142.xsdst ! RUN = 10142 ! NEVT = 4240
FILE = /castor/cern.ch/delphi/MCprod/cern/wphact21/va0e/206.5/wphact21_ncgg_206.5_80.4_10143.xsdst ! RUN = 10143 ! NEVT = 5000
FILE = /castor/cern.ch/delphi/MCprod/cern/wphact21/va0e/206.5/wphact21_ncgg_206.5_80.4_10144.xsdst ! RUN = 10144 ! NEVT = 4999
FILE = /castor/cern.ch/delphi/MCprod/cern/wphact21/va0e/206.5/wphact21_ncgg_206.5_80.4_10145.xsdst ! RUN = 10145 ! NEVT = 5000
FILE = /castor/cern.ch/delphi/MCprod/cern/wphact21/va0e/206.5/wphact21_ncgg_206.5_80.4_10146.xsdst ! RUN = 10146 ! NEVT = 5000
FILE = /castor/cern.ch/delphi/MCprod/cern/wphact21/va0e/206.5/wphact21_ncgg_206.5_80.4_10147.xsdst ! RUN = 10147 ! NEVT = 5000
FILE = /castor/cern.ch/delphi/MCprod/cern/wphact21/va0e/206.5/wphact21_ncgg_206.5_80.4_10148.xsdst ! RUN = 10148 ! NEVT = 4999
FILE = /castor/cern.ch/delphi/MCprod/cern/wphact21/va0e/206.5/wphact21_ncgg_206.5_80.4_10149.xsdst ! RUN = 10149 ! NEVT = 5000
FILE = /castor/cern.ch/delphi/MCprod/cern/wphact21/va0e/206.5/wphact21_ncgg_206.5_80.4_10150.xsdst ! RUN = 10150 ! NEVT = 2061
FILE = /castor/cern.ch/delphi/MCprod/cern/wphact21/va0e/206.5/wphact21_ncgg_206.5_80.4_10151.xsdst ! RUN = 10151 ! NEVT = 5000
FILE = /castor/cern.ch/delphi/MCprod/cern/wphact21/va0e/206.5/wphact21_ncgg_206.5_80.4_10152.xsdst ! RUN = 10152 ! NEVT = 5000
FILE = /castor/cern.ch/delphi/MCprod/cern/wphact21/va0e/206.5/wphact21_ncgg_206.5_80.4_10153.xsdst ! RUN = 10153 ! NEVT = 5000
FILE = /castor/cern.ch/delphi/MCprod/cern/wphact21/va0e/206.5/wphact21_ncgg_206.5_80.4_10154.xsdst ! RUN = 10154 ! NEVT = 4999
FILE = /castor/cern.ch/delphi/MCprod/cern/wphact21/va0e/206.5/wphact21_ncgg_206.5_80.4_10155.xsdst ! RUN = 10155 ! NEVT = 5000
FILE = /castor/cern.ch/delphi/MCprod/cern/wphact21/va0e/206.5/wphact21_ncgg_206.5_80.4_10156.xsdst ! RUN = 10156 ! NEVT = 5000
FILE = /castor/cern.ch/delphi/MCprod/cern/wphact21/va0e/206.5/wphact21_ncgg_206.5_80.4_10157.xsdst ! RUN = 10157 ! NEVT = 4956
FILE = /castor/cern.ch/delphi/MCprod/cern/wphact21/va0e/206.5/wphact21_ncgg_206.5_80.4_10158.xsdst ! RUN = 10158 ! NEVT = 5000
FILE = /castor/cern.ch/delphi/MCprod/cern/wphact21/va0e/206.5/wphact21_ncgg_206.5_80.4_10159.xsdst ! RUN = 10159 ! NEVT = 5000
FILE = /castor/cern.ch/delphi/MCprod/cern/wphact21/va0e/206.5/wphact21_ncgg_206.5_80.4_10160.xsdst ! RUN = 10160 ! NEVT = 4999
FILE = /castor/cern.ch/delphi/MCprod/cern/wphact21/va0e/206.5/wphact21_ncgg_206.5_80.4_10161.xsdst ! RUN = 10161 ! NEVT = 5000
FILE = /castor/cern.ch/delphi/MCprod/cern/wphact21/va0e/206.5/wphact21_ncgg_206.5_80.4_10162.xsdst ! RUN = 10162 ! NEVT = 5000
FILE = /castor/cern.ch/delphi/MCprod/cern/wphact21/va0e/206.5/wphact21_ncgg_206.5_80.4_10163.xsdst ! RUN = 10163 ! NEVT = 5000
FILE = /castor/cern.ch/delphi/MCprod/cern/wphact21/va0e/206.5/wphact21_ncgg_206.5_80.4_10164.xsdst ! RUN = 10164 ! NEVT = 5000
FILE = /castor/cern.ch/delphi/MCprod/cern/wphact21/va0e/206.5/wphact21_ncgg_206.5_80.4_10165.xsdst ! RUN = 10165 ! NEVT = 5000
FILE = /castor/cern.ch/delphi/MCprod/cern/wphact21/va0e/206.5/wphact21_ncgg_206.5_80.4_10166.xsdst ! RUN = 10166 ! NEVT = 5000
FILE = /castor/cern.ch/delphi/MCprod/cern/wphact21/va0e/206.5/wphact21_ncgg_206.5_80.4_10167.xsdst ! RUN = 10167 ! NEVT = 5000
FILE = /castor/cern.ch/delphi/MCprod/cern/wphact21/va0e/206.5/wphact21_ncgg_206.5_80.4_10168.xsdst ! RUN = 10168 ! NEVT = 5000
FILE = /castor/cern.ch/delphi/MCprod/cern/wphact21/va0e/206.5/wphact21_ncgg_206.5_80.4_10169.xsdst ! RUN = 10169 ! NEVT = 5000
FILE = /castor/cern.ch/delphi/MCprod/cern/wphact21/va0e/206.5/wphact21_ncgg_206.5_80.4_10170.xsdst ! RUN = 10170 ! NEVT = 5000
FILE = /castor/cern.ch/delphi/MCprod/cern/wphact21/va0e/206.5/wphact21_ncgg_206.5_80.4_10171.xsdst ! RUN = 10171 ! NEVT = 5000
FILE = /castor/cern.ch/delphi/MCprod/cern/wphact21/va0e/206.5/wphact21_ncgg_206.5_80.4_10172.xsdst ! RUN = 10172 ! NEVT = 5000
FILE = /castor/cern.ch/delphi/MCprod/cern/wphact21/va0e/206.5/wphact21_ncgg_206.5_80.4_10173.xsdst ! RUN = 10173 ! NEVT = 5000
FILE = /castor/cern.ch/delphi/MCprod/cern/wphact21/va0e/206.5/wphact21_ncgg_206.5_80.4_10174.xsdst ! RUN = 10174 ! NEVT = 5000
FILE = /castor/cern.ch/delphi/MCprod/cern/wphact21/va0e/206.5/wphact21_ncgg_206.5_80.4_10175.xsdst ! RUN = 10175 ! NEVT = 4999
FILE = /castor/cern.ch/delphi/MCprod/cern/wphact21/va0e/206.5/wphact21_ncgg_206.5_80.4_10176.xsdst ! RUN = 10176 ! NEVT = 5000
FILE = /castor/cern.ch/delphi/MCprod/cern/wphact21/va0e/206.5/wphact21_ncgg_206.5_80.4_10177.xsdst ! RUN = 10177 ! NEVT = 5000
FILE = /castor/cern.ch/delphi/MCprod/cern/wphact21/va0e/206.5/wphact21_ncgg_206.5_80.4_10178.xsdst ! RUN = 10178 ! NEVT = 5000
FILE = /castor/cern.ch/delphi/MCprod/cern/wphact21/va0e/206.5/wphact21_ncgg_206.5_80.4_10179.xsdst ! RUN = 10179 ! NEVT = 5000
FILE = /castor/cern.ch/delphi/MCprod/cern/wphact21/va0e/206.5/wphact21_ncgg_206.5_80.4_10180.xsdst ! RUN = 10180 ! NEVT = 5000
FILE = /castor/cern.ch/delphi/MCprod/cern/wphact21/va0e/206.5/wphact21_ncgg_206.5_80.4_10181.xsdst ! RUN = 10181 ! NEVT = 5000
FILE = /castor/cern.ch/delphi/MCprod/cern/wphact21/va0e/206.5/wphact21_ncgg_206.5_80.4_10182.xsdst ! RUN = 10182 ! NEVT = 3834
FILE = /castor/cern.ch/delphi/MCprod/cern/wphact21/va0e/206.5/wphact21_ncgg_206.5_80.4_10183.xsdst ! RUN = 10183 ! NEVT = 5000
FILE = /castor/cern.ch/delphi/MCprod/cern/wphact21/va0e/206.5/wphact21_ncgg_206.5_80.4_10184.xsdst ! RUN = 10184 ! NEVT = 5000
FILE = /castor/cern.ch/delphi/MCprod/cern/wphact21/va0e/206.5/wphact21_ncgg_206.5_80.4_10185.xsdst ! RUN = 10185 ! NEVT = 5000
FILE = /castor/cern.ch/delphi/MCprod/cern/wphact21/va0e/206.5/wphact21_ncgg_206.5_80.4_10186.xsdst ! RUN = 10186 ! NEVT = 5000
FILE = /castor/cern.ch/delphi/MCprod/cern/wphact21/va0e/206.5/wphact21_ncgg_206.5_80.4_10187.xsdst ! RUN = 10187 ! NEVT = 5000
FILE = /castor/cern.ch/delphi/MCprod/cern/wphact21/va0e/206.5/wphact21_ncgg_206.5_80.4_10188.xsdst ! RUN = 10188 ! NEVT = 5000
FILE = /castor/cern.ch/delphi/MCprod/cern/wphact21/va0e/206.5/wphact21_ncgg_206.5_80.4_10189.xsdst ! RUN = 10189 ! NEVT = 5000
FILE = /castor/cern.ch/delphi/MCprod/cern/wphact21/va0e/206.5/wphact21_ncgg_206.5_80.4_10190.xsdst ! RUN = 10190 ! NEVT = 5000
FILE = /castor/cern.ch/delphi/MCprod/cern/wphact21/va0e/206.5/wphact21_ncgg_206.5_80.4_10191.xsdst ! RUN = 10191 ! NEVT = 5000
FILE = /castor/cern.ch/delphi/MCprod/cern/wphact21/va0e/206.5/wphact21_ncgg_206.5_80.4_10192.xsdst ! RUN = 10192 ! NEVT = 351
FILE = /castor/cern.ch/delphi/MCprod/cern/wphact21/va0e/206.5/wphact21_ncgg_206.5_80.4_10193.xsdst ! RUN = 10193 ! NEVT = 4999
FILE = /castor/cern.ch/delphi/MCprod/cern/wphact21/va0e/206.5/wphact21_ncgg_206.5_80.4_10194.xsdst ! RUN = 10194 ! NEVT = 5000
FILE = /castor/cern.ch/delphi/MCprod/cern/wphact21/va0e/206.5/wphact21_ncgg_206.5_80.4_10195.xsdst ! RUN = 10195 ! NEVT = 2743
FILE = /castor/cern.ch/delphi/MCprod/cern/wphact21/va0e/206.5/wphact21_ncgg_206.5_80.4_10196.xsdst ! RUN = 10196 ! NEVT = 5000
FILE = /castor/cern.ch/delphi/MCprod/cern/wphact21/va0e/206.5/wphact21_ncgg_206.5_80.4_10197.xsdst ! RUN = 10197 ! NEVT = 4999
FILE = /castor/cern.ch/delphi/MCprod/cern/wphact21/va0e/206.5/wphact21_ncgg_206.5_80.4_10198.xsdst ! RUN = 10198 ! NEVT = 5000
FILE = /castor/cern.ch/delphi/MCprod/cern/wphact21/va0e/206.5/wphact21_ncgg_206.5_80.4_10199.xsdst ! RUN = 10199 ! NEVT = 4987
FILE = /castor/cern.ch/delphi/MCprod/cern/wphact21/va0e/206.5/wphact21_ncgg_206.5_80.4_10200.xsdst ! RUN = 10200 ! NEVT = 4999
FILE = /castor/cern.ch/delphi/MCprod/cern/wphact21/va0e/206.5/wphact21_ncgg_206.5_80.4_10202.xsdst ! RUN = 10202 ! NEVT = 5000
FILE = /castor/cern.ch/delphi/MCprod/cern/wphact21/va0e/206.5/wphact21_ncgg_206.5_80.4_10204.xsdst ! RUN = 10204 ! NEVT = 5000
FILE = /castor/cern.ch/delphi/MCprod/cern/wphact21/va0e/206.5/wphact21_ncgg_206.5_80.4_10205.xsdst ! RUN = 10205 ! NEVT = 5000
FILE = /castor/cern.ch/delphi/MCprod/cern/wphact21/va0e/206.5/wphact21_ncgg_206.5_80.4_10206.xsdst ! RUN = 10206 ! NEVT = 5000
FILE = /castor/cern.ch/delphi/MCprod/cern/wphact21/va0e/206.5/wphact21_ncgg_206.5_80.4_10207.xsdst ! RUN = 10207 ! NEVT = 5000
FILE = /castor/cern.ch/delphi/MCprod/cern/wphact21/va0e/206.5/wphact21_ncgg_206.5_80.4_10208.xsdst ! RUN = 10208 ! NEVT = 5000
FILE = /castor/cern.ch/delphi/MCprod/cern/wphact21/va0e/206.5/wphact21_ncgg_206.5_80.4_10209.xsdst ! RUN = 10209 ! NEVT = 5000
FILE = /castor/cern.ch/delphi/MCprod/cern/wphact21/va0e/206.5/wphact21_ncgg_206.5_80.4_10210.xsdst ! RUN = 10210 ! NEVT = 5000
FILE = /castor/cern.ch/delphi/MCprod/cern/wphact21/va0e/206.5/wphact21_ncgg_206.5_80.4_10211.xsdst ! RUN = 10211 ! NEVT = 5000
FILE = /castor/cern.ch/delphi/MCprod/cern/wphact21/va0e/206.5/wphact21_ncgg_206.5_80.4_10212.xsdst ! RUN = 10212 ! NEVT = 5000
FILE = /castor/cern.ch/delphi/MCprod/cern/wphact21/va0e/206.5/wphact21_ncgg_206.5_80.4_10213.xsdst ! RUN = 10213 ! NEVT = 5000
FILE = /castor/cern.ch/delphi/MCprod/cern/wphact21/va0e/206.5/wphact21_ncgg_206.5_80.4_10214.xsdst ! RUN = 10214 ! NEVT = 5000
FILE = /castor/cern.ch/delphi/MCprod/cern/wphact21/va0e/206.5/wphact21_ncgg_206.5_80.4_10215.xsdst ! RUN = 10215 ! NEVT = 5000
FILE = /castor/cern.ch/delphi/MCprod/cern/wphact21/va0e/206.5/wphact21_ncgg_206.5_80.4_10216.xsdst ! RUN = 10216 ! NEVT = 5000
FILE = /castor/cern.ch/delphi/MCprod/cern/wphact21/va0e/206.5/wphact21_ncgg_206.5_80.4_10217.xsdst ! RUN = 10217 ! NEVT = 194
FILE = /castor/cern.ch/delphi/MCprod/cern/wphact21/va0e/206.5/wphact21_ncgg_206.5_80.4_10218.xsdst ! RUN = 10218 ! NEVT = 5000
FILE = /castor/cern.ch/delphi/MCprod/cern/wphact21/va0e/206.5/wphact21_ncgg_206.5_80.4_10219.xsdst ! RUN = 10219 ! NEVT = 5000
FILE = /castor/cern.ch/delphi/MCprod/cern/wphact21/va0e/206.5/wphact21_ncgg_206.5_80.4_10220.xsdst ! RUN = 10220 ! NEVT = 5000
FILE = /castor/cern.ch/delphi/MCprod/cern/wphact21/va0e/206.5/wphact21_ncgg_206.5_80.4_10221.xsdst ! RUN = 10221 ! NEVT = 4999
FILE = /castor/cern.ch/delphi/MCprod/cern/wphact21/va0e/206.5/wphact21_ncgg_206.5_80.4_10222.xsdst ! RUN = 10222 ! NEVT = 5000
FILE = /castor/cern.ch/delphi/MCprod/cern/wphact21/va0e/206.5/wphact21_ncgg_206.5_80.4_10223.xsdst ! RUN = 10223 ! NEVT = 5000
FILE = /castor/cern.ch/delphi/MCprod/cern/wphact21/va0e/206.5/wphact21_ncgg_206.5_80.4_10225.xsdst ! RUN = 10225 ! NEVT = 1302
FILE = /castor/cern.ch/delphi/MCprod/cern/wphact21/va0e/206.5/wphact21_ncgg_206.5_80.4_10226.xsdst ! RUN = 10226 ! NEVT = 5000
FILE = /castor/cern.ch/delphi/MCprod/cern/wphact21/va0e/206.5/wphact21_ncgg_206.5_80.4_10227.xsdst ! RUN = 10227 ! NEVT = 5000
FILE = /castor/cern.ch/delphi/MCprod/cern/wphact21/va0e/206.5/wphact21_ncgg_206.5_80.4_10228.xsdst ! RUN = 10228 ! NEVT = 5000
FILE = /castor/cern.ch/delphi/MCprod/cern/wphact21/va0e/206.5/wphact21_ncgg_206.5_80.4_10229.xsdst ! RUN = 10229 ! NEVT = 5000
FILE = /castor/cern.ch/delphi/MCprod/cern/wphact21/va0e/206.5/wphact21_ncgg_206.5_80.4_10230.xsdst ! RUN = 10230 ! NEVT = 5000
FILE = /castor/cern.ch/delphi/MCprod/cern/wphact21/va0e/206.5/wphact21_ncgg_206.5_80.4_10231.xsdst ! RUN = 10231 ! NEVT = 5000
FILE = /castor/cern.ch/delphi/MCprod/cern/wphact21/va0e/206.5/wphact21_ncgg_206.5_80.4_10232.xsdst ! RUN = 10232 ! NEVT = 2104
FILE = /castor/cern.ch/delphi/MCprod/cern/wphact21/va0e/206.5/wphact21_ncgg_206.5_80.4_10233.xsdst ! RUN = 10233 ! NEVT = 5000
FILE = /castor/cern.ch/delphi/MCprod/cern/wphact21/va0e/206.5/wphact21_ncgg_206.5_80.4_10234.xsdst ! RUN = 10234 ! NEVT = 5000
FILE = /castor/cern.ch/delphi/MCprod/cern/wphact21/va0e/206.5/wphact21_ncgg_206.5_80.4_10235.xsdst ! RUN = 10235 ! NEVT = 5000
FILE = /castor/cern.ch/delphi/MCprod/cern/wphact21/va0e/206.5/wphact21_ncgg_206.5_80.4_10236.xsdst ! RUN = 10236 ! NEVT = 5000
FILE = /castor/cern.ch/delphi/MCprod/cern/wphact21/va0e/206.5/wphact21_ncgg_206.5_80.4_10237.xsdst ! RUN = 10237 ! NEVT = 5000
FILE = /castor/cern.ch/delphi/MCprod/cern/wphact21/va0e/206.5/wphact21_ncgg_206.5_80.4_10238.xsdst ! RUN = 10238 ! NEVT = 5000
FILE = /castor/cern.ch/delphi/MCprod/cern/wphact21/va0e/206.5/wphact21_ncgg_206.5_80.4_10239.xsdst ! RUN = 10239 ! NEVT = 1520
FILE = /castor/cern.ch/delphi/MCprod/cern/wphact21/va0e/206.5/wphact21_ncgg_206.5_80.4_10240.xsdst ! RUN = 10240 ! NEVT = 5000
FILE = /castor/cern.ch/delphi/MCprod/cern/wphact21/va0e/206.5/wphact21_ncgg_206.5_80.4_10241.xsdst ! RUN = 10241 ! NEVT = 5000
FILE = /castor/cern.ch/delphi/MCprod/cern/wphact21/va0e/206.5/wphact21_ncgg_206.5_80.4_10242.xsdst ! RUN = 10242 ! NEVT = 5000
FILE = /castor/cern.ch/delphi/MCprod/cern/wphact21/va0e/206.5/wphact21_ncgg_206.5_80.4_10243.xsdst ! RUN = 10243 ! NEVT = 5000
FILE = /castor/cern.ch/delphi/MCprod/cern/wphact21/va0e/206.5/wphact21_ncgg_206.5_80.4_10244.xsdst ! RUN = 10244 ! NEVT = 5000
FILE = /castor/cern.ch/delphi/MCprod/cern/wphact21/va0e/206.5/wphact21_ncgg_206.5_80.4_10245.xsdst ! RUN = 10245 ! NEVT = 1100
FILE = /castor/cern.ch/delphi/MCprod/cern/wphact21/va0e/206.5/wphact21_ncgg_206.5_80.4_10246.xsdst ! RUN = 10246 ! NEVT = 3449
FILE = /castor/cern.ch/delphi/MCprod/cern/wphact21/va0e/206.5/wphact21_ncgg_206.5_80.4_10247.xsdst ! RUN = 10247 ! NEVT = 5000
FILE = /castor/cern.ch/delphi/MCprod/cern/wphact21/va0e/206.5/wphact21_ncgg_206.5_80.4_10248.xsdst ! RUN = 10248 ! NEVT = 1094
FILE = /castor/cern.ch/delphi/MCprod/cern/wphact21/va0e/206.5/wphact21_ncgg_206.5_80.4_10249.xsdst ! RUN = 10249 ! NEVT = 5000
FILE = /castor/cern.ch/delphi/MCprod/cern/wphact21/va0e/206.5/wphact21_ncgg_206.5_80.4_10250.xsdst ! RUN = 10250 ! NEVT = 5000
