*
*   Nickname     : xs_wphact21tgccqqqq_e206.5_m3_ca0_1l_e1
*   Generic Name : //CERN/DELPHI/P02_SIMD/XSDST/WPHACT21TGCCQQQQ/E206.5/CERN/SUMT/C001-10
*   Description  :  Extended Short DST simulation a0_e1 done at ecms=206.5 , CERN
*---
*   Comments     : in total 9991 events in 10 files time stamp: Wed Jan 30 22:16:48 2002
*---
*
*
*
*
*
FILE = /castor/cern.ch/delphi/MCprod/cern/wphact21tgcc/va0e/206.5/wphact21tgcc_qqqq_206.5_3_26001.xsdst ! RUN = 26001 ! NEVT = 998
FILE = /castor/cern.ch/delphi/MCprod/cern/wphact21tgcc/va0e/206.5/wphact21tgcc_qqqq_206.5_3_26002.xsdst ! RUN = 26002 ! NEVT = 999
FILE = /castor/cern.ch/delphi/MCprod/cern/wphact21tgcc/va0e/206.5/wphact21tgcc_qqqq_206.5_3_26003.xsdst ! RUN = 26003 ! NEVT = 998
FILE = /castor/cern.ch/delphi/MCprod/cern/wphact21tgcc/va0e/206.5/wphact21tgcc_qqqq_206.5_3_26004.xsdst ! RUN = 26004 ! NEVT = 1000
FILE = /castor/cern.ch/delphi/MCprod/cern/wphact21tgcc/va0e/206.5/wphact21tgcc_qqqq_206.5_3_26005.xsdst ! RUN = 26005 ! NEVT = 1000
FILE = /castor/cern.ch/delphi/MCprod/cern/wphact21tgcc/va0e/206.5/wphact21tgcc_qqqq_206.5_3_26006.xsdst ! RUN = 26006 ! NEVT = 999
FILE = /castor/cern.ch/delphi/MCprod/cern/wphact21tgcc/va0e/206.5/wphact21tgcc_qqqq_206.5_3_26007.xsdst ! RUN = 26007 ! NEVT = 1000
FILE = /castor/cern.ch/delphi/MCprod/cern/wphact21tgcc/va0e/206.5/wphact21tgcc_qqqq_206.5_3_26008.xsdst ! RUN = 26008 ! NEVT = 1000
FILE = /castor/cern.ch/delphi/MCprod/cern/wphact21tgcc/va0e/206.5/wphact21tgcc_qqqq_206.5_3_26009.xsdst ! RUN = 26009 ! NEVT = 998
FILE = /castor/cern.ch/delphi/MCprod/cern/wphact21tgcc/va0e/206.5/wphact21tgcc_qqqq_206.5_3_26010.xsdst ! RUN = 26010 ! NEVT = 999
