*
*   Nickname     : xs_wphact211ncgg_e203.7_m80.4_ca0_1l_e1
*   Generic Name : //CERN/DELPHI/P02_SIMD/XSDST/WPHACT211NCGG/E203.7/CERN/SUMT/C001-122
*   Description  :  Extended Short DST simulation a0_e1 done at ecms=203.7 , CERN
*---
*   Comments     : in total 1000775 events in 122 files time stamp: Fri Mar  1 12:16:58 2002
*---
*
*
*
*
*
FILE = /castor/cern.ch/delphi/MCprod/cern/wphact211/va0e/203.7/wphact211_ncgg_203.7_80.4_13001.xsdst ! RUN = 13001 ! NEVT = 8306
FILE = /castor/cern.ch/delphi/MCprod/cern/wphact211/va0e/203.7/wphact211_ncgg_203.7_80.4_13002.xsdst ! RUN = 13002 ! NEVT = 8276
FILE = /castor/cern.ch/delphi/MCprod/cern/wphact211/va0e/203.7/wphact211_ncgg_203.7_80.4_13003.xsdst ! RUN = 13003 ! NEVT = 8316
FILE = /castor/cern.ch/delphi/MCprod/cern/wphact211/va0e/203.7/wphact211_ncgg_203.7_80.4_13004.xsdst ! RUN = 13004 ! NEVT = 8287
FILE = /castor/cern.ch/delphi/MCprod/cern/wphact211/va0e/203.7/wphact211_ncgg_203.7_80.4_13005.xsdst ! RUN = 13005 ! NEVT = 8279
FILE = /castor/cern.ch/delphi/MCprod/cern/wphact211/va0e/203.7/wphact211_ncgg_203.7_80.4_13006.xsdst ! RUN = 13006 ! NEVT = 8312
FILE = /castor/cern.ch/delphi/MCprod/cern/wphact211/va0e/203.7/wphact211_ncgg_203.7_80.4_13007.xsdst ! RUN = 13007 ! NEVT = 8213
FILE = /castor/cern.ch/delphi/MCprod/cern/wphact211/va0e/203.7/wphact211_ncgg_203.7_80.4_13008.xsdst ! RUN = 13008 ! NEVT = 8315
FILE = /castor/cern.ch/delphi/MCprod/cern/wphact211/va0e/203.7/wphact211_ncgg_203.7_80.4_13009.xsdst ! RUN = 13009 ! NEVT = 8200
FILE = /castor/cern.ch/delphi/MCprod/cern/wphact211/va0e/203.7/wphact211_ncgg_203.7_80.4_13010.xsdst ! RUN = 13010 ! NEVT = 8200
FILE = /castor/cern.ch/delphi/MCprod/cern/wphact211/va0e/203.7/wphact211_ncgg_203.7_80.4_13011.xsdst ! RUN = 13011 ! NEVT = 8200
FILE = /castor/cern.ch/delphi/MCprod/cern/wphact211/va0e/203.7/wphact211_ncgg_203.7_80.4_13012.xsdst ! RUN = 13012 ! NEVT = 8200
FILE = /castor/cern.ch/delphi/MCprod/cern/wphact211/va0e/203.7/wphact211_ncgg_203.7_80.4_13013.xsdst ! RUN = 13013 ! NEVT = 8200
FILE = /castor/cern.ch/delphi/MCprod/cern/wphact211/va0e/203.7/wphact211_ncgg_203.7_80.4_13014.xsdst ! RUN = 13014 ! NEVT = 8200
FILE = /castor/cern.ch/delphi/MCprod/cern/wphact211/va0e/203.7/wphact211_ncgg_203.7_80.4_13015.xsdst ! RUN = 13015 ! NEVT = 8200
FILE = /castor/cern.ch/delphi/MCprod/cern/wphact211/va0e/203.7/wphact211_ncgg_203.7_80.4_13016.xsdst ! RUN = 13016 ! NEVT = 8200
FILE = /castor/cern.ch/delphi/MCprod/cern/wphact211/va0e/203.7/wphact211_ncgg_203.7_80.4_13017.xsdst ! RUN = 13017 ! NEVT = 8200
FILE = /castor/cern.ch/delphi/MCprod/cern/wphact211/va0e/203.7/wphact211_ncgg_203.7_80.4_13018.xsdst ! RUN = 13018 ! NEVT = 8200
FILE = /castor/cern.ch/delphi/MCprod/cern/wphact211/va0e/203.7/wphact211_ncgg_203.7_80.4_13019.xsdst ! RUN = 13019 ! NEVT = 8200
FILE = /castor/cern.ch/delphi/MCprod/cern/wphact211/va0e/203.7/wphact211_ncgg_203.7_80.4_13020.xsdst ! RUN = 13020 ! NEVT = 8200
FILE = /castor/cern.ch/delphi/MCprod/cern/wphact211/va0e/203.7/wphact211_ncgg_203.7_80.4_13021.xsdst ! RUN = 13021 ! NEVT = 8200
FILE = /castor/cern.ch/delphi/MCprod/cern/wphact211/va0e/203.7/wphact211_ncgg_203.7_80.4_13023.xsdst ! RUN = 13023 ! NEVT = 8200
FILE = /castor/cern.ch/delphi/MCprod/cern/wphact211/va0e/203.7/wphact211_ncgg_203.7_80.4_13024.xsdst ! RUN = 13024 ! NEVT = 8200
FILE = /castor/cern.ch/delphi/MCprod/cern/wphact211/va0e/203.7/wphact211_ncgg_203.7_80.4_13025.xsdst ! RUN = 13025 ! NEVT = 8199
FILE = /castor/cern.ch/delphi/MCprod/cern/wphact211/va0e/203.7/wphact211_ncgg_203.7_80.4_13026.xsdst ! RUN = 13026 ! NEVT = 8200
FILE = /castor/cern.ch/delphi/MCprod/cern/wphact211/va0e/203.7/wphact211_ncgg_203.7_80.4_13027.xsdst ! RUN = 13027 ! NEVT = 8200
FILE = /castor/cern.ch/delphi/MCprod/cern/wphact211/va0e/203.7/wphact211_ncgg_203.7_80.4_13028.xsdst ! RUN = 13028 ! NEVT = 8200
FILE = /castor/cern.ch/delphi/MCprod/cern/wphact211/va0e/203.7/wphact211_ncgg_203.7_80.4_13029.xsdst ! RUN = 13029 ! NEVT = 8200
FILE = /castor/cern.ch/delphi/MCprod/cern/wphact211/va0e/203.7/wphact211_ncgg_203.7_80.4_13030.xsdst ! RUN = 13030 ! NEVT = 8200
FILE = /castor/cern.ch/delphi/MCprod/cern/wphact211/va0e/203.7/wphact211_ncgg_203.7_80.4_13031.xsdst ! RUN = 13031 ! NEVT = 8199
FILE = /castor/cern.ch/delphi/MCprod/cern/wphact211/va0e/203.7/wphact211_ncgg_203.7_80.4_13032.xsdst ! RUN = 13032 ! NEVT = 8116
FILE = /castor/cern.ch/delphi/MCprod/cern/wphact211/va0e/203.7/wphact211_ncgg_203.7_80.4_13033.xsdst ! RUN = 13033 ! NEVT = 8200
FILE = /castor/cern.ch/delphi/MCprod/cern/wphact211/va0e/203.7/wphact211_ncgg_203.7_80.4_13034.xsdst ! RUN = 13034 ! NEVT = 8200
FILE = /castor/cern.ch/delphi/MCprod/cern/wphact211/va0e/203.7/wphact211_ncgg_203.7_80.4_13035.xsdst ! RUN = 13035 ! NEVT = 8200
FILE = /castor/cern.ch/delphi/MCprod/cern/wphact211/va0e/203.7/wphact211_ncgg_203.7_80.4_13036.xsdst ! RUN = 13036 ! NEVT = 8200
FILE = /castor/cern.ch/delphi/MCprod/cern/wphact211/va0e/203.7/wphact211_ncgg_203.7_80.4_13037.xsdst ! RUN = 13037 ! NEVT = 8200
FILE = /castor/cern.ch/delphi/MCprod/cern/wphact211/va0e/203.7/wphact211_ncgg_203.7_80.4_13038.xsdst ! RUN = 13038 ! NEVT = 8200
FILE = /castor/cern.ch/delphi/MCprod/cern/wphact211/va0e/203.7/wphact211_ncgg_203.7_80.4_13039.xsdst ! RUN = 13039 ! NEVT = 8200
FILE = /castor/cern.ch/delphi/MCprod/cern/wphact211/va0e/203.7/wphact211_ncgg_203.7_80.4_13040.xsdst ! RUN = 13040 ! NEVT = 8158
FILE = /castor/cern.ch/delphi/MCprod/cern/wphact211/va0e/203.7/wphact211_ncgg_203.7_80.4_13041.xsdst ! RUN = 13041 ! NEVT = 8200
FILE = /castor/cern.ch/delphi/MCprod/cern/wphact211/va0e/203.7/wphact211_ncgg_203.7_80.4_13042.xsdst ! RUN = 13042 ! NEVT = 8200
FILE = /castor/cern.ch/delphi/MCprod/cern/wphact211/va0e/203.7/wphact211_ncgg_203.7_80.4_13043.xsdst ! RUN = 13043 ! NEVT = 8200
FILE = /castor/cern.ch/delphi/MCprod/cern/wphact211/va0e/203.7/wphact211_ncgg_203.7_80.4_13044.xsdst ! RUN = 13044 ! NEVT = 8199
FILE = /castor/cern.ch/delphi/MCprod/cern/wphact211/va0e/203.7/wphact211_ncgg_203.7_80.4_13045.xsdst ! RUN = 13045 ! NEVT = 8200
FILE = /castor/cern.ch/delphi/MCprod/cern/wphact211/va0e/203.7/wphact211_ncgg_203.7_80.4_13046.xsdst ! RUN = 13046 ! NEVT = 8200
FILE = /castor/cern.ch/delphi/MCprod/cern/wphact211/va0e/203.7/wphact211_ncgg_203.7_80.4_13047.xsdst ! RUN = 13047 ! NEVT = 8200
FILE = /castor/cern.ch/delphi/MCprod/cern/wphact211/va0e/203.7/wphact211_ncgg_203.7_80.4_13048.xsdst ! RUN = 13048 ! NEVT = 8200
FILE = /castor/cern.ch/delphi/MCprod/cern/wphact211/va0e/203.7/wphact211_ncgg_203.7_80.4_13049.xsdst ! RUN = 13049 ! NEVT = 8199
FILE = /castor/cern.ch/delphi/MCprod/cern/wphact211/va0e/203.7/wphact211_ncgg_203.7_80.4_13050.xsdst ! RUN = 13050 ! NEVT = 8200
FILE = /castor/cern.ch/delphi/MCprod/cern/wphact211/va0e/203.7/wphact211_ncgg_203.7_80.4_13051.xsdst ! RUN = 13051 ! NEVT = 8200
FILE = /castor/cern.ch/delphi/MCprod/cern/wphact211/va0e/203.7/wphact211_ncgg_203.7_80.4_13052.xsdst ! RUN = 13052 ! NEVT = 8200
FILE = /castor/cern.ch/delphi/MCprod/cern/wphact211/va0e/203.7/wphact211_ncgg_203.7_80.4_13053.xsdst ! RUN = 13053 ! NEVT = 8200
FILE = /castor/cern.ch/delphi/MCprod/cern/wphact211/va0e/203.7/wphact211_ncgg_203.7_80.4_13054.xsdst ! RUN = 13054 ! NEVT = 8200
FILE = /castor/cern.ch/delphi/MCprod/cern/wphact211/va0e/203.7/wphact211_ncgg_203.7_80.4_13055.xsdst ! RUN = 13055 ! NEVT = 8200
FILE = /castor/cern.ch/delphi/MCprod/cern/wphact211/va0e/203.7/wphact211_ncgg_203.7_80.4_13056.xsdst ! RUN = 13056 ! NEVT = 8200
FILE = /castor/cern.ch/delphi/MCprod/cern/wphact211/va0e/203.7/wphact211_ncgg_203.7_80.4_13057.xsdst ! RUN = 13057 ! NEVT = 8200
FILE = /castor/cern.ch/delphi/MCprod/cern/wphact211/va0e/203.7/wphact211_ncgg_203.7_80.4_13058.xsdst ! RUN = 13058 ! NEVT = 8199
FILE = /castor/cern.ch/delphi/MCprod/cern/wphact211/va0e/203.7/wphact211_ncgg_203.7_80.4_13059.xsdst ! RUN = 13059 ! NEVT = 8200
FILE = /castor/cern.ch/delphi/MCprod/cern/wphact211/va0e/203.7/wphact211_ncgg_203.7_80.4_13060.xsdst ! RUN = 13060 ! NEVT = 8192
FILE = /castor/cern.ch/delphi/MCprod/cern/wphact211/va0e/203.7/wphact211_ncgg_203.7_80.4_13061.xsdst ! RUN = 13061 ! NEVT = 8200
FILE = /castor/cern.ch/delphi/MCprod/cern/wphact211/va0e/203.7/wphact211_ncgg_203.7_80.4_13062.xsdst ! RUN = 13062 ! NEVT = 8200
FILE = /castor/cern.ch/delphi/MCprod/cern/wphact211/va0e/203.7/wphact211_ncgg_203.7_80.4_13063.xsdst ! RUN = 13063 ! NEVT = 8200
FILE = /castor/cern.ch/delphi/MCprod/cern/wphact211/va0e/203.7/wphact211_ncgg_203.7_80.4_13064.xsdst ! RUN = 13064 ! NEVT = 8200
FILE = /castor/cern.ch/delphi/MCprod/cern/wphact211/va0e/203.7/wphact211_ncgg_203.7_80.4_13065.xsdst ! RUN = 13065 ! NEVT = 8199
FILE = /castor/cern.ch/delphi/MCprod/cern/wphact211/va0e/203.7/wphact211_ncgg_203.7_80.4_13066.xsdst ! RUN = 13066 ! NEVT = 8200
FILE = /castor/cern.ch/delphi/MCprod/cern/wphact211/va0e/203.7/wphact211_ncgg_203.7_80.4_13067.xsdst ! RUN = 13067 ! NEVT = 8200
FILE = /castor/cern.ch/delphi/MCprod/cern/wphact211/va0e/203.7/wphact211_ncgg_203.7_80.4_13068.xsdst ! RUN = 13068 ! NEVT = 8200
FILE = /castor/cern.ch/delphi/MCprod/cern/wphact211/va0e/203.7/wphact211_ncgg_203.7_80.4_13069.xsdst ! RUN = 13069 ! NEVT = 8200
FILE = /castor/cern.ch/delphi/MCprod/cern/wphact211/va0e/203.7/wphact211_ncgg_203.7_80.4_13070.xsdst ! RUN = 13070 ! NEVT = 8200
FILE = /castor/cern.ch/delphi/MCprod/cern/wphact211/va0e/203.7/wphact211_ncgg_203.7_80.4_13071.xsdst ! RUN = 13071 ! NEVT = 8200
FILE = /castor/cern.ch/delphi/MCprod/cern/wphact211/va0e/203.7/wphact211_ncgg_203.7_80.4_13072.xsdst ! RUN = 13072 ! NEVT = 8199
FILE = /castor/cern.ch/delphi/MCprod/cern/wphact211/va0e/203.7/wphact211_ncgg_203.7_80.4_13073.xsdst ! RUN = 13073 ! NEVT = 8200
FILE = /castor/cern.ch/delphi/MCprod/cern/wphact211/va0e/203.7/wphact211_ncgg_203.7_80.4_13074.xsdst ! RUN = 13074 ! NEVT = 8199
FILE = /castor/cern.ch/delphi/MCprod/cern/wphact211/va0e/203.7/wphact211_ncgg_203.7_80.4_13075.xsdst ! RUN = 13075 ! NEVT = 8199
FILE = /castor/cern.ch/delphi/MCprod/cern/wphact211/va0e/203.7/wphact211_ncgg_203.7_80.4_13076.xsdst ! RUN = 13076 ! NEVT = 8200
FILE = /castor/cern.ch/delphi/MCprod/cern/wphact211/va0e/203.7/wphact211_ncgg_203.7_80.4_13077.xsdst ! RUN = 13077 ! NEVT = 8200
FILE = /castor/cern.ch/delphi/MCprod/cern/wphact211/va0e/203.7/wphact211_ncgg_203.7_80.4_13078.xsdst ! RUN = 13078 ! NEVT = 8200
FILE = /castor/cern.ch/delphi/MCprod/cern/wphact211/va0e/203.7/wphact211_ncgg_203.7_80.4_13079.xsdst ! RUN = 13079 ! NEVT = 8200
FILE = /castor/cern.ch/delphi/MCprod/cern/wphact211/va0e/203.7/wphact211_ncgg_203.7_80.4_13080.xsdst ! RUN = 13080 ! NEVT = 8200
FILE = /castor/cern.ch/delphi/MCprod/cern/wphact211/va0e/203.7/wphact211_ncgg_203.7_80.4_13081.xsdst ! RUN = 13081 ! NEVT = 8200
FILE = /castor/cern.ch/delphi/MCprod/cern/wphact211/va0e/203.7/wphact211_ncgg_203.7_80.4_13082.xsdst ! RUN = 13082 ! NEVT = 8200
FILE = /castor/cern.ch/delphi/MCprod/cern/wphact211/va0e/203.7/wphact211_ncgg_203.7_80.4_13083.xsdst ! RUN = 13083 ! NEVT = 8200
FILE = /castor/cern.ch/delphi/MCprod/cern/wphact211/va0e/203.7/wphact211_ncgg_203.7_80.4_13084.xsdst ! RUN = 13084 ! NEVT = 8200
FILE = /castor/cern.ch/delphi/MCprod/cern/wphact211/va0e/203.7/wphact211_ncgg_203.7_80.4_13085.xsdst ! RUN = 13085 ! NEVT = 8200
FILE = /castor/cern.ch/delphi/MCprod/cern/wphact211/va0e/203.7/wphact211_ncgg_203.7_80.4_13086.xsdst ! RUN = 13086 ! NEVT = 8200
FILE = /castor/cern.ch/delphi/MCprod/cern/wphact211/va0e/203.7/wphact211_ncgg_203.7_80.4_13087.xsdst ! RUN = 13087 ! NEVT = 8200
FILE = /castor/cern.ch/delphi/MCprod/cern/wphact211/va0e/203.7/wphact211_ncgg_203.7_80.4_13088.xsdst ! RUN = 13088 ! NEVT = 8200
FILE = /castor/cern.ch/delphi/MCprod/cern/wphact211/va0e/203.7/wphact211_ncgg_203.7_80.4_13089.xsdst ! RUN = 13089 ! NEVT = 8200
FILE = /castor/cern.ch/delphi/MCprod/cern/wphact211/va0e/203.7/wphact211_ncgg_203.7_80.4_13090.xsdst ! RUN = 13090 ! NEVT = 8200
FILE = /castor/cern.ch/delphi/MCprod/cern/wphact211/va0e/203.7/wphact211_ncgg_203.7_80.4_13091.xsdst ! RUN = 13091 ! NEVT = 8200
FILE = /castor/cern.ch/delphi/MCprod/cern/wphact211/va0e/203.7/wphact211_ncgg_203.7_80.4_13092.xsdst ! RUN = 13092 ! NEVT = 8200
FILE = /castor/cern.ch/delphi/MCprod/cern/wphact211/va0e/203.7/wphact211_ncgg_203.7_80.4_13093.xsdst ! RUN = 13093 ! NEVT = 8200
FILE = /castor/cern.ch/delphi/MCprod/cern/wphact211/va0e/203.7/wphact211_ncgg_203.7_80.4_13094.xsdst ! RUN = 13094 ! NEVT = 8200
FILE = /castor/cern.ch/delphi/MCprod/cern/wphact211/va0e/203.7/wphact211_ncgg_203.7_80.4_13095.xsdst ! RUN = 13095 ! NEVT = 8199
FILE = /castor/cern.ch/delphi/MCprod/cern/wphact211/va0e/203.7/wphact211_ncgg_203.7_80.4_13096.xsdst ! RUN = 13096 ! NEVT = 8200
FILE = /castor/cern.ch/delphi/MCprod/cern/wphact211/va0e/203.7/wphact211_ncgg_203.7_80.4_13099.xsdst ! RUN = 13099 ! NEVT = 8200
FILE = /castor/cern.ch/delphi/MCprod/cern/wphact211/va0e/203.7/wphact211_ncgg_203.7_80.4_13100.xsdst ! RUN = 13100 ! NEVT = 8200
FILE = /castor/cern.ch/delphi/MCprod/cern/wphact211/va0e/203.7/wphact211_ncgg_203.7_80.4_13101.xsdst ! RUN = 13101 ! NEVT = 8200
FILE = /castor/cern.ch/delphi/MCprod/cern/wphact211/va0e/203.7/wphact211_ncgg_203.7_80.4_13102.xsdst ! RUN = 13102 ! NEVT = 8200
FILE = /castor/cern.ch/delphi/MCprod/cern/wphact211/va0e/203.7/wphact211_ncgg_203.7_80.4_13103.xsdst ! RUN = 13103 ! NEVT = 8200
FILE = /castor/cern.ch/delphi/MCprod/cern/wphact211/va0e/203.7/wphact211_ncgg_203.7_80.4_13104.xsdst ! RUN = 13104 ! NEVT = 8200
FILE = /castor/cern.ch/delphi/MCprod/cern/wphact211/va0e/203.7/wphact211_ncgg_203.7_80.4_13105.xsdst ! RUN = 13105 ! NEVT = 8200
FILE = /castor/cern.ch/delphi/MCprod/cern/wphact211/va0e/203.7/wphact211_ncgg_203.7_80.4_13106.xsdst ! RUN = 13106 ! NEVT = 8200
FILE = /castor/cern.ch/delphi/MCprod/cern/wphact211/va0e/203.7/wphact211_ncgg_203.7_80.4_13107.xsdst ! RUN = 13107 ! NEVT = 8199
FILE = /castor/cern.ch/delphi/MCprod/cern/wphact211/va0e/203.7/wphact211_ncgg_203.7_80.4_13108.xsdst ! RUN = 13108 ! NEVT = 8199
FILE = /castor/cern.ch/delphi/MCprod/cern/wphact211/va0e/203.7/wphact211_ncgg_203.7_80.4_13109.xsdst ! RUN = 13109 ! NEVT = 8195
FILE = /castor/cern.ch/delphi/MCprod/cern/wphact211/va0e/203.7/wphact211_ncgg_203.7_80.4_13110.xsdst ! RUN = 13110 ! NEVT = 8200
FILE = /castor/cern.ch/delphi/MCprod/cern/wphact211/va0e/203.7/wphact211_ncgg_203.7_80.4_13111.xsdst ! RUN = 13111 ! NEVT = 8200
FILE = /castor/cern.ch/delphi/MCprod/cern/wphact211/va0e/203.7/wphact211_ncgg_203.7_80.4_13112.xsdst ! RUN = 13112 ! NEVT = 8200
FILE = /castor/cern.ch/delphi/MCprod/cern/wphact211/va0e/203.7/wphact211_ncgg_203.7_80.4_13113.xsdst ! RUN = 13113 ! NEVT = 8121
FILE = /castor/cern.ch/delphi/MCprod/cern/wphact211/va0e/203.7/wphact211_ncgg_203.7_80.4_13114.xsdst ! RUN = 13114 ! NEVT = 8200
FILE = /castor/cern.ch/delphi/MCprod/cern/wphact211/va0e/203.7/wphact211_ncgg_203.7_80.4_13115.xsdst ! RUN = 13115 ! NEVT = 8200
FILE = /castor/cern.ch/delphi/MCprod/cern/wphact211/va0e/203.7/wphact211_ncgg_203.7_80.4_13116.xsdst ! RUN = 13116 ! NEVT = 8163
FILE = /castor/cern.ch/delphi/MCprod/cern/wphact211/va0e/203.7/wphact211_ncgg_203.7_80.4_13117.xsdst ! RUN = 13117 ! NEVT = 8200
FILE = /castor/cern.ch/delphi/MCprod/cern/wphact211/va0e/203.7/wphact211_ncgg_203.7_80.4_13118.xsdst ! RUN = 13118 ! NEVT = 8200
FILE = /castor/cern.ch/delphi/MCprod/cern/wphact211/va0e/203.7/wphact211_ncgg_203.7_80.4_13119.xsdst ! RUN = 13119 ! NEVT = 8200
FILE = /castor/cern.ch/delphi/MCprod/cern/wphact211/va0e/203.7/wphact211_ncgg_203.7_80.4_13120.xsdst ! RUN = 13120 ! NEVT = 8200
FILE = /castor/cern.ch/delphi/MCprod/cern/wphact211/va0e/203.7/wphact211_ncgg_203.7_80.4_13121.xsdst ! RUN = 13121 ! NEVT = 8199
FILE = /castor/cern.ch/delphi/MCprod/cern/wphact211/va0e/203.7/wphact211_ncgg_203.7_80.4_13122.xsdst ! RUN = 13122 ! NEVT = 8200
FILE = /castor/cern.ch/delphi/MCprod/cern/wphact211/va0e/203.7/wphact211_ncgg_203.7_80.4_13123.xsdst ! RUN = 13123 ! NEVT = 8140
FILE = /castor/cern.ch/delphi/MCprod/cern/wphact211/va0e/203.7/wphact211_ncgg_203.7_80.4_13124.xsdst ! RUN = 13124 ! NEVT = 8199
FILE = /castor/cern.ch/delphi/MCprod/cern/wphact211/va0e/203.7/wphact211_ncgg_203.7_80.4_13125.xsdst ! RUN = 13125 ! NEVT = 8200
