*
*   Nickname     : xs_wphact21nc4f_e208_m80.4_ca0_1l_e1
*   Generic Name : //CERN/DELPHI/P02_SIMD/XSDST/WPHACT21NC4F/CERN/SUMT/C001-500
*   Description  :  Extended Short DST simulation a0_e1 208 , CERN
*---
*   Comments     : in total 499873 events in 500 files time stamp: Wed Oct 24 10:11:23 2001
*---
*
*
*
*
*
FILE = /castor/cern.ch/delphi/MCprod/cern/wphact21/va0e/208/wphact21_nc4f_208_80.4_13001.xsdst ! RUN = 13001 ! NEVT = 998
FILE = /castor/cern.ch/delphi/MCprod/cern/wphact21/va0e/208/wphact21_nc4f_208_80.4_13002.xsdst ! RUN = 13002 ! NEVT = 1000
FILE = /castor/cern.ch/delphi/MCprod/cern/wphact21/va0e/208/wphact21_nc4f_208_80.4_13003.xsdst ! RUN = 13003 ! NEVT = 1000
FILE = /castor/cern.ch/delphi/MCprod/cern/wphact21/va0e/208/wphact21_nc4f_208_80.4_13004.xsdst ! RUN = 13004 ! NEVT = 1000
FILE = /castor/cern.ch/delphi/MCprod/cern/wphact21/va0e/208/wphact21_nc4f_208_80.4_13005.xsdst ! RUN = 13005 ! NEVT = 1000
FILE = /castor/cern.ch/delphi/MCprod/cern/wphact21/va0e/208/wphact21_nc4f_208_80.4_13006.xsdst ! RUN = 13006 ! NEVT = 1000
FILE = /castor/cern.ch/delphi/MCprod/cern/wphact21/va0e/208/wphact21_nc4f_208_80.4_13007.xsdst ! RUN = 13007 ! NEVT = 1000
FILE = /castor/cern.ch/delphi/MCprod/cern/wphact21/va0e/208/wphact21_nc4f_208_80.4_13008.xsdst ! RUN = 13008 ! NEVT = 1000
FILE = /castor/cern.ch/delphi/MCprod/cern/wphact21/va0e/208/wphact21_nc4f_208_80.4_13009.xsdst ! RUN = 13009 ! NEVT = 999
FILE = /castor/cern.ch/delphi/MCprod/cern/wphact21/va0e/208/wphact21_nc4f_208_80.4_13010.xsdst ! RUN = 13010 ! NEVT = 1000
FILE = /castor/cern.ch/delphi/MCprod/cern/wphact21/va0e/208/wphact21_nc4f_208_80.4_13011.xsdst ! RUN = 13011 ! NEVT = 999
FILE = /castor/cern.ch/delphi/MCprod/cern/wphact21/va0e/208/wphact21_nc4f_208_80.4_13012.xsdst ! RUN = 13012 ! NEVT = 1000
FILE = /castor/cern.ch/delphi/MCprod/cern/wphact21/va0e/208/wphact21_nc4f_208_80.4_13013.xsdst ! RUN = 13013 ! NEVT = 999
FILE = /castor/cern.ch/delphi/MCprod/cern/wphact21/va0e/208/wphact21_nc4f_208_80.4_13014.xsdst ! RUN = 13014 ! NEVT = 1000
FILE = /castor/cern.ch/delphi/MCprod/cern/wphact21/va0e/208/wphact21_nc4f_208_80.4_13015.xsdst ! RUN = 13015 ! NEVT = 999
FILE = /castor/cern.ch/delphi/MCprod/cern/wphact21/va0e/208/wphact21_nc4f_208_80.4_13016.xsdst ! RUN = 13016 ! NEVT = 1000
FILE = /castor/cern.ch/delphi/MCprod/cern/wphact21/va0e/208/wphact21_nc4f_208_80.4_13017.xsdst ! RUN = 13017 ! NEVT = 1000
FILE = /castor/cern.ch/delphi/MCprod/cern/wphact21/va0e/208/wphact21_nc4f_208_80.4_13018.xsdst ! RUN = 13018 ! NEVT = 1000
FILE = /castor/cern.ch/delphi/MCprod/cern/wphact21/va0e/208/wphact21_nc4f_208_80.4_13019.xsdst ! RUN = 13019 ! NEVT = 1000
FILE = /castor/cern.ch/delphi/MCprod/cern/wphact21/va0e/208/wphact21_nc4f_208_80.4_13020.xsdst ! RUN = 13020 ! NEVT = 1000
FILE = /castor/cern.ch/delphi/MCprod/cern/wphact21/va0e/208/wphact21_nc4f_208_80.4_13021.xsdst ! RUN = 13021 ! NEVT = 1000
FILE = /castor/cern.ch/delphi/MCprod/cern/wphact21/va0e/208/wphact21_nc4f_208_80.4_13022.xsdst ! RUN = 13022 ! NEVT = 1000
FILE = /castor/cern.ch/delphi/MCprod/cern/wphact21/va0e/208/wphact21_nc4f_208_80.4_13023.xsdst ! RUN = 13023 ! NEVT = 1000
FILE = /castor/cern.ch/delphi/MCprod/cern/wphact21/va0e/208/wphact21_nc4f_208_80.4_13024.xsdst ! RUN = 13024 ! NEVT = 1000
FILE = /castor/cern.ch/delphi/MCprod/cern/wphact21/va0e/208/wphact21_nc4f_208_80.4_13025.xsdst ! RUN = 13025 ! NEVT = 999
FILE = /castor/cern.ch/delphi/MCprod/cern/wphact21/va0e/208/wphact21_nc4f_208_80.4_13026.xsdst ! RUN = 13026 ! NEVT = 1000
FILE = /castor/cern.ch/delphi/MCprod/cern/wphact21/va0e/208/wphact21_nc4f_208_80.4_13027.xsdst ! RUN = 13027 ! NEVT = 1000
FILE = /castor/cern.ch/delphi/MCprod/cern/wphact21/va0e/208/wphact21_nc4f_208_80.4_13028.xsdst ! RUN = 13028 ! NEVT = 1000
FILE = /castor/cern.ch/delphi/MCprod/cern/wphact21/va0e/208/wphact21_nc4f_208_80.4_13029.xsdst ! RUN = 13029 ! NEVT = 1000
FILE = /castor/cern.ch/delphi/MCprod/cern/wphact21/va0e/208/wphact21_nc4f_208_80.4_13030.xsdst ! RUN = 13030 ! NEVT = 999
FILE = /castor/cern.ch/delphi/MCprod/cern/wphact21/va0e/208/wphact21_nc4f_208_80.4_13031.xsdst ! RUN = 13031 ! NEVT = 1000
FILE = /castor/cern.ch/delphi/MCprod/cern/wphact21/va0e/208/wphact21_nc4f_208_80.4_13032.xsdst ! RUN = 13032 ! NEVT = 1000
FILE = /castor/cern.ch/delphi/MCprod/cern/wphact21/va0e/208/wphact21_nc4f_208_80.4_13033.xsdst ! RUN = 13033 ! NEVT = 1000
FILE = /castor/cern.ch/delphi/MCprod/cern/wphact21/va0e/208/wphact21_nc4f_208_80.4_13034.xsdst ! RUN = 13034 ! NEVT = 1000
FILE = /castor/cern.ch/delphi/MCprod/cern/wphact21/va0e/208/wphact21_nc4f_208_80.4_13035.xsdst ! RUN = 13035 ! NEVT = 1000
FILE = /castor/cern.ch/delphi/MCprod/cern/wphact21/va0e/208/wphact21_nc4f_208_80.4_13036.xsdst ! RUN = 13036 ! NEVT = 1000
FILE = /castor/cern.ch/delphi/MCprod/cern/wphact21/va0e/208/wphact21_nc4f_208_80.4_13037.xsdst ! RUN = 13037 ! NEVT = 1000
FILE = /castor/cern.ch/delphi/MCprod/cern/wphact21/va0e/208/wphact21_nc4f_208_80.4_13038.xsdst ! RUN = 13038 ! NEVT = 1000
FILE = /castor/cern.ch/delphi/MCprod/cern/wphact21/va0e/208/wphact21_nc4f_208_80.4_13039.xsdst ! RUN = 13039 ! NEVT = 999
FILE = /castor/cern.ch/delphi/MCprod/cern/wphact21/va0e/208/wphact21_nc4f_208_80.4_13040.xsdst ! RUN = 13040 ! NEVT = 1000
FILE = /castor/cern.ch/delphi/MCprod/cern/wphact21/va0e/208/wphact21_nc4f_208_80.4_13041.xsdst ! RUN = 13041 ! NEVT = 1000
FILE = /castor/cern.ch/delphi/MCprod/cern/wphact21/va0e/208/wphact21_nc4f_208_80.4_13042.xsdst ! RUN = 13042 ! NEVT = 999
FILE = /castor/cern.ch/delphi/MCprod/cern/wphact21/va0e/208/wphact21_nc4f_208_80.4_13043.xsdst ! RUN = 13043 ! NEVT = 999
FILE = /castor/cern.ch/delphi/MCprod/cern/wphact21/va0e/208/wphact21_nc4f_208_80.4_13044.xsdst ! RUN = 13044 ! NEVT = 1000
FILE = /castor/cern.ch/delphi/MCprod/cern/wphact21/va0e/208/wphact21_nc4f_208_80.4_13045.xsdst ! RUN = 13045 ! NEVT = 1000
FILE = /castor/cern.ch/delphi/MCprod/cern/wphact21/va0e/208/wphact21_nc4f_208_80.4_13046.xsdst ! RUN = 13046 ! NEVT = 999
FILE = /castor/cern.ch/delphi/MCprod/cern/wphact21/va0e/208/wphact21_nc4f_208_80.4_13047.xsdst ! RUN = 13047 ! NEVT = 1000
FILE = /castor/cern.ch/delphi/MCprod/cern/wphact21/va0e/208/wphact21_nc4f_208_80.4_13048.xsdst ! RUN = 13048 ! NEVT = 1000
FILE = /castor/cern.ch/delphi/MCprod/cern/wphact21/va0e/208/wphact21_nc4f_208_80.4_13049.xsdst ! RUN = 13049 ! NEVT = 1000
FILE = /castor/cern.ch/delphi/MCprod/cern/wphact21/va0e/208/wphact21_nc4f_208_80.4_13050.xsdst ! RUN = 13050 ! NEVT = 1000
FILE = /castor/cern.ch/delphi/MCprod/cern/wphact21/va0e/208/wphact21_nc4f_208_80.4_13051.xsdst ! RUN = 13051 ! NEVT = 999
FILE = /castor/cern.ch/delphi/MCprod/cern/wphact21/va0e/208/wphact21_nc4f_208_80.4_13052.xsdst ! RUN = 13052 ! NEVT = 1000
FILE = /castor/cern.ch/delphi/MCprod/cern/wphact21/va0e/208/wphact21_nc4f_208_80.4_13053.xsdst ! RUN = 13053 ! NEVT = 1000
FILE = /castor/cern.ch/delphi/MCprod/cern/wphact21/va0e/208/wphact21_nc4f_208_80.4_13054.xsdst ! RUN = 13054 ! NEVT = 998
FILE = /castor/cern.ch/delphi/MCprod/cern/wphact21/va0e/208/wphact21_nc4f_208_80.4_13055.xsdst ! RUN = 13055 ! NEVT = 1000
FILE = /castor/cern.ch/delphi/MCprod/cern/wphact21/va0e/208/wphact21_nc4f_208_80.4_13056.xsdst ! RUN = 13056 ! NEVT = 1000
FILE = /castor/cern.ch/delphi/MCprod/cern/wphact21/va0e/208/wphact21_nc4f_208_80.4_13057.xsdst ! RUN = 13057 ! NEVT = 999
FILE = /castor/cern.ch/delphi/MCprod/cern/wphact21/va0e/208/wphact21_nc4f_208_80.4_13058.xsdst ! RUN = 13058 ! NEVT = 1000
FILE = /castor/cern.ch/delphi/MCprod/cern/wphact21/va0e/208/wphact21_nc4f_208_80.4_13059.xsdst ! RUN = 13059 ! NEVT = 998
FILE = /castor/cern.ch/delphi/MCprod/cern/wphact21/va0e/208/wphact21_nc4f_208_80.4_13060.xsdst ! RUN = 13060 ! NEVT = 1000
FILE = /castor/cern.ch/delphi/MCprod/cern/wphact21/va0e/208/wphact21_nc4f_208_80.4_13061.xsdst ! RUN = 13061 ! NEVT = 999
FILE = /castor/cern.ch/delphi/MCprod/cern/wphact21/va0e/208/wphact21_nc4f_208_80.4_13062.xsdst ! RUN = 13062 ! NEVT = 1000
FILE = /castor/cern.ch/delphi/MCprod/cern/wphact21/va0e/208/wphact21_nc4f_208_80.4_13063.xsdst ! RUN = 13063 ! NEVT = 1000
FILE = /castor/cern.ch/delphi/MCprod/cern/wphact21/va0e/208/wphact21_nc4f_208_80.4_13064.xsdst ! RUN = 13064 ! NEVT = 1000
FILE = /castor/cern.ch/delphi/MCprod/cern/wphact21/va0e/208/wphact21_nc4f_208_80.4_13065.xsdst ! RUN = 13065 ! NEVT = 1000
FILE = /castor/cern.ch/delphi/MCprod/cern/wphact21/va0e/208/wphact21_nc4f_208_80.4_13066.xsdst ! RUN = 13066 ! NEVT = 1000
FILE = /castor/cern.ch/delphi/MCprod/cern/wphact21/va0e/208/wphact21_nc4f_208_80.4_13067.xsdst ! RUN = 13067 ! NEVT = 1000
FILE = /castor/cern.ch/delphi/MCprod/cern/wphact21/va0e/208/wphact21_nc4f_208_80.4_13068.xsdst ! RUN = 13068 ! NEVT = 1000
FILE = /castor/cern.ch/delphi/MCprod/cern/wphact21/va0e/208/wphact21_nc4f_208_80.4_13069.xsdst ! RUN = 13069 ! NEVT = 1000
FILE = /castor/cern.ch/delphi/MCprod/cern/wphact21/va0e/208/wphact21_nc4f_208_80.4_13070.xsdst ! RUN = 13070 ! NEVT = 999
FILE = /castor/cern.ch/delphi/MCprod/cern/wphact21/va0e/208/wphact21_nc4f_208_80.4_13071.xsdst ! RUN = 13071 ! NEVT = 1000
FILE = /castor/cern.ch/delphi/MCprod/cern/wphact21/va0e/208/wphact21_nc4f_208_80.4_13072.xsdst ! RUN = 13072 ! NEVT = 1000
FILE = /castor/cern.ch/delphi/MCprod/cern/wphact21/va0e/208/wphact21_nc4f_208_80.4_13073.xsdst ! RUN = 13073 ! NEVT = 1000
FILE = /castor/cern.ch/delphi/MCprod/cern/wphact21/va0e/208/wphact21_nc4f_208_80.4_13074.xsdst ! RUN = 13074 ! NEVT = 1000
FILE = /castor/cern.ch/delphi/MCprod/cern/wphact21/va0e/208/wphact21_nc4f_208_80.4_13075.xsdst ! RUN = 13075 ! NEVT = 1000
FILE = /castor/cern.ch/delphi/MCprod/cern/wphact21/va0e/208/wphact21_nc4f_208_80.4_13076.xsdst ! RUN = 13076 ! NEVT = 1000
FILE = /castor/cern.ch/delphi/MCprod/cern/wphact21/va0e/208/wphact21_nc4f_208_80.4_13077.xsdst ! RUN = 13077 ! NEVT = 1000
FILE = /castor/cern.ch/delphi/MCprod/cern/wphact21/va0e/208/wphact21_nc4f_208_80.4_13078.xsdst ! RUN = 13078 ! NEVT = 1000
FILE = /castor/cern.ch/delphi/MCprod/cern/wphact21/va0e/208/wphact21_nc4f_208_80.4_13079.xsdst ! RUN = 13079 ! NEVT = 999
FILE = /castor/cern.ch/delphi/MCprod/cern/wphact21/va0e/208/wphact21_nc4f_208_80.4_13080.xsdst ! RUN = 13080 ! NEVT = 1000
FILE = /castor/cern.ch/delphi/MCprod/cern/wphact21/va0e/208/wphact21_nc4f_208_80.4_13081.xsdst ! RUN = 13081 ! NEVT = 1000
FILE = /castor/cern.ch/delphi/MCprod/cern/wphact21/va0e/208/wphact21_nc4f_208_80.4_13082.xsdst ! RUN = 13082 ! NEVT = 1000
FILE = /castor/cern.ch/delphi/MCprod/cern/wphact21/va0e/208/wphact21_nc4f_208_80.4_13083.xsdst ! RUN = 13083 ! NEVT = 1000
FILE = /castor/cern.ch/delphi/MCprod/cern/wphact21/va0e/208/wphact21_nc4f_208_80.4_13084.xsdst ! RUN = 13084 ! NEVT = 998
FILE = /castor/cern.ch/delphi/MCprod/cern/wphact21/va0e/208/wphact21_nc4f_208_80.4_13085.xsdst ! RUN = 13085 ! NEVT = 999
FILE = /castor/cern.ch/delphi/MCprod/cern/wphact21/va0e/208/wphact21_nc4f_208_80.4_13086.xsdst ! RUN = 13086 ! NEVT = 1000
FILE = /castor/cern.ch/delphi/MCprod/cern/wphact21/va0e/208/wphact21_nc4f_208_80.4_13087.xsdst ! RUN = 13087 ! NEVT = 1000
FILE = /castor/cern.ch/delphi/MCprod/cern/wphact21/va0e/208/wphact21_nc4f_208_80.4_13088.xsdst ! RUN = 13088 ! NEVT = 1000
FILE = /castor/cern.ch/delphi/MCprod/cern/wphact21/va0e/208/wphact21_nc4f_208_80.4_13089.xsdst ! RUN = 13089 ! NEVT = 999
FILE = /castor/cern.ch/delphi/MCprod/cern/wphact21/va0e/208/wphact21_nc4f_208_80.4_13090.xsdst ! RUN = 13090 ! NEVT = 998
FILE = /castor/cern.ch/delphi/MCprod/cern/wphact21/va0e/208/wphact21_nc4f_208_80.4_13091.xsdst ! RUN = 13091 ! NEVT = 999
FILE = /castor/cern.ch/delphi/MCprod/cern/wphact21/va0e/208/wphact21_nc4f_208_80.4_13092.xsdst ! RUN = 13092 ! NEVT = 1000
FILE = /castor/cern.ch/delphi/MCprod/cern/wphact21/va0e/208/wphact21_nc4f_208_80.4_13093.xsdst ! RUN = 13093 ! NEVT = 1000
FILE = /castor/cern.ch/delphi/MCprod/cern/wphact21/va0e/208/wphact21_nc4f_208_80.4_13094.xsdst ! RUN = 13094 ! NEVT = 999
FILE = /castor/cern.ch/delphi/MCprod/cern/wphact21/va0e/208/wphact21_nc4f_208_80.4_13095.xsdst ! RUN = 13095 ! NEVT = 1000
FILE = /castor/cern.ch/delphi/MCprod/cern/wphact21/va0e/208/wphact21_nc4f_208_80.4_13096.xsdst ! RUN = 13096 ! NEVT = 1000
FILE = /castor/cern.ch/delphi/MCprod/cern/wphact21/va0e/208/wphact21_nc4f_208_80.4_13097.xsdst ! RUN = 13097 ! NEVT = 1000
FILE = /castor/cern.ch/delphi/MCprod/cern/wphact21/va0e/208/wphact21_nc4f_208_80.4_13098.xsdst ! RUN = 13098 ! NEVT = 1000
FILE = /castor/cern.ch/delphi/MCprod/cern/wphact21/va0e/208/wphact21_nc4f_208_80.4_13099.xsdst ! RUN = 13099 ! NEVT = 1000
FILE = /castor/cern.ch/delphi/MCprod/cern/wphact21/va0e/208/wphact21_nc4f_208_80.4_13100.xsdst ! RUN = 13100 ! NEVT = 1000
FILE = /castor/cern.ch/delphi/MCprod/cern/wphact21/va0e/208/wphact21_nc4f_208_80.4_13101.xsdst ! RUN = 13101 ! NEVT = 999
FILE = /castor/cern.ch/delphi/MCprod/cern/wphact21/va0e/208/wphact21_nc4f_208_80.4_13102.xsdst ! RUN = 13102 ! NEVT = 1000
FILE = /castor/cern.ch/delphi/MCprod/cern/wphact21/va0e/208/wphact21_nc4f_208_80.4_13103.xsdst ! RUN = 13103 ! NEVT = 1000
FILE = /castor/cern.ch/delphi/MCprod/cern/wphact21/va0e/208/wphact21_nc4f_208_80.4_13104.xsdst ! RUN = 13104 ! NEVT = 1000
FILE = /castor/cern.ch/delphi/MCprod/cern/wphact21/va0e/208/wphact21_nc4f_208_80.4_13105.xsdst ! RUN = 13105 ! NEVT = 1000
FILE = /castor/cern.ch/delphi/MCprod/cern/wphact21/va0e/208/wphact21_nc4f_208_80.4_13106.xsdst ! RUN = 13106 ! NEVT = 999
FILE = /castor/cern.ch/delphi/MCprod/cern/wphact21/va0e/208/wphact21_nc4f_208_80.4_13107.xsdst ! RUN = 13107 ! NEVT = 998
FILE = /castor/cern.ch/delphi/MCprod/cern/wphact21/va0e/208/wphact21_nc4f_208_80.4_13108.xsdst ! RUN = 13108 ! NEVT = 1000
FILE = /castor/cern.ch/delphi/MCprod/cern/wphact21/va0e/208/wphact21_nc4f_208_80.4_13109.xsdst ! RUN = 13109 ! NEVT = 1000
FILE = /castor/cern.ch/delphi/MCprod/cern/wphact21/va0e/208/wphact21_nc4f_208_80.4_13110.xsdst ! RUN = 13110 ! NEVT = 1000
FILE = /castor/cern.ch/delphi/MCprod/cern/wphact21/va0e/208/wphact21_nc4f_208_80.4_13111.xsdst ! RUN = 13111 ! NEVT = 1000
FILE = /castor/cern.ch/delphi/MCprod/cern/wphact21/va0e/208/wphact21_nc4f_208_80.4_13112.xsdst ! RUN = 13112 ! NEVT = 999
FILE = /castor/cern.ch/delphi/MCprod/cern/wphact21/va0e/208/wphact21_nc4f_208_80.4_13113.xsdst ! RUN = 13113 ! NEVT = 1000
FILE = /castor/cern.ch/delphi/MCprod/cern/wphact21/va0e/208/wphact21_nc4f_208_80.4_13114.xsdst ! RUN = 13114 ! NEVT = 1000
FILE = /castor/cern.ch/delphi/MCprod/cern/wphact21/va0e/208/wphact21_nc4f_208_80.4_13115.xsdst ! RUN = 13115 ! NEVT = 1000
FILE = /castor/cern.ch/delphi/MCprod/cern/wphact21/va0e/208/wphact21_nc4f_208_80.4_13116.xsdst ! RUN = 13116 ! NEVT = 999
FILE = /castor/cern.ch/delphi/MCprod/cern/wphact21/va0e/208/wphact21_nc4f_208_80.4_13117.xsdst ! RUN = 13117 ! NEVT = 1000
FILE = /castor/cern.ch/delphi/MCprod/cern/wphact21/va0e/208/wphact21_nc4f_208_80.4_13118.xsdst ! RUN = 13118 ! NEVT = 999
FILE = /castor/cern.ch/delphi/MCprod/cern/wphact21/va0e/208/wphact21_nc4f_208_80.4_13119.xsdst ! RUN = 13119 ! NEVT = 999
FILE = /castor/cern.ch/delphi/MCprod/cern/wphact21/va0e/208/wphact21_nc4f_208_80.4_13120.xsdst ! RUN = 13120 ! NEVT = 1000
FILE = /castor/cern.ch/delphi/MCprod/cern/wphact21/va0e/208/wphact21_nc4f_208_80.4_13121.xsdst ! RUN = 13121 ! NEVT = 1000
FILE = /castor/cern.ch/delphi/MCprod/cern/wphact21/va0e/208/wphact21_nc4f_208_80.4_13122.xsdst ! RUN = 13122 ! NEVT = 1000
FILE = /castor/cern.ch/delphi/MCprod/cern/wphact21/va0e/208/wphact21_nc4f_208_80.4_13123.xsdst ! RUN = 13123 ! NEVT = 1000
FILE = /castor/cern.ch/delphi/MCprod/cern/wphact21/va0e/208/wphact21_nc4f_208_80.4_13124.xsdst ! RUN = 13124 ! NEVT = 1000
FILE = /castor/cern.ch/delphi/MCprod/cern/wphact21/va0e/208/wphact21_nc4f_208_80.4_13125.xsdst ! RUN = 13125 ! NEVT = 1000
FILE = /castor/cern.ch/delphi/MCprod/cern/wphact21/va0e/208/wphact21_nc4f_208_80.4_13126.xsdst ! RUN = 13126 ! NEVT = 1000
FILE = /castor/cern.ch/delphi/MCprod/cern/wphact21/va0e/208/wphact21_nc4f_208_80.4_13127.xsdst ! RUN = 13127 ! NEVT = 999
FILE = /castor/cern.ch/delphi/MCprod/cern/wphact21/va0e/208/wphact21_nc4f_208_80.4_13128.xsdst ! RUN = 13128 ! NEVT = 1000
FILE = /castor/cern.ch/delphi/MCprod/cern/wphact21/va0e/208/wphact21_nc4f_208_80.4_13129.xsdst ! RUN = 13129 ! NEVT = 1000
FILE = /castor/cern.ch/delphi/MCprod/cern/wphact21/va0e/208/wphact21_nc4f_208_80.4_13130.xsdst ! RUN = 13130 ! NEVT = 1000
FILE = /castor/cern.ch/delphi/MCprod/cern/wphact21/va0e/208/wphact21_nc4f_208_80.4_13131.xsdst ! RUN = 13131 ! NEVT = 1000
FILE = /castor/cern.ch/delphi/MCprod/cern/wphact21/va0e/208/wphact21_nc4f_208_80.4_13132.xsdst ! RUN = 13132 ! NEVT = 999
FILE = /castor/cern.ch/delphi/MCprod/cern/wphact21/va0e/208/wphact21_nc4f_208_80.4_13133.xsdst ! RUN = 13133 ! NEVT = 1000
FILE = /castor/cern.ch/delphi/MCprod/cern/wphact21/va0e/208/wphact21_nc4f_208_80.4_13134.xsdst ! RUN = 13134 ! NEVT = 999
FILE = /castor/cern.ch/delphi/MCprod/cern/wphact21/va0e/208/wphact21_nc4f_208_80.4_13135.xsdst ! RUN = 13135 ! NEVT = 1000
FILE = /castor/cern.ch/delphi/MCprod/cern/wphact21/va0e/208/wphact21_nc4f_208_80.4_13136.xsdst ! RUN = 13136 ! NEVT = 1000
FILE = /castor/cern.ch/delphi/MCprod/cern/wphact21/va0e/208/wphact21_nc4f_208_80.4_13137.xsdst ! RUN = 13137 ! NEVT = 999
FILE = /castor/cern.ch/delphi/MCprod/cern/wphact21/va0e/208/wphact21_nc4f_208_80.4_13138.xsdst ! RUN = 13138 ! NEVT = 999
FILE = /castor/cern.ch/delphi/MCprod/cern/wphact21/va0e/208/wphact21_nc4f_208_80.4_13139.xsdst ! RUN = 13139 ! NEVT = 998
FILE = /castor/cern.ch/delphi/MCprod/cern/wphact21/va0e/208/wphact21_nc4f_208_80.4_13140.xsdst ! RUN = 13140 ! NEVT = 1000
FILE = /castor/cern.ch/delphi/MCprod/cern/wphact21/va0e/208/wphact21_nc4f_208_80.4_13141.xsdst ! RUN = 13141 ! NEVT = 1000
FILE = /castor/cern.ch/delphi/MCprod/cern/wphact21/va0e/208/wphact21_nc4f_208_80.4_13142.xsdst ! RUN = 13142 ! NEVT = 1000
FILE = /castor/cern.ch/delphi/MCprod/cern/wphact21/va0e/208/wphact21_nc4f_208_80.4_13143.xsdst ! RUN = 13143 ! NEVT = 1000
FILE = /castor/cern.ch/delphi/MCprod/cern/wphact21/va0e/208/wphact21_nc4f_208_80.4_13144.xsdst ! RUN = 13144 ! NEVT = 998
FILE = /castor/cern.ch/delphi/MCprod/cern/wphact21/va0e/208/wphact21_nc4f_208_80.4_13145.xsdst ! RUN = 13145 ! NEVT = 999
FILE = /castor/cern.ch/delphi/MCprod/cern/wphact21/va0e/208/wphact21_nc4f_208_80.4_13146.xsdst ! RUN = 13146 ! NEVT = 999
FILE = /castor/cern.ch/delphi/MCprod/cern/wphact21/va0e/208/wphact21_nc4f_208_80.4_13147.xsdst ! RUN = 13147 ! NEVT = 1000
FILE = /castor/cern.ch/delphi/MCprod/cern/wphact21/va0e/208/wphact21_nc4f_208_80.4_13148.xsdst ! RUN = 13148 ! NEVT = 1000
FILE = /castor/cern.ch/delphi/MCprod/cern/wphact21/va0e/208/wphact21_nc4f_208_80.4_13149.xsdst ! RUN = 13149 ! NEVT = 1000
FILE = /castor/cern.ch/delphi/MCprod/cern/wphact21/va0e/208/wphact21_nc4f_208_80.4_13150.xsdst ! RUN = 13150 ! NEVT = 1000
FILE = /castor/cern.ch/delphi/MCprod/cern/wphact21/va0e/208/wphact21_nc4f_208_80.4_13151.xsdst ! RUN = 13151 ! NEVT = 1000
FILE = /castor/cern.ch/delphi/MCprod/cern/wphact21/va0e/208/wphact21_nc4f_208_80.4_13152.xsdst ! RUN = 13152 ! NEVT = 1000
FILE = /castor/cern.ch/delphi/MCprod/cern/wphact21/va0e/208/wphact21_nc4f_208_80.4_13153.xsdst ! RUN = 13153 ! NEVT = 1000
FILE = /castor/cern.ch/delphi/MCprod/cern/wphact21/va0e/208/wphact21_nc4f_208_80.4_13154.xsdst ! RUN = 13154 ! NEVT = 999
FILE = /castor/cern.ch/delphi/MCprod/cern/wphact21/va0e/208/wphact21_nc4f_208_80.4_13155.xsdst ! RUN = 13155 ! NEVT = 1000
FILE = /castor/cern.ch/delphi/MCprod/cern/wphact21/va0e/208/wphact21_nc4f_208_80.4_13156.xsdst ! RUN = 13156 ! NEVT = 1000
FILE = /castor/cern.ch/delphi/MCprod/cern/wphact21/va0e/208/wphact21_nc4f_208_80.4_13157.xsdst ! RUN = 13157 ! NEVT = 1000
FILE = /castor/cern.ch/delphi/MCprod/cern/wphact21/va0e/208/wphact21_nc4f_208_80.4_13158.xsdst ! RUN = 13158 ! NEVT = 1000
FILE = /castor/cern.ch/delphi/MCprod/cern/wphact21/va0e/208/wphact21_nc4f_208_80.4_13159.xsdst ! RUN = 13159 ! NEVT = 1000
FILE = /castor/cern.ch/delphi/MCprod/cern/wphact21/va0e/208/wphact21_nc4f_208_80.4_13160.xsdst ! RUN = 13160 ! NEVT = 1000
FILE = /castor/cern.ch/delphi/MCprod/cern/wphact21/va0e/208/wphact21_nc4f_208_80.4_13161.xsdst ! RUN = 13161 ! NEVT = 1000
FILE = /castor/cern.ch/delphi/MCprod/cern/wphact21/va0e/208/wphact21_nc4f_208_80.4_13162.xsdst ! RUN = 13162 ! NEVT = 999
FILE = /castor/cern.ch/delphi/MCprod/cern/wphact21/va0e/208/wphact21_nc4f_208_80.4_13163.xsdst ! RUN = 13163 ! NEVT = 1000
FILE = /castor/cern.ch/delphi/MCprod/cern/wphact21/va0e/208/wphact21_nc4f_208_80.4_13164.xsdst ! RUN = 13164 ! NEVT = 1000
FILE = /castor/cern.ch/delphi/MCprod/cern/wphact21/va0e/208/wphact21_nc4f_208_80.4_13165.xsdst ! RUN = 13165 ! NEVT = 1000
FILE = /castor/cern.ch/delphi/MCprod/cern/wphact21/va0e/208/wphact21_nc4f_208_80.4_13166.xsdst ! RUN = 13166 ! NEVT = 1000
FILE = /castor/cern.ch/delphi/MCprod/cern/wphact21/va0e/208/wphact21_nc4f_208_80.4_13167.xsdst ! RUN = 13167 ! NEVT = 1000
FILE = /castor/cern.ch/delphi/MCprod/cern/wphact21/va0e/208/wphact21_nc4f_208_80.4_13168.xsdst ! RUN = 13168 ! NEVT = 999
FILE = /castor/cern.ch/delphi/MCprod/cern/wphact21/va0e/208/wphact21_nc4f_208_80.4_13169.xsdst ! RUN = 13169 ! NEVT = 1000
FILE = /castor/cern.ch/delphi/MCprod/cern/wphact21/va0e/208/wphact21_nc4f_208_80.4_13170.xsdst ! RUN = 13170 ! NEVT = 1000
FILE = /castor/cern.ch/delphi/MCprod/cern/wphact21/va0e/208/wphact21_nc4f_208_80.4_13171.xsdst ! RUN = 13171 ! NEVT = 999
FILE = /castor/cern.ch/delphi/MCprod/cern/wphact21/va0e/208/wphact21_nc4f_208_80.4_13172.xsdst ! RUN = 13172 ! NEVT = 1000
FILE = /castor/cern.ch/delphi/MCprod/cern/wphact21/va0e/208/wphact21_nc4f_208_80.4_13173.xsdst ! RUN = 13173 ! NEVT = 1000
FILE = /castor/cern.ch/delphi/MCprod/cern/wphact21/va0e/208/wphact21_nc4f_208_80.4_13174.xsdst ! RUN = 13174 ! NEVT = 1000
FILE = /castor/cern.ch/delphi/MCprod/cern/wphact21/va0e/208/wphact21_nc4f_208_80.4_13175.xsdst ! RUN = 13175 ! NEVT = 1000
FILE = /castor/cern.ch/delphi/MCprod/cern/wphact21/va0e/208/wphact21_nc4f_208_80.4_13176.xsdst ! RUN = 13176 ! NEVT = 1000
FILE = /castor/cern.ch/delphi/MCprod/cern/wphact21/va0e/208/wphact21_nc4f_208_80.4_13177.xsdst ! RUN = 13177 ! NEVT = 1000
FILE = /castor/cern.ch/delphi/MCprod/cern/wphact21/va0e/208/wphact21_nc4f_208_80.4_13178.xsdst ! RUN = 13178 ! NEVT = 1000
FILE = /castor/cern.ch/delphi/MCprod/cern/wphact21/va0e/208/wphact21_nc4f_208_80.4_13179.xsdst ! RUN = 13179 ! NEVT = 1000
FILE = /castor/cern.ch/delphi/MCprod/cern/wphact21/va0e/208/wphact21_nc4f_208_80.4_13180.xsdst ! RUN = 13180 ! NEVT = 1000
FILE = /castor/cern.ch/delphi/MCprod/cern/wphact21/va0e/208/wphact21_nc4f_208_80.4_13181.xsdst ! RUN = 13181 ! NEVT = 1000
FILE = /castor/cern.ch/delphi/MCprod/cern/wphact21/va0e/208/wphact21_nc4f_208_80.4_13182.xsdst ! RUN = 13182 ! NEVT = 1000
FILE = /castor/cern.ch/delphi/MCprod/cern/wphact21/va0e/208/wphact21_nc4f_208_80.4_13183.xsdst ! RUN = 13183 ! NEVT = 999
FILE = /castor/cern.ch/delphi/MCprod/cern/wphact21/va0e/208/wphact21_nc4f_208_80.4_13184.xsdst ! RUN = 13184 ! NEVT = 1000
FILE = /castor/cern.ch/delphi/MCprod/cern/wphact21/va0e/208/wphact21_nc4f_208_80.4_13185.xsdst ! RUN = 13185 ! NEVT = 1000
FILE = /castor/cern.ch/delphi/MCprod/cern/wphact21/va0e/208/wphact21_nc4f_208_80.4_13186.xsdst ! RUN = 13186 ! NEVT = 1000
FILE = /castor/cern.ch/delphi/MCprod/cern/wphact21/va0e/208/wphact21_nc4f_208_80.4_13187.xsdst ! RUN = 13187 ! NEVT = 999
FILE = /castor/cern.ch/delphi/MCprod/cern/wphact21/va0e/208/wphact21_nc4f_208_80.4_13188.xsdst ! RUN = 13188 ! NEVT = 1000
FILE = /castor/cern.ch/delphi/MCprod/cern/wphact21/va0e/208/wphact21_nc4f_208_80.4_13189.xsdst ! RUN = 13189 ! NEVT = 1000
FILE = /castor/cern.ch/delphi/MCprod/cern/wphact21/va0e/208/wphact21_nc4f_208_80.4_13190.xsdst ! RUN = 13190 ! NEVT = 1000
FILE = /castor/cern.ch/delphi/MCprod/cern/wphact21/va0e/208/wphact21_nc4f_208_80.4_13191.xsdst ! RUN = 13191 ! NEVT = 999
FILE = /castor/cern.ch/delphi/MCprod/cern/wphact21/va0e/208/wphact21_nc4f_208_80.4_13192.xsdst ! RUN = 13192 ! NEVT = 1000
FILE = /castor/cern.ch/delphi/MCprod/cern/wphact21/va0e/208/wphact21_nc4f_208_80.4_13193.xsdst ! RUN = 13193 ! NEVT = 1000
FILE = /castor/cern.ch/delphi/MCprod/cern/wphact21/va0e/208/wphact21_nc4f_208_80.4_13194.xsdst ! RUN = 13194 ! NEVT = 999
FILE = /castor/cern.ch/delphi/MCprod/cern/wphact21/va0e/208/wphact21_nc4f_208_80.4_13195.xsdst ! RUN = 13195 ! NEVT = 998
FILE = /castor/cern.ch/delphi/MCprod/cern/wphact21/va0e/208/wphact21_nc4f_208_80.4_13196.xsdst ! RUN = 13196 ! NEVT = 1000
FILE = /castor/cern.ch/delphi/MCprod/cern/wphact21/va0e/208/wphact21_nc4f_208_80.4_13197.xsdst ! RUN = 13197 ! NEVT = 1000
FILE = /castor/cern.ch/delphi/MCprod/cern/wphact21/va0e/208/wphact21_nc4f_208_80.4_13198.xsdst ! RUN = 13198 ! NEVT = 1000
FILE = /castor/cern.ch/delphi/MCprod/cern/wphact21/va0e/208/wphact21_nc4f_208_80.4_13199.xsdst ! RUN = 13199 ! NEVT = 999
FILE = /castor/cern.ch/delphi/MCprod/cern/wphact21/va0e/208/wphact21_nc4f_208_80.4_13200.xsdst ! RUN = 13200 ! NEVT = 999
FILE = /castor/cern.ch/delphi/MCprod/cern/wphact21/va0e/208/wphact21_nc4f_208_80.4_13201.xsdst ! RUN = 13201 ! NEVT = 1000
FILE = /castor/cern.ch/delphi/MCprod/cern/wphact21/va0e/208/wphact21_nc4f_208_80.4_13202.xsdst ! RUN = 13202 ! NEVT = 1000
FILE = /castor/cern.ch/delphi/MCprod/cern/wphact21/va0e/208/wphact21_nc4f_208_80.4_13203.xsdst ! RUN = 13203 ! NEVT = 1000
FILE = /castor/cern.ch/delphi/MCprod/cern/wphact21/va0e/208/wphact21_nc4f_208_80.4_13204.xsdst ! RUN = 13204 ! NEVT = 1000
FILE = /castor/cern.ch/delphi/MCprod/cern/wphact21/va0e/208/wphact21_nc4f_208_80.4_13205.xsdst ! RUN = 13205 ! NEVT = 1000
FILE = /castor/cern.ch/delphi/MCprod/cern/wphact21/va0e/208/wphact21_nc4f_208_80.4_13206.xsdst ! RUN = 13206 ! NEVT = 999
FILE = /castor/cern.ch/delphi/MCprod/cern/wphact21/va0e/208/wphact21_nc4f_208_80.4_13207.xsdst ! RUN = 13207 ! NEVT = 1000
FILE = /castor/cern.ch/delphi/MCprod/cern/wphact21/va0e/208/wphact21_nc4f_208_80.4_13208.xsdst ! RUN = 13208 ! NEVT = 1000
FILE = /castor/cern.ch/delphi/MCprod/cern/wphact21/va0e/208/wphact21_nc4f_208_80.4_13209.xsdst ! RUN = 13209 ! NEVT = 999
FILE = /castor/cern.ch/delphi/MCprod/cern/wphact21/va0e/208/wphact21_nc4f_208_80.4_13210.xsdst ! RUN = 13210 ! NEVT = 1000
FILE = /castor/cern.ch/delphi/MCprod/cern/wphact21/va0e/208/wphact21_nc4f_208_80.4_13211.xsdst ! RUN = 13211 ! NEVT = 1000
FILE = /castor/cern.ch/delphi/MCprod/cern/wphact21/va0e/208/wphact21_nc4f_208_80.4_13212.xsdst ! RUN = 13212 ! NEVT = 1000
FILE = /castor/cern.ch/delphi/MCprod/cern/wphact21/va0e/208/wphact21_nc4f_208_80.4_13213.xsdst ! RUN = 13213 ! NEVT = 1000
FILE = /castor/cern.ch/delphi/MCprod/cern/wphact21/va0e/208/wphact21_nc4f_208_80.4_13214.xsdst ! RUN = 13214 ! NEVT = 1000
FILE = /castor/cern.ch/delphi/MCprod/cern/wphact21/va0e/208/wphact21_nc4f_208_80.4_13215.xsdst ! RUN = 13215 ! NEVT = 999
FILE = /castor/cern.ch/delphi/MCprod/cern/wphact21/va0e/208/wphact21_nc4f_208_80.4_13216.xsdst ! RUN = 13216 ! NEVT = 1000
FILE = /castor/cern.ch/delphi/MCprod/cern/wphact21/va0e/208/wphact21_nc4f_208_80.4_13217.xsdst ! RUN = 13217 ! NEVT = 1000
FILE = /castor/cern.ch/delphi/MCprod/cern/wphact21/va0e/208/wphact21_nc4f_208_80.4_13218.xsdst ! RUN = 13218 ! NEVT = 1000
FILE = /castor/cern.ch/delphi/MCprod/cern/wphact21/va0e/208/wphact21_nc4f_208_80.4_13219.xsdst ! RUN = 13219 ! NEVT = 1000
FILE = /castor/cern.ch/delphi/MCprod/cern/wphact21/va0e/208/wphact21_nc4f_208_80.4_13220.xsdst ! RUN = 13220 ! NEVT = 1000
FILE = /castor/cern.ch/delphi/MCprod/cern/wphact21/va0e/208/wphact21_nc4f_208_80.4_13221.xsdst ! RUN = 13221 ! NEVT = 999
FILE = /castor/cern.ch/delphi/MCprod/cern/wphact21/va0e/208/wphact21_nc4f_208_80.4_13222.xsdst ! RUN = 13222 ! NEVT = 1000
FILE = /castor/cern.ch/delphi/MCprod/cern/wphact21/va0e/208/wphact21_nc4f_208_80.4_13223.xsdst ! RUN = 13223 ! NEVT = 999
FILE = /castor/cern.ch/delphi/MCprod/cern/wphact21/va0e/208/wphact21_nc4f_208_80.4_13224.xsdst ! RUN = 13224 ! NEVT = 1000
FILE = /castor/cern.ch/delphi/MCprod/cern/wphact21/va0e/208/wphact21_nc4f_208_80.4_13225.xsdst ! RUN = 13225 ! NEVT = 999
FILE = /castor/cern.ch/delphi/MCprod/cern/wphact21/va0e/208/wphact21_nc4f_208_80.4_13226.xsdst ! RUN = 13226 ! NEVT = 1000
FILE = /castor/cern.ch/delphi/MCprod/cern/wphact21/va0e/208/wphact21_nc4f_208_80.4_13227.xsdst ! RUN = 13227 ! NEVT = 1000
FILE = /castor/cern.ch/delphi/MCprod/cern/wphact21/va0e/208/wphact21_nc4f_208_80.4_13228.xsdst ! RUN = 13228 ! NEVT = 1000
FILE = /castor/cern.ch/delphi/MCprod/cern/wphact21/va0e/208/wphact21_nc4f_208_80.4_13229.xsdst ! RUN = 13229 ! NEVT = 1000
FILE = /castor/cern.ch/delphi/MCprod/cern/wphact21/va0e/208/wphact21_nc4f_208_80.4_13230.xsdst ! RUN = 13230 ! NEVT = 1000
FILE = /castor/cern.ch/delphi/MCprod/cern/wphact21/va0e/208/wphact21_nc4f_208_80.4_13231.xsdst ! RUN = 13231 ! NEVT = 1000
FILE = /castor/cern.ch/delphi/MCprod/cern/wphact21/va0e/208/wphact21_nc4f_208_80.4_13232.xsdst ! RUN = 13232 ! NEVT = 1000
FILE = /castor/cern.ch/delphi/MCprod/cern/wphact21/va0e/208/wphact21_nc4f_208_80.4_13233.xsdst ! RUN = 13233 ! NEVT = 1000
FILE = /castor/cern.ch/delphi/MCprod/cern/wphact21/va0e/208/wphact21_nc4f_208_80.4_13234.xsdst ! RUN = 13234 ! NEVT = 1000
FILE = /castor/cern.ch/delphi/MCprod/cern/wphact21/va0e/208/wphact21_nc4f_208_80.4_13235.xsdst ! RUN = 13235 ! NEVT = 1000
FILE = /castor/cern.ch/delphi/MCprod/cern/wphact21/va0e/208/wphact21_nc4f_208_80.4_13236.xsdst ! RUN = 13236 ! NEVT = 1000
FILE = /castor/cern.ch/delphi/MCprod/cern/wphact21/va0e/208/wphact21_nc4f_208_80.4_13237.xsdst ! RUN = 13237 ! NEVT = 1000
FILE = /castor/cern.ch/delphi/MCprod/cern/wphact21/va0e/208/wphact21_nc4f_208_80.4_13238.xsdst ! RUN = 13238 ! NEVT = 1000
FILE = /castor/cern.ch/delphi/MCprod/cern/wphact21/va0e/208/wphact21_nc4f_208_80.4_13239.xsdst ! RUN = 13239 ! NEVT = 1000
FILE = /castor/cern.ch/delphi/MCprod/cern/wphact21/va0e/208/wphact21_nc4f_208_80.4_13240.xsdst ! RUN = 13240 ! NEVT = 999
FILE = /castor/cern.ch/delphi/MCprod/cern/wphact21/va0e/208/wphact21_nc4f_208_80.4_13241.xsdst ! RUN = 13241 ! NEVT = 999
FILE = /castor/cern.ch/delphi/MCprod/cern/wphact21/va0e/208/wphact21_nc4f_208_80.4_13242.xsdst ! RUN = 13242 ! NEVT = 1000
FILE = /castor/cern.ch/delphi/MCprod/cern/wphact21/va0e/208/wphact21_nc4f_208_80.4_13243.xsdst ! RUN = 13243 ! NEVT = 999
FILE = /castor/cern.ch/delphi/MCprod/cern/wphact21/va0e/208/wphact21_nc4f_208_80.4_13244.xsdst ! RUN = 13244 ! NEVT = 999
FILE = /castor/cern.ch/delphi/MCprod/cern/wphact21/va0e/208/wphact21_nc4f_208_80.4_13245.xsdst ! RUN = 13245 ! NEVT = 1000
FILE = /castor/cern.ch/delphi/MCprod/cern/wphact21/va0e/208/wphact21_nc4f_208_80.4_13246.xsdst ! RUN = 13246 ! NEVT = 1000
FILE = /castor/cern.ch/delphi/MCprod/cern/wphact21/va0e/208/wphact21_nc4f_208_80.4_13247.xsdst ! RUN = 13247 ! NEVT = 1000
FILE = /castor/cern.ch/delphi/MCprod/cern/wphact21/va0e/208/wphact21_nc4f_208_80.4_13248.xsdst ! RUN = 13248 ! NEVT = 1000
FILE = /castor/cern.ch/delphi/MCprod/cern/wphact21/va0e/208/wphact21_nc4f_208_80.4_13249.xsdst ! RUN = 13249 ! NEVT = 1000
FILE = /castor/cern.ch/delphi/MCprod/cern/wphact21/va0e/208/wphact21_nc4f_208_80.4_13250.xsdst ! RUN = 13250 ! NEVT = 998
FILE = /castor/cern.ch/delphi/MCprod/cern/wphact21/va0e/208/wphact21_nc4f_208_80.4_13251.xsdst ! RUN = 13251 ! NEVT = 1000
FILE = /castor/cern.ch/delphi/MCprod/cern/wphact21/va0e/208/wphact21_nc4f_208_80.4_13252.xsdst ! RUN = 13252 ! NEVT = 1000
FILE = /castor/cern.ch/delphi/MCprod/cern/wphact21/va0e/208/wphact21_nc4f_208_80.4_13253.xsdst ! RUN = 13253 ! NEVT = 1000
FILE = /castor/cern.ch/delphi/MCprod/cern/wphact21/va0e/208/wphact21_nc4f_208_80.4_13254.xsdst ! RUN = 13254 ! NEVT = 1000
FILE = /castor/cern.ch/delphi/MCprod/cern/wphact21/va0e/208/wphact21_nc4f_208_80.4_13255.xsdst ! RUN = 13255 ! NEVT = 999
FILE = /castor/cern.ch/delphi/MCprod/cern/wphact21/va0e/208/wphact21_nc4f_208_80.4_13256.xsdst ! RUN = 13256 ! NEVT = 999
FILE = /castor/cern.ch/delphi/MCprod/cern/wphact21/va0e/208/wphact21_nc4f_208_80.4_13257.xsdst ! RUN = 13257 ! NEVT = 1000
FILE = /castor/cern.ch/delphi/MCprod/cern/wphact21/va0e/208/wphact21_nc4f_208_80.4_13258.xsdst ! RUN = 13258 ! NEVT = 1000
FILE = /castor/cern.ch/delphi/MCprod/cern/wphact21/va0e/208/wphact21_nc4f_208_80.4_13259.xsdst ! RUN = 13259 ! NEVT = 1000
FILE = /castor/cern.ch/delphi/MCprod/cern/wphact21/va0e/208/wphact21_nc4f_208_80.4_13260.xsdst ! RUN = 13260 ! NEVT = 1000
FILE = /castor/cern.ch/delphi/MCprod/cern/wphact21/va0e/208/wphact21_nc4f_208_80.4_13261.xsdst ! RUN = 13261 ! NEVT = 1000
FILE = /castor/cern.ch/delphi/MCprod/cern/wphact21/va0e/208/wphact21_nc4f_208_80.4_13262.xsdst ! RUN = 13262 ! NEVT = 999
FILE = /castor/cern.ch/delphi/MCprod/cern/wphact21/va0e/208/wphact21_nc4f_208_80.4_13263.xsdst ! RUN = 13263 ! NEVT = 1000
FILE = /castor/cern.ch/delphi/MCprod/cern/wphact21/va0e/208/wphact21_nc4f_208_80.4_13264.xsdst ! RUN = 13264 ! NEVT = 1000
FILE = /castor/cern.ch/delphi/MCprod/cern/wphact21/va0e/208/wphact21_nc4f_208_80.4_13265.xsdst ! RUN = 13265 ! NEVT = 1000
FILE = /castor/cern.ch/delphi/MCprod/cern/wphact21/va0e/208/wphact21_nc4f_208_80.4_13266.xsdst ! RUN = 13266 ! NEVT = 1000
FILE = /castor/cern.ch/delphi/MCprod/cern/wphact21/va0e/208/wphact21_nc4f_208_80.4_13267.xsdst ! RUN = 13267 ! NEVT = 999
FILE = /castor/cern.ch/delphi/MCprod/cern/wphact21/va0e/208/wphact21_nc4f_208_80.4_13268.xsdst ! RUN = 13268 ! NEVT = 1000
FILE = /castor/cern.ch/delphi/MCprod/cern/wphact21/va0e/208/wphact21_nc4f_208_80.4_13269.xsdst ! RUN = 13269 ! NEVT = 999
FILE = /castor/cern.ch/delphi/MCprod/cern/wphact21/va0e/208/wphact21_nc4f_208_80.4_13270.xsdst ! RUN = 13270 ! NEVT = 1000
FILE = /castor/cern.ch/delphi/MCprod/cern/wphact21/va0e/208/wphact21_nc4f_208_80.4_13271.xsdst ! RUN = 13271 ! NEVT = 999
FILE = /castor/cern.ch/delphi/MCprod/cern/wphact21/va0e/208/wphact21_nc4f_208_80.4_13272.xsdst ! RUN = 13272 ! NEVT = 1000
FILE = /castor/cern.ch/delphi/MCprod/cern/wphact21/va0e/208/wphact21_nc4f_208_80.4_13273.xsdst ! RUN = 13273 ! NEVT = 1000
FILE = /castor/cern.ch/delphi/MCprod/cern/wphact21/va0e/208/wphact21_nc4f_208_80.4_13274.xsdst ! RUN = 13274 ! NEVT = 999
FILE = /castor/cern.ch/delphi/MCprod/cern/wphact21/va0e/208/wphact21_nc4f_208_80.4_13275.xsdst ! RUN = 13275 ! NEVT = 999
FILE = /castor/cern.ch/delphi/MCprod/cern/wphact21/va0e/208/wphact21_nc4f_208_80.4_13276.xsdst ! RUN = 13276 ! NEVT = 1000
FILE = /castor/cern.ch/delphi/MCprod/cern/wphact21/va0e/208/wphact21_nc4f_208_80.4_13277.xsdst ! RUN = 13277 ! NEVT = 1000
FILE = /castor/cern.ch/delphi/MCprod/cern/wphact21/va0e/208/wphact21_nc4f_208_80.4_13278.xsdst ! RUN = 13278 ! NEVT = 999
FILE = /castor/cern.ch/delphi/MCprod/cern/wphact21/va0e/208/wphact21_nc4f_208_80.4_13279.xsdst ! RUN = 13279 ! NEVT = 1000
FILE = /castor/cern.ch/delphi/MCprod/cern/wphact21/va0e/208/wphact21_nc4f_208_80.4_13280.xsdst ! RUN = 13280 ! NEVT = 999
FILE = /castor/cern.ch/delphi/MCprod/cern/wphact21/va0e/208/wphact21_nc4f_208_80.4_13281.xsdst ! RUN = 13281 ! NEVT = 1000
FILE = /castor/cern.ch/delphi/MCprod/cern/wphact21/va0e/208/wphact21_nc4f_208_80.4_13282.xsdst ! RUN = 13282 ! NEVT = 1000
FILE = /castor/cern.ch/delphi/MCprod/cern/wphact21/va0e/208/wphact21_nc4f_208_80.4_13283.xsdst ! RUN = 13283 ! NEVT = 1000
FILE = /castor/cern.ch/delphi/MCprod/cern/wphact21/va0e/208/wphact21_nc4f_208_80.4_13284.xsdst ! RUN = 13284 ! NEVT = 1000
FILE = /castor/cern.ch/delphi/MCprod/cern/wphact21/va0e/208/wphact21_nc4f_208_80.4_13285.xsdst ! RUN = 13285 ! NEVT = 1000
FILE = /castor/cern.ch/delphi/MCprod/cern/wphact21/va0e/208/wphact21_nc4f_208_80.4_13286.xsdst ! RUN = 13286 ! NEVT = 1000
FILE = /castor/cern.ch/delphi/MCprod/cern/wphact21/va0e/208/wphact21_nc4f_208_80.4_13287.xsdst ! RUN = 13287 ! NEVT = 1000
FILE = /castor/cern.ch/delphi/MCprod/cern/wphact21/va0e/208/wphact21_nc4f_208_80.4_13288.xsdst ! RUN = 13288 ! NEVT = 999
FILE = /castor/cern.ch/delphi/MCprod/cern/wphact21/va0e/208/wphact21_nc4f_208_80.4_13289.xsdst ! RUN = 13289 ! NEVT = 1000
FILE = /castor/cern.ch/delphi/MCprod/cern/wphact21/va0e/208/wphact21_nc4f_208_80.4_13290.xsdst ! RUN = 13290 ! NEVT = 999
FILE = /castor/cern.ch/delphi/MCprod/cern/wphact21/va0e/208/wphact21_nc4f_208_80.4_13291.xsdst ! RUN = 13291 ! NEVT = 999
FILE = /castor/cern.ch/delphi/MCprod/cern/wphact21/va0e/208/wphact21_nc4f_208_80.4_13292.xsdst ! RUN = 13292 ! NEVT = 1000
FILE = /castor/cern.ch/delphi/MCprod/cern/wphact21/va0e/208/wphact21_nc4f_208_80.4_13293.xsdst ! RUN = 13293 ! NEVT = 1000
FILE = /castor/cern.ch/delphi/MCprod/cern/wphact21/va0e/208/wphact21_nc4f_208_80.4_13294.xsdst ! RUN = 13294 ! NEVT = 1000
FILE = /castor/cern.ch/delphi/MCprod/cern/wphact21/va0e/208/wphact21_nc4f_208_80.4_13295.xsdst ! RUN = 13295 ! NEVT = 1000
FILE = /castor/cern.ch/delphi/MCprod/cern/wphact21/va0e/208/wphact21_nc4f_208_80.4_13296.xsdst ! RUN = 13296 ! NEVT = 1000
FILE = /castor/cern.ch/delphi/MCprod/cern/wphact21/va0e/208/wphact21_nc4f_208_80.4_13297.xsdst ! RUN = 13297 ! NEVT = 999
FILE = /castor/cern.ch/delphi/MCprod/cern/wphact21/va0e/208/wphact21_nc4f_208_80.4_13298.xsdst ! RUN = 13298 ! NEVT = 1000
FILE = /castor/cern.ch/delphi/MCprod/cern/wphact21/va0e/208/wphact21_nc4f_208_80.4_13299.xsdst ! RUN = 13299 ! NEVT = 1000
FILE = /castor/cern.ch/delphi/MCprod/cern/wphact21/va0e/208/wphact21_nc4f_208_80.4_13300.xsdst ! RUN = 13300 ! NEVT = 999
FILE = /castor/cern.ch/delphi/MCprod/cern/wphact21/va0e/208/wphact21_nc4f_208_80.4_13301.xsdst ! RUN = 13301 ! NEVT = 1000
FILE = /castor/cern.ch/delphi/MCprod/cern/wphact21/va0e/208/wphact21_nc4f_208_80.4_13302.xsdst ! RUN = 13302 ! NEVT = 1000
FILE = /castor/cern.ch/delphi/MCprod/cern/wphact21/va0e/208/wphact21_nc4f_208_80.4_13303.xsdst ! RUN = 13303 ! NEVT = 1000
FILE = /castor/cern.ch/delphi/MCprod/cern/wphact21/va0e/208/wphact21_nc4f_208_80.4_13304.xsdst ! RUN = 13304 ! NEVT = 999
FILE = /castor/cern.ch/delphi/MCprod/cern/wphact21/va0e/208/wphact21_nc4f_208_80.4_13305.xsdst ! RUN = 13305 ! NEVT = 999
FILE = /castor/cern.ch/delphi/MCprod/cern/wphact21/va0e/208/wphact21_nc4f_208_80.4_13306.xsdst ! RUN = 13306 ! NEVT = 999
FILE = /castor/cern.ch/delphi/MCprod/cern/wphact21/va0e/208/wphact21_nc4f_208_80.4_13307.xsdst ! RUN = 13307 ! NEVT = 1000
FILE = /castor/cern.ch/delphi/MCprod/cern/wphact21/va0e/208/wphact21_nc4f_208_80.4_13308.xsdst ! RUN = 13308 ! NEVT = 1000
FILE = /castor/cern.ch/delphi/MCprod/cern/wphact21/va0e/208/wphact21_nc4f_208_80.4_13309.xsdst ! RUN = 13309 ! NEVT = 1000
FILE = /castor/cern.ch/delphi/MCprod/cern/wphact21/va0e/208/wphact21_nc4f_208_80.4_13310.xsdst ! RUN = 13310 ! NEVT = 1000
FILE = /castor/cern.ch/delphi/MCprod/cern/wphact21/va0e/208/wphact21_nc4f_208_80.4_13311.xsdst ! RUN = 13311 ! NEVT = 1000
FILE = /castor/cern.ch/delphi/MCprod/cern/wphact21/va0e/208/wphact21_nc4f_208_80.4_13312.xsdst ! RUN = 13312 ! NEVT = 1000
FILE = /castor/cern.ch/delphi/MCprod/cern/wphact21/va0e/208/wphact21_nc4f_208_80.4_13313.xsdst ! RUN = 13313 ! NEVT = 1000
FILE = /castor/cern.ch/delphi/MCprod/cern/wphact21/va0e/208/wphact21_nc4f_208_80.4_13314.xsdst ! RUN = 13314 ! NEVT = 1000
FILE = /castor/cern.ch/delphi/MCprod/cern/wphact21/va0e/208/wphact21_nc4f_208_80.4_13315.xsdst ! RUN = 13315 ! NEVT = 1000
FILE = /castor/cern.ch/delphi/MCprod/cern/wphact21/va0e/208/wphact21_nc4f_208_80.4_13316.xsdst ! RUN = 13316 ! NEVT = 1000
FILE = /castor/cern.ch/delphi/MCprod/cern/wphact21/va0e/208/wphact21_nc4f_208_80.4_13317.xsdst ! RUN = 13317 ! NEVT = 1000
FILE = /castor/cern.ch/delphi/MCprod/cern/wphact21/va0e/208/wphact21_nc4f_208_80.4_13318.xsdst ! RUN = 13318 ! NEVT = 1000
FILE = /castor/cern.ch/delphi/MCprod/cern/wphact21/va0e/208/wphact21_nc4f_208_80.4_13319.xsdst ! RUN = 13319 ! NEVT = 999
FILE = /castor/cern.ch/delphi/MCprod/cern/wphact21/va0e/208/wphact21_nc4f_208_80.4_13320.xsdst ! RUN = 13320 ! NEVT = 1000
FILE = /castor/cern.ch/delphi/MCprod/cern/wphact21/va0e/208/wphact21_nc4f_208_80.4_13321.xsdst ! RUN = 13321 ! NEVT = 1000
FILE = /castor/cern.ch/delphi/MCprod/cern/wphact21/va0e/208/wphact21_nc4f_208_80.4_13322.xsdst ! RUN = 13322 ! NEVT = 1000
FILE = /castor/cern.ch/delphi/MCprod/cern/wphact21/va0e/208/wphact21_nc4f_208_80.4_13323.xsdst ! RUN = 13323 ! NEVT = 1000
FILE = /castor/cern.ch/delphi/MCprod/cern/wphact21/va0e/208/wphact21_nc4f_208_80.4_13324.xsdst ! RUN = 13324 ! NEVT = 1000
FILE = /castor/cern.ch/delphi/MCprod/cern/wphact21/va0e/208/wphact21_nc4f_208_80.4_13325.xsdst ! RUN = 13325 ! NEVT = 999
FILE = /castor/cern.ch/delphi/MCprod/cern/wphact21/va0e/208/wphact21_nc4f_208_80.4_13326.xsdst ! RUN = 13326 ! NEVT = 999
FILE = /castor/cern.ch/delphi/MCprod/cern/wphact21/va0e/208/wphact21_nc4f_208_80.4_13327.xsdst ! RUN = 13327 ! NEVT = 999
FILE = /castor/cern.ch/delphi/MCprod/cern/wphact21/va0e/208/wphact21_nc4f_208_80.4_13328.xsdst ! RUN = 13328 ! NEVT = 1000
FILE = /castor/cern.ch/delphi/MCprod/cern/wphact21/va0e/208/wphact21_nc4f_208_80.4_13329.xsdst ! RUN = 13329 ! NEVT = 1000
FILE = /castor/cern.ch/delphi/MCprod/cern/wphact21/va0e/208/wphact21_nc4f_208_80.4_13330.xsdst ! RUN = 13330 ! NEVT = 1000
FILE = /castor/cern.ch/delphi/MCprod/cern/wphact21/va0e/208/wphact21_nc4f_208_80.4_13331.xsdst ! RUN = 13331 ! NEVT = 1000
FILE = /castor/cern.ch/delphi/MCprod/cern/wphact21/va0e/208/wphact21_nc4f_208_80.4_13332.xsdst ! RUN = 13332 ! NEVT = 1000
FILE = /castor/cern.ch/delphi/MCprod/cern/wphact21/va0e/208/wphact21_nc4f_208_80.4_13333.xsdst ! RUN = 13333 ! NEVT = 1000
FILE = /castor/cern.ch/delphi/MCprod/cern/wphact21/va0e/208/wphact21_nc4f_208_80.4_13334.xsdst ! RUN = 13334 ! NEVT = 1000
FILE = /castor/cern.ch/delphi/MCprod/cern/wphact21/va0e/208/wphact21_nc4f_208_80.4_13335.xsdst ! RUN = 13335 ! NEVT = 1000
FILE = /castor/cern.ch/delphi/MCprod/cern/wphact21/va0e/208/wphact21_nc4f_208_80.4_13336.xsdst ! RUN = 13336 ! NEVT = 1000
FILE = /castor/cern.ch/delphi/MCprod/cern/wphact21/va0e/208/wphact21_nc4f_208_80.4_13337.xsdst ! RUN = 13337 ! NEVT = 1000
FILE = /castor/cern.ch/delphi/MCprod/cern/wphact21/va0e/208/wphact21_nc4f_208_80.4_13338.xsdst ! RUN = 13338 ! NEVT = 1000
FILE = /castor/cern.ch/delphi/MCprod/cern/wphact21/va0e/208/wphact21_nc4f_208_80.4_13339.xsdst ! RUN = 13339 ! NEVT = 1000
FILE = /castor/cern.ch/delphi/MCprod/cern/wphact21/va0e/208/wphact21_nc4f_208_80.4_13340.xsdst ! RUN = 13340 ! NEVT = 1000
FILE = /castor/cern.ch/delphi/MCprod/cern/wphact21/va0e/208/wphact21_nc4f_208_80.4_13341.xsdst ! RUN = 13341 ! NEVT = 1000
FILE = /castor/cern.ch/delphi/MCprod/cern/wphact21/va0e/208/wphact21_nc4f_208_80.4_13342.xsdst ! RUN = 13342 ! NEVT = 999
FILE = /castor/cern.ch/delphi/MCprod/cern/wphact21/va0e/208/wphact21_nc4f_208_80.4_13343.xsdst ! RUN = 13343 ! NEVT = 1000
FILE = /castor/cern.ch/delphi/MCprod/cern/wphact21/va0e/208/wphact21_nc4f_208_80.4_13344.xsdst ! RUN = 13344 ! NEVT = 1000
FILE = /castor/cern.ch/delphi/MCprod/cern/wphact21/va0e/208/wphact21_nc4f_208_80.4_13345.xsdst ! RUN = 13345 ! NEVT = 1000
FILE = /castor/cern.ch/delphi/MCprod/cern/wphact21/va0e/208/wphact21_nc4f_208_80.4_13346.xsdst ! RUN = 13346 ! NEVT = 1000
FILE = /castor/cern.ch/delphi/MCprod/cern/wphact21/va0e/208/wphact21_nc4f_208_80.4_13347.xsdst ! RUN = 13347 ! NEVT = 1000
FILE = /castor/cern.ch/delphi/MCprod/cern/wphact21/va0e/208/wphact21_nc4f_208_80.4_13348.xsdst ! RUN = 13348 ! NEVT = 1000
FILE = /castor/cern.ch/delphi/MCprod/cern/wphact21/va0e/208/wphact21_nc4f_208_80.4_13349.xsdst ! RUN = 13349 ! NEVT = 999
FILE = /castor/cern.ch/delphi/MCprod/cern/wphact21/va0e/208/wphact21_nc4f_208_80.4_13350.xsdst ! RUN = 13350 ! NEVT = 1000
FILE = /castor/cern.ch/delphi/MCprod/cern/wphact21/va0e/208/wphact21_nc4f_208_80.4_13351.xsdst ! RUN = 13351 ! NEVT = 1000
FILE = /castor/cern.ch/delphi/MCprod/cern/wphact21/va0e/208/wphact21_nc4f_208_80.4_13352.xsdst ! RUN = 13352 ! NEVT = 1000
FILE = /castor/cern.ch/delphi/MCprod/cern/wphact21/va0e/208/wphact21_nc4f_208_80.4_13353.xsdst ! RUN = 13353 ! NEVT = 1000
FILE = /castor/cern.ch/delphi/MCprod/cern/wphact21/va0e/208/wphact21_nc4f_208_80.4_13354.xsdst ! RUN = 13354 ! NEVT = 1000
FILE = /castor/cern.ch/delphi/MCprod/cern/wphact21/va0e/208/wphact21_nc4f_208_80.4_13355.xsdst ! RUN = 13355 ! NEVT = 999
FILE = /castor/cern.ch/delphi/MCprod/cern/wphact21/va0e/208/wphact21_nc4f_208_80.4_13356.xsdst ! RUN = 13356 ! NEVT = 1000
FILE = /castor/cern.ch/delphi/MCprod/cern/wphact21/va0e/208/wphact21_nc4f_208_80.4_13357.xsdst ! RUN = 13357 ! NEVT = 1000
FILE = /castor/cern.ch/delphi/MCprod/cern/wphact21/va0e/208/wphact21_nc4f_208_80.4_13358.xsdst ! RUN = 13358 ! NEVT = 1000
FILE = /castor/cern.ch/delphi/MCprod/cern/wphact21/va0e/208/wphact21_nc4f_208_80.4_13359.xsdst ! RUN = 13359 ! NEVT = 1000
FILE = /castor/cern.ch/delphi/MCprod/cern/wphact21/va0e/208/wphact21_nc4f_208_80.4_13360.xsdst ! RUN = 13360 ! NEVT = 1000
FILE = /castor/cern.ch/delphi/MCprod/cern/wphact21/va0e/208/wphact21_nc4f_208_80.4_13361.xsdst ! RUN = 13361 ! NEVT = 1000
FILE = /castor/cern.ch/delphi/MCprod/cern/wphact21/va0e/208/wphact21_nc4f_208_80.4_13362.xsdst ! RUN = 13362 ! NEVT = 1000
FILE = /castor/cern.ch/delphi/MCprod/cern/wphact21/va0e/208/wphact21_nc4f_208_80.4_13363.xsdst ! RUN = 13363 ! NEVT = 1000
FILE = /castor/cern.ch/delphi/MCprod/cern/wphact21/va0e/208/wphact21_nc4f_208_80.4_13364.xsdst ! RUN = 13364 ! NEVT = 1000
FILE = /castor/cern.ch/delphi/MCprod/cern/wphact21/va0e/208/wphact21_nc4f_208_80.4_13365.xsdst ! RUN = 13365 ! NEVT = 1000
FILE = /castor/cern.ch/delphi/MCprod/cern/wphact21/va0e/208/wphact21_nc4f_208_80.4_13366.xsdst ! RUN = 13366 ! NEVT = 1000
FILE = /castor/cern.ch/delphi/MCprod/cern/wphact21/va0e/208/wphact21_nc4f_208_80.4_13367.xsdst ! RUN = 13367 ! NEVT = 1000
FILE = /castor/cern.ch/delphi/MCprod/cern/wphact21/va0e/208/wphact21_nc4f_208_80.4_13368.xsdst ! RUN = 13368 ! NEVT = 1000
FILE = /castor/cern.ch/delphi/MCprod/cern/wphact21/va0e/208/wphact21_nc4f_208_80.4_13369.xsdst ! RUN = 13369 ! NEVT = 1000
FILE = /castor/cern.ch/delphi/MCprod/cern/wphact21/va0e/208/wphact21_nc4f_208_80.4_13370.xsdst ! RUN = 13370 ! NEVT = 1000
FILE = /castor/cern.ch/delphi/MCprod/cern/wphact21/va0e/208/wphact21_nc4f_208_80.4_13371.xsdst ! RUN = 13371 ! NEVT = 1000
FILE = /castor/cern.ch/delphi/MCprod/cern/wphact21/va0e/208/wphact21_nc4f_208_80.4_13372.xsdst ! RUN = 13372 ! NEVT = 999
FILE = /castor/cern.ch/delphi/MCprod/cern/wphact21/va0e/208/wphact21_nc4f_208_80.4_13373.xsdst ! RUN = 13373 ! NEVT = 1000
FILE = /castor/cern.ch/delphi/MCprod/cern/wphact21/va0e/208/wphact21_nc4f_208_80.4_13374.xsdst ! RUN = 13374 ! NEVT = 1000
FILE = /castor/cern.ch/delphi/MCprod/cern/wphact21/va0e/208/wphact21_nc4f_208_80.4_13375.xsdst ! RUN = 13375 ! NEVT = 1000
FILE = /castor/cern.ch/delphi/MCprod/cern/wphact21/va0e/208/wphact21_nc4f_208_80.4_13376.xsdst ! RUN = 13376 ! NEVT = 1000
FILE = /castor/cern.ch/delphi/MCprod/cern/wphact21/va0e/208/wphact21_nc4f_208_80.4_13377.xsdst ! RUN = 13377 ! NEVT = 1000
FILE = /castor/cern.ch/delphi/MCprod/cern/wphact21/va0e/208/wphact21_nc4f_208_80.4_13378.xsdst ! RUN = 13378 ! NEVT = 1000
FILE = /castor/cern.ch/delphi/MCprod/cern/wphact21/va0e/208/wphact21_nc4f_208_80.4_13379.xsdst ! RUN = 13379 ! NEVT = 1000
FILE = /castor/cern.ch/delphi/MCprod/cern/wphact21/va0e/208/wphact21_nc4f_208_80.4_13380.xsdst ! RUN = 13380 ! NEVT = 1000
FILE = /castor/cern.ch/delphi/MCprod/cern/wphact21/va0e/208/wphact21_nc4f_208_80.4_13381.xsdst ! RUN = 13381 ! NEVT = 1000
FILE = /castor/cern.ch/delphi/MCprod/cern/wphact21/va0e/208/wphact21_nc4f_208_80.4_13382.xsdst ! RUN = 13382 ! NEVT = 1000
FILE = /castor/cern.ch/delphi/MCprod/cern/wphact21/va0e/208/wphact21_nc4f_208_80.4_13383.xsdst ! RUN = 13383 ! NEVT = 1000
FILE = /castor/cern.ch/delphi/MCprod/cern/wphact21/va0e/208/wphact21_nc4f_208_80.4_13384.xsdst ! RUN = 13384 ! NEVT = 1000
FILE = /castor/cern.ch/delphi/MCprod/cern/wphact21/va0e/208/wphact21_nc4f_208_80.4_13385.xsdst ! RUN = 13385 ! NEVT = 999
FILE = /castor/cern.ch/delphi/MCprod/cern/wphact21/va0e/208/wphact21_nc4f_208_80.4_13386.xsdst ! RUN = 13386 ! NEVT = 999
FILE = /castor/cern.ch/delphi/MCprod/cern/wphact21/va0e/208/wphact21_nc4f_208_80.4_13387.xsdst ! RUN = 13387 ! NEVT = 1000
FILE = /castor/cern.ch/delphi/MCprod/cern/wphact21/va0e/208/wphact21_nc4f_208_80.4_13388.xsdst ! RUN = 13388 ! NEVT = 1000
FILE = /castor/cern.ch/delphi/MCprod/cern/wphact21/va0e/208/wphact21_nc4f_208_80.4_13389.xsdst ! RUN = 13389 ! NEVT = 1000
FILE = /castor/cern.ch/delphi/MCprod/cern/wphact21/va0e/208/wphact21_nc4f_208_80.4_13390.xsdst ! RUN = 13390 ! NEVT = 999
FILE = /castor/cern.ch/delphi/MCprod/cern/wphact21/va0e/208/wphact21_nc4f_208_80.4_13391.xsdst ! RUN = 13391 ! NEVT = 999
FILE = /castor/cern.ch/delphi/MCprod/cern/wphact21/va0e/208/wphact21_nc4f_208_80.4_13392.xsdst ! RUN = 13392 ! NEVT = 1000
FILE = /castor/cern.ch/delphi/MCprod/cern/wphact21/va0e/208/wphact21_nc4f_208_80.4_13393.xsdst ! RUN = 13393 ! NEVT = 1000
FILE = /castor/cern.ch/delphi/MCprod/cern/wphact21/va0e/208/wphact21_nc4f_208_80.4_13394.xsdst ! RUN = 13394 ! NEVT = 999
FILE = /castor/cern.ch/delphi/MCprod/cern/wphact21/va0e/208/wphact21_nc4f_208_80.4_13395.xsdst ! RUN = 13395 ! NEVT = 1000
FILE = /castor/cern.ch/delphi/MCprod/cern/wphact21/va0e/208/wphact21_nc4f_208_80.4_13396.xsdst ! RUN = 13396 ! NEVT = 999
FILE = /castor/cern.ch/delphi/MCprod/cern/wphact21/va0e/208/wphact21_nc4f_208_80.4_13397.xsdst ! RUN = 13397 ! NEVT = 1000
FILE = /castor/cern.ch/delphi/MCprod/cern/wphact21/va0e/208/wphact21_nc4f_208_80.4_13398.xsdst ! RUN = 13398 ! NEVT = 1000
FILE = /castor/cern.ch/delphi/MCprod/cern/wphact21/va0e/208/wphact21_nc4f_208_80.4_13399.xsdst ! RUN = 13399 ! NEVT = 1000
FILE = /castor/cern.ch/delphi/MCprod/cern/wphact21/va0e/208/wphact21_nc4f_208_80.4_13400.xsdst ! RUN = 13400 ! NEVT = 1000
FILE = /castor/cern.ch/delphi/MCprod/cern/wphact21/va0e/208/wphact21_nc4f_208_80.4_13401.xsdst ! RUN = 13401 ! NEVT = 1000
FILE = /castor/cern.ch/delphi/MCprod/cern/wphact21/va0e/208/wphact21_nc4f_208_80.4_13402.xsdst ! RUN = 13402 ! NEVT = 1000
FILE = /castor/cern.ch/delphi/MCprod/cern/wphact21/va0e/208/wphact21_nc4f_208_80.4_13403.xsdst ! RUN = 13403 ! NEVT = 1000
FILE = /castor/cern.ch/delphi/MCprod/cern/wphact21/va0e/208/wphact21_nc4f_208_80.4_13404.xsdst ! RUN = 13404 ! NEVT = 999
FILE = /castor/cern.ch/delphi/MCprod/cern/wphact21/va0e/208/wphact21_nc4f_208_80.4_13405.xsdst ! RUN = 13405 ! NEVT = 1000
FILE = /castor/cern.ch/delphi/MCprod/cern/wphact21/va0e/208/wphact21_nc4f_208_80.4_13406.xsdst ! RUN = 13406 ! NEVT = 1000
FILE = /castor/cern.ch/delphi/MCprod/cern/wphact21/va0e/208/wphact21_nc4f_208_80.4_13407.xsdst ! RUN = 13407 ! NEVT = 1000
FILE = /castor/cern.ch/delphi/MCprod/cern/wphact21/va0e/208/wphact21_nc4f_208_80.4_13408.xsdst ! RUN = 13408 ! NEVT = 1000
FILE = /castor/cern.ch/delphi/MCprod/cern/wphact21/va0e/208/wphact21_nc4f_208_80.4_13409.xsdst ! RUN = 13409 ! NEVT = 1000
FILE = /castor/cern.ch/delphi/MCprod/cern/wphact21/va0e/208/wphact21_nc4f_208_80.4_13410.xsdst ! RUN = 13410 ! NEVT = 1000
FILE = /castor/cern.ch/delphi/MCprod/cern/wphact21/va0e/208/wphact21_nc4f_208_80.4_13411.xsdst ! RUN = 13411 ! NEVT = 1000
FILE = /castor/cern.ch/delphi/MCprod/cern/wphact21/va0e/208/wphact21_nc4f_208_80.4_13412.xsdst ! RUN = 13412 ! NEVT = 1000
FILE = /castor/cern.ch/delphi/MCprod/cern/wphact21/va0e/208/wphact21_nc4f_208_80.4_13413.xsdst ! RUN = 13413 ! NEVT = 1000
FILE = /castor/cern.ch/delphi/MCprod/cern/wphact21/va0e/208/wphact21_nc4f_208_80.4_13414.xsdst ! RUN = 13414 ! NEVT = 999
FILE = /castor/cern.ch/delphi/MCprod/cern/wphact21/va0e/208/wphact21_nc4f_208_80.4_13415.xsdst ! RUN = 13415 ! NEVT = 1000
FILE = /castor/cern.ch/delphi/MCprod/cern/wphact21/va0e/208/wphact21_nc4f_208_80.4_13416.xsdst ! RUN = 13416 ! NEVT = 999
FILE = /castor/cern.ch/delphi/MCprod/cern/wphact21/va0e/208/wphact21_nc4f_208_80.4_13417.xsdst ! RUN = 13417 ! NEVT = 1000
FILE = /castor/cern.ch/delphi/MCprod/cern/wphact21/va0e/208/wphact21_nc4f_208_80.4_13418.xsdst ! RUN = 13418 ! NEVT = 1000
FILE = /castor/cern.ch/delphi/MCprod/cern/wphact21/va0e/208/wphact21_nc4f_208_80.4_13419.xsdst ! RUN = 13419 ! NEVT = 1000
FILE = /castor/cern.ch/delphi/MCprod/cern/wphact21/va0e/208/wphact21_nc4f_208_80.4_13420.xsdst ! RUN = 13420 ! NEVT = 1000
FILE = /castor/cern.ch/delphi/MCprod/cern/wphact21/va0e/208/wphact21_nc4f_208_80.4_13421.xsdst ! RUN = 13421 ! NEVT = 1000
FILE = /castor/cern.ch/delphi/MCprod/cern/wphact21/va0e/208/wphact21_nc4f_208_80.4_13422.xsdst ! RUN = 13422 ! NEVT = 1000
FILE = /castor/cern.ch/delphi/MCprod/cern/wphact21/va0e/208/wphact21_nc4f_208_80.4_13423.xsdst ! RUN = 13423 ! NEVT = 999
FILE = /castor/cern.ch/delphi/MCprod/cern/wphact21/va0e/208/wphact21_nc4f_208_80.4_13424.xsdst ! RUN = 13424 ! NEVT = 1000
FILE = /castor/cern.ch/delphi/MCprod/cern/wphact21/va0e/208/wphact21_nc4f_208_80.4_13425.xsdst ! RUN = 13425 ! NEVT = 1000
FILE = /castor/cern.ch/delphi/MCprod/cern/wphact21/va0e/208/wphact21_nc4f_208_80.4_13426.xsdst ! RUN = 13426 ! NEVT = 1000
FILE = /castor/cern.ch/delphi/MCprod/cern/wphact21/va0e/208/wphact21_nc4f_208_80.4_13427.xsdst ! RUN = 13427 ! NEVT = 1000
FILE = /castor/cern.ch/delphi/MCprod/cern/wphact21/va0e/208/wphact21_nc4f_208_80.4_13428.xsdst ! RUN = 13428 ! NEVT = 999
FILE = /castor/cern.ch/delphi/MCprod/cern/wphact21/va0e/208/wphact21_nc4f_208_80.4_13429.xsdst ! RUN = 13429 ! NEVT = 1000
FILE = /castor/cern.ch/delphi/MCprod/cern/wphact21/va0e/208/wphact21_nc4f_208_80.4_13430.xsdst ! RUN = 13430 ! NEVT = 998
FILE = /castor/cern.ch/delphi/MCprod/cern/wphact21/va0e/208/wphact21_nc4f_208_80.4_13431.xsdst ! RUN = 13431 ! NEVT = 1000
FILE = /castor/cern.ch/delphi/MCprod/cern/wphact21/va0e/208/wphact21_nc4f_208_80.4_13432.xsdst ! RUN = 13432 ! NEVT = 1000
FILE = /castor/cern.ch/delphi/MCprod/cern/wphact21/va0e/208/wphact21_nc4f_208_80.4_13433.xsdst ! RUN = 13433 ! NEVT = 999
FILE = /castor/cern.ch/delphi/MCprod/cern/wphact21/va0e/208/wphact21_nc4f_208_80.4_13434.xsdst ! RUN = 13434 ! NEVT = 1000
FILE = /castor/cern.ch/delphi/MCprod/cern/wphact21/va0e/208/wphact21_nc4f_208_80.4_13435.xsdst ! RUN = 13435 ! NEVT = 1000
FILE = /castor/cern.ch/delphi/MCprod/cern/wphact21/va0e/208/wphact21_nc4f_208_80.4_13436.xsdst ! RUN = 13436 ! NEVT = 1000
FILE = /castor/cern.ch/delphi/MCprod/cern/wphact21/va0e/208/wphact21_nc4f_208_80.4_13437.xsdst ! RUN = 13437 ! NEVT = 999
FILE = /castor/cern.ch/delphi/MCprod/cern/wphact21/va0e/208/wphact21_nc4f_208_80.4_13438.xsdst ! RUN = 13438 ! NEVT = 1000
FILE = /castor/cern.ch/delphi/MCprod/cern/wphact21/va0e/208/wphact21_nc4f_208_80.4_13439.xsdst ! RUN = 13439 ! NEVT = 1000
FILE = /castor/cern.ch/delphi/MCprod/cern/wphact21/va0e/208/wphact21_nc4f_208_80.4_13440.xsdst ! RUN = 13440 ! NEVT = 1000
FILE = /castor/cern.ch/delphi/MCprod/cern/wphact21/va0e/208/wphact21_nc4f_208_80.4_13441.xsdst ! RUN = 13441 ! NEVT = 999
FILE = /castor/cern.ch/delphi/MCprod/cern/wphact21/va0e/208/wphact21_nc4f_208_80.4_13442.xsdst ! RUN = 13442 ! NEVT = 1000
FILE = /castor/cern.ch/delphi/MCprod/cern/wphact21/va0e/208/wphact21_nc4f_208_80.4_13443.xsdst ! RUN = 13443 ! NEVT = 1000
FILE = /castor/cern.ch/delphi/MCprod/cern/wphact21/va0e/208/wphact21_nc4f_208_80.4_13444.xsdst ! RUN = 13444 ! NEVT = 1000
FILE = /castor/cern.ch/delphi/MCprod/cern/wphact21/va0e/208/wphact21_nc4f_208_80.4_13445.xsdst ! RUN = 13445 ! NEVT = 1000
FILE = /castor/cern.ch/delphi/MCprod/cern/wphact21/va0e/208/wphact21_nc4f_208_80.4_13446.xsdst ! RUN = 13446 ! NEVT = 1000
FILE = /castor/cern.ch/delphi/MCprod/cern/wphact21/va0e/208/wphact21_nc4f_208_80.4_13447.xsdst ! RUN = 13447 ! NEVT = 999
FILE = /castor/cern.ch/delphi/MCprod/cern/wphact21/va0e/208/wphact21_nc4f_208_80.4_13448.xsdst ! RUN = 13448 ! NEVT = 999
FILE = /castor/cern.ch/delphi/MCprod/cern/wphact21/va0e/208/wphact21_nc4f_208_80.4_13449.xsdst ! RUN = 13449 ! NEVT = 1000
FILE = /castor/cern.ch/delphi/MCprod/cern/wphact21/va0e/208/wphact21_nc4f_208_80.4_13450.xsdst ! RUN = 13450 ! NEVT = 1000
FILE = /castor/cern.ch/delphi/MCprod/cern/wphact21/va0e/208/wphact21_nc4f_208_80.4_13451.xsdst ! RUN = 13451 ! NEVT = 1000
FILE = /castor/cern.ch/delphi/MCprod/cern/wphact21/va0e/208/wphact21_nc4f_208_80.4_13452.xsdst ! RUN = 13452 ! NEVT = 1000
FILE = /castor/cern.ch/delphi/MCprod/cern/wphact21/va0e/208/wphact21_nc4f_208_80.4_13453.xsdst ! RUN = 13453 ! NEVT = 1000
FILE = /castor/cern.ch/delphi/MCprod/cern/wphact21/va0e/208/wphact21_nc4f_208_80.4_13454.xsdst ! RUN = 13454 ! NEVT = 1000
FILE = /castor/cern.ch/delphi/MCprod/cern/wphact21/va0e/208/wphact21_nc4f_208_80.4_13455.xsdst ! RUN = 13455 ! NEVT = 999
FILE = /castor/cern.ch/delphi/MCprod/cern/wphact21/va0e/208/wphact21_nc4f_208_80.4_13456.xsdst ! RUN = 13456 ! NEVT = 999
FILE = /castor/cern.ch/delphi/MCprod/cern/wphact21/va0e/208/wphact21_nc4f_208_80.4_13457.xsdst ! RUN = 13457 ! NEVT = 1000
FILE = /castor/cern.ch/delphi/MCprod/cern/wphact21/va0e/208/wphact21_nc4f_208_80.4_13458.xsdst ! RUN = 13458 ! NEVT = 1000
FILE = /castor/cern.ch/delphi/MCprod/cern/wphact21/va0e/208/wphact21_nc4f_208_80.4_13459.xsdst ! RUN = 13459 ! NEVT = 1000
FILE = /castor/cern.ch/delphi/MCprod/cern/wphact21/va0e/208/wphact21_nc4f_208_80.4_13460.xsdst ! RUN = 13460 ! NEVT = 1000
FILE = /castor/cern.ch/delphi/MCprod/cern/wphact21/va0e/208/wphact21_nc4f_208_80.4_13461.xsdst ! RUN = 13461 ! NEVT = 1000
FILE = /castor/cern.ch/delphi/MCprod/cern/wphact21/va0e/208/wphact21_nc4f_208_80.4_13462.xsdst ! RUN = 13462 ! NEVT = 999
FILE = /castor/cern.ch/delphi/MCprod/cern/wphact21/va0e/208/wphact21_nc4f_208_80.4_13463.xsdst ! RUN = 13463 ! NEVT = 1000
FILE = /castor/cern.ch/delphi/MCprod/cern/wphact21/va0e/208/wphact21_nc4f_208_80.4_13464.xsdst ! RUN = 13464 ! NEVT = 1000
FILE = /castor/cern.ch/delphi/MCprod/cern/wphact21/va0e/208/wphact21_nc4f_208_80.4_13465.xsdst ! RUN = 13465 ! NEVT = 1000
FILE = /castor/cern.ch/delphi/MCprod/cern/wphact21/va0e/208/wphact21_nc4f_208_80.4_13466.xsdst ! RUN = 13466 ! NEVT = 999
FILE = /castor/cern.ch/delphi/MCprod/cern/wphact21/va0e/208/wphact21_nc4f_208_80.4_13467.xsdst ! RUN = 13467 ! NEVT = 1000
FILE = /castor/cern.ch/delphi/MCprod/cern/wphact21/va0e/208/wphact21_nc4f_208_80.4_13468.xsdst ! RUN = 13468 ! NEVT = 1000
FILE = /castor/cern.ch/delphi/MCprod/cern/wphact21/va0e/208/wphact21_nc4f_208_80.4_13469.xsdst ! RUN = 13469 ! NEVT = 1000
FILE = /castor/cern.ch/delphi/MCprod/cern/wphact21/va0e/208/wphact21_nc4f_208_80.4_13470.xsdst ! RUN = 13470 ! NEVT = 999
FILE = /castor/cern.ch/delphi/MCprod/cern/wphact21/va0e/208/wphact21_nc4f_208_80.4_13471.xsdst ! RUN = 13471 ! NEVT = 1000
FILE = /castor/cern.ch/delphi/MCprod/cern/wphact21/va0e/208/wphact21_nc4f_208_80.4_13472.xsdst ! RUN = 13472 ! NEVT = 1000
FILE = /castor/cern.ch/delphi/MCprod/cern/wphact21/va0e/208/wphact21_nc4f_208_80.4_13473.xsdst ! RUN = 13473 ! NEVT = 998
FILE = /castor/cern.ch/delphi/MCprod/cern/wphact21/va0e/208/wphact21_nc4f_208_80.4_13474.xsdst ! RUN = 13474 ! NEVT = 1000
FILE = /castor/cern.ch/delphi/MCprod/cern/wphact21/va0e/208/wphact21_nc4f_208_80.4_13475.xsdst ! RUN = 13475 ! NEVT = 1000
FILE = /castor/cern.ch/delphi/MCprod/cern/wphact21/va0e/208/wphact21_nc4f_208_80.4_13476.xsdst ! RUN = 13476 ! NEVT = 1000
FILE = /castor/cern.ch/delphi/MCprod/cern/wphact21/va0e/208/wphact21_nc4f_208_80.4_13477.xsdst ! RUN = 13477 ! NEVT = 1000
FILE = /castor/cern.ch/delphi/MCprod/cern/wphact21/va0e/208/wphact21_nc4f_208_80.4_13478.xsdst ! RUN = 13478 ! NEVT = 1000
FILE = /castor/cern.ch/delphi/MCprod/cern/wphact21/va0e/208/wphact21_nc4f_208_80.4_13479.xsdst ! RUN = 13479 ! NEVT = 1000
FILE = /castor/cern.ch/delphi/MCprod/cern/wphact21/va0e/208/wphact21_nc4f_208_80.4_13480.xsdst ! RUN = 13480 ! NEVT = 999
FILE = /castor/cern.ch/delphi/MCprod/cern/wphact21/va0e/208/wphact21_nc4f_208_80.4_13481.xsdst ! RUN = 13481 ! NEVT = 1000
FILE = /castor/cern.ch/delphi/MCprod/cern/wphact21/va0e/208/wphact21_nc4f_208_80.4_13482.xsdst ! RUN = 13482 ! NEVT = 1000
FILE = /castor/cern.ch/delphi/MCprod/cern/wphact21/va0e/208/wphact21_nc4f_208_80.4_13483.xsdst ! RUN = 13483 ! NEVT = 1000
FILE = /castor/cern.ch/delphi/MCprod/cern/wphact21/va0e/208/wphact21_nc4f_208_80.4_13484.xsdst ! RUN = 13484 ! NEVT = 1000
FILE = /castor/cern.ch/delphi/MCprod/cern/wphact21/va0e/208/wphact21_nc4f_208_80.4_13485.xsdst ! RUN = 13485 ! NEVT = 1000
FILE = /castor/cern.ch/delphi/MCprod/cern/wphact21/va0e/208/wphact21_nc4f_208_80.4_13486.xsdst ! RUN = 13486 ! NEVT = 998
FILE = /castor/cern.ch/delphi/MCprod/cern/wphact21/va0e/208/wphact21_nc4f_208_80.4_13487.xsdst ! RUN = 13487 ! NEVT = 1000
FILE = /castor/cern.ch/delphi/MCprod/cern/wphact21/va0e/208/wphact21_nc4f_208_80.4_13488.xsdst ! RUN = 13488 ! NEVT = 1000
FILE = /castor/cern.ch/delphi/MCprod/cern/wphact21/va0e/208/wphact21_nc4f_208_80.4_13489.xsdst ! RUN = 13489 ! NEVT = 1000
FILE = /castor/cern.ch/delphi/MCprod/cern/wphact21/va0e/208/wphact21_nc4f_208_80.4_13490.xsdst ! RUN = 13490 ! NEVT = 1000
FILE = /castor/cern.ch/delphi/MCprod/cern/wphact21/va0e/208/wphact21_nc4f_208_80.4_13491.xsdst ! RUN = 13491 ! NEVT = 1000
FILE = /castor/cern.ch/delphi/MCprod/cern/wphact21/va0e/208/wphact21_nc4f_208_80.4_13492.xsdst ! RUN = 13492 ! NEVT = 1000
FILE = /castor/cern.ch/delphi/MCprod/cern/wphact21/va0e/208/wphact21_nc4f_208_80.4_13493.xsdst ! RUN = 13493 ! NEVT = 1000
FILE = /castor/cern.ch/delphi/MCprod/cern/wphact21/va0e/208/wphact21_nc4f_208_80.4_13494.xsdst ! RUN = 13494 ! NEVT = 1000
FILE = /castor/cern.ch/delphi/MCprod/cern/wphact21/va0e/208/wphact21_nc4f_208_80.4_13495.xsdst ! RUN = 13495 ! NEVT = 1000
FILE = /castor/cern.ch/delphi/MCprod/cern/wphact21/va0e/208/wphact21_nc4f_208_80.4_13496.xsdst ! RUN = 13496 ! NEVT = 1000
FILE = /castor/cern.ch/delphi/MCprod/cern/wphact21/va0e/208/wphact21_nc4f_208_80.4_13497.xsdst ! RUN = 13497 ! NEVT = 999
FILE = /castor/cern.ch/delphi/MCprod/cern/wphact21/va0e/208/wphact21_nc4f_208_80.4_13498.xsdst ! RUN = 13498 ! NEVT = 1000
FILE = /castor/cern.ch/delphi/MCprod/cern/wphact21/va0e/208/wphact21_nc4f_208_80.4_13499.xsdst ! RUN = 13499 ! NEVT = 1000
FILE = /castor/cern.ch/delphi/MCprod/cern/wphact21/va0e/208/wphact21_nc4f_208_80.4_13500.xsdst ! RUN = 13500 ! NEVT = 1000
