*   Nickname :     xs_wphact23cc_e206.5_m80.4_ca0_1l_e2
*   Generic Name : //CERN/DELPHI/P02_SIMD/XSDST/WPHACT23CC/E206.5/CERN/SUMT/C001-112
*   Description :   Extended Short DST simulation a0e2  done at ecm=206.5 GeV , CERN
*   Comments :     in total 1088551 events in 112 files, time stamp: Mon Sep 23 5:50:34 2002
*
*
*
FILE = /castor/cern.ch/delphi/MCprod/cern/wphact23/va0e/206.5/x2/wphact23_cc_206.5_80.4_10001:10005.xsdst ! RUN = 10001 10005 ! NEVT = 9994
FILE = /castor/cern.ch/delphi/MCprod/cern/wphact23/va0e/206.5/x2/wphact23_cc_206.5_80.4_10006:10010.xsdst ! RUN = 10006 10010 ! NEVT = 8488
FILE = /castor/cern.ch/delphi/MCprod/cern/wphact23/va0e/206.5/x2/wphact23_cc_206.5_80.4_10011:10015.xsdst ! RUN = 10011 10015 ! NEVT = 9995
FILE = /castor/cern.ch/delphi/MCprod/cern/wphact23/va0e/206.5/x2/wphact23_cc_206.5_80.4_10016:10020.xsdst ! RUN = 10016 10020 ! NEVT = 9998
FILE = /castor/cern.ch/delphi/MCprod/cern/wphact23/va0e/206.5/x2/wphact23_cc_206.5_80.4_10021:10025.xsdst ! RUN = 10021 10025 ! NEVT = 9995
FILE = /castor/cern.ch/delphi/MCprod/cern/wphact23/va0e/206.5/x2/wphact23_cc_206.5_80.4_10026:10030.xsdst ! RUN = 10026 10030 ! NEVT = 9996
FILE = /castor/cern.ch/delphi/MCprod/cern/wphact23/va0e/206.5/x2/wphact23_cc_206.5_80.4_10031:10035.xsdst ! RUN = 10031 10035 ! NEVT = 9997
FILE = /castor/cern.ch/delphi/MCprod/cern/wphact23/va0e/206.5/x2/wphact23_cc_206.5_80.4_10036:10040.xsdst ! RUN = 10036 10040 ! NEVT = 9997
FILE = /castor/cern.ch/delphi/MCprod/cern/wphact23/va0e/206.5/x2/wphact23_cc_206.5_80.4_10041:10045.xsdst ! RUN = 10041 10045 ! NEVT = 9996
FILE = /castor/cern.ch/delphi/MCprod/cern/wphact23/va0e/206.5/x2/wphact23_cc_206.5_80.4_10046:10050.xsdst ! RUN = 10046 10050 ! NEVT = 6730
FILE = /castor/cern.ch/delphi/MCprod/cern/wphact23/va0e/206.5/x2/wphact23_cc_206.5_80.4_10051:10055.xsdst ! RUN = 10051 10055 ! NEVT = 9999
FILE = /castor/cern.ch/delphi/MCprod/cern/wphact23/va0e/206.5/x2/wphact23_cc_206.5_80.4_10056:10060.xsdst ! RUN = 10056 10060 ! NEVT = 9992
FILE = /castor/cern.ch/delphi/MCprod/cern/wphact23/va0e/206.5/x2/wphact23_cc_206.5_80.4_10061:10065.xsdst ! RUN = 10061 10065 ! NEVT = 9997
FILE = /castor/cern.ch/delphi/MCprod/cern/wphact23/va0e/206.5/x2/wphact23_cc_206.5_80.4_10066:10070.xsdst ! RUN = 10066 10070 ! NEVT = 9994
FILE = /castor/cern.ch/delphi/MCprod/cern/wphact23/va0e/206.5/x2/wphact23_cc_206.5_80.4_10071:10075.xsdst ! RUN = 10071 10075 ! NEVT = 9993
FILE = /castor/cern.ch/delphi/MCprod/cern/wphact23/va0e/206.5/x2/wphact23_cc_206.5_80.4_10076:10080.xsdst ! RUN = 10076 10080 ! NEVT = 9994
FILE = /castor/cern.ch/delphi/MCprod/cern/wphact23/va0e/206.5/x2/wphact23_cc_206.5_80.4_10081:10085.xsdst ! RUN = 10081 10085 ! NEVT = 9992
FILE = /castor/cern.ch/delphi/MCprod/cern/wphact23/va0e/206.5/x2/wphact23_cc_206.5_80.4_10086:10090.xsdst ! RUN = 10086 10090 ! NEVT = 9997
FILE = /castor/cern.ch/delphi/MCprod/cern/wphact23/va0e/206.5/x2/wphact23_cc_206.5_80.4_10091:10095.xsdst ! RUN = 10091 10095 ! NEVT = 9994
FILE = /castor/cern.ch/delphi/MCprod/cern/wphact23/va0e/206.5/x2/wphact23_cc_206.5_80.4_10096:10100.xsdst ! RUN = 10096 10100 ! NEVT = 9998
FILE = /castor/cern.ch/delphi/MCprod/cern/wphact23/va0e/206.5/x2/wphact23_cc_206.5_80.4_10101:10105.xsdst ! RUN = 10101 10105 ! NEVT = 9997
FILE = /castor/cern.ch/delphi/MCprod/cern/wphact23/va0e/206.5/x2/wphact23_cc_206.5_80.4_10106:10110.xsdst ! RUN = 10106 10110 ! NEVT = 9996
FILE = /castor/cern.ch/delphi/MCprod/cern/wphact23/va0e/206.5/x2/wphact23_cc_206.5_80.4_10111:10115.xsdst ! RUN = 10111 10115 ! NEVT = 9996
FILE = /castor/cern.ch/delphi/MCprod/cern/wphact23/va0e/206.5/x2/wphact23_cc_206.5_80.4_10116:10120.xsdst ! RUN = 10116 10120 ! NEVT = 8193
FILE = /castor/cern.ch/delphi/MCprod/cern/wphact23/va0e/206.5/x2/wphact23_cc_206.5_80.4_10121:10125.xsdst ! RUN = 10121 10125 ! NEVT = 9996
FILE = /castor/cern.ch/delphi/MCprod/cern/wphact23/va0e/206.5/x2/wphact23_cc_206.5_80.4_10126:10130.xsdst ! RUN = 10126 10130 ! NEVT = 9994
FILE = /castor/cern.ch/delphi/MCprod/cern/wphact23/va0e/206.5/x2/wphact23_cc_206.5_80.4_10131:10135.xsdst ! RUN = 10131 10135 ! NEVT = 9997
FILE = /castor/cern.ch/delphi/MCprod/cern/wphact23/va0e/206.5/x2/wphact23_cc_206.5_80.4_10136:10140.xsdst ! RUN = 10136 10140 ! NEVT = 9995
FILE = /castor/cern.ch/delphi/MCprod/cern/wphact23/va0e/206.5/x2/wphact23_cc_206.5_80.4_10141:10145.xsdst ! RUN = 10141 10145 ! NEVT = 9992
FILE = /castor/cern.ch/delphi/MCprod/cern/wphact23/va0e/206.5/x2/wphact23_cc_206.5_80.4_10146:10150.xsdst ! RUN = 10146 10150 ! NEVT = 9993
FILE = /castor/cern.ch/delphi/MCprod/cern/wphact23/va0e/206.5/x2/wphact23_cc_206.5_80.4_10151:10155.xsdst ! RUN = 10151 10155 ! NEVT = 9991
FILE = /castor/cern.ch/delphi/MCprod/cern/wphact23/va0e/206.5/x2/wphact23_cc_206.5_80.4_10156:10160.xsdst ! RUN = 10156 10160 ! NEVT = 9995
FILE = /castor/cern.ch/delphi/MCprod/cern/wphact23/va0e/206.5/x2/wphact23_cc_206.5_80.4_10161:10165.xsdst ! RUN = 10161 10165 ! NEVT = 9992
FILE = /castor/cern.ch/delphi/MCprod/cern/wphact23/va0e/206.5/x2/wphact23_cc_206.5_80.4_10166:10170.xsdst ! RUN = 10166 10170 ! NEVT = 9997
FILE = /castor/cern.ch/delphi/MCprod/cern/wphact23/va0e/206.5/x2/wphact23_cc_206.5_80.4_10171:10175.xsdst ! RUN = 10171 10175 ! NEVT = 9999
FILE = /castor/cern.ch/delphi/MCprod/cern/wphact23/va0e/206.5/x2/wphact23_cc_206.5_80.4_10176:10180.xsdst ! RUN = 10176 10180 ! NEVT = 9996
FILE = /castor/cern.ch/delphi/MCprod/cern/wphact23/va0e/206.5/x2/wphact23_cc_206.5_80.4_10181:10185.xsdst ! RUN = 10181 10185 ! NEVT = 9006
FILE = /castor/cern.ch/delphi/MCprod/cern/wphact23/va0e/206.5/x2/wphact23_cc_206.5_80.4_10186:10190.xsdst ! RUN = 10186 10190 ! NEVT = 9999
FILE = /castor/cern.ch/delphi/MCprod/cern/wphact23/va0e/206.5/x2/wphact23_cc_206.5_80.4_10191:10195.xsdst ! RUN = 10191 10195 ! NEVT = 9991
FILE = /castor/cern.ch/delphi/MCprod/cern/wphact23/va0e/206.5/x2/wphact23_cc_206.5_80.4_10196:10200.xsdst ! RUN = 10196 10200 ! NEVT = 9991
FILE = /castor/cern.ch/delphi/MCprod/cern/wphact23/va0e/206.5/x2/wphact23_cc_206.5_80.4_10201:10205.xsdst ! RUN = 10201 10205 ! NEVT = 9997
FILE = /castor/cern.ch/delphi/MCprod/cern/wphact23/va0e/206.5/x2/wphact23_cc_206.5_80.4_10206:10210.xsdst ! RUN = 10206 10210 ! NEVT = 9994
FILE = /castor/cern.ch/delphi/MCprod/cern/wphact23/va0e/206.5/x2/wphact23_cc_206.5_80.4_10211:10215.xsdst ! RUN = 10211 10215 ! NEVT = 9994
FILE = /castor/cern.ch/delphi/MCprod/cern/wphact23/va0e/206.5/x2/wphact23_cc_206.5_80.4_10216:10220.xsdst ! RUN = 10216 10220 ! NEVT = 9997
FILE = /castor/cern.ch/delphi/MCprod/cern/wphact23/va0e/206.5/x2/wphact23_cc_206.5_80.4_10221:10226.xsdst ! RUN = 10221 10226 ! NEVT = 8803
FILE = /castor/cern.ch/delphi/MCprod/cern/wphact23/va0e/206.5/x2/wphact23_cc_206.5_80.4_10227:10231.xsdst ! RUN = 10227 10231 ! NEVT = 9999
FILE = /castor/cern.ch/delphi/MCprod/cern/wphact23/va0e/206.5/x2/wphact23_cc_206.5_80.4_10232:10236.xsdst ! RUN = 10232 10236 ! NEVT = 9999
FILE = /castor/cern.ch/delphi/MCprod/cern/wphact23/va0e/206.5/x2/wphact23_cc_206.5_80.4_10237:10241.xsdst ! RUN = 10237 10241 ! NEVT = 9994
FILE = /castor/cern.ch/delphi/MCprod/cern/wphact23/va0e/206.5/x2/wphact23_cc_206.5_80.4_10242:10246.xsdst ! RUN = 10242 10246 ! NEVT = 9998
FILE = /castor/cern.ch/delphi/MCprod/cern/wphact23/va0e/206.5/x2/wphact23_cc_206.5_80.4_10247:10251.xsdst ! RUN = 10247 10251 ! NEVT = 9997
FILE = /castor/cern.ch/delphi/MCprod/cern/wphact23/va0e/206.5/x2/wphact23_cc_206.5_80.4_10252:10256.xsdst ! RUN = 10252 10256 ! NEVT = 8511
FILE = /castor/cern.ch/delphi/MCprod/cern/wphact23/va0e/206.5/x2/wphact23_cc_206.5_80.4_10257:10261.xsdst ! RUN = 10257 10261 ! NEVT = 9992
FILE = /castor/cern.ch/delphi/MCprod/cern/wphact23/va0e/206.5/x2/wphact23_cc_206.5_80.4_10262:10266.xsdst ! RUN = 10262 10266 ! NEVT = 9993
FILE = /castor/cern.ch/delphi/MCprod/cern/wphact23/va0e/206.5/x2/wphact23_cc_206.5_80.4_10267:10271.xsdst ! RUN = 10267 10271 ! NEVT = 9993
FILE = /castor/cern.ch/delphi/MCprod/cern/wphact23/va0e/206.5/x2/wphact23_cc_206.5_80.4_10272:10277.xsdst ! RUN = 10272 10277 ! NEVT = 8444
FILE = /castor/cern.ch/delphi/MCprod/cern/wphact23/va0e/206.5/x2/wphact23_cc_206.5_80.4_10278:10282.xsdst ! RUN = 10278 10282 ! NEVT = 8065
FILE = /castor/cern.ch/delphi/MCprod/cern/wphact23/va0e/206.5/x2/wphact23_cc_206.5_80.4_10283:10287.xsdst ! RUN = 10283 10287 ! NEVT = 9993
FILE = /castor/cern.ch/delphi/MCprod/cern/wphact23/va0e/206.5/x2/wphact23_cc_206.5_80.4_10288:10292.xsdst ! RUN = 10288 10292 ! NEVT = 9996
FILE = /castor/cern.ch/delphi/MCprod/cern/wphact23/va0e/206.5/x2/wphact23_cc_206.5_80.4_10293:10297.xsdst ! RUN = 10293 10297 ! NEVT = 9997
FILE = /castor/cern.ch/delphi/MCprod/cern/wphact23/va0e/206.5/x2/wphact23_cc_206.5_80.4_10298:10302.xsdst ! RUN = 10298 10302 ! NEVT = 9997
FILE = /castor/cern.ch/delphi/MCprod/cern/wphact23/va0e/206.5/x2/wphact23_cc_206.5_80.4_10303:10307.xsdst ! RUN = 10303 10307 ! NEVT = 9995
FILE = /castor/cern.ch/delphi/MCprod/cern/wphact23/va0e/206.5/x2/wphact23_cc_206.5_80.4_10308:10312.xsdst ! RUN = 10308 10312 ! NEVT = 9997
FILE = /castor/cern.ch/delphi/MCprod/cern/wphact23/va0e/206.5/x2/wphact23_cc_206.5_80.4_10313:10317.xsdst ! RUN = 10313 10317 ! NEVT = 9993
FILE = /castor/cern.ch/delphi/MCprod/cern/wphact23/va0e/206.5/x2/wphact23_cc_206.5_80.4_10318:10322.xsdst ! RUN = 10318 10322 ! NEVT = 9999
FILE = /castor/cern.ch/delphi/MCprod/cern/wphact23/va0e/206.5/x2/wphact23_cc_206.5_80.4_10323:10327.xsdst ! RUN = 10323 10327 ! NEVT = 9992
FILE = /castor/cern.ch/delphi/MCprod/cern/wphact23/va0e/206.5/x2/wphact23_cc_206.5_80.4_10328:10332.xsdst ! RUN = 10328 10332 ! NEVT = 9995
FILE = /castor/cern.ch/delphi/MCprod/cern/wphact23/va0e/206.5/x2/wphact23_cc_206.5_80.4_10333:10337.xsdst ! RUN = 10333 10337 ! NEVT = 9996
FILE = /castor/cern.ch/delphi/MCprod/cern/wphact23/va0e/206.5/x2/wphact23_cc_206.5_80.4_10338:10342.xsdst ! RUN = 10338 10342 ! NEVT = 9999
FILE = /castor/cern.ch/delphi/MCprod/cern/wphact23/va0e/206.5/x2/wphact23_cc_206.5_80.4_10343:10347.xsdst ! RUN = 10343 10347 ! NEVT = 9468
FILE = /castor/cern.ch/delphi/MCprod/cern/wphact23/va0e/206.5/x2/wphact23_cc_206.5_80.4_10348:10352.xsdst ! RUN = 10348 10352 ! NEVT = 9998
FILE = /castor/cern.ch/delphi/MCprod/cern/wphact23/va0e/206.5/x2/wphact23_cc_206.5_80.4_10353:10357.xsdst ! RUN = 10353 10357 ! NEVT = 9994
FILE = /castor/cern.ch/delphi/MCprod/cern/wphact23/va0e/206.5/x2/wphact23_cc_206.5_80.4_10358:10362.xsdst ! RUN = 10358 10362 ! NEVT = 9994
FILE = /castor/cern.ch/delphi/MCprod/cern/wphact23/va0e/206.5/x2/wphact23_cc_206.5_80.4_10363:10367.xsdst ! RUN = 10363 10367 ! NEVT = 9996
FILE = /castor/cern.ch/delphi/MCprod/cern/wphact23/va0e/206.5/x2/wphact23_cc_206.5_80.4_10368:10372.xsdst ! RUN = 10368 10372 ! NEVT = 9997
FILE = /castor/cern.ch/delphi/MCprod/cern/wphact23/va0e/206.5/x2/wphact23_cc_206.5_80.4_10373:10377.xsdst ! RUN = 10373 10377 ! NEVT = 9993
FILE = /castor/cern.ch/delphi/MCprod/cern/wphact23/va0e/206.5/x2/wphact23_cc_206.5_80.4_10378:10382.xsdst ! RUN = 10378 10382 ! NEVT = 9995
FILE = /castor/cern.ch/delphi/MCprod/cern/wphact23/va0e/206.5/x2/wphact23_cc_206.5_80.4_10383:10387.xsdst ! RUN = 10383 10387 ! NEVT = 9997
FILE = /castor/cern.ch/delphi/MCprod/cern/wphact23/va0e/206.5/x2/wphact23_cc_206.5_80.4_10388:10392.xsdst ! RUN = 10388 10392 ! NEVT = 9992
FILE = /castor/cern.ch/delphi/MCprod/cern/wphact23/va0e/206.5/x2/wphact23_cc_206.5_80.4_10393:10397.xsdst ! RUN = 10393 10397 ! NEVT = 8146
FILE = /castor/cern.ch/delphi/MCprod/cern/wphact23/va0e/206.5/x2/wphact23_cc_206.5_80.4_10398:10402.xsdst ! RUN = 10398 10402 ! NEVT = 9995
FILE = /castor/cern.ch/delphi/MCprod/cern/wphact23/va0e/206.5/x2/wphact23_cc_206.5_80.4_10403:10407.xsdst ! RUN = 10403 10407 ! NEVT = 9994
FILE = /castor/cern.ch/delphi/MCprod/cern/wphact23/va0e/206.5/x2/wphact23_cc_206.5_80.4_10408:10412.xsdst ! RUN = 10408 10412 ! NEVT = 8255
FILE = /castor/cern.ch/delphi/MCprod/cern/wphact23/va0e/206.5/x2/wphact23_cc_206.5_80.4_10413:10417.xsdst ! RUN = 10413 10417 ! NEVT = 9998
FILE = /castor/cern.ch/delphi/MCprod/cern/wphact23/va0e/206.5/x2/wphact23_cc_206.5_80.4_10419:10423.xsdst ! RUN = 10419 10423 ! NEVT = 9282
FILE = /castor/cern.ch/delphi/MCprod/cern/wphact23/va0e/206.5/x2/wphact23_cc_206.5_80.4_10424:10428.xsdst ! RUN = 10424 10428 ! NEVT = 8931
FILE = /castor/cern.ch/delphi/MCprod/cern/wphact23/va0e/206.5/x2/wphact23_cc_206.5_80.4_10429:10433.xsdst ! RUN = 10429 10433 ! NEVT = 9996
FILE = /castor/cern.ch/delphi/MCprod/cern/wphact23/va0e/206.5/x2/wphact23_cc_206.5_80.4_10434:10438.xsdst ! RUN = 10434 10438 ! NEVT = 9874
FILE = /castor/cern.ch/delphi/MCprod/cern/wphact23/va0e/206.5/x2/wphact23_cc_206.5_80.4_10439:10443.xsdst ! RUN = 10439 10443 ! NEVT = 9995
FILE = /castor/cern.ch/delphi/MCprod/cern/wphact23/va0e/206.5/x2/wphact23_cc_206.5_80.4_10444:10448.xsdst ! RUN = 10444 10448 ! NEVT = 9997
FILE = /castor/cern.ch/delphi/MCprod/cern/wphact23/va0e/206.5/x2/wphact23_cc_206.5_80.4_10449:10453.xsdst ! RUN = 10449 10453 ! NEVT = 9999
FILE = /castor/cern.ch/delphi/MCprod/cern/wphact23/va0e/206.5/x2/wphact23_cc_206.5_80.4_10454:10458.xsdst ! RUN = 10454 10458 ! NEVT = 9998
FILE = /castor/cern.ch/delphi/MCprod/cern/wphact23/va0e/206.5/x2/wphact23_cc_206.5_80.4_10459:10463.xsdst ! RUN = 10459 10463 ! NEVT = 9996
FILE = /castor/cern.ch/delphi/MCprod/cern/wphact23/va0e/206.5/x2/wphact23_cc_206.5_80.4_10464:10468.xsdst ! RUN = 10464 10468 ! NEVT = 9995
FILE = /castor/cern.ch/delphi/MCprod/cern/wphact23/va0e/206.5/x2/wphact23_cc_206.5_80.4_10469:10473.xsdst ! RUN = 10469 10473 ! NEVT = 9995
FILE = /castor/cern.ch/delphi/MCprod/cern/wphact23/va0e/206.5/x2/wphact23_cc_206.5_80.4_10474:10478.xsdst ! RUN = 10474 10478 ! NEVT = 9998
FILE = /castor/cern.ch/delphi/MCprod/cern/wphact23/va0e/206.5/x2/wphact23_cc_206.5_80.4_10479:10483.xsdst ! RUN = 10479 10483 ! NEVT = 9997
FILE = /castor/cern.ch/delphi/MCprod/cern/wphact23/va0e/206.5/x2/wphact23_cc_206.5_80.4_10484:10488.xsdst ! RUN = 10484 10488 ! NEVT = 8102
FILE = /castor/cern.ch/delphi/MCprod/cern/wphact23/va0e/206.5/x2/wphact23_cc_206.5_80.4_10489:10493.xsdst ! RUN = 10489 10493 ! NEVT = 9990
FILE = /castor/cern.ch/delphi/MCprod/cern/wphact23/va0e/206.5/x2/wphact23_cc_206.5_80.4_10494:10498.xsdst ! RUN = 10494 10498 ! NEVT = 8671
FILE = /castor/cern.ch/delphi/MCprod/cern/wphact23/va0e/206.5/x2/wphact23_cc_206.5_80.4_10499:10503.xsdst ! RUN = 10499 10503 ! NEVT = 8020
FILE = /castor/cern.ch/delphi/MCprod/cern/wphact23/va0e/206.5/x2/wphact23_cc_206.5_80.4_10504:10508.xsdst ! RUN = 10504 10508 ! NEVT = 9994
FILE = /castor/cern.ch/delphi/MCprod/cern/wphact23/va0e/206.5/x2/wphact23_cc_206.5_80.4_10509:10513.xsdst ! RUN = 10509 10513 ! NEVT = 9996
FILE = /castor/cern.ch/delphi/MCprod/cern/wphact23/va0e/206.5/x2/wphact23_cc_206.5_80.4_10514:10518.xsdst ! RUN = 10514 10518 ! NEVT = 9994
FILE = /castor/cern.ch/delphi/MCprod/cern/wphact23/va0e/206.5/x2/wphact23_cc_206.5_80.4_10519:10523.xsdst ! RUN = 10519 10523 ! NEVT = 9994
FILE = /castor/cern.ch/delphi/MCprod/cern/wphact23/va0e/206.5/x2/wphact23_cc_206.5_80.4_10524:10528.xsdst ! RUN = 10524 10528 ! NEVT = 9996
FILE = /castor/cern.ch/delphi/MCprod/cern/wphact23/va0e/206.5/x2/wphact23_cc_206.5_80.4_10529:10533.xsdst ! RUN = 10529 10533 ! NEVT = 9993
FILE = /castor/cern.ch/delphi/MCprod/cern/wphact23/va0e/206.5/x2/wphact23_cc_206.5_80.4_10534:10538.xsdst ! RUN = 10534 10538 ! NEVT = 9993
FILE = /castor/cern.ch/delphi/MCprod/cern/wphact23/va0e/206.5/x2/wphact23_cc_206.5_80.4_10539:10543.xsdst ! RUN = 10539 10543 ! NEVT = 9991
FILE = /castor/cern.ch/delphi/MCprod/cern/wphact23/va0e/206.5/x2/wphact23_cc_206.5_80.4_10544:10548.xsdst ! RUN = 10544 10548 ! NEVT = 9999
FILE = /castor/cern.ch/delphi/MCprod/cern/wphact23/va0e/206.5/x2/wphact23_cc_206.5_80.4_10549:10553.xsdst ! RUN = 10549 10553 ! NEVT = 9997
FILE = /castor/cern.ch/delphi/MCprod/cern/wphact23/va0e/206.5/x2/wphact23_cc_206.5_80.4_10554:10558.xsdst ! RUN = 10554 10558 ! NEVT = 9997
FILE = /castor/cern.ch/delphi/MCprod/cern/wphact23/va0e/206.5/x2/wphact23_cc_206.5_80.4_10559:10560.xsdst ! RUN = 10559 10560 ! NEVT = 3998
