*
*   Nickname     : xs_wphact21tgccqqmv_e206.5_m3_ca0_1l_e1
*   Generic Name : //CERN/DELPHI/P02_SIMD/XSDST/WPHACT21TGCCQQMV/E206.5/CERN/SUMT/C001-10
*   Description  :  Extended Short DST simulation a0_e1 done at ecms=206.5 , CERN
*---
*   Comments     : in total 9998 events in 10 files time stamp: Wed Jan 30 06:49:00 2002
*---
*
*
*
*
*
FILE = /castor/cern.ch/delphi/MCprod/cern/wphact21tgcc/va0e/206.5/wphact21tgcc_qqmv_206.5_3_26021.xsdst ! RUN = 26021 ! NEVT = 1000
FILE = /castor/cern.ch/delphi/MCprod/cern/wphact21tgcc/va0e/206.5/wphact21tgcc_qqmv_206.5_3_26022.xsdst ! RUN = 26022 ! NEVT = 999
FILE = /castor/cern.ch/delphi/MCprod/cern/wphact21tgcc/va0e/206.5/wphact21tgcc_qqmv_206.5_3_26023.xsdst ! RUN = 26023 ! NEVT = 1000
FILE = /castor/cern.ch/delphi/MCprod/cern/wphact21tgcc/va0e/206.5/wphact21tgcc_qqmv_206.5_3_26024.xsdst ! RUN = 26024 ! NEVT = 1000
FILE = /castor/cern.ch/delphi/MCprod/cern/wphact21tgcc/va0e/206.5/wphact21tgcc_qqmv_206.5_3_26025.xsdst ! RUN = 26025 ! NEVT = 1000
FILE = /castor/cern.ch/delphi/MCprod/cern/wphact21tgcc/va0e/206.5/wphact21tgcc_qqmv_206.5_3_26026.xsdst ! RUN = 26026 ! NEVT = 1000
FILE = /castor/cern.ch/delphi/MCprod/cern/wphact21tgcc/va0e/206.5/wphact21tgcc_qqmv_206.5_3_26027.xsdst ! RUN = 26027 ! NEVT = 1000
FILE = /castor/cern.ch/delphi/MCprod/cern/wphact21tgcc/va0e/206.5/wphact21tgcc_qqmv_206.5_3_26028.xsdst ! RUN = 26028 ! NEVT = 1000
FILE = /castor/cern.ch/delphi/MCprod/cern/wphact21tgcc/va0e/206.5/wphact21tgcc_qqmv_206.5_3_26029.xsdst ! RUN = 26029 ! NEVT = 999
FILE = /castor/cern.ch/delphi/MCprod/cern/wphact21tgcc/va0e/206.5/wphact21tgcc_qqmv_206.5_3_26030.xsdst ! RUN = 26030 ! NEVT = 1000
