*
*   Nickname     : xs_wphact21nc4f_e206.5_m80.4_ca0_1l_e1
*   Generic Name : //CERN/DELPHI/P02_SIMD/XSDST/WPHACT21NC4F/E206.5/CERN/SUMT/C001-474
*   Description  :  Extended Short DST simulation a0_e1 done at ecms=206.5 , CERN
*---
*   Comments     : in total 473767 events in 474 files time stamp: Thu Oct  4 08:12:23 2001
*---
*
*
*
*
*
FILE = /castor/cern.ch/delphi/MCprod/cern/wphact21/va0e/206.5/wphact21_nc4f_206.5_80.4_10001.xsdst ! RUN = 10001 ! NEVT = 999
FILE = /castor/cern.ch/delphi/MCprod/cern/wphact21/va0e/206.5/wphact21_nc4f_206.5_80.4_10002.xsdst ! RUN = 10002 ! NEVT = 1000
FILE = /castor/cern.ch/delphi/MCprod/cern/wphact21/va0e/206.5/wphact21_nc4f_206.5_80.4_10003.xsdst ! RUN = 10003 ! NEVT = 1000
FILE = /castor/cern.ch/delphi/MCprod/cern/wphact21/va0e/206.5/wphact21_nc4f_206.5_80.4_10004.xsdst ! RUN = 10004 ! NEVT = 1000
FILE = /castor/cern.ch/delphi/MCprod/cern/wphact21/va0e/206.5/wphact21_nc4f_206.5_80.4_10005.xsdst ! RUN = 10005 ! NEVT = 1000
FILE = /castor/cern.ch/delphi/MCprod/cern/wphact21/va0e/206.5/wphact21_nc4f_206.5_80.4_10006.xsdst ! RUN = 10006 ! NEVT = 1000
FILE = /castor/cern.ch/delphi/MCprod/cern/wphact21/va0e/206.5/wphact21_nc4f_206.5_80.4_10007.xsdst ! RUN = 10007 ! NEVT = 1000
FILE = /castor/cern.ch/delphi/MCprod/cern/wphact21/va0e/206.5/wphact21_nc4f_206.5_80.4_10008.xsdst ! RUN = 10008 ! NEVT = 1000
FILE = /castor/cern.ch/delphi/MCprod/cern/wphact21/va0e/206.5/wphact21_nc4f_206.5_80.4_10009.xsdst ! RUN = 10009 ! NEVT = 1000
FILE = /castor/cern.ch/delphi/MCprod/cern/wphact21/va0e/206.5/wphact21_nc4f_206.5_80.4_10010.xsdst ! RUN = 10010 ! NEVT = 1000
FILE = /castor/cern.ch/delphi/MCprod/cern/wphact21/va0e/206.5/wphact21_nc4f_206.5_80.4_10011.xsdst ! RUN = 10011 ! NEVT = 1000
FILE = /castor/cern.ch/delphi/MCprod/cern/wphact21/va0e/206.5/wphact21_nc4f_206.5_80.4_10012.xsdst ! RUN = 10012 ! NEVT = 1000
FILE = /castor/cern.ch/delphi/MCprod/cern/wphact21/va0e/206.5/wphact21_nc4f_206.5_80.4_10013.xsdst ! RUN = 10013 ! NEVT = 1000
FILE = /castor/cern.ch/delphi/MCprod/cern/wphact21/va0e/206.5/wphact21_nc4f_206.5_80.4_10014.xsdst ! RUN = 10014 ! NEVT = 1000
FILE = /castor/cern.ch/delphi/MCprod/cern/wphact21/va0e/206.5/wphact21_nc4f_206.5_80.4_10015.xsdst ! RUN = 10015 ! NEVT = 1000
FILE = /castor/cern.ch/delphi/MCprod/cern/wphact21/va0e/206.5/wphact21_nc4f_206.5_80.4_10016.xsdst ! RUN = 10016 ! NEVT = 1000
FILE = /castor/cern.ch/delphi/MCprod/cern/wphact21/va0e/206.5/wphact21_nc4f_206.5_80.4_10017.xsdst ! RUN = 10017 ! NEVT = 1000
FILE = /castor/cern.ch/delphi/MCprod/cern/wphact21/va0e/206.5/wphact21_nc4f_206.5_80.4_10018.xsdst ! RUN = 10018 ! NEVT = 1000
FILE = /castor/cern.ch/delphi/MCprod/cern/wphact21/va0e/206.5/wphact21_nc4f_206.5_80.4_10019.xsdst ! RUN = 10019 ! NEVT = 999
FILE = /castor/cern.ch/delphi/MCprod/cern/wphact21/va0e/206.5/wphact21_nc4f_206.5_80.4_10020.xsdst ! RUN = 10020 ! NEVT = 1000
FILE = /castor/cern.ch/delphi/MCprod/cern/wphact21/va0e/206.5/wphact21_nc4f_206.5_80.4_10021.xsdst ! RUN = 10021 ! NEVT = 999
FILE = /castor/cern.ch/delphi/MCprod/cern/wphact21/va0e/206.5/wphact21_nc4f_206.5_80.4_10022.xsdst ! RUN = 10022 ! NEVT = 1000
FILE = /castor/cern.ch/delphi/MCprod/cern/wphact21/va0e/206.5/wphact21_nc4f_206.5_80.4_10023.xsdst ! RUN = 10023 ! NEVT = 1000
FILE = /castor/cern.ch/delphi/MCprod/cern/wphact21/va0e/206.5/wphact21_nc4f_206.5_80.4_10024.xsdst ! RUN = 10024 ! NEVT = 1000
FILE = /castor/cern.ch/delphi/MCprod/cern/wphact21/va0e/206.5/wphact21_nc4f_206.5_80.4_10025.xsdst ! RUN = 10025 ! NEVT = 1000
FILE = /castor/cern.ch/delphi/MCprod/cern/wphact21/va0e/206.5/wphact21_nc4f_206.5_80.4_10026.xsdst ! RUN = 10026 ! NEVT = 1000
FILE = /castor/cern.ch/delphi/MCprod/cern/wphact21/va0e/206.5/wphact21_nc4f_206.5_80.4_10027.xsdst ! RUN = 10027 ! NEVT = 1000
FILE = /castor/cern.ch/delphi/MCprod/cern/wphact21/va0e/206.5/wphact21_nc4f_206.5_80.4_10030.xsdst ! RUN = 10030 ! NEVT = 1000
FILE = /castor/cern.ch/delphi/MCprod/cern/wphact21/va0e/206.5/wphact21_nc4f_206.5_80.4_10031.xsdst ! RUN = 10031 ! NEVT = 1000
FILE = /castor/cern.ch/delphi/MCprod/cern/wphact21/va0e/206.5/wphact21_nc4f_206.5_80.4_10032.xsdst ! RUN = 10032 ! NEVT = 1000
FILE = /castor/cern.ch/delphi/MCprod/cern/wphact21/va0e/206.5/wphact21_nc4f_206.5_80.4_10034.xsdst ! RUN = 10034 ! NEVT = 1000
FILE = /castor/cern.ch/delphi/MCprod/cern/wphact21/va0e/206.5/wphact21_nc4f_206.5_80.4_10035.xsdst ! RUN = 10035 ! NEVT = 1000
FILE = /castor/cern.ch/delphi/MCprod/cern/wphact21/va0e/206.5/wphact21_nc4f_206.5_80.4_10036.xsdst ! RUN = 10036 ! NEVT = 1000
FILE = /castor/cern.ch/delphi/MCprod/cern/wphact21/va0e/206.5/wphact21_nc4f_206.5_80.4_10037.xsdst ! RUN = 10037 ! NEVT = 1000
FILE = /castor/cern.ch/delphi/MCprod/cern/wphact21/va0e/206.5/wphact21_nc4f_206.5_80.4_10038.xsdst ! RUN = 10038 ! NEVT = 1000
FILE = /castor/cern.ch/delphi/MCprod/cern/wphact21/va0e/206.5/wphact21_nc4f_206.5_80.4_10039.xsdst ! RUN = 10039 ! NEVT = 999
FILE = /castor/cern.ch/delphi/MCprod/cern/wphact21/va0e/206.5/wphact21_nc4f_206.5_80.4_10040.xsdst ! RUN = 10040 ! NEVT = 1000
FILE = /castor/cern.ch/delphi/MCprod/cern/wphact21/va0e/206.5/wphact21_nc4f_206.5_80.4_10041.xsdst ! RUN = 10041 ! NEVT = 1000
FILE = /castor/cern.ch/delphi/MCprod/cern/wphact21/va0e/206.5/wphact21_nc4f_206.5_80.4_10042.xsdst ! RUN = 10042 ! NEVT = 999
FILE = /castor/cern.ch/delphi/MCprod/cern/wphact21/va0e/206.5/wphact21_nc4f_206.5_80.4_10043.xsdst ! RUN = 10043 ! NEVT = 1000
FILE = /castor/cern.ch/delphi/MCprod/cern/wphact21/va0e/206.5/wphact21_nc4f_206.5_80.4_10044.xsdst ! RUN = 10044 ! NEVT = 999
FILE = /castor/cern.ch/delphi/MCprod/cern/wphact21/va0e/206.5/wphact21_nc4f_206.5_80.4_10045.xsdst ! RUN = 10045 ! NEVT = 1000
FILE = /castor/cern.ch/delphi/MCprod/cern/wphact21/va0e/206.5/wphact21_nc4f_206.5_80.4_10046.xsdst ! RUN = 10046 ! NEVT = 1000
FILE = /castor/cern.ch/delphi/MCprod/cern/wphact21/va0e/206.5/wphact21_nc4f_206.5_80.4_10047.xsdst ! RUN = 10047 ! NEVT = 1000
FILE = /castor/cern.ch/delphi/MCprod/cern/wphact21/va0e/206.5/wphact21_nc4f_206.5_80.4_10049.xsdst ! RUN = 10049 ! NEVT = 1000
FILE = /castor/cern.ch/delphi/MCprod/cern/wphact21/va0e/206.5/wphact21_nc4f_206.5_80.4_10051.xsdst ! RUN = 10051 ! NEVT = 1000
FILE = /castor/cern.ch/delphi/MCprod/cern/wphact21/va0e/206.5/wphact21_nc4f_206.5_80.4_10053.xsdst ! RUN = 10053 ! NEVT = 998
FILE = /castor/cern.ch/delphi/MCprod/cern/wphact21/va0e/206.5/wphact21_nc4f_206.5_80.4_10054.xsdst ! RUN = 10054 ! NEVT = 1000
FILE = /castor/cern.ch/delphi/MCprod/cern/wphact21/va0e/206.5/wphact21_nc4f_206.5_80.4_10055.xsdst ! RUN = 10055 ! NEVT = 1000
FILE = /castor/cern.ch/delphi/MCprod/cern/wphact21/va0e/206.5/wphact21_nc4f_206.5_80.4_10056.xsdst ! RUN = 10056 ! NEVT = 999
FILE = /castor/cern.ch/delphi/MCprod/cern/wphact21/va0e/206.5/wphact21_nc4f_206.5_80.4_10057.xsdst ! RUN = 10057 ! NEVT = 1000
FILE = /castor/cern.ch/delphi/MCprod/cern/wphact21/va0e/206.5/wphact21_nc4f_206.5_80.4_10058.xsdst ! RUN = 10058 ! NEVT = 1000
FILE = /castor/cern.ch/delphi/MCprod/cern/wphact21/va0e/206.5/wphact21_nc4f_206.5_80.4_10059.xsdst ! RUN = 10059 ! NEVT = 1000
FILE = /castor/cern.ch/delphi/MCprod/cern/wphact21/va0e/206.5/wphact21_nc4f_206.5_80.4_10061.xsdst ! RUN = 10061 ! NEVT = 999
FILE = /castor/cern.ch/delphi/MCprod/cern/wphact21/va0e/206.5/wphact21_nc4f_206.5_80.4_10063.xsdst ! RUN = 10063 ! NEVT = 1000
FILE = /castor/cern.ch/delphi/MCprod/cern/wphact21/va0e/206.5/wphact21_nc4f_206.5_80.4_10064.xsdst ! RUN = 10064 ! NEVT = 1000
FILE = /castor/cern.ch/delphi/MCprod/cern/wphact21/va0e/206.5/wphact21_nc4f_206.5_80.4_10065.xsdst ! RUN = 10065 ! NEVT = 1000
FILE = /castor/cern.ch/delphi/MCprod/cern/wphact21/va0e/206.5/wphact21_nc4f_206.5_80.4_10066.xsdst ! RUN = 10066 ! NEVT = 999
FILE = /castor/cern.ch/delphi/MCprod/cern/wphact21/va0e/206.5/wphact21_nc4f_206.5_80.4_10067.xsdst ! RUN = 10067 ! NEVT = 1000
FILE = /castor/cern.ch/delphi/MCprod/cern/wphact21/va0e/206.5/wphact21_nc4f_206.5_80.4_10069.xsdst ! RUN = 10069 ! NEVT = 1000
FILE = /castor/cern.ch/delphi/MCprod/cern/wphact21/va0e/206.5/wphact21_nc4f_206.5_80.4_10070.xsdst ! RUN = 10070 ! NEVT = 1000
FILE = /castor/cern.ch/delphi/MCprod/cern/wphact21/va0e/206.5/wphact21_nc4f_206.5_80.4_10072.xsdst ! RUN = 10072 ! NEVT = 1000
FILE = /castor/cern.ch/delphi/MCprod/cern/wphact21/va0e/206.5/wphact21_nc4f_206.5_80.4_10073.xsdst ! RUN = 10073 ! NEVT = 998
FILE = /castor/cern.ch/delphi/MCprod/cern/wphact21/va0e/206.5/wphact21_nc4f_206.5_80.4_10074.xsdst ! RUN = 10074 ! NEVT = 999
FILE = /castor/cern.ch/delphi/MCprod/cern/wphact21/va0e/206.5/wphact21_nc4f_206.5_80.4_10075.xsdst ! RUN = 10075 ! NEVT = 1000
FILE = /castor/cern.ch/delphi/MCprod/cern/wphact21/va0e/206.5/wphact21_nc4f_206.5_80.4_10077.xsdst ! RUN = 10077 ! NEVT = 1000
FILE = /castor/cern.ch/delphi/MCprod/cern/wphact21/va0e/206.5/wphact21_nc4f_206.5_80.4_10078.xsdst ! RUN = 10078 ! NEVT = 1000
FILE = /castor/cern.ch/delphi/MCprod/cern/wphact21/va0e/206.5/wphact21_nc4f_206.5_80.4_10079.xsdst ! RUN = 10079 ! NEVT = 1000
FILE = /castor/cern.ch/delphi/MCprod/cern/wphact21/va0e/206.5/wphact21_nc4f_206.5_80.4_10080.xsdst ! RUN = 10080 ! NEVT = 1000
FILE = /castor/cern.ch/delphi/MCprod/cern/wphact21/va0e/206.5/wphact21_nc4f_206.5_80.4_10081.xsdst ! RUN = 10081 ! NEVT = 1000
FILE = /castor/cern.ch/delphi/MCprod/cern/wphact21/va0e/206.5/wphact21_nc4f_206.5_80.4_10082.xsdst ! RUN = 10082 ! NEVT = 999
FILE = /castor/cern.ch/delphi/MCprod/cern/wphact21/va0e/206.5/wphact21_nc4f_206.5_80.4_10083.xsdst ! RUN = 10083 ! NEVT = 999
FILE = /castor/cern.ch/delphi/MCprod/cern/wphact21/va0e/206.5/wphact21_nc4f_206.5_80.4_10084.xsdst ! RUN = 10084 ! NEVT = 1000
FILE = /castor/cern.ch/delphi/MCprod/cern/wphact21/va0e/206.5/wphact21_nc4f_206.5_80.4_10085.xsdst ! RUN = 10085 ! NEVT = 999
FILE = /castor/cern.ch/delphi/MCprod/cern/wphact21/va0e/206.5/wphact21_nc4f_206.5_80.4_10086.xsdst ! RUN = 10086 ! NEVT = 1000
FILE = /castor/cern.ch/delphi/MCprod/cern/wphact21/va0e/206.5/wphact21_nc4f_206.5_80.4_10087.xsdst ! RUN = 10087 ! NEVT = 999
FILE = /castor/cern.ch/delphi/MCprod/cern/wphact21/va0e/206.5/wphact21_nc4f_206.5_80.4_10088.xsdst ! RUN = 10088 ! NEVT = 1000
FILE = /castor/cern.ch/delphi/MCprod/cern/wphact21/va0e/206.5/wphact21_nc4f_206.5_80.4_10089.xsdst ! RUN = 10089 ! NEVT = 1000
FILE = /castor/cern.ch/delphi/MCprod/cern/wphact21/va0e/206.5/wphact21_nc4f_206.5_80.4_10090.xsdst ! RUN = 10090 ! NEVT = 1000
FILE = /castor/cern.ch/delphi/MCprod/cern/wphact21/va0e/206.5/wphact21_nc4f_206.5_80.4_10091.xsdst ! RUN = 10091 ! NEVT = 1000
FILE = /castor/cern.ch/delphi/MCprod/cern/wphact21/va0e/206.5/wphact21_nc4f_206.5_80.4_10092.xsdst ! RUN = 10092 ! NEVT = 999
FILE = /castor/cern.ch/delphi/MCprod/cern/wphact21/va0e/206.5/wphact21_nc4f_206.5_80.4_10093.xsdst ! RUN = 10093 ! NEVT = 1000
FILE = /castor/cern.ch/delphi/MCprod/cern/wphact21/va0e/206.5/wphact21_nc4f_206.5_80.4_10094.xsdst ! RUN = 10094 ! NEVT = 1000
FILE = /castor/cern.ch/delphi/MCprod/cern/wphact21/va0e/206.5/wphact21_nc4f_206.5_80.4_10095.xsdst ! RUN = 10095 ! NEVT = 1000
FILE = /castor/cern.ch/delphi/MCprod/cern/wphact21/va0e/206.5/wphact21_nc4f_206.5_80.4_10096.xsdst ! RUN = 10096 ! NEVT = 1000
FILE = /castor/cern.ch/delphi/MCprod/cern/wphact21/va0e/206.5/wphact21_nc4f_206.5_80.4_10097.xsdst ! RUN = 10097 ! NEVT = 1000
FILE = /castor/cern.ch/delphi/MCprod/cern/wphact21/va0e/206.5/wphact21_nc4f_206.5_80.4_10098.xsdst ! RUN = 10098 ! NEVT = 1000
FILE = /castor/cern.ch/delphi/MCprod/cern/wphact21/va0e/206.5/wphact21_nc4f_206.5_80.4_10099.xsdst ! RUN = 10099 ! NEVT = 999
FILE = /castor/cern.ch/delphi/MCprod/cern/wphact21/va0e/206.5/wphact21_nc4f_206.5_80.4_10100.xsdst ! RUN = 10100 ! NEVT = 1000
FILE = /castor/cern.ch/delphi/MCprod/cern/wphact21/va0e/206.5/wphact21_nc4f_206.5_80.4_10101.xsdst ! RUN = 10101 ! NEVT = 1000
FILE = /castor/cern.ch/delphi/MCprod/cern/wphact21/va0e/206.5/wphact21_nc4f_206.5_80.4_10102.xsdst ! RUN = 10102 ! NEVT = 1000
FILE = /castor/cern.ch/delphi/MCprod/cern/wphact21/va0e/206.5/wphact21_nc4f_206.5_80.4_10103.xsdst ! RUN = 10103 ! NEVT = 1000
FILE = /castor/cern.ch/delphi/MCprod/cern/wphact21/va0e/206.5/wphact21_nc4f_206.5_80.4_10104.xsdst ! RUN = 10104 ! NEVT = 1000
FILE = /castor/cern.ch/delphi/MCprod/cern/wphact21/va0e/206.5/wphact21_nc4f_206.5_80.4_10105.xsdst ! RUN = 10105 ! NEVT = 998
FILE = /castor/cern.ch/delphi/MCprod/cern/wphact21/va0e/206.5/wphact21_nc4f_206.5_80.4_10106.xsdst ! RUN = 10106 ! NEVT = 1000
FILE = /castor/cern.ch/delphi/MCprod/cern/wphact21/va0e/206.5/wphact21_nc4f_206.5_80.4_10107.xsdst ! RUN = 10107 ! NEVT = 1000
FILE = /castor/cern.ch/delphi/MCprod/cern/wphact21/va0e/206.5/wphact21_nc4f_206.5_80.4_10108.xsdst ! RUN = 10108 ! NEVT = 1000
FILE = /castor/cern.ch/delphi/MCprod/cern/wphact21/va0e/206.5/wphact21_nc4f_206.5_80.4_10109.xsdst ! RUN = 10109 ! NEVT = 1000
FILE = /castor/cern.ch/delphi/MCprod/cern/wphact21/va0e/206.5/wphact21_nc4f_206.5_80.4_10110.xsdst ! RUN = 10110 ! NEVT = 999
FILE = /castor/cern.ch/delphi/MCprod/cern/wphact21/va0e/206.5/wphact21_nc4f_206.5_80.4_10111.xsdst ! RUN = 10111 ! NEVT = 1000
FILE = /castor/cern.ch/delphi/MCprod/cern/wphact21/va0e/206.5/wphact21_nc4f_206.5_80.4_10113.xsdst ! RUN = 10113 ! NEVT = 1000
FILE = /castor/cern.ch/delphi/MCprod/cern/wphact21/va0e/206.5/wphact21_nc4f_206.5_80.4_10114.xsdst ! RUN = 10114 ! NEVT = 1000
FILE = /castor/cern.ch/delphi/MCprod/cern/wphact21/va0e/206.5/wphact21_nc4f_206.5_80.4_10116.xsdst ! RUN = 10116 ! NEVT = 1000
FILE = /castor/cern.ch/delphi/MCprod/cern/wphact21/va0e/206.5/wphact21_nc4f_206.5_80.4_10117.xsdst ! RUN = 10117 ! NEVT = 1000
FILE = /castor/cern.ch/delphi/MCprod/cern/wphact21/va0e/206.5/wphact21_nc4f_206.5_80.4_10118.xsdst ! RUN = 10118 ! NEVT = 999
FILE = /castor/cern.ch/delphi/MCprod/cern/wphact21/va0e/206.5/wphact21_nc4f_206.5_80.4_10119.xsdst ! RUN = 10119 ! NEVT = 999
FILE = /castor/cern.ch/delphi/MCprod/cern/wphact21/va0e/206.5/wphact21_nc4f_206.5_80.4_10120.xsdst ! RUN = 10120 ! NEVT = 1000
FILE = /castor/cern.ch/delphi/MCprod/cern/wphact21/va0e/206.5/wphact21_nc4f_206.5_80.4_10121.xsdst ! RUN = 10121 ! NEVT = 999
FILE = /castor/cern.ch/delphi/MCprod/cern/wphact21/va0e/206.5/wphact21_nc4f_206.5_80.4_10122.xsdst ! RUN = 10122 ! NEVT = 1000
FILE = /castor/cern.ch/delphi/MCprod/cern/wphact21/va0e/206.5/wphact21_nc4f_206.5_80.4_10123.xsdst ! RUN = 10123 ! NEVT = 1000
FILE = /castor/cern.ch/delphi/MCprod/cern/wphact21/va0e/206.5/wphact21_nc4f_206.5_80.4_10124.xsdst ! RUN = 10124 ! NEVT = 1000
FILE = /castor/cern.ch/delphi/MCprod/cern/wphact21/va0e/206.5/wphact21_nc4f_206.5_80.4_10125.xsdst ! RUN = 10125 ! NEVT = 1000
FILE = /castor/cern.ch/delphi/MCprod/cern/wphact21/va0e/206.5/wphact21_nc4f_206.5_80.4_10126.xsdst ! RUN = 10126 ! NEVT = 1000
FILE = /castor/cern.ch/delphi/MCprod/cern/wphact21/va0e/206.5/wphact21_nc4f_206.5_80.4_10127.xsdst ! RUN = 10127 ! NEVT = 1000
FILE = /castor/cern.ch/delphi/MCprod/cern/wphact21/va0e/206.5/wphact21_nc4f_206.5_80.4_10128.xsdst ! RUN = 10128 ! NEVT = 999
FILE = /castor/cern.ch/delphi/MCprod/cern/wphact21/va0e/206.5/wphact21_nc4f_206.5_80.4_10129.xsdst ! RUN = 10129 ! NEVT = 999
FILE = /castor/cern.ch/delphi/MCprod/cern/wphact21/va0e/206.5/wphact21_nc4f_206.5_80.4_10130.xsdst ! RUN = 10130 ! NEVT = 1000
FILE = /castor/cern.ch/delphi/MCprod/cern/wphact21/va0e/206.5/wphact21_nc4f_206.5_80.4_10131.xsdst ! RUN = 10131 ! NEVT = 1000
FILE = /castor/cern.ch/delphi/MCprod/cern/wphact21/va0e/206.5/wphact21_nc4f_206.5_80.4_10132.xsdst ! RUN = 10132 ! NEVT = 998
FILE = /castor/cern.ch/delphi/MCprod/cern/wphact21/va0e/206.5/wphact21_nc4f_206.5_80.4_10133.xsdst ! RUN = 10133 ! NEVT = 1000
FILE = /castor/cern.ch/delphi/MCprod/cern/wphact21/va0e/206.5/wphact21_nc4f_206.5_80.4_10135.xsdst ! RUN = 10135 ! NEVT = 1000
FILE = /castor/cern.ch/delphi/MCprod/cern/wphact21/va0e/206.5/wphact21_nc4f_206.5_80.4_10140.xsdst ! RUN = 10140 ! NEVT = 1000
FILE = /castor/cern.ch/delphi/MCprod/cern/wphact21/va0e/206.5/wphact21_nc4f_206.5_80.4_10141.xsdst ! RUN = 10141 ! NEVT = 1000
FILE = /castor/cern.ch/delphi/MCprod/cern/wphact21/va0e/206.5/wphact21_nc4f_206.5_80.4_10143.xsdst ! RUN = 10143 ! NEVT = 999
FILE = /castor/cern.ch/delphi/MCprod/cern/wphact21/va0e/206.5/wphact21_nc4f_206.5_80.4_10145.xsdst ! RUN = 10145 ! NEVT = 999
FILE = /castor/cern.ch/delphi/MCprod/cern/wphact21/va0e/206.5/wphact21_nc4f_206.5_80.4_10146.xsdst ! RUN = 10146 ! NEVT = 1000
FILE = /castor/cern.ch/delphi/MCprod/cern/wphact21/va0e/206.5/wphact21_nc4f_206.5_80.4_10147.xsdst ! RUN = 10147 ! NEVT = 1000
FILE = /castor/cern.ch/delphi/MCprod/cern/wphact21/va0e/206.5/wphact21_nc4f_206.5_80.4_10148.xsdst ! RUN = 10148 ! NEVT = 999
FILE = /castor/cern.ch/delphi/MCprod/cern/wphact21/va0e/206.5/wphact21_nc4f_206.5_80.4_10149.xsdst ! RUN = 10149 ! NEVT = 1000
FILE = /castor/cern.ch/delphi/MCprod/cern/wphact21/va0e/206.5/wphact21_nc4f_206.5_80.4_10150.xsdst ! RUN = 10150 ! NEVT = 999
FILE = /castor/cern.ch/delphi/MCprod/cern/wphact21/va0e/206.5/wphact21_nc4f_206.5_80.4_10151.xsdst ! RUN = 10151 ! NEVT = 1000
FILE = /castor/cern.ch/delphi/MCprod/cern/wphact21/va0e/206.5/wphact21_nc4f_206.5_80.4_10152.xsdst ! RUN = 10152 ! NEVT = 1000
FILE = /castor/cern.ch/delphi/MCprod/cern/wphact21/va0e/206.5/wphact21_nc4f_206.5_80.4_10153.xsdst ! RUN = 10153 ! NEVT = 1000
FILE = /castor/cern.ch/delphi/MCprod/cern/wphact21/va0e/206.5/wphact21_nc4f_206.5_80.4_10154.xsdst ! RUN = 10154 ! NEVT = 1000
FILE = /castor/cern.ch/delphi/MCprod/cern/wphact21/va0e/206.5/wphact21_nc4f_206.5_80.4_10155.xsdst ! RUN = 10155 ! NEVT = 1000
FILE = /castor/cern.ch/delphi/MCprod/cern/wphact21/va0e/206.5/wphact21_nc4f_206.5_80.4_10156.xsdst ! RUN = 10156 ! NEVT = 999
FILE = /castor/cern.ch/delphi/MCprod/cern/wphact21/va0e/206.5/wphact21_nc4f_206.5_80.4_10157.xsdst ! RUN = 10157 ! NEVT = 999
FILE = /castor/cern.ch/delphi/MCprod/cern/wphact21/va0e/206.5/wphact21_nc4f_206.5_80.4_10158.xsdst ! RUN = 10158 ! NEVT = 999
FILE = /castor/cern.ch/delphi/MCprod/cern/wphact21/va0e/206.5/wphact21_nc4f_206.5_80.4_10159.xsdst ! RUN = 10159 ! NEVT = 999
FILE = /castor/cern.ch/delphi/MCprod/cern/wphact21/va0e/206.5/wphact21_nc4f_206.5_80.4_10160.xsdst ! RUN = 10160 ! NEVT = 1000
FILE = /castor/cern.ch/delphi/MCprod/cern/wphact21/va0e/206.5/wphact21_nc4f_206.5_80.4_10161.xsdst ! RUN = 10161 ! NEVT = 1000
FILE = /castor/cern.ch/delphi/MCprod/cern/wphact21/va0e/206.5/wphact21_nc4f_206.5_80.4_10162.xsdst ! RUN = 10162 ! NEVT = 1000
FILE = /castor/cern.ch/delphi/MCprod/cern/wphact21/va0e/206.5/wphact21_nc4f_206.5_80.4_10163.xsdst ! RUN = 10163 ! NEVT = 1000
FILE = /castor/cern.ch/delphi/MCprod/cern/wphact21/va0e/206.5/wphact21_nc4f_206.5_80.4_10164.xsdst ! RUN = 10164 ! NEVT = 1000
FILE = /castor/cern.ch/delphi/MCprod/cern/wphact21/va0e/206.5/wphact21_nc4f_206.5_80.4_10165.xsdst ! RUN = 10165 ! NEVT = 1000
FILE = /castor/cern.ch/delphi/MCprod/cern/wphact21/va0e/206.5/wphact21_nc4f_206.5_80.4_10166.xsdst ! RUN = 10166 ! NEVT = 1000
FILE = /castor/cern.ch/delphi/MCprod/cern/wphact21/va0e/206.5/wphact21_nc4f_206.5_80.4_10167.xsdst ! RUN = 10167 ! NEVT = 1000
FILE = /castor/cern.ch/delphi/MCprod/cern/wphact21/va0e/206.5/wphact21_nc4f_206.5_80.4_10168.xsdst ! RUN = 10168 ! NEVT = 999
FILE = /castor/cern.ch/delphi/MCprod/cern/wphact21/va0e/206.5/wphact21_nc4f_206.5_80.4_10169.xsdst ! RUN = 10169 ! NEVT = 1000
FILE = /castor/cern.ch/delphi/MCprod/cern/wphact21/va0e/206.5/wphact21_nc4f_206.5_80.4_10170.xsdst ! RUN = 10170 ! NEVT = 1000
FILE = /castor/cern.ch/delphi/MCprod/cern/wphact21/va0e/206.5/wphact21_nc4f_206.5_80.4_10171.xsdst ! RUN = 10171 ! NEVT = 1000
FILE = /castor/cern.ch/delphi/MCprod/cern/wphact21/va0e/206.5/wphact21_nc4f_206.5_80.4_10172.xsdst ! RUN = 10172 ! NEVT = 1000
FILE = /castor/cern.ch/delphi/MCprod/cern/wphact21/va0e/206.5/wphact21_nc4f_206.5_80.4_10173.xsdst ! RUN = 10173 ! NEVT = 1000
FILE = /castor/cern.ch/delphi/MCprod/cern/wphact21/va0e/206.5/wphact21_nc4f_206.5_80.4_10174.xsdst ! RUN = 10174 ! NEVT = 999
FILE = /castor/cern.ch/delphi/MCprod/cern/wphact21/va0e/206.5/wphact21_nc4f_206.5_80.4_10175.xsdst ! RUN = 10175 ! NEVT = 1000
FILE = /castor/cern.ch/delphi/MCprod/cern/wphact21/va0e/206.5/wphact21_nc4f_206.5_80.4_10176.xsdst ! RUN = 10176 ! NEVT = 1000
FILE = /castor/cern.ch/delphi/MCprod/cern/wphact21/va0e/206.5/wphact21_nc4f_206.5_80.4_10177.xsdst ! RUN = 10177 ! NEVT = 1000
FILE = /castor/cern.ch/delphi/MCprod/cern/wphact21/va0e/206.5/wphact21_nc4f_206.5_80.4_10178.xsdst ! RUN = 10178 ! NEVT = 1000
FILE = /castor/cern.ch/delphi/MCprod/cern/wphact21/va0e/206.5/wphact21_nc4f_206.5_80.4_10179.xsdst ! RUN = 10179 ! NEVT = 1000
FILE = /castor/cern.ch/delphi/MCprod/cern/wphact21/va0e/206.5/wphact21_nc4f_206.5_80.4_10180.xsdst ! RUN = 10180 ! NEVT = 1000
FILE = /castor/cern.ch/delphi/MCprod/cern/wphact21/va0e/206.5/wphact21_nc4f_206.5_80.4_10181.xsdst ! RUN = 10181 ! NEVT = 1000
FILE = /castor/cern.ch/delphi/MCprod/cern/wphact21/va0e/206.5/wphact21_nc4f_206.5_80.4_10182.xsdst ! RUN = 10182 ! NEVT = 1000
FILE = /castor/cern.ch/delphi/MCprod/cern/wphact21/va0e/206.5/wphact21_nc4f_206.5_80.4_10183.xsdst ! RUN = 10183 ! NEVT = 1000
FILE = /castor/cern.ch/delphi/MCprod/cern/wphact21/va0e/206.5/wphact21_nc4f_206.5_80.4_10184.xsdst ! RUN = 10184 ! NEVT = 1000
FILE = /castor/cern.ch/delphi/MCprod/cern/wphact21/va0e/206.5/wphact21_nc4f_206.5_80.4_10185.xsdst ! RUN = 10185 ! NEVT = 1000
FILE = /castor/cern.ch/delphi/MCprod/cern/wphact21/va0e/206.5/wphact21_nc4f_206.5_80.4_10186.xsdst ! RUN = 10186 ! NEVT = 1000
FILE = /castor/cern.ch/delphi/MCprod/cern/wphact21/va0e/206.5/wphact21_nc4f_206.5_80.4_10187.xsdst ! RUN = 10187 ! NEVT = 999
FILE = /castor/cern.ch/delphi/MCprod/cern/wphact21/va0e/206.5/wphact21_nc4f_206.5_80.4_10188.xsdst ! RUN = 10188 ! NEVT = 1000
FILE = /castor/cern.ch/delphi/MCprod/cern/wphact21/va0e/206.5/wphact21_nc4f_206.5_80.4_10189.xsdst ! RUN = 10189 ! NEVT = 1000
FILE = /castor/cern.ch/delphi/MCprod/cern/wphact21/va0e/206.5/wphact21_nc4f_206.5_80.4_10190.xsdst ! RUN = 10190 ! NEVT = 1000
FILE = /castor/cern.ch/delphi/MCprod/cern/wphact21/va0e/206.5/wphact21_nc4f_206.5_80.4_10191.xsdst ! RUN = 10191 ! NEVT = 1000
FILE = /castor/cern.ch/delphi/MCprod/cern/wphact21/va0e/206.5/wphact21_nc4f_206.5_80.4_10192.xsdst ! RUN = 10192 ! NEVT = 1000
FILE = /castor/cern.ch/delphi/MCprod/cern/wphact21/va0e/206.5/wphact21_nc4f_206.5_80.4_10193.xsdst ! RUN = 10193 ! NEVT = 999
FILE = /castor/cern.ch/delphi/MCprod/cern/wphact21/va0e/206.5/wphact21_nc4f_206.5_80.4_10194.xsdst ! RUN = 10194 ! NEVT = 1000
FILE = /castor/cern.ch/delphi/MCprod/cern/wphact21/va0e/206.5/wphact21_nc4f_206.5_80.4_10195.xsdst ! RUN = 10195 ! NEVT = 999
FILE = /castor/cern.ch/delphi/MCprod/cern/wphact21/va0e/206.5/wphact21_nc4f_206.5_80.4_10196.xsdst ! RUN = 10196 ! NEVT = 1000
FILE = /castor/cern.ch/delphi/MCprod/cern/wphact21/va0e/206.5/wphact21_nc4f_206.5_80.4_10197.xsdst ! RUN = 10197 ! NEVT = 999
FILE = /castor/cern.ch/delphi/MCprod/cern/wphact21/va0e/206.5/wphact21_nc4f_206.5_80.4_10198.xsdst ! RUN = 10198 ! NEVT = 1000
FILE = /castor/cern.ch/delphi/MCprod/cern/wphact21/va0e/206.5/wphact21_nc4f_206.5_80.4_10199.xsdst ! RUN = 10199 ! NEVT = 999
FILE = /castor/cern.ch/delphi/MCprod/cern/wphact21/va0e/206.5/wphact21_nc4f_206.5_80.4_10200.xsdst ! RUN = 10200 ! NEVT = 1000
FILE = /castor/cern.ch/delphi/MCprod/cern/wphact21/va0e/206.5/wphact21_nc4f_206.5_80.4_10201.xsdst ! RUN = 10201 ! NEVT = 1000
FILE = /castor/cern.ch/delphi/MCprod/cern/wphact21/va0e/206.5/wphact21_nc4f_206.5_80.4_10202.xsdst ! RUN = 10202 ! NEVT = 1000
FILE = /castor/cern.ch/delphi/MCprod/cern/wphact21/va0e/206.5/wphact21_nc4f_206.5_80.4_10203.xsdst ! RUN = 10203 ! NEVT = 1000
FILE = /castor/cern.ch/delphi/MCprod/cern/wphact21/va0e/206.5/wphact21_nc4f_206.5_80.4_10204.xsdst ! RUN = 10204 ! NEVT = 999
FILE = /castor/cern.ch/delphi/MCprod/cern/wphact21/va0e/206.5/wphact21_nc4f_206.5_80.4_10205.xsdst ! RUN = 10205 ! NEVT = 1000
FILE = /castor/cern.ch/delphi/MCprod/cern/wphact21/va0e/206.5/wphact21_nc4f_206.5_80.4_10206.xsdst ! RUN = 10206 ! NEVT = 999
FILE = /castor/cern.ch/delphi/MCprod/cern/wphact21/va0e/206.5/wphact21_nc4f_206.5_80.4_10207.xsdst ! RUN = 10207 ! NEVT = 1000
FILE = /castor/cern.ch/delphi/MCprod/cern/wphact21/va0e/206.5/wphact21_nc4f_206.5_80.4_10208.xsdst ! RUN = 10208 ! NEVT = 1000
FILE = /castor/cern.ch/delphi/MCprod/cern/wphact21/va0e/206.5/wphact21_nc4f_206.5_80.4_10209.xsdst ! RUN = 10209 ! NEVT = 999
FILE = /castor/cern.ch/delphi/MCprod/cern/wphact21/va0e/206.5/wphact21_nc4f_206.5_80.4_10210.xsdst ! RUN = 10210 ! NEVT = 1000
FILE = /castor/cern.ch/delphi/MCprod/cern/wphact21/va0e/206.5/wphact21_nc4f_206.5_80.4_10211.xsdst ! RUN = 10211 ! NEVT = 1000
FILE = /castor/cern.ch/delphi/MCprod/cern/wphact21/va0e/206.5/wphact21_nc4f_206.5_80.4_10212.xsdst ! RUN = 10212 ! NEVT = 999
FILE = /castor/cern.ch/delphi/MCprod/cern/wphact21/va0e/206.5/wphact21_nc4f_206.5_80.4_10213.xsdst ! RUN = 10213 ! NEVT = 999
FILE = /castor/cern.ch/delphi/MCprod/cern/wphact21/va0e/206.5/wphact21_nc4f_206.5_80.4_10214.xsdst ! RUN = 10214 ! NEVT = 1000
FILE = /castor/cern.ch/delphi/MCprod/cern/wphact21/va0e/206.5/wphact21_nc4f_206.5_80.4_10215.xsdst ! RUN = 10215 ! NEVT = 1000
FILE = /castor/cern.ch/delphi/MCprod/cern/wphact21/va0e/206.5/wphact21_nc4f_206.5_80.4_10216.xsdst ! RUN = 10216 ! NEVT = 998
FILE = /castor/cern.ch/delphi/MCprod/cern/wphact21/va0e/206.5/wphact21_nc4f_206.5_80.4_10217.xsdst ! RUN = 10217 ! NEVT = 898
FILE = /castor/cern.ch/delphi/MCprod/cern/wphact21/va0e/206.5/wphact21_nc4f_206.5_80.4_10218.xsdst ! RUN = 10218 ! NEVT = 1000
FILE = /castor/cern.ch/delphi/MCprod/cern/wphact21/va0e/206.5/wphact21_nc4f_206.5_80.4_10219.xsdst ! RUN = 10219 ! NEVT = 1000
FILE = /castor/cern.ch/delphi/MCprod/cern/wphact21/va0e/206.5/wphact21_nc4f_206.5_80.4_10220.xsdst ! RUN = 10220 ! NEVT = 1000
FILE = /castor/cern.ch/delphi/MCprod/cern/wphact21/va0e/206.5/wphact21_nc4f_206.5_80.4_10221.xsdst ! RUN = 10221 ! NEVT = 1000
FILE = /castor/cern.ch/delphi/MCprod/cern/wphact21/va0e/206.5/wphact21_nc4f_206.5_80.4_10222.xsdst ! RUN = 10222 ! NEVT = 1000
FILE = /castor/cern.ch/delphi/MCprod/cern/wphact21/va0e/206.5/wphact21_nc4f_206.5_80.4_10223.xsdst ! RUN = 10223 ! NEVT = 1000
FILE = /castor/cern.ch/delphi/MCprod/cern/wphact21/va0e/206.5/wphact21_nc4f_206.5_80.4_10225.xsdst ! RUN = 10225 ! NEVT = 1000
FILE = /castor/cern.ch/delphi/MCprod/cern/wphact21/va0e/206.5/wphact21_nc4f_206.5_80.4_10226.xsdst ! RUN = 10226 ! NEVT = 999
FILE = /castor/cern.ch/delphi/MCprod/cern/wphact21/va0e/206.5/wphact21_nc4f_206.5_80.4_10227.xsdst ! RUN = 10227 ! NEVT = 1000
FILE = /castor/cern.ch/delphi/MCprod/cern/wphact21/va0e/206.5/wphact21_nc4f_206.5_80.4_10228.xsdst ! RUN = 10228 ! NEVT = 1000
FILE = /castor/cern.ch/delphi/MCprod/cern/wphact21/va0e/206.5/wphact21_nc4f_206.5_80.4_10230.xsdst ! RUN = 10230 ! NEVT = 1000
FILE = /castor/cern.ch/delphi/MCprod/cern/wphact21/va0e/206.5/wphact21_nc4f_206.5_80.4_10231.xsdst ! RUN = 10231 ! NEVT = 1000
FILE = /castor/cern.ch/delphi/MCprod/cern/wphact21/va0e/206.5/wphact21_nc4f_206.5_80.4_10233.xsdst ! RUN = 10233 ! NEVT = 1000
FILE = /castor/cern.ch/delphi/MCprod/cern/wphact21/va0e/206.5/wphact21_nc4f_206.5_80.4_10234.xsdst ! RUN = 10234 ! NEVT = 999
FILE = /castor/cern.ch/delphi/MCprod/cern/wphact21/va0e/206.5/wphact21_nc4f_206.5_80.4_10235.xsdst ! RUN = 10235 ! NEVT = 1000
FILE = /castor/cern.ch/delphi/MCprod/cern/wphact21/va0e/206.5/wphact21_nc4f_206.5_80.4_10236.xsdst ! RUN = 10236 ! NEVT = 999
FILE = /castor/cern.ch/delphi/MCprod/cern/wphact21/va0e/206.5/wphact21_nc4f_206.5_80.4_10237.xsdst ! RUN = 10237 ! NEVT = 1000
FILE = /castor/cern.ch/delphi/MCprod/cern/wphact21/va0e/206.5/wphact21_nc4f_206.5_80.4_10238.xsdst ! RUN = 10238 ! NEVT = 999
FILE = /castor/cern.ch/delphi/MCprod/cern/wphact21/va0e/206.5/wphact21_nc4f_206.5_80.4_10239.xsdst ! RUN = 10239 ! NEVT = 1000
FILE = /castor/cern.ch/delphi/MCprod/cern/wphact21/va0e/206.5/wphact21_nc4f_206.5_80.4_10240.xsdst ! RUN = 10240 ! NEVT = 1000
FILE = /castor/cern.ch/delphi/MCprod/cern/wphact21/va0e/206.5/wphact21_nc4f_206.5_80.4_10241.xsdst ! RUN = 10241 ! NEVT = 999
FILE = /castor/cern.ch/delphi/MCprod/cern/wphact21/va0e/206.5/wphact21_nc4f_206.5_80.4_10242.xsdst ! RUN = 10242 ! NEVT = 1000
FILE = /castor/cern.ch/delphi/MCprod/cern/wphact21/va0e/206.5/wphact21_nc4f_206.5_80.4_10244.xsdst ! RUN = 10244 ! NEVT = 1000
FILE = /castor/cern.ch/delphi/MCprod/cern/wphact21/va0e/206.5/wphact21_nc4f_206.5_80.4_10246.xsdst ! RUN = 10246 ! NEVT = 1000
FILE = /castor/cern.ch/delphi/MCprod/cern/wphact21/va0e/206.5/wphact21_nc4f_206.5_80.4_10247.xsdst ! RUN = 10247 ! NEVT = 1000
FILE = /castor/cern.ch/delphi/MCprod/cern/wphact21/va0e/206.5/wphact21_nc4f_206.5_80.4_10248.xsdst ! RUN = 10248 ! NEVT = 1000
FILE = /castor/cern.ch/delphi/MCprod/cern/wphact21/va0e/206.5/wphact21_nc4f_206.5_80.4_10249.xsdst ! RUN = 10249 ! NEVT = 1000
FILE = /castor/cern.ch/delphi/MCprod/cern/wphact21/va0e/206.5/wphact21_nc4f_206.5_80.4_10250.xsdst ! RUN = 10250 ! NEVT = 1000
FILE = /castor/cern.ch/delphi/MCprod/cern/wphact21/va0e/206.5/wphact21_nc4f_206.5_80.4_10251.xsdst ! RUN = 10251 ! NEVT = 1000
FILE = /castor/cern.ch/delphi/MCprod/cern/wphact21/va0e/206.5/wphact21_nc4f_206.5_80.4_10252.xsdst ! RUN = 10252 ! NEVT = 1000
FILE = /castor/cern.ch/delphi/MCprod/cern/wphact21/va0e/206.5/wphact21_nc4f_206.5_80.4_10253.xsdst ! RUN = 10253 ! NEVT = 1000
FILE = /castor/cern.ch/delphi/MCprod/cern/wphact21/va0e/206.5/wphact21_nc4f_206.5_80.4_10254.xsdst ! RUN = 10254 ! NEVT = 1000
FILE = /castor/cern.ch/delphi/MCprod/cern/wphact21/va0e/206.5/wphact21_nc4f_206.5_80.4_10255.xsdst ! RUN = 10255 ! NEVT = 998
FILE = /castor/cern.ch/delphi/MCprod/cern/wphact21/va0e/206.5/wphact21_nc4f_206.5_80.4_10256.xsdst ! RUN = 10256 ! NEVT = 999
FILE = /castor/cern.ch/delphi/MCprod/cern/wphact21/va0e/206.5/wphact21_nc4f_206.5_80.4_10257.xsdst ! RUN = 10257 ! NEVT = 1000
FILE = /castor/cern.ch/delphi/MCprod/cern/wphact21/va0e/206.5/wphact21_nc4f_206.5_80.4_10258.xsdst ! RUN = 10258 ! NEVT = 999
FILE = /castor/cern.ch/delphi/MCprod/cern/wphact21/va0e/206.5/wphact21_nc4f_206.5_80.4_10259.xsdst ! RUN = 10259 ! NEVT = 1000
FILE = /castor/cern.ch/delphi/MCprod/cern/wphact21/va0e/206.5/wphact21_nc4f_206.5_80.4_10260.xsdst ! RUN = 10260 ! NEVT = 1000
FILE = /castor/cern.ch/delphi/MCprod/cern/wphact21/va0e/206.5/wphact21_nc4f_206.5_80.4_10261.xsdst ! RUN = 10261 ! NEVT = 1000
FILE = /castor/cern.ch/delphi/MCprod/cern/wphact21/va0e/206.5/wphact21_nc4f_206.5_80.4_10262.xsdst ! RUN = 10262 ! NEVT = 1000
FILE = /castor/cern.ch/delphi/MCprod/cern/wphact21/va0e/206.5/wphact21_nc4f_206.5_80.4_10263.xsdst ! RUN = 10263 ! NEVT = 1000
FILE = /castor/cern.ch/delphi/MCprod/cern/wphact21/va0e/206.5/wphact21_nc4f_206.5_80.4_10264.xsdst ! RUN = 10264 ! NEVT = 999
FILE = /castor/cern.ch/delphi/MCprod/cern/wphact21/va0e/206.5/wphact21_nc4f_206.5_80.4_10265.xsdst ! RUN = 10265 ! NEVT = 999
FILE = /castor/cern.ch/delphi/MCprod/cern/wphact21/va0e/206.5/wphact21_nc4f_206.5_80.4_10266.xsdst ! RUN = 10266 ! NEVT = 1000
FILE = /castor/cern.ch/delphi/MCprod/cern/wphact21/va0e/206.5/wphact21_nc4f_206.5_80.4_10267.xsdst ! RUN = 10267 ! NEVT = 999
FILE = /castor/cern.ch/delphi/MCprod/cern/wphact21/va0e/206.5/wphact21_nc4f_206.5_80.4_10268.xsdst ! RUN = 10268 ! NEVT = 1000
FILE = /castor/cern.ch/delphi/MCprod/cern/wphact21/va0e/206.5/wphact21_nc4f_206.5_80.4_10269.xsdst ! RUN = 10269 ! NEVT = 1000
FILE = /castor/cern.ch/delphi/MCprod/cern/wphact21/va0e/206.5/wphact21_nc4f_206.5_80.4_10270.xsdst ! RUN = 10270 ! NEVT = 1000
FILE = /castor/cern.ch/delphi/MCprod/cern/wphact21/va0e/206.5/wphact21_nc4f_206.5_80.4_10271.xsdst ! RUN = 10271 ! NEVT = 1000
FILE = /castor/cern.ch/delphi/MCprod/cern/wphact21/va0e/206.5/wphact21_nc4f_206.5_80.4_10272.xsdst ! RUN = 10272 ! NEVT = 1000
FILE = /castor/cern.ch/delphi/MCprod/cern/wphact21/va0e/206.5/wphact21_nc4f_206.5_80.4_10273.xsdst ! RUN = 10273 ! NEVT = 1000
FILE = /castor/cern.ch/delphi/MCprod/cern/wphact21/va0e/206.5/wphact21_nc4f_206.5_80.4_10274.xsdst ! RUN = 10274 ! NEVT = 999
FILE = /castor/cern.ch/delphi/MCprod/cern/wphact21/va0e/206.5/wphact21_nc4f_206.5_80.4_10275.xsdst ! RUN = 10275 ! NEVT = 1000
FILE = /castor/cern.ch/delphi/MCprod/cern/wphact21/va0e/206.5/wphact21_nc4f_206.5_80.4_10276.xsdst ! RUN = 10276 ! NEVT = 1000
FILE = /castor/cern.ch/delphi/MCprod/cern/wphact21/va0e/206.5/wphact21_nc4f_206.5_80.4_10277.xsdst ! RUN = 10277 ! NEVT = 1000
FILE = /castor/cern.ch/delphi/MCprod/cern/wphact21/va0e/206.5/wphact21_nc4f_206.5_80.4_10278.xsdst ! RUN = 10278 ! NEVT = 1000
FILE = /castor/cern.ch/delphi/MCprod/cern/wphact21/va0e/206.5/wphact21_nc4f_206.5_80.4_10279.xsdst ! RUN = 10279 ! NEVT = 1000
FILE = /castor/cern.ch/delphi/MCprod/cern/wphact21/va0e/206.5/wphact21_nc4f_206.5_80.4_10280.xsdst ! RUN = 10280 ! NEVT = 999
FILE = /castor/cern.ch/delphi/MCprod/cern/wphact21/va0e/206.5/wphact21_nc4f_206.5_80.4_10281.xsdst ! RUN = 10281 ! NEVT = 1000
FILE = /castor/cern.ch/delphi/MCprod/cern/wphact21/va0e/206.5/wphact21_nc4f_206.5_80.4_10282.xsdst ! RUN = 10282 ! NEVT = 1000
FILE = /castor/cern.ch/delphi/MCprod/cern/wphact21/va0e/206.5/wphact21_nc4f_206.5_80.4_10283.xsdst ! RUN = 10283 ! NEVT = 1000
FILE = /castor/cern.ch/delphi/MCprod/cern/wphact21/va0e/206.5/wphact21_nc4f_206.5_80.4_10284.xsdst ! RUN = 10284 ! NEVT = 1000
FILE = /castor/cern.ch/delphi/MCprod/cern/wphact21/va0e/206.5/wphact21_nc4f_206.5_80.4_10285.xsdst ! RUN = 10285 ! NEVT = 1000
FILE = /castor/cern.ch/delphi/MCprod/cern/wphact21/va0e/206.5/wphact21_nc4f_206.5_80.4_10286.xsdst ! RUN = 10286 ! NEVT = 1000
FILE = /castor/cern.ch/delphi/MCprod/cern/wphact21/va0e/206.5/wphact21_nc4f_206.5_80.4_10287.xsdst ! RUN = 10287 ! NEVT = 1000
FILE = /castor/cern.ch/delphi/MCprod/cern/wphact21/va0e/206.5/wphact21_nc4f_206.5_80.4_10288.xsdst ! RUN = 10288 ! NEVT = 1000
FILE = /castor/cern.ch/delphi/MCprod/cern/wphact21/va0e/206.5/wphact21_nc4f_206.5_80.4_10289.xsdst ! RUN = 10289 ! NEVT = 1000
FILE = /castor/cern.ch/delphi/MCprod/cern/wphact21/va0e/206.5/wphact21_nc4f_206.5_80.4_10290.xsdst ! RUN = 10290 ! NEVT = 1000
FILE = /castor/cern.ch/delphi/MCprod/cern/wphact21/va0e/206.5/wphact21_nc4f_206.5_80.4_10291.xsdst ! RUN = 10291 ! NEVT = 1000
FILE = /castor/cern.ch/delphi/MCprod/cern/wphact21/va0e/206.5/wphact21_nc4f_206.5_80.4_10293.xsdst ! RUN = 10293 ! NEVT = 1000
FILE = /castor/cern.ch/delphi/MCprod/cern/wphact21/va0e/206.5/wphact21_nc4f_206.5_80.4_10294.xsdst ! RUN = 10294 ! NEVT = 1000
FILE = /castor/cern.ch/delphi/MCprod/cern/wphact21/va0e/206.5/wphact21_nc4f_206.5_80.4_10295.xsdst ! RUN = 10295 ! NEVT = 999
FILE = /castor/cern.ch/delphi/MCprod/cern/wphact21/va0e/206.5/wphact21_nc4f_206.5_80.4_10296.xsdst ! RUN = 10296 ! NEVT = 1000
FILE = /castor/cern.ch/delphi/MCprod/cern/wphact21/va0e/206.5/wphact21_nc4f_206.5_80.4_10297.xsdst ! RUN = 10297 ! NEVT = 1000
FILE = /castor/cern.ch/delphi/MCprod/cern/wphact21/va0e/206.5/wphact21_nc4f_206.5_80.4_10298.xsdst ! RUN = 10298 ! NEVT = 1000
FILE = /castor/cern.ch/delphi/MCprod/cern/wphact21/va0e/206.5/wphact21_nc4f_206.5_80.4_10299.xsdst ! RUN = 10299 ! NEVT = 1000
FILE = /castor/cern.ch/delphi/MCprod/cern/wphact21/va0e/206.5/wphact21_nc4f_206.5_80.4_10300.xsdst ! RUN = 10300 ! NEVT = 1000
FILE = /castor/cern.ch/delphi/MCprod/cern/wphact21/va0e/206.5/wphact21_nc4f_206.5_80.4_10301.xsdst ! RUN = 10301 ! NEVT = 999
FILE = /castor/cern.ch/delphi/MCprod/cern/wphact21/va0e/206.5/wphact21_nc4f_206.5_80.4_10302.xsdst ! RUN = 10302 ! NEVT = 1000
FILE = /castor/cern.ch/delphi/MCprod/cern/wphact21/va0e/206.5/wphact21_nc4f_206.5_80.4_10303.xsdst ! RUN = 10303 ! NEVT = 1000
FILE = /castor/cern.ch/delphi/MCprod/cern/wphact21/va0e/206.5/wphact21_nc4f_206.5_80.4_10304.xsdst ! RUN = 10304 ! NEVT = 999
FILE = /castor/cern.ch/delphi/MCprod/cern/wphact21/va0e/206.5/wphact21_nc4f_206.5_80.4_10305.xsdst ! RUN = 10305 ! NEVT = 1000
FILE = /castor/cern.ch/delphi/MCprod/cern/wphact21/va0e/206.5/wphact21_nc4f_206.5_80.4_10306.xsdst ! RUN = 10306 ! NEVT = 1000
FILE = /castor/cern.ch/delphi/MCprod/cern/wphact21/va0e/206.5/wphact21_nc4f_206.5_80.4_10307.xsdst ! RUN = 10307 ! NEVT = 1000
FILE = /castor/cern.ch/delphi/MCprod/cern/wphact21/va0e/206.5/wphact21_nc4f_206.5_80.4_10308.xsdst ! RUN = 10308 ! NEVT = 1000
FILE = /castor/cern.ch/delphi/MCprod/cern/wphact21/va0e/206.5/wphact21_nc4f_206.5_80.4_10309.xsdst ! RUN = 10309 ! NEVT = 999
FILE = /castor/cern.ch/delphi/MCprod/cern/wphact21/va0e/206.5/wphact21_nc4f_206.5_80.4_10310.xsdst ! RUN = 10310 ! NEVT = 1000
FILE = /castor/cern.ch/delphi/MCprod/cern/wphact21/va0e/206.5/wphact21_nc4f_206.5_80.4_10311.xsdst ! RUN = 10311 ! NEVT = 1000
FILE = /castor/cern.ch/delphi/MCprod/cern/wphact21/va0e/206.5/wphact21_nc4f_206.5_80.4_10312.xsdst ! RUN = 10312 ! NEVT = 1000
FILE = /castor/cern.ch/delphi/MCprod/cern/wphact21/va0e/206.5/wphact21_nc4f_206.5_80.4_10313.xsdst ! RUN = 10313 ! NEVT = 1000
FILE = /castor/cern.ch/delphi/MCprod/cern/wphact21/va0e/206.5/wphact21_nc4f_206.5_80.4_10314.xsdst ! RUN = 10314 ! NEVT = 1000
FILE = /castor/cern.ch/delphi/MCprod/cern/wphact21/va0e/206.5/wphact21_nc4f_206.5_80.4_10315.xsdst ! RUN = 10315 ! NEVT = 1000
FILE = /castor/cern.ch/delphi/MCprod/cern/wphact21/va0e/206.5/wphact21_nc4f_206.5_80.4_10316.xsdst ! RUN = 10316 ! NEVT = 1000
FILE = /castor/cern.ch/delphi/MCprod/cern/wphact21/va0e/206.5/wphact21_nc4f_206.5_80.4_10317.xsdst ! RUN = 10317 ! NEVT = 1000
FILE = /castor/cern.ch/delphi/MCprod/cern/wphact21/va0e/206.5/wphact21_nc4f_206.5_80.4_10318.xsdst ! RUN = 10318 ! NEVT = 999
FILE = /castor/cern.ch/delphi/MCprod/cern/wphact21/va0e/206.5/wphact21_nc4f_206.5_80.4_10319.xsdst ! RUN = 10319 ! NEVT = 1000
FILE = /castor/cern.ch/delphi/MCprod/cern/wphact21/va0e/206.5/wphact21_nc4f_206.5_80.4_10320.xsdst ! RUN = 10320 ! NEVT = 1000
FILE = /castor/cern.ch/delphi/MCprod/cern/wphact21/va0e/206.5/wphact21_nc4f_206.5_80.4_10321.xsdst ! RUN = 10321 ! NEVT = 1000
FILE = /castor/cern.ch/delphi/MCprod/cern/wphact21/va0e/206.5/wphact21_nc4f_206.5_80.4_10322.xsdst ! RUN = 10322 ! NEVT = 999
FILE = /castor/cern.ch/delphi/MCprod/cern/wphact21/va0e/206.5/wphact21_nc4f_206.5_80.4_10323.xsdst ! RUN = 10323 ! NEVT = 1000
FILE = /castor/cern.ch/delphi/MCprod/cern/wphact21/va0e/206.5/wphact21_nc4f_206.5_80.4_10324.xsdst ! RUN = 10324 ! NEVT = 1000
FILE = /castor/cern.ch/delphi/MCprod/cern/wphact21/va0e/206.5/wphact21_nc4f_206.5_80.4_10325.xsdst ! RUN = 10325 ! NEVT = 1000
FILE = /castor/cern.ch/delphi/MCprod/cern/wphact21/va0e/206.5/wphact21_nc4f_206.5_80.4_10326.xsdst ! RUN = 10326 ! NEVT = 999
FILE = /castor/cern.ch/delphi/MCprod/cern/wphact21/va0e/206.5/wphact21_nc4f_206.5_80.4_10327.xsdst ! RUN = 10327 ! NEVT = 999
FILE = /castor/cern.ch/delphi/MCprod/cern/wphact21/va0e/206.5/wphact21_nc4f_206.5_80.4_10328.xsdst ! RUN = 10328 ! NEVT = 1000
FILE = /castor/cern.ch/delphi/MCprod/cern/wphact21/va0e/206.5/wphact21_nc4f_206.5_80.4_10329.xsdst ! RUN = 10329 ! NEVT = 1000
FILE = /castor/cern.ch/delphi/MCprod/cern/wphact21/va0e/206.5/wphact21_nc4f_206.5_80.4_10330.xsdst ! RUN = 10330 ! NEVT = 1000
FILE = /castor/cern.ch/delphi/MCprod/cern/wphact21/va0e/206.5/wphact21_nc4f_206.5_80.4_10331.xsdst ! RUN = 10331 ! NEVT = 1000
FILE = /castor/cern.ch/delphi/MCprod/cern/wphact21/va0e/206.5/wphact21_nc4f_206.5_80.4_10332.xsdst ! RUN = 10332 ! NEVT = 1000
FILE = /castor/cern.ch/delphi/MCprod/cern/wphact21/va0e/206.5/wphact21_nc4f_206.5_80.4_10333.xsdst ! RUN = 10333 ! NEVT = 999
FILE = /castor/cern.ch/delphi/MCprod/cern/wphact21/va0e/206.5/wphact21_nc4f_206.5_80.4_10334.xsdst ! RUN = 10334 ! NEVT = 1000
FILE = /castor/cern.ch/delphi/MCprod/cern/wphact21/va0e/206.5/wphact21_nc4f_206.5_80.4_10335.xsdst ! RUN = 10335 ! NEVT = 1000
FILE = /castor/cern.ch/delphi/MCprod/cern/wphact21/va0e/206.5/wphact21_nc4f_206.5_80.4_10336.xsdst ! RUN = 10336 ! NEVT = 1000
FILE = /castor/cern.ch/delphi/MCprod/cern/wphact21/va0e/206.5/wphact21_nc4f_206.5_80.4_10337.xsdst ! RUN = 10337 ! NEVT = 1000
FILE = /castor/cern.ch/delphi/MCprod/cern/wphact21/va0e/206.5/wphact21_nc4f_206.5_80.4_10338.xsdst ! RUN = 10338 ! NEVT = 1000
FILE = /castor/cern.ch/delphi/MCprod/cern/wphact21/va0e/206.5/wphact21_nc4f_206.5_80.4_10339.xsdst ! RUN = 10339 ! NEVT = 1000
FILE = /castor/cern.ch/delphi/MCprod/cern/wphact21/va0e/206.5/wphact21_nc4f_206.5_80.4_10340.xsdst ! RUN = 10340 ! NEVT = 1000
FILE = /castor/cern.ch/delphi/MCprod/cern/wphact21/va0e/206.5/wphact21_nc4f_206.5_80.4_10341.xsdst ! RUN = 10341 ! NEVT = 1000
FILE = /castor/cern.ch/delphi/MCprod/cern/wphact21/va0e/206.5/wphact21_nc4f_206.5_80.4_10342.xsdst ! RUN = 10342 ! NEVT = 1000
FILE = /castor/cern.ch/delphi/MCprod/cern/wphact21/va0e/206.5/wphact21_nc4f_206.5_80.4_10343.xsdst ! RUN = 10343 ! NEVT = 1000
FILE = /castor/cern.ch/delphi/MCprod/cern/wphact21/va0e/206.5/wphact21_nc4f_206.5_80.4_10344.xsdst ! RUN = 10344 ! NEVT = 999
FILE = /castor/cern.ch/delphi/MCprod/cern/wphact21/va0e/206.5/wphact21_nc4f_206.5_80.4_10345.xsdst ! RUN = 10345 ! NEVT = 1000
FILE = /castor/cern.ch/delphi/MCprod/cern/wphact21/va0e/206.5/wphact21_nc4f_206.5_80.4_10346.xsdst ! RUN = 10346 ! NEVT = 1000
FILE = /castor/cern.ch/delphi/MCprod/cern/wphact21/va0e/206.5/wphact21_nc4f_206.5_80.4_10347.xsdst ! RUN = 10347 ! NEVT = 999
FILE = /castor/cern.ch/delphi/MCprod/cern/wphact21/va0e/206.5/wphact21_nc4f_206.5_80.4_10348.xsdst ! RUN = 10348 ! NEVT = 1000
FILE = /castor/cern.ch/delphi/MCprod/cern/wphact21/va0e/206.5/wphact21_nc4f_206.5_80.4_10349.xsdst ! RUN = 10349 ! NEVT = 999
FILE = /castor/cern.ch/delphi/MCprod/cern/wphact21/va0e/206.5/wphact21_nc4f_206.5_80.4_10350.xsdst ! RUN = 10350 ! NEVT = 999
FILE = /castor/cern.ch/delphi/MCprod/cern/wphact21/va0e/206.5/wphact21_nc4f_206.5_80.4_10351.xsdst ! RUN = 10351 ! NEVT = 1000
FILE = /castor/cern.ch/delphi/MCprod/cern/wphact21/va0e/206.5/wphact21_nc4f_206.5_80.4_10352.xsdst ! RUN = 10352 ! NEVT = 999
FILE = /castor/cern.ch/delphi/MCprod/cern/wphact21/va0e/206.5/wphact21_nc4f_206.5_80.4_10353.xsdst ! RUN = 10353 ! NEVT = 999
FILE = /castor/cern.ch/delphi/MCprod/cern/wphact21/va0e/206.5/wphact21_nc4f_206.5_80.4_10354.xsdst ! RUN = 10354 ! NEVT = 1000
FILE = /castor/cern.ch/delphi/MCprod/cern/wphact21/va0e/206.5/wphact21_nc4f_206.5_80.4_10355.xsdst ! RUN = 10355 ! NEVT = 999
FILE = /castor/cern.ch/delphi/MCprod/cern/wphact21/va0e/206.5/wphact21_nc4f_206.5_80.4_10356.xsdst ! RUN = 10356 ! NEVT = 999
FILE = /castor/cern.ch/delphi/MCprod/cern/wphact21/va0e/206.5/wphact21_nc4f_206.5_80.4_10357.xsdst ! RUN = 10357 ! NEVT = 1000
FILE = /castor/cern.ch/delphi/MCprod/cern/wphact21/va0e/206.5/wphact21_nc4f_206.5_80.4_10358.xsdst ! RUN = 10358 ! NEVT = 1000
FILE = /castor/cern.ch/delphi/MCprod/cern/wphact21/va0e/206.5/wphact21_nc4f_206.5_80.4_10359.xsdst ! RUN = 10359 ! NEVT = 1000
FILE = /castor/cern.ch/delphi/MCprod/cern/wphact21/va0e/206.5/wphact21_nc4f_206.5_80.4_10360.xsdst ! RUN = 10360 ! NEVT = 999
FILE = /castor/cern.ch/delphi/MCprod/cern/wphact21/va0e/206.5/wphact21_nc4f_206.5_80.4_10361.xsdst ! RUN = 10361 ! NEVT = 1000
FILE = /castor/cern.ch/delphi/MCprod/cern/wphact21/va0e/206.5/wphact21_nc4f_206.5_80.4_10362.xsdst ! RUN = 10362 ! NEVT = 1000
FILE = /castor/cern.ch/delphi/MCprod/cern/wphact21/va0e/206.5/wphact21_nc4f_206.5_80.4_10363.xsdst ! RUN = 10363 ! NEVT = 1000
FILE = /castor/cern.ch/delphi/MCprod/cern/wphact21/va0e/206.5/wphact21_nc4f_206.5_80.4_10364.xsdst ! RUN = 10364 ! NEVT = 1000
FILE = /castor/cern.ch/delphi/MCprod/cern/wphact21/va0e/206.5/wphact21_nc4f_206.5_80.4_10365.xsdst ! RUN = 10365 ! NEVT = 1000
FILE = /castor/cern.ch/delphi/MCprod/cern/wphact21/va0e/206.5/wphact21_nc4f_206.5_80.4_10366.xsdst ! RUN = 10366 ! NEVT = 1000
FILE = /castor/cern.ch/delphi/MCprod/cern/wphact21/va0e/206.5/wphact21_nc4f_206.5_80.4_10367.xsdst ! RUN = 10367 ! NEVT = 1000
FILE = /castor/cern.ch/delphi/MCprod/cern/wphact21/va0e/206.5/wphact21_nc4f_206.5_80.4_10368.xsdst ! RUN = 10368 ! NEVT = 998
FILE = /castor/cern.ch/delphi/MCprod/cern/wphact21/va0e/206.5/wphact21_nc4f_206.5_80.4_10369.xsdst ! RUN = 10369 ! NEVT = 1000
FILE = /castor/cern.ch/delphi/MCprod/cern/wphact21/va0e/206.5/wphact21_nc4f_206.5_80.4_10370.xsdst ! RUN = 10370 ! NEVT = 1000
FILE = /castor/cern.ch/delphi/MCprod/cern/wphact21/va0e/206.5/wphact21_nc4f_206.5_80.4_10371.xsdst ! RUN = 10371 ! NEVT = 1000
FILE = /castor/cern.ch/delphi/MCprod/cern/wphact21/va0e/206.5/wphact21_nc4f_206.5_80.4_10372.xsdst ! RUN = 10372 ! NEVT = 1000
FILE = /castor/cern.ch/delphi/MCprod/cern/wphact21/va0e/206.5/wphact21_nc4f_206.5_80.4_10373.xsdst ! RUN = 10373 ! NEVT = 999
FILE = /castor/cern.ch/delphi/MCprod/cern/wphact21/va0e/206.5/wphact21_nc4f_206.5_80.4_10374.xsdst ! RUN = 10374 ! NEVT = 999
FILE = /castor/cern.ch/delphi/MCprod/cern/wphact21/va0e/206.5/wphact21_nc4f_206.5_80.4_10375.xsdst ! RUN = 10375 ! NEVT = 1000
FILE = /castor/cern.ch/delphi/MCprod/cern/wphact21/va0e/206.5/wphact21_nc4f_206.5_80.4_10376.xsdst ! RUN = 10376 ! NEVT = 1000
FILE = /castor/cern.ch/delphi/MCprod/cern/wphact21/va0e/206.5/wphact21_nc4f_206.5_80.4_10377.xsdst ! RUN = 10377 ! NEVT = 1000
FILE = /castor/cern.ch/delphi/MCprod/cern/wphact21/va0e/206.5/wphact21_nc4f_206.5_80.4_10378.xsdst ! RUN = 10378 ! NEVT = 1000
FILE = /castor/cern.ch/delphi/MCprod/cern/wphact21/va0e/206.5/wphact21_nc4f_206.5_80.4_10379.xsdst ! RUN = 10379 ! NEVT = 1000
FILE = /castor/cern.ch/delphi/MCprod/cern/wphact21/va0e/206.5/wphact21_nc4f_206.5_80.4_10380.xsdst ! RUN = 10380 ! NEVT = 1000
FILE = /castor/cern.ch/delphi/MCprod/cern/wphact21/va0e/206.5/wphact21_nc4f_206.5_80.4_10381.xsdst ! RUN = 10381 ! NEVT = 999
FILE = /castor/cern.ch/delphi/MCprod/cern/wphact21/va0e/206.5/wphact21_nc4f_206.5_80.4_10382.xsdst ! RUN = 10382 ! NEVT = 1000
FILE = /castor/cern.ch/delphi/MCprod/cern/wphact21/va0e/206.5/wphact21_nc4f_206.5_80.4_10383.xsdst ! RUN = 10383 ! NEVT = 999
FILE = /castor/cern.ch/delphi/MCprod/cern/wphact21/va0e/206.5/wphact21_nc4f_206.5_80.4_10384.xsdst ! RUN = 10384 ! NEVT = 999
FILE = /castor/cern.ch/delphi/MCprod/cern/wphact21/va0e/206.5/wphact21_nc4f_206.5_80.4_10385.xsdst ! RUN = 10385 ! NEVT = 1000
FILE = /castor/cern.ch/delphi/MCprod/cern/wphact21/va0e/206.5/wphact21_nc4f_206.5_80.4_10386.xsdst ! RUN = 10386 ! NEVT = 999
FILE = /castor/cern.ch/delphi/MCprod/cern/wphact21/va0e/206.5/wphact21_nc4f_206.5_80.4_10387.xsdst ! RUN = 10387 ! NEVT = 1000
FILE = /castor/cern.ch/delphi/MCprod/cern/wphact21/va0e/206.5/wphact21_nc4f_206.5_80.4_10388.xsdst ! RUN = 10388 ! NEVT = 1000
FILE = /castor/cern.ch/delphi/MCprod/cern/wphact21/va0e/206.5/wphact21_nc4f_206.5_80.4_10389.xsdst ! RUN = 10389 ! NEVT = 1000
FILE = /castor/cern.ch/delphi/MCprod/cern/wphact21/va0e/206.5/wphact21_nc4f_206.5_80.4_10390.xsdst ! RUN = 10390 ! NEVT = 1000
FILE = /castor/cern.ch/delphi/MCprod/cern/wphact21/va0e/206.5/wphact21_nc4f_206.5_80.4_10391.xsdst ! RUN = 10391 ! NEVT = 1000
FILE = /castor/cern.ch/delphi/MCprod/cern/wphact21/va0e/206.5/wphact21_nc4f_206.5_80.4_10392.xsdst ! RUN = 10392 ! NEVT = 999
FILE = /castor/cern.ch/delphi/MCprod/cern/wphact21/va0e/206.5/wphact21_nc4f_206.5_80.4_10393.xsdst ! RUN = 10393 ! NEVT = 1000
FILE = /castor/cern.ch/delphi/MCprod/cern/wphact21/va0e/206.5/wphact21_nc4f_206.5_80.4_10394.xsdst ! RUN = 10394 ! NEVT = 999
FILE = /castor/cern.ch/delphi/MCprod/cern/wphact21/va0e/206.5/wphact21_nc4f_206.5_80.4_10395.xsdst ! RUN = 10395 ! NEVT = 1000
FILE = /castor/cern.ch/delphi/MCprod/cern/wphact21/va0e/206.5/wphact21_nc4f_206.5_80.4_10396.xsdst ! RUN = 10396 ! NEVT = 1000
FILE = /castor/cern.ch/delphi/MCprod/cern/wphact21/va0e/206.5/wphact21_nc4f_206.5_80.4_10397.xsdst ! RUN = 10397 ! NEVT = 1000
FILE = /castor/cern.ch/delphi/MCprod/cern/wphact21/va0e/206.5/wphact21_nc4f_206.5_80.4_10398.xsdst ! RUN = 10398 ! NEVT = 1000
FILE = /castor/cern.ch/delphi/MCprod/cern/wphact21/va0e/206.5/wphact21_nc4f_206.5_80.4_10399.xsdst ! RUN = 10399 ! NEVT = 1000
FILE = /castor/cern.ch/delphi/MCprod/cern/wphact21/va0e/206.5/wphact21_nc4f_206.5_80.4_10400.xsdst ! RUN = 10400 ! NEVT = 1000
FILE = /castor/cern.ch/delphi/MCprod/cern/wphact21/va0e/206.5/wphact21_nc4f_206.5_80.4_10401.xsdst ! RUN = 10401 ! NEVT = 1000
FILE = /castor/cern.ch/delphi/MCprod/cern/wphact21/va0e/206.5/wphact21_nc4f_206.5_80.4_10402.xsdst ! RUN = 10402 ! NEVT = 1000
FILE = /castor/cern.ch/delphi/MCprod/cern/wphact21/va0e/206.5/wphact21_nc4f_206.5_80.4_10403.xsdst ! RUN = 10403 ! NEVT = 1000
FILE = /castor/cern.ch/delphi/MCprod/cern/wphact21/va0e/206.5/wphact21_nc4f_206.5_80.4_10404.xsdst ! RUN = 10404 ! NEVT = 1000
FILE = /castor/cern.ch/delphi/MCprod/cern/wphact21/va0e/206.5/wphact21_nc4f_206.5_80.4_10405.xsdst ! RUN = 10405 ! NEVT = 1000
FILE = /castor/cern.ch/delphi/MCprod/cern/wphact21/va0e/206.5/wphact21_nc4f_206.5_80.4_10406.xsdst ! RUN = 10406 ! NEVT = 1000
FILE = /castor/cern.ch/delphi/MCprod/cern/wphact21/va0e/206.5/wphact21_nc4f_206.5_80.4_10407.xsdst ! RUN = 10407 ! NEVT = 1000
FILE = /castor/cern.ch/delphi/MCprod/cern/wphact21/va0e/206.5/wphact21_nc4f_206.5_80.4_10408.xsdst ! RUN = 10408 ! NEVT = 1000
FILE = /castor/cern.ch/delphi/MCprod/cern/wphact21/va0e/206.5/wphact21_nc4f_206.5_80.4_10409.xsdst ! RUN = 10409 ! NEVT = 1000
FILE = /castor/cern.ch/delphi/MCprod/cern/wphact21/va0e/206.5/wphact21_nc4f_206.5_80.4_10410.xsdst ! RUN = 10410 ! NEVT = 1000
FILE = /castor/cern.ch/delphi/MCprod/cern/wphact21/va0e/206.5/wphact21_nc4f_206.5_80.4_10411.xsdst ! RUN = 10411 ! NEVT = 999
FILE = /castor/cern.ch/delphi/MCprod/cern/wphact21/va0e/206.5/wphact21_nc4f_206.5_80.4_10412.xsdst ! RUN = 10412 ! NEVT = 999
FILE = /castor/cern.ch/delphi/MCprod/cern/wphact21/va0e/206.5/wphact21_nc4f_206.5_80.4_10413.xsdst ! RUN = 10413 ! NEVT = 1000
FILE = /castor/cern.ch/delphi/MCprod/cern/wphact21/va0e/206.5/wphact21_nc4f_206.5_80.4_10414.xsdst ! RUN = 10414 ! NEVT = 1000
FILE = /castor/cern.ch/delphi/MCprod/cern/wphact21/va0e/206.5/wphact21_nc4f_206.5_80.4_10415.xsdst ! RUN = 10415 ! NEVT = 999
FILE = /castor/cern.ch/delphi/MCprod/cern/wphact21/va0e/206.5/wphact21_nc4f_206.5_80.4_10416.xsdst ! RUN = 10416 ! NEVT = 999
FILE = /castor/cern.ch/delphi/MCprod/cern/wphact21/va0e/206.5/wphact21_nc4f_206.5_80.4_10417.xsdst ! RUN = 10417 ! NEVT = 1000
FILE = /castor/cern.ch/delphi/MCprod/cern/wphact21/va0e/206.5/wphact21_nc4f_206.5_80.4_10418.xsdst ! RUN = 10418 ! NEVT = 1000
FILE = /castor/cern.ch/delphi/MCprod/cern/wphact21/va0e/206.5/wphact21_nc4f_206.5_80.4_10419.xsdst ! RUN = 10419 ! NEVT = 1000
FILE = /castor/cern.ch/delphi/MCprod/cern/wphact21/va0e/206.5/wphact21_nc4f_206.5_80.4_10420.xsdst ! RUN = 10420 ! NEVT = 999
FILE = /castor/cern.ch/delphi/MCprod/cern/wphact21/va0e/206.5/wphact21_nc4f_206.5_80.4_10421.xsdst ! RUN = 10421 ! NEVT = 999
FILE = /castor/cern.ch/delphi/MCprod/cern/wphact21/va0e/206.5/wphact21_nc4f_206.5_80.4_10422.xsdst ! RUN = 10422 ! NEVT = 999
FILE = /castor/cern.ch/delphi/MCprod/cern/wphact21/va0e/206.5/wphact21_nc4f_206.5_80.4_10423.xsdst ! RUN = 10423 ! NEVT = 1000
FILE = /castor/cern.ch/delphi/MCprod/cern/wphact21/va0e/206.5/wphact21_nc4f_206.5_80.4_10424.xsdst ! RUN = 10424 ! NEVT = 1000
FILE = /castor/cern.ch/delphi/MCprod/cern/wphact21/va0e/206.5/wphact21_nc4f_206.5_80.4_10425.xsdst ! RUN = 10425 ! NEVT = 1000
FILE = /castor/cern.ch/delphi/MCprod/cern/wphact21/va0e/206.5/wphact21_nc4f_206.5_80.4_10426.xsdst ! RUN = 10426 ! NEVT = 1000
FILE = /castor/cern.ch/delphi/MCprod/cern/wphact21/va0e/206.5/wphact21_nc4f_206.5_80.4_10427.xsdst ! RUN = 10427 ! NEVT = 998
FILE = /castor/cern.ch/delphi/MCprod/cern/wphact21/va0e/206.5/wphact21_nc4f_206.5_80.4_10428.xsdst ! RUN = 10428 ! NEVT = 1000
FILE = /castor/cern.ch/delphi/MCprod/cern/wphact21/va0e/206.5/wphact21_nc4f_206.5_80.4_10429.xsdst ! RUN = 10429 ! NEVT = 1000
FILE = /castor/cern.ch/delphi/MCprod/cern/wphact21/va0e/206.5/wphact21_nc4f_206.5_80.4_10430.xsdst ! RUN = 10430 ! NEVT = 999
FILE = /castor/cern.ch/delphi/MCprod/cern/wphact21/va0e/206.5/wphact21_nc4f_206.5_80.4_10431.xsdst ! RUN = 10431 ! NEVT = 1000
FILE = /castor/cern.ch/delphi/MCprod/cern/wphact21/va0e/206.5/wphact21_nc4f_206.5_80.4_10432.xsdst ! RUN = 10432 ! NEVT = 1000
FILE = /castor/cern.ch/delphi/MCprod/cern/wphact21/va0e/206.5/wphact21_nc4f_206.5_80.4_10433.xsdst ! RUN = 10433 ! NEVT = 999
FILE = /castor/cern.ch/delphi/MCprod/cern/wphact21/va0e/206.5/wphact21_nc4f_206.5_80.4_10434.xsdst ! RUN = 10434 ! NEVT = 1000
FILE = /castor/cern.ch/delphi/MCprod/cern/wphact21/va0e/206.5/wphact21_nc4f_206.5_80.4_10435.xsdst ! RUN = 10435 ! NEVT = 1000
FILE = /castor/cern.ch/delphi/MCprod/cern/wphact21/va0e/206.5/wphact21_nc4f_206.5_80.4_10436.xsdst ! RUN = 10436 ! NEVT = 999
FILE = /castor/cern.ch/delphi/MCprod/cern/wphact21/va0e/206.5/wphact21_nc4f_206.5_80.4_10437.xsdst ! RUN = 10437 ! NEVT = 1000
FILE = /castor/cern.ch/delphi/MCprod/cern/wphact21/va0e/206.5/wphact21_nc4f_206.5_80.4_10438.xsdst ! RUN = 10438 ! NEVT = 999
FILE = /castor/cern.ch/delphi/MCprod/cern/wphact21/va0e/206.5/wphact21_nc4f_206.5_80.4_10439.xsdst ! RUN = 10439 ! NEVT = 1000
FILE = /castor/cern.ch/delphi/MCprod/cern/wphact21/va0e/206.5/wphact21_nc4f_206.5_80.4_10440.xsdst ! RUN = 10440 ! NEVT = 999
FILE = /castor/cern.ch/delphi/MCprod/cern/wphact21/va0e/206.5/wphact21_nc4f_206.5_80.4_10441.xsdst ! RUN = 10441 ! NEVT = 1000
FILE = /castor/cern.ch/delphi/MCprod/cern/wphact21/va0e/206.5/wphact21_nc4f_206.5_80.4_10442.xsdst ! RUN = 10442 ! NEVT = 1000
FILE = /castor/cern.ch/delphi/MCprod/cern/wphact21/va0e/206.5/wphact21_nc4f_206.5_80.4_10443.xsdst ! RUN = 10443 ! NEVT = 1000
FILE = /castor/cern.ch/delphi/MCprod/cern/wphact21/va0e/206.5/wphact21_nc4f_206.5_80.4_10444.xsdst ! RUN = 10444 ! NEVT = 1000
FILE = /castor/cern.ch/delphi/MCprod/cern/wphact21/va0e/206.5/wphact21_nc4f_206.5_80.4_10445.xsdst ! RUN = 10445 ! NEVT = 999
FILE = /castor/cern.ch/delphi/MCprod/cern/wphact21/va0e/206.5/wphact21_nc4f_206.5_80.4_10446.xsdst ! RUN = 10446 ! NEVT = 1000
FILE = /castor/cern.ch/delphi/MCprod/cern/wphact21/va0e/206.5/wphact21_nc4f_206.5_80.4_10447.xsdst ! RUN = 10447 ! NEVT = 1000
FILE = /castor/cern.ch/delphi/MCprod/cern/wphact21/va0e/206.5/wphact21_nc4f_206.5_80.4_10448.xsdst ! RUN = 10448 ! NEVT = 1000
FILE = /castor/cern.ch/delphi/MCprod/cern/wphact21/va0e/206.5/wphact21_nc4f_206.5_80.4_10449.xsdst ! RUN = 10449 ! NEVT = 1000
FILE = /castor/cern.ch/delphi/MCprod/cern/wphact21/va0e/206.5/wphact21_nc4f_206.5_80.4_10450.xsdst ! RUN = 10450 ! NEVT = 1000
FILE = /castor/cern.ch/delphi/MCprod/cern/wphact21/va0e/206.5/wphact21_nc4f_206.5_80.4_10451.xsdst ! RUN = 10451 ! NEVT = 999
FILE = /castor/cern.ch/delphi/MCprod/cern/wphact21/va0e/206.5/wphact21_nc4f_206.5_80.4_10452.xsdst ! RUN = 10452 ! NEVT = 1000
FILE = /castor/cern.ch/delphi/MCprod/cern/wphact21/va0e/206.5/wphact21_nc4f_206.5_80.4_10453.xsdst ! RUN = 10453 ! NEVT = 1000
FILE = /castor/cern.ch/delphi/MCprod/cern/wphact21/va0e/206.5/wphact21_nc4f_206.5_80.4_10454.xsdst ! RUN = 10454 ! NEVT = 1000
FILE = /castor/cern.ch/delphi/MCprod/cern/wphact21/va0e/206.5/wphact21_nc4f_206.5_80.4_10455.xsdst ! RUN = 10455 ! NEVT = 1000
FILE = /castor/cern.ch/delphi/MCprod/cern/wphact21/va0e/206.5/wphact21_nc4f_206.5_80.4_10456.xsdst ! RUN = 10456 ! NEVT = 1000
FILE = /castor/cern.ch/delphi/MCprod/cern/wphact21/va0e/206.5/wphact21_nc4f_206.5_80.4_10457.xsdst ! RUN = 10457 ! NEVT = 997
FILE = /castor/cern.ch/delphi/MCprod/cern/wphact21/va0e/206.5/wphact21_nc4f_206.5_80.4_10458.xsdst ! RUN = 10458 ! NEVT = 1000
FILE = /castor/cern.ch/delphi/MCprod/cern/wphact21/va0e/206.5/wphact21_nc4f_206.5_80.4_10459.xsdst ! RUN = 10459 ! NEVT = 1000
FILE = /castor/cern.ch/delphi/MCprod/cern/wphact21/va0e/206.5/wphact21_nc4f_206.5_80.4_10460.xsdst ! RUN = 10460 ! NEVT = 1000
FILE = /castor/cern.ch/delphi/MCprod/cern/wphact21/va0e/206.5/wphact21_nc4f_206.5_80.4_10461.xsdst ! RUN = 10461 ! NEVT = 1000
FILE = /castor/cern.ch/delphi/MCprod/cern/wphact21/va0e/206.5/wphact21_nc4f_206.5_80.4_10462.xsdst ! RUN = 10462 ! NEVT = 1000
FILE = /castor/cern.ch/delphi/MCprod/cern/wphact21/va0e/206.5/wphact21_nc4f_206.5_80.4_10463.xsdst ! RUN = 10463 ! NEVT = 1000
FILE = /castor/cern.ch/delphi/MCprod/cern/wphact21/va0e/206.5/wphact21_nc4f_206.5_80.4_10464.xsdst ! RUN = 10464 ! NEVT = 1000
FILE = /castor/cern.ch/delphi/MCprod/cern/wphact21/va0e/206.5/wphact21_nc4f_206.5_80.4_10465.xsdst ! RUN = 10465 ! NEVT = 999
FILE = /castor/cern.ch/delphi/MCprod/cern/wphact21/va0e/206.5/wphact21_nc4f_206.5_80.4_10466.xsdst ! RUN = 10466 ! NEVT = 1000
FILE = /castor/cern.ch/delphi/MCprod/cern/wphact21/va0e/206.5/wphact21_nc4f_206.5_80.4_10467.xsdst ! RUN = 10467 ! NEVT = 1000
FILE = /castor/cern.ch/delphi/MCprod/cern/wphact21/va0e/206.5/wphact21_nc4f_206.5_80.4_10468.xsdst ! RUN = 10468 ! NEVT = 1000
FILE = /castor/cern.ch/delphi/MCprod/cern/wphact21/va0e/206.5/wphact21_nc4f_206.5_80.4_10469.xsdst ! RUN = 10469 ! NEVT = 998
FILE = /castor/cern.ch/delphi/MCprod/cern/wphact21/va0e/206.5/wphact21_nc4f_206.5_80.4_10470.xsdst ! RUN = 10470 ! NEVT = 999
FILE = /castor/cern.ch/delphi/MCprod/cern/wphact21/va0e/206.5/wphact21_nc4f_206.5_80.4_10471.xsdst ! RUN = 10471 ! NEVT = 1000
FILE = /castor/cern.ch/delphi/MCprod/cern/wphact21/va0e/206.5/wphact21_nc4f_206.5_80.4_10472.xsdst ! RUN = 10472 ! NEVT = 1000
FILE = /castor/cern.ch/delphi/MCprod/cern/wphact21/va0e/206.5/wphact21_nc4f_206.5_80.4_10473.xsdst ! RUN = 10473 ! NEVT = 1000
FILE = /castor/cern.ch/delphi/MCprod/cern/wphact21/va0e/206.5/wphact21_nc4f_206.5_80.4_10474.xsdst ! RUN = 10474 ! NEVT = 1000
FILE = /castor/cern.ch/delphi/MCprod/cern/wphact21/va0e/206.5/wphact21_nc4f_206.5_80.4_10475.xsdst ! RUN = 10475 ! NEVT = 999
FILE = /castor/cern.ch/delphi/MCprod/cern/wphact21/va0e/206.5/wphact21_nc4f_206.5_80.4_10476.xsdst ! RUN = 10476 ! NEVT = 1000
FILE = /castor/cern.ch/delphi/MCprod/cern/wphact21/va0e/206.5/wphact21_nc4f_206.5_80.4_10477.xsdst ! RUN = 10477 ! NEVT = 1000
FILE = /castor/cern.ch/delphi/MCprod/cern/wphact21/va0e/206.5/wphact21_nc4f_206.5_80.4_10478.xsdst ! RUN = 10478 ! NEVT = 1000
FILE = /castor/cern.ch/delphi/MCprod/cern/wphact21/va0e/206.5/wphact21_nc4f_206.5_80.4_10479.xsdst ! RUN = 10479 ! NEVT = 1000
FILE = /castor/cern.ch/delphi/MCprod/cern/wphact21/va0e/206.5/wphact21_nc4f_206.5_80.4_10480.xsdst ! RUN = 10480 ! NEVT = 999
FILE = /castor/cern.ch/delphi/MCprod/cern/wphact21/va0e/206.5/wphact21_nc4f_206.5_80.4_10481.xsdst ! RUN = 10481 ! NEVT = 1000
FILE = /castor/cern.ch/delphi/MCprod/cern/wphact21/va0e/206.5/wphact21_nc4f_206.5_80.4_10482.xsdst ! RUN = 10482 ! NEVT = 999
FILE = /castor/cern.ch/delphi/MCprod/cern/wphact21/va0e/206.5/wphact21_nc4f_206.5_80.4_10483.xsdst ! RUN = 10483 ! NEVT = 1000
FILE = /castor/cern.ch/delphi/MCprod/cern/wphact21/va0e/206.5/wphact21_nc4f_206.5_80.4_10484.xsdst ! RUN = 10484 ! NEVT = 999
FILE = /castor/cern.ch/delphi/MCprod/cern/wphact21/va0e/206.5/wphact21_nc4f_206.5_80.4_10485.xsdst ! RUN = 10485 ! NEVT = 999
FILE = /castor/cern.ch/delphi/MCprod/cern/wphact21/va0e/206.5/wphact21_nc4f_206.5_80.4_10486.xsdst ! RUN = 10486 ! NEVT = 1000
FILE = /castor/cern.ch/delphi/MCprod/cern/wphact21/va0e/206.5/wphact21_nc4f_206.5_80.4_10487.xsdst ! RUN = 10487 ! NEVT = 999
FILE = /castor/cern.ch/delphi/MCprod/cern/wphact21/va0e/206.5/wphact21_nc4f_206.5_80.4_10488.xsdst ! RUN = 10488 ! NEVT = 1000
FILE = /castor/cern.ch/delphi/MCprod/cern/wphact21/va0e/206.5/wphact21_nc4f_206.5_80.4_10489.xsdst ! RUN = 10489 ! NEVT = 1000
FILE = /castor/cern.ch/delphi/MCprod/cern/wphact21/va0e/206.5/wphact21_nc4f_206.5_80.4_10490.xsdst ! RUN = 10490 ! NEVT = 1000
FILE = /castor/cern.ch/delphi/MCprod/cern/wphact21/va0e/206.5/wphact21_nc4f_206.5_80.4_10491.xsdst ! RUN = 10491 ! NEVT = 998
FILE = /castor/cern.ch/delphi/MCprod/cern/wphact21/va0e/206.5/wphact21_nc4f_206.5_80.4_10492.xsdst ! RUN = 10492 ! NEVT = 999
FILE = /castor/cern.ch/delphi/MCprod/cern/wphact21/va0e/206.5/wphact21_nc4f_206.5_80.4_10493.xsdst ! RUN = 10493 ! NEVT = 1000
FILE = /castor/cern.ch/delphi/MCprod/cern/wphact21/va0e/206.5/wphact21_nc4f_206.5_80.4_10494.xsdst ! RUN = 10494 ! NEVT = 1000
FILE = /castor/cern.ch/delphi/MCprod/cern/wphact21/va0e/206.5/wphact21_nc4f_206.5_80.4_10495.xsdst ! RUN = 10495 ! NEVT = 999
FILE = /castor/cern.ch/delphi/MCprod/cern/wphact21/va0e/206.5/wphact21_nc4f_206.5_80.4_10496.xsdst ! RUN = 10496 ! NEVT = 998
FILE = /castor/cern.ch/delphi/MCprod/cern/wphact21/va0e/206.5/wphact21_nc4f_206.5_80.4_10497.xsdst ! RUN = 10497 ! NEVT = 999
FILE = /castor/cern.ch/delphi/MCprod/cern/wphact21/va0e/206.5/wphact21_nc4f_206.5_80.4_10498.xsdst ! RUN = 10498 ! NEVT = 999
FILE = /castor/cern.ch/delphi/MCprod/cern/wphact21/va0e/206.5/wphact21_nc4f_206.5_80.4_10499.xsdst ! RUN = 10499 ! NEVT = 1000
FILE = /castor/cern.ch/delphi/MCprod/cern/wphact21/va0e/206.5/wphact21_nc4f_206.5_80.4_10500.xsdst ! RUN = 10500 ! NEVT = 1000
