*   Nickname :     xs_wphact24cc_e205_m80.4_ca0_1l_e1
*   Generic Name : //CERN/DELPHI/P02_SIMD/XSDST/WPHACT24CC/CERN/SUMT/C001-495
*   Description :   Extended Short DST simulation a0e  done at ecm=205 GeV , CERN
*   Comments :     in total 978508 events in 495 files, time stamp: Tue Jul 22 4:12:53 2003
*
*
*
FILE = /castor/cern.ch/delphi/MCprod/cern/wphact24/va0e/205/wphact24_cc_205_80.4_202501.xsdst ! RUN = 202501 ! NEVT = 2000
FILE = /castor/cern.ch/delphi/MCprod/cern/wphact24/va0e/205/wphact24_cc_205_80.4_202502.xsdst ! RUN = 202502 ! NEVT = 1998
FILE = /castor/cern.ch/delphi/MCprod/cern/wphact24/va0e/205/wphact24_cc_205_80.4_202503.xsdst ! RUN = 202503 ! NEVT = 1997
FILE = /castor/cern.ch/delphi/MCprod/cern/wphact24/va0e/205/wphact24_cc_205_80.4_202504.xsdst ! RUN = 202504 ! NEVT = 2000
FILE = /castor/cern.ch/delphi/MCprod/cern/wphact24/va0e/205/wphact24_cc_205_80.4_202505.xsdst ! RUN = 202505 ! NEVT = 1999
FILE = /castor/cern.ch/delphi/MCprod/cern/wphact24/va0e/205/wphact24_cc_205_80.4_202506.xsdst ! RUN = 202506 ! NEVT = 2000
FILE = /castor/cern.ch/delphi/MCprod/cern/wphact24/va0e/205/wphact24_cc_205_80.4_202507.xsdst ! RUN = 202507 ! NEVT = 2000
FILE = /castor/cern.ch/delphi/MCprod/cern/wphact24/va0e/205/wphact24_cc_205_80.4_202508.xsdst ! RUN = 202508 ! NEVT = 2000
FILE = /castor/cern.ch/delphi/MCprod/cern/wphact24/va0e/205/wphact24_cc_205_80.4_202509.xsdst ! RUN = 202509 ! NEVT = 2000
FILE = /castor/cern.ch/delphi/MCprod/cern/wphact24/va0e/205/wphact24_cc_205_80.4_202510.xsdst ! RUN = 202510 ! NEVT = 2000
FILE = /castor/cern.ch/delphi/MCprod/cern/wphact24/va0e/205/wphact24_cc_205_80.4_202511.xsdst ! RUN = 202511 ! NEVT = 1999
FILE = /castor/cern.ch/delphi/MCprod/cern/wphact24/va0e/205/wphact24_cc_205_80.4_202512.xsdst ! RUN = 202512 ! NEVT = 1999
FILE = /castor/cern.ch/delphi/MCprod/cern/wphact24/va0e/205/wphact24_cc_205_80.4_202513.xsdst ! RUN = 202513 ! NEVT = 2000
FILE = /castor/cern.ch/delphi/MCprod/cern/wphact24/va0e/205/wphact24_cc_205_80.4_202514.xsdst ! RUN = 202514 ! NEVT = 1998
FILE = /castor/cern.ch/delphi/MCprod/cern/wphact24/va0e/205/wphact24_cc_205_80.4_202515.xsdst ! RUN = 202515 ! NEVT = 1999
FILE = /castor/cern.ch/delphi/MCprod/cern/wphact24/va0e/205/wphact24_cc_205_80.4_202516.xsdst ! RUN = 202516 ! NEVT = 1998
FILE = /castor/cern.ch/delphi/MCprod/cern/wphact24/va0e/205/wphact24_cc_205_80.4_202517.xsdst ! RUN = 202517 ! NEVT = 1999
FILE = /castor/cern.ch/delphi/MCprod/cern/wphact24/va0e/205/wphact24_cc_205_80.4_202518.xsdst ! RUN = 202518 ! NEVT = 2000
FILE = /castor/cern.ch/delphi/MCprod/cern/wphact24/va0e/205/wphact24_cc_205_80.4_202519.xsdst ! RUN = 202519 ! NEVT = 2000
FILE = /castor/cern.ch/delphi/MCprod/cern/wphact24/va0e/205/wphact24_cc_205_80.4_202520.xsdst ! RUN = 202520 ! NEVT = 2000
FILE = /castor/cern.ch/delphi/MCprod/cern/wphact24/va0e/205/wphact24_cc_205_80.4_202521.xsdst ! RUN = 202521 ! NEVT = 1999
FILE = /castor/cern.ch/delphi/MCprod/cern/wphact24/va0e/205/wphact24_cc_205_80.4_202522.xsdst ! RUN = 202522 ! NEVT = 1999
FILE = /castor/cern.ch/delphi/MCprod/cern/wphact24/va0e/205/wphact24_cc_205_80.4_202523.xsdst ! RUN = 202523 ! NEVT = 1999
FILE = /castor/cern.ch/delphi/MCprod/cern/wphact24/va0e/205/wphact24_cc_205_80.4_202524.xsdst ! RUN = 202524 ! NEVT = 1998
FILE = /castor/cern.ch/delphi/MCprod/cern/wphact24/va0e/205/wphact24_cc_205_80.4_202525.xsdst ! RUN = 202525 ! NEVT = 1999
FILE = /castor/cern.ch/delphi/MCprod/cern/wphact24/va0e/205/wphact24_cc_205_80.4_202526.xsdst ! RUN = 202526 ! NEVT = 1997
FILE = /castor/cern.ch/delphi/MCprod/cern/wphact24/va0e/205/wphact24_cc_205_80.4_202527.xsdst ! RUN = 202527 ! NEVT = 2000
FILE = /castor/cern.ch/delphi/MCprod/cern/wphact24/va0e/205/wphact24_cc_205_80.4_202528.xsdst ! RUN = 202528 ! NEVT = 2000
FILE = /castor/cern.ch/delphi/MCprod/cern/wphact24/va0e/205/wphact24_cc_205_80.4_202529.xsdst ! RUN = 202529 ! NEVT = 2000
FILE = /castor/cern.ch/delphi/MCprod/cern/wphact24/va0e/205/wphact24_cc_205_80.4_202530.xsdst ! RUN = 202530 ! NEVT = 2000
FILE = /castor/cern.ch/delphi/MCprod/cern/wphact24/va0e/205/wphact24_cc_205_80.4_202531.xsdst ! RUN = 202531 ! NEVT = 2000
FILE = /castor/cern.ch/delphi/MCprod/cern/wphact24/va0e/205/wphact24_cc_205_80.4_202532.xsdst ! RUN = 202532 ! NEVT = 2000
FILE = /castor/cern.ch/delphi/MCprod/cern/wphact24/va0e/205/wphact24_cc_205_80.4_202533.xsdst ! RUN = 202533 ! NEVT = 1157
FILE = /castor/cern.ch/delphi/MCprod/cern/wphact24/va0e/205/wphact24_cc_205_80.4_202534.xsdst ! RUN = 202534 ! NEVT = 1999
FILE = /castor/cern.ch/delphi/MCprod/cern/wphact24/va0e/205/wphact24_cc_205_80.4_202535.xsdst ! RUN = 202535 ! NEVT = 2000
FILE = /castor/cern.ch/delphi/MCprod/cern/wphact24/va0e/205/wphact24_cc_205_80.4_202536.xsdst ! RUN = 202536 ! NEVT = 1999
FILE = /castor/cern.ch/delphi/MCprod/cern/wphact24/va0e/205/wphact24_cc_205_80.4_202537.xsdst ! RUN = 202537 ! NEVT = 2000
FILE = /castor/cern.ch/delphi/MCprod/cern/wphact24/va0e/205/wphact24_cc_205_80.4_202538.xsdst ! RUN = 202538 ! NEVT = 2000
FILE = /castor/cern.ch/delphi/MCprod/cern/wphact24/va0e/205/wphact24_cc_205_80.4_202539.xsdst ! RUN = 202539 ! NEVT = 2000
FILE = /castor/cern.ch/delphi/MCprod/cern/wphact24/va0e/205/wphact24_cc_205_80.4_202540.xsdst ! RUN = 202540 ! NEVT = 1999
FILE = /castor/cern.ch/delphi/MCprod/cern/wphact24/va0e/205/wphact24_cc_205_80.4_202542.xsdst ! RUN = 202542 ! NEVT = 1999
FILE = /castor/cern.ch/delphi/MCprod/cern/wphact24/va0e/205/wphact24_cc_205_80.4_202543.xsdst ! RUN = 202543 ! NEVT = 2000
FILE = /castor/cern.ch/delphi/MCprod/cern/wphact24/va0e/205/wphact24_cc_205_80.4_202544.xsdst ! RUN = 202544 ! NEVT = 2000
FILE = /castor/cern.ch/delphi/MCprod/cern/wphact24/va0e/205/wphact24_cc_205_80.4_202545.xsdst ! RUN = 202545 ! NEVT = 2000
FILE = /castor/cern.ch/delphi/MCprod/cern/wphact24/va0e/205/wphact24_cc_205_80.4_202546.xsdst ! RUN = 202546 ! NEVT = 1998
FILE = /castor/cern.ch/delphi/MCprod/cern/wphact24/va0e/205/wphact24_cc_205_80.4_202547.xsdst ! RUN = 202547 ! NEVT = 1999
FILE = /castor/cern.ch/delphi/MCprod/cern/wphact24/va0e/205/wphact24_cc_205_80.4_202548.xsdst ! RUN = 202548 ! NEVT = 1998
FILE = /castor/cern.ch/delphi/MCprod/cern/wphact24/va0e/205/wphact24_cc_205_80.4_202549.xsdst ! RUN = 202549 ! NEVT = 1998
FILE = /castor/cern.ch/delphi/MCprod/cern/wphact24/va0e/205/wphact24_cc_205_80.4_202550.xsdst ! RUN = 202550 ! NEVT = 1998
FILE = /castor/cern.ch/delphi/MCprod/cern/wphact24/va0e/205/wphact24_cc_205_80.4_202551.xsdst ! RUN = 202551 ! NEVT = 2000
FILE = /castor/cern.ch/delphi/MCprod/cern/wphact24/va0e/205/wphact24_cc_205_80.4_202552.xsdst ! RUN = 202552 ! NEVT = 2000
FILE = /castor/cern.ch/delphi/MCprod/cern/wphact24/va0e/205/wphact24_cc_205_80.4_202553.xsdst ! RUN = 202553 ! NEVT = 1999
FILE = /castor/cern.ch/delphi/MCprod/cern/wphact24/va0e/205/wphact24_cc_205_80.4_202554.xsdst ! RUN = 202554 ! NEVT = 2000
FILE = /castor/cern.ch/delphi/MCprod/cern/wphact24/va0e/205/wphact24_cc_205_80.4_202555.xsdst ! RUN = 202555 ! NEVT = 1999
FILE = /castor/cern.ch/delphi/MCprod/cern/wphact24/va0e/205/wphact24_cc_205_80.4_202556.xsdst ! RUN = 202556 ! NEVT = 714
FILE = /castor/cern.ch/delphi/MCprod/cern/wphact24/va0e/205/wphact24_cc_205_80.4_202557.xsdst ! RUN = 202557 ! NEVT = 2000
FILE = /castor/cern.ch/delphi/MCprod/cern/wphact24/va0e/205/wphact24_cc_205_80.4_202558.xsdst ! RUN = 202558 ! NEVT = 2000
FILE = /castor/cern.ch/delphi/MCprod/cern/wphact24/va0e/205/wphact24_cc_205_80.4_202559.xsdst ! RUN = 202559 ! NEVT = 2000
FILE = /castor/cern.ch/delphi/MCprod/cern/wphact24/va0e/205/wphact24_cc_205_80.4_202560.xsdst ! RUN = 202560 ! NEVT = 2000
FILE = /castor/cern.ch/delphi/MCprod/cern/wphact24/va0e/205/wphact24_cc_205_80.4_202561.xsdst ! RUN = 202561 ! NEVT = 1999
FILE = /castor/cern.ch/delphi/MCprod/cern/wphact24/va0e/205/wphact24_cc_205_80.4_202562.xsdst ! RUN = 202562 ! NEVT = 2000
FILE = /castor/cern.ch/delphi/MCprod/cern/wphact24/va0e/205/wphact24_cc_205_80.4_202563.xsdst ! RUN = 202563 ! NEVT = 2000
FILE = /castor/cern.ch/delphi/MCprod/cern/wphact24/va0e/205/wphact24_cc_205_80.4_202564.xsdst ! RUN = 202564 ! NEVT = 1999
FILE = /castor/cern.ch/delphi/MCprod/cern/wphact24/va0e/205/wphact24_cc_205_80.4_202565.xsdst ! RUN = 202565 ! NEVT = 2000
FILE = /castor/cern.ch/delphi/MCprod/cern/wphact24/va0e/205/wphact24_cc_205_80.4_202566.xsdst ! RUN = 202566 ! NEVT = 2000
FILE = /castor/cern.ch/delphi/MCprod/cern/wphact24/va0e/205/wphact24_cc_205_80.4_202567.xsdst ! RUN = 202567 ! NEVT = 1998
FILE = /castor/cern.ch/delphi/MCprod/cern/wphact24/va0e/205/wphact24_cc_205_80.4_202568.xsdst ! RUN = 202568 ! NEVT = 2000
FILE = /castor/cern.ch/delphi/MCprod/cern/wphact24/va0e/205/wphact24_cc_205_80.4_202569.xsdst ! RUN = 202569 ! NEVT = 2000
FILE = /castor/cern.ch/delphi/MCprod/cern/wphact24/va0e/205/wphact24_cc_205_80.4_202570.xsdst ! RUN = 202570 ! NEVT = 1999
FILE = /castor/cern.ch/delphi/MCprod/cern/wphact24/va0e/205/wphact24_cc_205_80.4_202571.xsdst ! RUN = 202571 ! NEVT = 1999
FILE = /castor/cern.ch/delphi/MCprod/cern/wphact24/va0e/205/wphact24_cc_205_80.4_202572.xsdst ! RUN = 202572 ! NEVT = 1999
FILE = /castor/cern.ch/delphi/MCprod/cern/wphact24/va0e/205/wphact24_cc_205_80.4_202573.xsdst ! RUN = 202573 ! NEVT = 1999
FILE = /castor/cern.ch/delphi/MCprod/cern/wphact24/va0e/205/wphact24_cc_205_80.4_202574.xsdst ! RUN = 202574 ! NEVT = 2000
FILE = /castor/cern.ch/delphi/MCprod/cern/wphact24/va0e/205/wphact24_cc_205_80.4_202575.xsdst ! RUN = 202575 ! NEVT = 2000
FILE = /castor/cern.ch/delphi/MCprod/cern/wphact24/va0e/205/wphact24_cc_205_80.4_202576.xsdst ! RUN = 202576 ! NEVT = 1999
FILE = /castor/cern.ch/delphi/MCprod/cern/wphact24/va0e/205/wphact24_cc_205_80.4_202577.xsdst ! RUN = 202577 ! NEVT = 2000
FILE = /castor/cern.ch/delphi/MCprod/cern/wphact24/va0e/205/wphact24_cc_205_80.4_202578.xsdst ! RUN = 202578 ! NEVT = 1999
FILE = /castor/cern.ch/delphi/MCprod/cern/wphact24/va0e/205/wphact24_cc_205_80.4_202579.xsdst ! RUN = 202579 ! NEVT = 1999
FILE = /castor/cern.ch/delphi/MCprod/cern/wphact24/va0e/205/wphact24_cc_205_80.4_202580.xsdst ! RUN = 202580 ! NEVT = 1999
FILE = /castor/cern.ch/delphi/MCprod/cern/wphact24/va0e/205/wphact24_cc_205_80.4_202581.xsdst ! RUN = 202581 ! NEVT = 2000
FILE = /castor/cern.ch/delphi/MCprod/cern/wphact24/va0e/205/wphact24_cc_205_80.4_202582.xsdst ! RUN = 202582 ! NEVT = 2000
FILE = /castor/cern.ch/delphi/MCprod/cern/wphact24/va0e/205/wphact24_cc_205_80.4_202583.xsdst ! RUN = 202583 ! NEVT = 1999
FILE = /castor/cern.ch/delphi/MCprod/cern/wphact24/va0e/205/wphact24_cc_205_80.4_202584.xsdst ! RUN = 202584 ! NEVT = 2000
FILE = /castor/cern.ch/delphi/MCprod/cern/wphact24/va0e/205/wphact24_cc_205_80.4_202585.xsdst ! RUN = 202585 ! NEVT = 2000
FILE = /castor/cern.ch/delphi/MCprod/cern/wphact24/va0e/205/wphact24_cc_205_80.4_202586.xsdst ! RUN = 202586 ! NEVT = 1999
FILE = /castor/cern.ch/delphi/MCprod/cern/wphact24/va0e/205/wphact24_cc_205_80.4_202587.xsdst ! RUN = 202587 ! NEVT = 1042
FILE = /castor/cern.ch/delphi/MCprod/cern/wphact24/va0e/205/wphact24_cc_205_80.4_202588.xsdst ! RUN = 202588 ! NEVT = 1996
FILE = /castor/cern.ch/delphi/MCprod/cern/wphact24/va0e/205/wphact24_cc_205_80.4_202589.xsdst ! RUN = 202589 ! NEVT = 2000
FILE = /castor/cern.ch/delphi/MCprod/cern/wphact24/va0e/205/wphact24_cc_205_80.4_202590.xsdst ! RUN = 202590 ! NEVT = 2000
FILE = /castor/cern.ch/delphi/MCprod/cern/wphact24/va0e/205/wphact24_cc_205_80.4_202591.xsdst ! RUN = 202591 ! NEVT = 420
FILE = /castor/cern.ch/delphi/MCprod/cern/wphact24/va0e/205/wphact24_cc_205_80.4_202592.xsdst ! RUN = 202592 ! NEVT = 2000
FILE = /castor/cern.ch/delphi/MCprod/cern/wphact24/va0e/205/wphact24_cc_205_80.4_202593.xsdst ! RUN = 202593 ! NEVT = 1997
FILE = /castor/cern.ch/delphi/MCprod/cern/wphact24/va0e/205/wphact24_cc_205_80.4_202594.xsdst ! RUN = 202594 ! NEVT = 2000
FILE = /castor/cern.ch/delphi/MCprod/cern/wphact24/va0e/205/wphact24_cc_205_80.4_202595.xsdst ! RUN = 202595 ! NEVT = 1998
FILE = /castor/cern.ch/delphi/MCprod/cern/wphact24/va0e/205/wphact24_cc_205_80.4_202596.xsdst ! RUN = 202596 ! NEVT = 2000
FILE = /castor/cern.ch/delphi/MCprod/cern/wphact24/va0e/205/wphact24_cc_205_80.4_202597.xsdst ! RUN = 202597 ! NEVT = 2000
FILE = /castor/cern.ch/delphi/MCprod/cern/wphact24/va0e/205/wphact24_cc_205_80.4_202598.xsdst ! RUN = 202598 ! NEVT = 2000
FILE = /castor/cern.ch/delphi/MCprod/cern/wphact24/va0e/205/wphact24_cc_205_80.4_202599.xsdst ! RUN = 202599 ! NEVT = 2000
FILE = /castor/cern.ch/delphi/MCprod/cern/wphact24/va0e/205/wphact24_cc_205_80.4_202600.xsdst ! RUN = 202600 ! NEVT = 2000
FILE = /castor/cern.ch/delphi/MCprod/cern/wphact24/va0e/205/wphact24_cc_205_80.4_202601.xsdst ! RUN = 202601 ! NEVT = 2000
FILE = /castor/cern.ch/delphi/MCprod/cern/wphact24/va0e/205/wphact24_cc_205_80.4_202602.xsdst ! RUN = 202602 ! NEVT = 2000
FILE = /castor/cern.ch/delphi/MCprod/cern/wphact24/va0e/205/wphact24_cc_205_80.4_202603.xsdst ! RUN = 202603 ! NEVT = 2000
FILE = /castor/cern.ch/delphi/MCprod/cern/wphact24/va0e/205/wphact24_cc_205_80.4_202604.xsdst ! RUN = 202604 ! NEVT = 1999
FILE = /castor/cern.ch/delphi/MCprod/cern/wphact24/va0e/205/wphact24_cc_205_80.4_202605.xsdst ! RUN = 202605 ! NEVT = 1997
FILE = /castor/cern.ch/delphi/MCprod/cern/wphact24/va0e/205/wphact24_cc_205_80.4_202606.xsdst ! RUN = 202606 ! NEVT = 1999
FILE = /castor/cern.ch/delphi/MCprod/cern/wphact24/va0e/205/wphact24_cc_205_80.4_202607.xsdst ! RUN = 202607 ! NEVT = 2000
FILE = /castor/cern.ch/delphi/MCprod/cern/wphact24/va0e/205/wphact24_cc_205_80.4_202608.xsdst ! RUN = 202608 ! NEVT = 2000
FILE = /castor/cern.ch/delphi/MCprod/cern/wphact24/va0e/205/wphact24_cc_205_80.4_202609.xsdst ! RUN = 202609 ! NEVT = 2000
FILE = /castor/cern.ch/delphi/MCprod/cern/wphact24/va0e/205/wphact24_cc_205_80.4_202610.xsdst ! RUN = 202610 ! NEVT = 2000
FILE = /castor/cern.ch/delphi/MCprod/cern/wphact24/va0e/205/wphact24_cc_205_80.4_202611.xsdst ! RUN = 202611 ! NEVT = 1999
FILE = /castor/cern.ch/delphi/MCprod/cern/wphact24/va0e/205/wphact24_cc_205_80.4_202612.xsdst ! RUN = 202612 ! NEVT = 2000
FILE = /castor/cern.ch/delphi/MCprod/cern/wphact24/va0e/205/wphact24_cc_205_80.4_202613.xsdst ! RUN = 202613 ! NEVT = 1999
FILE = /castor/cern.ch/delphi/MCprod/cern/wphact24/va0e/205/wphact24_cc_205_80.4_202614.xsdst ! RUN = 202614 ! NEVT = 2000
FILE = /castor/cern.ch/delphi/MCprod/cern/wphact24/va0e/205/wphact24_cc_205_80.4_202615.xsdst ! RUN = 202615 ! NEVT = 1998
FILE = /castor/cern.ch/delphi/MCprod/cern/wphact24/va0e/205/wphact24_cc_205_80.4_202616.xsdst ! RUN = 202616 ! NEVT = 2000
FILE = /castor/cern.ch/delphi/MCprod/cern/wphact24/va0e/205/wphact24_cc_205_80.4_202617.xsdst ! RUN = 202617 ! NEVT = 2000
FILE = /castor/cern.ch/delphi/MCprod/cern/wphact24/va0e/205/wphact24_cc_205_80.4_202618.xsdst ! RUN = 202618 ! NEVT = 1999
FILE = /castor/cern.ch/delphi/MCprod/cern/wphact24/va0e/205/wphact24_cc_205_80.4_202619.xsdst ! RUN = 202619 ! NEVT = 2000
FILE = /castor/cern.ch/delphi/MCprod/cern/wphact24/va0e/205/wphact24_cc_205_80.4_202620.xsdst ! RUN = 202620 ! NEVT = 1999
FILE = /castor/cern.ch/delphi/MCprod/cern/wphact24/va0e/205/wphact24_cc_205_80.4_202621.xsdst ! RUN = 202621 ! NEVT = 2000
FILE = /castor/cern.ch/delphi/MCprod/cern/wphact24/va0e/205/wphact24_cc_205_80.4_202622.xsdst ! RUN = 202622 ! NEVT = 2000
FILE = /castor/cern.ch/delphi/MCprod/cern/wphact24/va0e/205/wphact24_cc_205_80.4_202623.xsdst ! RUN = 202623 ! NEVT = 1999
FILE = /castor/cern.ch/delphi/MCprod/cern/wphact24/va0e/205/wphact24_cc_205_80.4_202624.xsdst ! RUN = 202624 ! NEVT = 1998
FILE = /castor/cern.ch/delphi/MCprod/cern/wphact24/va0e/205/wphact24_cc_205_80.4_202625.xsdst ! RUN = 202625 ! NEVT = 2000
FILE = /castor/cern.ch/delphi/MCprod/cern/wphact24/va0e/205/wphact24_cc_205_80.4_202626.xsdst ! RUN = 202626 ! NEVT = 1998
FILE = /castor/cern.ch/delphi/MCprod/cern/wphact24/va0e/205/wphact24_cc_205_80.4_202627.xsdst ! RUN = 202627 ! NEVT = 1999
FILE = /castor/cern.ch/delphi/MCprod/cern/wphact24/va0e/205/wphact24_cc_205_80.4_202628.xsdst ! RUN = 202628 ! NEVT = 2000
FILE = /castor/cern.ch/delphi/MCprod/cern/wphact24/va0e/205/wphact24_cc_205_80.4_202629.xsdst ! RUN = 202629 ! NEVT = 1999
FILE = /castor/cern.ch/delphi/MCprod/cern/wphact24/va0e/205/wphact24_cc_205_80.4_202630.xsdst ! RUN = 202630 ! NEVT = 1998
FILE = /castor/cern.ch/delphi/MCprod/cern/wphact24/va0e/205/wphact24_cc_205_80.4_202631.xsdst ! RUN = 202631 ! NEVT = 1
FILE = /castor/cern.ch/delphi/MCprod/cern/wphact24/va0e/205/wphact24_cc_205_80.4_202633.xsdst ! RUN = 202633 ! NEVT = 1999
FILE = /castor/cern.ch/delphi/MCprod/cern/wphact24/va0e/205/wphact24_cc_205_80.4_202634.xsdst ! RUN = 202634 ! NEVT = 1997
FILE = /castor/cern.ch/delphi/MCprod/cern/wphact24/va0e/205/wphact24_cc_205_80.4_202635.xsdst ! RUN = 202635 ! NEVT = 2000
FILE = /castor/cern.ch/delphi/MCprod/cern/wphact24/va0e/205/wphact24_cc_205_80.4_202636.xsdst ! RUN = 202636 ! NEVT = 2000
FILE = /castor/cern.ch/delphi/MCprod/cern/wphact24/va0e/205/wphact24_cc_205_80.4_202637.xsdst ! RUN = 202637 ! NEVT = 2000
FILE = /castor/cern.ch/delphi/MCprod/cern/wphact24/va0e/205/wphact24_cc_205_80.4_202638.xsdst ! RUN = 202638 ! NEVT = 2000
FILE = /castor/cern.ch/delphi/MCprod/cern/wphact24/va0e/205/wphact24_cc_205_80.4_202639.xsdst ! RUN = 202639 ! NEVT = 2000
FILE = /castor/cern.ch/delphi/MCprod/cern/wphact24/va0e/205/wphact24_cc_205_80.4_202640.xsdst ! RUN = 202640 ! NEVT = 2000
FILE = /castor/cern.ch/delphi/MCprod/cern/wphact24/va0e/205/wphact24_cc_205_80.4_202641.xsdst ! RUN = 202641 ! NEVT = 2000
FILE = /castor/cern.ch/delphi/MCprod/cern/wphact24/va0e/205/wphact24_cc_205_80.4_202642.xsdst ! RUN = 202642 ! NEVT = 1999
FILE = /castor/cern.ch/delphi/MCprod/cern/wphact24/va0e/205/wphact24_cc_205_80.4_202643.xsdst ! RUN = 202643 ! NEVT = 2000
FILE = /castor/cern.ch/delphi/MCprod/cern/wphact24/va0e/205/wphact24_cc_205_80.4_202644.xsdst ! RUN = 202644 ! NEVT = 2000
FILE = /castor/cern.ch/delphi/MCprod/cern/wphact24/va0e/205/wphact24_cc_205_80.4_202645.xsdst ! RUN = 202645 ! NEVT = 1999
FILE = /castor/cern.ch/delphi/MCprod/cern/wphact24/va0e/205/wphact24_cc_205_80.4_202646.xsdst ! RUN = 202646 ! NEVT = 1998
FILE = /castor/cern.ch/delphi/MCprod/cern/wphact24/va0e/205/wphact24_cc_205_80.4_202647.xsdst ! RUN = 202647 ! NEVT = 1999
FILE = /castor/cern.ch/delphi/MCprod/cern/wphact24/va0e/205/wphact24_cc_205_80.4_202648.xsdst ! RUN = 202648 ! NEVT = 2000
FILE = /castor/cern.ch/delphi/MCprod/cern/wphact24/va0e/205/wphact24_cc_205_80.4_202649.xsdst ! RUN = 202649 ! NEVT = 1999
FILE = /castor/cern.ch/delphi/MCprod/cern/wphact24/va0e/205/wphact24_cc_205_80.4_202650.xsdst ! RUN = 202650 ! NEVT = 1998
FILE = /castor/cern.ch/delphi/MCprod/cern/wphact24/va0e/205/wphact24_cc_205_80.4_202651.xsdst ! RUN = 202651 ! NEVT = 1999
FILE = /castor/cern.ch/delphi/MCprod/cern/wphact24/va0e/205/wphact24_cc_205_80.4_202652.xsdst ! RUN = 202652 ! NEVT = 1998
FILE = /castor/cern.ch/delphi/MCprod/cern/wphact24/va0e/205/wphact24_cc_205_80.4_202653.xsdst ! RUN = 202653 ! NEVT = 1999
FILE = /castor/cern.ch/delphi/MCprod/cern/wphact24/va0e/205/wphact24_cc_205_80.4_202654.xsdst ! RUN = 202654 ! NEVT = 2000
FILE = /castor/cern.ch/delphi/MCprod/cern/wphact24/va0e/205/wphact24_cc_205_80.4_202655.xsdst ! RUN = 202655 ! NEVT = 2000
FILE = /castor/cern.ch/delphi/MCprod/cern/wphact24/va0e/205/wphact24_cc_205_80.4_202656.xsdst ! RUN = 202656 ! NEVT = 1999
FILE = /castor/cern.ch/delphi/MCprod/cern/wphact24/va0e/205/wphact24_cc_205_80.4_202657.xsdst ! RUN = 202657 ! NEVT = 2000
FILE = /castor/cern.ch/delphi/MCprod/cern/wphact24/va0e/205/wphact24_cc_205_80.4_202658.xsdst ! RUN = 202658 ! NEVT = 1998
FILE = /castor/cern.ch/delphi/MCprod/cern/wphact24/va0e/205/wphact24_cc_205_80.4_202659.xsdst ! RUN = 202659 ! NEVT = 1999
FILE = /castor/cern.ch/delphi/MCprod/cern/wphact24/va0e/205/wphact24_cc_205_80.4_202660.xsdst ! RUN = 202660 ! NEVT = 2000
FILE = /castor/cern.ch/delphi/MCprod/cern/wphact24/va0e/205/wphact24_cc_205_80.4_202661.xsdst ! RUN = 202661 ! NEVT = 1999
FILE = /castor/cern.ch/delphi/MCprod/cern/wphact24/va0e/205/wphact24_cc_205_80.4_202662.xsdst ! RUN = 202662 ! NEVT = 2000
FILE = /castor/cern.ch/delphi/MCprod/cern/wphact24/va0e/205/wphact24_cc_205_80.4_202663.xsdst ! RUN = 202663 ! NEVT = 1998
FILE = /castor/cern.ch/delphi/MCprod/cern/wphact24/va0e/205/wphact24_cc_205_80.4_202664.xsdst ! RUN = 202664 ! NEVT = 1999
FILE = /castor/cern.ch/delphi/MCprod/cern/wphact24/va0e/205/wphact24_cc_205_80.4_202665.xsdst ! RUN = 202665 ! NEVT = 1998
FILE = /castor/cern.ch/delphi/MCprod/cern/wphact24/va0e/205/wphact24_cc_205_80.4_202666.xsdst ! RUN = 202666 ! NEVT = 2000
FILE = /castor/cern.ch/delphi/MCprod/cern/wphact24/va0e/205/wphact24_cc_205_80.4_202667.xsdst ! RUN = 202667 ! NEVT = 2000
FILE = /castor/cern.ch/delphi/MCprod/cern/wphact24/va0e/205/wphact24_cc_205_80.4_202668.xsdst ! RUN = 202668 ! NEVT = 2000
FILE = /castor/cern.ch/delphi/MCprod/cern/wphact24/va0e/205/wphact24_cc_205_80.4_202669.xsdst ! RUN = 202669 ! NEVT = 1999
FILE = /castor/cern.ch/delphi/MCprod/cern/wphact24/va0e/205/wphact24_cc_205_80.4_202670.xsdst ! RUN = 202670 ! NEVT = 1999
FILE = /castor/cern.ch/delphi/MCprod/cern/wphact24/va0e/205/wphact24_cc_205_80.4_202671.xsdst ! RUN = 202671 ! NEVT = 2000
FILE = /castor/cern.ch/delphi/MCprod/cern/wphact24/va0e/205/wphact24_cc_205_80.4_202672.xsdst ! RUN = 202672 ! NEVT = 1999
FILE = /castor/cern.ch/delphi/MCprod/cern/wphact24/va0e/205/wphact24_cc_205_80.4_202673.xsdst ! RUN = 202673 ! NEVT = 1999
FILE = /castor/cern.ch/delphi/MCprod/cern/wphact24/va0e/205/wphact24_cc_205_80.4_202674.xsdst ! RUN = 202674 ! NEVT = 1998
FILE = /castor/cern.ch/delphi/MCprod/cern/wphact24/va0e/205/wphact24_cc_205_80.4_202675.xsdst ! RUN = 202675 ! NEVT = 1999
FILE = /castor/cern.ch/delphi/MCprod/cern/wphact24/va0e/205/wphact24_cc_205_80.4_202676.xsdst ! RUN = 202676 ! NEVT = 2000
FILE = /castor/cern.ch/delphi/MCprod/cern/wphact24/va0e/205/wphact24_cc_205_80.4_202677.xsdst ! RUN = 202677 ! NEVT = 2000
FILE = /castor/cern.ch/delphi/MCprod/cern/wphact24/va0e/205/wphact24_cc_205_80.4_202678.xsdst ! RUN = 202678 ! NEVT = 1998
FILE = /castor/cern.ch/delphi/MCprod/cern/wphact24/va0e/205/wphact24_cc_205_80.4_202679.xsdst ! RUN = 202679 ! NEVT = 2000
FILE = /castor/cern.ch/delphi/MCprod/cern/wphact24/va0e/205/wphact24_cc_205_80.4_202680.xsdst ! RUN = 202680 ! NEVT = 1999
FILE = /castor/cern.ch/delphi/MCprod/cern/wphact24/va0e/205/wphact24_cc_205_80.4_202681.xsdst ! RUN = 202681 ! NEVT = 2000
FILE = /castor/cern.ch/delphi/MCprod/cern/wphact24/va0e/205/wphact24_cc_205_80.4_202682.xsdst ! RUN = 202682 ! NEVT = 2000
FILE = /castor/cern.ch/delphi/MCprod/cern/wphact24/va0e/205/wphact24_cc_205_80.4_202683.xsdst ! RUN = 202683 ! NEVT = 2000
FILE = /castor/cern.ch/delphi/MCprod/cern/wphact24/va0e/205/wphact24_cc_205_80.4_202684.xsdst ! RUN = 202684 ! NEVT = 1998
FILE = /castor/cern.ch/delphi/MCprod/cern/wphact24/va0e/205/wphact24_cc_205_80.4_202685.xsdst ! RUN = 202685 ! NEVT = 2000
FILE = /castor/cern.ch/delphi/MCprod/cern/wphact24/va0e/205/wphact24_cc_205_80.4_202686.xsdst ! RUN = 202686 ! NEVT = 1999
FILE = /castor/cern.ch/delphi/MCprod/cern/wphact24/va0e/205/wphact24_cc_205_80.4_202687.xsdst ! RUN = 202687 ! NEVT = 2000
FILE = /castor/cern.ch/delphi/MCprod/cern/wphact24/va0e/205/wphact24_cc_205_80.4_202688.xsdst ! RUN = 202688 ! NEVT = 1998
FILE = /castor/cern.ch/delphi/MCprod/cern/wphact24/va0e/205/wphact24_cc_205_80.4_202689.xsdst ! RUN = 202689 ! NEVT = 1999
FILE = /castor/cern.ch/delphi/MCprod/cern/wphact24/va0e/205/wphact24_cc_205_80.4_202690.xsdst ! RUN = 202690 ! NEVT = 1998
FILE = /castor/cern.ch/delphi/MCprod/cern/wphact24/va0e/205/wphact24_cc_205_80.4_202691.xsdst ! RUN = 202691 ! NEVT = 1999
FILE = /castor/cern.ch/delphi/MCprod/cern/wphact24/va0e/205/wphact24_cc_205_80.4_202692.xsdst ! RUN = 202692 ! NEVT = 2000
FILE = /castor/cern.ch/delphi/MCprod/cern/wphact24/va0e/205/wphact24_cc_205_80.4_202693.xsdst ! RUN = 202693 ! NEVT = 2000
FILE = /castor/cern.ch/delphi/MCprod/cern/wphact24/va0e/205/wphact24_cc_205_80.4_202694.xsdst ! RUN = 202694 ! NEVT = 1999
FILE = /castor/cern.ch/delphi/MCprod/cern/wphact24/va0e/205/wphact24_cc_205_80.4_202695.xsdst ! RUN = 202695 ! NEVT = 1999
FILE = /castor/cern.ch/delphi/MCprod/cern/wphact24/va0e/205/wphact24_cc_205_80.4_202696.xsdst ! RUN = 202696 ! NEVT = 2000
FILE = /castor/cern.ch/delphi/MCprod/cern/wphact24/va0e/205/wphact24_cc_205_80.4_202697.xsdst ! RUN = 202697 ! NEVT = 1998
FILE = /castor/cern.ch/delphi/MCprod/cern/wphact24/va0e/205/wphact24_cc_205_80.4_202698.xsdst ! RUN = 202698 ! NEVT = 1999
FILE = /castor/cern.ch/delphi/MCprod/cern/wphact24/va0e/205/wphact24_cc_205_80.4_202699.xsdst ! RUN = 202699 ! NEVT = 1999
FILE = /castor/cern.ch/delphi/MCprod/cern/wphact24/va0e/205/wphact24_cc_205_80.4_202700.xsdst ! RUN = 202700 ! NEVT = 1998
FILE = /castor/cern.ch/delphi/MCprod/cern/wphact24/va0e/205/wphact24_cc_205_80.4_202701.xsdst ! RUN = 202701 ! NEVT = 2000
FILE = /castor/cern.ch/delphi/MCprod/cern/wphact24/va0e/205/wphact24_cc_205_80.4_202703.xsdst ! RUN = 202703 ! NEVT = 2000
FILE = /castor/cern.ch/delphi/MCprod/cern/wphact24/va0e/205/wphact24_cc_205_80.4_202704.xsdst ! RUN = 202704 ! NEVT = 1999
FILE = /castor/cern.ch/delphi/MCprod/cern/wphact24/va0e/205/wphact24_cc_205_80.4_202705.xsdst ! RUN = 202705 ! NEVT = 1999
FILE = /castor/cern.ch/delphi/MCprod/cern/wphact24/va0e/205/wphact24_cc_205_80.4_202706.xsdst ! RUN = 202706 ! NEVT = 1999
FILE = /castor/cern.ch/delphi/MCprod/cern/wphact24/va0e/205/wphact24_cc_205_80.4_202707.xsdst ! RUN = 202707 ! NEVT = 2000
FILE = /castor/cern.ch/delphi/MCprod/cern/wphact24/va0e/205/wphact24_cc_205_80.4_202708.xsdst ! RUN = 202708 ! NEVT = 1380
FILE = /castor/cern.ch/delphi/MCprod/cern/wphact24/va0e/205/wphact24_cc_205_80.4_202709.xsdst ! RUN = 202709 ! NEVT = 1999
FILE = /castor/cern.ch/delphi/MCprod/cern/wphact24/va0e/205/wphact24_cc_205_80.4_202710.xsdst ! RUN = 202710 ! NEVT = 1999
FILE = /castor/cern.ch/delphi/MCprod/cern/wphact24/va0e/205/wphact24_cc_205_80.4_202711.xsdst ! RUN = 202711 ! NEVT = 2000
FILE = /castor/cern.ch/delphi/MCprod/cern/wphact24/va0e/205/wphact24_cc_205_80.4_202712.xsdst ! RUN = 202712 ! NEVT = 2000
FILE = /castor/cern.ch/delphi/MCprod/cern/wphact24/va0e/205/wphact24_cc_205_80.4_202713.xsdst ! RUN = 202713 ! NEVT = 1999
FILE = /castor/cern.ch/delphi/MCprod/cern/wphact24/va0e/205/wphact24_cc_205_80.4_202714.xsdst ! RUN = 202714 ! NEVT = 2000
FILE = /castor/cern.ch/delphi/MCprod/cern/wphact24/va0e/205/wphact24_cc_205_80.4_202715.xsdst ! RUN = 202715 ! NEVT = 2000
FILE = /castor/cern.ch/delphi/MCprod/cern/wphact24/va0e/205/wphact24_cc_205_80.4_202716.xsdst ! RUN = 202716 ! NEVT = 2000
FILE = /castor/cern.ch/delphi/MCprod/cern/wphact24/va0e/205/wphact24_cc_205_80.4_202717.xsdst ! RUN = 202717 ! NEVT = 1999
FILE = /castor/cern.ch/delphi/MCprod/cern/wphact24/va0e/205/wphact24_cc_205_80.4_202718.xsdst ! RUN = 202718 ! NEVT = 1999
FILE = /castor/cern.ch/delphi/MCprod/cern/wphact24/va0e/205/wphact24_cc_205_80.4_202719.xsdst ! RUN = 202719 ! NEVT = 1999
FILE = /castor/cern.ch/delphi/MCprod/cern/wphact24/va0e/205/wphact24_cc_205_80.4_202720.xsdst ! RUN = 202720 ! NEVT = 2000
FILE = /castor/cern.ch/delphi/MCprod/cern/wphact24/va0e/205/wphact24_cc_205_80.4_202721.xsdst ! RUN = 202721 ! NEVT = 1996
FILE = /castor/cern.ch/delphi/MCprod/cern/wphact24/va0e/205/wphact24_cc_205_80.4_202722.xsdst ! RUN = 202722 ! NEVT = 1999
FILE = /castor/cern.ch/delphi/MCprod/cern/wphact24/va0e/205/wphact24_cc_205_80.4_202723.xsdst ! RUN = 202723 ! NEVT = 1999
FILE = /castor/cern.ch/delphi/MCprod/cern/wphact24/va0e/205/wphact24_cc_205_80.4_202724.xsdst ! RUN = 202724 ! NEVT = 1999
FILE = /castor/cern.ch/delphi/MCprod/cern/wphact24/va0e/205/wphact24_cc_205_80.4_202725.xsdst ! RUN = 202725 ! NEVT = 1999
FILE = /castor/cern.ch/delphi/MCprod/cern/wphact24/va0e/205/wphact24_cc_205_80.4_202726.xsdst ! RUN = 202726 ! NEVT = 2000
FILE = /castor/cern.ch/delphi/MCprod/cern/wphact24/va0e/205/wphact24_cc_205_80.4_202727.xsdst ! RUN = 202727 ! NEVT = 2000
FILE = /castor/cern.ch/delphi/MCprod/cern/wphact24/va0e/205/wphact24_cc_205_80.4_202728.xsdst ! RUN = 202728 ! NEVT = 1998
FILE = /castor/cern.ch/delphi/MCprod/cern/wphact24/va0e/205/wphact24_cc_205_80.4_202729.xsdst ! RUN = 202729 ! NEVT = 1999
FILE = /castor/cern.ch/delphi/MCprod/cern/wphact24/va0e/205/wphact24_cc_205_80.4_202730.xsdst ! RUN = 202730 ! NEVT = 2000
FILE = /castor/cern.ch/delphi/MCprod/cern/wphact24/va0e/205/wphact24_cc_205_80.4_202731.xsdst ! RUN = 202731 ! NEVT = 2000
FILE = /castor/cern.ch/delphi/MCprod/cern/wphact24/va0e/205/wphact24_cc_205_80.4_202732.xsdst ! RUN = 202732 ! NEVT = 1999
FILE = /castor/cern.ch/delphi/MCprod/cern/wphact24/va0e/205/wphact24_cc_205_80.4_202733.xsdst ! RUN = 202733 ! NEVT = 1999
FILE = /castor/cern.ch/delphi/MCprod/cern/wphact24/va0e/205/wphact24_cc_205_80.4_202734.xsdst ! RUN = 202734 ! NEVT = 2000
FILE = /castor/cern.ch/delphi/MCprod/cern/wphact24/va0e/205/wphact24_cc_205_80.4_202735.xsdst ! RUN = 202735 ! NEVT = 2000
FILE = /castor/cern.ch/delphi/MCprod/cern/wphact24/va0e/205/wphact24_cc_205_80.4_202736.xsdst ! RUN = 202736 ! NEVT = 2000
FILE = /castor/cern.ch/delphi/MCprod/cern/wphact24/va0e/205/wphact24_cc_205_80.4_202737.xsdst ! RUN = 202737 ! NEVT = 2000
FILE = /castor/cern.ch/delphi/MCprod/cern/wphact24/va0e/205/wphact24_cc_205_80.4_202738.xsdst ! RUN = 202738 ! NEVT = 1998
FILE = /castor/cern.ch/delphi/MCprod/cern/wphact24/va0e/205/wphact24_cc_205_80.4_202739.xsdst ! RUN = 202739 ! NEVT = 2000
FILE = /castor/cern.ch/delphi/MCprod/cern/wphact24/va0e/205/wphact24_cc_205_80.4_202740.xsdst ! RUN = 202740 ! NEVT = 2000
FILE = /castor/cern.ch/delphi/MCprod/cern/wphact24/va0e/205/wphact24_cc_205_80.4_202741.xsdst ! RUN = 202741 ! NEVT = 1998
FILE = /castor/cern.ch/delphi/MCprod/cern/wphact24/va0e/205/wphact24_cc_205_80.4_202742.xsdst ! RUN = 202742 ! NEVT = 1999
FILE = /castor/cern.ch/delphi/MCprod/cern/wphact24/va0e/205/wphact24_cc_205_80.4_202743.xsdst ! RUN = 202743 ! NEVT = 2000
FILE = /castor/cern.ch/delphi/MCprod/cern/wphact24/va0e/205/wphact24_cc_205_80.4_202744.xsdst ! RUN = 202744 ! NEVT = 2000
FILE = /castor/cern.ch/delphi/MCprod/cern/wphact24/va0e/205/wphact24_cc_205_80.4_202745.xsdst ! RUN = 202745 ! NEVT = 2000
FILE = /castor/cern.ch/delphi/MCprod/cern/wphact24/va0e/205/wphact24_cc_205_80.4_202746.xsdst ! RUN = 202746 ! NEVT = 2000
FILE = /castor/cern.ch/delphi/MCprod/cern/wphact24/va0e/205/wphact24_cc_205_80.4_202747.xsdst ! RUN = 202747 ! NEVT = 2000
FILE = /castor/cern.ch/delphi/MCprod/cern/wphact24/va0e/205/wphact24_cc_205_80.4_202748.xsdst ! RUN = 202748 ! NEVT = 1998
FILE = /castor/cern.ch/delphi/MCprod/cern/wphact24/va0e/205/wphact24_cc_205_80.4_202749.xsdst ! RUN = 202749 ! NEVT = 1999
FILE = /castor/cern.ch/delphi/MCprod/cern/wphact24/va0e/205/wphact24_cc_205_80.4_202750.xsdst ! RUN = 202750 ! NEVT = 2000
FILE = /castor/cern.ch/delphi/MCprod/cern/wphact24/va0e/205/wphact24_cc_205_80.4_202751.xsdst ! RUN = 202751 ! NEVT = 2000
FILE = /castor/cern.ch/delphi/MCprod/cern/wphact24/va0e/205/wphact24_cc_205_80.4_202752.xsdst ! RUN = 202752 ! NEVT = 2000
FILE = /castor/cern.ch/delphi/MCprod/cern/wphact24/va0e/205/wphact24_cc_205_80.4_202753.xsdst ! RUN = 202753 ! NEVT = 2000
FILE = /castor/cern.ch/delphi/MCprod/cern/wphact24/va0e/205/wphact24_cc_205_80.4_202754.xsdst ! RUN = 202754 ! NEVT = 2000
FILE = /castor/cern.ch/delphi/MCprod/cern/wphact24/va0e/205/wphact24_cc_205_80.4_202755.xsdst ! RUN = 202755 ! NEVT = 1999
FILE = /castor/cern.ch/delphi/MCprod/cern/wphact24/va0e/205/wphact24_cc_205_80.4_202756.xsdst ! RUN = 202756 ! NEVT = 2000
FILE = /castor/cern.ch/delphi/MCprod/cern/wphact24/va0e/205/wphact24_cc_205_80.4_202757.xsdst ! RUN = 202757 ! NEVT = 2000
FILE = /castor/cern.ch/delphi/MCprod/cern/wphact24/va0e/205/wphact24_cc_205_80.4_202758.xsdst ! RUN = 202758 ! NEVT = 1999
FILE = /castor/cern.ch/delphi/MCprod/cern/wphact24/va0e/205/wphact24_cc_205_80.4_202759.xsdst ! RUN = 202759 ! NEVT = 2000
FILE = /castor/cern.ch/delphi/MCprod/cern/wphact24/va0e/205/wphact24_cc_205_80.4_202760.xsdst ! RUN = 202760 ! NEVT = 2000
FILE = /castor/cern.ch/delphi/MCprod/cern/wphact24/va0e/205/wphact24_cc_205_80.4_202761.xsdst ! RUN = 202761 ! NEVT = 2000
FILE = /castor/cern.ch/delphi/MCprod/cern/wphact24/va0e/205/wphact24_cc_205_80.4_202762.xsdst ! RUN = 202762 ! NEVT = 2000
FILE = /castor/cern.ch/delphi/MCprod/cern/wphact24/va0e/205/wphact24_cc_205_80.4_202763.xsdst ! RUN = 202763 ! NEVT = 1999
FILE = /castor/cern.ch/delphi/MCprod/cern/wphact24/va0e/205/wphact24_cc_205_80.4_202764.xsdst ! RUN = 202764 ! NEVT = 1999
FILE = /castor/cern.ch/delphi/MCprod/cern/wphact24/va0e/205/wphact24_cc_205_80.4_202765.xsdst ! RUN = 202765 ! NEVT = 1998
FILE = /castor/cern.ch/delphi/MCprod/cern/wphact24/va0e/205/wphact24_cc_205_80.4_202766.xsdst ! RUN = 202766 ! NEVT = 1999
FILE = /castor/cern.ch/delphi/MCprod/cern/wphact24/va0e/205/wphact24_cc_205_80.4_202767.xsdst ! RUN = 202767 ! NEVT = 2000
FILE = /castor/cern.ch/delphi/MCprod/cern/wphact24/va0e/205/wphact24_cc_205_80.4_202768.xsdst ! RUN = 202768 ! NEVT = 2000
FILE = /castor/cern.ch/delphi/MCprod/cern/wphact24/va0e/205/wphact24_cc_205_80.4_202769.xsdst ! RUN = 202769 ! NEVT = 2000
FILE = /castor/cern.ch/delphi/MCprod/cern/wphact24/va0e/205/wphact24_cc_205_80.4_202770.xsdst ! RUN = 202770 ! NEVT = 2000
FILE = /castor/cern.ch/delphi/MCprod/cern/wphact24/va0e/205/wphact24_cc_205_80.4_202771.xsdst ! RUN = 202771 ! NEVT = 1999
FILE = /castor/cern.ch/delphi/MCprod/cern/wphact24/va0e/205/wphact24_cc_205_80.4_202772.xsdst ! RUN = 202772 ! NEVT = 2000
FILE = /castor/cern.ch/delphi/MCprod/cern/wphact24/va0e/205/wphact24_cc_205_80.4_202773.xsdst ! RUN = 202773 ! NEVT = 1999
FILE = /castor/cern.ch/delphi/MCprod/cern/wphact24/va0e/205/wphact24_cc_205_80.4_202774.xsdst ! RUN = 202774 ! NEVT = 2000
FILE = /castor/cern.ch/delphi/MCprod/cern/wphact24/va0e/205/wphact24_cc_205_80.4_202775.xsdst ! RUN = 202775 ! NEVT = 1999
FILE = /castor/cern.ch/delphi/MCprod/cern/wphact24/va0e/205/wphact24_cc_205_80.4_202776.xsdst ! RUN = 202776 ! NEVT = 1998
FILE = /castor/cern.ch/delphi/MCprod/cern/wphact24/va0e/205/wphact24_cc_205_80.4_202777.xsdst ! RUN = 202777 ! NEVT = 1999
FILE = /castor/cern.ch/delphi/MCprod/cern/wphact24/va0e/205/wphact24_cc_205_80.4_202778.xsdst ! RUN = 202778 ! NEVT = 1999
FILE = /castor/cern.ch/delphi/MCprod/cern/wphact24/va0e/205/wphact24_cc_205_80.4_202779.xsdst ! RUN = 202779 ! NEVT = 1999
FILE = /castor/cern.ch/delphi/MCprod/cern/wphact24/va0e/205/wphact24_cc_205_80.4_202780.xsdst ! RUN = 202780 ! NEVT = 1999
FILE = /castor/cern.ch/delphi/MCprod/cern/wphact24/va0e/205/wphact24_cc_205_80.4_202781.xsdst ! RUN = 202781 ! NEVT = 1998
FILE = /castor/cern.ch/delphi/MCprod/cern/wphact24/va0e/205/wphact24_cc_205_80.4_202782.xsdst ! RUN = 202782 ! NEVT = 2000
FILE = /castor/cern.ch/delphi/MCprod/cern/wphact24/va0e/205/wphact24_cc_205_80.4_202783.xsdst ! RUN = 202783 ! NEVT = 2000
FILE = /castor/cern.ch/delphi/MCprod/cern/wphact24/va0e/205/wphact24_cc_205_80.4_202784.xsdst ! RUN = 202784 ! NEVT = 2000
FILE = /castor/cern.ch/delphi/MCprod/cern/wphact24/va0e/205/wphact24_cc_205_80.4_202785.xsdst ! RUN = 202785 ! NEVT = 2000
FILE = /castor/cern.ch/delphi/MCprod/cern/wphact24/va0e/205/wphact24_cc_205_80.4_202786.xsdst ! RUN = 202786 ! NEVT = 1997
FILE = /castor/cern.ch/delphi/MCprod/cern/wphact24/va0e/205/wphact24_cc_205_80.4_202787.xsdst ! RUN = 202787 ! NEVT = 1999
FILE = /castor/cern.ch/delphi/MCprod/cern/wphact24/va0e/205/wphact24_cc_205_80.4_202788.xsdst ! RUN = 202788 ! NEVT = 2000
FILE = /castor/cern.ch/delphi/MCprod/cern/wphact24/va0e/205/wphact24_cc_205_80.4_202789.xsdst ! RUN = 202789 ! NEVT = 2000
FILE = /castor/cern.ch/delphi/MCprod/cern/wphact24/va0e/205/wphact24_cc_205_80.4_202790.xsdst ! RUN = 202790 ! NEVT = 1998
FILE = /castor/cern.ch/delphi/MCprod/cern/wphact24/va0e/205/wphact24_cc_205_80.4_202791.xsdst ! RUN = 202791 ! NEVT = 1998
FILE = /castor/cern.ch/delphi/MCprod/cern/wphact24/va0e/205/wphact24_cc_205_80.4_202792.xsdst ! RUN = 202792 ! NEVT = 2000
FILE = /castor/cern.ch/delphi/MCprod/cern/wphact24/va0e/205/wphact24_cc_205_80.4_202793.xsdst ! RUN = 202793 ! NEVT = 1998
FILE = /castor/cern.ch/delphi/MCprod/cern/wphact24/va0e/205/wphact24_cc_205_80.4_202794.xsdst ! RUN = 202794 ! NEVT = 1999
FILE = /castor/cern.ch/delphi/MCprod/cern/wphact24/va0e/205/wphact24_cc_205_80.4_202795.xsdst ! RUN = 202795 ! NEVT = 1999
FILE = /castor/cern.ch/delphi/MCprod/cern/wphact24/va0e/205/wphact24_cc_205_80.4_202796.xsdst ! RUN = 202796 ! NEVT = 2000
FILE = /castor/cern.ch/delphi/MCprod/cern/wphact24/va0e/205/wphact24_cc_205_80.4_202797.xsdst ! RUN = 202797 ! NEVT = 2000
FILE = /castor/cern.ch/delphi/MCprod/cern/wphact24/va0e/205/wphact24_cc_205_80.4_202798.xsdst ! RUN = 202798 ! NEVT = 2000
FILE = /castor/cern.ch/delphi/MCprod/cern/wphact24/va0e/205/wphact24_cc_205_80.4_202799.xsdst ! RUN = 202799 ! NEVT = 2000
FILE = /castor/cern.ch/delphi/MCprod/cern/wphact24/va0e/205/wphact24_cc_205_80.4_202800.xsdst ! RUN = 202800 ! NEVT = 1999
FILE = /castor/cern.ch/delphi/MCprod/cern/wphact24/va0e/205/wphact24_cc_205_80.4_202801.xsdst ! RUN = 202801 ! NEVT = 2000
FILE = /castor/cern.ch/delphi/MCprod/cern/wphact24/va0e/205/wphact24_cc_205_80.4_202802.xsdst ! RUN = 202802 ! NEVT = 1999
FILE = /castor/cern.ch/delphi/MCprod/cern/wphact24/va0e/205/wphact24_cc_205_80.4_202803.xsdst ! RUN = 202803 ! NEVT = 1999
FILE = /castor/cern.ch/delphi/MCprod/cern/wphact24/va0e/205/wphact24_cc_205_80.4_202804.xsdst ! RUN = 202804 ! NEVT = 2000
FILE = /castor/cern.ch/delphi/MCprod/cern/wphact24/va0e/205/wphact24_cc_205_80.4_202805.xsdst ! RUN = 202805 ! NEVT = 2000
FILE = /castor/cern.ch/delphi/MCprod/cern/wphact24/va0e/205/wphact24_cc_205_80.4_202806.xsdst ! RUN = 202806 ! NEVT = 2000
FILE = /castor/cern.ch/delphi/MCprod/cern/wphact24/va0e/205/wphact24_cc_205_80.4_202807.xsdst ! RUN = 202807 ! NEVT = 1999
FILE = /castor/cern.ch/delphi/MCprod/cern/wphact24/va0e/205/wphact24_cc_205_80.4_202808.xsdst ! RUN = 202808 ! NEVT = 1998
FILE = /castor/cern.ch/delphi/MCprod/cern/wphact24/va0e/205/wphact24_cc_205_80.4_202809.xsdst ! RUN = 202809 ! NEVT = 1999
FILE = /castor/cern.ch/delphi/MCprod/cern/wphact24/va0e/205/wphact24_cc_205_80.4_202810.xsdst ! RUN = 202810 ! NEVT = 1999
FILE = /castor/cern.ch/delphi/MCprod/cern/wphact24/va0e/205/wphact24_cc_205_80.4_202811.xsdst ! RUN = 202811 ! NEVT = 1998
FILE = /castor/cern.ch/delphi/MCprod/cern/wphact24/va0e/205/wphact24_cc_205_80.4_202812.xsdst ! RUN = 202812 ! NEVT = 2000
FILE = /castor/cern.ch/delphi/MCprod/cern/wphact24/va0e/205/wphact24_cc_205_80.4_202813.xsdst ! RUN = 202813 ! NEVT = 1998
FILE = /castor/cern.ch/delphi/MCprod/cern/wphact24/va0e/205/wphact24_cc_205_80.4_202814.xsdst ! RUN = 202814 ! NEVT = 2000
FILE = /castor/cern.ch/delphi/MCprod/cern/wphact24/va0e/205/wphact24_cc_205_80.4_202815.xsdst ! RUN = 202815 ! NEVT = 1999
FILE = /castor/cern.ch/delphi/MCprod/cern/wphact24/va0e/205/wphact24_cc_205_80.4_202816.xsdst ! RUN = 202816 ! NEVT = 1999
FILE = /castor/cern.ch/delphi/MCprod/cern/wphact24/va0e/205/wphact24_cc_205_80.4_202817.xsdst ! RUN = 202817 ! NEVT = 1999
FILE = /castor/cern.ch/delphi/MCprod/cern/wphact24/va0e/205/wphact24_cc_205_80.4_202818.xsdst ! RUN = 202818 ! NEVT = 2000
FILE = /castor/cern.ch/delphi/MCprod/cern/wphact24/va0e/205/wphact24_cc_205_80.4_202819.xsdst ! RUN = 202819 ! NEVT = 2000
FILE = /castor/cern.ch/delphi/MCprod/cern/wphact24/va0e/205/wphact24_cc_205_80.4_202820.xsdst ! RUN = 202820 ! NEVT = 1999
FILE = /castor/cern.ch/delphi/MCprod/cern/wphact24/va0e/205/wphact24_cc_205_80.4_202821.xsdst ! RUN = 202821 ! NEVT = 1999
FILE = /castor/cern.ch/delphi/MCprod/cern/wphact24/va0e/205/wphact24_cc_205_80.4_202822.xsdst ! RUN = 202822 ! NEVT = 1999
FILE = /castor/cern.ch/delphi/MCprod/cern/wphact24/va0e/205/wphact24_cc_205_80.4_202823.xsdst ! RUN = 202823 ! NEVT = 1999
FILE = /castor/cern.ch/delphi/MCprod/cern/wphact24/va0e/205/wphact24_cc_205_80.4_202824.xsdst ! RUN = 202824 ! NEVT = 1999
FILE = /castor/cern.ch/delphi/MCprod/cern/wphact24/va0e/205/wphact24_cc_205_80.4_202825.xsdst ! RUN = 202825 ! NEVT = 1999
FILE = /castor/cern.ch/delphi/MCprod/cern/wphact24/va0e/205/wphact24_cc_205_80.4_202826.xsdst ! RUN = 202826 ! NEVT = 1999
FILE = /castor/cern.ch/delphi/MCprod/cern/wphact24/va0e/205/wphact24_cc_205_80.4_202827.xsdst ! RUN = 202827 ! NEVT = 2000
FILE = /castor/cern.ch/delphi/MCprod/cern/wphact24/va0e/205/wphact24_cc_205_80.4_202828.xsdst ! RUN = 202828 ! NEVT = 2000
FILE = /castor/cern.ch/delphi/MCprod/cern/wphact24/va0e/205/wphact24_cc_205_80.4_202829.xsdst ! RUN = 202829 ! NEVT = 1999
FILE = /castor/cern.ch/delphi/MCprod/cern/wphact24/va0e/205/wphact24_cc_205_80.4_202830.xsdst ! RUN = 202830 ! NEVT = 2000
FILE = /castor/cern.ch/delphi/MCprod/cern/wphact24/va0e/205/wphact24_cc_205_80.4_202831.xsdst ! RUN = 202831 ! NEVT = 2000
FILE = /castor/cern.ch/delphi/MCprod/cern/wphact24/va0e/205/wphact24_cc_205_80.4_202832.xsdst ! RUN = 202832 ! NEVT = 2000
FILE = /castor/cern.ch/delphi/MCprod/cern/wphact24/va0e/205/wphact24_cc_205_80.4_202833.xsdst ! RUN = 202833 ! NEVT = 2000
FILE = /castor/cern.ch/delphi/MCprod/cern/wphact24/va0e/205/wphact24_cc_205_80.4_202834.xsdst ! RUN = 202834 ! NEVT = 1999
FILE = /castor/cern.ch/delphi/MCprod/cern/wphact24/va0e/205/wphact24_cc_205_80.4_202835.xsdst ! RUN = 202835 ! NEVT = 1999
FILE = /castor/cern.ch/delphi/MCprod/cern/wphact24/va0e/205/wphact24_cc_205_80.4_202836.xsdst ! RUN = 202836 ! NEVT = 1998
FILE = /castor/cern.ch/delphi/MCprod/cern/wphact24/va0e/205/wphact24_cc_205_80.4_202837.xsdst ! RUN = 202837 ! NEVT = 1999
FILE = /castor/cern.ch/delphi/MCprod/cern/wphact24/va0e/205/wphact24_cc_205_80.4_202838.xsdst ! RUN = 202838 ! NEVT = 1999
FILE = /castor/cern.ch/delphi/MCprod/cern/wphact24/va0e/205/wphact24_cc_205_80.4_202839.xsdst ! RUN = 202839 ! NEVT = 2000
FILE = /castor/cern.ch/delphi/MCprod/cern/wphact24/va0e/205/wphact24_cc_205_80.4_202840.xsdst ! RUN = 202840 ! NEVT = 1999
FILE = /castor/cern.ch/delphi/MCprod/cern/wphact24/va0e/205/wphact24_cc_205_80.4_202841.xsdst ! RUN = 202841 ! NEVT = 2000
FILE = /castor/cern.ch/delphi/MCprod/cern/wphact24/va0e/205/wphact24_cc_205_80.4_202842.xsdst ! RUN = 202842 ! NEVT = 2000
FILE = /castor/cern.ch/delphi/MCprod/cern/wphact24/va0e/205/wphact24_cc_205_80.4_202843.xsdst ! RUN = 202843 ! NEVT = 2000
FILE = /castor/cern.ch/delphi/MCprod/cern/wphact24/va0e/205/wphact24_cc_205_80.4_202844.xsdst ! RUN = 202844 ! NEVT = 1999
FILE = /castor/cern.ch/delphi/MCprod/cern/wphact24/va0e/205/wphact24_cc_205_80.4_202845.xsdst ! RUN = 202845 ! NEVT = 2000
FILE = /castor/cern.ch/delphi/MCprod/cern/wphact24/va0e/205/wphact24_cc_205_80.4_202846.xsdst ! RUN = 202846 ! NEVT = 2000
FILE = /castor/cern.ch/delphi/MCprod/cern/wphact24/va0e/205/wphact24_cc_205_80.4_202848.xsdst ! RUN = 202848 ! NEVT = 2000
FILE = /castor/cern.ch/delphi/MCprod/cern/wphact24/va0e/205/wphact24_cc_205_80.4_202849.xsdst ! RUN = 202849 ! NEVT = 2000
FILE = /castor/cern.ch/delphi/MCprod/cern/wphact24/va0e/205/wphact24_cc_205_80.4_202850.xsdst ! RUN = 202850 ! NEVT = 2000
FILE = /castor/cern.ch/delphi/MCprod/cern/wphact24/va0e/205/wphact24_cc_205_80.4_202851.xsdst ! RUN = 202851 ! NEVT = 1999
FILE = /castor/cern.ch/delphi/MCprod/cern/wphact24/va0e/205/wphact24_cc_205_80.4_202852.xsdst ! RUN = 202852 ! NEVT = 2000
FILE = /castor/cern.ch/delphi/MCprod/cern/wphact24/va0e/205/wphact24_cc_205_80.4_202853.xsdst ! RUN = 202853 ! NEVT = 1999
FILE = /castor/cern.ch/delphi/MCprod/cern/wphact24/va0e/205/wphact24_cc_205_80.4_202854.xsdst ! RUN = 202854 ! NEVT = 2000
FILE = /castor/cern.ch/delphi/MCprod/cern/wphact24/va0e/205/wphact24_cc_205_80.4_202855.xsdst ! RUN = 202855 ! NEVT = 1999
FILE = /castor/cern.ch/delphi/MCprod/cern/wphact24/va0e/205/wphact24_cc_205_80.4_202856.xsdst ! RUN = 202856 ! NEVT = 1999
FILE = /castor/cern.ch/delphi/MCprod/cern/wphact24/va0e/205/wphact24_cc_205_80.4_202857.xsdst ! RUN = 202857 ! NEVT = 1999
FILE = /castor/cern.ch/delphi/MCprod/cern/wphact24/va0e/205/wphact24_cc_205_80.4_202858.xsdst ! RUN = 202858 ! NEVT = 1999
FILE = /castor/cern.ch/delphi/MCprod/cern/wphact24/va0e/205/wphact24_cc_205_80.4_202859.xsdst ! RUN = 202859 ! NEVT = 1999
FILE = /castor/cern.ch/delphi/MCprod/cern/wphact24/va0e/205/wphact24_cc_205_80.4_202860.xsdst ! RUN = 202860 ! NEVT = 2000
FILE = /castor/cern.ch/delphi/MCprod/cern/wphact24/va0e/205/wphact24_cc_205_80.4_202861.xsdst ! RUN = 202861 ! NEVT = 1999
FILE = /castor/cern.ch/delphi/MCprod/cern/wphact24/va0e/205/wphact24_cc_205_80.4_202862.xsdst ! RUN = 202862 ! NEVT = 2000
FILE = /castor/cern.ch/delphi/MCprod/cern/wphact24/va0e/205/wphact24_cc_205_80.4_202863.xsdst ! RUN = 202863 ! NEVT = 1999
FILE = /castor/cern.ch/delphi/MCprod/cern/wphact24/va0e/205/wphact24_cc_205_80.4_202864.xsdst ! RUN = 202864 ! NEVT = 2000
FILE = /castor/cern.ch/delphi/MCprod/cern/wphact24/va0e/205/wphact24_cc_205_80.4_202865.xsdst ! RUN = 202865 ! NEVT = 2000
FILE = /castor/cern.ch/delphi/MCprod/cern/wphact24/va0e/205/wphact24_cc_205_80.4_202866.xsdst ! RUN = 202866 ! NEVT = 1998
FILE = /castor/cern.ch/delphi/MCprod/cern/wphact24/va0e/205/wphact24_cc_205_80.4_202867.xsdst ! RUN = 202867 ! NEVT = 1999
FILE = /castor/cern.ch/delphi/MCprod/cern/wphact24/va0e/205/wphact24_cc_205_80.4_202868.xsdst ! RUN = 202868 ! NEVT = 2000
FILE = /castor/cern.ch/delphi/MCprod/cern/wphact24/va0e/205/wphact24_cc_205_80.4_202869.xsdst ! RUN = 202869 ! NEVT = 2000
FILE = /castor/cern.ch/delphi/MCprod/cern/wphact24/va0e/205/wphact24_cc_205_80.4_202870.xsdst ! RUN = 202870 ! NEVT = 2000
FILE = /castor/cern.ch/delphi/MCprod/cern/wphact24/va0e/205/wphact24_cc_205_80.4_202871.xsdst ! RUN = 202871 ! NEVT = 1999
FILE = /castor/cern.ch/delphi/MCprod/cern/wphact24/va0e/205/wphact24_cc_205_80.4_202872.xsdst ! RUN = 202872 ! NEVT = 2000
FILE = /castor/cern.ch/delphi/MCprod/cern/wphact24/va0e/205/wphact24_cc_205_80.4_202873.xsdst ! RUN = 202873 ! NEVT = 1999
FILE = /castor/cern.ch/delphi/MCprod/cern/wphact24/va0e/205/wphact24_cc_205_80.4_202874.xsdst ! RUN = 202874 ! NEVT = 421
FILE = /castor/cern.ch/delphi/MCprod/cern/wphact24/va0e/205/wphact24_cc_205_80.4_202875.xsdst ! RUN = 202875 ! NEVT = 1998
FILE = /castor/cern.ch/delphi/MCprod/cern/wphact24/va0e/205/wphact24_cc_205_80.4_202876.xsdst ! RUN = 202876 ! NEVT = 2000
FILE = /castor/cern.ch/delphi/MCprod/cern/wphact24/va0e/205/wphact24_cc_205_80.4_202877.xsdst ! RUN = 202877 ! NEVT = 1999
FILE = /castor/cern.ch/delphi/MCprod/cern/wphact24/va0e/205/wphact24_cc_205_80.4_202878.xsdst ! RUN = 202878 ! NEVT = 1999
FILE = /castor/cern.ch/delphi/MCprod/cern/wphact24/va0e/205/wphact24_cc_205_80.4_202879.xsdst ! RUN = 202879 ! NEVT = 1999
FILE = /castor/cern.ch/delphi/MCprod/cern/wphact24/va0e/205/wphact24_cc_205_80.4_202880.xsdst ! RUN = 202880 ! NEVT = 2000
FILE = /castor/cern.ch/delphi/MCprod/cern/wphact24/va0e/205/wphact24_cc_205_80.4_202881.xsdst ! RUN = 202881 ! NEVT = 1998
FILE = /castor/cern.ch/delphi/MCprod/cern/wphact24/va0e/205/wphact24_cc_205_80.4_202882.xsdst ! RUN = 202882 ! NEVT = 1999
FILE = /castor/cern.ch/delphi/MCprod/cern/wphact24/va0e/205/wphact24_cc_205_80.4_202883.xsdst ! RUN = 202883 ! NEVT = 1999
FILE = /castor/cern.ch/delphi/MCprod/cern/wphact24/va0e/205/wphact24_cc_205_80.4_202884.xsdst ! RUN = 202884 ! NEVT = 1999
FILE = /castor/cern.ch/delphi/MCprod/cern/wphact24/va0e/205/wphact24_cc_205_80.4_202885.xsdst ! RUN = 202885 ! NEVT = 2000
FILE = /castor/cern.ch/delphi/MCprod/cern/wphact24/va0e/205/wphact24_cc_205_80.4_202886.xsdst ! RUN = 202886 ! NEVT = 2000
FILE = /castor/cern.ch/delphi/MCprod/cern/wphact24/va0e/205/wphact24_cc_205_80.4_202887.xsdst ! RUN = 202887 ! NEVT = 2000
FILE = /castor/cern.ch/delphi/MCprod/cern/wphact24/va0e/205/wphact24_cc_205_80.4_202888.xsdst ! RUN = 202888 ! NEVT = 2000
FILE = /castor/cern.ch/delphi/MCprod/cern/wphact24/va0e/205/wphact24_cc_205_80.4_202889.xsdst ! RUN = 202889 ! NEVT = 1999
FILE = /castor/cern.ch/delphi/MCprod/cern/wphact24/va0e/205/wphact24_cc_205_80.4_202890.xsdst ! RUN = 202890 ! NEVT = 1998
FILE = /castor/cern.ch/delphi/MCprod/cern/wphact24/va0e/205/wphact24_cc_205_80.4_202891.xsdst ! RUN = 202891 ! NEVT = 2000
FILE = /castor/cern.ch/delphi/MCprod/cern/wphact24/va0e/205/wphact24_cc_205_80.4_202892.xsdst ! RUN = 202892 ! NEVT = 2000
FILE = /castor/cern.ch/delphi/MCprod/cern/wphact24/va0e/205/wphact24_cc_205_80.4_202893.xsdst ! RUN = 202893 ! NEVT = 2000
FILE = /castor/cern.ch/delphi/MCprod/cern/wphact24/va0e/205/wphact24_cc_205_80.4_202894.xsdst ! RUN = 202894 ! NEVT = 1999
FILE = /castor/cern.ch/delphi/MCprod/cern/wphact24/va0e/205/wphact24_cc_205_80.4_202895.xsdst ! RUN = 202895 ! NEVT = 2000
FILE = /castor/cern.ch/delphi/MCprod/cern/wphact24/va0e/205/wphact24_cc_205_80.4_202896.xsdst ! RUN = 202896 ! NEVT = 1999
FILE = /castor/cern.ch/delphi/MCprod/cern/wphact24/va0e/205/wphact24_cc_205_80.4_202897.xsdst ! RUN = 202897 ! NEVT = 1999
FILE = /castor/cern.ch/delphi/MCprod/cern/wphact24/va0e/205/wphact24_cc_205_80.4_202898.xsdst ! RUN = 202898 ! NEVT = 2000
FILE = /castor/cern.ch/delphi/MCprod/cern/wphact24/va0e/205/wphact24_cc_205_80.4_202899.xsdst ! RUN = 202899 ! NEVT = 2000
FILE = /castor/cern.ch/delphi/MCprod/cern/wphact24/va0e/205/wphact24_cc_205_80.4_202900.xsdst ! RUN = 202900 ! NEVT = 1998
FILE = /castor/cern.ch/delphi/MCprod/cern/wphact24/va0e/205/wphact24_cc_205_80.4_202901.xsdst ! RUN = 202901 ! NEVT = 2000
FILE = /castor/cern.ch/delphi/MCprod/cern/wphact24/va0e/205/wphact24_cc_205_80.4_202902.xsdst ! RUN = 202902 ! NEVT = 2000
FILE = /castor/cern.ch/delphi/MCprod/cern/wphact24/va0e/205/wphact24_cc_205_80.4_202903.xsdst ! RUN = 202903 ! NEVT = 1998
FILE = /castor/cern.ch/delphi/MCprod/cern/wphact24/va0e/205/wphact24_cc_205_80.4_202904.xsdst ! RUN = 202904 ! NEVT = 2000
FILE = /castor/cern.ch/delphi/MCprod/cern/wphact24/va0e/205/wphact24_cc_205_80.4_202905.xsdst ! RUN = 202905 ! NEVT = 1997
FILE = /castor/cern.ch/delphi/MCprod/cern/wphact24/va0e/205/wphact24_cc_205_80.4_202906.xsdst ! RUN = 202906 ! NEVT = 1998
FILE = /castor/cern.ch/delphi/MCprod/cern/wphact24/va0e/205/wphact24_cc_205_80.4_202907.xsdst ! RUN = 202907 ! NEVT = 2000
FILE = /castor/cern.ch/delphi/MCprod/cern/wphact24/va0e/205/wphact24_cc_205_80.4_202908.xsdst ! RUN = 202908 ! NEVT = 1999
FILE = /castor/cern.ch/delphi/MCprod/cern/wphact24/va0e/205/wphact24_cc_205_80.4_202909.xsdst ! RUN = 202909 ! NEVT = 2000
FILE = /castor/cern.ch/delphi/MCprod/cern/wphact24/va0e/205/wphact24_cc_205_80.4_202910.xsdst ! RUN = 202910 ! NEVT = 1999
FILE = /castor/cern.ch/delphi/MCprod/cern/wphact24/va0e/205/wphact24_cc_205_80.4_202911.xsdst ! RUN = 202911 ! NEVT = 2000
FILE = /castor/cern.ch/delphi/MCprod/cern/wphact24/va0e/205/wphact24_cc_205_80.4_202912.xsdst ! RUN = 202912 ! NEVT = 2000
FILE = /castor/cern.ch/delphi/MCprod/cern/wphact24/va0e/205/wphact24_cc_205_80.4_202913.xsdst ! RUN = 202913 ! NEVT = 1999
FILE = /castor/cern.ch/delphi/MCprod/cern/wphact24/va0e/205/wphact24_cc_205_80.4_202914.xsdst ! RUN = 202914 ! NEVT = 2000
FILE = /castor/cern.ch/delphi/MCprod/cern/wphact24/va0e/205/wphact24_cc_205_80.4_202915.xsdst ! RUN = 202915 ! NEVT = 2000
FILE = /castor/cern.ch/delphi/MCprod/cern/wphact24/va0e/205/wphact24_cc_205_80.4_202916.xsdst ! RUN = 202916 ! NEVT = 1999
FILE = /castor/cern.ch/delphi/MCprod/cern/wphact24/va0e/205/wphact24_cc_205_80.4_202917.xsdst ! RUN = 202917 ! NEVT = 1999
FILE = /castor/cern.ch/delphi/MCprod/cern/wphact24/va0e/205/wphact24_cc_205_80.4_202918.xsdst ! RUN = 202918 ! NEVT = 1999
FILE = /castor/cern.ch/delphi/MCprod/cern/wphact24/va0e/205/wphact24_cc_205_80.4_202919.xsdst ! RUN = 202919 ! NEVT = 2000
FILE = /castor/cern.ch/delphi/MCprod/cern/wphact24/va0e/205/wphact24_cc_205_80.4_202920.xsdst ! RUN = 202920 ! NEVT = 1999
FILE = /castor/cern.ch/delphi/MCprod/cern/wphact24/va0e/205/wphact24_cc_205_80.4_202921.xsdst ! RUN = 202921 ! NEVT = 2000
FILE = /castor/cern.ch/delphi/MCprod/cern/wphact24/va0e/205/wphact24_cc_205_80.4_202922.xsdst ! RUN = 202922 ! NEVT = 2000
FILE = /castor/cern.ch/delphi/MCprod/cern/wphact24/va0e/205/wphact24_cc_205_80.4_202923.xsdst ! RUN = 202923 ! NEVT = 1999
FILE = /castor/cern.ch/delphi/MCprod/cern/wphact24/va0e/205/wphact24_cc_205_80.4_202924.xsdst ! RUN = 202924 ! NEVT = 2000
FILE = /castor/cern.ch/delphi/MCprod/cern/wphact24/va0e/205/wphact24_cc_205_80.4_202925.xsdst ! RUN = 202925 ! NEVT = 1998
FILE = /castor/cern.ch/delphi/MCprod/cern/wphact24/va0e/205/wphact24_cc_205_80.4_202926.xsdst ! RUN = 202926 ! NEVT = 2000
FILE = /castor/cern.ch/delphi/MCprod/cern/wphact24/va0e/205/wphact24_cc_205_80.4_202927.xsdst ! RUN = 202927 ! NEVT = 2000
FILE = /castor/cern.ch/delphi/MCprod/cern/wphact24/va0e/205/wphact24_cc_205_80.4_202928.xsdst ! RUN = 202928 ! NEVT = 2000
FILE = /castor/cern.ch/delphi/MCprod/cern/wphact24/va0e/205/wphact24_cc_205_80.4_202929.xsdst ! RUN = 202929 ! NEVT = 2000
FILE = /castor/cern.ch/delphi/MCprod/cern/wphact24/va0e/205/wphact24_cc_205_80.4_202930.xsdst ! RUN = 202930 ! NEVT = 2000
FILE = /castor/cern.ch/delphi/MCprod/cern/wphact24/va0e/205/wphact24_cc_205_80.4_202931.xsdst ! RUN = 202931 ! NEVT = 2000
FILE = /castor/cern.ch/delphi/MCprod/cern/wphact24/va0e/205/wphact24_cc_205_80.4_202932.xsdst ! RUN = 202932 ! NEVT = 2000
FILE = /castor/cern.ch/delphi/MCprod/cern/wphact24/va0e/205/wphact24_cc_205_80.4_202933.xsdst ! RUN = 202933 ! NEVT = 2000
FILE = /castor/cern.ch/delphi/MCprod/cern/wphact24/va0e/205/wphact24_cc_205_80.4_202934.xsdst ! RUN = 202934 ! NEVT = 1999
FILE = /castor/cern.ch/delphi/MCprod/cern/wphact24/va0e/205/wphact24_cc_205_80.4_202935.xsdst ! RUN = 202935 ! NEVT = 1998
FILE = /castor/cern.ch/delphi/MCprod/cern/wphact24/va0e/205/wphact24_cc_205_80.4_202936.xsdst ! RUN = 202936 ! NEVT = 2000
FILE = /castor/cern.ch/delphi/MCprod/cern/wphact24/va0e/205/wphact24_cc_205_80.4_202937.xsdst ! RUN = 202937 ! NEVT = 1999
FILE = /castor/cern.ch/delphi/MCprod/cern/wphact24/va0e/205/wphact24_cc_205_80.4_202938.xsdst ! RUN = 202938 ! NEVT = 1999
FILE = /castor/cern.ch/delphi/MCprod/cern/wphact24/va0e/205/wphact24_cc_205_80.4_202939.xsdst ! RUN = 202939 ! NEVT = 1999
FILE = /castor/cern.ch/delphi/MCprod/cern/wphact24/va0e/205/wphact24_cc_205_80.4_202940.xsdst ! RUN = 202940 ! NEVT = 1998
FILE = /castor/cern.ch/delphi/MCprod/cern/wphact24/va0e/205/wphact24_cc_205_80.4_202941.xsdst ! RUN = 202941 ! NEVT = 2000
FILE = /castor/cern.ch/delphi/MCprod/cern/wphact24/va0e/205/wphact24_cc_205_80.4_202942.xsdst ! RUN = 202942 ! NEVT = 2000
FILE = /castor/cern.ch/delphi/MCprod/cern/wphact24/va0e/205/wphact24_cc_205_80.4_202943.xsdst ! RUN = 202943 ! NEVT = 2000
FILE = /castor/cern.ch/delphi/MCprod/cern/wphact24/va0e/205/wphact24_cc_205_80.4_202944.xsdst ! RUN = 202944 ! NEVT = 2000
FILE = /castor/cern.ch/delphi/MCprod/cern/wphact24/va0e/205/wphact24_cc_205_80.4_202945.xsdst ! RUN = 202945 ! NEVT = 2000
FILE = /castor/cern.ch/delphi/MCprod/cern/wphact24/va0e/205/wphact24_cc_205_80.4_202946.xsdst ! RUN = 202946 ! NEVT = 2000
FILE = /castor/cern.ch/delphi/MCprod/cern/wphact24/va0e/205/wphact24_cc_205_80.4_202947.xsdst ! RUN = 202947 ! NEVT = 2000
FILE = /castor/cern.ch/delphi/MCprod/cern/wphact24/va0e/205/wphact24_cc_205_80.4_202948.xsdst ! RUN = 202948 ! NEVT = 1997
FILE = /castor/cern.ch/delphi/MCprod/cern/wphact24/va0e/205/wphact24_cc_205_80.4_202949.xsdst ! RUN = 202949 ! NEVT = 2000
FILE = /castor/cern.ch/delphi/MCprod/cern/wphact24/va0e/205/wphact24_cc_205_80.4_202950.xsdst ! RUN = 202950 ! NEVT = 2000
FILE = /castor/cern.ch/delphi/MCprod/cern/wphact24/va0e/205/wphact24_cc_205_80.4_202951.xsdst ! RUN = 202951 ! NEVT = 2000
FILE = /castor/cern.ch/delphi/MCprod/cern/wphact24/va0e/205/wphact24_cc_205_80.4_202952.xsdst ! RUN = 202952 ! NEVT = 2000
FILE = /castor/cern.ch/delphi/MCprod/cern/wphact24/va0e/205/wphact24_cc_205_80.4_202953.xsdst ! RUN = 202953 ! NEVT = 1999
FILE = /castor/cern.ch/delphi/MCprod/cern/wphact24/va0e/205/wphact24_cc_205_80.4_202954.xsdst ! RUN = 202954 ! NEVT = 2000
FILE = /castor/cern.ch/delphi/MCprod/cern/wphact24/va0e/205/wphact24_cc_205_80.4_202955.xsdst ! RUN = 202955 ! NEVT = 2000
FILE = /castor/cern.ch/delphi/MCprod/cern/wphact24/va0e/205/wphact24_cc_205_80.4_202956.xsdst ! RUN = 202956 ! NEVT = 2000
FILE = /castor/cern.ch/delphi/MCprod/cern/wphact24/va0e/205/wphact24_cc_205_80.4_202957.xsdst ! RUN = 202957 ! NEVT = 1999
FILE = /castor/cern.ch/delphi/MCprod/cern/wphact24/va0e/205/wphact24_cc_205_80.4_202958.xsdst ! RUN = 202958 ! NEVT = 1390
FILE = /castor/cern.ch/delphi/MCprod/cern/wphact24/va0e/205/wphact24_cc_205_80.4_202959.xsdst ! RUN = 202959 ! NEVT = 1999
FILE = /castor/cern.ch/delphi/MCprod/cern/wphact24/va0e/205/wphact24_cc_205_80.4_202960.xsdst ! RUN = 202960 ! NEVT = 1998
FILE = /castor/cern.ch/delphi/MCprod/cern/wphact24/va0e/205/wphact24_cc_205_80.4_202961.xsdst ! RUN = 202961 ! NEVT = 2000
FILE = /castor/cern.ch/delphi/MCprod/cern/wphact24/va0e/205/wphact24_cc_205_80.4_202962.xsdst ! RUN = 202962 ! NEVT = 2000
FILE = /castor/cern.ch/delphi/MCprod/cern/wphact24/va0e/205/wphact24_cc_205_80.4_202963.xsdst ! RUN = 202963 ! NEVT = 2000
FILE = /castor/cern.ch/delphi/MCprod/cern/wphact24/va0e/205/wphact24_cc_205_80.4_202964.xsdst ! RUN = 202964 ! NEVT = 2000
FILE = /castor/cern.ch/delphi/MCprod/cern/wphact24/va0e/205/wphact24_cc_205_80.4_202965.xsdst ! RUN = 202965 ! NEVT = 2000
FILE = /castor/cern.ch/delphi/MCprod/cern/wphact24/va0e/205/wphact24_cc_205_80.4_202966.xsdst ! RUN = 202966 ! NEVT = 654
FILE = /castor/cern.ch/delphi/MCprod/cern/wphact24/va0e/205/wphact24_cc_205_80.4_202967.xsdst ! RUN = 202967 ! NEVT = 2000
FILE = /castor/cern.ch/delphi/MCprod/cern/wphact24/va0e/205/wphact24_cc_205_80.4_202968.xsdst ! RUN = 202968 ! NEVT = 2000
FILE = /castor/cern.ch/delphi/MCprod/cern/wphact24/va0e/205/wphact24_cc_205_80.4_202969.xsdst ! RUN = 202969 ! NEVT = 1998
FILE = /castor/cern.ch/delphi/MCprod/cern/wphact24/va0e/205/wphact24_cc_205_80.4_202970.xsdst ! RUN = 202970 ! NEVT = 2000
FILE = /castor/cern.ch/delphi/MCprod/cern/wphact24/va0e/205/wphact24_cc_205_80.4_202971.xsdst ! RUN = 202971 ! NEVT = 2000
FILE = /castor/cern.ch/delphi/MCprod/cern/wphact24/va0e/205/wphact24_cc_205_80.4_202972.xsdst ! RUN = 202972 ! NEVT = 1999
FILE = /castor/cern.ch/delphi/MCprod/cern/wphact24/va0e/205/wphact24_cc_205_80.4_202973.xsdst ! RUN = 202973 ! NEVT = 2000
FILE = /castor/cern.ch/delphi/MCprod/cern/wphact24/va0e/205/wphact24_cc_205_80.4_202974.xsdst ! RUN = 202974 ! NEVT = 2000
FILE = /castor/cern.ch/delphi/MCprod/cern/wphact24/va0e/205/wphact24_cc_205_80.4_202975.xsdst ! RUN = 202975 ! NEVT = 2000
FILE = /castor/cern.ch/delphi/MCprod/cern/wphact24/va0e/205/wphact24_cc_205_80.4_202976.xsdst ! RUN = 202976 ! NEVT = 2000
FILE = /castor/cern.ch/delphi/MCprod/cern/wphact24/va0e/205/wphact24_cc_205_80.4_202977.xsdst ! RUN = 202977 ! NEVT = 2000
FILE = /castor/cern.ch/delphi/MCprod/cern/wphact24/va0e/205/wphact24_cc_205_80.4_202978.xsdst ! RUN = 202978 ! NEVT = 2000
FILE = /castor/cern.ch/delphi/MCprod/cern/wphact24/va0e/205/wphact24_cc_205_80.4_202979.xsdst ! RUN = 202979 ! NEVT = 1999
FILE = /castor/cern.ch/delphi/MCprod/cern/wphact24/va0e/205/wphact24_cc_205_80.4_202980.xsdst ! RUN = 202980 ! NEVT = 1999
FILE = /castor/cern.ch/delphi/MCprod/cern/wphact24/va0e/205/wphact24_cc_205_80.4_202981.xsdst ! RUN = 202981 ! NEVT = 1999
FILE = /castor/cern.ch/delphi/MCprod/cern/wphact24/va0e/205/wphact24_cc_205_80.4_202982.xsdst ! RUN = 202982 ! NEVT = 1639
FILE = /castor/cern.ch/delphi/MCprod/cern/wphact24/va0e/205/wphact24_cc_205_80.4_202983.xsdst ! RUN = 202983 ! NEVT = 1999
FILE = /castor/cern.ch/delphi/MCprod/cern/wphact24/va0e/205/wphact24_cc_205_80.4_202984.xsdst ! RUN = 202984 ! NEVT = 2000
FILE = /castor/cern.ch/delphi/MCprod/cern/wphact24/va0e/205/wphact24_cc_205_80.4_202985.xsdst ! RUN = 202985 ! NEVT = 1999
FILE = /castor/cern.ch/delphi/MCprod/cern/wphact24/va0e/205/wphact24_cc_205_80.4_202986.xsdst ! RUN = 202986 ! NEVT = 1998
FILE = /castor/cern.ch/delphi/MCprod/cern/wphact24/va0e/205/wphact24_cc_205_80.4_202987.xsdst ! RUN = 202987 ! NEVT = 1999
FILE = /castor/cern.ch/delphi/MCprod/cern/wphact24/va0e/205/wphact24_cc_205_80.4_202988.xsdst ! RUN = 202988 ! NEVT = 1998
FILE = /castor/cern.ch/delphi/MCprod/cern/wphact24/va0e/205/wphact24_cc_205_80.4_202989.xsdst ! RUN = 202989 ! NEVT = 2000
FILE = /castor/cern.ch/delphi/MCprod/cern/wphact24/va0e/205/wphact24_cc_205_80.4_202990.xsdst ! RUN = 202990 ! NEVT = 1999
FILE = /castor/cern.ch/delphi/MCprod/cern/wphact24/va0e/205/wphact24_cc_205_80.4_202991.xsdst ! RUN = 202991 ! NEVT = 2000
FILE = /castor/cern.ch/delphi/MCprod/cern/wphact24/va0e/205/wphact24_cc_205_80.4_202992.xsdst ! RUN = 202992 ! NEVT = 2000
FILE = /castor/cern.ch/delphi/MCprod/cern/wphact24/va0e/205/wphact24_cc_205_80.4_202994.xsdst ! RUN = 202994 ! NEVT = 2000
FILE = /castor/cern.ch/delphi/MCprod/cern/wphact24/va0e/205/wphact24_cc_205_80.4_202995.xsdst ! RUN = 202995 ! NEVT = 1998
FILE = /castor/cern.ch/delphi/MCprod/cern/wphact24/va0e/205/wphact24_cc_205_80.4_202996.xsdst ! RUN = 202996 ! NEVT = 2000
FILE = /castor/cern.ch/delphi/MCprod/cern/wphact24/va0e/205/wphact24_cc_205_80.4_202997.xsdst ! RUN = 202997 ! NEVT = 1998
FILE = /castor/cern.ch/delphi/MCprod/cern/wphact24/va0e/205/wphact24_cc_205_80.4_202998.xsdst ! RUN = 202998 ! NEVT = 2000
FILE = /castor/cern.ch/delphi/MCprod/cern/wphact24/va0e/205/wphact24_cc_205_80.4_202999.xsdst ! RUN = 202999 ! NEVT = 1998
FILE = /castor/cern.ch/delphi/MCprod/cern/wphact24/va0e/205/wphact24_cc_205_80.4_203000.xsdst ! RUN = 203000 ! NEVT = 2000
