*
*   Nickname     : xs_hzha03pyth6156hzcq_e206.5_m105_m12_ca0_1l_u1
*   Generic Name : //CERN/DELPHI/P02_SIMD/XSDST/HZHA03PYTH6156HZCQ/E206.5/CERN/SUMT/C001-10
*   Description  :  Extended Short DST simulation a0u1 done at ecms=206.5 , CERN
*---
*   Comments     : in total 9078 events in 10 files time stamp: Sat Apr 13 01:11:27 2002
*---
*
*
*
*
*
FILE = /castor/cern.ch/delphi/MCprod/cern/hzha03pyth6156/va0u/206.5/hzha03pyth6156_hzcq_206.5_105_12_10628.xsdst ! RUN = 10628 ! NEVT = 890
FILE = /castor/cern.ch/delphi/MCprod/cern/hzha03pyth6156/va0u/206.5/hzha03pyth6156_hzcq_206.5_105_12_10632.xsdst ! RUN = 10632 ! NEVT = 999
FILE = /castor/cern.ch/delphi/MCprod/cern/hzha03pyth6156/va0u/206.5/hzha03pyth6156_hzcq_206.5_105_12_10636.xsdst ! RUN = 10636 ! NEVT = 1000
FILE = /castor/cern.ch/delphi/MCprod/cern/hzha03pyth6156/va0u/206.5/hzha03pyth6156_hzcq_206.5_105_12_10640.xsdst ! RUN = 10640 ! NEVT = 1000
FILE = /castor/cern.ch/delphi/MCprod/cern/hzha03pyth6156/va0u/206.5/hzha03pyth6156_hzcq_206.5_105_12_10644.xsdst ! RUN = 10644 ! NEVT = 1000
FILE = /castor/cern.ch/delphi/MCprod/cern/hzha03pyth6156/va0u/206.5/hzha03pyth6156_hzcq_206.5_105_12_10648.xsdst ! RUN = 10648 ! NEVT = 999
FILE = /castor/cern.ch/delphi/MCprod/cern/hzha03pyth6156/va0u/206.5/hzha03pyth6156_hzcq_206.5_105_12_10652.xsdst ! RUN = 10652 ! NEVT = 1000
FILE = /castor/cern.ch/delphi/MCprod/cern/hzha03pyth6156/va0u/206.5/hzha03pyth6156_hzcq_206.5_105_12_10656.xsdst ! RUN = 10656 ! NEVT = 191
FILE = /castor/cern.ch/delphi/MCprod/cern/hzha03pyth6156/va0u/206.5/hzha03pyth6156_hzcq_206.5_105_12_10660.xsdst ! RUN = 10660 ! NEVT = 1000
FILE = /castor/cern.ch/delphi/MCprod/cern/hzha03pyth6156/va0u/206.5/hzha03pyth6156_hzcq_206.5_105_12_10664.xsdst ! RUN = 10664 ! NEVT = 999
