*
*   Nickname     : xs_hzha03pyth6156hzcq_e206.5_m90_m20_ca0_1l_u1
*   Generic Name : //CERN/DELPHI/P02_SIMD/XSDST/HZHA03PYTH6156HZCQ/E206.5/CERN/SUMT/C001-10
*   Description  :  Extended Short DST simulation a0u1 done at ecms=206.5 , CERN
*---
*   Comments     : in total 9991 events in 10 files time stamp: Mon Apr 15 15:11:37 2002
*---
*
*
*
*
*
FILE = /castor/cern.ch/delphi/MCprod/cern/hzha03pyth6156/va0u/206.5/hzha03pyth6156_hzcq_206.5_90_20_9208.xsdst ! RUN = 9208 ! NEVT = 999
FILE = /castor/cern.ch/delphi/MCprod/cern/hzha03pyth6156/va0u/206.5/hzha03pyth6156_hzcq_206.5_90_20_9212.xsdst ! RUN = 9212 ! NEVT = 998
FILE = /castor/cern.ch/delphi/MCprod/cern/hzha03pyth6156/va0u/206.5/hzha03pyth6156_hzcq_206.5_90_20_9216.xsdst ! RUN = 9216 ! NEVT = 1000
FILE = /castor/cern.ch/delphi/MCprod/cern/hzha03pyth6156/va0u/206.5/hzha03pyth6156_hzcq_206.5_90_20_9220.xsdst ! RUN = 9220 ! NEVT = 999
FILE = /castor/cern.ch/delphi/MCprod/cern/hzha03pyth6156/va0u/206.5/hzha03pyth6156_hzcq_206.5_90_20_9224.xsdst ! RUN = 9224 ! NEVT = 999
FILE = /castor/cern.ch/delphi/MCprod/cern/hzha03pyth6156/va0u/206.5/hzha03pyth6156_hzcq_206.5_90_20_9228.xsdst ! RUN = 9228 ! NEVT = 999
FILE = /castor/cern.ch/delphi/MCprod/cern/hzha03pyth6156/va0u/206.5/hzha03pyth6156_hzcq_206.5_90_20_9232.xsdst ! RUN = 9232 ! NEVT = 999
FILE = /castor/cern.ch/delphi/MCprod/cern/hzha03pyth6156/va0u/206.5/hzha03pyth6156_hzcq_206.5_90_20_9236.xsdst ! RUN = 9236 ! NEVT = 998
FILE = /castor/cern.ch/delphi/MCprod/cern/hzha03pyth6156/va0u/206.5/hzha03pyth6156_hzcq_206.5_90_20_9240.xsdst ! RUN = 9240 ! NEVT = 1000
FILE = /castor/cern.ch/delphi/MCprod/cern/hzha03pyth6156/va0u/206.5/hzha03pyth6156_hzcq_206.5_90_20_9244.xsdst ! RUN = 9244 ! NEVT = 1000
