# index of html fragments. Provides additional information for sorting files. DO NOT REMOVE.
#File Name                                       year processing   category      files          events     energy       mass      mass2       labo
xs_hzha03pyth6156hcee_e206.5_mxxx_la0_1l_u1        2000      va0u1      HIGGS        120           59904      206.5       87.5          -       lyon
xs_hzha03pyth6156hcmm_e206.5_mxxx_ra0_1l_u1        2000      va0u1      HIGGS        124           61995      206.5       90.0          -       ruth
xs_hzha03pyth6156hcnn_e206.5_mxxx_ka0_1l_u1        2000      va0u1      HIGGS        153           61195      206.5       70.0          -       karl
xs_hzha03pyth6156hcqq_e206.5_mxxx_la0_1l_u1        2000      va0u1      HIGGS        123           61458      206.5       97.5          -       lyon
xs_hzha03pyth6156hgee_e206.5_mxxx_la0_1l_u1        2000      va0u1      HIGGS        121           60423      206.5       82.5          -       lyon
xs_hzha03pyth6156hgmm_e206.5_mxxx_ra0_1l_u1        2000      va0u1      HIGGS        124           61997      206.5       95.0          -       ruth
xs_hzha03pyth6156hgnn_e206.5_mxxx_ka0_1l_u1        2000      va0u1      HIGGS        155           61810      206.5       67.5          -       karl
xs_hzha03pyth6156hgqq_e206.5_mxxx_la0_1l_u1        2000      va0u1      HIGGS        121           60435      206.5       90.0          -       lyon
xs_hzha03pyth6156hsee_e206.5_mxxx_la0_1l_u1        2000      va0u1      HIGGS        122           60912      206.5       80.0          -       lyon
xs_hzha03pyth6156hsmm_e206.5_mxxx_ra0_1l_u1        2000      va0u1      HIGGS        123           61487      206.5      115.0          -       ruth
xs_hzha03pyth6156hsnn_e206.5_mxxx_ka0_1l_u1        2000      va0u1      HIGGS        154           61475      206.5      105.0          -       karl
xs_hzha03pyth6156hsqq_e206.5_mxxx_la0_1l_u1        2000      va0u1      HIGGS        123           61462      206.5       55.0          -       lyon
