*
*   Nickname     : xs_hzha03pyth6156hcmm_e206.5_m47.5_ra0_1l_u1
*   Generic Name : //CERN/DELPHI/P02_SIMD/XSDST/HZHA03PYTH6156HCMM/E206.5/RAL/SUMT/C001-4
*   Description  :  Extended Short DST simulation a0_u1 done at ecms=206.5 , RAL
*---
*   Comments     : in total 2000 events in 4 files time stamp: Wed Dec  5 18:33:11 2001
*---
*
*
*
*
*
FILE = /castor/cern.ch/delphi/MCprod/ral/hzha03pyth6156/va0u/206.5/hzha03pyth6156_hcmm_206.5_47.5_84755.xsdst ! RUN = 84755 ! NEVT = 500
FILE = /castor/cern.ch/delphi/MCprod/ral/hzha03pyth6156/va0u/206.5/hzha03pyth6156_hcmm_206.5_47.5_84756.xsdst ! RUN = 84756 ! NEVT = 500
FILE = /castor/cern.ch/delphi/MCprod/ral/hzha03pyth6156/va0u/206.5/hzha03pyth6156_hcmm_206.5_47.5_84757.xsdst ! RUN = 84757 ! NEVT = 500
FILE = /castor/cern.ch/delphi/MCprod/ral/hzha03pyth6156/va0u/206.5/hzha03pyth6156_hcmm_206.5_47.5_84758.xsdst ! RUN = 84758 ! NEVT = 500
