*
*   Nickname     : xs_hzha03pyth6156hgqq_e206.5_m85.0_la0_1l_u1
*   Generic Name : //CERN/DELPHI/P02_SIMD/XSDST/HZHA03PYTH6156HGQQ/E206.5/LYON/SUMT/C001-4
*   Description  : XShortDst HZHA03 H->gluglu, Z->qqbar  Extended Short DST simulation a0_u1 done at ecms=206.5 , Lyon
*---
*   Comments     : in total 1998 events in 4 files time stamp: Tue Nov 27 12:16:36 2001
*---
*
*
*
*
*
FILE = /castor/cern.ch/delphi/MCprod/lyon/hzha03pyth6156/va0u/206.5/hzha03pyth6156_hgqq_206.5_85.0_108508.xsdst ! RUN = 108508 ! NEVT = 499
FILE = /castor/cern.ch/delphi/MCprod/lyon/hzha03pyth6156/va0u/206.5/hzha03pyth6156_hgqq_206.5_85.0_108509.xsdst ! RUN = 108509 ! NEVT = 500
FILE = /castor/cern.ch/delphi/MCprod/lyon/hzha03pyth6156/va0u/206.5/hzha03pyth6156_hgqq_206.5_85.0_108510.xsdst ! RUN = 108510 ! NEVT = 499
FILE = /castor/cern.ch/delphi/MCprod/lyon/hzha03pyth6156/va0u/206.5/hzha03pyth6156_hgqq_206.5_85.0_108511.xsdst ! RUN = 108511 ! NEVT = 500
