*
*   Nickname     : xs_hzha03pyth6156hsnn_e206.5_m55.0_ka0_1l_u1
*   Generic Name : //CERN/DELPHI/P02_SIMD/XSDST/HZHA03PYTH6156HSNN/E206.5/KARLSRUHE/SUMT/C001-5
*   Description  : XShortDst HZHA03 H->ssbar, Z->nunubar  Extended Short DST simulation a0_u1 done at ecms=206.5 , Karlsruhe
*---
*   Comments     : in total 2000 events in 5 files time stamp: Tue Jan 15 15:39:42 2002
*---
*
*
*
*
*
FILE = /castor/cern.ch/delphi/MCprod/karlsruhe/hzha03pyth6156/va0u/206.5/hzha03pyth6156_hsnn_206.5_55.0_7776.xsdst ! RUN = 7776 ! NEVT = 400
FILE = /castor/cern.ch/delphi/MCprod/karlsruhe/hzha03pyth6156/va0u/206.5/hzha03pyth6156_hsnn_206.5_55.0_7777.xsdst ! RUN = 7777 ! NEVT = 400
FILE = /castor/cern.ch/delphi/MCprod/karlsruhe/hzha03pyth6156/va0u/206.5/hzha03pyth6156_hsnn_206.5_55.0_7778.xsdst ! RUN = 7778 ! NEVT = 400
FILE = /castor/cern.ch/delphi/MCprod/karlsruhe/hzha03pyth6156/va0u/206.5/hzha03pyth6156_hsnn_206.5_55.0_7779.xsdst ! RUN = 7779 ! NEVT = 400
FILE = /castor/cern.ch/delphi/MCprod/karlsruhe/hzha03pyth6156/va0u/206.5/hzha03pyth6156_hsnn_206.5_55.0_7780.xsdst ! RUN = 7780 ! NEVT = 400
