*
*   Nickname     : xs_hzha03pyth6156hcee_e206.5_m70.0_la0_1l_u1
*   Generic Name : //CERN/DELPHI/P02_SIMD/XSDST/HZHA03PYTH6156HCEE/E206.5/LYON/SUMT/C001-4
*   Description  :  Extended Short DST simulation a0_u1 done at ecms=206.5 , Lyon
*---
*   Comments     : in total 1996 events in 4 files time stamp: Fri Nov 23 14:42:30 2001
*---
*
*
*
*
*
FILE = /castor/cern.ch/delphi/MCprod/lyon/hzha03pyth6156/va0u/206.5/hzha03pyth6156_hcee_206.5_70.0_67004.xsdst ! RUN = 67004 ! NEVT = 500
FILE = /castor/cern.ch/delphi/MCprod/lyon/hzha03pyth6156/va0u/206.5/hzha03pyth6156_hcee_206.5_70.0_67005.xsdst ! RUN = 67005 ! NEVT = 498
FILE = /castor/cern.ch/delphi/MCprod/lyon/hzha03pyth6156/va0u/206.5/hzha03pyth6156_hcee_206.5_70.0_67006.xsdst ! RUN = 67006 ! NEVT = 499
FILE = /castor/cern.ch/delphi/MCprod/lyon/hzha03pyth6156/va0u/206.5/hzha03pyth6156_hcee_206.5_70.0_67007.xsdst ! RUN = 67007 ! NEVT = 499
