*
*   Nickname     : xs_hzha03pyth6156hgee_e206.5_m55.0_la0_1l_u1
*   Generic Name : //CERN/DELPHI/P02_SIMD/XSDST/HZHA03PYTH6156HGEE/E206.5/LYON/SUMT/C001-4
*   Description  : XShortDst HZHA03 H->gluglu, Z->e+e-  Extended Short DST simulation a0_u1 done at ecms=206.5 , Lyon
*---
*   Comments     : in total 1998 events in 4 files time stamp: Fri Nov 23 12:21:53 2001
*---
*
*
*
*
*
FILE = /castor/cern.ch/delphi/MCprod/lyon/hzha03pyth6156/va0u/206.5/hzha03pyth6156_hgee_206.5_55.0_65508.xsdst ! RUN = 65508 ! NEVT = 500
FILE = /castor/cern.ch/delphi/MCprod/lyon/hzha03pyth6156/va0u/206.5/hzha03pyth6156_hgee_206.5_55.0_65509.xsdst ! RUN = 65509 ! NEVT = 499
FILE = /castor/cern.ch/delphi/MCprod/lyon/hzha03pyth6156/va0u/206.5/hzha03pyth6156_hgee_206.5_55.0_65510.xsdst ! RUN = 65510 ! NEVT = 500
FILE = /castor/cern.ch/delphi/MCprod/lyon/hzha03pyth6156/va0u/206.5/hzha03pyth6156_hgee_206.5_55.0_65511.xsdst ! RUN = 65511 ! NEVT = 499
