*
*   Nickname     : xs_hzha03pyth6156hgnn_e206.5_m67.5_ka0_1l_u1
*   Generic Name : //CERN/DELPHI/P02_SIMD/XSDST/HZHA03PYTH6156HGNN/E206.5/KARLSRUHE/SUMT/C001-5
*   Description  : XShortDst HZHA03 H->gluglu, Z->nunubar  Extended Short DST simulation a0_u1 done at ecms=206.5 , Karlsruhe
*---
*   Comments     : in total 2000 events in 5 files time stamp: Tue Jan 15 15:39:23 2002
*---
*
*
*
*
*
FILE = /castor/cern.ch/delphi/MCprod/karlsruhe/hzha03pyth6156/va0u/206.5/hzha03pyth6156_hgnn_206.5_67.5_7646.xsdst ! RUN = 7646 ! NEVT = 400
FILE = /castor/cern.ch/delphi/MCprod/karlsruhe/hzha03pyth6156/va0u/206.5/hzha03pyth6156_hgnn_206.5_67.5_7647.xsdst ! RUN = 7647 ! NEVT = 400
FILE = /castor/cern.ch/delphi/MCprod/karlsruhe/hzha03pyth6156/va0u/206.5/hzha03pyth6156_hgnn_206.5_67.5_7648.xsdst ! RUN = 7648 ! NEVT = 400
FILE = /castor/cern.ch/delphi/MCprod/karlsruhe/hzha03pyth6156/va0u/206.5/hzha03pyth6156_hgnn_206.5_67.5_7649.xsdst ! RUN = 7649 ! NEVT = 400
FILE = /castor/cern.ch/delphi/MCprod/karlsruhe/hzha03pyth6156/va0u/206.5/hzha03pyth6156_hgnn_206.5_67.5_7650.xsdst ! RUN = 7650 ! NEVT = 400
