*
*   Nickname     : xs_hzha03pyth6156hsqq_e206.5_m62.5_la0_1l_u1
*   Generic Name : //CERN/DELPHI/P02_SIMD/XSDST/HZHA03PYTH6156HSQQ/E206.5/LYON/SUMT/C001-4
*   Description  : XShortDst HZHA03 H->ssbar, Z->qqbar  Extended Short DST simulation a0_u1 done at ecms=206.5 , Lyon
*---
*   Comments     : in total 1998 events in 4 files time stamp: Mon Nov 26 16:16:57 2001
*---
*
*
*
*
*
FILE = /castor/cern.ch/delphi/MCprod/lyon/hzha03pyth6156/va0u/206.5/hzha03pyth6156_hsqq_206.5_62.5_106250.xsdst ! RUN = 106250 ! NEVT = 500
FILE = /castor/cern.ch/delphi/MCprod/lyon/hzha03pyth6156/va0u/206.5/hzha03pyth6156_hsqq_206.5_62.5_106251.xsdst ! RUN = 106251 ! NEVT = 499
FILE = /castor/cern.ch/delphi/MCprod/lyon/hzha03pyth6156/va0u/206.5/hzha03pyth6156_hsqq_206.5_62.5_106252.xsdst ! RUN = 106252 ! NEVT = 500
FILE = /castor/cern.ch/delphi/MCprod/lyon/hzha03pyth6156/va0u/206.5/hzha03pyth6156_hsqq_206.5_62.5_106253.xsdst ! RUN = 106253 ! NEVT = 499
