*
*   Nickname     : xs_hzha03pyth6156hgee_e206.5_m112.5_la0_1l_u1
*   Generic Name : //CERN/DELPHI/P02_SIMD/XSDST/HZHA03PYTH6156HGEE/E206.5/LYON/SUMT/C001-4
*   Description  : XShortDst HZHA03 H->gluglu, Z->e+e-  Extended Short DST simulation a0_u1 done at ecms=206.5 , Lyon
*---
*   Comments     : in total 1999 events in 4 files time stamp: Sat Nov 24 10:14:40 2001
*---
*
*
*
*
*
FILE = /castor/cern.ch/delphi/MCprod/lyon/hzha03pyth6156/va0u/206.5/hzha03pyth6156_hgee_206.5_112.5_71258.xsdst ! RUN = 71258 ! NEVT = 500
FILE = /castor/cern.ch/delphi/MCprod/lyon/hzha03pyth6156/va0u/206.5/hzha03pyth6156_hgee_206.5_112.5_71259.xsdst ! RUN = 71259 ! NEVT = 500
FILE = /castor/cern.ch/delphi/MCprod/lyon/hzha03pyth6156/va0u/206.5/hzha03pyth6156_hgee_206.5_112.5_71260.xsdst ! RUN = 71260 ! NEVT = 499
FILE = /castor/cern.ch/delphi/MCprod/lyon/hzha03pyth6156/va0u/206.5/hzha03pyth6156_hgee_206.5_112.5_71261.xsdst ! RUN = 71261 ! NEVT = 500
