*
*   Nickname     : xs_hzha03pyth6156hcqq_e206.5_m52.5_la0_1l_u1
*   Generic Name : //CERN/DELPHI/P02_SIMD/XSDST/HZHA03PYTH6156HCQQ/E206.5/LYON/SUMT/C001-4
*   Description  :  Extended Short DST simulation a0_u1 done at ecms=206.5 , Lyon
*---
*   Comments     : in total 1999 events in 4 files time stamp: Mon Nov 26 16:15:54 2001
*---
*
*
*
*
*
FILE = /castor/cern.ch/delphi/MCprod/lyon/hzha03pyth6156/va0u/206.5/hzha03pyth6156_hcqq_206.5_52.5_105254.xsdst ! RUN = 105254 ! NEVT = 500
FILE = /castor/cern.ch/delphi/MCprod/lyon/hzha03pyth6156/va0u/206.5/hzha03pyth6156_hcqq_206.5_52.5_105255.xsdst ! RUN = 105255 ! NEVT = 499
FILE = /castor/cern.ch/delphi/MCprod/lyon/hzha03pyth6156/va0u/206.5/hzha03pyth6156_hcqq_206.5_52.5_105256.xsdst ! RUN = 105256 ! NEVT = 500
FILE = /castor/cern.ch/delphi/MCprod/lyon/hzha03pyth6156/va0u/206.5/hzha03pyth6156_hcqq_206.5_52.5_105257.xsdst ! RUN = 105257 ! NEVT = 500
