*
*   Nickname     : xs_hzha03pyth6156hgmm_e206.5_m80.0_ra0_1l_u1
*   Generic Name : //CERN/DELPHI/P02_SIMD/XSDST/HZHA03PYTH6156HGMM/E206.5/RAL/SUMT/C001-4
*   Description  : XShortDst HZHA03 H->gluglu, Z->mu+mu-  Extended Short DST simulation a0_u1 done at ecms=206.5 , RAL
*---
*   Comments     : in total 2000 events in 4 files time stamp: Thu Dec  6 06:44:07 2001
*---
*
*
*
*
*
FILE = /castor/cern.ch/delphi/MCprod/ral/hzha03pyth6156/va0u/206.5/hzha03pyth6156_hgmm_206.5_80.0_88009.xsdst ! RUN = 88009 ! NEVT = 500
FILE = /castor/cern.ch/delphi/MCprod/ral/hzha03pyth6156/va0u/206.5/hzha03pyth6156_hgmm_206.5_80.0_88010.xsdst ! RUN = 88010 ! NEVT = 500
FILE = /castor/cern.ch/delphi/MCprod/ral/hzha03pyth6156/va0u/206.5/hzha03pyth6156_hgmm_206.5_80.0_88011.xsdst ! RUN = 88011 ! NEVT = 500
FILE = /castor/cern.ch/delphi/MCprod/ral/hzha03pyth6156/va0u/206.5/hzha03pyth6156_hgmm_206.5_80.0_88012.xsdst ! RUN = 88012 ! NEVT = 500
