*   Nickname :     dsto_wphact24cc_e191.6_m80.4_c99_1l_e
*   Generic Name : //CERN/DELPHI/P02_SIMD/DSTO/WPHACT24CC/E191.6/CERN/SUMT/C001-497
*   Description :   Full DST/Delana output simulation 99e  done at ecm=191.6 GeV , CERN
*   Comments :     in total 985394 events in 497 files, time stamp: Sun Jul 27 4:12:55 2003
*
*
*
FILE = /castor/cern.ch/delphi/MCprod/cern/wphact24/v99e/191.6/wphact24_cc_191.6_80.4_203501.fadana ! RUN = 203501 ! NEVT = 2000
FILE = /castor/cern.ch/delphi/MCprod/cern/wphact24/v99e/191.6/wphact24_cc_191.6_80.4_203502.fadana ! RUN = 203502 ! NEVT = 1999
FILE = /castor/cern.ch/delphi/MCprod/cern/wphact24/v99e/191.6/wphact24_cc_191.6_80.4_203503.fadana ! RUN = 203503 ! NEVT = 1999
FILE = /castor/cern.ch/delphi/MCprod/cern/wphact24/v99e/191.6/wphact24_cc_191.6_80.4_203504.fadana ! RUN = 203504 ! NEVT = 1999
FILE = /castor/cern.ch/delphi/MCprod/cern/wphact24/v99e/191.6/wphact24_cc_191.6_80.4_203505.fadana ! RUN = 203505 ! NEVT = 2000
FILE = /castor/cern.ch/delphi/MCprod/cern/wphact24/v99e/191.6/wphact24_cc_191.6_80.4_203506.fadana ! RUN = 203506 ! NEVT = 2000
FILE = /castor/cern.ch/delphi/MCprod/cern/wphact24/v99e/191.6/wphact24_cc_191.6_80.4_203507.fadana ! RUN = 203507 ! NEVT = 2000
FILE = /castor/cern.ch/delphi/MCprod/cern/wphact24/v99e/191.6/wphact24_cc_191.6_80.4_203508.fadana ! RUN = 203508 ! NEVT = 1999
FILE = /castor/cern.ch/delphi/MCprod/cern/wphact24/v99e/191.6/wphact24_cc_191.6_80.4_203509.fadana ! RUN = 203509 ! NEVT = 2000
FILE = /castor/cern.ch/delphi/MCprod/cern/wphact24/v99e/191.6/wphact24_cc_191.6_80.4_203511.fadana ! RUN = 203511 ! NEVT = 1997
FILE = /castor/cern.ch/delphi/MCprod/cern/wphact24/v99e/191.6/wphact24_cc_191.6_80.4_203512.fadana ! RUN = 203512 ! NEVT = 2000
FILE = /castor/cern.ch/delphi/MCprod/cern/wphact24/v99e/191.6/wphact24_cc_191.6_80.4_203513.fadana ! RUN = 203513 ! NEVT = 2000
FILE = /castor/cern.ch/delphi/MCprod/cern/wphact24/v99e/191.6/wphact24_cc_191.6_80.4_203514.fadana ! RUN = 203514 ! NEVT = 1998
FILE = /castor/cern.ch/delphi/MCprod/cern/wphact24/v99e/191.6/wphact24_cc_191.6_80.4_203515.fadana ! RUN = 203515 ! NEVT = 1999
FILE = /castor/cern.ch/delphi/MCprod/cern/wphact24/v99e/191.6/wphact24_cc_191.6_80.4_203516.fadana ! RUN = 203516 ! NEVT = 2000
FILE = /castor/cern.ch/delphi/MCprod/cern/wphact24/v99e/191.6/wphact24_cc_191.6_80.4_203517.fadana ! RUN = 203517 ! NEVT = 2000
FILE = /castor/cern.ch/delphi/MCprod/cern/wphact24/v99e/191.6/wphact24_cc_191.6_80.4_203518.fadana ! RUN = 203518 ! NEVT = 1997
FILE = /castor/cern.ch/delphi/MCprod/cern/wphact24/v99e/191.6/wphact24_cc_191.6_80.4_203519.fadana ! RUN = 203519 ! NEVT = 1998
FILE = /castor/cern.ch/delphi/MCprod/cern/wphact24/v99e/191.6/wphact24_cc_191.6_80.4_203520.fadana ! RUN = 203520 ! NEVT = 1999
FILE = /castor/cern.ch/delphi/MCprod/cern/wphact24/v99e/191.6/wphact24_cc_191.6_80.4_203521.fadana ! RUN = 203521 ! NEVT = 2000
FILE = /castor/cern.ch/delphi/MCprod/cern/wphact24/v99e/191.6/wphact24_cc_191.6_80.4_203522.fadana ! RUN = 203522 ! NEVT = 1999
FILE = /castor/cern.ch/delphi/MCprod/cern/wphact24/v99e/191.6/wphact24_cc_191.6_80.4_203523.fadana ! RUN = 203523 ! NEVT = 1998
FILE = /castor/cern.ch/delphi/MCprod/cern/wphact24/v99e/191.6/wphact24_cc_191.6_80.4_203524.fadana ! RUN = 203524 ! NEVT = 2000
FILE = /castor/cern.ch/delphi/MCprod/cern/wphact24/v99e/191.6/wphact24_cc_191.6_80.4_203525.fadana ! RUN = 203525 ! NEVT = 1999
FILE = /castor/cern.ch/delphi/MCprod/cern/wphact24/v99e/191.6/wphact24_cc_191.6_80.4_203526.fadana ! RUN = 203526 ! NEVT = 1999
FILE = /castor/cern.ch/delphi/MCprod/cern/wphact24/v99e/191.6/wphact24_cc_191.6_80.4_203527.fadana ! RUN = 203527 ! NEVT = 1999
FILE = /castor/cern.ch/delphi/MCprod/cern/wphact24/v99e/191.6/wphact24_cc_191.6_80.4_203528.fadana ! RUN = 203528 ! NEVT = 2000
FILE = /castor/cern.ch/delphi/MCprod/cern/wphact24/v99e/191.6/wphact24_cc_191.6_80.4_203529.fadana ! RUN = 203529 ! NEVT = 1999
FILE = /castor/cern.ch/delphi/MCprod/cern/wphact24/v99e/191.6/wphact24_cc_191.6_80.4_203530.fadana ! RUN = 203530 ! NEVT = 1999
FILE = /castor/cern.ch/delphi/MCprod/cern/wphact24/v99e/191.6/wphact24_cc_191.6_80.4_203531.fadana ! RUN = 203531 ! NEVT = 2000
FILE = /castor/cern.ch/delphi/MCprod/cern/wphact24/v99e/191.6/wphact24_cc_191.6_80.4_203532.fadana ! RUN = 203532 ! NEVT = 2000
FILE = /castor/cern.ch/delphi/MCprod/cern/wphact24/v99e/191.6/wphact24_cc_191.6_80.4_203533.fadana ! RUN = 203533 ! NEVT = 1999
FILE = /castor/cern.ch/delphi/MCprod/cern/wphact24/v99e/191.6/wphact24_cc_191.6_80.4_203534.fadana ! RUN = 203534 ! NEVT = 2000
FILE = /castor/cern.ch/delphi/MCprod/cern/wphact24/v99e/191.6/wphact24_cc_191.6_80.4_203535.fadana ! RUN = 203535 ! NEVT = 2000
FILE = /castor/cern.ch/delphi/MCprod/cern/wphact24/v99e/191.6/wphact24_cc_191.6_80.4_203536.fadana ! RUN = 203536 ! NEVT = 1998
FILE = /castor/cern.ch/delphi/MCprod/cern/wphact24/v99e/191.6/wphact24_cc_191.6_80.4_203537.fadana ! RUN = 203537 ! NEVT = 1999
FILE = /castor/cern.ch/delphi/MCprod/cern/wphact24/v99e/191.6/wphact24_cc_191.6_80.4_203538.fadana ! RUN = 203538 ! NEVT = 1997
FILE = /castor/cern.ch/delphi/MCprod/cern/wphact24/v99e/191.6/wphact24_cc_191.6_80.4_203539.fadana ! RUN = 203539 ! NEVT = 2000
FILE = /castor/cern.ch/delphi/MCprod/cern/wphact24/v99e/191.6/wphact24_cc_191.6_80.4_203540.fadana ! RUN = 203540 ! NEVT = 2000
FILE = /castor/cern.ch/delphi/MCprod/cern/wphact24/v99e/191.6/wphact24_cc_191.6_80.4_203541.fadana ! RUN = 203541 ! NEVT = 1999
FILE = /castor/cern.ch/delphi/MCprod/cern/wphact24/v99e/191.6/wphact24_cc_191.6_80.4_203542.fadana ! RUN = 203542 ! NEVT = 1998
FILE = /castor/cern.ch/delphi/MCprod/cern/wphact24/v99e/191.6/wphact24_cc_191.6_80.4_203543.fadana ! RUN = 203543 ! NEVT = 1411
FILE = /castor/cern.ch/delphi/MCprod/cern/wphact24/v99e/191.6/wphact24_cc_191.6_80.4_203544.fadana ! RUN = 203544 ! NEVT = 2000
FILE = /castor/cern.ch/delphi/MCprod/cern/wphact24/v99e/191.6/wphact24_cc_191.6_80.4_203545.fadana ! RUN = 203545 ! NEVT = 2000
FILE = /castor/cern.ch/delphi/MCprod/cern/wphact24/v99e/191.6/wphact24_cc_191.6_80.4_203546.fadana ! RUN = 203546 ! NEVT = 2000
FILE = /castor/cern.ch/delphi/MCprod/cern/wphact24/v99e/191.6/wphact24_cc_191.6_80.4_203547.fadana ! RUN = 203547 ! NEVT = 1999
FILE = /castor/cern.ch/delphi/MCprod/cern/wphact24/v99e/191.6/wphact24_cc_191.6_80.4_203548.fadana ! RUN = 203548 ! NEVT = 1998
FILE = /castor/cern.ch/delphi/MCprod/cern/wphact24/v99e/191.6/wphact24_cc_191.6_80.4_203549.fadana ! RUN = 203549 ! NEVT = 2000
FILE = /castor/cern.ch/delphi/MCprod/cern/wphact24/v99e/191.6/wphact24_cc_191.6_80.4_203550.fadana ! RUN = 203550 ! NEVT = 1998
FILE = /castor/cern.ch/delphi/MCprod/cern/wphact24/v99e/191.6/wphact24_cc_191.6_80.4_203551.fadana ! RUN = 203551 ! NEVT = 2000
FILE = /castor/cern.ch/delphi/MCprod/cern/wphact24/v99e/191.6/wphact24_cc_191.6_80.4_203552.fadana ! RUN = 203552 ! NEVT = 1999
FILE = /castor/cern.ch/delphi/MCprod/cern/wphact24/v99e/191.6/wphact24_cc_191.6_80.4_203553.fadana ! RUN = 203553 ! NEVT = 2000
FILE = /castor/cern.ch/delphi/MCprod/cern/wphact24/v99e/191.6/wphact24_cc_191.6_80.4_203554.fadana ! RUN = 203554 ! NEVT = 2000
FILE = /castor/cern.ch/delphi/MCprod/cern/wphact24/v99e/191.6/wphact24_cc_191.6_80.4_203555.fadana ! RUN = 203555 ! NEVT = 1997
FILE = /castor/cern.ch/delphi/MCprod/cern/wphact24/v99e/191.6/wphact24_cc_191.6_80.4_203556.fadana ! RUN = 203556 ! NEVT = 1999
FILE = /castor/cern.ch/delphi/MCprod/cern/wphact24/v99e/191.6/wphact24_cc_191.6_80.4_203557.fadana ! RUN = 203557 ! NEVT = 1999
FILE = /castor/cern.ch/delphi/MCprod/cern/wphact24/v99e/191.6/wphact24_cc_191.6_80.4_203558.fadana ! RUN = 203558 ! NEVT = 1999
FILE = /castor/cern.ch/delphi/MCprod/cern/wphact24/v99e/191.6/wphact24_cc_191.6_80.4_203559.fadana ! RUN = 203559 ! NEVT = 2000
FILE = /castor/cern.ch/delphi/MCprod/cern/wphact24/v99e/191.6/wphact24_cc_191.6_80.4_203560.fadana ! RUN = 203560 ! NEVT = 2000
FILE = /castor/cern.ch/delphi/MCprod/cern/wphact24/v99e/191.6/wphact24_cc_191.6_80.4_203561.fadana ! RUN = 203561 ! NEVT = 1999
FILE = /castor/cern.ch/delphi/MCprod/cern/wphact24/v99e/191.6/wphact24_cc_191.6_80.4_203562.fadana ! RUN = 203562 ! NEVT = 2000
FILE = /castor/cern.ch/delphi/MCprod/cern/wphact24/v99e/191.6/wphact24_cc_191.6_80.4_203563.fadana ! RUN = 203563 ! NEVT = 1999
FILE = /castor/cern.ch/delphi/MCprod/cern/wphact24/v99e/191.6/wphact24_cc_191.6_80.4_203564.fadana ! RUN = 203564 ! NEVT = 2000
FILE = /castor/cern.ch/delphi/MCprod/cern/wphact24/v99e/191.6/wphact24_cc_191.6_80.4_203565.fadana ! RUN = 203565 ! NEVT = 1999
FILE = /castor/cern.ch/delphi/MCprod/cern/wphact24/v99e/191.6/wphact24_cc_191.6_80.4_203566.fadana ! RUN = 203566 ! NEVT = 1998
FILE = /castor/cern.ch/delphi/MCprod/cern/wphact24/v99e/191.6/wphact24_cc_191.6_80.4_203567.fadana ! RUN = 203567 ! NEVT = 2000
FILE = /castor/cern.ch/delphi/MCprod/cern/wphact24/v99e/191.6/wphact24_cc_191.6_80.4_203568.fadana ! RUN = 203568 ! NEVT = 1999
FILE = /castor/cern.ch/delphi/MCprod/cern/wphact24/v99e/191.6/wphact24_cc_191.6_80.4_203569.fadana ! RUN = 203569 ! NEVT = 1998
FILE = /castor/cern.ch/delphi/MCprod/cern/wphact24/v99e/191.6/wphact24_cc_191.6_80.4_203570.fadana ! RUN = 203570 ! NEVT = 1999
FILE = /castor/cern.ch/delphi/MCprod/cern/wphact24/v99e/191.6/wphact24_cc_191.6_80.4_203571.fadana ! RUN = 203571 ! NEVT = 1998
FILE = /castor/cern.ch/delphi/MCprod/cern/wphact24/v99e/191.6/wphact24_cc_191.6_80.4_203572.fadana ! RUN = 203572 ! NEVT = 1998
FILE = /castor/cern.ch/delphi/MCprod/cern/wphact24/v99e/191.6/wphact24_cc_191.6_80.4_203573.fadana ! RUN = 203573 ! NEVT = 2000
FILE = /castor/cern.ch/delphi/MCprod/cern/wphact24/v99e/191.6/wphact24_cc_191.6_80.4_203574.fadana ! RUN = 203574 ! NEVT = 1999
FILE = /castor/cern.ch/delphi/MCprod/cern/wphact24/v99e/191.6/wphact24_cc_191.6_80.4_203575.fadana ! RUN = 203575 ! NEVT = 2000
FILE = /castor/cern.ch/delphi/MCprod/cern/wphact24/v99e/191.6/wphact24_cc_191.6_80.4_203576.fadana ! RUN = 203576 ! NEVT = 1998
FILE = /castor/cern.ch/delphi/MCprod/cern/wphact24/v99e/191.6/wphact24_cc_191.6_80.4_203577.fadana ! RUN = 203577 ! NEVT = 1999
FILE = /castor/cern.ch/delphi/MCprod/cern/wphact24/v99e/191.6/wphact24_cc_191.6_80.4_203578.fadana ! RUN = 203578 ! NEVT = 2000
FILE = /castor/cern.ch/delphi/MCprod/cern/wphact24/v99e/191.6/wphact24_cc_191.6_80.4_203579.fadana ! RUN = 203579 ! NEVT = 2000
FILE = /castor/cern.ch/delphi/MCprod/cern/wphact24/v99e/191.6/wphact24_cc_191.6_80.4_203580.fadana ! RUN = 203580 ! NEVT = 1999
FILE = /castor/cern.ch/delphi/MCprod/cern/wphact24/v99e/191.6/wphact24_cc_191.6_80.4_203581.fadana ! RUN = 203581 ! NEVT = 2000
FILE = /castor/cern.ch/delphi/MCprod/cern/wphact24/v99e/191.6/wphact24_cc_191.6_80.4_203582.fadana ! RUN = 203582 ! NEVT = 2000
FILE = /castor/cern.ch/delphi/MCprod/cern/wphact24/v99e/191.6/wphact24_cc_191.6_80.4_203583.fadana ! RUN = 203583 ! NEVT = 2000
FILE = /castor/cern.ch/delphi/MCprod/cern/wphact24/v99e/191.6/wphact24_cc_191.6_80.4_203584.fadana ! RUN = 203584 ! NEVT = 2000
FILE = /castor/cern.ch/delphi/MCprod/cern/wphact24/v99e/191.6/wphact24_cc_191.6_80.4_203585.fadana ! RUN = 203585 ! NEVT = 2000
FILE = /castor/cern.ch/delphi/MCprod/cern/wphact24/v99e/191.6/wphact24_cc_191.6_80.4_203586.fadana ! RUN = 203586 ! NEVT = 1999
FILE = /castor/cern.ch/delphi/MCprod/cern/wphact24/v99e/191.6/wphact24_cc_191.6_80.4_203587.fadana ! RUN = 203587 ! NEVT = 2000
FILE = /castor/cern.ch/delphi/MCprod/cern/wphact24/v99e/191.6/wphact24_cc_191.6_80.4_203588.fadana ! RUN = 203588 ! NEVT = 2000
FILE = /castor/cern.ch/delphi/MCprod/cern/wphact24/v99e/191.6/wphact24_cc_191.6_80.4_203589.fadana ! RUN = 203589 ! NEVT = 1998
FILE = /castor/cern.ch/delphi/MCprod/cern/wphact24/v99e/191.6/wphact24_cc_191.6_80.4_203590.fadana ! RUN = 203590 ! NEVT = 2000
FILE = /castor/cern.ch/delphi/MCprod/cern/wphact24/v99e/191.6/wphact24_cc_191.6_80.4_203591.fadana ! RUN = 203591 ! NEVT = 1999
FILE = /castor/cern.ch/delphi/MCprod/cern/wphact24/v99e/191.6/wphact24_cc_191.6_80.4_203592.fadana ! RUN = 203592 ! NEVT = 2000
FILE = /castor/cern.ch/delphi/MCprod/cern/wphact24/v99e/191.6/wphact24_cc_191.6_80.4_203593.fadana ! RUN = 203593 ! NEVT = 1999
FILE = /castor/cern.ch/delphi/MCprod/cern/wphact24/v99e/191.6/wphact24_cc_191.6_80.4_203594.fadana ! RUN = 203594 ! NEVT = 1999
FILE = /castor/cern.ch/delphi/MCprod/cern/wphact24/v99e/191.6/wphact24_cc_191.6_80.4_203595.fadana ! RUN = 203595 ! NEVT = 2000
FILE = /castor/cern.ch/delphi/MCprod/cern/wphact24/v99e/191.6/wphact24_cc_191.6_80.4_203596.fadana ! RUN = 203596 ! NEVT = 1998
FILE = /castor/cern.ch/delphi/MCprod/cern/wphact24/v99e/191.6/wphact24_cc_191.6_80.4_203597.fadana ! RUN = 203597 ! NEVT = 2000
FILE = /castor/cern.ch/delphi/MCprod/cern/wphact24/v99e/191.6/wphact24_cc_191.6_80.4_203598.fadana ! RUN = 203598 ! NEVT = 2000
FILE = /castor/cern.ch/delphi/MCprod/cern/wphact24/v99e/191.6/wphact24_cc_191.6_80.4_203599.fadana ! RUN = 203599 ! NEVT = 1997
FILE = /castor/cern.ch/delphi/MCprod/cern/wphact24/v99e/191.6/wphact24_cc_191.6_80.4_203600.fadana ! RUN = 203600 ! NEVT = 1997
FILE = /castor/cern.ch/delphi/MCprod/cern/wphact24/v99e/191.6/wphact24_cc_191.6_80.4_203601.fadana ! RUN = 203601 ! NEVT = 2000
FILE = /castor/cern.ch/delphi/MCprod/cern/wphact24/v99e/191.6/wphact24_cc_191.6_80.4_203602.fadana ! RUN = 203602 ! NEVT = 1997
FILE = /castor/cern.ch/delphi/MCprod/cern/wphact24/v99e/191.6/wphact24_cc_191.6_80.4_203603.fadana ! RUN = 203603 ! NEVT = 2000
FILE = /castor/cern.ch/delphi/MCprod/cern/wphact24/v99e/191.6/wphact24_cc_191.6_80.4_203604.fadana ! RUN = 203604 ! NEVT = 2000
FILE = /castor/cern.ch/delphi/MCprod/cern/wphact24/v99e/191.6/wphact24_cc_191.6_80.4_203605.fadana ! RUN = 203605 ! NEVT = 1999
FILE = /castor/cern.ch/delphi/MCprod/cern/wphact24/v99e/191.6/wphact24_cc_191.6_80.4_203606.fadana ! RUN = 203606 ! NEVT = 2000
FILE = /castor/cern.ch/delphi/MCprod/cern/wphact24/v99e/191.6/wphact24_cc_191.6_80.4_203607.fadana ! RUN = 203607 ! NEVT = 2000
FILE = /castor/cern.ch/delphi/MCprod/cern/wphact24/v99e/191.6/wphact24_cc_191.6_80.4_203608.fadana ! RUN = 203608 ! NEVT = 1999
FILE = /castor/cern.ch/delphi/MCprod/cern/wphact24/v99e/191.6/wphact24_cc_191.6_80.4_203609.fadana ! RUN = 203609 ! NEVT = 1999
FILE = /castor/cern.ch/delphi/MCprod/cern/wphact24/v99e/191.6/wphact24_cc_191.6_80.4_203610.fadana ! RUN = 203610 ! NEVT = 2000
FILE = /castor/cern.ch/delphi/MCprod/cern/wphact24/v99e/191.6/wphact24_cc_191.6_80.4_203611.fadana ! RUN = 203611 ! NEVT = 2000
FILE = /castor/cern.ch/delphi/MCprod/cern/wphact24/v99e/191.6/wphact24_cc_191.6_80.4_203612.fadana ! RUN = 203612 ! NEVT = 2000
FILE = /castor/cern.ch/delphi/MCprod/cern/wphact24/v99e/191.6/wphact24_cc_191.6_80.4_203613.fadana ! RUN = 203613 ! NEVT = 1999
FILE = /castor/cern.ch/delphi/MCprod/cern/wphact24/v99e/191.6/wphact24_cc_191.6_80.4_203614.fadana ! RUN = 203614 ! NEVT = 2000
FILE = /castor/cern.ch/delphi/MCprod/cern/wphact24/v99e/191.6/wphact24_cc_191.6_80.4_203615.fadana ! RUN = 203615 ! NEVT = 1999
FILE = /castor/cern.ch/delphi/MCprod/cern/wphact24/v99e/191.6/wphact24_cc_191.6_80.4_203616.fadana ! RUN = 203616 ! NEVT = 2000
FILE = /castor/cern.ch/delphi/MCprod/cern/wphact24/v99e/191.6/wphact24_cc_191.6_80.4_203617.fadana ! RUN = 203617 ! NEVT = 1999
FILE = /castor/cern.ch/delphi/MCprod/cern/wphact24/v99e/191.6/wphact24_cc_191.6_80.4_203618.fadana ! RUN = 203618 ! NEVT = 1999
FILE = /castor/cern.ch/delphi/MCprod/cern/wphact24/v99e/191.6/wphact24_cc_191.6_80.4_203619.fadana ! RUN = 203619 ! NEVT = 2000
FILE = /castor/cern.ch/delphi/MCprod/cern/wphact24/v99e/191.6/wphact24_cc_191.6_80.4_203620.fadana ! RUN = 203620 ! NEVT = 2000
FILE = /castor/cern.ch/delphi/MCprod/cern/wphact24/v99e/191.6/wphact24_cc_191.6_80.4_203621.fadana ! RUN = 203621 ! NEVT = 2000
FILE = /castor/cern.ch/delphi/MCprod/cern/wphact24/v99e/191.6/wphact24_cc_191.6_80.4_203622.fadana ! RUN = 203622 ! NEVT = 2000
FILE = /castor/cern.ch/delphi/MCprod/cern/wphact24/v99e/191.6/wphact24_cc_191.6_80.4_203623.fadana ! RUN = 203623 ! NEVT = 1999
FILE = /castor/cern.ch/delphi/MCprod/cern/wphact24/v99e/191.6/wphact24_cc_191.6_80.4_203624.fadana ! RUN = 203624 ! NEVT = 1854
FILE = /castor/cern.ch/delphi/MCprod/cern/wphact24/v99e/191.6/wphact24_cc_191.6_80.4_203625.fadana ! RUN = 203625 ! NEVT = 1999
FILE = /castor/cern.ch/delphi/MCprod/cern/wphact24/v99e/191.6/wphact24_cc_191.6_80.4_203626.fadana ! RUN = 203626 ! NEVT = 1998
FILE = /castor/cern.ch/delphi/MCprod/cern/wphact24/v99e/191.6/wphact24_cc_191.6_80.4_203627.fadana ! RUN = 203627 ! NEVT = 2000
FILE = /castor/cern.ch/delphi/MCprod/cern/wphact24/v99e/191.6/wphact24_cc_191.6_80.4_203628.fadana ! RUN = 203628 ! NEVT = 2000
FILE = /castor/cern.ch/delphi/MCprod/cern/wphact24/v99e/191.6/wphact24_cc_191.6_80.4_203629.fadana ! RUN = 203629 ! NEVT = 1999
FILE = /castor/cern.ch/delphi/MCprod/cern/wphact24/v99e/191.6/wphact24_cc_191.6_80.4_203630.fadana ! RUN = 203630 ! NEVT = 2000
FILE = /castor/cern.ch/delphi/MCprod/cern/wphact24/v99e/191.6/wphact24_cc_191.6_80.4_203631.fadana ! RUN = 203631 ! NEVT = 1999
FILE = /castor/cern.ch/delphi/MCprod/cern/wphact24/v99e/191.6/wphact24_cc_191.6_80.4_203632.fadana ! RUN = 203632 ! NEVT = 2000
FILE = /castor/cern.ch/delphi/MCprod/cern/wphact24/v99e/191.6/wphact24_cc_191.6_80.4_203633.fadana ! RUN = 203633 ! NEVT = 1999
FILE = /castor/cern.ch/delphi/MCprod/cern/wphact24/v99e/191.6/wphact24_cc_191.6_80.4_203634.fadana ! RUN = 203634 ! NEVT = 1999
FILE = /castor/cern.ch/delphi/MCprod/cern/wphact24/v99e/191.6/wphact24_cc_191.6_80.4_203635.fadana ! RUN = 203635 ! NEVT = 2000
FILE = /castor/cern.ch/delphi/MCprod/cern/wphact24/v99e/191.6/wphact24_cc_191.6_80.4_203636.fadana ! RUN = 203636 ! NEVT = 1998
FILE = /castor/cern.ch/delphi/MCprod/cern/wphact24/v99e/191.6/wphact24_cc_191.6_80.4_203637.fadana ! RUN = 203637 ! NEVT = 2000
FILE = /castor/cern.ch/delphi/MCprod/cern/wphact24/v99e/191.6/wphact24_cc_191.6_80.4_203638.fadana ! RUN = 203638 ! NEVT = 1999
FILE = /castor/cern.ch/delphi/MCprod/cern/wphact24/v99e/191.6/wphact24_cc_191.6_80.4_203639.fadana ! RUN = 203639 ! NEVT = 2000
FILE = /castor/cern.ch/delphi/MCprod/cern/wphact24/v99e/191.6/wphact24_cc_191.6_80.4_203640.fadana ! RUN = 203640 ! NEVT = 2000
FILE = /castor/cern.ch/delphi/MCprod/cern/wphact24/v99e/191.6/wphact24_cc_191.6_80.4_203641.fadana ! RUN = 203641 ! NEVT = 1999
FILE = /castor/cern.ch/delphi/MCprod/cern/wphact24/v99e/191.6/wphact24_cc_191.6_80.4_203642.fadana ! RUN = 203642 ! NEVT = 1998
FILE = /castor/cern.ch/delphi/MCprod/cern/wphact24/v99e/191.6/wphact24_cc_191.6_80.4_203643.fadana ! RUN = 203643 ! NEVT = 2000
FILE = /castor/cern.ch/delphi/MCprod/cern/wphact24/v99e/191.6/wphact24_cc_191.6_80.4_203644.fadana ! RUN = 203644 ! NEVT = 2000
FILE = /castor/cern.ch/delphi/MCprod/cern/wphact24/v99e/191.6/wphact24_cc_191.6_80.4_203645.fadana ! RUN = 203645 ! NEVT = 2000
FILE = /castor/cern.ch/delphi/MCprod/cern/wphact24/v99e/191.6/wphact24_cc_191.6_80.4_203646.fadana ! RUN = 203646 ! NEVT = 1999
FILE = /castor/cern.ch/delphi/MCprod/cern/wphact24/v99e/191.6/wphact24_cc_191.6_80.4_203647.fadana ! RUN = 203647 ! NEVT = 2000
FILE = /castor/cern.ch/delphi/MCprod/cern/wphact24/v99e/191.6/wphact24_cc_191.6_80.4_203648.fadana ! RUN = 203648 ! NEVT = 2000
FILE = /castor/cern.ch/delphi/MCprod/cern/wphact24/v99e/191.6/wphact24_cc_191.6_80.4_203649.fadana ! RUN = 203649 ! NEVT = 2000
FILE = /castor/cern.ch/delphi/MCprod/cern/wphact24/v99e/191.6/wphact24_cc_191.6_80.4_203650.fadana ! RUN = 203650 ! NEVT = 2000
FILE = /castor/cern.ch/delphi/MCprod/cern/wphact24/v99e/191.6/wphact24_cc_191.6_80.4_203651.fadana ! RUN = 203651 ! NEVT = 1999
FILE = /castor/cern.ch/delphi/MCprod/cern/wphact24/v99e/191.6/wphact24_cc_191.6_80.4_203652.fadana ! RUN = 203652 ! NEVT = 2000
FILE = /castor/cern.ch/delphi/MCprod/cern/wphact24/v99e/191.6/wphact24_cc_191.6_80.4_203653.fadana ! RUN = 203653 ! NEVT = 1997
FILE = /castor/cern.ch/delphi/MCprod/cern/wphact24/v99e/191.6/wphact24_cc_191.6_80.4_203654.fadana ! RUN = 203654 ! NEVT = 2000
FILE = /castor/cern.ch/delphi/MCprod/cern/wphact24/v99e/191.6/wphact24_cc_191.6_80.4_203655.fadana ! RUN = 203655 ! NEVT = 1999
FILE = /castor/cern.ch/delphi/MCprod/cern/wphact24/v99e/191.6/wphact24_cc_191.6_80.4_203656.fadana ! RUN = 203656 ! NEVT = 1999
FILE = /castor/cern.ch/delphi/MCprod/cern/wphact24/v99e/191.6/wphact24_cc_191.6_80.4_203657.fadana ! RUN = 203657 ! NEVT = 1999
FILE = /castor/cern.ch/delphi/MCprod/cern/wphact24/v99e/191.6/wphact24_cc_191.6_80.4_203658.fadana ! RUN = 203658 ! NEVT = 1999
FILE = /castor/cern.ch/delphi/MCprod/cern/wphact24/v99e/191.6/wphact24_cc_191.6_80.4_203659.fadana ! RUN = 203659 ! NEVT = 2000
FILE = /castor/cern.ch/delphi/MCprod/cern/wphact24/v99e/191.6/wphact24_cc_191.6_80.4_203660.fadana ! RUN = 203660 ! NEVT = 1999
FILE = /castor/cern.ch/delphi/MCprod/cern/wphact24/v99e/191.6/wphact24_cc_191.6_80.4_203661.fadana ! RUN = 203661 ! NEVT = 1999
FILE = /castor/cern.ch/delphi/MCprod/cern/wphact24/v99e/191.6/wphact24_cc_191.6_80.4_203662.fadana ! RUN = 203662 ! NEVT = 2000
FILE = /castor/cern.ch/delphi/MCprod/cern/wphact24/v99e/191.6/wphact24_cc_191.6_80.4_203663.fadana ! RUN = 203663 ! NEVT = 2000
FILE = /castor/cern.ch/delphi/MCprod/cern/wphact24/v99e/191.6/wphact24_cc_191.6_80.4_203664.fadana ! RUN = 203664 ! NEVT = 1999
FILE = /castor/cern.ch/delphi/MCprod/cern/wphact24/v99e/191.6/wphact24_cc_191.6_80.4_203665.fadana ! RUN = 203665 ! NEVT = 1999
FILE = /castor/cern.ch/delphi/MCprod/cern/wphact24/v99e/191.6/wphact24_cc_191.6_80.4_203666.fadana ! RUN = 203666 ! NEVT = 1999
FILE = /castor/cern.ch/delphi/MCprod/cern/wphact24/v99e/191.6/wphact24_cc_191.6_80.4_203667.fadana ! RUN = 203667 ! NEVT = 1998
FILE = /castor/cern.ch/delphi/MCprod/cern/wphact24/v99e/191.6/wphact24_cc_191.6_80.4_203668.fadana ! RUN = 203668 ! NEVT = 1997
FILE = /castor/cern.ch/delphi/MCprod/cern/wphact24/v99e/191.6/wphact24_cc_191.6_80.4_203669.fadana ! RUN = 203669 ! NEVT = 2000
FILE = /castor/cern.ch/delphi/MCprod/cern/wphact24/v99e/191.6/wphact24_cc_191.6_80.4_203670.fadana ! RUN = 203670 ! NEVT = 1999
FILE = /castor/cern.ch/delphi/MCprod/cern/wphact24/v99e/191.6/wphact24_cc_191.6_80.4_203671.fadana ! RUN = 203671 ! NEVT = 1999
FILE = /castor/cern.ch/delphi/MCprod/cern/wphact24/v99e/191.6/wphact24_cc_191.6_80.4_203672.fadana ! RUN = 203672 ! NEVT = 2000
FILE = /castor/cern.ch/delphi/MCprod/cern/wphact24/v99e/191.6/wphact24_cc_191.6_80.4_203673.fadana ! RUN = 203673 ! NEVT = 1997
FILE = /castor/cern.ch/delphi/MCprod/cern/wphact24/v99e/191.6/wphact24_cc_191.6_80.4_203674.fadana ! RUN = 203674 ! NEVT = 2000
FILE = /castor/cern.ch/delphi/MCprod/cern/wphact24/v99e/191.6/wphact24_cc_191.6_80.4_203675.fadana ! RUN = 203675 ! NEVT = 2000
FILE = /castor/cern.ch/delphi/MCprod/cern/wphact24/v99e/191.6/wphact24_cc_191.6_80.4_203676.fadana ! RUN = 203676 ! NEVT = 1999
FILE = /castor/cern.ch/delphi/MCprod/cern/wphact24/v99e/191.6/wphact24_cc_191.6_80.4_203677.fadana ! RUN = 203677 ! NEVT = 2000
FILE = /castor/cern.ch/delphi/MCprod/cern/wphact24/v99e/191.6/wphact24_cc_191.6_80.4_203678.fadana ! RUN = 203678 ! NEVT = 1999
FILE = /castor/cern.ch/delphi/MCprod/cern/wphact24/v99e/191.6/wphact24_cc_191.6_80.4_203679.fadana ! RUN = 203679 ! NEVT = 2000
FILE = /castor/cern.ch/delphi/MCprod/cern/wphact24/v99e/191.6/wphact24_cc_191.6_80.4_203680.fadana ! RUN = 203680 ! NEVT = 2000
FILE = /castor/cern.ch/delphi/MCprod/cern/wphact24/v99e/191.6/wphact24_cc_191.6_80.4_203681.fadana ! RUN = 203681 ! NEVT = 2000
FILE = /castor/cern.ch/delphi/MCprod/cern/wphact24/v99e/191.6/wphact24_cc_191.6_80.4_203682.fadana ! RUN = 203682 ! NEVT = 2000
FILE = /castor/cern.ch/delphi/MCprod/cern/wphact24/v99e/191.6/wphact24_cc_191.6_80.4_203683.fadana ! RUN = 203683 ! NEVT = 2000
FILE = /castor/cern.ch/delphi/MCprod/cern/wphact24/v99e/191.6/wphact24_cc_191.6_80.4_203684.fadana ! RUN = 203684 ! NEVT = 2000
FILE = /castor/cern.ch/delphi/MCprod/cern/wphact24/v99e/191.6/wphact24_cc_191.6_80.4_203685.fadana ! RUN = 203685 ! NEVT = 2000
FILE = /castor/cern.ch/delphi/MCprod/cern/wphact24/v99e/191.6/wphact24_cc_191.6_80.4_203686.fadana ! RUN = 203686 ! NEVT = 1998
FILE = /castor/cern.ch/delphi/MCprod/cern/wphact24/v99e/191.6/wphact24_cc_191.6_80.4_203687.fadana ! RUN = 203687 ! NEVT = 2000
FILE = /castor/cern.ch/delphi/MCprod/cern/wphact24/v99e/191.6/wphact24_cc_191.6_80.4_203688.fadana ! RUN = 203688 ! NEVT = 2000
FILE = /castor/cern.ch/delphi/MCprod/cern/wphact24/v99e/191.6/wphact24_cc_191.6_80.4_203689.fadana ! RUN = 203689 ! NEVT = 2000
FILE = /castor/cern.ch/delphi/MCprod/cern/wphact24/v99e/191.6/wphact24_cc_191.6_80.4_203690.fadana ! RUN = 203690 ! NEVT = 2000
FILE = /castor/cern.ch/delphi/MCprod/cern/wphact24/v99e/191.6/wphact24_cc_191.6_80.4_203691.fadana ! RUN = 203691 ! NEVT = 2000
FILE = /castor/cern.ch/delphi/MCprod/cern/wphact24/v99e/191.6/wphact24_cc_191.6_80.4_203692.fadana ! RUN = 203692 ! NEVT = 2000
FILE = /castor/cern.ch/delphi/MCprod/cern/wphact24/v99e/191.6/wphact24_cc_191.6_80.4_203693.fadana ! RUN = 203693 ! NEVT = 1999
FILE = /castor/cern.ch/delphi/MCprod/cern/wphact24/v99e/191.6/wphact24_cc_191.6_80.4_203694.fadana ! RUN = 203694 ! NEVT = 1999
FILE = /castor/cern.ch/delphi/MCprod/cern/wphact24/v99e/191.6/wphact24_cc_191.6_80.4_203695.fadana ! RUN = 203695 ! NEVT = 1999
FILE = /castor/cern.ch/delphi/MCprod/cern/wphact24/v99e/191.6/wphact24_cc_191.6_80.4_203696.fadana ! RUN = 203696 ! NEVT = 1999
FILE = /castor/cern.ch/delphi/MCprod/cern/wphact24/v99e/191.6/wphact24_cc_191.6_80.4_203697.fadana ! RUN = 203697 ! NEVT = 2000
FILE = /castor/cern.ch/delphi/MCprod/cern/wphact24/v99e/191.6/wphact24_cc_191.6_80.4_203698.fadana ! RUN = 203698 ! NEVT = 2000
FILE = /castor/cern.ch/delphi/MCprod/cern/wphact24/v99e/191.6/wphact24_cc_191.6_80.4_203699.fadana ! RUN = 203699 ! NEVT = 1997
FILE = /castor/cern.ch/delphi/MCprod/cern/wphact24/v99e/191.6/wphact24_cc_191.6_80.4_203700.fadana ! RUN = 203700 ! NEVT = 2000
FILE = /castor/cern.ch/delphi/MCprod/cern/wphact24/v99e/191.6/wphact24_cc_191.6_80.4_203701.fadana ! RUN = 203701 ! NEVT = 2000
FILE = /castor/cern.ch/delphi/MCprod/cern/wphact24/v99e/191.6/wphact24_cc_191.6_80.4_203702.fadana ! RUN = 203702 ! NEVT = 2000
FILE = /castor/cern.ch/delphi/MCprod/cern/wphact24/v99e/191.6/wphact24_cc_191.6_80.4_203703.fadana ! RUN = 203703 ! NEVT = 1999
FILE = /castor/cern.ch/delphi/MCprod/cern/wphact24/v99e/191.6/wphact24_cc_191.6_80.4_203704.fadana ! RUN = 203704 ! NEVT = 1999
FILE = /castor/cern.ch/delphi/MCprod/cern/wphact24/v99e/191.6/wphact24_cc_191.6_80.4_203705.fadana ! RUN = 203705 ! NEVT = 1999
FILE = /castor/cern.ch/delphi/MCprod/cern/wphact24/v99e/191.6/wphact24_cc_191.6_80.4_203706.fadana ! RUN = 203706 ! NEVT = 2000
FILE = /castor/cern.ch/delphi/MCprod/cern/wphact24/v99e/191.6/wphact24_cc_191.6_80.4_203707.fadana ! RUN = 203707 ! NEVT = 2000
FILE = /castor/cern.ch/delphi/MCprod/cern/wphact24/v99e/191.6/wphact24_cc_191.6_80.4_203708.fadana ! RUN = 203708 ! NEVT = 2000
FILE = /castor/cern.ch/delphi/MCprod/cern/wphact24/v99e/191.6/wphact24_cc_191.6_80.4_203709.fadana ! RUN = 203709 ! NEVT = 2000
FILE = /castor/cern.ch/delphi/MCprod/cern/wphact24/v99e/191.6/wphact24_cc_191.6_80.4_203710.fadana ! RUN = 203710 ! NEVT = 2000
FILE = /castor/cern.ch/delphi/MCprod/cern/wphact24/v99e/191.6/wphact24_cc_191.6_80.4_203711.fadana ! RUN = 203711 ! NEVT = 2000
FILE = /castor/cern.ch/delphi/MCprod/cern/wphact24/v99e/191.6/wphact24_cc_191.6_80.4_203712.fadana ! RUN = 203712 ! NEVT = 1999
FILE = /castor/cern.ch/delphi/MCprod/cern/wphact24/v99e/191.6/wphact24_cc_191.6_80.4_203713.fadana ! RUN = 203713 ! NEVT = 1999
FILE = /castor/cern.ch/delphi/MCprod/cern/wphact24/v99e/191.6/wphact24_cc_191.6_80.4_203714.fadana ! RUN = 203714 ! NEVT = 2000
FILE = /castor/cern.ch/delphi/MCprod/cern/wphact24/v99e/191.6/wphact24_cc_191.6_80.4_203715.fadana ! RUN = 203715 ! NEVT = 98
FILE = /castor/cern.ch/delphi/MCprod/cern/wphact24/v99e/191.6/wphact24_cc_191.6_80.4_203716.fadana ! RUN = 203716 ! NEVT = 1999
FILE = /castor/cern.ch/delphi/MCprod/cern/wphact24/v99e/191.6/wphact24_cc_191.6_80.4_203717.fadana ! RUN = 203717 ! NEVT = 1998
FILE = /castor/cern.ch/delphi/MCprod/cern/wphact24/v99e/191.6/wphact24_cc_191.6_80.4_203718.fadana ! RUN = 203718 ! NEVT = 1999
FILE = /castor/cern.ch/delphi/MCprod/cern/wphact24/v99e/191.6/wphact24_cc_191.6_80.4_203719.fadana ! RUN = 203719 ! NEVT = 2000
FILE = /castor/cern.ch/delphi/MCprod/cern/wphact24/v99e/191.6/wphact24_cc_191.6_80.4_203720.fadana ! RUN = 203720 ! NEVT = 1997
FILE = /castor/cern.ch/delphi/MCprod/cern/wphact24/v99e/191.6/wphact24_cc_191.6_80.4_203721.fadana ! RUN = 203721 ! NEVT = 1998
FILE = /castor/cern.ch/delphi/MCprod/cern/wphact24/v99e/191.6/wphact24_cc_191.6_80.4_203722.fadana ! RUN = 203722 ! NEVT = 1999
FILE = /castor/cern.ch/delphi/MCprod/cern/wphact24/v99e/191.6/wphact24_cc_191.6_80.4_203723.fadana ! RUN = 203723 ! NEVT = 1999
FILE = /castor/cern.ch/delphi/MCprod/cern/wphact24/v99e/191.6/wphact24_cc_191.6_80.4_203724.fadana ! RUN = 203724 ! NEVT = 2000
FILE = /castor/cern.ch/delphi/MCprod/cern/wphact24/v99e/191.6/wphact24_cc_191.6_80.4_203725.fadana ! RUN = 203725 ! NEVT = 1998
FILE = /castor/cern.ch/delphi/MCprod/cern/wphact24/v99e/191.6/wphact24_cc_191.6_80.4_203726.fadana ! RUN = 203726 ! NEVT = 1997
FILE = /castor/cern.ch/delphi/MCprod/cern/wphact24/v99e/191.6/wphact24_cc_191.6_80.4_203727.fadana ! RUN = 203727 ! NEVT = 2000
FILE = /castor/cern.ch/delphi/MCprod/cern/wphact24/v99e/191.6/wphact24_cc_191.6_80.4_203728.fadana ! RUN = 203728 ! NEVT = 2000
FILE = /castor/cern.ch/delphi/MCprod/cern/wphact24/v99e/191.6/wphact24_cc_191.6_80.4_203729.fadana ! RUN = 203729 ! NEVT = 1999
FILE = /castor/cern.ch/delphi/MCprod/cern/wphact24/v99e/191.6/wphact24_cc_191.6_80.4_203730.fadana ! RUN = 203730 ! NEVT = 2000
FILE = /castor/cern.ch/delphi/MCprod/cern/wphact24/v99e/191.6/wphact24_cc_191.6_80.4_203731.fadana ! RUN = 203731 ! NEVT = 1999
FILE = /castor/cern.ch/delphi/MCprod/cern/wphact24/v99e/191.6/wphact24_cc_191.6_80.4_203732.fadana ! RUN = 203732 ! NEVT = 1997
FILE = /castor/cern.ch/delphi/MCprod/cern/wphact24/v99e/191.6/wphact24_cc_191.6_80.4_203733.fadana ! RUN = 203733 ! NEVT = 2000
FILE = /castor/cern.ch/delphi/MCprod/cern/wphact24/v99e/191.6/wphact24_cc_191.6_80.4_203734.fadana ! RUN = 203734 ! NEVT = 2000
FILE = /castor/cern.ch/delphi/MCprod/cern/wphact24/v99e/191.6/wphact24_cc_191.6_80.4_203735.fadana ! RUN = 203735 ! NEVT = 1999
FILE = /castor/cern.ch/delphi/MCprod/cern/wphact24/v99e/191.6/wphact24_cc_191.6_80.4_203736.fadana ! RUN = 203736 ! NEVT = 1998
FILE = /castor/cern.ch/delphi/MCprod/cern/wphact24/v99e/191.6/wphact24_cc_191.6_80.4_203737.fadana ! RUN = 203737 ! NEVT = 2000
FILE = /castor/cern.ch/delphi/MCprod/cern/wphact24/v99e/191.6/wphact24_cc_191.6_80.4_203738.fadana ! RUN = 203738 ! NEVT = 2000
FILE = /castor/cern.ch/delphi/MCprod/cern/wphact24/v99e/191.6/wphact24_cc_191.6_80.4_203739.fadana ! RUN = 203739 ! NEVT = 1999
FILE = /castor/cern.ch/delphi/MCprod/cern/wphact24/v99e/191.6/wphact24_cc_191.6_80.4_203740.fadana ! RUN = 203740 ! NEVT = 1999
FILE = /castor/cern.ch/delphi/MCprod/cern/wphact24/v99e/191.6/wphact24_cc_191.6_80.4_203741.fadana ! RUN = 203741 ! NEVT = 1999
FILE = /castor/cern.ch/delphi/MCprod/cern/wphact24/v99e/191.6/wphact24_cc_191.6_80.4_203742.fadana ! RUN = 203742 ! NEVT = 2000
FILE = /castor/cern.ch/delphi/MCprod/cern/wphact24/v99e/191.6/wphact24_cc_191.6_80.4_203743.fadana ! RUN = 203743 ! NEVT = 2000
FILE = /castor/cern.ch/delphi/MCprod/cern/wphact24/v99e/191.6/wphact24_cc_191.6_80.4_203744.fadana ! RUN = 203744 ! NEVT = 2000
FILE = /castor/cern.ch/delphi/MCprod/cern/wphact24/v99e/191.6/wphact24_cc_191.6_80.4_203745.fadana ! RUN = 203745 ! NEVT = 2000
FILE = /castor/cern.ch/delphi/MCprod/cern/wphact24/v99e/191.6/wphact24_cc_191.6_80.4_203746.fadana ! RUN = 203746 ! NEVT = 1997
FILE = /castor/cern.ch/delphi/MCprod/cern/wphact24/v99e/191.6/wphact24_cc_191.6_80.4_203747.fadana ! RUN = 203747 ! NEVT = 1998
FILE = /castor/cern.ch/delphi/MCprod/cern/wphact24/v99e/191.6/wphact24_cc_191.6_80.4_203748.fadana ! RUN = 203748 ! NEVT = 2000
FILE = /castor/cern.ch/delphi/MCprod/cern/wphact24/v99e/191.6/wphact24_cc_191.6_80.4_203749.fadana ! RUN = 203749 ! NEVT = 1999
FILE = /castor/cern.ch/delphi/MCprod/cern/wphact24/v99e/191.6/wphact24_cc_191.6_80.4_203750.fadana ! RUN = 203750 ! NEVT = 1999
FILE = /castor/cern.ch/delphi/MCprod/cern/wphact24/v99e/191.6/wphact24_cc_191.6_80.4_203751.fadana ! RUN = 203751 ! NEVT = 2000
FILE = /castor/cern.ch/delphi/MCprod/cern/wphact24/v99e/191.6/wphact24_cc_191.6_80.4_203752.fadana ! RUN = 203752 ! NEVT = 2000
FILE = /castor/cern.ch/delphi/MCprod/cern/wphact24/v99e/191.6/wphact24_cc_191.6_80.4_203753.fadana ! RUN = 203753 ! NEVT = 2000
FILE = /castor/cern.ch/delphi/MCprod/cern/wphact24/v99e/191.6/wphact24_cc_191.6_80.4_203754.fadana ! RUN = 203754 ! NEVT = 1999
FILE = /castor/cern.ch/delphi/MCprod/cern/wphact24/v99e/191.6/wphact24_cc_191.6_80.4_203755.fadana ! RUN = 203755 ! NEVT = 1998
FILE = /castor/cern.ch/delphi/MCprod/cern/wphact24/v99e/191.6/wphact24_cc_191.6_80.4_203756.fadana ! RUN = 203756 ! NEVT = 2000
FILE = /castor/cern.ch/delphi/MCprod/cern/wphact24/v99e/191.6/wphact24_cc_191.6_80.4_203757.fadana ! RUN = 203757 ! NEVT = 2000
FILE = /castor/cern.ch/delphi/MCprod/cern/wphact24/v99e/191.6/wphact24_cc_191.6_80.4_203758.fadana ! RUN = 203758 ! NEVT = 2000
FILE = /castor/cern.ch/delphi/MCprod/cern/wphact24/v99e/191.6/wphact24_cc_191.6_80.4_203759.fadana ! RUN = 203759 ! NEVT = 2000
FILE = /castor/cern.ch/delphi/MCprod/cern/wphact24/v99e/191.6/wphact24_cc_191.6_80.4_203760.fadana ! RUN = 203760 ! NEVT = 1998
FILE = /castor/cern.ch/delphi/MCprod/cern/wphact24/v99e/191.6/wphact24_cc_191.6_80.4_203761.fadana ! RUN = 203761 ! NEVT = 1999
FILE = /castor/cern.ch/delphi/MCprod/cern/wphact24/v99e/191.6/wphact24_cc_191.6_80.4_203762.fadana ! RUN = 203762 ! NEVT = 1999
FILE = /castor/cern.ch/delphi/MCprod/cern/wphact24/v99e/191.6/wphact24_cc_191.6_80.4_203764.fadana ! RUN = 203764 ! NEVT = 1999
FILE = /castor/cern.ch/delphi/MCprod/cern/wphact24/v99e/191.6/wphact24_cc_191.6_80.4_203765.fadana ! RUN = 203765 ! NEVT = 1999
FILE = /castor/cern.ch/delphi/MCprod/cern/wphact24/v99e/191.6/wphact24_cc_191.6_80.4_203766.fadana ! RUN = 203766 ! NEVT = 2000
FILE = /castor/cern.ch/delphi/MCprod/cern/wphact24/v99e/191.6/wphact24_cc_191.6_80.4_203767.fadana ! RUN = 203767 ! NEVT = 1998
FILE = /castor/cern.ch/delphi/MCprod/cern/wphact24/v99e/191.6/wphact24_cc_191.6_80.4_203768.fadana ! RUN = 203768 ! NEVT = 1999
FILE = /castor/cern.ch/delphi/MCprod/cern/wphact24/v99e/191.6/wphact24_cc_191.6_80.4_203769.fadana ! RUN = 203769 ! NEVT = 1999
FILE = /castor/cern.ch/delphi/MCprod/cern/wphact24/v99e/191.6/wphact24_cc_191.6_80.4_203770.fadana ! RUN = 203770 ! NEVT = 1998
FILE = /castor/cern.ch/delphi/MCprod/cern/wphact24/v99e/191.6/wphact24_cc_191.6_80.4_203771.fadana ! RUN = 203771 ! NEVT = 2000
FILE = /castor/cern.ch/delphi/MCprod/cern/wphact24/v99e/191.6/wphact24_cc_191.6_80.4_203772.fadana ! RUN = 203772 ! NEVT = 1999
FILE = /castor/cern.ch/delphi/MCprod/cern/wphact24/v99e/191.6/wphact24_cc_191.6_80.4_203773.fadana ! RUN = 203773 ! NEVT = 2000
FILE = /castor/cern.ch/delphi/MCprod/cern/wphact24/v99e/191.6/wphact24_cc_191.6_80.4_203774.fadana ! RUN = 203774 ! NEVT = 1998
FILE = /castor/cern.ch/delphi/MCprod/cern/wphact24/v99e/191.6/wphact24_cc_191.6_80.4_203775.fadana ! RUN = 203775 ! NEVT = 1997
FILE = /castor/cern.ch/delphi/MCprod/cern/wphact24/v99e/191.6/wphact24_cc_191.6_80.4_203776.fadana ! RUN = 203776 ! NEVT = 1998
FILE = /castor/cern.ch/delphi/MCprod/cern/wphact24/v99e/191.6/wphact24_cc_191.6_80.4_203777.fadana ! RUN = 203777 ! NEVT = 2000
FILE = /castor/cern.ch/delphi/MCprod/cern/wphact24/v99e/191.6/wphact24_cc_191.6_80.4_203778.fadana ! RUN = 203778 ! NEVT = 2000
FILE = /castor/cern.ch/delphi/MCprod/cern/wphact24/v99e/191.6/wphact24_cc_191.6_80.4_203779.fadana ! RUN = 203779 ! NEVT = 1999
FILE = /castor/cern.ch/delphi/MCprod/cern/wphact24/v99e/191.6/wphact24_cc_191.6_80.4_203780.fadana ! RUN = 203780 ! NEVT = 2000
FILE = /castor/cern.ch/delphi/MCprod/cern/wphact24/v99e/191.6/wphact24_cc_191.6_80.4_203781.fadana ! RUN = 203781 ! NEVT = 1998
FILE = /castor/cern.ch/delphi/MCprod/cern/wphact24/v99e/191.6/wphact24_cc_191.6_80.4_203782.fadana ! RUN = 203782 ! NEVT = 1999
FILE = /castor/cern.ch/delphi/MCprod/cern/wphact24/v99e/191.6/wphact24_cc_191.6_80.4_203783.fadana ! RUN = 203783 ! NEVT = 1999
FILE = /castor/cern.ch/delphi/MCprod/cern/wphact24/v99e/191.6/wphact24_cc_191.6_80.4_203784.fadana ! RUN = 203784 ! NEVT = 2000
FILE = /castor/cern.ch/delphi/MCprod/cern/wphact24/v99e/191.6/wphact24_cc_191.6_80.4_203785.fadana ! RUN = 203785 ! NEVT = 1998
FILE = /castor/cern.ch/delphi/MCprod/cern/wphact24/v99e/191.6/wphact24_cc_191.6_80.4_203786.fadana ! RUN = 203786 ! NEVT = 1999
FILE = /castor/cern.ch/delphi/MCprod/cern/wphact24/v99e/191.6/wphact24_cc_191.6_80.4_203787.fadana ! RUN = 203787 ! NEVT = 2000
FILE = /castor/cern.ch/delphi/MCprod/cern/wphact24/v99e/191.6/wphact24_cc_191.6_80.4_203788.fadana ! RUN = 203788 ! NEVT = 1999
FILE = /castor/cern.ch/delphi/MCprod/cern/wphact24/v99e/191.6/wphact24_cc_191.6_80.4_203789.fadana ! RUN = 203789 ! NEVT = 1999
FILE = /castor/cern.ch/delphi/MCprod/cern/wphact24/v99e/191.6/wphact24_cc_191.6_80.4_203791.fadana ! RUN = 203791 ! NEVT = 1999
FILE = /castor/cern.ch/delphi/MCprod/cern/wphact24/v99e/191.6/wphact24_cc_191.6_80.4_203792.fadana ! RUN = 203792 ! NEVT = 2000
FILE = /castor/cern.ch/delphi/MCprod/cern/wphact24/v99e/191.6/wphact24_cc_191.6_80.4_203793.fadana ! RUN = 203793 ! NEVT = 2000
FILE = /castor/cern.ch/delphi/MCprod/cern/wphact24/v99e/191.6/wphact24_cc_191.6_80.4_203794.fadana ! RUN = 203794 ! NEVT = 2000
FILE = /castor/cern.ch/delphi/MCprod/cern/wphact24/v99e/191.6/wphact24_cc_191.6_80.4_203795.fadana ! RUN = 203795 ! NEVT = 1999
FILE = /castor/cern.ch/delphi/MCprod/cern/wphact24/v99e/191.6/wphact24_cc_191.6_80.4_203796.fadana ! RUN = 203796 ! NEVT = 1998
FILE = /castor/cern.ch/delphi/MCprod/cern/wphact24/v99e/191.6/wphact24_cc_191.6_80.4_203797.fadana ! RUN = 203797 ! NEVT = 2000
FILE = /castor/cern.ch/delphi/MCprod/cern/wphact24/v99e/191.6/wphact24_cc_191.6_80.4_203798.fadana ! RUN = 203798 ! NEVT = 2000
FILE = /castor/cern.ch/delphi/MCprod/cern/wphact24/v99e/191.6/wphact24_cc_191.6_80.4_203799.fadana ! RUN = 203799 ! NEVT = 1998
FILE = /castor/cern.ch/delphi/MCprod/cern/wphact24/v99e/191.6/wphact24_cc_191.6_80.4_203800.fadana ! RUN = 203800 ! NEVT = 2000
FILE = /castor/cern.ch/delphi/MCprod/cern/wphact24/v99e/191.6/wphact24_cc_191.6_80.4_203801.fadana ! RUN = 203801 ! NEVT = 2000
FILE = /castor/cern.ch/delphi/MCprod/cern/wphact24/v99e/191.6/wphact24_cc_191.6_80.4_203802.fadana ! RUN = 203802 ! NEVT = 1999
FILE = /castor/cern.ch/delphi/MCprod/cern/wphact24/v99e/191.6/wphact24_cc_191.6_80.4_203803.fadana ! RUN = 203803 ! NEVT = 2000
FILE = /castor/cern.ch/delphi/MCprod/cern/wphact24/v99e/191.6/wphact24_cc_191.6_80.4_203804.fadana ! RUN = 203804 ! NEVT = 1999
FILE = /castor/cern.ch/delphi/MCprod/cern/wphact24/v99e/191.6/wphact24_cc_191.6_80.4_203805.fadana ! RUN = 203805 ! NEVT = 1999
FILE = /castor/cern.ch/delphi/MCprod/cern/wphact24/v99e/191.6/wphact24_cc_191.6_80.4_203806.fadana ! RUN = 203806 ! NEVT = 2000
FILE = /castor/cern.ch/delphi/MCprod/cern/wphact24/v99e/191.6/wphact24_cc_191.6_80.4_203807.fadana ! RUN = 203807 ! NEVT = 2000
FILE = /castor/cern.ch/delphi/MCprod/cern/wphact24/v99e/191.6/wphact24_cc_191.6_80.4_203808.fadana ! RUN = 203808 ! NEVT = 1999
FILE = /castor/cern.ch/delphi/MCprod/cern/wphact24/v99e/191.6/wphact24_cc_191.6_80.4_203809.fadana ! RUN = 203809 ! NEVT = 2000
FILE = /castor/cern.ch/delphi/MCprod/cern/wphact24/v99e/191.6/wphact24_cc_191.6_80.4_203810.fadana ! RUN = 203810 ! NEVT = 1999
FILE = /castor/cern.ch/delphi/MCprod/cern/wphact24/v99e/191.6/wphact24_cc_191.6_80.4_203811.fadana ! RUN = 203811 ! NEVT = 2000
FILE = /castor/cern.ch/delphi/MCprod/cern/wphact24/v99e/191.6/wphact24_cc_191.6_80.4_203812.fadana ! RUN = 203812 ! NEVT = 2000
FILE = /castor/cern.ch/delphi/MCprod/cern/wphact24/v99e/191.6/wphact24_cc_191.6_80.4_203813.fadana ! RUN = 203813 ! NEVT = 2000
FILE = /castor/cern.ch/delphi/MCprod/cern/wphact24/v99e/191.6/wphact24_cc_191.6_80.4_203814.fadana ! RUN = 203814 ! NEVT = 2000
FILE = /castor/cern.ch/delphi/MCprod/cern/wphact24/v99e/191.6/wphact24_cc_191.6_80.4_203815.fadana ! RUN = 203815 ! NEVT = 1999
FILE = /castor/cern.ch/delphi/MCprod/cern/wphact24/v99e/191.6/wphact24_cc_191.6_80.4_203816.fadana ! RUN = 203816 ! NEVT = 2000
FILE = /castor/cern.ch/delphi/MCprod/cern/wphact24/v99e/191.6/wphact24_cc_191.6_80.4_203817.fadana ! RUN = 203817 ! NEVT = 1999
FILE = /castor/cern.ch/delphi/MCprod/cern/wphact24/v99e/191.6/wphact24_cc_191.6_80.4_203818.fadana ! RUN = 203818 ! NEVT = 2000
FILE = /castor/cern.ch/delphi/MCprod/cern/wphact24/v99e/191.6/wphact24_cc_191.6_80.4_203819.fadana ! RUN = 203819 ! NEVT = 1999
FILE = /castor/cern.ch/delphi/MCprod/cern/wphact24/v99e/191.6/wphact24_cc_191.6_80.4_203820.fadana ! RUN = 203820 ! NEVT = 1998
FILE = /castor/cern.ch/delphi/MCprod/cern/wphact24/v99e/191.6/wphact24_cc_191.6_80.4_203821.fadana ! RUN = 203821 ! NEVT = 2000
FILE = /castor/cern.ch/delphi/MCprod/cern/wphact24/v99e/191.6/wphact24_cc_191.6_80.4_203822.fadana ! RUN = 203822 ! NEVT = 2000
FILE = /castor/cern.ch/delphi/MCprod/cern/wphact24/v99e/191.6/wphact24_cc_191.6_80.4_203823.fadana ! RUN = 203823 ! NEVT = 1999
FILE = /castor/cern.ch/delphi/MCprod/cern/wphact24/v99e/191.6/wphact24_cc_191.6_80.4_203824.fadana ! RUN = 203824 ! NEVT = 2000
FILE = /castor/cern.ch/delphi/MCprod/cern/wphact24/v99e/191.6/wphact24_cc_191.6_80.4_203825.fadana ! RUN = 203825 ! NEVT = 2000
FILE = /castor/cern.ch/delphi/MCprod/cern/wphact24/v99e/191.6/wphact24_cc_191.6_80.4_203826.fadana ! RUN = 203826 ! NEVT = 1998
FILE = /castor/cern.ch/delphi/MCprod/cern/wphact24/v99e/191.6/wphact24_cc_191.6_80.4_203827.fadana ! RUN = 203827 ! NEVT = 2000
FILE = /castor/cern.ch/delphi/MCprod/cern/wphact24/v99e/191.6/wphact24_cc_191.6_80.4_203828.fadana ! RUN = 203828 ! NEVT = 2000
FILE = /castor/cern.ch/delphi/MCprod/cern/wphact24/v99e/191.6/wphact24_cc_191.6_80.4_203829.fadana ! RUN = 203829 ! NEVT = 1999
FILE = /castor/cern.ch/delphi/MCprod/cern/wphact24/v99e/191.6/wphact24_cc_191.6_80.4_203830.fadana ! RUN = 203830 ! NEVT = 1998
FILE = /castor/cern.ch/delphi/MCprod/cern/wphact24/v99e/191.6/wphact24_cc_191.6_80.4_203831.fadana ! RUN = 203831 ! NEVT = 1998
FILE = /castor/cern.ch/delphi/MCprod/cern/wphact24/v99e/191.6/wphact24_cc_191.6_80.4_203832.fadana ! RUN = 203832 ! NEVT = 2000
FILE = /castor/cern.ch/delphi/MCprod/cern/wphact24/v99e/191.6/wphact24_cc_191.6_80.4_203833.fadana ! RUN = 203833 ! NEVT = 1998
FILE = /castor/cern.ch/delphi/MCprod/cern/wphact24/v99e/191.6/wphact24_cc_191.6_80.4_203834.fadana ! RUN = 203834 ! NEVT = 2000
FILE = /castor/cern.ch/delphi/MCprod/cern/wphact24/v99e/191.6/wphact24_cc_191.6_80.4_203835.fadana ! RUN = 203835 ! NEVT = 1105
FILE = /castor/cern.ch/delphi/MCprod/cern/wphact24/v99e/191.6/wphact24_cc_191.6_80.4_203836.fadana ! RUN = 203836 ! NEVT = 1999
FILE = /castor/cern.ch/delphi/MCprod/cern/wphact24/v99e/191.6/wphact24_cc_191.6_80.4_203837.fadana ! RUN = 203837 ! NEVT = 2000
FILE = /castor/cern.ch/delphi/MCprod/cern/wphact24/v99e/191.6/wphact24_cc_191.6_80.4_203838.fadana ! RUN = 203838 ! NEVT = 1999
FILE = /castor/cern.ch/delphi/MCprod/cern/wphact24/v99e/191.6/wphact24_cc_191.6_80.4_203839.fadana ! RUN = 203839 ! NEVT = 2000
FILE = /castor/cern.ch/delphi/MCprod/cern/wphact24/v99e/191.6/wphact24_cc_191.6_80.4_203840.fadana ! RUN = 203840 ! NEVT = 1999
FILE = /castor/cern.ch/delphi/MCprod/cern/wphact24/v99e/191.6/wphact24_cc_191.6_80.4_203841.fadana ! RUN = 203841 ! NEVT = 2000
FILE = /castor/cern.ch/delphi/MCprod/cern/wphact24/v99e/191.6/wphact24_cc_191.6_80.4_203842.fadana ! RUN = 203842 ! NEVT = 1997
FILE = /castor/cern.ch/delphi/MCprod/cern/wphact24/v99e/191.6/wphact24_cc_191.6_80.4_203843.fadana ! RUN = 203843 ! NEVT = 1998
FILE = /castor/cern.ch/delphi/MCprod/cern/wphact24/v99e/191.6/wphact24_cc_191.6_80.4_203844.fadana ! RUN = 203844 ! NEVT = 2000
FILE = /castor/cern.ch/delphi/MCprod/cern/wphact24/v99e/191.6/wphact24_cc_191.6_80.4_203845.fadana ! RUN = 203845 ! NEVT = 1999
FILE = /castor/cern.ch/delphi/MCprod/cern/wphact24/v99e/191.6/wphact24_cc_191.6_80.4_203846.fadana ! RUN = 203846 ! NEVT = 1999
FILE = /castor/cern.ch/delphi/MCprod/cern/wphact24/v99e/191.6/wphact24_cc_191.6_80.4_203847.fadana ! RUN = 203847 ! NEVT = 1999
FILE = /castor/cern.ch/delphi/MCprod/cern/wphact24/v99e/191.6/wphact24_cc_191.6_80.4_203848.fadana ! RUN = 203848 ! NEVT = 1998
FILE = /castor/cern.ch/delphi/MCprod/cern/wphact24/v99e/191.6/wphact24_cc_191.6_80.4_203849.fadana ! RUN = 203849 ! NEVT = 1999
FILE = /castor/cern.ch/delphi/MCprod/cern/wphact24/v99e/191.6/wphact24_cc_191.6_80.4_203850.fadana ! RUN = 203850 ! NEVT = 2000
FILE = /castor/cern.ch/delphi/MCprod/cern/wphact24/v99e/191.6/wphact24_cc_191.6_80.4_203851.fadana ! RUN = 203851 ! NEVT = 1998
FILE = /castor/cern.ch/delphi/MCprod/cern/wphact24/v99e/191.6/wphact24_cc_191.6_80.4_203852.fadana ! RUN = 203852 ! NEVT = 1998
FILE = /castor/cern.ch/delphi/MCprod/cern/wphact24/v99e/191.6/wphact24_cc_191.6_80.4_203853.fadana ! RUN = 203853 ! NEVT = 1998
FILE = /castor/cern.ch/delphi/MCprod/cern/wphact24/v99e/191.6/wphact24_cc_191.6_80.4_203854.fadana ! RUN = 203854 ! NEVT = 1999
FILE = /castor/cern.ch/delphi/MCprod/cern/wphact24/v99e/191.6/wphact24_cc_191.6_80.4_203855.fadana ! RUN = 203855 ! NEVT = 2000
FILE = /castor/cern.ch/delphi/MCprod/cern/wphact24/v99e/191.6/wphact24_cc_191.6_80.4_203856.fadana ! RUN = 203856 ! NEVT = 1999
FILE = /castor/cern.ch/delphi/MCprod/cern/wphact24/v99e/191.6/wphact24_cc_191.6_80.4_203857.fadana ! RUN = 203857 ! NEVT = 2000
FILE = /castor/cern.ch/delphi/MCprod/cern/wphact24/v99e/191.6/wphact24_cc_191.6_80.4_203858.fadana ! RUN = 203858 ! NEVT = 1999
FILE = /castor/cern.ch/delphi/MCprod/cern/wphact24/v99e/191.6/wphact24_cc_191.6_80.4_203859.fadana ! RUN = 203859 ! NEVT = 1998
FILE = /castor/cern.ch/delphi/MCprod/cern/wphact24/v99e/191.6/wphact24_cc_191.6_80.4_203860.fadana ! RUN = 203860 ! NEVT = 1999
FILE = /castor/cern.ch/delphi/MCprod/cern/wphact24/v99e/191.6/wphact24_cc_191.6_80.4_203861.fadana ! RUN = 203861 ! NEVT = 2000
FILE = /castor/cern.ch/delphi/MCprod/cern/wphact24/v99e/191.6/wphact24_cc_191.6_80.4_203862.fadana ! RUN = 203862 ! NEVT = 2000
FILE = /castor/cern.ch/delphi/MCprod/cern/wphact24/v99e/191.6/wphact24_cc_191.6_80.4_203863.fadana ! RUN = 203863 ! NEVT = 2000
FILE = /castor/cern.ch/delphi/MCprod/cern/wphact24/v99e/191.6/wphact24_cc_191.6_80.4_203864.fadana ! RUN = 203864 ! NEVT = 1998
FILE = /castor/cern.ch/delphi/MCprod/cern/wphact24/v99e/191.6/wphact24_cc_191.6_80.4_203865.fadana ! RUN = 203865 ! NEVT = 2000
FILE = /castor/cern.ch/delphi/MCprod/cern/wphact24/v99e/191.6/wphact24_cc_191.6_80.4_203866.fadana ! RUN = 203866 ! NEVT = 1998
FILE = /castor/cern.ch/delphi/MCprod/cern/wphact24/v99e/191.6/wphact24_cc_191.6_80.4_203867.fadana ! RUN = 203867 ! NEVT = 1999
FILE = /castor/cern.ch/delphi/MCprod/cern/wphact24/v99e/191.6/wphact24_cc_191.6_80.4_203868.fadana ! RUN = 203868 ! NEVT = 1998
FILE = /castor/cern.ch/delphi/MCprod/cern/wphact24/v99e/191.6/wphact24_cc_191.6_80.4_203869.fadana ! RUN = 203869 ! NEVT = 2000
FILE = /castor/cern.ch/delphi/MCprod/cern/wphact24/v99e/191.6/wphact24_cc_191.6_80.4_203870.fadana ! RUN = 203870 ! NEVT = 2000
FILE = /castor/cern.ch/delphi/MCprod/cern/wphact24/v99e/191.6/wphact24_cc_191.6_80.4_203871.fadana ! RUN = 203871 ! NEVT = 1999
FILE = /castor/cern.ch/delphi/MCprod/cern/wphact24/v99e/191.6/wphact24_cc_191.6_80.4_203872.fadana ! RUN = 203872 ! NEVT = 2000
FILE = /castor/cern.ch/delphi/MCprod/cern/wphact24/v99e/191.6/wphact24_cc_191.6_80.4_203873.fadana ! RUN = 203873 ! NEVT = 1998
FILE = /castor/cern.ch/delphi/MCprod/cern/wphact24/v99e/191.6/wphact24_cc_191.6_80.4_203874.fadana ! RUN = 203874 ! NEVT = 1999
FILE = /castor/cern.ch/delphi/MCprod/cern/wphact24/v99e/191.6/wphact24_cc_191.6_80.4_203875.fadana ! RUN = 203875 ! NEVT = 1999
FILE = /castor/cern.ch/delphi/MCprod/cern/wphact24/v99e/191.6/wphact24_cc_191.6_80.4_203876.fadana ! RUN = 203876 ! NEVT = 2000
FILE = /castor/cern.ch/delphi/MCprod/cern/wphact24/v99e/191.6/wphact24_cc_191.6_80.4_203877.fadana ! RUN = 203877 ! NEVT = 2000
FILE = /castor/cern.ch/delphi/MCprod/cern/wphact24/v99e/191.6/wphact24_cc_191.6_80.4_203878.fadana ! RUN = 203878 ! NEVT = 1999
FILE = /castor/cern.ch/delphi/MCprod/cern/wphact24/v99e/191.6/wphact24_cc_191.6_80.4_203879.fadana ! RUN = 203879 ! NEVT = 2000
FILE = /castor/cern.ch/delphi/MCprod/cern/wphact24/v99e/191.6/wphact24_cc_191.6_80.4_203880.fadana ! RUN = 203880 ! NEVT = 1998
FILE = /castor/cern.ch/delphi/MCprod/cern/wphact24/v99e/191.6/wphact24_cc_191.6_80.4_203881.fadana ! RUN = 203881 ! NEVT = 1999
FILE = /castor/cern.ch/delphi/MCprod/cern/wphact24/v99e/191.6/wphact24_cc_191.6_80.4_203882.fadana ! RUN = 203882 ! NEVT = 1998
FILE = /castor/cern.ch/delphi/MCprod/cern/wphact24/v99e/191.6/wphact24_cc_191.6_80.4_203883.fadana ! RUN = 203883 ! NEVT = 2000
FILE = /castor/cern.ch/delphi/MCprod/cern/wphact24/v99e/191.6/wphact24_cc_191.6_80.4_203884.fadana ! RUN = 203884 ! NEVT = 2000
FILE = /castor/cern.ch/delphi/MCprod/cern/wphact24/v99e/191.6/wphact24_cc_191.6_80.4_203885.fadana ! RUN = 203885 ! NEVT = 1998
FILE = /castor/cern.ch/delphi/MCprod/cern/wphact24/v99e/191.6/wphact24_cc_191.6_80.4_203886.fadana ! RUN = 203886 ! NEVT = 2000
FILE = /castor/cern.ch/delphi/MCprod/cern/wphact24/v99e/191.6/wphact24_cc_191.6_80.4_203887.fadana ! RUN = 203887 ! NEVT = 1016
FILE = /castor/cern.ch/delphi/MCprod/cern/wphact24/v99e/191.6/wphact24_cc_191.6_80.4_203888.fadana ! RUN = 203888 ! NEVT = 1998
FILE = /castor/cern.ch/delphi/MCprod/cern/wphact24/v99e/191.6/wphact24_cc_191.6_80.4_203889.fadana ! RUN = 203889 ! NEVT = 1998
FILE = /castor/cern.ch/delphi/MCprod/cern/wphact24/v99e/191.6/wphact24_cc_191.6_80.4_203890.fadana ! RUN = 203890 ! NEVT = 1997
FILE = /castor/cern.ch/delphi/MCprod/cern/wphact24/v99e/191.6/wphact24_cc_191.6_80.4_203891.fadana ! RUN = 203891 ! NEVT = 1999
FILE = /castor/cern.ch/delphi/MCprod/cern/wphact24/v99e/191.6/wphact24_cc_191.6_80.4_203892.fadana ! RUN = 203892 ! NEVT = 2000
FILE = /castor/cern.ch/delphi/MCprod/cern/wphact24/v99e/191.6/wphact24_cc_191.6_80.4_203893.fadana ! RUN = 203893 ! NEVT = 1999
FILE = /castor/cern.ch/delphi/MCprod/cern/wphact24/v99e/191.6/wphact24_cc_191.6_80.4_203894.fadana ! RUN = 203894 ! NEVT = 2000
FILE = /castor/cern.ch/delphi/MCprod/cern/wphact24/v99e/191.6/wphact24_cc_191.6_80.4_203895.fadana ! RUN = 203895 ! NEVT = 1999
FILE = /castor/cern.ch/delphi/MCprod/cern/wphact24/v99e/191.6/wphact24_cc_191.6_80.4_203896.fadana ! RUN = 203896 ! NEVT = 1999
FILE = /castor/cern.ch/delphi/MCprod/cern/wphact24/v99e/191.6/wphact24_cc_191.6_80.4_203897.fadana ! RUN = 203897 ! NEVT = 1999
FILE = /castor/cern.ch/delphi/MCprod/cern/wphact24/v99e/191.6/wphact24_cc_191.6_80.4_203898.fadana ! RUN = 203898 ! NEVT = 1999
FILE = /castor/cern.ch/delphi/MCprod/cern/wphact24/v99e/191.6/wphact24_cc_191.6_80.4_203899.fadana ! RUN = 203899 ! NEVT = 1999
FILE = /castor/cern.ch/delphi/MCprod/cern/wphact24/v99e/191.6/wphact24_cc_191.6_80.4_203900.fadana ! RUN = 203900 ! NEVT = 2000
FILE = /castor/cern.ch/delphi/MCprod/cern/wphact24/v99e/191.6/wphact24_cc_191.6_80.4_203901.fadana ! RUN = 203901 ! NEVT = 1999
FILE = /castor/cern.ch/delphi/MCprod/cern/wphact24/v99e/191.6/wphact24_cc_191.6_80.4_203902.fadana ! RUN = 203902 ! NEVT = 82
FILE = /castor/cern.ch/delphi/MCprod/cern/wphact24/v99e/191.6/wphact24_cc_191.6_80.4_203903.fadana ! RUN = 203903 ! NEVT = 1998
FILE = /castor/cern.ch/delphi/MCprod/cern/wphact24/v99e/191.6/wphact24_cc_191.6_80.4_203904.fadana ! RUN = 203904 ! NEVT = 1999
FILE = /castor/cern.ch/delphi/MCprod/cern/wphact24/v99e/191.6/wphact24_cc_191.6_80.4_203905.fadana ! RUN = 203905 ! NEVT = 2000
FILE = /castor/cern.ch/delphi/MCprod/cern/wphact24/v99e/191.6/wphact24_cc_191.6_80.4_203906.fadana ! RUN = 203906 ! NEVT = 2000
FILE = /castor/cern.ch/delphi/MCprod/cern/wphact24/v99e/191.6/wphact24_cc_191.6_80.4_203907.fadana ! RUN = 203907 ! NEVT = 1999
FILE = /castor/cern.ch/delphi/MCprod/cern/wphact24/v99e/191.6/wphact24_cc_191.6_80.4_203908.fadana ! RUN = 203908 ! NEVT = 1997
FILE = /castor/cern.ch/delphi/MCprod/cern/wphact24/v99e/191.6/wphact24_cc_191.6_80.4_203909.fadana ! RUN = 203909 ! NEVT = 2000
FILE = /castor/cern.ch/delphi/MCprod/cern/wphact24/v99e/191.6/wphact24_cc_191.6_80.4_203910.fadana ! RUN = 203910 ! NEVT = 1999
FILE = /castor/cern.ch/delphi/MCprod/cern/wphact24/v99e/191.6/wphact24_cc_191.6_80.4_203911.fadana ! RUN = 203911 ! NEVT = 1999
FILE = /castor/cern.ch/delphi/MCprod/cern/wphact24/v99e/191.6/wphact24_cc_191.6_80.4_203912.fadana ! RUN = 203912 ! NEVT = 1999
FILE = /castor/cern.ch/delphi/MCprod/cern/wphact24/v99e/191.6/wphact24_cc_191.6_80.4_203913.fadana ! RUN = 203913 ! NEVT = 1996
FILE = /castor/cern.ch/delphi/MCprod/cern/wphact24/v99e/191.6/wphact24_cc_191.6_80.4_203914.fadana ! RUN = 203914 ! NEVT = 2000
FILE = /castor/cern.ch/delphi/MCprod/cern/wphact24/v99e/191.6/wphact24_cc_191.6_80.4_203915.fadana ! RUN = 203915 ! NEVT = 2000
FILE = /castor/cern.ch/delphi/MCprod/cern/wphact24/v99e/191.6/wphact24_cc_191.6_80.4_203916.fadana ! RUN = 203916 ! NEVT = 2000
FILE = /castor/cern.ch/delphi/MCprod/cern/wphact24/v99e/191.6/wphact24_cc_191.6_80.4_203917.fadana ! RUN = 203917 ! NEVT = 2000
FILE = /castor/cern.ch/delphi/MCprod/cern/wphact24/v99e/191.6/wphact24_cc_191.6_80.4_203918.fadana ! RUN = 203918 ! NEVT = 2000
FILE = /castor/cern.ch/delphi/MCprod/cern/wphact24/v99e/191.6/wphact24_cc_191.6_80.4_203919.fadana ! RUN = 203919 ! NEVT = 1999
FILE = /castor/cern.ch/delphi/MCprod/cern/wphact24/v99e/191.6/wphact24_cc_191.6_80.4_203920.fadana ! RUN = 203920 ! NEVT = 2000
FILE = /castor/cern.ch/delphi/MCprod/cern/wphact24/v99e/191.6/wphact24_cc_191.6_80.4_203921.fadana ! RUN = 203921 ! NEVT = 1998
FILE = /castor/cern.ch/delphi/MCprod/cern/wphact24/v99e/191.6/wphact24_cc_191.6_80.4_203922.fadana ! RUN = 203922 ! NEVT = 2000
FILE = /castor/cern.ch/delphi/MCprod/cern/wphact24/v99e/191.6/wphact24_cc_191.6_80.4_203923.fadana ! RUN = 203923 ! NEVT = 1999
FILE = /castor/cern.ch/delphi/MCprod/cern/wphact24/v99e/191.6/wphact24_cc_191.6_80.4_203924.fadana ! RUN = 203924 ! NEVT = 2000
FILE = /castor/cern.ch/delphi/MCprod/cern/wphact24/v99e/191.6/wphact24_cc_191.6_80.4_203925.fadana ! RUN = 203925 ! NEVT = 2000
FILE = /castor/cern.ch/delphi/MCprod/cern/wphact24/v99e/191.6/wphact24_cc_191.6_80.4_203926.fadana ! RUN = 203926 ! NEVT = 1999
FILE = /castor/cern.ch/delphi/MCprod/cern/wphact24/v99e/191.6/wphact24_cc_191.6_80.4_203927.fadana ! RUN = 203927 ! NEVT = 2000
FILE = /castor/cern.ch/delphi/MCprod/cern/wphact24/v99e/191.6/wphact24_cc_191.6_80.4_203928.fadana ! RUN = 203928 ! NEVT = 1999
FILE = /castor/cern.ch/delphi/MCprod/cern/wphact24/v99e/191.6/wphact24_cc_191.6_80.4_203929.fadana ! RUN = 203929 ! NEVT = 1998
FILE = /castor/cern.ch/delphi/MCprod/cern/wphact24/v99e/191.6/wphact24_cc_191.6_80.4_203930.fadana ! RUN = 203930 ! NEVT = 1998
FILE = /castor/cern.ch/delphi/MCprod/cern/wphact24/v99e/191.6/wphact24_cc_191.6_80.4_203931.fadana ! RUN = 203931 ! NEVT = 1999
FILE = /castor/cern.ch/delphi/MCprod/cern/wphact24/v99e/191.6/wphact24_cc_191.6_80.4_203932.fadana ! RUN = 203932 ! NEVT = 1999
FILE = /castor/cern.ch/delphi/MCprod/cern/wphact24/v99e/191.6/wphact24_cc_191.6_80.4_203933.fadana ! RUN = 203933 ! NEVT = 1999
FILE = /castor/cern.ch/delphi/MCprod/cern/wphact24/v99e/191.6/wphact24_cc_191.6_80.4_203934.fadana ! RUN = 203934 ! NEVT = 2000
FILE = /castor/cern.ch/delphi/MCprod/cern/wphact24/v99e/191.6/wphact24_cc_191.6_80.4_203935.fadana ! RUN = 203935 ! NEVT = 2000
FILE = /castor/cern.ch/delphi/MCprod/cern/wphact24/v99e/191.6/wphact24_cc_191.6_80.4_203936.fadana ! RUN = 203936 ! NEVT = 1998
FILE = /castor/cern.ch/delphi/MCprod/cern/wphact24/v99e/191.6/wphact24_cc_191.6_80.4_203937.fadana ! RUN = 203937 ! NEVT = 1999
FILE = /castor/cern.ch/delphi/MCprod/cern/wphact24/v99e/191.6/wphact24_cc_191.6_80.4_203938.fadana ! RUN = 203938 ! NEVT = 2000
FILE = /castor/cern.ch/delphi/MCprod/cern/wphact24/v99e/191.6/wphact24_cc_191.6_80.4_203939.fadana ! RUN = 203939 ! NEVT = 2000
FILE = /castor/cern.ch/delphi/MCprod/cern/wphact24/v99e/191.6/wphact24_cc_191.6_80.4_203940.fadana ! RUN = 203940 ! NEVT = 1997
FILE = /castor/cern.ch/delphi/MCprod/cern/wphact24/v99e/191.6/wphact24_cc_191.6_80.4_203941.fadana ! RUN = 203941 ! NEVT = 1999
FILE = /castor/cern.ch/delphi/MCprod/cern/wphact24/v99e/191.6/wphact24_cc_191.6_80.4_203942.fadana ! RUN = 203942 ! NEVT = 1998
FILE = /castor/cern.ch/delphi/MCprod/cern/wphact24/v99e/191.6/wphact24_cc_191.6_80.4_203943.fadana ! RUN = 203943 ! NEVT = 2000
FILE = /castor/cern.ch/delphi/MCprod/cern/wphact24/v99e/191.6/wphact24_cc_191.6_80.4_203944.fadana ! RUN = 203944 ! NEVT = 1999
FILE = /castor/cern.ch/delphi/MCprod/cern/wphact24/v99e/191.6/wphact24_cc_191.6_80.4_203945.fadana ! RUN = 203945 ! NEVT = 2000
FILE = /castor/cern.ch/delphi/MCprod/cern/wphact24/v99e/191.6/wphact24_cc_191.6_80.4_203946.fadana ! RUN = 203946 ! NEVT = 2000
FILE = /castor/cern.ch/delphi/MCprod/cern/wphact24/v99e/191.6/wphact24_cc_191.6_80.4_203947.fadana ! RUN = 203947 ! NEVT = 1999
FILE = /castor/cern.ch/delphi/MCprod/cern/wphact24/v99e/191.6/wphact24_cc_191.6_80.4_203948.fadana ! RUN = 203948 ! NEVT = 2000
FILE = /castor/cern.ch/delphi/MCprod/cern/wphact24/v99e/191.6/wphact24_cc_191.6_80.4_203949.fadana ! RUN = 203949 ! NEVT = 2000
FILE = /castor/cern.ch/delphi/MCprod/cern/wphact24/v99e/191.6/wphact24_cc_191.6_80.4_203950.fadana ! RUN = 203950 ! NEVT = 1998
FILE = /castor/cern.ch/delphi/MCprod/cern/wphact24/v99e/191.6/wphact24_cc_191.6_80.4_203951.fadana ! RUN = 203951 ! NEVT = 1999
FILE = /castor/cern.ch/delphi/MCprod/cern/wphact24/v99e/191.6/wphact24_cc_191.6_80.4_203952.fadana ! RUN = 203952 ! NEVT = 1999
FILE = /castor/cern.ch/delphi/MCprod/cern/wphact24/v99e/191.6/wphact24_cc_191.6_80.4_203953.fadana ! RUN = 203953 ! NEVT = 1999
FILE = /castor/cern.ch/delphi/MCprod/cern/wphact24/v99e/191.6/wphact24_cc_191.6_80.4_203954.fadana ! RUN = 203954 ! NEVT = 1998
FILE = /castor/cern.ch/delphi/MCprod/cern/wphact24/v99e/191.6/wphact24_cc_191.6_80.4_203955.fadana ! RUN = 203955 ! NEVT = 2000
FILE = /castor/cern.ch/delphi/MCprod/cern/wphact24/v99e/191.6/wphact24_cc_191.6_80.4_203956.fadana ! RUN = 203956 ! NEVT = 2000
FILE = /castor/cern.ch/delphi/MCprod/cern/wphact24/v99e/191.6/wphact24_cc_191.6_80.4_203957.fadana ! RUN = 203957 ! NEVT = 1999
FILE = /castor/cern.ch/delphi/MCprod/cern/wphact24/v99e/191.6/wphact24_cc_191.6_80.4_203958.fadana ! RUN = 203958 ! NEVT = 2000
FILE = /castor/cern.ch/delphi/MCprod/cern/wphact24/v99e/191.6/wphact24_cc_191.6_80.4_203959.fadana ! RUN = 203959 ! NEVT = 201
FILE = /castor/cern.ch/delphi/MCprod/cern/wphact24/v99e/191.6/wphact24_cc_191.6_80.4_203960.fadana ! RUN = 203960 ! NEVT = 2000
FILE = /castor/cern.ch/delphi/MCprod/cern/wphact24/v99e/191.6/wphact24_cc_191.6_80.4_203961.fadana ! RUN = 203961 ! NEVT = 1999
FILE = /castor/cern.ch/delphi/MCprod/cern/wphact24/v99e/191.6/wphact24_cc_191.6_80.4_203962.fadana ! RUN = 203962 ! NEVT = 1999
FILE = /castor/cern.ch/delphi/MCprod/cern/wphact24/v99e/191.6/wphact24_cc_191.6_80.4_203963.fadana ! RUN = 203963 ! NEVT = 1999
FILE = /castor/cern.ch/delphi/MCprod/cern/wphact24/v99e/191.6/wphact24_cc_191.6_80.4_203964.fadana ! RUN = 203964 ! NEVT = 2000
FILE = /castor/cern.ch/delphi/MCprod/cern/wphact24/v99e/191.6/wphact24_cc_191.6_80.4_203965.fadana ! RUN = 203965 ! NEVT = 2000
FILE = /castor/cern.ch/delphi/MCprod/cern/wphact24/v99e/191.6/wphact24_cc_191.6_80.4_203966.fadana ! RUN = 203966 ! NEVT = 1999
FILE = /castor/cern.ch/delphi/MCprod/cern/wphact24/v99e/191.6/wphact24_cc_191.6_80.4_203967.fadana ! RUN = 203967 ! NEVT = 2000
FILE = /castor/cern.ch/delphi/MCprod/cern/wphact24/v99e/191.6/wphact24_cc_191.6_80.4_203968.fadana ! RUN = 203968 ! NEVT = 1997
FILE = /castor/cern.ch/delphi/MCprod/cern/wphact24/v99e/191.6/wphact24_cc_191.6_80.4_203969.fadana ! RUN = 203969 ! NEVT = 2000
FILE = /castor/cern.ch/delphi/MCprod/cern/wphact24/v99e/191.6/wphact24_cc_191.6_80.4_203970.fadana ! RUN = 203970 ! NEVT = 2000
FILE = /castor/cern.ch/delphi/MCprod/cern/wphact24/v99e/191.6/wphact24_cc_191.6_80.4_203971.fadana ! RUN = 203971 ! NEVT = 1999
FILE = /castor/cern.ch/delphi/MCprod/cern/wphact24/v99e/191.6/wphact24_cc_191.6_80.4_203972.fadana ! RUN = 203972 ! NEVT = 1999
FILE = /castor/cern.ch/delphi/MCprod/cern/wphact24/v99e/191.6/wphact24_cc_191.6_80.4_203973.fadana ! RUN = 203973 ! NEVT = 2000
FILE = /castor/cern.ch/delphi/MCprod/cern/wphact24/v99e/191.6/wphact24_cc_191.6_80.4_203974.fadana ! RUN = 203974 ! NEVT = 2000
FILE = /castor/cern.ch/delphi/MCprod/cern/wphact24/v99e/191.6/wphact24_cc_191.6_80.4_203975.fadana ! RUN = 203975 ! NEVT = 1999
FILE = /castor/cern.ch/delphi/MCprod/cern/wphact24/v99e/191.6/wphact24_cc_191.6_80.4_203976.fadana ! RUN = 203976 ! NEVT = 2000
FILE = /castor/cern.ch/delphi/MCprod/cern/wphact24/v99e/191.6/wphact24_cc_191.6_80.4_203977.fadana ! RUN = 203977 ! NEVT = 2000
FILE = /castor/cern.ch/delphi/MCprod/cern/wphact24/v99e/191.6/wphact24_cc_191.6_80.4_203978.fadana ! RUN = 203978 ! NEVT = 2000
FILE = /castor/cern.ch/delphi/MCprod/cern/wphact24/v99e/191.6/wphact24_cc_191.6_80.4_203979.fadana ! RUN = 203979 ! NEVT = 1999
FILE = /castor/cern.ch/delphi/MCprod/cern/wphact24/v99e/191.6/wphact24_cc_191.6_80.4_203980.fadana ! RUN = 203980 ! NEVT = 2000
FILE = /castor/cern.ch/delphi/MCprod/cern/wphact24/v99e/191.6/wphact24_cc_191.6_80.4_203981.fadana ! RUN = 203981 ! NEVT = 2000
FILE = /castor/cern.ch/delphi/MCprod/cern/wphact24/v99e/191.6/wphact24_cc_191.6_80.4_203982.fadana ! RUN = 203982 ! NEVT = 1998
FILE = /castor/cern.ch/delphi/MCprod/cern/wphact24/v99e/191.6/wphact24_cc_191.6_80.4_203983.fadana ! RUN = 203983 ! NEVT = 2000
FILE = /castor/cern.ch/delphi/MCprod/cern/wphact24/v99e/191.6/wphact24_cc_191.6_80.4_203984.fadana ! RUN = 203984 ! NEVT = 1999
FILE = /castor/cern.ch/delphi/MCprod/cern/wphact24/v99e/191.6/wphact24_cc_191.6_80.4_203985.fadana ! RUN = 203985 ! NEVT = 2000
FILE = /castor/cern.ch/delphi/MCprod/cern/wphact24/v99e/191.6/wphact24_cc_191.6_80.4_203986.fadana ! RUN = 203986 ! NEVT = 2000
FILE = /castor/cern.ch/delphi/MCprod/cern/wphact24/v99e/191.6/wphact24_cc_191.6_80.4_203987.fadana ! RUN = 203987 ! NEVT = 1998
FILE = /castor/cern.ch/delphi/MCprod/cern/wphact24/v99e/191.6/wphact24_cc_191.6_80.4_203988.fadana ! RUN = 203988 ! NEVT = 2000
FILE = /castor/cern.ch/delphi/MCprod/cern/wphact24/v99e/191.6/wphact24_cc_191.6_80.4_203989.fadana ! RUN = 203989 ! NEVT = 1999
FILE = /castor/cern.ch/delphi/MCprod/cern/wphact24/v99e/191.6/wphact24_cc_191.6_80.4_203990.fadana ! RUN = 203990 ! NEVT = 1998
FILE = /castor/cern.ch/delphi/MCprod/cern/wphact24/v99e/191.6/wphact24_cc_191.6_80.4_203991.fadana ! RUN = 203991 ! NEVT = 1999
FILE = /castor/cern.ch/delphi/MCprod/cern/wphact24/v99e/191.6/wphact24_cc_191.6_80.4_203992.fadana ! RUN = 203992 ! NEVT = 1999
FILE = /castor/cern.ch/delphi/MCprod/cern/wphact24/v99e/191.6/wphact24_cc_191.6_80.4_203993.fadana ! RUN = 203993 ! NEVT = 2000
FILE = /castor/cern.ch/delphi/MCprod/cern/wphact24/v99e/191.6/wphact24_cc_191.6_80.4_203994.fadana ! RUN = 203994 ! NEVT = 1998
FILE = /castor/cern.ch/delphi/MCprod/cern/wphact24/v99e/191.6/wphact24_cc_191.6_80.4_203995.fadana ! RUN = 203995 ! NEVT = 2000
FILE = /castor/cern.ch/delphi/MCprod/cern/wphact24/v99e/191.6/wphact24_cc_191.6_80.4_203996.fadana ! RUN = 203996 ! NEVT = 1999
FILE = /castor/cern.ch/delphi/MCprod/cern/wphact24/v99e/191.6/wphact24_cc_191.6_80.4_203997.fadana ! RUN = 203997 ! NEVT = 1996
FILE = /castor/cern.ch/delphi/MCprod/cern/wphact24/v99e/191.6/wphact24_cc_191.6_80.4_203998.fadana ! RUN = 203998 ! NEVT = 1999
FILE = /castor/cern.ch/delphi/MCprod/cern/wphact24/v99e/191.6/wphact24_cc_191.6_80.4_203999.fadana ! RUN = 203999 ! NEVT = 2000
FILE = /castor/cern.ch/delphi/MCprod/cern/wphact24/v99e/191.6/wphact24_cc_191.6_80.4_204000.fadana ! RUN = 204000 ! NEVT = 1998
