*   Nickname :     dsto_wphact24cc_e195.5_m80.4_c99_1l_e
*   Generic Name : //CERN/DELPHI/P02_SIMD/DSTO/WPHACT24CC/E195.5/CERN/SUMT/C001-497
*   Description :   Full DST/Delana output simulation 99e  done at ecm=195.5 GeV , CERN
*   Comments :     in total 987040 events in 497 files, time stamp: Fri Jul 4 4:13:16 2003
*
*
*
FILE = /castor/cern.ch/delphi/MCprod/cern/wphact24/v99e/195.5/wphact24_cc_195.5_80.4_201001.fadana ! RUN = 201001 ! NEVT = 2000
FILE = /castor/cern.ch/delphi/MCprod/cern/wphact24/v99e/195.5/wphact24_cc_195.5_80.4_201002.fadana ! RUN = 201002 ! NEVT = 1999
FILE = /castor/cern.ch/delphi/MCprod/cern/wphact24/v99e/195.5/wphact24_cc_195.5_80.4_201003.fadana ! RUN = 201003 ! NEVT = 1998
FILE = /castor/cern.ch/delphi/MCprod/cern/wphact24/v99e/195.5/wphact24_cc_195.5_80.4_201004.fadana ! RUN = 201004 ! NEVT = 2000
FILE = /castor/cern.ch/delphi/MCprod/cern/wphact24/v99e/195.5/wphact24_cc_195.5_80.4_201005.fadana ! RUN = 201005 ! NEVT = 1999
FILE = /castor/cern.ch/delphi/MCprod/cern/wphact24/v99e/195.5/wphact24_cc_195.5_80.4_201006.fadana ! RUN = 201006 ! NEVT = 2000
FILE = /castor/cern.ch/delphi/MCprod/cern/wphact24/v99e/195.5/wphact24_cc_195.5_80.4_201007.fadana ! RUN = 201007 ! NEVT = 1997
FILE = /castor/cern.ch/delphi/MCprod/cern/wphact24/v99e/195.5/wphact24_cc_195.5_80.4_201008.fadana ! RUN = 201008 ! NEVT = 1999
FILE = /castor/cern.ch/delphi/MCprod/cern/wphact24/v99e/195.5/wphact24_cc_195.5_80.4_201009.fadana ! RUN = 201009 ! NEVT = 1998
FILE = /castor/cern.ch/delphi/MCprod/cern/wphact24/v99e/195.5/wphact24_cc_195.5_80.4_201010.fadana ! RUN = 201010 ! NEVT = 1999
FILE = /castor/cern.ch/delphi/MCprod/cern/wphact24/v99e/195.5/wphact24_cc_195.5_80.4_201011.fadana ! RUN = 201011 ! NEVT = 1999
FILE = /castor/cern.ch/delphi/MCprod/cern/wphact24/v99e/195.5/wphact24_cc_195.5_80.4_201012.fadana ! RUN = 201012 ! NEVT = 1999
FILE = /castor/cern.ch/delphi/MCprod/cern/wphact24/v99e/195.5/wphact24_cc_195.5_80.4_201013.fadana ! RUN = 201013 ! NEVT = 2000
FILE = /castor/cern.ch/delphi/MCprod/cern/wphact24/v99e/195.5/wphact24_cc_195.5_80.4_201014.fadana ! RUN = 201014 ! NEVT = 2000
FILE = /castor/cern.ch/delphi/MCprod/cern/wphact24/v99e/195.5/wphact24_cc_195.5_80.4_201016.fadana ! RUN = 201016 ! NEVT = 2000
FILE = /castor/cern.ch/delphi/MCprod/cern/wphact24/v99e/195.5/wphact24_cc_195.5_80.4_201017.fadana ! RUN = 201017 ! NEVT = 2000
FILE = /castor/cern.ch/delphi/MCprod/cern/wphact24/v99e/195.5/wphact24_cc_195.5_80.4_201018.fadana ! RUN = 201018 ! NEVT = 2000
FILE = /castor/cern.ch/delphi/MCprod/cern/wphact24/v99e/195.5/wphact24_cc_195.5_80.4_201019.fadana ! RUN = 201019 ! NEVT = 1999
FILE = /castor/cern.ch/delphi/MCprod/cern/wphact24/v99e/195.5/wphact24_cc_195.5_80.4_201020.fadana ! RUN = 201020 ! NEVT = 725
FILE = /castor/cern.ch/delphi/MCprod/cern/wphact24/v99e/195.5/wphact24_cc_195.5_80.4_201021.fadana ! RUN = 201021 ! NEVT = 1999
FILE = /castor/cern.ch/delphi/MCprod/cern/wphact24/v99e/195.5/wphact24_cc_195.5_80.4_201022.fadana ! RUN = 201022 ! NEVT = 1999
FILE = /castor/cern.ch/delphi/MCprod/cern/wphact24/v99e/195.5/wphact24_cc_195.5_80.4_201023.fadana ! RUN = 201023 ! NEVT = 1999
FILE = /castor/cern.ch/delphi/MCprod/cern/wphact24/v99e/195.5/wphact24_cc_195.5_80.4_201024.fadana ! RUN = 201024 ! NEVT = 1999
FILE = /castor/cern.ch/delphi/MCprod/cern/wphact24/v99e/195.5/wphact24_cc_195.5_80.4_201025.fadana ! RUN = 201025 ! NEVT = 1999
FILE = /castor/cern.ch/delphi/MCprod/cern/wphact24/v99e/195.5/wphact24_cc_195.5_80.4_201026.fadana ! RUN = 201026 ! NEVT = 1998
FILE = /castor/cern.ch/delphi/MCprod/cern/wphact24/v99e/195.5/wphact24_cc_195.5_80.4_201027.fadana ! RUN = 201027 ! NEVT = 2000
FILE = /castor/cern.ch/delphi/MCprod/cern/wphact24/v99e/195.5/wphact24_cc_195.5_80.4_201028.fadana ! RUN = 201028 ! NEVT = 2000
FILE = /castor/cern.ch/delphi/MCprod/cern/wphact24/v99e/195.5/wphact24_cc_195.5_80.4_201029.fadana ! RUN = 201029 ! NEVT = 2000
FILE = /castor/cern.ch/delphi/MCprod/cern/wphact24/v99e/195.5/wphact24_cc_195.5_80.4_201030.fadana ! RUN = 201030 ! NEVT = 2000
FILE = /castor/cern.ch/delphi/MCprod/cern/wphact24/v99e/195.5/wphact24_cc_195.5_80.4_201031.fadana ! RUN = 201031 ! NEVT = 1999
FILE = /castor/cern.ch/delphi/MCprod/cern/wphact24/v99e/195.5/wphact24_cc_195.5_80.4_201032.fadana ! RUN = 201032 ! NEVT = 1999
FILE = /castor/cern.ch/delphi/MCprod/cern/wphact24/v99e/195.5/wphact24_cc_195.5_80.4_201033.fadana ! RUN = 201033 ! NEVT = 2000
FILE = /castor/cern.ch/delphi/MCprod/cern/wphact24/v99e/195.5/wphact24_cc_195.5_80.4_201034.fadana ! RUN = 201034 ! NEVT = 1999
FILE = /castor/cern.ch/delphi/MCprod/cern/wphact24/v99e/195.5/wphact24_cc_195.5_80.4_201036.fadana ! RUN = 201036 ! NEVT = 2000
FILE = /castor/cern.ch/delphi/MCprod/cern/wphact24/v99e/195.5/wphact24_cc_195.5_80.4_201037.fadana ! RUN = 201037 ! NEVT = 2000
FILE = /castor/cern.ch/delphi/MCprod/cern/wphact24/v99e/195.5/wphact24_cc_195.5_80.4_201038.fadana ! RUN = 201038 ! NEVT = 1998
FILE = /castor/cern.ch/delphi/MCprod/cern/wphact24/v99e/195.5/wphact24_cc_195.5_80.4_201039.fadana ! RUN = 201039 ! NEVT = 1996
FILE = /castor/cern.ch/delphi/MCprod/cern/wphact24/v99e/195.5/wphact24_cc_195.5_80.4_201040.fadana ! RUN = 201040 ! NEVT = 1999
FILE = /castor/cern.ch/delphi/MCprod/cern/wphact24/v99e/195.5/wphact24_cc_195.5_80.4_201041.fadana ! RUN = 201041 ! NEVT = 2000
FILE = /castor/cern.ch/delphi/MCprod/cern/wphact24/v99e/195.5/wphact24_cc_195.5_80.4_201042.fadana ! RUN = 201042 ! NEVT = 2000
FILE = /castor/cern.ch/delphi/MCprod/cern/wphact24/v99e/195.5/wphact24_cc_195.5_80.4_201043.fadana ! RUN = 201043 ! NEVT = 2000
FILE = /castor/cern.ch/delphi/MCprod/cern/wphact24/v99e/195.5/wphact24_cc_195.5_80.4_201044.fadana ! RUN = 201044 ! NEVT = 2000
FILE = /castor/cern.ch/delphi/MCprod/cern/wphact24/v99e/195.5/wphact24_cc_195.5_80.4_201045.fadana ! RUN = 201045 ! NEVT = 1999
FILE = /castor/cern.ch/delphi/MCprod/cern/wphact24/v99e/195.5/wphact24_cc_195.5_80.4_201046.fadana ! RUN = 201046 ! NEVT = 2000
FILE = /castor/cern.ch/delphi/MCprod/cern/wphact24/v99e/195.5/wphact24_cc_195.5_80.4_201047.fadana ! RUN = 201047 ! NEVT = 2000
FILE = /castor/cern.ch/delphi/MCprod/cern/wphact24/v99e/195.5/wphact24_cc_195.5_80.4_201048.fadana ! RUN = 201048 ! NEVT = 2000
FILE = /castor/cern.ch/delphi/MCprod/cern/wphact24/v99e/195.5/wphact24_cc_195.5_80.4_201049.fadana ! RUN = 201049 ! NEVT = 2000
FILE = /castor/cern.ch/delphi/MCprod/cern/wphact24/v99e/195.5/wphact24_cc_195.5_80.4_201050.fadana ! RUN = 201050 ! NEVT = 2000
FILE = /castor/cern.ch/delphi/MCprod/cern/wphact24/v99e/195.5/wphact24_cc_195.5_80.4_201051.fadana ! RUN = 201051 ! NEVT = 1999
FILE = /castor/cern.ch/delphi/MCprod/cern/wphact24/v99e/195.5/wphact24_cc_195.5_80.4_201052.fadana ! RUN = 201052 ! NEVT = 2000
FILE = /castor/cern.ch/delphi/MCprod/cern/wphact24/v99e/195.5/wphact24_cc_195.5_80.4_201053.fadana ! RUN = 201053 ! NEVT = 2000
FILE = /castor/cern.ch/delphi/MCprod/cern/wphact24/v99e/195.5/wphact24_cc_195.5_80.4_201054.fadana ! RUN = 201054 ! NEVT = 2000
FILE = /castor/cern.ch/delphi/MCprod/cern/wphact24/v99e/195.5/wphact24_cc_195.5_80.4_201055.fadana ! RUN = 201055 ! NEVT = 2000
FILE = /castor/cern.ch/delphi/MCprod/cern/wphact24/v99e/195.5/wphact24_cc_195.5_80.4_201056.fadana ! RUN = 201056 ! NEVT = 2000
FILE = /castor/cern.ch/delphi/MCprod/cern/wphact24/v99e/195.5/wphact24_cc_195.5_80.4_201057.fadana ! RUN = 201057 ! NEVT = 2000
FILE = /castor/cern.ch/delphi/MCprod/cern/wphact24/v99e/195.5/wphact24_cc_195.5_80.4_201058.fadana ! RUN = 201058 ! NEVT = 1997
FILE = /castor/cern.ch/delphi/MCprod/cern/wphact24/v99e/195.5/wphact24_cc_195.5_80.4_201059.fadana ! RUN = 201059 ! NEVT = 1999
FILE = /castor/cern.ch/delphi/MCprod/cern/wphact24/v99e/195.5/wphact24_cc_195.5_80.4_201060.fadana ! RUN = 201060 ! NEVT = 2000
FILE = /castor/cern.ch/delphi/MCprod/cern/wphact24/v99e/195.5/wphact24_cc_195.5_80.4_201061.fadana ! RUN = 201061 ! NEVT = 2000
FILE = /castor/cern.ch/delphi/MCprod/cern/wphact24/v99e/195.5/wphact24_cc_195.5_80.4_201062.fadana ! RUN = 201062 ! NEVT = 1998
FILE = /castor/cern.ch/delphi/MCprod/cern/wphact24/v99e/195.5/wphact24_cc_195.5_80.4_201063.fadana ! RUN = 201063 ! NEVT = 1999
FILE = /castor/cern.ch/delphi/MCprod/cern/wphact24/v99e/195.5/wphact24_cc_195.5_80.4_201064.fadana ! RUN = 201064 ! NEVT = 1999
FILE = /castor/cern.ch/delphi/MCprod/cern/wphact24/v99e/195.5/wphact24_cc_195.5_80.4_201065.fadana ! RUN = 201065 ! NEVT = 2000
FILE = /castor/cern.ch/delphi/MCprod/cern/wphact24/v99e/195.5/wphact24_cc_195.5_80.4_201066.fadana ! RUN = 201066 ! NEVT = 2000
FILE = /castor/cern.ch/delphi/MCprod/cern/wphact24/v99e/195.5/wphact24_cc_195.5_80.4_201067.fadana ! RUN = 201067 ! NEVT = 1999
FILE = /castor/cern.ch/delphi/MCprod/cern/wphact24/v99e/195.5/wphact24_cc_195.5_80.4_201068.fadana ! RUN = 201068 ! NEVT = 1999
FILE = /castor/cern.ch/delphi/MCprod/cern/wphact24/v99e/195.5/wphact24_cc_195.5_80.4_201069.fadana ! RUN = 201069 ! NEVT = 2000
FILE = /castor/cern.ch/delphi/MCprod/cern/wphact24/v99e/195.5/wphact24_cc_195.5_80.4_201070.fadana ! RUN = 201070 ! NEVT = 2000
FILE = /castor/cern.ch/delphi/MCprod/cern/wphact24/v99e/195.5/wphact24_cc_195.5_80.4_201071.fadana ! RUN = 201071 ! NEVT = 1999
FILE = /castor/cern.ch/delphi/MCprod/cern/wphact24/v99e/195.5/wphact24_cc_195.5_80.4_201072.fadana ! RUN = 201072 ! NEVT = 1999
FILE = /castor/cern.ch/delphi/MCprod/cern/wphact24/v99e/195.5/wphact24_cc_195.5_80.4_201073.fadana ! RUN = 201073 ! NEVT = 1999
FILE = /castor/cern.ch/delphi/MCprod/cern/wphact24/v99e/195.5/wphact24_cc_195.5_80.4_201074.fadana ! RUN = 201074 ! NEVT = 2000
FILE = /castor/cern.ch/delphi/MCprod/cern/wphact24/v99e/195.5/wphact24_cc_195.5_80.4_201075.fadana ! RUN = 201075 ! NEVT = 2000
FILE = /castor/cern.ch/delphi/MCprod/cern/wphact24/v99e/195.5/wphact24_cc_195.5_80.4_201076.fadana ! RUN = 201076 ! NEVT = 1998
FILE = /castor/cern.ch/delphi/MCprod/cern/wphact24/v99e/195.5/wphact24_cc_195.5_80.4_201077.fadana ! RUN = 201077 ! NEVT = 2000
FILE = /castor/cern.ch/delphi/MCprod/cern/wphact24/v99e/195.5/wphact24_cc_195.5_80.4_201078.fadana ! RUN = 201078 ! NEVT = 2000
FILE = /castor/cern.ch/delphi/MCprod/cern/wphact24/v99e/195.5/wphact24_cc_195.5_80.4_201079.fadana ! RUN = 201079 ! NEVT = 1999
FILE = /castor/cern.ch/delphi/MCprod/cern/wphact24/v99e/195.5/wphact24_cc_195.5_80.4_201080.fadana ! RUN = 201080 ! NEVT = 1998
FILE = /castor/cern.ch/delphi/MCprod/cern/wphact24/v99e/195.5/wphact24_cc_195.5_80.4_201081.fadana ! RUN = 201081 ! NEVT = 2000
FILE = /castor/cern.ch/delphi/MCprod/cern/wphact24/v99e/195.5/wphact24_cc_195.5_80.4_201082.fadana ! RUN = 201082 ! NEVT = 2000
FILE = /castor/cern.ch/delphi/MCprod/cern/wphact24/v99e/195.5/wphact24_cc_195.5_80.4_201083.fadana ! RUN = 201083 ! NEVT = 1998
FILE = /castor/cern.ch/delphi/MCprod/cern/wphact24/v99e/195.5/wphact24_cc_195.5_80.4_201084.fadana ! RUN = 201084 ! NEVT = 1999
FILE = /castor/cern.ch/delphi/MCprod/cern/wphact24/v99e/195.5/wphact24_cc_195.5_80.4_201085.fadana ! RUN = 201085 ! NEVT = 2000
FILE = /castor/cern.ch/delphi/MCprod/cern/wphact24/v99e/195.5/wphact24_cc_195.5_80.4_201086.fadana ! RUN = 201086 ! NEVT = 1997
FILE = /castor/cern.ch/delphi/MCprod/cern/wphact24/v99e/195.5/wphact24_cc_195.5_80.4_201087.fadana ! RUN = 201087 ! NEVT = 2000
FILE = /castor/cern.ch/delphi/MCprod/cern/wphact24/v99e/195.5/wphact24_cc_195.5_80.4_201088.fadana ! RUN = 201088 ! NEVT = 1999
FILE = /castor/cern.ch/delphi/MCprod/cern/wphact24/v99e/195.5/wphact24_cc_195.5_80.4_201089.fadana ! RUN = 201089 ! NEVT = 2000
FILE = /castor/cern.ch/delphi/MCprod/cern/wphact24/v99e/195.5/wphact24_cc_195.5_80.4_201090.fadana ! RUN = 201090 ! NEVT = 1997
FILE = /castor/cern.ch/delphi/MCprod/cern/wphact24/v99e/195.5/wphact24_cc_195.5_80.4_201091.fadana ! RUN = 201091 ! NEVT = 1999
FILE = /castor/cern.ch/delphi/MCprod/cern/wphact24/v99e/195.5/wphact24_cc_195.5_80.4_201092.fadana ! RUN = 201092 ! NEVT = 2000
FILE = /castor/cern.ch/delphi/MCprod/cern/wphact24/v99e/195.5/wphact24_cc_195.5_80.4_201093.fadana ! RUN = 201093 ! NEVT = 1999
FILE = /castor/cern.ch/delphi/MCprod/cern/wphact24/v99e/195.5/wphact24_cc_195.5_80.4_201094.fadana ! RUN = 201094 ! NEVT = 1999
FILE = /castor/cern.ch/delphi/MCprod/cern/wphact24/v99e/195.5/wphact24_cc_195.5_80.4_201095.fadana ! RUN = 201095 ! NEVT = 2000
FILE = /castor/cern.ch/delphi/MCprod/cern/wphact24/v99e/195.5/wphact24_cc_195.5_80.4_201096.fadana ! RUN = 201096 ! NEVT = 1999
FILE = /castor/cern.ch/delphi/MCprod/cern/wphact24/v99e/195.5/wphact24_cc_195.5_80.4_201097.fadana ! RUN = 201097 ! NEVT = 2000
FILE = /castor/cern.ch/delphi/MCprod/cern/wphact24/v99e/195.5/wphact24_cc_195.5_80.4_201098.fadana ! RUN = 201098 ! NEVT = 1997
FILE = /castor/cern.ch/delphi/MCprod/cern/wphact24/v99e/195.5/wphact24_cc_195.5_80.4_201099.fadana ! RUN = 201099 ! NEVT = 2000
FILE = /castor/cern.ch/delphi/MCprod/cern/wphact24/v99e/195.5/wphact24_cc_195.5_80.4_201100.fadana ! RUN = 201100 ! NEVT = 2000
FILE = /castor/cern.ch/delphi/MCprod/cern/wphact24/v99e/195.5/wphact24_cc_195.5_80.4_201101.fadana ! RUN = 201101 ! NEVT = 1998
FILE = /castor/cern.ch/delphi/MCprod/cern/wphact24/v99e/195.5/wphact24_cc_195.5_80.4_201102.fadana ! RUN = 201102 ! NEVT = 1997
FILE = /castor/cern.ch/delphi/MCprod/cern/wphact24/v99e/195.5/wphact24_cc_195.5_80.4_201103.fadana ! RUN = 201103 ! NEVT = 1998
FILE = /castor/cern.ch/delphi/MCprod/cern/wphact24/v99e/195.5/wphact24_cc_195.5_80.4_201104.fadana ! RUN = 201104 ! NEVT = 1999
FILE = /castor/cern.ch/delphi/MCprod/cern/wphact24/v99e/195.5/wphact24_cc_195.5_80.4_201105.fadana ! RUN = 201105 ! NEVT = 1999
FILE = /castor/cern.ch/delphi/MCprod/cern/wphact24/v99e/195.5/wphact24_cc_195.5_80.4_201106.fadana ! RUN = 201106 ! NEVT = 2000
FILE = /castor/cern.ch/delphi/MCprod/cern/wphact24/v99e/195.5/wphact24_cc_195.5_80.4_201107.fadana ! RUN = 201107 ! NEVT = 2000
FILE = /castor/cern.ch/delphi/MCprod/cern/wphact24/v99e/195.5/wphact24_cc_195.5_80.4_201108.fadana ! RUN = 201108 ! NEVT = 2000
FILE = /castor/cern.ch/delphi/MCprod/cern/wphact24/v99e/195.5/wphact24_cc_195.5_80.4_201109.fadana ! RUN = 201109 ! NEVT = 1998
FILE = /castor/cern.ch/delphi/MCprod/cern/wphact24/v99e/195.5/wphact24_cc_195.5_80.4_201110.fadana ! RUN = 201110 ! NEVT = 1999
FILE = /castor/cern.ch/delphi/MCprod/cern/wphact24/v99e/195.5/wphact24_cc_195.5_80.4_201111.fadana ! RUN = 201111 ! NEVT = 1999
FILE = /castor/cern.ch/delphi/MCprod/cern/wphact24/v99e/195.5/wphact24_cc_195.5_80.4_201112.fadana ! RUN = 201112 ! NEVT = 2000
FILE = /castor/cern.ch/delphi/MCprod/cern/wphact24/v99e/195.5/wphact24_cc_195.5_80.4_201113.fadana ! RUN = 201113 ! NEVT = 2000
FILE = /castor/cern.ch/delphi/MCprod/cern/wphact24/v99e/195.5/wphact24_cc_195.5_80.4_201114.fadana ! RUN = 201114 ! NEVT = 1999
FILE = /castor/cern.ch/delphi/MCprod/cern/wphact24/v99e/195.5/wphact24_cc_195.5_80.4_201115.fadana ! RUN = 201115 ! NEVT = 2000
FILE = /castor/cern.ch/delphi/MCprod/cern/wphact24/v99e/195.5/wphact24_cc_195.5_80.4_201116.fadana ! RUN = 201116 ! NEVT = 1999
FILE = /castor/cern.ch/delphi/MCprod/cern/wphact24/v99e/195.5/wphact24_cc_195.5_80.4_201117.fadana ! RUN = 201117 ! NEVT = 2000
FILE = /castor/cern.ch/delphi/MCprod/cern/wphact24/v99e/195.5/wphact24_cc_195.5_80.4_201118.fadana ! RUN = 201118 ! NEVT = 1999
FILE = /castor/cern.ch/delphi/MCprod/cern/wphact24/v99e/195.5/wphact24_cc_195.5_80.4_201119.fadana ! RUN = 201119 ! NEVT = 1997
FILE = /castor/cern.ch/delphi/MCprod/cern/wphact24/v99e/195.5/wphact24_cc_195.5_80.4_201120.fadana ! RUN = 201120 ! NEVT = 2000
FILE = /castor/cern.ch/delphi/MCprod/cern/wphact24/v99e/195.5/wphact24_cc_195.5_80.4_201121.fadana ! RUN = 201121 ! NEVT = 1999
FILE = /castor/cern.ch/delphi/MCprod/cern/wphact24/v99e/195.5/wphact24_cc_195.5_80.4_201122.fadana ! RUN = 201122 ! NEVT = 1999
FILE = /castor/cern.ch/delphi/MCprod/cern/wphact24/v99e/195.5/wphact24_cc_195.5_80.4_201123.fadana ! RUN = 201123 ! NEVT = 1999
FILE = /castor/cern.ch/delphi/MCprod/cern/wphact24/v99e/195.5/wphact24_cc_195.5_80.4_201124.fadana ! RUN = 201124 ! NEVT = 2000
FILE = /castor/cern.ch/delphi/MCprod/cern/wphact24/v99e/195.5/wphact24_cc_195.5_80.4_201125.fadana ! RUN = 201125 ! NEVT = 2000
FILE = /castor/cern.ch/delphi/MCprod/cern/wphact24/v99e/195.5/wphact24_cc_195.5_80.4_201126.fadana ! RUN = 201126 ! NEVT = 2000
FILE = /castor/cern.ch/delphi/MCprod/cern/wphact24/v99e/195.5/wphact24_cc_195.5_80.4_201127.fadana ! RUN = 201127 ! NEVT = 1999
FILE = /castor/cern.ch/delphi/MCprod/cern/wphact24/v99e/195.5/wphact24_cc_195.5_80.4_201128.fadana ! RUN = 201128 ! NEVT = 1999
FILE = /castor/cern.ch/delphi/MCprod/cern/wphact24/v99e/195.5/wphact24_cc_195.5_80.4_201129.fadana ! RUN = 201129 ! NEVT = 1999
FILE = /castor/cern.ch/delphi/MCprod/cern/wphact24/v99e/195.5/wphact24_cc_195.5_80.4_201130.fadana ! RUN = 201130 ! NEVT = 1999
FILE = /castor/cern.ch/delphi/MCprod/cern/wphact24/v99e/195.5/wphact24_cc_195.5_80.4_201131.fadana ! RUN = 201131 ! NEVT = 1999
FILE = /castor/cern.ch/delphi/MCprod/cern/wphact24/v99e/195.5/wphact24_cc_195.5_80.4_201132.fadana ! RUN = 201132 ! NEVT = 1998
FILE = /castor/cern.ch/delphi/MCprod/cern/wphact24/v99e/195.5/wphact24_cc_195.5_80.4_201133.fadana ! RUN = 201133 ! NEVT = 2000
FILE = /castor/cern.ch/delphi/MCprod/cern/wphact24/v99e/195.5/wphact24_cc_195.5_80.4_201134.fadana ! RUN = 201134 ! NEVT = 2000
FILE = /castor/cern.ch/delphi/MCprod/cern/wphact24/v99e/195.5/wphact24_cc_195.5_80.4_201135.fadana ! RUN = 201135 ! NEVT = 2000
FILE = /castor/cern.ch/delphi/MCprod/cern/wphact24/v99e/195.5/wphact24_cc_195.5_80.4_201136.fadana ! RUN = 201136 ! NEVT = 1998
FILE = /castor/cern.ch/delphi/MCprod/cern/wphact24/v99e/195.5/wphact24_cc_195.5_80.4_201137.fadana ! RUN = 201137 ! NEVT = 2000
FILE = /castor/cern.ch/delphi/MCprod/cern/wphact24/v99e/195.5/wphact24_cc_195.5_80.4_201138.fadana ! RUN = 201138 ! NEVT = 1999
FILE = /castor/cern.ch/delphi/MCprod/cern/wphact24/v99e/195.5/wphact24_cc_195.5_80.4_201139.fadana ! RUN = 201139 ! NEVT = 2000
FILE = /castor/cern.ch/delphi/MCprod/cern/wphact24/v99e/195.5/wphact24_cc_195.5_80.4_201140.fadana ! RUN = 201140 ! NEVT = 2000
FILE = /castor/cern.ch/delphi/MCprod/cern/wphact24/v99e/195.5/wphact24_cc_195.5_80.4_201141.fadana ! RUN = 201141 ! NEVT = 2000
FILE = /castor/cern.ch/delphi/MCprod/cern/wphact24/v99e/195.5/wphact24_cc_195.5_80.4_201142.fadana ! RUN = 201142 ! NEVT = 2000
FILE = /castor/cern.ch/delphi/MCprod/cern/wphact24/v99e/195.5/wphact24_cc_195.5_80.4_201143.fadana ! RUN = 201143 ! NEVT = 2000
FILE = /castor/cern.ch/delphi/MCprod/cern/wphact24/v99e/195.5/wphact24_cc_195.5_80.4_201144.fadana ! RUN = 201144 ! NEVT = 2000
FILE = /castor/cern.ch/delphi/MCprod/cern/wphact24/v99e/195.5/wphact24_cc_195.5_80.4_201145.fadana ! RUN = 201145 ! NEVT = 1999
FILE = /castor/cern.ch/delphi/MCprod/cern/wphact24/v99e/195.5/wphact24_cc_195.5_80.4_201146.fadana ! RUN = 201146 ! NEVT = 2000
FILE = /castor/cern.ch/delphi/MCprod/cern/wphact24/v99e/195.5/wphact24_cc_195.5_80.4_201147.fadana ! RUN = 201147 ! NEVT = 2000
FILE = /castor/cern.ch/delphi/MCprod/cern/wphact24/v99e/195.5/wphact24_cc_195.5_80.4_201148.fadana ! RUN = 201148 ! NEVT = 2000
FILE = /castor/cern.ch/delphi/MCprod/cern/wphact24/v99e/195.5/wphact24_cc_195.5_80.4_201149.fadana ! RUN = 201149 ! NEVT = 2000
FILE = /castor/cern.ch/delphi/MCprod/cern/wphact24/v99e/195.5/wphact24_cc_195.5_80.4_201150.fadana ! RUN = 201150 ! NEVT = 2000
FILE = /castor/cern.ch/delphi/MCprod/cern/wphact24/v99e/195.5/wphact24_cc_195.5_80.4_201151.fadana ! RUN = 201151 ! NEVT = 1996
FILE = /castor/cern.ch/delphi/MCprod/cern/wphact24/v99e/195.5/wphact24_cc_195.5_80.4_201152.fadana ! RUN = 201152 ! NEVT = 1998
FILE = /castor/cern.ch/delphi/MCprod/cern/wphact24/v99e/195.5/wphact24_cc_195.5_80.4_201153.fadana ! RUN = 201153 ! NEVT = 1999
FILE = /castor/cern.ch/delphi/MCprod/cern/wphact24/v99e/195.5/wphact24_cc_195.5_80.4_201154.fadana ! RUN = 201154 ! NEVT = 2000
FILE = /castor/cern.ch/delphi/MCprod/cern/wphact24/v99e/195.5/wphact24_cc_195.5_80.4_201155.fadana ! RUN = 201155 ! NEVT = 2000
FILE = /castor/cern.ch/delphi/MCprod/cern/wphact24/v99e/195.5/wphact24_cc_195.5_80.4_201156.fadana ! RUN = 201156 ! NEVT = 1999
FILE = /castor/cern.ch/delphi/MCprod/cern/wphact24/v99e/195.5/wphact24_cc_195.5_80.4_201157.fadana ! RUN = 201157 ! NEVT = 2000
FILE = /castor/cern.ch/delphi/MCprod/cern/wphact24/v99e/195.5/wphact24_cc_195.5_80.4_201158.fadana ! RUN = 201158 ! NEVT = 2000
FILE = /castor/cern.ch/delphi/MCprod/cern/wphact24/v99e/195.5/wphact24_cc_195.5_80.4_201159.fadana ! RUN = 201159 ! NEVT = 1999
FILE = /castor/cern.ch/delphi/MCprod/cern/wphact24/v99e/195.5/wphact24_cc_195.5_80.4_201160.fadana ! RUN = 201160 ! NEVT = 1999
FILE = /castor/cern.ch/delphi/MCprod/cern/wphact24/v99e/195.5/wphact24_cc_195.5_80.4_201161.fadana ! RUN = 201161 ! NEVT = 1999
FILE = /castor/cern.ch/delphi/MCprod/cern/wphact24/v99e/195.5/wphact24_cc_195.5_80.4_201162.fadana ! RUN = 201162 ! NEVT = 1998
FILE = /castor/cern.ch/delphi/MCprod/cern/wphact24/v99e/195.5/wphact24_cc_195.5_80.4_201163.fadana ! RUN = 201163 ! NEVT = 1999
FILE = /castor/cern.ch/delphi/MCprod/cern/wphact24/v99e/195.5/wphact24_cc_195.5_80.4_201164.fadana ! RUN = 201164 ! NEVT = 1996
FILE = /castor/cern.ch/delphi/MCprod/cern/wphact24/v99e/195.5/wphact24_cc_195.5_80.4_201165.fadana ! RUN = 201165 ! NEVT = 2000
FILE = /castor/cern.ch/delphi/MCprod/cern/wphact24/v99e/195.5/wphact24_cc_195.5_80.4_201166.fadana ! RUN = 201166 ! NEVT = 1999
FILE = /castor/cern.ch/delphi/MCprod/cern/wphact24/v99e/195.5/wphact24_cc_195.5_80.4_201167.fadana ! RUN = 201167 ! NEVT = 1998
FILE = /castor/cern.ch/delphi/MCprod/cern/wphact24/v99e/195.5/wphact24_cc_195.5_80.4_201168.fadana ! RUN = 201168 ! NEVT = 1998
FILE = /castor/cern.ch/delphi/MCprod/cern/wphact24/v99e/195.5/wphact24_cc_195.5_80.4_201169.fadana ! RUN = 201169 ! NEVT = 1998
FILE = /castor/cern.ch/delphi/MCprod/cern/wphact24/v99e/195.5/wphact24_cc_195.5_80.4_201170.fadana ! RUN = 201170 ! NEVT = 1998
FILE = /castor/cern.ch/delphi/MCprod/cern/wphact24/v99e/195.5/wphact24_cc_195.5_80.4_201171.fadana ! RUN = 201171 ! NEVT = 2000
FILE = /castor/cern.ch/delphi/MCprod/cern/wphact24/v99e/195.5/wphact24_cc_195.5_80.4_201172.fadana ! RUN = 201172 ! NEVT = 2000
FILE = /castor/cern.ch/delphi/MCprod/cern/wphact24/v99e/195.5/wphact24_cc_195.5_80.4_201173.fadana ! RUN = 201173 ! NEVT = 1999
FILE = /castor/cern.ch/delphi/MCprod/cern/wphact24/v99e/195.5/wphact24_cc_195.5_80.4_201174.fadana ! RUN = 201174 ! NEVT = 2000
FILE = /castor/cern.ch/delphi/MCprod/cern/wphact24/v99e/195.5/wphact24_cc_195.5_80.4_201175.fadana ! RUN = 201175 ! NEVT = 2000
FILE = /castor/cern.ch/delphi/MCprod/cern/wphact24/v99e/195.5/wphact24_cc_195.5_80.4_201176.fadana ! RUN = 201176 ! NEVT = 2000
FILE = /castor/cern.ch/delphi/MCprod/cern/wphact24/v99e/195.5/wphact24_cc_195.5_80.4_201177.fadana ! RUN = 201177 ! NEVT = 1031
FILE = /castor/cern.ch/delphi/MCprod/cern/wphact24/v99e/195.5/wphact24_cc_195.5_80.4_201178.fadana ! RUN = 201178 ! NEVT = 1997
FILE = /castor/cern.ch/delphi/MCprod/cern/wphact24/v99e/195.5/wphact24_cc_195.5_80.4_201179.fadana ! RUN = 201179 ! NEVT = 2000
FILE = /castor/cern.ch/delphi/MCprod/cern/wphact24/v99e/195.5/wphact24_cc_195.5_80.4_201180.fadana ! RUN = 201180 ! NEVT = 2000
FILE = /castor/cern.ch/delphi/MCprod/cern/wphact24/v99e/195.5/wphact24_cc_195.5_80.4_201181.fadana ! RUN = 201181 ! NEVT = 2000
FILE = /castor/cern.ch/delphi/MCprod/cern/wphact24/v99e/195.5/wphact24_cc_195.5_80.4_201182.fadana ! RUN = 201182 ! NEVT = 1999
FILE = /castor/cern.ch/delphi/MCprod/cern/wphact24/v99e/195.5/wphact24_cc_195.5_80.4_201183.fadana ! RUN = 201183 ! NEVT = 1999
FILE = /castor/cern.ch/delphi/MCprod/cern/wphact24/v99e/195.5/wphact24_cc_195.5_80.4_201184.fadana ! RUN = 201184 ! NEVT = 2000
FILE = /castor/cern.ch/delphi/MCprod/cern/wphact24/v99e/195.5/wphact24_cc_195.5_80.4_201185.fadana ! RUN = 201185 ! NEVT = 2000
FILE = /castor/cern.ch/delphi/MCprod/cern/wphact24/v99e/195.5/wphact24_cc_195.5_80.4_201186.fadana ! RUN = 201186 ! NEVT = 1999
FILE = /castor/cern.ch/delphi/MCprod/cern/wphact24/v99e/195.5/wphact24_cc_195.5_80.4_201187.fadana ! RUN = 201187 ! NEVT = 1999
FILE = /castor/cern.ch/delphi/MCprod/cern/wphact24/v99e/195.5/wphact24_cc_195.5_80.4_201188.fadana ! RUN = 201188 ! NEVT = 1999
FILE = /castor/cern.ch/delphi/MCprod/cern/wphact24/v99e/195.5/wphact24_cc_195.5_80.4_201189.fadana ! RUN = 201189 ! NEVT = 1999
FILE = /castor/cern.ch/delphi/MCprod/cern/wphact24/v99e/195.5/wphact24_cc_195.5_80.4_201190.fadana ! RUN = 201190 ! NEVT = 1997
FILE = /castor/cern.ch/delphi/MCprod/cern/wphact24/v99e/195.5/wphact24_cc_195.5_80.4_201191.fadana ! RUN = 201191 ! NEVT = 1999
FILE = /castor/cern.ch/delphi/MCprod/cern/wphact24/v99e/195.5/wphact24_cc_195.5_80.4_201192.fadana ! RUN = 201192 ! NEVT = 1998
FILE = /castor/cern.ch/delphi/MCprod/cern/wphact24/v99e/195.5/wphact24_cc_195.5_80.4_201193.fadana ! RUN = 201193 ! NEVT = 1999
FILE = /castor/cern.ch/delphi/MCprod/cern/wphact24/v99e/195.5/wphact24_cc_195.5_80.4_201194.fadana ! RUN = 201194 ! NEVT = 2000
FILE = /castor/cern.ch/delphi/MCprod/cern/wphact24/v99e/195.5/wphact24_cc_195.5_80.4_201195.fadana ! RUN = 201195 ! NEVT = 1998
FILE = /castor/cern.ch/delphi/MCprod/cern/wphact24/v99e/195.5/wphact24_cc_195.5_80.4_201196.fadana ! RUN = 201196 ! NEVT = 1999
FILE = /castor/cern.ch/delphi/MCprod/cern/wphact24/v99e/195.5/wphact24_cc_195.5_80.4_201197.fadana ! RUN = 201197 ! NEVT = 1998
FILE = /castor/cern.ch/delphi/MCprod/cern/wphact24/v99e/195.5/wphact24_cc_195.5_80.4_201198.fadana ! RUN = 201198 ! NEVT = 1999
FILE = /castor/cern.ch/delphi/MCprod/cern/wphact24/v99e/195.5/wphact24_cc_195.5_80.4_201199.fadana ! RUN = 201199 ! NEVT = 1998
FILE = /castor/cern.ch/delphi/MCprod/cern/wphact24/v99e/195.5/wphact24_cc_195.5_80.4_201200.fadana ! RUN = 201200 ! NEVT = 1997
FILE = /castor/cern.ch/delphi/MCprod/cern/wphact24/v99e/195.5/wphact24_cc_195.5_80.4_201201.fadana ! RUN = 201201 ! NEVT = 1999
FILE = /castor/cern.ch/delphi/MCprod/cern/wphact24/v99e/195.5/wphact24_cc_195.5_80.4_201202.fadana ! RUN = 201202 ! NEVT = 1999
FILE = /castor/cern.ch/delphi/MCprod/cern/wphact24/v99e/195.5/wphact24_cc_195.5_80.4_201203.fadana ! RUN = 201203 ! NEVT = 2000
FILE = /castor/cern.ch/delphi/MCprod/cern/wphact24/v99e/195.5/wphact24_cc_195.5_80.4_201204.fadana ! RUN = 201204 ! NEVT = 2000
FILE = /castor/cern.ch/delphi/MCprod/cern/wphact24/v99e/195.5/wphact24_cc_195.5_80.4_201205.fadana ! RUN = 201205 ! NEVT = 1999
FILE = /castor/cern.ch/delphi/MCprod/cern/wphact24/v99e/195.5/wphact24_cc_195.5_80.4_201206.fadana ! RUN = 201206 ! NEVT = 1996
FILE = /castor/cern.ch/delphi/MCprod/cern/wphact24/v99e/195.5/wphact24_cc_195.5_80.4_201207.fadana ! RUN = 201207 ! NEVT = 2000
FILE = /castor/cern.ch/delphi/MCprod/cern/wphact24/v99e/195.5/wphact24_cc_195.5_80.4_201208.fadana ! RUN = 201208 ! NEVT = 1998
FILE = /castor/cern.ch/delphi/MCprod/cern/wphact24/v99e/195.5/wphact24_cc_195.5_80.4_201209.fadana ! RUN = 201209 ! NEVT = 1999
FILE = /castor/cern.ch/delphi/MCprod/cern/wphact24/v99e/195.5/wphact24_cc_195.5_80.4_201210.fadana ! RUN = 201210 ! NEVT = 893
FILE = /castor/cern.ch/delphi/MCprod/cern/wphact24/v99e/195.5/wphact24_cc_195.5_80.4_201211.fadana ! RUN = 201211 ! NEVT = 1999
FILE = /castor/cern.ch/delphi/MCprod/cern/wphact24/v99e/195.5/wphact24_cc_195.5_80.4_201212.fadana ! RUN = 201212 ! NEVT = 1999
FILE = /castor/cern.ch/delphi/MCprod/cern/wphact24/v99e/195.5/wphact24_cc_195.5_80.4_201213.fadana ! RUN = 201213 ! NEVT = 1998
FILE = /castor/cern.ch/delphi/MCprod/cern/wphact24/v99e/195.5/wphact24_cc_195.5_80.4_201214.fadana ! RUN = 201214 ! NEVT = 1999
FILE = /castor/cern.ch/delphi/MCprod/cern/wphact24/v99e/195.5/wphact24_cc_195.5_80.4_201215.fadana ! RUN = 201215 ! NEVT = 1999
FILE = /castor/cern.ch/delphi/MCprod/cern/wphact24/v99e/195.5/wphact24_cc_195.5_80.4_201216.fadana ! RUN = 201216 ! NEVT = 1999
FILE = /castor/cern.ch/delphi/MCprod/cern/wphact24/v99e/195.5/wphact24_cc_195.5_80.4_201217.fadana ! RUN = 201217 ! NEVT = 2000
FILE = /castor/cern.ch/delphi/MCprod/cern/wphact24/v99e/195.5/wphact24_cc_195.5_80.4_201218.fadana ! RUN = 201218 ! NEVT = 1999
FILE = /castor/cern.ch/delphi/MCprod/cern/wphact24/v99e/195.5/wphact24_cc_195.5_80.4_201219.fadana ! RUN = 201219 ! NEVT = 1999
FILE = /castor/cern.ch/delphi/MCprod/cern/wphact24/v99e/195.5/wphact24_cc_195.5_80.4_201220.fadana ! RUN = 201220 ! NEVT = 2000
FILE = /castor/cern.ch/delphi/MCprod/cern/wphact24/v99e/195.5/wphact24_cc_195.5_80.4_201221.fadana ! RUN = 201221 ! NEVT = 2000
FILE = /castor/cern.ch/delphi/MCprod/cern/wphact24/v99e/195.5/wphact24_cc_195.5_80.4_201222.fadana ! RUN = 201222 ! NEVT = 1999
FILE = /castor/cern.ch/delphi/MCprod/cern/wphact24/v99e/195.5/wphact24_cc_195.5_80.4_201223.fadana ! RUN = 201223 ! NEVT = 1999
FILE = /castor/cern.ch/delphi/MCprod/cern/wphact24/v99e/195.5/wphact24_cc_195.5_80.4_201224.fadana ! RUN = 201224 ! NEVT = 2000
FILE = /castor/cern.ch/delphi/MCprod/cern/wphact24/v99e/195.5/wphact24_cc_195.5_80.4_201225.fadana ! RUN = 201225 ! NEVT = 2000
FILE = /castor/cern.ch/delphi/MCprod/cern/wphact24/v99e/195.5/wphact24_cc_195.5_80.4_201226.fadana ! RUN = 201226 ! NEVT = 1999
FILE = /castor/cern.ch/delphi/MCprod/cern/wphact24/v99e/195.5/wphact24_cc_195.5_80.4_201227.fadana ! RUN = 201227 ! NEVT = 2000
FILE = /castor/cern.ch/delphi/MCprod/cern/wphact24/v99e/195.5/wphact24_cc_195.5_80.4_201228.fadana ! RUN = 201228 ! NEVT = 1999
FILE = /castor/cern.ch/delphi/MCprod/cern/wphact24/v99e/195.5/wphact24_cc_195.5_80.4_201229.fadana ! RUN = 201229 ! NEVT = 1999
FILE = /castor/cern.ch/delphi/MCprod/cern/wphact24/v99e/195.5/wphact24_cc_195.5_80.4_201230.fadana ! RUN = 201230 ! NEVT = 1998
FILE = /castor/cern.ch/delphi/MCprod/cern/wphact24/v99e/195.5/wphact24_cc_195.5_80.4_201231.fadana ! RUN = 201231 ! NEVT = 2000
FILE = /castor/cern.ch/delphi/MCprod/cern/wphact24/v99e/195.5/wphact24_cc_195.5_80.4_201232.fadana ! RUN = 201232 ! NEVT = 1999
FILE = /castor/cern.ch/delphi/MCprod/cern/wphact24/v99e/195.5/wphact24_cc_195.5_80.4_201233.fadana ! RUN = 201233 ! NEVT = 2000
FILE = /castor/cern.ch/delphi/MCprod/cern/wphact24/v99e/195.5/wphact24_cc_195.5_80.4_201234.fadana ! RUN = 201234 ! NEVT = 1999
FILE = /castor/cern.ch/delphi/MCprod/cern/wphact24/v99e/195.5/wphact24_cc_195.5_80.4_201235.fadana ! RUN = 201235 ! NEVT = 1999
FILE = /castor/cern.ch/delphi/MCprod/cern/wphact24/v99e/195.5/wphact24_cc_195.5_80.4_201236.fadana ! RUN = 201236 ! NEVT = 2000
FILE = /castor/cern.ch/delphi/MCprod/cern/wphact24/v99e/195.5/wphact24_cc_195.5_80.4_201237.fadana ! RUN = 201237 ! NEVT = 2000
FILE = /castor/cern.ch/delphi/MCprod/cern/wphact24/v99e/195.5/wphact24_cc_195.5_80.4_201238.fadana ! RUN = 201238 ! NEVT = 2000
FILE = /castor/cern.ch/delphi/MCprod/cern/wphact24/v99e/195.5/wphact24_cc_195.5_80.4_201239.fadana ! RUN = 201239 ! NEVT = 1998
FILE = /castor/cern.ch/delphi/MCprod/cern/wphact24/v99e/195.5/wphact24_cc_195.5_80.4_201240.fadana ! RUN = 201240 ! NEVT = 2000
FILE = /castor/cern.ch/delphi/MCprod/cern/wphact24/v99e/195.5/wphact24_cc_195.5_80.4_201241.fadana ! RUN = 201241 ! NEVT = 1999
FILE = /castor/cern.ch/delphi/MCprod/cern/wphact24/v99e/195.5/wphact24_cc_195.5_80.4_201242.fadana ! RUN = 201242 ! NEVT = 1999
FILE = /castor/cern.ch/delphi/MCprod/cern/wphact24/v99e/195.5/wphact24_cc_195.5_80.4_201243.fadana ! RUN = 201243 ! NEVT = 1999
FILE = /castor/cern.ch/delphi/MCprod/cern/wphact24/v99e/195.5/wphact24_cc_195.5_80.4_201244.fadana ! RUN = 201244 ! NEVT = 2000
FILE = /castor/cern.ch/delphi/MCprod/cern/wphact24/v99e/195.5/wphact24_cc_195.5_80.4_201245.fadana ! RUN = 201245 ! NEVT = 1999
FILE = /castor/cern.ch/delphi/MCprod/cern/wphact24/v99e/195.5/wphact24_cc_195.5_80.4_201246.fadana ! RUN = 201246 ! NEVT = 2000
FILE = /castor/cern.ch/delphi/MCprod/cern/wphact24/v99e/195.5/wphact24_cc_195.5_80.4_201247.fadana ! RUN = 201247 ! NEVT = 1998
FILE = /castor/cern.ch/delphi/MCprod/cern/wphact24/v99e/195.5/wphact24_cc_195.5_80.4_201248.fadana ! RUN = 201248 ! NEVT = 2000
FILE = /castor/cern.ch/delphi/MCprod/cern/wphact24/v99e/195.5/wphact24_cc_195.5_80.4_201249.fadana ! RUN = 201249 ! NEVT = 1999
FILE = /castor/cern.ch/delphi/MCprod/cern/wphact24/v99e/195.5/wphact24_cc_195.5_80.4_201251.fadana ! RUN = 201251 ! NEVT = 1999
FILE = /castor/cern.ch/delphi/MCprod/cern/wphact24/v99e/195.5/wphact24_cc_195.5_80.4_201252.fadana ! RUN = 201252 ! NEVT = 2000
FILE = /castor/cern.ch/delphi/MCprod/cern/wphact24/v99e/195.5/wphact24_cc_195.5_80.4_201253.fadana ! RUN = 201253 ! NEVT = 1999
FILE = /castor/cern.ch/delphi/MCprod/cern/wphact24/v99e/195.5/wphact24_cc_195.5_80.4_201254.fadana ! RUN = 201254 ! NEVT = 2000
FILE = /castor/cern.ch/delphi/MCprod/cern/wphact24/v99e/195.5/wphact24_cc_195.5_80.4_201255.fadana ! RUN = 201255 ! NEVT = 2000
FILE = /castor/cern.ch/delphi/MCprod/cern/wphact24/v99e/195.5/wphact24_cc_195.5_80.4_201256.fadana ! RUN = 201256 ! NEVT = 1999
FILE = /castor/cern.ch/delphi/MCprod/cern/wphact24/v99e/195.5/wphact24_cc_195.5_80.4_201257.fadana ! RUN = 201257 ! NEVT = 2000
FILE = /castor/cern.ch/delphi/MCprod/cern/wphact24/v99e/195.5/wphact24_cc_195.5_80.4_201258.fadana ! RUN = 201258 ! NEVT = 2000
FILE = /castor/cern.ch/delphi/MCprod/cern/wphact24/v99e/195.5/wphact24_cc_195.5_80.4_201259.fadana ! RUN = 201259 ! NEVT = 1997
FILE = /castor/cern.ch/delphi/MCprod/cern/wphact24/v99e/195.5/wphact24_cc_195.5_80.4_201260.fadana ! RUN = 201260 ! NEVT = 1999
FILE = /castor/cern.ch/delphi/MCprod/cern/wphact24/v99e/195.5/wphact24_cc_195.5_80.4_201261.fadana ! RUN = 201261 ! NEVT = 1998
FILE = /castor/cern.ch/delphi/MCprod/cern/wphact24/v99e/195.5/wphact24_cc_195.5_80.4_201262.fadana ! RUN = 201262 ! NEVT = 1999
FILE = /castor/cern.ch/delphi/MCprod/cern/wphact24/v99e/195.5/wphact24_cc_195.5_80.4_201263.fadana ! RUN = 201263 ! NEVT = 2000
FILE = /castor/cern.ch/delphi/MCprod/cern/wphact24/v99e/195.5/wphact24_cc_195.5_80.4_201264.fadana ! RUN = 201264 ! NEVT = 1999
FILE = /castor/cern.ch/delphi/MCprod/cern/wphact24/v99e/195.5/wphact24_cc_195.5_80.4_201265.fadana ! RUN = 201265 ! NEVT = 2000
FILE = /castor/cern.ch/delphi/MCprod/cern/wphact24/v99e/195.5/wphact24_cc_195.5_80.4_201266.fadana ! RUN = 201266 ! NEVT = 1999
FILE = /castor/cern.ch/delphi/MCprod/cern/wphact24/v99e/195.5/wphact24_cc_195.5_80.4_201267.fadana ! RUN = 201267 ! NEVT = 2000
FILE = /castor/cern.ch/delphi/MCprod/cern/wphact24/v99e/195.5/wphact24_cc_195.5_80.4_201268.fadana ! RUN = 201268 ! NEVT = 2000
FILE = /castor/cern.ch/delphi/MCprod/cern/wphact24/v99e/195.5/wphact24_cc_195.5_80.4_201269.fadana ! RUN = 201269 ! NEVT = 1999
FILE = /castor/cern.ch/delphi/MCprod/cern/wphact24/v99e/195.5/wphact24_cc_195.5_80.4_201270.fadana ! RUN = 201270 ! NEVT = 1997
FILE = /castor/cern.ch/delphi/MCprod/cern/wphact24/v99e/195.5/wphact24_cc_195.5_80.4_201271.fadana ! RUN = 201271 ! NEVT = 1999
FILE = /castor/cern.ch/delphi/MCprod/cern/wphact24/v99e/195.5/wphact24_cc_195.5_80.4_201272.fadana ! RUN = 201272 ! NEVT = 1999
FILE = /castor/cern.ch/delphi/MCprod/cern/wphact24/v99e/195.5/wphact24_cc_195.5_80.4_201273.fadana ! RUN = 201273 ! NEVT = 2000
FILE = /castor/cern.ch/delphi/MCprod/cern/wphact24/v99e/195.5/wphact24_cc_195.5_80.4_201274.fadana ! RUN = 201274 ! NEVT = 1999
FILE = /castor/cern.ch/delphi/MCprod/cern/wphact24/v99e/195.5/wphact24_cc_195.5_80.4_201275.fadana ! RUN = 201275 ! NEVT = 1998
FILE = /castor/cern.ch/delphi/MCprod/cern/wphact24/v99e/195.5/wphact24_cc_195.5_80.4_201276.fadana ! RUN = 201276 ! NEVT = 1999
FILE = /castor/cern.ch/delphi/MCprod/cern/wphact24/v99e/195.5/wphact24_cc_195.5_80.4_201277.fadana ! RUN = 201277 ! NEVT = 2000
FILE = /castor/cern.ch/delphi/MCprod/cern/wphact24/v99e/195.5/wphact24_cc_195.5_80.4_201278.fadana ! RUN = 201278 ! NEVT = 1999
FILE = /castor/cern.ch/delphi/MCprod/cern/wphact24/v99e/195.5/wphact24_cc_195.5_80.4_201279.fadana ! RUN = 201279 ! NEVT = 1615
FILE = /castor/cern.ch/delphi/MCprod/cern/wphact24/v99e/195.5/wphact24_cc_195.5_80.4_201280.fadana ! RUN = 201280 ! NEVT = 1999
FILE = /castor/cern.ch/delphi/MCprod/cern/wphact24/v99e/195.5/wphact24_cc_195.5_80.4_201281.fadana ! RUN = 201281 ! NEVT = 1998
FILE = /castor/cern.ch/delphi/MCprod/cern/wphact24/v99e/195.5/wphact24_cc_195.5_80.4_201282.fadana ! RUN = 201282 ! NEVT = 2000
FILE = /castor/cern.ch/delphi/MCprod/cern/wphact24/v99e/195.5/wphact24_cc_195.5_80.4_201283.fadana ! RUN = 201283 ! NEVT = 2000
FILE = /castor/cern.ch/delphi/MCprod/cern/wphact24/v99e/195.5/wphact24_cc_195.5_80.4_201284.fadana ! RUN = 201284 ! NEVT = 1998
FILE = /castor/cern.ch/delphi/MCprod/cern/wphact24/v99e/195.5/wphact24_cc_195.5_80.4_201285.fadana ! RUN = 201285 ! NEVT = 1999
FILE = /castor/cern.ch/delphi/MCprod/cern/wphact24/v99e/195.5/wphact24_cc_195.5_80.4_201286.fadana ! RUN = 201286 ! NEVT = 1998
FILE = /castor/cern.ch/delphi/MCprod/cern/wphact24/v99e/195.5/wphact24_cc_195.5_80.4_201287.fadana ! RUN = 201287 ! NEVT = 2000
FILE = /castor/cern.ch/delphi/MCprod/cern/wphact24/v99e/195.5/wphact24_cc_195.5_80.4_201288.fadana ! RUN = 201288 ! NEVT = 2000
FILE = /castor/cern.ch/delphi/MCprod/cern/wphact24/v99e/195.5/wphact24_cc_195.5_80.4_201289.fadana ! RUN = 201289 ! NEVT = 1999
FILE = /castor/cern.ch/delphi/MCprod/cern/wphact24/v99e/195.5/wphact24_cc_195.5_80.4_201290.fadana ! RUN = 201290 ! NEVT = 1999
FILE = /castor/cern.ch/delphi/MCprod/cern/wphact24/v99e/195.5/wphact24_cc_195.5_80.4_201291.fadana ! RUN = 201291 ! NEVT = 1999
FILE = /castor/cern.ch/delphi/MCprod/cern/wphact24/v99e/195.5/wphact24_cc_195.5_80.4_201292.fadana ! RUN = 201292 ! NEVT = 2000
FILE = /castor/cern.ch/delphi/MCprod/cern/wphact24/v99e/195.5/wphact24_cc_195.5_80.4_201293.fadana ! RUN = 201293 ! NEVT = 2000
FILE = /castor/cern.ch/delphi/MCprod/cern/wphact24/v99e/195.5/wphact24_cc_195.5_80.4_201294.fadana ! RUN = 201294 ! NEVT = 2000
FILE = /castor/cern.ch/delphi/MCprod/cern/wphact24/v99e/195.5/wphact24_cc_195.5_80.4_201295.fadana ! RUN = 201295 ! NEVT = 1999
FILE = /castor/cern.ch/delphi/MCprod/cern/wphact24/v99e/195.5/wphact24_cc_195.5_80.4_201296.fadana ! RUN = 201296 ! NEVT = 1999
FILE = /castor/cern.ch/delphi/MCprod/cern/wphact24/v99e/195.5/wphact24_cc_195.5_80.4_201297.fadana ! RUN = 201297 ! NEVT = 2000
FILE = /castor/cern.ch/delphi/MCprod/cern/wphact24/v99e/195.5/wphact24_cc_195.5_80.4_201298.fadana ! RUN = 201298 ! NEVT = 1998
FILE = /castor/cern.ch/delphi/MCprod/cern/wphact24/v99e/195.5/wphact24_cc_195.5_80.4_201299.fadana ! RUN = 201299 ! NEVT = 2000
FILE = /castor/cern.ch/delphi/MCprod/cern/wphact24/v99e/195.5/wphact24_cc_195.5_80.4_201300.fadana ! RUN = 201300 ! NEVT = 1998
FILE = /castor/cern.ch/delphi/MCprod/cern/wphact24/v99e/195.5/wphact24_cc_195.5_80.4_201301.fadana ! RUN = 201301 ! NEVT = 1999
FILE = /castor/cern.ch/delphi/MCprod/cern/wphact24/v99e/195.5/wphact24_cc_195.5_80.4_201302.fadana ! RUN = 201302 ! NEVT = 1999
FILE = /castor/cern.ch/delphi/MCprod/cern/wphact24/v99e/195.5/wphact24_cc_195.5_80.4_201303.fadana ! RUN = 201303 ! NEVT = 1999
FILE = /castor/cern.ch/delphi/MCprod/cern/wphact24/v99e/195.5/wphact24_cc_195.5_80.4_201304.fadana ! RUN = 201304 ! NEVT = 2000
FILE = /castor/cern.ch/delphi/MCprod/cern/wphact24/v99e/195.5/wphact24_cc_195.5_80.4_201305.fadana ! RUN = 201305 ! NEVT = 1998
FILE = /castor/cern.ch/delphi/MCprod/cern/wphact24/v99e/195.5/wphact24_cc_195.5_80.4_201306.fadana ! RUN = 201306 ! NEVT = 2000
FILE = /castor/cern.ch/delphi/MCprod/cern/wphact24/v99e/195.5/wphact24_cc_195.5_80.4_201307.fadana ! RUN = 201307 ! NEVT = 2000
FILE = /castor/cern.ch/delphi/MCprod/cern/wphact24/v99e/195.5/wphact24_cc_195.5_80.4_201308.fadana ! RUN = 201308 ! NEVT = 2000
FILE = /castor/cern.ch/delphi/MCprod/cern/wphact24/v99e/195.5/wphact24_cc_195.5_80.4_201309.fadana ! RUN = 201309 ! NEVT = 2000
FILE = /castor/cern.ch/delphi/MCprod/cern/wphact24/v99e/195.5/wphact24_cc_195.5_80.4_201310.fadana ! RUN = 201310 ! NEVT = 1998
FILE = /castor/cern.ch/delphi/MCprod/cern/wphact24/v99e/195.5/wphact24_cc_195.5_80.4_201311.fadana ! RUN = 201311 ! NEVT = 1999
FILE = /castor/cern.ch/delphi/MCprod/cern/wphact24/v99e/195.5/wphact24_cc_195.5_80.4_201312.fadana ! RUN = 201312 ! NEVT = 2000
FILE = /castor/cern.ch/delphi/MCprod/cern/wphact24/v99e/195.5/wphact24_cc_195.5_80.4_201313.fadana ! RUN = 201313 ! NEVT = 2000
FILE = /castor/cern.ch/delphi/MCprod/cern/wphact24/v99e/195.5/wphact24_cc_195.5_80.4_201314.fadana ! RUN = 201314 ! NEVT = 2000
FILE = /castor/cern.ch/delphi/MCprod/cern/wphact24/v99e/195.5/wphact24_cc_195.5_80.4_201315.fadana ! RUN = 201315 ! NEVT = 1999
FILE = /castor/cern.ch/delphi/MCprod/cern/wphact24/v99e/195.5/wphact24_cc_195.5_80.4_201316.fadana ! RUN = 201316 ! NEVT = 1999
FILE = /castor/cern.ch/delphi/MCprod/cern/wphact24/v99e/195.5/wphact24_cc_195.5_80.4_201317.fadana ! RUN = 201317 ! NEVT = 2000
FILE = /castor/cern.ch/delphi/MCprod/cern/wphact24/v99e/195.5/wphact24_cc_195.5_80.4_201318.fadana ! RUN = 201318 ! NEVT = 2000
FILE = /castor/cern.ch/delphi/MCprod/cern/wphact24/v99e/195.5/wphact24_cc_195.5_80.4_201319.fadana ! RUN = 201319 ! NEVT = 1999
FILE = /castor/cern.ch/delphi/MCprod/cern/wphact24/v99e/195.5/wphact24_cc_195.5_80.4_201320.fadana ! RUN = 201320 ! NEVT = 1998
FILE = /castor/cern.ch/delphi/MCprod/cern/wphact24/v99e/195.5/wphact24_cc_195.5_80.4_201321.fadana ! RUN = 201321 ! NEVT = 1999
FILE = /castor/cern.ch/delphi/MCprod/cern/wphact24/v99e/195.5/wphact24_cc_195.5_80.4_201322.fadana ! RUN = 201322 ! NEVT = 1999
FILE = /castor/cern.ch/delphi/MCprod/cern/wphact24/v99e/195.5/wphact24_cc_195.5_80.4_201323.fadana ! RUN = 201323 ! NEVT = 1999
FILE = /castor/cern.ch/delphi/MCprod/cern/wphact24/v99e/195.5/wphact24_cc_195.5_80.4_201324.fadana ! RUN = 201324 ! NEVT = 1999
FILE = /castor/cern.ch/delphi/MCprod/cern/wphact24/v99e/195.5/wphact24_cc_195.5_80.4_201325.fadana ! RUN = 201325 ! NEVT = 2000
FILE = /castor/cern.ch/delphi/MCprod/cern/wphact24/v99e/195.5/wphact24_cc_195.5_80.4_201326.fadana ! RUN = 201326 ! NEVT = 2000
FILE = /castor/cern.ch/delphi/MCprod/cern/wphact24/v99e/195.5/wphact24_cc_195.5_80.4_201327.fadana ! RUN = 201327 ! NEVT = 2000
FILE = /castor/cern.ch/delphi/MCprod/cern/wphact24/v99e/195.5/wphact24_cc_195.5_80.4_201328.fadana ! RUN = 201328 ! NEVT = 2000
FILE = /castor/cern.ch/delphi/MCprod/cern/wphact24/v99e/195.5/wphact24_cc_195.5_80.4_201329.fadana ! RUN = 201329 ! NEVT = 2000
FILE = /castor/cern.ch/delphi/MCprod/cern/wphact24/v99e/195.5/wphact24_cc_195.5_80.4_201330.fadana ! RUN = 201330 ! NEVT = 2000
FILE = /castor/cern.ch/delphi/MCprod/cern/wphact24/v99e/195.5/wphact24_cc_195.5_80.4_201331.fadana ! RUN = 201331 ! NEVT = 1998
FILE = /castor/cern.ch/delphi/MCprod/cern/wphact24/v99e/195.5/wphact24_cc_195.5_80.4_201332.fadana ! RUN = 201332 ! NEVT = 1999
FILE = /castor/cern.ch/delphi/MCprod/cern/wphact24/v99e/195.5/wphact24_cc_195.5_80.4_201333.fadana ! RUN = 201333 ! NEVT = 1999
FILE = /castor/cern.ch/delphi/MCprod/cern/wphact24/v99e/195.5/wphact24_cc_195.5_80.4_201334.fadana ! RUN = 201334 ! NEVT = 1999
FILE = /castor/cern.ch/delphi/MCprod/cern/wphact24/v99e/195.5/wphact24_cc_195.5_80.4_201335.fadana ! RUN = 201335 ! NEVT = 5
FILE = /castor/cern.ch/delphi/MCprod/cern/wphact24/v99e/195.5/wphact24_cc_195.5_80.4_201336.fadana ! RUN = 201336 ! NEVT = 1999
FILE = /castor/cern.ch/delphi/MCprod/cern/wphact24/v99e/195.5/wphact24_cc_195.5_80.4_201337.fadana ! RUN = 201337 ! NEVT = 1999
FILE = /castor/cern.ch/delphi/MCprod/cern/wphact24/v99e/195.5/wphact24_cc_195.5_80.4_201338.fadana ! RUN = 201338 ! NEVT = 2000
FILE = /castor/cern.ch/delphi/MCprod/cern/wphact24/v99e/195.5/wphact24_cc_195.5_80.4_201339.fadana ! RUN = 201339 ! NEVT = 1998
FILE = /castor/cern.ch/delphi/MCprod/cern/wphact24/v99e/195.5/wphact24_cc_195.5_80.4_201340.fadana ! RUN = 201340 ! NEVT = 1999
FILE = /castor/cern.ch/delphi/MCprod/cern/wphact24/v99e/195.5/wphact24_cc_195.5_80.4_201341.fadana ! RUN = 201341 ! NEVT = 2000
FILE = /castor/cern.ch/delphi/MCprod/cern/wphact24/v99e/195.5/wphact24_cc_195.5_80.4_201342.fadana ! RUN = 201342 ! NEVT = 1999
FILE = /castor/cern.ch/delphi/MCprod/cern/wphact24/v99e/195.5/wphact24_cc_195.5_80.4_201343.fadana ! RUN = 201343 ! NEVT = 2000
FILE = /castor/cern.ch/delphi/MCprod/cern/wphact24/v99e/195.5/wphact24_cc_195.5_80.4_201344.fadana ! RUN = 201344 ! NEVT = 1999
FILE = /castor/cern.ch/delphi/MCprod/cern/wphact24/v99e/195.5/wphact24_cc_195.5_80.4_201345.fadana ! RUN = 201345 ! NEVT = 2000
FILE = /castor/cern.ch/delphi/MCprod/cern/wphact24/v99e/195.5/wphact24_cc_195.5_80.4_201346.fadana ! RUN = 201346 ! NEVT = 2000
FILE = /castor/cern.ch/delphi/MCprod/cern/wphact24/v99e/195.5/wphact24_cc_195.5_80.4_201347.fadana ! RUN = 201347 ! NEVT = 1998
FILE = /castor/cern.ch/delphi/MCprod/cern/wphact24/v99e/195.5/wphact24_cc_195.5_80.4_201348.fadana ! RUN = 201348 ! NEVT = 1998
FILE = /castor/cern.ch/delphi/MCprod/cern/wphact24/v99e/195.5/wphact24_cc_195.5_80.4_201349.fadana ! RUN = 201349 ! NEVT = 2000
FILE = /castor/cern.ch/delphi/MCprod/cern/wphact24/v99e/195.5/wphact24_cc_195.5_80.4_201350.fadana ! RUN = 201350 ! NEVT = 2000
FILE = /castor/cern.ch/delphi/MCprod/cern/wphact24/v99e/195.5/wphact24_cc_195.5_80.4_201351.fadana ! RUN = 201351 ! NEVT = 1999
FILE = /castor/cern.ch/delphi/MCprod/cern/wphact24/v99e/195.5/wphact24_cc_195.5_80.4_201352.fadana ! RUN = 201352 ! NEVT = 1999
FILE = /castor/cern.ch/delphi/MCprod/cern/wphact24/v99e/195.5/wphact24_cc_195.5_80.4_201353.fadana ! RUN = 201353 ! NEVT = 1999
FILE = /castor/cern.ch/delphi/MCprod/cern/wphact24/v99e/195.5/wphact24_cc_195.5_80.4_201354.fadana ! RUN = 201354 ! NEVT = 1999
FILE = /castor/cern.ch/delphi/MCprod/cern/wphact24/v99e/195.5/wphact24_cc_195.5_80.4_201355.fadana ! RUN = 201355 ! NEVT = 1998
FILE = /castor/cern.ch/delphi/MCprod/cern/wphact24/v99e/195.5/wphact24_cc_195.5_80.4_201356.fadana ! RUN = 201356 ! NEVT = 1998
FILE = /castor/cern.ch/delphi/MCprod/cern/wphact24/v99e/195.5/wphact24_cc_195.5_80.4_201357.fadana ! RUN = 201357 ! NEVT = 2000
FILE = /castor/cern.ch/delphi/MCprod/cern/wphact24/v99e/195.5/wphact24_cc_195.5_80.4_201358.fadana ! RUN = 201358 ! NEVT = 1998
FILE = /castor/cern.ch/delphi/MCprod/cern/wphact24/v99e/195.5/wphact24_cc_195.5_80.4_201359.fadana ! RUN = 201359 ! NEVT = 1997
FILE = /castor/cern.ch/delphi/MCprod/cern/wphact24/v99e/195.5/wphact24_cc_195.5_80.4_201360.fadana ! RUN = 201360 ! NEVT = 2000
FILE = /castor/cern.ch/delphi/MCprod/cern/wphact24/v99e/195.5/wphact24_cc_195.5_80.4_201361.fadana ! RUN = 201361 ! NEVT = 2000
FILE = /castor/cern.ch/delphi/MCprod/cern/wphact24/v99e/195.5/wphact24_cc_195.5_80.4_201362.fadana ! RUN = 201362 ! NEVT = 2000
FILE = /castor/cern.ch/delphi/MCprod/cern/wphact24/v99e/195.5/wphact24_cc_195.5_80.4_201363.fadana ! RUN = 201363 ! NEVT = 1997
FILE = /castor/cern.ch/delphi/MCprod/cern/wphact24/v99e/195.5/wphact24_cc_195.5_80.4_201364.fadana ! RUN = 201364 ! NEVT = 2000
FILE = /castor/cern.ch/delphi/MCprod/cern/wphact24/v99e/195.5/wphact24_cc_195.5_80.4_201365.fadana ! RUN = 201365 ! NEVT = 2000
FILE = /castor/cern.ch/delphi/MCprod/cern/wphact24/v99e/195.5/wphact24_cc_195.5_80.4_201366.fadana ! RUN = 201366 ! NEVT = 1999
FILE = /castor/cern.ch/delphi/MCprod/cern/wphact24/v99e/195.5/wphact24_cc_195.5_80.4_201367.fadana ! RUN = 201367 ! NEVT = 1999
FILE = /castor/cern.ch/delphi/MCprod/cern/wphact24/v99e/195.5/wphact24_cc_195.5_80.4_201368.fadana ! RUN = 201368 ! NEVT = 2000
FILE = /castor/cern.ch/delphi/MCprod/cern/wphact24/v99e/195.5/wphact24_cc_195.5_80.4_201369.fadana ! RUN = 201369 ! NEVT = 2000
FILE = /castor/cern.ch/delphi/MCprod/cern/wphact24/v99e/195.5/wphact24_cc_195.5_80.4_201370.fadana ! RUN = 201370 ! NEVT = 1998
FILE = /castor/cern.ch/delphi/MCprod/cern/wphact24/v99e/195.5/wphact24_cc_195.5_80.4_201371.fadana ! RUN = 201371 ! NEVT = 1999
FILE = /castor/cern.ch/delphi/MCprod/cern/wphact24/v99e/195.5/wphact24_cc_195.5_80.4_201372.fadana ! RUN = 201372 ! NEVT = 1999
FILE = /castor/cern.ch/delphi/MCprod/cern/wphact24/v99e/195.5/wphact24_cc_195.5_80.4_201373.fadana ! RUN = 201373 ! NEVT = 1998
FILE = /castor/cern.ch/delphi/MCprod/cern/wphact24/v99e/195.5/wphact24_cc_195.5_80.4_201374.fadana ! RUN = 201374 ! NEVT = 1999
FILE = /castor/cern.ch/delphi/MCprod/cern/wphact24/v99e/195.5/wphact24_cc_195.5_80.4_201375.fadana ! RUN = 201375 ! NEVT = 2000
FILE = /castor/cern.ch/delphi/MCprod/cern/wphact24/v99e/195.5/wphact24_cc_195.5_80.4_201376.fadana ! RUN = 201376 ! NEVT = 1999
FILE = /castor/cern.ch/delphi/MCprod/cern/wphact24/v99e/195.5/wphact24_cc_195.5_80.4_201377.fadana ! RUN = 201377 ! NEVT = 1999
FILE = /castor/cern.ch/delphi/MCprod/cern/wphact24/v99e/195.5/wphact24_cc_195.5_80.4_201378.fadana ! RUN = 201378 ! NEVT = 1998
FILE = /castor/cern.ch/delphi/MCprod/cern/wphact24/v99e/195.5/wphact24_cc_195.5_80.4_201379.fadana ! RUN = 201379 ! NEVT = 1998
FILE = /castor/cern.ch/delphi/MCprod/cern/wphact24/v99e/195.5/wphact24_cc_195.5_80.4_201380.fadana ! RUN = 201380 ! NEVT = 1997
FILE = /castor/cern.ch/delphi/MCprod/cern/wphact24/v99e/195.5/wphact24_cc_195.5_80.4_201381.fadana ! RUN = 201381 ! NEVT = 2000
FILE = /castor/cern.ch/delphi/MCprod/cern/wphact24/v99e/195.5/wphact24_cc_195.5_80.4_201382.fadana ! RUN = 201382 ! NEVT = 1999
FILE = /castor/cern.ch/delphi/MCprod/cern/wphact24/v99e/195.5/wphact24_cc_195.5_80.4_201383.fadana ! RUN = 201383 ! NEVT = 1998
FILE = /castor/cern.ch/delphi/MCprod/cern/wphact24/v99e/195.5/wphact24_cc_195.5_80.4_201384.fadana ! RUN = 201384 ! NEVT = 1998
FILE = /castor/cern.ch/delphi/MCprod/cern/wphact24/v99e/195.5/wphact24_cc_195.5_80.4_201385.fadana ! RUN = 201385 ! NEVT = 1999
FILE = /castor/cern.ch/delphi/MCprod/cern/wphact24/v99e/195.5/wphact24_cc_195.5_80.4_201386.fadana ! RUN = 201386 ! NEVT = 1998
FILE = /castor/cern.ch/delphi/MCprod/cern/wphact24/v99e/195.5/wphact24_cc_195.5_80.4_201387.fadana ! RUN = 201387 ! NEVT = 1998
FILE = /castor/cern.ch/delphi/MCprod/cern/wphact24/v99e/195.5/wphact24_cc_195.5_80.4_201388.fadana ! RUN = 201388 ! NEVT = 2000
FILE = /castor/cern.ch/delphi/MCprod/cern/wphact24/v99e/195.5/wphact24_cc_195.5_80.4_201389.fadana ! RUN = 201389 ! NEVT = 1158
FILE = /castor/cern.ch/delphi/MCprod/cern/wphact24/v99e/195.5/wphact24_cc_195.5_80.4_201390.fadana ! RUN = 201390 ! NEVT = 1999
FILE = /castor/cern.ch/delphi/MCprod/cern/wphact24/v99e/195.5/wphact24_cc_195.5_80.4_201391.fadana ! RUN = 201391 ! NEVT = 1999
FILE = /castor/cern.ch/delphi/MCprod/cern/wphact24/v99e/195.5/wphact24_cc_195.5_80.4_201392.fadana ! RUN = 201392 ! NEVT = 1999
FILE = /castor/cern.ch/delphi/MCprod/cern/wphact24/v99e/195.5/wphact24_cc_195.5_80.4_201393.fadana ! RUN = 201393 ! NEVT = 2000
FILE = /castor/cern.ch/delphi/MCprod/cern/wphact24/v99e/195.5/wphact24_cc_195.5_80.4_201394.fadana ! RUN = 201394 ! NEVT = 2000
FILE = /castor/cern.ch/delphi/MCprod/cern/wphact24/v99e/195.5/wphact24_cc_195.5_80.4_201395.fadana ! RUN = 201395 ! NEVT = 2000
FILE = /castor/cern.ch/delphi/MCprod/cern/wphact24/v99e/195.5/wphact24_cc_195.5_80.4_201396.fadana ! RUN = 201396 ! NEVT = 1999
FILE = /castor/cern.ch/delphi/MCprod/cern/wphact24/v99e/195.5/wphact24_cc_195.5_80.4_201397.fadana ! RUN = 201397 ! NEVT = 2000
FILE = /castor/cern.ch/delphi/MCprod/cern/wphact24/v99e/195.5/wphact24_cc_195.5_80.4_201398.fadana ! RUN = 201398 ! NEVT = 2000
FILE = /castor/cern.ch/delphi/MCprod/cern/wphact24/v99e/195.5/wphact24_cc_195.5_80.4_201399.fadana ! RUN = 201399 ! NEVT = 1997
FILE = /castor/cern.ch/delphi/MCprod/cern/wphact24/v99e/195.5/wphact24_cc_195.5_80.4_201400.fadana ! RUN = 201400 ! NEVT = 1997
FILE = /castor/cern.ch/delphi/MCprod/cern/wphact24/v99e/195.5/wphact24_cc_195.5_80.4_201401.fadana ! RUN = 201401 ! NEVT = 1999
FILE = /castor/cern.ch/delphi/MCprod/cern/wphact24/v99e/195.5/wphact24_cc_195.5_80.4_201402.fadana ! RUN = 201402 ! NEVT = 1999
FILE = /castor/cern.ch/delphi/MCprod/cern/wphact24/v99e/195.5/wphact24_cc_195.5_80.4_201403.fadana ! RUN = 201403 ! NEVT = 1998
FILE = /castor/cern.ch/delphi/MCprod/cern/wphact24/v99e/195.5/wphact24_cc_195.5_80.4_201404.fadana ! RUN = 201404 ! NEVT = 2000
FILE = /castor/cern.ch/delphi/MCprod/cern/wphact24/v99e/195.5/wphact24_cc_195.5_80.4_201405.fadana ! RUN = 201405 ! NEVT = 2000
FILE = /castor/cern.ch/delphi/MCprod/cern/wphact24/v99e/195.5/wphact24_cc_195.5_80.4_201406.fadana ! RUN = 201406 ! NEVT = 1999
FILE = /castor/cern.ch/delphi/MCprod/cern/wphact24/v99e/195.5/wphact24_cc_195.5_80.4_201407.fadana ! RUN = 201407 ! NEVT = 1999
FILE = /castor/cern.ch/delphi/MCprod/cern/wphact24/v99e/195.5/wphact24_cc_195.5_80.4_201408.fadana ! RUN = 201408 ! NEVT = 2000
FILE = /castor/cern.ch/delphi/MCprod/cern/wphact24/v99e/195.5/wphact24_cc_195.5_80.4_201409.fadana ! RUN = 201409 ! NEVT = 1996
FILE = /castor/cern.ch/delphi/MCprod/cern/wphact24/v99e/195.5/wphact24_cc_195.5_80.4_201410.fadana ! RUN = 201410 ! NEVT = 2000
FILE = /castor/cern.ch/delphi/MCprod/cern/wphact24/v99e/195.5/wphact24_cc_195.5_80.4_201411.fadana ! RUN = 201411 ! NEVT = 2000
FILE = /castor/cern.ch/delphi/MCprod/cern/wphact24/v99e/195.5/wphact24_cc_195.5_80.4_201412.fadana ! RUN = 201412 ! NEVT = 2000
FILE = /castor/cern.ch/delphi/MCprod/cern/wphact24/v99e/195.5/wphact24_cc_195.5_80.4_201413.fadana ! RUN = 201413 ! NEVT = 2000
FILE = /castor/cern.ch/delphi/MCprod/cern/wphact24/v99e/195.5/wphact24_cc_195.5_80.4_201414.fadana ! RUN = 201414 ! NEVT = 1998
FILE = /castor/cern.ch/delphi/MCprod/cern/wphact24/v99e/195.5/wphact24_cc_195.5_80.4_201415.fadana ! RUN = 201415 ! NEVT = 2000
FILE = /castor/cern.ch/delphi/MCprod/cern/wphact24/v99e/195.5/wphact24_cc_195.5_80.4_201416.fadana ! RUN = 201416 ! NEVT = 2000
FILE = /castor/cern.ch/delphi/MCprod/cern/wphact24/v99e/195.5/wphact24_cc_195.5_80.4_201417.fadana ! RUN = 201417 ! NEVT = 1998
FILE = /castor/cern.ch/delphi/MCprod/cern/wphact24/v99e/195.5/wphact24_cc_195.5_80.4_201418.fadana ! RUN = 201418 ! NEVT = 2000
FILE = /castor/cern.ch/delphi/MCprod/cern/wphact24/v99e/195.5/wphact24_cc_195.5_80.4_201419.fadana ! RUN = 201419 ! NEVT = 1999
FILE = /castor/cern.ch/delphi/MCprod/cern/wphact24/v99e/195.5/wphact24_cc_195.5_80.4_201420.fadana ! RUN = 201420 ! NEVT = 2000
FILE = /castor/cern.ch/delphi/MCprod/cern/wphact24/v99e/195.5/wphact24_cc_195.5_80.4_201421.fadana ! RUN = 201421 ! NEVT = 2000
FILE = /castor/cern.ch/delphi/MCprod/cern/wphact24/v99e/195.5/wphact24_cc_195.5_80.4_201422.fadana ! RUN = 201422 ! NEVT = 1999
FILE = /castor/cern.ch/delphi/MCprod/cern/wphact24/v99e/195.5/wphact24_cc_195.5_80.4_201423.fadana ! RUN = 201423 ! NEVT = 1999
FILE = /castor/cern.ch/delphi/MCprod/cern/wphact24/v99e/195.5/wphact24_cc_195.5_80.4_201424.fadana ! RUN = 201424 ! NEVT = 2000
FILE = /castor/cern.ch/delphi/MCprod/cern/wphact24/v99e/195.5/wphact24_cc_195.5_80.4_201425.fadana ! RUN = 201425 ! NEVT = 2000
FILE = /castor/cern.ch/delphi/MCprod/cern/wphact24/v99e/195.5/wphact24_cc_195.5_80.4_201426.fadana ! RUN = 201426 ! NEVT = 2000
FILE = /castor/cern.ch/delphi/MCprod/cern/wphact24/v99e/195.5/wphact24_cc_195.5_80.4_201427.fadana ! RUN = 201427 ! NEVT = 1999
FILE = /castor/cern.ch/delphi/MCprod/cern/wphact24/v99e/195.5/wphact24_cc_195.5_80.4_201428.fadana ! RUN = 201428 ! NEVT = 1999
FILE = /castor/cern.ch/delphi/MCprod/cern/wphact24/v99e/195.5/wphact24_cc_195.5_80.4_201429.fadana ! RUN = 201429 ! NEVT = 2000
FILE = /castor/cern.ch/delphi/MCprod/cern/wphact24/v99e/195.5/wphact24_cc_195.5_80.4_201430.fadana ! RUN = 201430 ! NEVT = 1999
FILE = /castor/cern.ch/delphi/MCprod/cern/wphact24/v99e/195.5/wphact24_cc_195.5_80.4_201431.fadana ! RUN = 201431 ! NEVT = 1999
FILE = /castor/cern.ch/delphi/MCprod/cern/wphact24/v99e/195.5/wphact24_cc_195.5_80.4_201432.fadana ! RUN = 201432 ! NEVT = 1999
FILE = /castor/cern.ch/delphi/MCprod/cern/wphact24/v99e/195.5/wphact24_cc_195.5_80.4_201433.fadana ! RUN = 201433 ! NEVT = 1999
FILE = /castor/cern.ch/delphi/MCprod/cern/wphact24/v99e/195.5/wphact24_cc_195.5_80.4_201434.fadana ! RUN = 201434 ! NEVT = 1999
FILE = /castor/cern.ch/delphi/MCprod/cern/wphact24/v99e/195.5/wphact24_cc_195.5_80.4_201435.fadana ! RUN = 201435 ! NEVT = 1999
FILE = /castor/cern.ch/delphi/MCprod/cern/wphact24/v99e/195.5/wphact24_cc_195.5_80.4_201436.fadana ! RUN = 201436 ! NEVT = 2000
FILE = /castor/cern.ch/delphi/MCprod/cern/wphact24/v99e/195.5/wphact24_cc_195.5_80.4_201437.fadana ! RUN = 201437 ! NEVT = 2000
FILE = /castor/cern.ch/delphi/MCprod/cern/wphact24/v99e/195.5/wphact24_cc_195.5_80.4_201438.fadana ! RUN = 201438 ! NEVT = 1999
FILE = /castor/cern.ch/delphi/MCprod/cern/wphact24/v99e/195.5/wphact24_cc_195.5_80.4_201439.fadana ! RUN = 201439 ! NEVT = 1998
FILE = /castor/cern.ch/delphi/MCprod/cern/wphact24/v99e/195.5/wphact24_cc_195.5_80.4_201440.fadana ! RUN = 201440 ! NEVT = 1999
FILE = /castor/cern.ch/delphi/MCprod/cern/wphact24/v99e/195.5/wphact24_cc_195.5_80.4_201441.fadana ! RUN = 201441 ! NEVT = 1998
FILE = /castor/cern.ch/delphi/MCprod/cern/wphact24/v99e/195.5/wphact24_cc_195.5_80.4_201442.fadana ! RUN = 201442 ! NEVT = 1999
FILE = /castor/cern.ch/delphi/MCprod/cern/wphact24/v99e/195.5/wphact24_cc_195.5_80.4_201443.fadana ! RUN = 201443 ! NEVT = 1999
FILE = /castor/cern.ch/delphi/MCprod/cern/wphact24/v99e/195.5/wphact24_cc_195.5_80.4_201444.fadana ! RUN = 201444 ! NEVT = 2000
FILE = /castor/cern.ch/delphi/MCprod/cern/wphact24/v99e/195.5/wphact24_cc_195.5_80.4_201445.fadana ! RUN = 201445 ! NEVT = 2000
FILE = /castor/cern.ch/delphi/MCprod/cern/wphact24/v99e/195.5/wphact24_cc_195.5_80.4_201446.fadana ! RUN = 201446 ! NEVT = 1999
FILE = /castor/cern.ch/delphi/MCprod/cern/wphact24/v99e/195.5/wphact24_cc_195.5_80.4_201447.fadana ! RUN = 201447 ! NEVT = 1999
FILE = /castor/cern.ch/delphi/MCprod/cern/wphact24/v99e/195.5/wphact24_cc_195.5_80.4_201448.fadana ! RUN = 201448 ! NEVT = 2000
FILE = /castor/cern.ch/delphi/MCprod/cern/wphact24/v99e/195.5/wphact24_cc_195.5_80.4_201449.fadana ! RUN = 201449 ! NEVT = 2000
FILE = /castor/cern.ch/delphi/MCprod/cern/wphact24/v99e/195.5/wphact24_cc_195.5_80.4_201450.fadana ! RUN = 201450 ! NEVT = 1999
FILE = /castor/cern.ch/delphi/MCprod/cern/wphact24/v99e/195.5/wphact24_cc_195.5_80.4_201451.fadana ! RUN = 201451 ! NEVT = 2000
FILE = /castor/cern.ch/delphi/MCprod/cern/wphact24/v99e/195.5/wphact24_cc_195.5_80.4_201452.fadana ! RUN = 201452 ! NEVT = 2000
FILE = /castor/cern.ch/delphi/MCprod/cern/wphact24/v99e/195.5/wphact24_cc_195.5_80.4_201453.fadana ! RUN = 201453 ! NEVT = 2000
FILE = /castor/cern.ch/delphi/MCprod/cern/wphact24/v99e/195.5/wphact24_cc_195.5_80.4_201454.fadana ! RUN = 201454 ! NEVT = 2000
FILE = /castor/cern.ch/delphi/MCprod/cern/wphact24/v99e/195.5/wphact24_cc_195.5_80.4_201455.fadana ! RUN = 201455 ! NEVT = 1999
FILE = /castor/cern.ch/delphi/MCprod/cern/wphact24/v99e/195.5/wphact24_cc_195.5_80.4_201456.fadana ! RUN = 201456 ! NEVT = 2000
FILE = /castor/cern.ch/delphi/MCprod/cern/wphact24/v99e/195.5/wphact24_cc_195.5_80.4_201457.fadana ! RUN = 201457 ! NEVT = 1999
FILE = /castor/cern.ch/delphi/MCprod/cern/wphact24/v99e/195.5/wphact24_cc_195.5_80.4_201458.fadana ! RUN = 201458 ! NEVT = 1999
FILE = /castor/cern.ch/delphi/MCprod/cern/wphact24/v99e/195.5/wphact24_cc_195.5_80.4_201459.fadana ! RUN = 201459 ! NEVT = 2000
FILE = /castor/cern.ch/delphi/MCprod/cern/wphact24/v99e/195.5/wphact24_cc_195.5_80.4_201460.fadana ! RUN = 201460 ! NEVT = 1999
FILE = /castor/cern.ch/delphi/MCprod/cern/wphact24/v99e/195.5/wphact24_cc_195.5_80.4_201461.fadana ! RUN = 201461 ! NEVT = 2000
FILE = /castor/cern.ch/delphi/MCprod/cern/wphact24/v99e/195.5/wphact24_cc_195.5_80.4_201462.fadana ! RUN = 201462 ! NEVT = 1998
FILE = /castor/cern.ch/delphi/MCprod/cern/wphact24/v99e/195.5/wphact24_cc_195.5_80.4_201463.fadana ! RUN = 201463 ! NEVT = 1998
FILE = /castor/cern.ch/delphi/MCprod/cern/wphact24/v99e/195.5/wphact24_cc_195.5_80.4_201464.fadana ! RUN = 201464 ! NEVT = 1997
FILE = /castor/cern.ch/delphi/MCprod/cern/wphact24/v99e/195.5/wphact24_cc_195.5_80.4_201465.fadana ! RUN = 201465 ! NEVT = 1998
FILE = /castor/cern.ch/delphi/MCprod/cern/wphact24/v99e/195.5/wphact24_cc_195.5_80.4_201466.fadana ! RUN = 201466 ! NEVT = 2000
FILE = /castor/cern.ch/delphi/MCprod/cern/wphact24/v99e/195.5/wphact24_cc_195.5_80.4_201467.fadana ! RUN = 201467 ! NEVT = 2000
FILE = /castor/cern.ch/delphi/MCprod/cern/wphact24/v99e/195.5/wphact24_cc_195.5_80.4_201468.fadana ! RUN = 201468 ! NEVT = 2000
FILE = /castor/cern.ch/delphi/MCprod/cern/wphact24/v99e/195.5/wphact24_cc_195.5_80.4_201469.fadana ! RUN = 201469 ! NEVT = 2000
FILE = /castor/cern.ch/delphi/MCprod/cern/wphact24/v99e/195.5/wphact24_cc_195.5_80.4_201470.fadana ! RUN = 201470 ! NEVT = 2000
FILE = /castor/cern.ch/delphi/MCprod/cern/wphact24/v99e/195.5/wphact24_cc_195.5_80.4_201471.fadana ! RUN = 201471 ! NEVT = 1999
FILE = /castor/cern.ch/delphi/MCprod/cern/wphact24/v99e/195.5/wphact24_cc_195.5_80.4_201472.fadana ! RUN = 201472 ! NEVT = 2000
FILE = /castor/cern.ch/delphi/MCprod/cern/wphact24/v99e/195.5/wphact24_cc_195.5_80.4_201473.fadana ! RUN = 201473 ! NEVT = 2000
FILE = /castor/cern.ch/delphi/MCprod/cern/wphact24/v99e/195.5/wphact24_cc_195.5_80.4_201474.fadana ! RUN = 201474 ! NEVT = 1998
FILE = /castor/cern.ch/delphi/MCprod/cern/wphact24/v99e/195.5/wphact24_cc_195.5_80.4_201475.fadana ! RUN = 201475 ! NEVT = 2000
FILE = /castor/cern.ch/delphi/MCprod/cern/wphact24/v99e/195.5/wphact24_cc_195.5_80.4_201476.fadana ! RUN = 201476 ! NEVT = 1999
FILE = /castor/cern.ch/delphi/MCprod/cern/wphact24/v99e/195.5/wphact24_cc_195.5_80.4_201477.fadana ! RUN = 201477 ! NEVT = 2000
FILE = /castor/cern.ch/delphi/MCprod/cern/wphact24/v99e/195.5/wphact24_cc_195.5_80.4_201478.fadana ! RUN = 201478 ! NEVT = 2000
FILE = /castor/cern.ch/delphi/MCprod/cern/wphact24/v99e/195.5/wphact24_cc_195.5_80.4_201479.fadana ! RUN = 201479 ! NEVT = 1999
FILE = /castor/cern.ch/delphi/MCprod/cern/wphact24/v99e/195.5/wphact24_cc_195.5_80.4_201480.fadana ! RUN = 201480 ! NEVT = 1999
FILE = /castor/cern.ch/delphi/MCprod/cern/wphact24/v99e/195.5/wphact24_cc_195.5_80.4_201481.fadana ! RUN = 201481 ! NEVT = 2000
FILE = /castor/cern.ch/delphi/MCprod/cern/wphact24/v99e/195.5/wphact24_cc_195.5_80.4_201482.fadana ! RUN = 201482 ! NEVT = 2000
FILE = /castor/cern.ch/delphi/MCprod/cern/wphact24/v99e/195.5/wphact24_cc_195.5_80.4_201483.fadana ! RUN = 201483 ! NEVT = 1997
FILE = /castor/cern.ch/delphi/MCprod/cern/wphact24/v99e/195.5/wphact24_cc_195.5_80.4_201484.fadana ! RUN = 201484 ! NEVT = 2000
FILE = /castor/cern.ch/delphi/MCprod/cern/wphact24/v99e/195.5/wphact24_cc_195.5_80.4_201485.fadana ! RUN = 201485 ! NEVT = 2000
FILE = /castor/cern.ch/delphi/MCprod/cern/wphact24/v99e/195.5/wphact24_cc_195.5_80.4_201486.fadana ! RUN = 201486 ! NEVT = 1998
FILE = /castor/cern.ch/delphi/MCprod/cern/wphact24/v99e/195.5/wphact24_cc_195.5_80.4_201487.fadana ! RUN = 201487 ! NEVT = 2000
FILE = /castor/cern.ch/delphi/MCprod/cern/wphact24/v99e/195.5/wphact24_cc_195.5_80.4_201488.fadana ! RUN = 201488 ! NEVT = 2000
FILE = /castor/cern.ch/delphi/MCprod/cern/wphact24/v99e/195.5/wphact24_cc_195.5_80.4_201489.fadana ! RUN = 201489 ! NEVT = 1999
FILE = /castor/cern.ch/delphi/MCprod/cern/wphact24/v99e/195.5/wphact24_cc_195.5_80.4_201490.fadana ! RUN = 201490 ! NEVT = 1999
FILE = /castor/cern.ch/delphi/MCprod/cern/wphact24/v99e/195.5/wphact24_cc_195.5_80.4_201491.fadana ! RUN = 201491 ! NEVT = 1999
FILE = /castor/cern.ch/delphi/MCprod/cern/wphact24/v99e/195.5/wphact24_cc_195.5_80.4_201492.fadana ! RUN = 201492 ! NEVT = 1999
FILE = /castor/cern.ch/delphi/MCprod/cern/wphact24/v99e/195.5/wphact24_cc_195.5_80.4_201493.fadana ! RUN = 201493 ! NEVT = 2000
FILE = /castor/cern.ch/delphi/MCprod/cern/wphact24/v99e/195.5/wphact24_cc_195.5_80.4_201494.fadana ! RUN = 201494 ! NEVT = 1999
FILE = /castor/cern.ch/delphi/MCprod/cern/wphact24/v99e/195.5/wphact24_cc_195.5_80.4_201495.fadana ! RUN = 201495 ! NEVT = 2000
FILE = /castor/cern.ch/delphi/MCprod/cern/wphact24/v99e/195.5/wphact24_cc_195.5_80.4_201496.fadana ! RUN = 201496 ! NEVT = 2000
FILE = /castor/cern.ch/delphi/MCprod/cern/wphact24/v99e/195.5/wphact24_cc_195.5_80.4_201497.fadana ! RUN = 201497 ! NEVT = 2000
FILE = /castor/cern.ch/delphi/MCprod/cern/wphact24/v99e/195.5/wphact24_cc_195.5_80.4_201498.fadana ! RUN = 201498 ! NEVT = 2000
FILE = /castor/cern.ch/delphi/MCprod/cern/wphact24/v99e/195.5/wphact24_cc_195.5_80.4_201499.fadana ! RUN = 201499 ! NEVT = 1999
FILE = /castor/cern.ch/delphi/MCprod/cern/wphact24/v99e/195.5/wphact24_cc_195.5_80.4_201500.fadana ! RUN = 201500 ! NEVT = 2000
