*   Nickname :     dsto_wphact244q_e199.5_m80.4_c99_1l_e
*   Generic Name : //CERN/DELPHI/P02_SIMD/DSTO/WPHACT244Q/E199.5/CERN/SUMT/C001-498
*   Description :   Full DST/Delana output simulation 99e  done at ecm=199.5 GeV , CERN
*   Comments :     in total 984832 events in 498 files, time stamp: Fri Dec 26 4:12:22 2003
*
*
*
FILE = /castor/cern.ch/delphi/MCprod/cern/wphact24/v99e/199.5/wphact24_4q_199.5_80.4_204751.fadana ! RUN = 204751 ! NEVT = 1997
FILE = /castor/cern.ch/delphi/MCprod/cern/wphact24/v99e/199.5/wphact24_4q_199.5_80.4_204752.fadana ! RUN = 204752 ! NEVT = 1999
FILE = /castor/cern.ch/delphi/MCprod/cern/wphact24/v99e/199.5/wphact24_4q_199.5_80.4_204753.fadana ! RUN = 204753 ! NEVT = 32
FILE = /castor/cern.ch/delphi/MCprod/cern/wphact24/v99e/199.5/wphact24_4q_199.5_80.4_204754.fadana ! RUN = 204754 ! NEVT = 2000
FILE = /castor/cern.ch/delphi/MCprod/cern/wphact24/v99e/199.5/wphact24_4q_199.5_80.4_204755.fadana ! RUN = 204755 ! NEVT = 1998
FILE = /castor/cern.ch/delphi/MCprod/cern/wphact24/v99e/199.5/wphact24_4q_199.5_80.4_204756.fadana ! RUN = 204756 ! NEVT = 1996
FILE = /castor/cern.ch/delphi/MCprod/cern/wphact24/v99e/199.5/wphact24_4q_199.5_80.4_204757.fadana ! RUN = 204757 ! NEVT = 2000
FILE = /castor/cern.ch/delphi/MCprod/cern/wphact24/v99e/199.5/wphact24_4q_199.5_80.4_204758.fadana ! RUN = 204758 ! NEVT = 2000
FILE = /castor/cern.ch/delphi/MCprod/cern/wphact24/v99e/199.5/wphact24_4q_199.5_80.4_204759.fadana ! RUN = 204759 ! NEVT = 1998
FILE = /castor/cern.ch/delphi/MCprod/cern/wphact24/v99e/199.5/wphact24_4q_199.5_80.4_204760.fadana ! RUN = 204760 ! NEVT = 1999
FILE = /castor/cern.ch/delphi/MCprod/cern/wphact24/v99e/199.5/wphact24_4q_199.5_80.4_204761.fadana ! RUN = 204761 ! NEVT = 1999
FILE = /castor/cern.ch/delphi/MCprod/cern/wphact24/v99e/199.5/wphact24_4q_199.5_80.4_204762.fadana ! RUN = 204762 ! NEVT = 2000
FILE = /castor/cern.ch/delphi/MCprod/cern/wphact24/v99e/199.5/wphact24_4q_199.5_80.4_204763.fadana ! RUN = 204763 ! NEVT = 2000
FILE = /castor/cern.ch/delphi/MCprod/cern/wphact24/v99e/199.5/wphact24_4q_199.5_80.4_204764.fadana ! RUN = 204764 ! NEVT = 1999
FILE = /castor/cern.ch/delphi/MCprod/cern/wphact24/v99e/199.5/wphact24_4q_199.5_80.4_204765.fadana ! RUN = 204765 ! NEVT = 1999
FILE = /castor/cern.ch/delphi/MCprod/cern/wphact24/v99e/199.5/wphact24_4q_199.5_80.4_204766.fadana ! RUN = 204766 ! NEVT = 2000
FILE = /castor/cern.ch/delphi/MCprod/cern/wphact24/v99e/199.5/wphact24_4q_199.5_80.4_204767.fadana ! RUN = 204767 ! NEVT = 1998
FILE = /castor/cern.ch/delphi/MCprod/cern/wphact24/v99e/199.5/wphact24_4q_199.5_80.4_204768.fadana ! RUN = 204768 ! NEVT = 2000
FILE = /castor/cern.ch/delphi/MCprod/cern/wphact24/v99e/199.5/wphact24_4q_199.5_80.4_204769.fadana ! RUN = 204769 ! NEVT = 1999
FILE = /castor/cern.ch/delphi/MCprod/cern/wphact24/v99e/199.5/wphact24_4q_199.5_80.4_204770.fadana ! RUN = 204770 ! NEVT = 2000
FILE = /castor/cern.ch/delphi/MCprod/cern/wphact24/v99e/199.5/wphact24_4q_199.5_80.4_204771.fadana ! RUN = 204771 ! NEVT = 2000
FILE = /castor/cern.ch/delphi/MCprod/cern/wphact24/v99e/199.5/wphact24_4q_199.5_80.4_204772.fadana ! RUN = 204772 ! NEVT = 1997
FILE = /castor/cern.ch/delphi/MCprod/cern/wphact24/v99e/199.5/wphact24_4q_199.5_80.4_204773.fadana ! RUN = 204773 ! NEVT = 2000
FILE = /castor/cern.ch/delphi/MCprod/cern/wphact24/v99e/199.5/wphact24_4q_199.5_80.4_204774.fadana ! RUN = 204774 ! NEVT = 1996
FILE = /castor/cern.ch/delphi/MCprod/cern/wphact24/v99e/199.5/wphact24_4q_199.5_80.4_204775.fadana ! RUN = 204775 ! NEVT = 1998
FILE = /castor/cern.ch/delphi/MCprod/cern/wphact24/v99e/199.5/wphact24_4q_199.5_80.4_204776.fadana ! RUN = 204776 ! NEVT = 1999
FILE = /castor/cern.ch/delphi/MCprod/cern/wphact24/v99e/199.5/wphact24_4q_199.5_80.4_204777.fadana ! RUN = 204777 ! NEVT = 1999
FILE = /castor/cern.ch/delphi/MCprod/cern/wphact24/v99e/199.5/wphact24_4q_199.5_80.4_204778.fadana ! RUN = 204778 ! NEVT = 1996
FILE = /castor/cern.ch/delphi/MCprod/cern/wphact24/v99e/199.5/wphact24_4q_199.5_80.4_204779.fadana ! RUN = 204779 ! NEVT = 2000
FILE = /castor/cern.ch/delphi/MCprod/cern/wphact24/v99e/199.5/wphact24_4q_199.5_80.4_204780.fadana ! RUN = 204780 ! NEVT = 1999
FILE = /castor/cern.ch/delphi/MCprod/cern/wphact24/v99e/199.5/wphact24_4q_199.5_80.4_204781.fadana ! RUN = 204781 ! NEVT = 1999
FILE = /castor/cern.ch/delphi/MCprod/cern/wphact24/v99e/199.5/wphact24_4q_199.5_80.4_204782.fadana ! RUN = 204782 ! NEVT = 1999
FILE = /castor/cern.ch/delphi/MCprod/cern/wphact24/v99e/199.5/wphact24_4q_199.5_80.4_204783.fadana ! RUN = 204783 ! NEVT = 1999
FILE = /castor/cern.ch/delphi/MCprod/cern/wphact24/v99e/199.5/wphact24_4q_199.5_80.4_204784.fadana ! RUN = 204784 ! NEVT = 1998
FILE = /castor/cern.ch/delphi/MCprod/cern/wphact24/v99e/199.5/wphact24_4q_199.5_80.4_204785.fadana ! RUN = 204785 ! NEVT = 1998
FILE = /castor/cern.ch/delphi/MCprod/cern/wphact24/v99e/199.5/wphact24_4q_199.5_80.4_204786.fadana ! RUN = 204786 ! NEVT = 1999
FILE = /castor/cern.ch/delphi/MCprod/cern/wphact24/v99e/199.5/wphact24_4q_199.5_80.4_204787.fadana ! RUN = 204787 ! NEVT = 1998
FILE = /castor/cern.ch/delphi/MCprod/cern/wphact24/v99e/199.5/wphact24_4q_199.5_80.4_204788.fadana ! RUN = 204788 ! NEVT = 1999
FILE = /castor/cern.ch/delphi/MCprod/cern/wphact24/v99e/199.5/wphact24_4q_199.5_80.4_204789.fadana ! RUN = 204789 ! NEVT = 2000
FILE = /castor/cern.ch/delphi/MCprod/cern/wphact24/v99e/199.5/wphact24_4q_199.5_80.4_204790.fadana ! RUN = 204790 ! NEVT = 2000
FILE = /castor/cern.ch/delphi/MCprod/cern/wphact24/v99e/199.5/wphact24_4q_199.5_80.4_204791.fadana ! RUN = 204791 ! NEVT = 1999
FILE = /castor/cern.ch/delphi/MCprod/cern/wphact24/v99e/199.5/wphact24_4q_199.5_80.4_204792.fadana ! RUN = 204792 ! NEVT = 2000
FILE = /castor/cern.ch/delphi/MCprod/cern/wphact24/v99e/199.5/wphact24_4q_199.5_80.4_204793.fadana ! RUN = 204793 ! NEVT = 1999
FILE = /castor/cern.ch/delphi/MCprod/cern/wphact24/v99e/199.5/wphact24_4q_199.5_80.4_204794.fadana ! RUN = 204794 ! NEVT = 1998
FILE = /castor/cern.ch/delphi/MCprod/cern/wphact24/v99e/199.5/wphact24_4q_199.5_80.4_204795.fadana ! RUN = 204795 ! NEVT = 1998
FILE = /castor/cern.ch/delphi/MCprod/cern/wphact24/v99e/199.5/wphact24_4q_199.5_80.4_204796.fadana ! RUN = 204796 ! NEVT = 2000
FILE = /castor/cern.ch/delphi/MCprod/cern/wphact24/v99e/199.5/wphact24_4q_199.5_80.4_204797.fadana ! RUN = 204797 ! NEVT = 2000
FILE = /castor/cern.ch/delphi/MCprod/cern/wphact24/v99e/199.5/wphact24_4q_199.5_80.4_204798.fadana ! RUN = 204798 ! NEVT = 2000
FILE = /castor/cern.ch/delphi/MCprod/cern/wphact24/v99e/199.5/wphact24_4q_199.5_80.4_204799.fadana ! RUN = 204799 ! NEVT = 1999
FILE = /castor/cern.ch/delphi/MCprod/cern/wphact24/v99e/199.5/wphact24_4q_199.5_80.4_204800.fadana ! RUN = 204800 ! NEVT = 1999
FILE = /castor/cern.ch/delphi/MCprod/cern/wphact24/v99e/199.5/wphact24_4q_199.5_80.4_204801.fadana ! RUN = 204801 ! NEVT = 2000
FILE = /castor/cern.ch/delphi/MCprod/cern/wphact24/v99e/199.5/wphact24_4q_199.5_80.4_204802.fadana ! RUN = 204802 ! NEVT = 2000
FILE = /castor/cern.ch/delphi/MCprod/cern/wphact24/v99e/199.5/wphact24_4q_199.5_80.4_204803.fadana ! RUN = 204803 ! NEVT = 2000
FILE = /castor/cern.ch/delphi/MCprod/cern/wphact24/v99e/199.5/wphact24_4q_199.5_80.4_204804.fadana ! RUN = 204804 ! NEVT = 2000
FILE = /castor/cern.ch/delphi/MCprod/cern/wphact24/v99e/199.5/wphact24_4q_199.5_80.4_204805.fadana ! RUN = 204805 ! NEVT = 2000
FILE = /castor/cern.ch/delphi/MCprod/cern/wphact24/v99e/199.5/wphact24_4q_199.5_80.4_204806.fadana ! RUN = 204806 ! NEVT = 2000
FILE = /castor/cern.ch/delphi/MCprod/cern/wphact24/v99e/199.5/wphact24_4q_199.5_80.4_204807.fadana ! RUN = 204807 ! NEVT = 1999
FILE = /castor/cern.ch/delphi/MCprod/cern/wphact24/v99e/199.5/wphact24_4q_199.5_80.4_204808.fadana ! RUN = 204808 ! NEVT = 1999
FILE = /castor/cern.ch/delphi/MCprod/cern/wphact24/v99e/199.5/wphact24_4q_199.5_80.4_204809.fadana ! RUN = 204809 ! NEVT = 1999
FILE = /castor/cern.ch/delphi/MCprod/cern/wphact24/v99e/199.5/wphact24_4q_199.5_80.4_204810.fadana ! RUN = 204810 ! NEVT = 1999
FILE = /castor/cern.ch/delphi/MCprod/cern/wphact24/v99e/199.5/wphact24_4q_199.5_80.4_204811.fadana ! RUN = 204811 ! NEVT = 2000
FILE = /castor/cern.ch/delphi/MCprod/cern/wphact24/v99e/199.5/wphact24_4q_199.5_80.4_204812.fadana ! RUN = 204812 ! NEVT = 1997
FILE = /castor/cern.ch/delphi/MCprod/cern/wphact24/v99e/199.5/wphact24_4q_199.5_80.4_204813.fadana ! RUN = 204813 ! NEVT = 2000
FILE = /castor/cern.ch/delphi/MCprod/cern/wphact24/v99e/199.5/wphact24_4q_199.5_80.4_204814.fadana ! RUN = 204814 ! NEVT = 1999
FILE = /castor/cern.ch/delphi/MCprod/cern/wphact24/v99e/199.5/wphact24_4q_199.5_80.4_204815.fadana ! RUN = 204815 ! NEVT = 2000
FILE = /castor/cern.ch/delphi/MCprod/cern/wphact24/v99e/199.5/wphact24_4q_199.5_80.4_204816.fadana ! RUN = 204816 ! NEVT = 1998
FILE = /castor/cern.ch/delphi/MCprod/cern/wphact24/v99e/199.5/wphact24_4q_199.5_80.4_204817.fadana ! RUN = 204817 ! NEVT = 2000
FILE = /castor/cern.ch/delphi/MCprod/cern/wphact24/v99e/199.5/wphact24_4q_199.5_80.4_204818.fadana ! RUN = 204818 ! NEVT = 2000
FILE = /castor/cern.ch/delphi/MCprod/cern/wphact24/v99e/199.5/wphact24_4q_199.5_80.4_204819.fadana ! RUN = 204819 ! NEVT = 2000
FILE = /castor/cern.ch/delphi/MCprod/cern/wphact24/v99e/199.5/wphact24_4q_199.5_80.4_204820.fadana ! RUN = 204820 ! NEVT = 1999
FILE = /castor/cern.ch/delphi/MCprod/cern/wphact24/v99e/199.5/wphact24_4q_199.5_80.4_204821.fadana ! RUN = 204821 ! NEVT = 2000
FILE = /castor/cern.ch/delphi/MCprod/cern/wphact24/v99e/199.5/wphact24_4q_199.5_80.4_204822.fadana ! RUN = 204822 ! NEVT = 1999
FILE = /castor/cern.ch/delphi/MCprod/cern/wphact24/v99e/199.5/wphact24_4q_199.5_80.4_204823.fadana ! RUN = 204823 ! NEVT = 2000
FILE = /castor/cern.ch/delphi/MCprod/cern/wphact24/v99e/199.5/wphact24_4q_199.5_80.4_204824.fadana ! RUN = 204824 ! NEVT = 1998
FILE = /castor/cern.ch/delphi/MCprod/cern/wphact24/v99e/199.5/wphact24_4q_199.5_80.4_204825.fadana ! RUN = 204825 ! NEVT = 2000
FILE = /castor/cern.ch/delphi/MCprod/cern/wphact24/v99e/199.5/wphact24_4q_199.5_80.4_204826.fadana ! RUN = 204826 ! NEVT = 1999
FILE = /castor/cern.ch/delphi/MCprod/cern/wphact24/v99e/199.5/wphact24_4q_199.5_80.4_204827.fadana ! RUN = 204827 ! NEVT = 1998
FILE = /castor/cern.ch/delphi/MCprod/cern/wphact24/v99e/199.5/wphact24_4q_199.5_80.4_204828.fadana ! RUN = 204828 ! NEVT = 1998
FILE = /castor/cern.ch/delphi/MCprod/cern/wphact24/v99e/199.5/wphact24_4q_199.5_80.4_204829.fadana ! RUN = 204829 ! NEVT = 1999
FILE = /castor/cern.ch/delphi/MCprod/cern/wphact24/v99e/199.5/wphact24_4q_199.5_80.4_204830.fadana ! RUN = 204830 ! NEVT = 1999
FILE = /castor/cern.ch/delphi/MCprod/cern/wphact24/v99e/199.5/wphact24_4q_199.5_80.4_204831.fadana ! RUN = 204831 ! NEVT = 1999
FILE = /castor/cern.ch/delphi/MCprod/cern/wphact24/v99e/199.5/wphact24_4q_199.5_80.4_204832.fadana ! RUN = 204832 ! NEVT = 2000
FILE = /castor/cern.ch/delphi/MCprod/cern/wphact24/v99e/199.5/wphact24_4q_199.5_80.4_204833.fadana ! RUN = 204833 ! NEVT = 2000
FILE = /castor/cern.ch/delphi/MCprod/cern/wphact24/v99e/199.5/wphact24_4q_199.5_80.4_204834.fadana ! RUN = 204834 ! NEVT = 1999
FILE = /castor/cern.ch/delphi/MCprod/cern/wphact24/v99e/199.5/wphact24_4q_199.5_80.4_204835.fadana ! RUN = 204835 ! NEVT = 1998
FILE = /castor/cern.ch/delphi/MCprod/cern/wphact24/v99e/199.5/wphact24_4q_199.5_80.4_204836.fadana ! RUN = 204836 ! NEVT = 2000
FILE = /castor/cern.ch/delphi/MCprod/cern/wphact24/v99e/199.5/wphact24_4q_199.5_80.4_204837.fadana ! RUN = 204837 ! NEVT = 1999
FILE = /castor/cern.ch/delphi/MCprod/cern/wphact24/v99e/199.5/wphact24_4q_199.5_80.4_204838.fadana ! RUN = 204838 ! NEVT = 1999
FILE = /castor/cern.ch/delphi/MCprod/cern/wphact24/v99e/199.5/wphact24_4q_199.5_80.4_204839.fadana ! RUN = 204839 ! NEVT = 2000
FILE = /castor/cern.ch/delphi/MCprod/cern/wphact24/v99e/199.5/wphact24_4q_199.5_80.4_204840.fadana ! RUN = 204840 ! NEVT = 1999
FILE = /castor/cern.ch/delphi/MCprod/cern/wphact24/v99e/199.5/wphact24_4q_199.5_80.4_204841.fadana ! RUN = 204841 ! NEVT = 1997
FILE = /castor/cern.ch/delphi/MCprod/cern/wphact24/v99e/199.5/wphact24_4q_199.5_80.4_204842.fadana ! RUN = 204842 ! NEVT = 1999
FILE = /castor/cern.ch/delphi/MCprod/cern/wphact24/v99e/199.5/wphact24_4q_199.5_80.4_204843.fadana ! RUN = 204843 ! NEVT = 1999
FILE = /castor/cern.ch/delphi/MCprod/cern/wphact24/v99e/199.5/wphact24_4q_199.5_80.4_204844.fadana ! RUN = 204844 ! NEVT = 1999
FILE = /castor/cern.ch/delphi/MCprod/cern/wphact24/v99e/199.5/wphact24_4q_199.5_80.4_204845.fadana ! RUN = 204845 ! NEVT = 2000
FILE = /castor/cern.ch/delphi/MCprod/cern/wphact24/v99e/199.5/wphact24_4q_199.5_80.4_204846.fadana ! RUN = 204846 ! NEVT = 2000
FILE = /castor/cern.ch/delphi/MCprod/cern/wphact24/v99e/199.5/wphact24_4q_199.5_80.4_204847.fadana ! RUN = 204847 ! NEVT = 1999
FILE = /castor/cern.ch/delphi/MCprod/cern/wphact24/v99e/199.5/wphact24_4q_199.5_80.4_204848.fadana ! RUN = 204848 ! NEVT = 1998
FILE = /castor/cern.ch/delphi/MCprod/cern/wphact24/v99e/199.5/wphact24_4q_199.5_80.4_204849.fadana ! RUN = 204849 ! NEVT = 2000
FILE = /castor/cern.ch/delphi/MCprod/cern/wphact24/v99e/199.5/wphact24_4q_199.5_80.4_204850.fadana ! RUN = 204850 ! NEVT = 2000
FILE = /castor/cern.ch/delphi/MCprod/cern/wphact24/v99e/199.5/wphact24_4q_199.5_80.4_204851.fadana ! RUN = 204851 ! NEVT = 1999
FILE = /castor/cern.ch/delphi/MCprod/cern/wphact24/v99e/199.5/wphact24_4q_199.5_80.4_204852.fadana ! RUN = 204852 ! NEVT = 1998
FILE = /castor/cern.ch/delphi/MCprod/cern/wphact24/v99e/199.5/wphact24_4q_199.5_80.4_204853.fadana ! RUN = 204853 ! NEVT = 1998
FILE = /castor/cern.ch/delphi/MCprod/cern/wphact24/v99e/199.5/wphact24_4q_199.5_80.4_204854.fadana ! RUN = 204854 ! NEVT = 2000
FILE = /castor/cern.ch/delphi/MCprod/cern/wphact24/v99e/199.5/wphact24_4q_199.5_80.4_204855.fadana ! RUN = 204855 ! NEVT = 2000
FILE = /castor/cern.ch/delphi/MCprod/cern/wphact24/v99e/199.5/wphact24_4q_199.5_80.4_204856.fadana ! RUN = 204856 ! NEVT = 1997
FILE = /castor/cern.ch/delphi/MCprod/cern/wphact24/v99e/199.5/wphact24_4q_199.5_80.4_204857.fadana ! RUN = 204857 ! NEVT = 1999
FILE = /castor/cern.ch/delphi/MCprod/cern/wphact24/v99e/199.5/wphact24_4q_199.5_80.4_204858.fadana ! RUN = 204858 ! NEVT = 1998
FILE = /castor/cern.ch/delphi/MCprod/cern/wphact24/v99e/199.5/wphact24_4q_199.5_80.4_204859.fadana ! RUN = 204859 ! NEVT = 1998
FILE = /castor/cern.ch/delphi/MCprod/cern/wphact24/v99e/199.5/wphact24_4q_199.5_80.4_204860.fadana ! RUN = 204860 ! NEVT = 2000
FILE = /castor/cern.ch/delphi/MCprod/cern/wphact24/v99e/199.5/wphact24_4q_199.5_80.4_204861.fadana ! RUN = 204861 ! NEVT = 1999
FILE = /castor/cern.ch/delphi/MCprod/cern/wphact24/v99e/199.5/wphact24_4q_199.5_80.4_204862.fadana ! RUN = 204862 ! NEVT = 1998
FILE = /castor/cern.ch/delphi/MCprod/cern/wphact24/v99e/199.5/wphact24_4q_199.5_80.4_204863.fadana ! RUN = 204863 ! NEVT = 2000
FILE = /castor/cern.ch/delphi/MCprod/cern/wphact24/v99e/199.5/wphact24_4q_199.5_80.4_204864.fadana ! RUN = 204864 ! NEVT = 1998
FILE = /castor/cern.ch/delphi/MCprod/cern/wphact24/v99e/199.5/wphact24_4q_199.5_80.4_204865.fadana ! RUN = 204865 ! NEVT = 2000
FILE = /castor/cern.ch/delphi/MCprod/cern/wphact24/v99e/199.5/wphact24_4q_199.5_80.4_204866.fadana ! RUN = 204866 ! NEVT = 2000
FILE = /castor/cern.ch/delphi/MCprod/cern/wphact24/v99e/199.5/wphact24_4q_199.5_80.4_204867.fadana ! RUN = 204867 ! NEVT = 1999
FILE = /castor/cern.ch/delphi/MCprod/cern/wphact24/v99e/199.5/wphact24_4q_199.5_80.4_204868.fadana ! RUN = 204868 ! NEVT = 1999
FILE = /castor/cern.ch/delphi/MCprod/cern/wphact24/v99e/199.5/wphact24_4q_199.5_80.4_204869.fadana ! RUN = 204869 ! NEVT = 2000
FILE = /castor/cern.ch/delphi/MCprod/cern/wphact24/v99e/199.5/wphact24_4q_199.5_80.4_204870.fadana ! RUN = 204870 ! NEVT = 1999
FILE = /castor/cern.ch/delphi/MCprod/cern/wphact24/v99e/199.5/wphact24_4q_199.5_80.4_204871.fadana ! RUN = 204871 ! NEVT = 1999
FILE = /castor/cern.ch/delphi/MCprod/cern/wphact24/v99e/199.5/wphact24_4q_199.5_80.4_204872.fadana ! RUN = 204872 ! NEVT = 1999
FILE = /castor/cern.ch/delphi/MCprod/cern/wphact24/v99e/199.5/wphact24_4q_199.5_80.4_204873.fadana ! RUN = 204873 ! NEVT = 1999
FILE = /castor/cern.ch/delphi/MCprod/cern/wphact24/v99e/199.5/wphact24_4q_199.5_80.4_204874.fadana ! RUN = 204874 ! NEVT = 2000
FILE = /castor/cern.ch/delphi/MCprod/cern/wphact24/v99e/199.5/wphact24_4q_199.5_80.4_204875.fadana ! RUN = 204875 ! NEVT = 2000
FILE = /castor/cern.ch/delphi/MCprod/cern/wphact24/v99e/199.5/wphact24_4q_199.5_80.4_204876.fadana ! RUN = 204876 ! NEVT = 1996
FILE = /castor/cern.ch/delphi/MCprod/cern/wphact24/v99e/199.5/wphact24_4q_199.5_80.4_204877.fadana ! RUN = 204877 ! NEVT = 1997
FILE = /castor/cern.ch/delphi/MCprod/cern/wphact24/v99e/199.5/wphact24_4q_199.5_80.4_204878.fadana ! RUN = 204878 ! NEVT = 2000
FILE = /castor/cern.ch/delphi/MCprod/cern/wphact24/v99e/199.5/wphact24_4q_199.5_80.4_204879.fadana ! RUN = 204879 ! NEVT = 1998
FILE = /castor/cern.ch/delphi/MCprod/cern/wphact24/v99e/199.5/wphact24_4q_199.5_80.4_204880.fadana ! RUN = 204880 ! NEVT = 1998
FILE = /castor/cern.ch/delphi/MCprod/cern/wphact24/v99e/199.5/wphact24_4q_199.5_80.4_204881.fadana ! RUN = 204881 ! NEVT = 2000
FILE = /castor/cern.ch/delphi/MCprod/cern/wphact24/v99e/199.5/wphact24_4q_199.5_80.4_204882.fadana ! RUN = 204882 ! NEVT = 1998
FILE = /castor/cern.ch/delphi/MCprod/cern/wphact24/v99e/199.5/wphact24_4q_199.5_80.4_204883.fadana ! RUN = 204883 ! NEVT = 1999
FILE = /castor/cern.ch/delphi/MCprod/cern/wphact24/v99e/199.5/wphact24_4q_199.5_80.4_204884.fadana ! RUN = 204884 ! NEVT = 1999
FILE = /castor/cern.ch/delphi/MCprod/cern/wphact24/v99e/199.5/wphact24_4q_199.5_80.4_204885.fadana ! RUN = 204885 ! NEVT = 2000
FILE = /castor/cern.ch/delphi/MCprod/cern/wphact24/v99e/199.5/wphact24_4q_199.5_80.4_204886.fadana ! RUN = 204886 ! NEVT = 1998
FILE = /castor/cern.ch/delphi/MCprod/cern/wphact24/v99e/199.5/wphact24_4q_199.5_80.4_204887.fadana ! RUN = 204887 ! NEVT = 1998
FILE = /castor/cern.ch/delphi/MCprod/cern/wphact24/v99e/199.5/wphact24_4q_199.5_80.4_204888.fadana ! RUN = 204888 ! NEVT = 2000
FILE = /castor/cern.ch/delphi/MCprod/cern/wphact24/v99e/199.5/wphact24_4q_199.5_80.4_204889.fadana ! RUN = 204889 ! NEVT = 1999
FILE = /castor/cern.ch/delphi/MCprod/cern/wphact24/v99e/199.5/wphact24_4q_199.5_80.4_204891.fadana ! RUN = 204891 ! NEVT = 2000
FILE = /castor/cern.ch/delphi/MCprod/cern/wphact24/v99e/199.5/wphact24_4q_199.5_80.4_204892.fadana ! RUN = 204892 ! NEVT = 2000
FILE = /castor/cern.ch/delphi/MCprod/cern/wphact24/v99e/199.5/wphact24_4q_199.5_80.4_204893.fadana ! RUN = 204893 ! NEVT = 2000
FILE = /castor/cern.ch/delphi/MCprod/cern/wphact24/v99e/199.5/wphact24_4q_199.5_80.4_204894.fadana ! RUN = 204894 ! NEVT = 2000
FILE = /castor/cern.ch/delphi/MCprod/cern/wphact24/v99e/199.5/wphact24_4q_199.5_80.4_204895.fadana ! RUN = 204895 ! NEVT = 1999
FILE = /castor/cern.ch/delphi/MCprod/cern/wphact24/v99e/199.5/wphact24_4q_199.5_80.4_204896.fadana ! RUN = 204896 ! NEVT = 2000
FILE = /castor/cern.ch/delphi/MCprod/cern/wphact24/v99e/199.5/wphact24_4q_199.5_80.4_204897.fadana ! RUN = 204897 ! NEVT = 2000
FILE = /castor/cern.ch/delphi/MCprod/cern/wphact24/v99e/199.5/wphact24_4q_199.5_80.4_204898.fadana ! RUN = 204898 ! NEVT = 1999
FILE = /castor/cern.ch/delphi/MCprod/cern/wphact24/v99e/199.5/wphact24_4q_199.5_80.4_204899.fadana ! RUN = 204899 ! NEVT = 1998
FILE = /castor/cern.ch/delphi/MCprod/cern/wphact24/v99e/199.5/wphact24_4q_199.5_80.4_204900.fadana ! RUN = 204900 ! NEVT = 2000
FILE = /castor/cern.ch/delphi/MCprod/cern/wphact24/v99e/199.5/wphact24_4q_199.5_80.4_204901.fadana ! RUN = 204901 ! NEVT = 1999
FILE = /castor/cern.ch/delphi/MCprod/cern/wphact24/v99e/199.5/wphact24_4q_199.5_80.4_204902.fadana ! RUN = 204902 ! NEVT = 1999
FILE = /castor/cern.ch/delphi/MCprod/cern/wphact24/v99e/199.5/wphact24_4q_199.5_80.4_204903.fadana ! RUN = 204903 ! NEVT = 2000
FILE = /castor/cern.ch/delphi/MCprod/cern/wphact24/v99e/199.5/wphact24_4q_199.5_80.4_204904.fadana ! RUN = 204904 ! NEVT = 1999
FILE = /castor/cern.ch/delphi/MCprod/cern/wphact24/v99e/199.5/wphact24_4q_199.5_80.4_204905.fadana ! RUN = 204905 ! NEVT = 1998
FILE = /castor/cern.ch/delphi/MCprod/cern/wphact24/v99e/199.5/wphact24_4q_199.5_80.4_204906.fadana ! RUN = 204906 ! NEVT = 1999
FILE = /castor/cern.ch/delphi/MCprod/cern/wphact24/v99e/199.5/wphact24_4q_199.5_80.4_204907.fadana ! RUN = 204907 ! NEVT = 85
FILE = /castor/cern.ch/delphi/MCprod/cern/wphact24/v99e/199.5/wphact24_4q_199.5_80.4_204908.fadana ! RUN = 204908 ! NEVT = 2000
FILE = /castor/cern.ch/delphi/MCprod/cern/wphact24/v99e/199.5/wphact24_4q_199.5_80.4_204909.fadana ! RUN = 204909 ! NEVT = 1999
FILE = /castor/cern.ch/delphi/MCprod/cern/wphact24/v99e/199.5/wphact24_4q_199.5_80.4_204910.fadana ! RUN = 204910 ! NEVT = 1998
FILE = /castor/cern.ch/delphi/MCprod/cern/wphact24/v99e/199.5/wphact24_4q_199.5_80.4_204911.fadana ! RUN = 204911 ! NEVT = 2000
FILE = /castor/cern.ch/delphi/MCprod/cern/wphact24/v99e/199.5/wphact24_4q_199.5_80.4_204912.fadana ! RUN = 204912 ! NEVT = 1998
FILE = /castor/cern.ch/delphi/MCprod/cern/wphact24/v99e/199.5/wphact24_4q_199.5_80.4_204913.fadana ! RUN = 204913 ! NEVT = 1999
FILE = /castor/cern.ch/delphi/MCprod/cern/wphact24/v99e/199.5/wphact24_4q_199.5_80.4_204914.fadana ! RUN = 204914 ! NEVT = 1998
FILE = /castor/cern.ch/delphi/MCprod/cern/wphact24/v99e/199.5/wphact24_4q_199.5_80.4_204915.fadana ! RUN = 204915 ! NEVT = 1999
FILE = /castor/cern.ch/delphi/MCprod/cern/wphact24/v99e/199.5/wphact24_4q_199.5_80.4_204916.fadana ! RUN = 204916 ! NEVT = 1999
FILE = /castor/cern.ch/delphi/MCprod/cern/wphact24/v99e/199.5/wphact24_4q_199.5_80.4_204917.fadana ! RUN = 204917 ! NEVT = 2000
FILE = /castor/cern.ch/delphi/MCprod/cern/wphact24/v99e/199.5/wphact24_4q_199.5_80.4_204918.fadana ! RUN = 204918 ! NEVT = 1999
FILE = /castor/cern.ch/delphi/MCprod/cern/wphact24/v99e/199.5/wphact24_4q_199.5_80.4_204919.fadana ! RUN = 204919 ! NEVT = 1999
FILE = /castor/cern.ch/delphi/MCprod/cern/wphact24/v99e/199.5/wphact24_4q_199.5_80.4_204920.fadana ! RUN = 204920 ! NEVT = 1999
FILE = /castor/cern.ch/delphi/MCprod/cern/wphact24/v99e/199.5/wphact24_4q_199.5_80.4_204921.fadana ! RUN = 204921 ! NEVT = 2000
FILE = /castor/cern.ch/delphi/MCprod/cern/wphact24/v99e/199.5/wphact24_4q_199.5_80.4_204922.fadana ! RUN = 204922 ! NEVT = 2000
FILE = /castor/cern.ch/delphi/MCprod/cern/wphact24/v99e/199.5/wphact24_4q_199.5_80.4_204923.fadana ! RUN = 204923 ! NEVT = 1998
FILE = /castor/cern.ch/delphi/MCprod/cern/wphact24/v99e/199.5/wphact24_4q_199.5_80.4_204924.fadana ! RUN = 204924 ! NEVT = 2000
FILE = /castor/cern.ch/delphi/MCprod/cern/wphact24/v99e/199.5/wphact24_4q_199.5_80.4_204925.fadana ! RUN = 204925 ! NEVT = 2000
FILE = /castor/cern.ch/delphi/MCprod/cern/wphact24/v99e/199.5/wphact24_4q_199.5_80.4_204926.fadana ! RUN = 204926 ! NEVT = 2000
FILE = /castor/cern.ch/delphi/MCprod/cern/wphact24/v99e/199.5/wphact24_4q_199.5_80.4_204927.fadana ! RUN = 204927 ! NEVT = 1999
FILE = /castor/cern.ch/delphi/MCprod/cern/wphact24/v99e/199.5/wphact24_4q_199.5_80.4_204928.fadana ! RUN = 204928 ! NEVT = 2000
FILE = /castor/cern.ch/delphi/MCprod/cern/wphact24/v99e/199.5/wphact24_4q_199.5_80.4_204929.fadana ! RUN = 204929 ! NEVT = 1998
FILE = /castor/cern.ch/delphi/MCprod/cern/wphact24/v99e/199.5/wphact24_4q_199.5_80.4_204930.fadana ! RUN = 204930 ! NEVT = 1998
FILE = /castor/cern.ch/delphi/MCprod/cern/wphact24/v99e/199.5/wphact24_4q_199.5_80.4_204931.fadana ! RUN = 204931 ! NEVT = 1999
FILE = /castor/cern.ch/delphi/MCprod/cern/wphact24/v99e/199.5/wphact24_4q_199.5_80.4_204932.fadana ! RUN = 204932 ! NEVT = 1999
FILE = /castor/cern.ch/delphi/MCprod/cern/wphact24/v99e/199.5/wphact24_4q_199.5_80.4_204933.fadana ! RUN = 204933 ! NEVT = 1998
FILE = /castor/cern.ch/delphi/MCprod/cern/wphact24/v99e/199.5/wphact24_4q_199.5_80.4_204934.fadana ! RUN = 204934 ! NEVT = 1998
FILE = /castor/cern.ch/delphi/MCprod/cern/wphact24/v99e/199.5/wphact24_4q_199.5_80.4_204935.fadana ! RUN = 204935 ! NEVT = 1999
FILE = /castor/cern.ch/delphi/MCprod/cern/wphact24/v99e/199.5/wphact24_4q_199.5_80.4_204936.fadana ! RUN = 204936 ! NEVT = 2000
FILE = /castor/cern.ch/delphi/MCprod/cern/wphact24/v99e/199.5/wphact24_4q_199.5_80.4_204937.fadana ! RUN = 204937 ! NEVT = 1999
FILE = /castor/cern.ch/delphi/MCprod/cern/wphact24/v99e/199.5/wphact24_4q_199.5_80.4_204938.fadana ! RUN = 204938 ! NEVT = 1998
FILE = /castor/cern.ch/delphi/MCprod/cern/wphact24/v99e/199.5/wphact24_4q_199.5_80.4_204939.fadana ! RUN = 204939 ! NEVT = 2000
FILE = /castor/cern.ch/delphi/MCprod/cern/wphact24/v99e/199.5/wphact24_4q_199.5_80.4_204940.fadana ! RUN = 204940 ! NEVT = 1999
FILE = /castor/cern.ch/delphi/MCprod/cern/wphact24/v99e/199.5/wphact24_4q_199.5_80.4_204941.fadana ! RUN = 204941 ! NEVT = 1997
FILE = /castor/cern.ch/delphi/MCprod/cern/wphact24/v99e/199.5/wphact24_4q_199.5_80.4_204942.fadana ! RUN = 204942 ! NEVT = 1997
FILE = /castor/cern.ch/delphi/MCprod/cern/wphact24/v99e/199.5/wphact24_4q_199.5_80.4_204943.fadana ! RUN = 204943 ! NEVT = 2000
FILE = /castor/cern.ch/delphi/MCprod/cern/wphact24/v99e/199.5/wphact24_4q_199.5_80.4_204944.fadana ! RUN = 204944 ! NEVT = 1998
FILE = /castor/cern.ch/delphi/MCprod/cern/wphact24/v99e/199.5/wphact24_4q_199.5_80.4_204945.fadana ! RUN = 204945 ! NEVT = 1998
FILE = /castor/cern.ch/delphi/MCprod/cern/wphact24/v99e/199.5/wphact24_4q_199.5_80.4_204946.fadana ! RUN = 204946 ! NEVT = 2000
FILE = /castor/cern.ch/delphi/MCprod/cern/wphact24/v99e/199.5/wphact24_4q_199.5_80.4_204947.fadana ! RUN = 204947 ! NEVT = 1997
FILE = /castor/cern.ch/delphi/MCprod/cern/wphact24/v99e/199.5/wphact24_4q_199.5_80.4_204948.fadana ! RUN = 204948 ! NEVT = 2000
FILE = /castor/cern.ch/delphi/MCprod/cern/wphact24/v99e/199.5/wphact24_4q_199.5_80.4_204949.fadana ! RUN = 204949 ! NEVT = 2000
FILE = /castor/cern.ch/delphi/MCprod/cern/wphact24/v99e/199.5/wphact24_4q_199.5_80.4_204950.fadana ! RUN = 204950 ! NEVT = 1998
FILE = /castor/cern.ch/delphi/MCprod/cern/wphact24/v99e/199.5/wphact24_4q_199.5_80.4_204951.fadana ! RUN = 204951 ! NEVT = 2000
FILE = /castor/cern.ch/delphi/MCprod/cern/wphact24/v99e/199.5/wphact24_4q_199.5_80.4_204952.fadana ! RUN = 204952 ! NEVT = 1997
FILE = /castor/cern.ch/delphi/MCprod/cern/wphact24/v99e/199.5/wphact24_4q_199.5_80.4_204953.fadana ! RUN = 204953 ! NEVT = 1998
FILE = /castor/cern.ch/delphi/MCprod/cern/wphact24/v99e/199.5/wphact24_4q_199.5_80.4_204954.fadana ! RUN = 204954 ! NEVT = 1997
FILE = /castor/cern.ch/delphi/MCprod/cern/wphact24/v99e/199.5/wphact24_4q_199.5_80.4_204955.fadana ! RUN = 204955 ! NEVT = 1999
FILE = /castor/cern.ch/delphi/MCprod/cern/wphact24/v99e/199.5/wphact24_4q_199.5_80.4_204956.fadana ! RUN = 204956 ! NEVT = 1999
FILE = /castor/cern.ch/delphi/MCprod/cern/wphact24/v99e/199.5/wphact24_4q_199.5_80.4_204957.fadana ! RUN = 204957 ! NEVT = 1999
FILE = /castor/cern.ch/delphi/MCprod/cern/wphact24/v99e/199.5/wphact24_4q_199.5_80.4_204958.fadana ! RUN = 204958 ! NEVT = 1999
FILE = /castor/cern.ch/delphi/MCprod/cern/wphact24/v99e/199.5/wphact24_4q_199.5_80.4_204959.fadana ! RUN = 204959 ! NEVT = 1999
FILE = /castor/cern.ch/delphi/MCprod/cern/wphact24/v99e/199.5/wphact24_4q_199.5_80.4_204960.fadana ! RUN = 204960 ! NEVT = 1999
FILE = /castor/cern.ch/delphi/MCprod/cern/wphact24/v99e/199.5/wphact24_4q_199.5_80.4_204961.fadana ! RUN = 204961 ! NEVT = 2000
FILE = /castor/cern.ch/delphi/MCprod/cern/wphact24/v99e/199.5/wphact24_4q_199.5_80.4_204962.fadana ! RUN = 204962 ! NEVT = 1999
FILE = /castor/cern.ch/delphi/MCprod/cern/wphact24/v99e/199.5/wphact24_4q_199.5_80.4_204963.fadana ! RUN = 204963 ! NEVT = 1999
FILE = /castor/cern.ch/delphi/MCprod/cern/wphact24/v99e/199.5/wphact24_4q_199.5_80.4_204964.fadana ! RUN = 204964 ! NEVT = 1999
FILE = /castor/cern.ch/delphi/MCprod/cern/wphact24/v99e/199.5/wphact24_4q_199.5_80.4_204965.fadana ! RUN = 204965 ! NEVT = 1999
FILE = /castor/cern.ch/delphi/MCprod/cern/wphact24/v99e/199.5/wphact24_4q_199.5_80.4_204966.fadana ! RUN = 204966 ! NEVT = 1998
FILE = /castor/cern.ch/delphi/MCprod/cern/wphact24/v99e/199.5/wphact24_4q_199.5_80.4_204967.fadana ! RUN = 204967 ! NEVT = 1999
FILE = /castor/cern.ch/delphi/MCprod/cern/wphact24/v99e/199.5/wphact24_4q_199.5_80.4_204968.fadana ! RUN = 204968 ! NEVT = 1620
FILE = /castor/cern.ch/delphi/MCprod/cern/wphact24/v99e/199.5/wphact24_4q_199.5_80.4_204969.fadana ! RUN = 204969 ! NEVT = 1999
FILE = /castor/cern.ch/delphi/MCprod/cern/wphact24/v99e/199.5/wphact24_4q_199.5_80.4_204970.fadana ! RUN = 204970 ! NEVT = 1999
FILE = /castor/cern.ch/delphi/MCprod/cern/wphact24/v99e/199.5/wphact24_4q_199.5_80.4_204971.fadana ! RUN = 204971 ! NEVT = 1998
FILE = /castor/cern.ch/delphi/MCprod/cern/wphact24/v99e/199.5/wphact24_4q_199.5_80.4_204972.fadana ! RUN = 204972 ! NEVT = 2000
FILE = /castor/cern.ch/delphi/MCprod/cern/wphact24/v99e/199.5/wphact24_4q_199.5_80.4_204973.fadana ! RUN = 204973 ! NEVT = 2000
FILE = /castor/cern.ch/delphi/MCprod/cern/wphact24/v99e/199.5/wphact24_4q_199.5_80.4_204974.fadana ! RUN = 204974 ! NEVT = 1999
FILE = /castor/cern.ch/delphi/MCprod/cern/wphact24/v99e/199.5/wphact24_4q_199.5_80.4_204975.fadana ! RUN = 204975 ! NEVT = 2000
FILE = /castor/cern.ch/delphi/MCprod/cern/wphact24/v99e/199.5/wphact24_4q_199.5_80.4_204976.fadana ! RUN = 204976 ! NEVT = 1997
FILE = /castor/cern.ch/delphi/MCprod/cern/wphact24/v99e/199.5/wphact24_4q_199.5_80.4_204977.fadana ! RUN = 204977 ! NEVT = 2000
FILE = /castor/cern.ch/delphi/MCprod/cern/wphact24/v99e/199.5/wphact24_4q_199.5_80.4_204978.fadana ! RUN = 204978 ! NEVT = 1999
FILE = /castor/cern.ch/delphi/MCprod/cern/wphact24/v99e/199.5/wphact24_4q_199.5_80.4_204979.fadana ! RUN = 204979 ! NEVT = 1999
FILE = /castor/cern.ch/delphi/MCprod/cern/wphact24/v99e/199.5/wphact24_4q_199.5_80.4_204980.fadana ! RUN = 204980 ! NEVT = 725
FILE = /castor/cern.ch/delphi/MCprod/cern/wphact24/v99e/199.5/wphact24_4q_199.5_80.4_204981.fadana ! RUN = 204981 ! NEVT = 2000
FILE = /castor/cern.ch/delphi/MCprod/cern/wphact24/v99e/199.5/wphact24_4q_199.5_80.4_204982.fadana ! RUN = 204982 ! NEVT = 2000
FILE = /castor/cern.ch/delphi/MCprod/cern/wphact24/v99e/199.5/wphact24_4q_199.5_80.4_204983.fadana ! RUN = 204983 ! NEVT = 1999
FILE = /castor/cern.ch/delphi/MCprod/cern/wphact24/v99e/199.5/wphact24_4q_199.5_80.4_204984.fadana ! RUN = 204984 ! NEVT = 1998
FILE = /castor/cern.ch/delphi/MCprod/cern/wphact24/v99e/199.5/wphact24_4q_199.5_80.4_204985.fadana ! RUN = 204985 ! NEVT = 1999
FILE = /castor/cern.ch/delphi/MCprod/cern/wphact24/v99e/199.5/wphact24_4q_199.5_80.4_204986.fadana ! RUN = 204986 ! NEVT = 1997
FILE = /castor/cern.ch/delphi/MCprod/cern/wphact24/v99e/199.5/wphact24_4q_199.5_80.4_204987.fadana ! RUN = 204987 ! NEVT = 1998
FILE = /castor/cern.ch/delphi/MCprod/cern/wphact24/v99e/199.5/wphact24_4q_199.5_80.4_204988.fadana ! RUN = 204988 ! NEVT = 1999
FILE = /castor/cern.ch/delphi/MCprod/cern/wphact24/v99e/199.5/wphact24_4q_199.5_80.4_204989.fadana ! RUN = 204989 ! NEVT = 1998
FILE = /castor/cern.ch/delphi/MCprod/cern/wphact24/v99e/199.5/wphact24_4q_199.5_80.4_204990.fadana ! RUN = 204990 ! NEVT = 1999
FILE = /castor/cern.ch/delphi/MCprod/cern/wphact24/v99e/199.5/wphact24_4q_199.5_80.4_204991.fadana ! RUN = 204991 ! NEVT = 1999
FILE = /castor/cern.ch/delphi/MCprod/cern/wphact24/v99e/199.5/wphact24_4q_199.5_80.4_204992.fadana ! RUN = 204992 ! NEVT = 1999
FILE = /castor/cern.ch/delphi/MCprod/cern/wphact24/v99e/199.5/wphact24_4q_199.5_80.4_204993.fadana ! RUN = 204993 ! NEVT = 2000
FILE = /castor/cern.ch/delphi/MCprod/cern/wphact24/v99e/199.5/wphact24_4q_199.5_80.4_204994.fadana ! RUN = 204994 ! NEVT = 2000
FILE = /castor/cern.ch/delphi/MCprod/cern/wphact24/v99e/199.5/wphact24_4q_199.5_80.4_204995.fadana ! RUN = 204995 ! NEVT = 1999
FILE = /castor/cern.ch/delphi/MCprod/cern/wphact24/v99e/199.5/wphact24_4q_199.5_80.4_204996.fadana ! RUN = 204996 ! NEVT = 2000
FILE = /castor/cern.ch/delphi/MCprod/cern/wphact24/v99e/199.5/wphact24_4q_199.5_80.4_204997.fadana ! RUN = 204997 ! NEVT = 2000
FILE = /castor/cern.ch/delphi/MCprod/cern/wphact24/v99e/199.5/wphact24_4q_199.5_80.4_204998.fadana ! RUN = 204998 ! NEVT = 1999
FILE = /castor/cern.ch/delphi/MCprod/cern/wphact24/v99e/199.5/wphact24_4q_199.5_80.4_204999.fadana ! RUN = 204999 ! NEVT = 2000
FILE = /castor/cern.ch/delphi/MCprod/cern/wphact24/v99e/199.5/wphact24_4q_199.5_80.4_205000.fadana ! RUN = 205000 ! NEVT = 1999
FILE = /castor/cern.ch/delphi/MCprod/cern/wphact24/v99e/199.5/wphact24_4q_199.5_80.4_205501.fadana ! RUN = 205501 ! NEVT = 2000
FILE = /castor/cern.ch/delphi/MCprod/cern/wphact24/v99e/199.5/wphact24_4q_199.5_80.4_205502.fadana ! RUN = 205502 ! NEVT = 1999
FILE = /castor/cern.ch/delphi/MCprod/cern/wphact24/v99e/199.5/wphact24_4q_199.5_80.4_205503.fadana ! RUN = 205503 ! NEVT = 1999
FILE = /castor/cern.ch/delphi/MCprod/cern/wphact24/v99e/199.5/wphact24_4q_199.5_80.4_205504.fadana ! RUN = 205504 ! NEVT = 1999
FILE = /castor/cern.ch/delphi/MCprod/cern/wphact24/v99e/199.5/wphact24_4q_199.5_80.4_205505.fadana ! RUN = 205505 ! NEVT = 1998
FILE = /castor/cern.ch/delphi/MCprod/cern/wphact24/v99e/199.5/wphact24_4q_199.5_80.4_205506.fadana ! RUN = 205506 ! NEVT = 1997
FILE = /castor/cern.ch/delphi/MCprod/cern/wphact24/v99e/199.5/wphact24_4q_199.5_80.4_205507.fadana ! RUN = 205507 ! NEVT = 1998
FILE = /castor/cern.ch/delphi/MCprod/cern/wphact24/v99e/199.5/wphact24_4q_199.5_80.4_205508.fadana ! RUN = 205508 ! NEVT = 2000
FILE = /castor/cern.ch/delphi/MCprod/cern/wphact24/v99e/199.5/wphact24_4q_199.5_80.4_205509.fadana ! RUN = 205509 ! NEVT = 1999
FILE = /castor/cern.ch/delphi/MCprod/cern/wphact24/v99e/199.5/wphact24_4q_199.5_80.4_205510.fadana ! RUN = 205510 ! NEVT = 2000
FILE = /castor/cern.ch/delphi/MCprod/cern/wphact24/v99e/199.5/wphact24_4q_199.5_80.4_205511.fadana ! RUN = 205511 ! NEVT = 2000
FILE = /castor/cern.ch/delphi/MCprod/cern/wphact24/v99e/199.5/wphact24_4q_199.5_80.4_205512.fadana ! RUN = 205512 ! NEVT = 1999
FILE = /castor/cern.ch/delphi/MCprod/cern/wphact24/v99e/199.5/wphact24_4q_199.5_80.4_205513.fadana ! RUN = 205513 ! NEVT = 1998
FILE = /castor/cern.ch/delphi/MCprod/cern/wphact24/v99e/199.5/wphact24_4q_199.5_80.4_205514.fadana ! RUN = 205514 ! NEVT = 2000
FILE = /castor/cern.ch/delphi/MCprod/cern/wphact24/v99e/199.5/wphact24_4q_199.5_80.4_205515.fadana ! RUN = 205515 ! NEVT = 2000
FILE = /castor/cern.ch/delphi/MCprod/cern/wphact24/v99e/199.5/wphact24_4q_199.5_80.4_205516.fadana ! RUN = 205516 ! NEVT = 2000
FILE = /castor/cern.ch/delphi/MCprod/cern/wphact24/v99e/199.5/wphact24_4q_199.5_80.4_205517.fadana ! RUN = 205517 ! NEVT = 1999
FILE = /castor/cern.ch/delphi/MCprod/cern/wphact24/v99e/199.5/wphact24_4q_199.5_80.4_205518.fadana ! RUN = 205518 ! NEVT = 1999
FILE = /castor/cern.ch/delphi/MCprod/cern/wphact24/v99e/199.5/wphact24_4q_199.5_80.4_205519.fadana ! RUN = 205519 ! NEVT = 2000
FILE = /castor/cern.ch/delphi/MCprod/cern/wphact24/v99e/199.5/wphact24_4q_199.5_80.4_205520.fadana ! RUN = 205520 ! NEVT = 2000
FILE = /castor/cern.ch/delphi/MCprod/cern/wphact24/v99e/199.5/wphact24_4q_199.5_80.4_205521.fadana ! RUN = 205521 ! NEVT = 2000
FILE = /castor/cern.ch/delphi/MCprod/cern/wphact24/v99e/199.5/wphact24_4q_199.5_80.4_205522.fadana ! RUN = 205522 ! NEVT = 2000
FILE = /castor/cern.ch/delphi/MCprod/cern/wphact24/v99e/199.5/wphact24_4q_199.5_80.4_205523.fadana ! RUN = 205523 ! NEVT = 1999
FILE = /castor/cern.ch/delphi/MCprod/cern/wphact24/v99e/199.5/wphact24_4q_199.5_80.4_205524.fadana ! RUN = 205524 ! NEVT = 1998
FILE = /castor/cern.ch/delphi/MCprod/cern/wphact24/v99e/199.5/wphact24_4q_199.5_80.4_205525.fadana ! RUN = 205525 ! NEVT = 2000
FILE = /castor/cern.ch/delphi/MCprod/cern/wphact24/v99e/199.5/wphact24_4q_199.5_80.4_205526.fadana ! RUN = 205526 ! NEVT = 1999
FILE = /castor/cern.ch/delphi/MCprod/cern/wphact24/v99e/199.5/wphact24_4q_199.5_80.4_205527.fadana ! RUN = 205527 ! NEVT = 1999
FILE = /castor/cern.ch/delphi/MCprod/cern/wphact24/v99e/199.5/wphact24_4q_199.5_80.4_205528.fadana ! RUN = 205528 ! NEVT = 1999
FILE = /castor/cern.ch/delphi/MCprod/cern/wphact24/v99e/199.5/wphact24_4q_199.5_80.4_205529.fadana ! RUN = 205529 ! NEVT = 2000
FILE = /castor/cern.ch/delphi/MCprod/cern/wphact24/v99e/199.5/wphact24_4q_199.5_80.4_205530.fadana ! RUN = 205530 ! NEVT = 1999
FILE = /castor/cern.ch/delphi/MCprod/cern/wphact24/v99e/199.5/wphact24_4q_199.5_80.4_205531.fadana ! RUN = 205531 ! NEVT = 1998
FILE = /castor/cern.ch/delphi/MCprod/cern/wphact24/v99e/199.5/wphact24_4q_199.5_80.4_205532.fadana ! RUN = 205532 ! NEVT = 1998
FILE = /castor/cern.ch/delphi/MCprod/cern/wphact24/v99e/199.5/wphact24_4q_199.5_80.4_205533.fadana ! RUN = 205533 ! NEVT = 2000
FILE = /castor/cern.ch/delphi/MCprod/cern/wphact24/v99e/199.5/wphact24_4q_199.5_80.4_205534.fadana ! RUN = 205534 ! NEVT = 2000
FILE = /castor/cern.ch/delphi/MCprod/cern/wphact24/v99e/199.5/wphact24_4q_199.5_80.4_205535.fadana ! RUN = 205535 ! NEVT = 2000
FILE = /castor/cern.ch/delphi/MCprod/cern/wphact24/v99e/199.5/wphact24_4q_199.5_80.4_205536.fadana ! RUN = 205536 ! NEVT = 2000
FILE = /castor/cern.ch/delphi/MCprod/cern/wphact24/v99e/199.5/wphact24_4q_199.5_80.4_205537.fadana ! RUN = 205537 ! NEVT = 1999
FILE = /castor/cern.ch/delphi/MCprod/cern/wphact24/v99e/199.5/wphact24_4q_199.5_80.4_205538.fadana ! RUN = 205538 ! NEVT = 2000
FILE = /castor/cern.ch/delphi/MCprod/cern/wphact24/v99e/199.5/wphact24_4q_199.5_80.4_205539.fadana ! RUN = 205539 ! NEVT = 1999
FILE = /castor/cern.ch/delphi/MCprod/cern/wphact24/v99e/199.5/wphact24_4q_199.5_80.4_205540.fadana ! RUN = 205540 ! NEVT = 1999
FILE = /castor/cern.ch/delphi/MCprod/cern/wphact24/v99e/199.5/wphact24_4q_199.5_80.4_205541.fadana ! RUN = 205541 ! NEVT = 1863
FILE = /castor/cern.ch/delphi/MCprod/cern/wphact24/v99e/199.5/wphact24_4q_199.5_80.4_205542.fadana ! RUN = 205542 ! NEVT = 1998
FILE = /castor/cern.ch/delphi/MCprod/cern/wphact24/v99e/199.5/wphact24_4q_199.5_80.4_205543.fadana ! RUN = 205543 ! NEVT = 2000
FILE = /castor/cern.ch/delphi/MCprod/cern/wphact24/v99e/199.5/wphact24_4q_199.5_80.4_205544.fadana ! RUN = 205544 ! NEVT = 1999
FILE = /castor/cern.ch/delphi/MCprod/cern/wphact24/v99e/199.5/wphact24_4q_199.5_80.4_205545.fadana ! RUN = 205545 ! NEVT = 1997
FILE = /castor/cern.ch/delphi/MCprod/cern/wphact24/v99e/199.5/wphact24_4q_199.5_80.4_205546.fadana ! RUN = 205546 ! NEVT = 1999
FILE = /castor/cern.ch/delphi/MCprod/cern/wphact24/v99e/199.5/wphact24_4q_199.5_80.4_205547.fadana ! RUN = 205547 ! NEVT = 1998
FILE = /castor/cern.ch/delphi/MCprod/cern/wphact24/v99e/199.5/wphact24_4q_199.5_80.4_205548.fadana ! RUN = 205548 ! NEVT = 1999
FILE = /castor/cern.ch/delphi/MCprod/cern/wphact24/v99e/199.5/wphact24_4q_199.5_80.4_205549.fadana ! RUN = 205549 ! NEVT = 1999
FILE = /castor/cern.ch/delphi/MCprod/cern/wphact24/v99e/199.5/wphact24_4q_199.5_80.4_205550.fadana ! RUN = 205550 ! NEVT = 1363
FILE = /castor/cern.ch/delphi/MCprod/cern/wphact24/v99e/199.5/wphact24_4q_199.5_80.4_205551.fadana ! RUN = 205551 ! NEVT = 1998
FILE = /castor/cern.ch/delphi/MCprod/cern/wphact24/v99e/199.5/wphact24_4q_199.5_80.4_205552.fadana ! RUN = 205552 ! NEVT = 1999
FILE = /castor/cern.ch/delphi/MCprod/cern/wphact24/v99e/199.5/wphact24_4q_199.5_80.4_205553.fadana ! RUN = 205553 ! NEVT = 1999
FILE = /castor/cern.ch/delphi/MCprod/cern/wphact24/v99e/199.5/wphact24_4q_199.5_80.4_205554.fadana ! RUN = 205554 ! NEVT = 1999
FILE = /castor/cern.ch/delphi/MCprod/cern/wphact24/v99e/199.5/wphact24_4q_199.5_80.4_205555.fadana ! RUN = 205555 ! NEVT = 2000
FILE = /castor/cern.ch/delphi/MCprod/cern/wphact24/v99e/199.5/wphact24_4q_199.5_80.4_205556.fadana ! RUN = 205556 ! NEVT = 695
FILE = /castor/cern.ch/delphi/MCprod/cern/wphact24/v99e/199.5/wphact24_4q_199.5_80.4_205557.fadana ! RUN = 205557 ! NEVT = 1999
FILE = /castor/cern.ch/delphi/MCprod/cern/wphact24/v99e/199.5/wphact24_4q_199.5_80.4_205558.fadana ! RUN = 205558 ! NEVT = 1999
FILE = /castor/cern.ch/delphi/MCprod/cern/wphact24/v99e/199.5/wphact24_4q_199.5_80.4_205559.fadana ! RUN = 205559 ! NEVT = 1999
FILE = /castor/cern.ch/delphi/MCprod/cern/wphact24/v99e/199.5/wphact24_4q_199.5_80.4_205560.fadana ! RUN = 205560 ! NEVT = 2000
FILE = /castor/cern.ch/delphi/MCprod/cern/wphact24/v99e/199.5/wphact24_4q_199.5_80.4_205561.fadana ! RUN = 205561 ! NEVT = 2000
FILE = /castor/cern.ch/delphi/MCprod/cern/wphact24/v99e/199.5/wphact24_4q_199.5_80.4_205562.fadana ! RUN = 205562 ! NEVT = 2000
FILE = /castor/cern.ch/delphi/MCprod/cern/wphact24/v99e/199.5/wphact24_4q_199.5_80.4_205563.fadana ! RUN = 205563 ! NEVT = 2000
FILE = /castor/cern.ch/delphi/MCprod/cern/wphact24/v99e/199.5/wphact24_4q_199.5_80.4_205564.fadana ! RUN = 205564 ! NEVT = 2000
FILE = /castor/cern.ch/delphi/MCprod/cern/wphact24/v99e/199.5/wphact24_4q_199.5_80.4_205565.fadana ! RUN = 205565 ! NEVT = 2000
FILE = /castor/cern.ch/delphi/MCprod/cern/wphact24/v99e/199.5/wphact24_4q_199.5_80.4_205566.fadana ! RUN = 205566 ! NEVT = 1999
FILE = /castor/cern.ch/delphi/MCprod/cern/wphact24/v99e/199.5/wphact24_4q_199.5_80.4_205567.fadana ! RUN = 205567 ! NEVT = 2000
FILE = /castor/cern.ch/delphi/MCprod/cern/wphact24/v99e/199.5/wphact24_4q_199.5_80.4_205568.fadana ! RUN = 205568 ! NEVT = 1999
FILE = /castor/cern.ch/delphi/MCprod/cern/wphact24/v99e/199.5/wphact24_4q_199.5_80.4_205569.fadana ! RUN = 205569 ! NEVT = 1999
FILE = /castor/cern.ch/delphi/MCprod/cern/wphact24/v99e/199.5/wphact24_4q_199.5_80.4_205570.fadana ! RUN = 205570 ! NEVT = 2000
FILE = /castor/cern.ch/delphi/MCprod/cern/wphact24/v99e/199.5/wphact24_4q_199.5_80.4_205571.fadana ! RUN = 205571 ! NEVT = 1999
FILE = /castor/cern.ch/delphi/MCprod/cern/wphact24/v99e/199.5/wphact24_4q_199.5_80.4_205572.fadana ! RUN = 205572 ! NEVT = 2000
FILE = /castor/cern.ch/delphi/MCprod/cern/wphact24/v99e/199.5/wphact24_4q_199.5_80.4_205573.fadana ! RUN = 205573 ! NEVT = 1999
FILE = /castor/cern.ch/delphi/MCprod/cern/wphact24/v99e/199.5/wphact24_4q_199.5_80.4_205574.fadana ! RUN = 205574 ! NEVT = 1999
FILE = /castor/cern.ch/delphi/MCprod/cern/wphact24/v99e/199.5/wphact24_4q_199.5_80.4_205575.fadana ! RUN = 205575 ! NEVT = 2000
FILE = /castor/cern.ch/delphi/MCprod/cern/wphact24/v99e/199.5/wphact24_4q_199.5_80.4_205576.fadana ! RUN = 205576 ! NEVT = 851
FILE = /castor/cern.ch/delphi/MCprod/cern/wphact24/v99e/199.5/wphact24_4q_199.5_80.4_205577.fadana ! RUN = 205577 ! NEVT = 1999
FILE = /castor/cern.ch/delphi/MCprod/cern/wphact24/v99e/199.5/wphact24_4q_199.5_80.4_205578.fadana ! RUN = 205578 ! NEVT = 1997
FILE = /castor/cern.ch/delphi/MCprod/cern/wphact24/v99e/199.5/wphact24_4q_199.5_80.4_205579.fadana ! RUN = 205579 ! NEVT = 1999
FILE = /castor/cern.ch/delphi/MCprod/cern/wphact24/v99e/199.5/wphact24_4q_199.5_80.4_205580.fadana ! RUN = 205580 ! NEVT = 1999
FILE = /castor/cern.ch/delphi/MCprod/cern/wphact24/v99e/199.5/wphact24_4q_199.5_80.4_205581.fadana ! RUN = 205581 ! NEVT = 1998
FILE = /castor/cern.ch/delphi/MCprod/cern/wphact24/v99e/199.5/wphact24_4q_199.5_80.4_205582.fadana ! RUN = 205582 ! NEVT = 1999
FILE = /castor/cern.ch/delphi/MCprod/cern/wphact24/v99e/199.5/wphact24_4q_199.5_80.4_205583.fadana ! RUN = 205583 ! NEVT = 1999
FILE = /castor/cern.ch/delphi/MCprod/cern/wphact24/v99e/199.5/wphact24_4q_199.5_80.4_205584.fadana ! RUN = 205584 ! NEVT = 1999
FILE = /castor/cern.ch/delphi/MCprod/cern/wphact24/v99e/199.5/wphact24_4q_199.5_80.4_205585.fadana ! RUN = 205585 ! NEVT = 2000
FILE = /castor/cern.ch/delphi/MCprod/cern/wphact24/v99e/199.5/wphact24_4q_199.5_80.4_205586.fadana ! RUN = 205586 ! NEVT = 1998
FILE = /castor/cern.ch/delphi/MCprod/cern/wphact24/v99e/199.5/wphact24_4q_199.5_80.4_205587.fadana ! RUN = 205587 ! NEVT = 1999
FILE = /castor/cern.ch/delphi/MCprod/cern/wphact24/v99e/199.5/wphact24_4q_199.5_80.4_205588.fadana ! RUN = 205588 ! NEVT = 1998
FILE = /castor/cern.ch/delphi/MCprod/cern/wphact24/v99e/199.5/wphact24_4q_199.5_80.4_205589.fadana ! RUN = 205589 ! NEVT = 1999
FILE = /castor/cern.ch/delphi/MCprod/cern/wphact24/v99e/199.5/wphact24_4q_199.5_80.4_205590.fadana ! RUN = 205590 ! NEVT = 247
FILE = /castor/cern.ch/delphi/MCprod/cern/wphact24/v99e/199.5/wphact24_4q_199.5_80.4_205591.fadana ! RUN = 205591 ! NEVT = 1997
FILE = /castor/cern.ch/delphi/MCprod/cern/wphact24/v99e/199.5/wphact24_4q_199.5_80.4_205592.fadana ! RUN = 205592 ! NEVT = 1999
FILE = /castor/cern.ch/delphi/MCprod/cern/wphact24/v99e/199.5/wphact24_4q_199.5_80.4_205593.fadana ! RUN = 205593 ! NEVT = 1998
FILE = /castor/cern.ch/delphi/MCprod/cern/wphact24/v99e/199.5/wphact24_4q_199.5_80.4_205594.fadana ! RUN = 205594 ! NEVT = 1999
FILE = /castor/cern.ch/delphi/MCprod/cern/wphact24/v99e/199.5/wphact24_4q_199.5_80.4_205595.fadana ! RUN = 205595 ! NEVT = 1998
FILE = /castor/cern.ch/delphi/MCprod/cern/wphact24/v99e/199.5/wphact24_4q_199.5_80.4_205596.fadana ! RUN = 205596 ! NEVT = 1997
FILE = /castor/cern.ch/delphi/MCprod/cern/wphact24/v99e/199.5/wphact24_4q_199.5_80.4_205597.fadana ! RUN = 205597 ! NEVT = 1995
FILE = /castor/cern.ch/delphi/MCprod/cern/wphact24/v99e/199.5/wphact24_4q_199.5_80.4_205598.fadana ! RUN = 205598 ! NEVT = 1998
FILE = /castor/cern.ch/delphi/MCprod/cern/wphact24/v99e/199.5/wphact24_4q_199.5_80.4_205599.fadana ! RUN = 205599 ! NEVT = 1997
FILE = /castor/cern.ch/delphi/MCprod/cern/wphact24/v99e/199.5/wphact24_4q_199.5_80.4_205600.fadana ! RUN = 205600 ! NEVT = 1997
FILE = /castor/cern.ch/delphi/MCprod/cern/wphact24/v99e/199.5/wphact24_4q_199.5_80.4_205601.fadana ! RUN = 205601 ! NEVT = 1998
FILE = /castor/cern.ch/delphi/MCprod/cern/wphact24/v99e/199.5/wphact24_4q_199.5_80.4_205602.fadana ! RUN = 205602 ! NEVT = 2000
FILE = /castor/cern.ch/delphi/MCprod/cern/wphact24/v99e/199.5/wphact24_4q_199.5_80.4_205603.fadana ! RUN = 205603 ! NEVT = 2000
FILE = /castor/cern.ch/delphi/MCprod/cern/wphact24/v99e/199.5/wphact24_4q_199.5_80.4_205604.fadana ! RUN = 205604 ! NEVT = 1998
FILE = /castor/cern.ch/delphi/MCprod/cern/wphact24/v99e/199.5/wphact24_4q_199.5_80.4_205605.fadana ! RUN = 205605 ! NEVT = 1999
FILE = /castor/cern.ch/delphi/MCprod/cern/wphact24/v99e/199.5/wphact24_4q_199.5_80.4_205606.fadana ! RUN = 205606 ! NEVT = 1999
FILE = /castor/cern.ch/delphi/MCprod/cern/wphact24/v99e/199.5/wphact24_4q_199.5_80.4_205607.fadana ! RUN = 205607 ! NEVT = 1999
FILE = /castor/cern.ch/delphi/MCprod/cern/wphact24/v99e/199.5/wphact24_4q_199.5_80.4_205608.fadana ! RUN = 205608 ! NEVT = 1999
FILE = /castor/cern.ch/delphi/MCprod/cern/wphact24/v99e/199.5/wphact24_4q_199.5_80.4_205609.fadana ! RUN = 205609 ! NEVT = 1820
FILE = /castor/cern.ch/delphi/MCprod/cern/wphact24/v99e/199.5/wphact24_4q_199.5_80.4_205610.fadana ! RUN = 205610 ! NEVT = 1999
FILE = /castor/cern.ch/delphi/MCprod/cern/wphact24/v99e/199.5/wphact24_4q_199.5_80.4_205611.fadana ! RUN = 205611 ! NEVT = 2000
FILE = /castor/cern.ch/delphi/MCprod/cern/wphact24/v99e/199.5/wphact24_4q_199.5_80.4_205612.fadana ! RUN = 205612 ! NEVT = 2000
FILE = /castor/cern.ch/delphi/MCprod/cern/wphact24/v99e/199.5/wphact24_4q_199.5_80.4_205613.fadana ! RUN = 205613 ! NEVT = 1998
FILE = /castor/cern.ch/delphi/MCprod/cern/wphact24/v99e/199.5/wphact24_4q_199.5_80.4_205614.fadana ! RUN = 205614 ! NEVT = 1999
FILE = /castor/cern.ch/delphi/MCprod/cern/wphact24/v99e/199.5/wphact24_4q_199.5_80.4_205615.fadana ! RUN = 205615 ! NEVT = 1999
FILE = /castor/cern.ch/delphi/MCprod/cern/wphact24/v99e/199.5/wphact24_4q_199.5_80.4_205616.fadana ! RUN = 205616 ! NEVT = 1998
FILE = /castor/cern.ch/delphi/MCprod/cern/wphact24/v99e/199.5/wphact24_4q_199.5_80.4_205617.fadana ! RUN = 205617 ! NEVT = 1999
FILE = /castor/cern.ch/delphi/MCprod/cern/wphact24/v99e/199.5/wphact24_4q_199.5_80.4_205618.fadana ! RUN = 205618 ! NEVT = 1998
FILE = /castor/cern.ch/delphi/MCprod/cern/wphact24/v99e/199.5/wphact24_4q_199.5_80.4_205619.fadana ! RUN = 205619 ! NEVT = 2000
FILE = /castor/cern.ch/delphi/MCprod/cern/wphact24/v99e/199.5/wphact24_4q_199.5_80.4_205620.fadana ! RUN = 205620 ! NEVT = 1999
FILE = /castor/cern.ch/delphi/MCprod/cern/wphact24/v99e/199.5/wphact24_4q_199.5_80.4_205621.fadana ! RUN = 205621 ! NEVT = 1999
FILE = /castor/cern.ch/delphi/MCprod/cern/wphact24/v99e/199.5/wphact24_4q_199.5_80.4_205622.fadana ! RUN = 205622 ! NEVT = 2000
FILE = /castor/cern.ch/delphi/MCprod/cern/wphact24/v99e/199.5/wphact24_4q_199.5_80.4_205623.fadana ! RUN = 205623 ! NEVT = 1999
FILE = /castor/cern.ch/delphi/MCprod/cern/wphact24/v99e/199.5/wphact24_4q_199.5_80.4_205624.fadana ! RUN = 205624 ! NEVT = 1999
FILE = /castor/cern.ch/delphi/MCprod/cern/wphact24/v99e/199.5/wphact24_4q_199.5_80.4_205625.fadana ! RUN = 205625 ! NEVT = 1999
FILE = /castor/cern.ch/delphi/MCprod/cern/wphact24/v99e/199.5/wphact24_4q_199.5_80.4_205626.fadana ! RUN = 205626 ! NEVT = 2000
FILE = /castor/cern.ch/delphi/MCprod/cern/wphact24/v99e/199.5/wphact24_4q_199.5_80.4_205627.fadana ! RUN = 205627 ! NEVT = 2000
FILE = /castor/cern.ch/delphi/MCprod/cern/wphact24/v99e/199.5/wphact24_4q_199.5_80.4_205628.fadana ! RUN = 205628 ! NEVT = 2000
FILE = /castor/cern.ch/delphi/MCprod/cern/wphact24/v99e/199.5/wphact24_4q_199.5_80.4_205629.fadana ! RUN = 205629 ! NEVT = 1999
FILE = /castor/cern.ch/delphi/MCprod/cern/wphact24/v99e/199.5/wphact24_4q_199.5_80.4_205630.fadana ! RUN = 205630 ! NEVT = 1998
FILE = /castor/cern.ch/delphi/MCprod/cern/wphact24/v99e/199.5/wphact24_4q_199.5_80.4_205631.fadana ! RUN = 205631 ! NEVT = 2000
FILE = /castor/cern.ch/delphi/MCprod/cern/wphact24/v99e/199.5/wphact24_4q_199.5_80.4_205632.fadana ! RUN = 205632 ! NEVT = 1999
FILE = /castor/cern.ch/delphi/MCprod/cern/wphact24/v99e/199.5/wphact24_4q_199.5_80.4_205633.fadana ! RUN = 205633 ! NEVT = 1999
FILE = /castor/cern.ch/delphi/MCprod/cern/wphact24/v99e/199.5/wphact24_4q_199.5_80.4_205634.fadana ! RUN = 205634 ! NEVT = 1998
FILE = /castor/cern.ch/delphi/MCprod/cern/wphact24/v99e/199.5/wphact24_4q_199.5_80.4_205635.fadana ! RUN = 205635 ! NEVT = 2000
FILE = /castor/cern.ch/delphi/MCprod/cern/wphact24/v99e/199.5/wphact24_4q_199.5_80.4_205636.fadana ! RUN = 205636 ! NEVT = 2000
FILE = /castor/cern.ch/delphi/MCprod/cern/wphact24/v99e/199.5/wphact24_4q_199.5_80.4_205637.fadana ! RUN = 205637 ! NEVT = 2000
FILE = /castor/cern.ch/delphi/MCprod/cern/wphact24/v99e/199.5/wphact24_4q_199.5_80.4_205638.fadana ! RUN = 205638 ! NEVT = 2000
FILE = /castor/cern.ch/delphi/MCprod/cern/wphact24/v99e/199.5/wphact24_4q_199.5_80.4_205639.fadana ! RUN = 205639 ! NEVT = 2000
FILE = /castor/cern.ch/delphi/MCprod/cern/wphact24/v99e/199.5/wphact24_4q_199.5_80.4_205640.fadana ! RUN = 205640 ! NEVT = 2000
FILE = /castor/cern.ch/delphi/MCprod/cern/wphact24/v99e/199.5/wphact24_4q_199.5_80.4_205641.fadana ! RUN = 205641 ! NEVT = 2000
FILE = /castor/cern.ch/delphi/MCprod/cern/wphact24/v99e/199.5/wphact24_4q_199.5_80.4_205642.fadana ! RUN = 205642 ! NEVT = 1999
FILE = /castor/cern.ch/delphi/MCprod/cern/wphact24/v99e/199.5/wphact24_4q_199.5_80.4_205643.fadana ! RUN = 205643 ! NEVT = 1999
FILE = /castor/cern.ch/delphi/MCprod/cern/wphact24/v99e/199.5/wphact24_4q_199.5_80.4_205644.fadana ! RUN = 205644 ! NEVT = 2000
FILE = /castor/cern.ch/delphi/MCprod/cern/wphact24/v99e/199.5/wphact24_4q_199.5_80.4_205645.fadana ! RUN = 205645 ! NEVT = 1999
FILE = /castor/cern.ch/delphi/MCprod/cern/wphact24/v99e/199.5/wphact24_4q_199.5_80.4_205646.fadana ! RUN = 205646 ! NEVT = 1999
FILE = /castor/cern.ch/delphi/MCprod/cern/wphact24/v99e/199.5/wphact24_4q_199.5_80.4_205647.fadana ! RUN = 205647 ! NEVT = 1994
FILE = /castor/cern.ch/delphi/MCprod/cern/wphact24/v99e/199.5/wphact24_4q_199.5_80.4_205648.fadana ! RUN = 205648 ! NEVT = 2000
FILE = /castor/cern.ch/delphi/MCprod/cern/wphact24/v99e/199.5/wphact24_4q_199.5_80.4_205649.fadana ! RUN = 205649 ! NEVT = 2000
FILE = /castor/cern.ch/delphi/MCprod/cern/wphact24/v99e/199.5/wphact24_4q_199.5_80.4_205650.fadana ! RUN = 205650 ! NEVT = 1999
FILE = /castor/cern.ch/delphi/MCprod/cern/wphact24/v99e/199.5/wphact24_4q_199.5_80.4_205651.fadana ! RUN = 205651 ! NEVT = 2000
FILE = /castor/cern.ch/delphi/MCprod/cern/wphact24/v99e/199.5/wphact24_4q_199.5_80.4_205652.fadana ! RUN = 205652 ! NEVT = 1999
FILE = /castor/cern.ch/delphi/MCprod/cern/wphact24/v99e/199.5/wphact24_4q_199.5_80.4_205653.fadana ! RUN = 205653 ! NEVT = 1998
FILE = /castor/cern.ch/delphi/MCprod/cern/wphact24/v99e/199.5/wphact24_4q_199.5_80.4_205654.fadana ! RUN = 205654 ! NEVT = 1999
FILE = /castor/cern.ch/delphi/MCprod/cern/wphact24/v99e/199.5/wphact24_4q_199.5_80.4_205655.fadana ! RUN = 205655 ! NEVT = 1999
FILE = /castor/cern.ch/delphi/MCprod/cern/wphact24/v99e/199.5/wphact24_4q_199.5_80.4_205656.fadana ! RUN = 205656 ! NEVT = 2000
FILE = /castor/cern.ch/delphi/MCprod/cern/wphact24/v99e/199.5/wphact24_4q_199.5_80.4_205657.fadana ! RUN = 205657 ! NEVT = 1998
FILE = /castor/cern.ch/delphi/MCprod/cern/wphact24/v99e/199.5/wphact24_4q_199.5_80.4_205658.fadana ! RUN = 205658 ! NEVT = 2000
FILE = /castor/cern.ch/delphi/MCprod/cern/wphact24/v99e/199.5/wphact24_4q_199.5_80.4_205659.fadana ! RUN = 205659 ! NEVT = 1998
FILE = /castor/cern.ch/delphi/MCprod/cern/wphact24/v99e/199.5/wphact24_4q_199.5_80.4_205660.fadana ! RUN = 205660 ! NEVT = 1999
FILE = /castor/cern.ch/delphi/MCprod/cern/wphact24/v99e/199.5/wphact24_4q_199.5_80.4_205661.fadana ! RUN = 205661 ! NEVT = 1999
FILE = /castor/cern.ch/delphi/MCprod/cern/wphact24/v99e/199.5/wphact24_4q_199.5_80.4_205662.fadana ! RUN = 205662 ! NEVT = 2000
FILE = /castor/cern.ch/delphi/MCprod/cern/wphact24/v99e/199.5/wphact24_4q_199.5_80.4_205663.fadana ! RUN = 205663 ! NEVT = 2000
FILE = /castor/cern.ch/delphi/MCprod/cern/wphact24/v99e/199.5/wphact24_4q_199.5_80.4_205664.fadana ! RUN = 205664 ! NEVT = 1998
FILE = /castor/cern.ch/delphi/MCprod/cern/wphact24/v99e/199.5/wphact24_4q_199.5_80.4_205665.fadana ! RUN = 205665 ! NEVT = 1999
FILE = /castor/cern.ch/delphi/MCprod/cern/wphact24/v99e/199.5/wphact24_4q_199.5_80.4_205666.fadana ! RUN = 205666 ! NEVT = 2000
FILE = /castor/cern.ch/delphi/MCprod/cern/wphact24/v99e/199.5/wphact24_4q_199.5_80.4_205667.fadana ! RUN = 205667 ! NEVT = 2000
FILE = /castor/cern.ch/delphi/MCprod/cern/wphact24/v99e/199.5/wphact24_4q_199.5_80.4_205668.fadana ! RUN = 205668 ! NEVT = 1999
FILE = /castor/cern.ch/delphi/MCprod/cern/wphact24/v99e/199.5/wphact24_4q_199.5_80.4_205669.fadana ! RUN = 205669 ! NEVT = 2000
FILE = /castor/cern.ch/delphi/MCprod/cern/wphact24/v99e/199.5/wphact24_4q_199.5_80.4_205670.fadana ! RUN = 205670 ! NEVT = 1996
FILE = /castor/cern.ch/delphi/MCprod/cern/wphact24/v99e/199.5/wphact24_4q_199.5_80.4_205671.fadana ! RUN = 205671 ! NEVT = 1998
FILE = /castor/cern.ch/delphi/MCprod/cern/wphact24/v99e/199.5/wphact24_4q_199.5_80.4_205672.fadana ! RUN = 205672 ! NEVT = 1999
FILE = /castor/cern.ch/delphi/MCprod/cern/wphact24/v99e/199.5/wphact24_4q_199.5_80.4_205673.fadana ! RUN = 205673 ! NEVT = 2000
FILE = /castor/cern.ch/delphi/MCprod/cern/wphact24/v99e/199.5/wphact24_4q_199.5_80.4_205674.fadana ! RUN = 205674 ! NEVT = 2000
FILE = /castor/cern.ch/delphi/MCprod/cern/wphact24/v99e/199.5/wphact24_4q_199.5_80.4_205675.fadana ! RUN = 205675 ! NEVT = 1998
FILE = /castor/cern.ch/delphi/MCprod/cern/wphact24/v99e/199.5/wphact24_4q_199.5_80.4_205676.fadana ! RUN = 205676 ! NEVT = 1999
FILE = /castor/cern.ch/delphi/MCprod/cern/wphact24/v99e/199.5/wphact24_4q_199.5_80.4_205677.fadana ! RUN = 205677 ! NEVT = 1998
FILE = /castor/cern.ch/delphi/MCprod/cern/wphact24/v99e/199.5/wphact24_4q_199.5_80.4_205678.fadana ! RUN = 205678 ! NEVT = 1999
FILE = /castor/cern.ch/delphi/MCprod/cern/wphact24/v99e/199.5/wphact24_4q_199.5_80.4_205679.fadana ! RUN = 205679 ! NEVT = 1999
FILE = /castor/cern.ch/delphi/MCprod/cern/wphact24/v99e/199.5/wphact24_4q_199.5_80.4_205680.fadana ! RUN = 205680 ! NEVT = 2000
FILE = /castor/cern.ch/delphi/MCprod/cern/wphact24/v99e/199.5/wphact24_4q_199.5_80.4_205681.fadana ! RUN = 205681 ! NEVT = 2000
FILE = /castor/cern.ch/delphi/MCprod/cern/wphact24/v99e/199.5/wphact24_4q_199.5_80.4_205682.fadana ! RUN = 205682 ! NEVT = 2000
FILE = /castor/cern.ch/delphi/MCprod/cern/wphact24/v99e/199.5/wphact24_4q_199.5_80.4_205683.fadana ! RUN = 205683 ! NEVT = 1999
FILE = /castor/cern.ch/delphi/MCprod/cern/wphact24/v99e/199.5/wphact24_4q_199.5_80.4_205684.fadana ! RUN = 205684 ! NEVT = 2000
FILE = /castor/cern.ch/delphi/MCprod/cern/wphact24/v99e/199.5/wphact24_4q_199.5_80.4_205685.fadana ! RUN = 205685 ! NEVT = 1999
FILE = /castor/cern.ch/delphi/MCprod/cern/wphact24/v99e/199.5/wphact24_4q_199.5_80.4_205686.fadana ! RUN = 205686 ! NEVT = 1998
FILE = /castor/cern.ch/delphi/MCprod/cern/wphact24/v99e/199.5/wphact24_4q_199.5_80.4_205687.fadana ! RUN = 205687 ! NEVT = 2000
FILE = /castor/cern.ch/delphi/MCprod/cern/wphact24/v99e/199.5/wphact24_4q_199.5_80.4_205688.fadana ! RUN = 205688 ! NEVT = 2000
FILE = /castor/cern.ch/delphi/MCprod/cern/wphact24/v99e/199.5/wphact24_4q_199.5_80.4_205689.fadana ! RUN = 205689 ! NEVT = 1999
FILE = /castor/cern.ch/delphi/MCprod/cern/wphact24/v99e/199.5/wphact24_4q_199.5_80.4_205691.fadana ! RUN = 205691 ! NEVT = 1997
FILE = /castor/cern.ch/delphi/MCprod/cern/wphact24/v99e/199.5/wphact24_4q_199.5_80.4_205692.fadana ! RUN = 205692 ! NEVT = 2000
FILE = /castor/cern.ch/delphi/MCprod/cern/wphact24/v99e/199.5/wphact24_4q_199.5_80.4_205693.fadana ! RUN = 205693 ! NEVT = 2000
FILE = /castor/cern.ch/delphi/MCprod/cern/wphact24/v99e/199.5/wphact24_4q_199.5_80.4_205694.fadana ! RUN = 205694 ! NEVT = 2000
FILE = /castor/cern.ch/delphi/MCprod/cern/wphact24/v99e/199.5/wphact24_4q_199.5_80.4_205695.fadana ! RUN = 205695 ! NEVT = 2000
FILE = /castor/cern.ch/delphi/MCprod/cern/wphact24/v99e/199.5/wphact24_4q_199.5_80.4_205696.fadana ! RUN = 205696 ! NEVT = 1999
FILE = /castor/cern.ch/delphi/MCprod/cern/wphact24/v99e/199.5/wphact24_4q_199.5_80.4_205697.fadana ! RUN = 205697 ! NEVT = 2000
FILE = /castor/cern.ch/delphi/MCprod/cern/wphact24/v99e/199.5/wphact24_4q_199.5_80.4_205698.fadana ! RUN = 205698 ! NEVT = 1999
FILE = /castor/cern.ch/delphi/MCprod/cern/wphact24/v99e/199.5/wphact24_4q_199.5_80.4_205699.fadana ! RUN = 205699 ! NEVT = 1999
FILE = /castor/cern.ch/delphi/MCprod/cern/wphact24/v99e/199.5/wphact24_4q_199.5_80.4_205700.fadana ! RUN = 205700 ! NEVT = 2000
FILE = /castor/cern.ch/delphi/MCprod/cern/wphact24/v99e/199.5/wphact24_4q_199.5_80.4_205701.fadana ! RUN = 205701 ! NEVT = 1999
FILE = /castor/cern.ch/delphi/MCprod/cern/wphact24/v99e/199.5/wphact24_4q_199.5_80.4_205702.fadana ! RUN = 205702 ! NEVT = 1998
FILE = /castor/cern.ch/delphi/MCprod/cern/wphact24/v99e/199.5/wphact24_4q_199.5_80.4_205703.fadana ! RUN = 205703 ! NEVT = 1999
FILE = /castor/cern.ch/delphi/MCprod/cern/wphact24/v99e/199.5/wphact24_4q_199.5_80.4_205704.fadana ! RUN = 205704 ! NEVT = 2000
FILE = /castor/cern.ch/delphi/MCprod/cern/wphact24/v99e/199.5/wphact24_4q_199.5_80.4_205705.fadana ! RUN = 205705 ! NEVT = 2000
FILE = /castor/cern.ch/delphi/MCprod/cern/wphact24/v99e/199.5/wphact24_4q_199.5_80.4_205706.fadana ! RUN = 205706 ! NEVT = 2000
FILE = /castor/cern.ch/delphi/MCprod/cern/wphact24/v99e/199.5/wphact24_4q_199.5_80.4_205707.fadana ! RUN = 205707 ! NEVT = 1999
FILE = /castor/cern.ch/delphi/MCprod/cern/wphact24/v99e/199.5/wphact24_4q_199.5_80.4_205708.fadana ! RUN = 205708 ! NEVT = 2000
FILE = /castor/cern.ch/delphi/MCprod/cern/wphact24/v99e/199.5/wphact24_4q_199.5_80.4_205709.fadana ! RUN = 205709 ! NEVT = 1999
FILE = /castor/cern.ch/delphi/MCprod/cern/wphact24/v99e/199.5/wphact24_4q_199.5_80.4_205710.fadana ! RUN = 205710 ! NEVT = 1999
FILE = /castor/cern.ch/delphi/MCprod/cern/wphact24/v99e/199.5/wphact24_4q_199.5_80.4_205711.fadana ! RUN = 205711 ! NEVT = 1998
FILE = /castor/cern.ch/delphi/MCprod/cern/wphact24/v99e/199.5/wphact24_4q_199.5_80.4_205712.fadana ! RUN = 205712 ! NEVT = 1999
FILE = /castor/cern.ch/delphi/MCprod/cern/wphact24/v99e/199.5/wphact24_4q_199.5_80.4_205713.fadana ! RUN = 205713 ! NEVT = 2000
FILE = /castor/cern.ch/delphi/MCprod/cern/wphact24/v99e/199.5/wphact24_4q_199.5_80.4_205714.fadana ! RUN = 205714 ! NEVT = 1996
FILE = /castor/cern.ch/delphi/MCprod/cern/wphact24/v99e/199.5/wphact24_4q_199.5_80.4_205715.fadana ! RUN = 205715 ! NEVT = 1999
FILE = /castor/cern.ch/delphi/MCprod/cern/wphact24/v99e/199.5/wphact24_4q_199.5_80.4_205716.fadana ! RUN = 205716 ! NEVT = 2000
FILE = /castor/cern.ch/delphi/MCprod/cern/wphact24/v99e/199.5/wphact24_4q_199.5_80.4_205717.fadana ! RUN = 205717 ! NEVT = 1999
FILE = /castor/cern.ch/delphi/MCprod/cern/wphact24/v99e/199.5/wphact24_4q_199.5_80.4_205718.fadana ! RUN = 205718 ! NEVT = 1997
FILE = /castor/cern.ch/delphi/MCprod/cern/wphact24/v99e/199.5/wphact24_4q_199.5_80.4_205719.fadana ! RUN = 205719 ! NEVT = 1998
FILE = /castor/cern.ch/delphi/MCprod/cern/wphact24/v99e/199.5/wphact24_4q_199.5_80.4_205720.fadana ! RUN = 205720 ! NEVT = 1998
FILE = /castor/cern.ch/delphi/MCprod/cern/wphact24/v99e/199.5/wphact24_4q_199.5_80.4_205721.fadana ! RUN = 205721 ! NEVT = 1997
FILE = /castor/cern.ch/delphi/MCprod/cern/wphact24/v99e/199.5/wphact24_4q_199.5_80.4_205722.fadana ! RUN = 205722 ! NEVT = 1999
FILE = /castor/cern.ch/delphi/MCprod/cern/wphact24/v99e/199.5/wphact24_4q_199.5_80.4_205723.fadana ! RUN = 205723 ! NEVT = 2000
FILE = /castor/cern.ch/delphi/MCprod/cern/wphact24/v99e/199.5/wphact24_4q_199.5_80.4_205724.fadana ! RUN = 205724 ! NEVT = 1998
FILE = /castor/cern.ch/delphi/MCprod/cern/wphact24/v99e/199.5/wphact24_4q_199.5_80.4_205725.fadana ! RUN = 205725 ! NEVT = 1998
FILE = /castor/cern.ch/delphi/MCprod/cern/wphact24/v99e/199.5/wphact24_4q_199.5_80.4_205726.fadana ! RUN = 205726 ! NEVT = 1999
FILE = /castor/cern.ch/delphi/MCprod/cern/wphact24/v99e/199.5/wphact24_4q_199.5_80.4_205727.fadana ! RUN = 205727 ! NEVT = 2000
FILE = /castor/cern.ch/delphi/MCprod/cern/wphact24/v99e/199.5/wphact24_4q_199.5_80.4_205728.fadana ! RUN = 205728 ! NEVT = 1999
FILE = /castor/cern.ch/delphi/MCprod/cern/wphact24/v99e/199.5/wphact24_4q_199.5_80.4_205729.fadana ! RUN = 205729 ! NEVT = 1999
FILE = /castor/cern.ch/delphi/MCprod/cern/wphact24/v99e/199.5/wphact24_4q_199.5_80.4_205730.fadana ! RUN = 205730 ! NEVT = 2000
FILE = /castor/cern.ch/delphi/MCprod/cern/wphact24/v99e/199.5/wphact24_4q_199.5_80.4_205731.fadana ! RUN = 205731 ! NEVT = 1999
FILE = /castor/cern.ch/delphi/MCprod/cern/wphact24/v99e/199.5/wphact24_4q_199.5_80.4_205732.fadana ! RUN = 205732 ! NEVT = 2000
FILE = /castor/cern.ch/delphi/MCprod/cern/wphact24/v99e/199.5/wphact24_4q_199.5_80.4_205733.fadana ! RUN = 205733 ! NEVT = 1999
FILE = /castor/cern.ch/delphi/MCprod/cern/wphact24/v99e/199.5/wphact24_4q_199.5_80.4_205734.fadana ! RUN = 205734 ! NEVT = 1999
FILE = /castor/cern.ch/delphi/MCprod/cern/wphact24/v99e/199.5/wphact24_4q_199.5_80.4_205735.fadana ! RUN = 205735 ! NEVT = 1999
FILE = /castor/cern.ch/delphi/MCprod/cern/wphact24/v99e/199.5/wphact24_4q_199.5_80.4_205736.fadana ! RUN = 205736 ! NEVT = 1998
FILE = /castor/cern.ch/delphi/MCprod/cern/wphact24/v99e/199.5/wphact24_4q_199.5_80.4_205737.fadana ! RUN = 205737 ! NEVT = 2000
FILE = /castor/cern.ch/delphi/MCprod/cern/wphact24/v99e/199.5/wphact24_4q_199.5_80.4_205738.fadana ! RUN = 205738 ! NEVT = 2000
FILE = /castor/cern.ch/delphi/MCprod/cern/wphact24/v99e/199.5/wphact24_4q_199.5_80.4_205739.fadana ! RUN = 205739 ! NEVT = 2000
FILE = /castor/cern.ch/delphi/MCprod/cern/wphact24/v99e/199.5/wphact24_4q_199.5_80.4_205740.fadana ! RUN = 205740 ! NEVT = 2000
FILE = /castor/cern.ch/delphi/MCprod/cern/wphact24/v99e/199.5/wphact24_4q_199.5_80.4_205741.fadana ! RUN = 205741 ! NEVT = 1999
FILE = /castor/cern.ch/delphi/MCprod/cern/wphact24/v99e/199.5/wphact24_4q_199.5_80.4_205742.fadana ! RUN = 205742 ! NEVT = 2000
FILE = /castor/cern.ch/delphi/MCprod/cern/wphact24/v99e/199.5/wphact24_4q_199.5_80.4_205743.fadana ! RUN = 205743 ! NEVT = 1999
FILE = /castor/cern.ch/delphi/MCprod/cern/wphact24/v99e/199.5/wphact24_4q_199.5_80.4_205744.fadana ! RUN = 205744 ! NEVT = 2000
FILE = /castor/cern.ch/delphi/MCprod/cern/wphact24/v99e/199.5/wphact24_4q_199.5_80.4_205745.fadana ! RUN = 205745 ! NEVT = 1999
FILE = /castor/cern.ch/delphi/MCprod/cern/wphact24/v99e/199.5/wphact24_4q_199.5_80.4_205746.fadana ! RUN = 205746 ! NEVT = 1999
FILE = /castor/cern.ch/delphi/MCprod/cern/wphact24/v99e/199.5/wphact24_4q_199.5_80.4_205747.fadana ! RUN = 205747 ! NEVT = 1996
FILE = /castor/cern.ch/delphi/MCprod/cern/wphact24/v99e/199.5/wphact24_4q_199.5_80.4_205748.fadana ! RUN = 205748 ! NEVT = 1998
FILE = /castor/cern.ch/delphi/MCprod/cern/wphact24/v99e/199.5/wphact24_4q_199.5_80.4_205749.fadana ! RUN = 205749 ! NEVT = 1999
FILE = /castor/cern.ch/delphi/MCprod/cern/wphact24/v99e/199.5/wphact24_4q_199.5_80.4_205750.fadana ! RUN = 205750 ! NEVT = 2000
