*
*   Nickname     : xs_bdkrc01eett_e195.5_l99_1l_e1
*   Generic Name : //CERN/DELPHI/P02_SIMD/XSDST/BDKRC01EETT/E195.5/LYON/SUMT/C001-99
*   Description  :  Extended Short DST simulation 99_e1 done at ecms=195.5 , Lyon
*---
*   Comments     : in total 197999 events in 99 files time stamp: Mon Oct 22 02:16:16 2001
*---
*
*
*
*
*
FILE = /castor/cern.ch/delphi/MCprod/lyon/bdkrc01/v99e/195.5/bdkrc01_eett_195.5_28001.xsdst ! RUN = 28001 ! NEVT = 2000
FILE = /castor/cern.ch/delphi/MCprod/lyon/bdkrc01/v99e/195.5/bdkrc01_eett_195.5_28002.xsdst ! RUN = 28002 ! NEVT = 2000
FILE = /castor/cern.ch/delphi/MCprod/lyon/bdkrc01/v99e/195.5/bdkrc01_eett_195.5_28003.xsdst ! RUN = 28003 ! NEVT = 2000
FILE = /castor/cern.ch/delphi/MCprod/lyon/bdkrc01/v99e/195.5/bdkrc01_eett_195.5_28004.xsdst ! RUN = 28004 ! NEVT = 2000
FILE = /castor/cern.ch/delphi/MCprod/lyon/bdkrc01/v99e/195.5/bdkrc01_eett_195.5_28006.xsdst ! RUN = 28006 ! NEVT = 2000
FILE = /castor/cern.ch/delphi/MCprod/lyon/bdkrc01/v99e/195.5/bdkrc01_eett_195.5_28007.xsdst ! RUN = 28007 ! NEVT = 2000
FILE = /castor/cern.ch/delphi/MCprod/lyon/bdkrc01/v99e/195.5/bdkrc01_eett_195.5_28008.xsdst ! RUN = 28008 ! NEVT = 2000
FILE = /castor/cern.ch/delphi/MCprod/lyon/bdkrc01/v99e/195.5/bdkrc01_eett_195.5_28009.xsdst ! RUN = 28009 ! NEVT = 2000
FILE = /castor/cern.ch/delphi/MCprod/lyon/bdkrc01/v99e/195.5/bdkrc01_eett_195.5_28010.xsdst ! RUN = 28010 ! NEVT = 2000
FILE = /castor/cern.ch/delphi/MCprod/lyon/bdkrc01/v99e/195.5/bdkrc01_eett_195.5_28011.xsdst ! RUN = 28011 ! NEVT = 2000
FILE = /castor/cern.ch/delphi/MCprod/lyon/bdkrc01/v99e/195.5/bdkrc01_eett_195.5_28012.xsdst ! RUN = 28012 ! NEVT = 2000
FILE = /castor/cern.ch/delphi/MCprod/lyon/bdkrc01/v99e/195.5/bdkrc01_eett_195.5_28013.xsdst ! RUN = 28013 ! NEVT = 2000
FILE = /castor/cern.ch/delphi/MCprod/lyon/bdkrc01/v99e/195.5/bdkrc01_eett_195.5_28014.xsdst ! RUN = 28014 ! NEVT = 2000
FILE = /castor/cern.ch/delphi/MCprod/lyon/bdkrc01/v99e/195.5/bdkrc01_eett_195.5_28015.xsdst ! RUN = 28015 ! NEVT = 2000
FILE = /castor/cern.ch/delphi/MCprod/lyon/bdkrc01/v99e/195.5/bdkrc01_eett_195.5_28016.xsdst ! RUN = 28016 ! NEVT = 2000
FILE = /castor/cern.ch/delphi/MCprod/lyon/bdkrc01/v99e/195.5/bdkrc01_eett_195.5_28017.xsdst ! RUN = 28017 ! NEVT = 2000
FILE = /castor/cern.ch/delphi/MCprod/lyon/bdkrc01/v99e/195.5/bdkrc01_eett_195.5_28018.xsdst ! RUN = 28018 ! NEVT = 2000
FILE = /castor/cern.ch/delphi/MCprod/lyon/bdkrc01/v99e/195.5/bdkrc01_eett_195.5_28019.xsdst ! RUN = 28019 ! NEVT = 2000
FILE = /castor/cern.ch/delphi/MCprod/lyon/bdkrc01/v99e/195.5/bdkrc01_eett_195.5_28020.xsdst ! RUN = 28020 ! NEVT = 2000
FILE = /castor/cern.ch/delphi/MCprod/lyon/bdkrc01/v99e/195.5/bdkrc01_eett_195.5_28021.xsdst ! RUN = 28021 ! NEVT = 2000
FILE = /castor/cern.ch/delphi/MCprod/lyon/bdkrc01/v99e/195.5/bdkrc01_eett_195.5_28022.xsdst ! RUN = 28022 ! NEVT = 1999
FILE = /castor/cern.ch/delphi/MCprod/lyon/bdkrc01/v99e/195.5/bdkrc01_eett_195.5_28023.xsdst ! RUN = 28023 ! NEVT = 2000
FILE = /castor/cern.ch/delphi/MCprod/lyon/bdkrc01/v99e/195.5/bdkrc01_eett_195.5_28024.xsdst ! RUN = 28024 ! NEVT = 2000
FILE = /castor/cern.ch/delphi/MCprod/lyon/bdkrc01/v99e/195.5/bdkrc01_eett_195.5_28025.xsdst ! RUN = 28025 ! NEVT = 2000
FILE = /castor/cern.ch/delphi/MCprod/lyon/bdkrc01/v99e/195.5/bdkrc01_eett_195.5_28026.xsdst ! RUN = 28026 ! NEVT = 2000
FILE = /castor/cern.ch/delphi/MCprod/lyon/bdkrc01/v99e/195.5/bdkrc01_eett_195.5_28027.xsdst ! RUN = 28027 ! NEVT = 2000
FILE = /castor/cern.ch/delphi/MCprod/lyon/bdkrc01/v99e/195.5/bdkrc01_eett_195.5_28028.xsdst ! RUN = 28028 ! NEVT = 2000
FILE = /castor/cern.ch/delphi/MCprod/lyon/bdkrc01/v99e/195.5/bdkrc01_eett_195.5_28029.xsdst ! RUN = 28029 ! NEVT = 2000
FILE = /castor/cern.ch/delphi/MCprod/lyon/bdkrc01/v99e/195.5/bdkrc01_eett_195.5_28030.xsdst ! RUN = 28030 ! NEVT = 2000
FILE = /castor/cern.ch/delphi/MCprod/lyon/bdkrc01/v99e/195.5/bdkrc01_eett_195.5_28031.xsdst ! RUN = 28031 ! NEVT = 2000
FILE = /castor/cern.ch/delphi/MCprod/lyon/bdkrc01/v99e/195.5/bdkrc01_eett_195.5_28032.xsdst ! RUN = 28032 ! NEVT = 2000
FILE = /castor/cern.ch/delphi/MCprod/lyon/bdkrc01/v99e/195.5/bdkrc01_eett_195.5_28033.xsdst ! RUN = 28033 ! NEVT = 2000
FILE = /castor/cern.ch/delphi/MCprod/lyon/bdkrc01/v99e/195.5/bdkrc01_eett_195.5_28034.xsdst ! RUN = 28034 ! NEVT = 2000
FILE = /castor/cern.ch/delphi/MCprod/lyon/bdkrc01/v99e/195.5/bdkrc01_eett_195.5_28035.xsdst ! RUN = 28035 ! NEVT = 2000
FILE = /castor/cern.ch/delphi/MCprod/lyon/bdkrc01/v99e/195.5/bdkrc01_eett_195.5_28036.xsdst ! RUN = 28036 ! NEVT = 2000
FILE = /castor/cern.ch/delphi/MCprod/lyon/bdkrc01/v99e/195.5/bdkrc01_eett_195.5_28037.xsdst ! RUN = 28037 ! NEVT = 2000
FILE = /castor/cern.ch/delphi/MCprod/lyon/bdkrc01/v99e/195.5/bdkrc01_eett_195.5_28038.xsdst ! RUN = 28038 ! NEVT = 2000
FILE = /castor/cern.ch/delphi/MCprod/lyon/bdkrc01/v99e/195.5/bdkrc01_eett_195.5_28039.xsdst ! RUN = 28039 ! NEVT = 2000
FILE = /castor/cern.ch/delphi/MCprod/lyon/bdkrc01/v99e/195.5/bdkrc01_eett_195.5_28040.xsdst ! RUN = 28040 ! NEVT = 2000
FILE = /castor/cern.ch/delphi/MCprod/lyon/bdkrc01/v99e/195.5/bdkrc01_eett_195.5_28041.xsdst ! RUN = 28041 ! NEVT = 2000
FILE = /castor/cern.ch/delphi/MCprod/lyon/bdkrc01/v99e/195.5/bdkrc01_eett_195.5_28042.xsdst ! RUN = 28042 ! NEVT = 2000
FILE = /castor/cern.ch/delphi/MCprod/lyon/bdkrc01/v99e/195.5/bdkrc01_eett_195.5_28043.xsdst ! RUN = 28043 ! NEVT = 2000
FILE = /castor/cern.ch/delphi/MCprod/lyon/bdkrc01/v99e/195.5/bdkrc01_eett_195.5_28044.xsdst ! RUN = 28044 ! NEVT = 2000
FILE = /castor/cern.ch/delphi/MCprod/lyon/bdkrc01/v99e/195.5/bdkrc01_eett_195.5_28045.xsdst ! RUN = 28045 ! NEVT = 2000
FILE = /castor/cern.ch/delphi/MCprod/lyon/bdkrc01/v99e/195.5/bdkrc01_eett_195.5_28046.xsdst ! RUN = 28046 ! NEVT = 2000
FILE = /castor/cern.ch/delphi/MCprod/lyon/bdkrc01/v99e/195.5/bdkrc01_eett_195.5_28047.xsdst ! RUN = 28047 ! NEVT = 2000
FILE = /castor/cern.ch/delphi/MCprod/lyon/bdkrc01/v99e/195.5/bdkrc01_eett_195.5_28048.xsdst ! RUN = 28048 ! NEVT = 2000
FILE = /castor/cern.ch/delphi/MCprod/lyon/bdkrc01/v99e/195.5/bdkrc01_eett_195.5_28049.xsdst ! RUN = 28049 ! NEVT = 2000
FILE = /castor/cern.ch/delphi/MCprod/lyon/bdkrc01/v99e/195.5/bdkrc01_eett_195.5_28050.xsdst ! RUN = 28050 ! NEVT = 2000
FILE = /castor/cern.ch/delphi/MCprod/lyon/bdkrc01/v99e/195.5/bdkrc01_eett_195.5_28051.xsdst ! RUN = 28051 ! NEVT = 2000
FILE = /castor/cern.ch/delphi/MCprod/lyon/bdkrc01/v99e/195.5/bdkrc01_eett_195.5_28052.xsdst ! RUN = 28052 ! NEVT = 2000
FILE = /castor/cern.ch/delphi/MCprod/lyon/bdkrc01/v99e/195.5/bdkrc01_eett_195.5_28053.xsdst ! RUN = 28053 ! NEVT = 2000
FILE = /castor/cern.ch/delphi/MCprod/lyon/bdkrc01/v99e/195.5/bdkrc01_eett_195.5_28054.xsdst ! RUN = 28054 ! NEVT = 2000
FILE = /castor/cern.ch/delphi/MCprod/lyon/bdkrc01/v99e/195.5/bdkrc01_eett_195.5_28055.xsdst ! RUN = 28055 ! NEVT = 2000
FILE = /castor/cern.ch/delphi/MCprod/lyon/bdkrc01/v99e/195.5/bdkrc01_eett_195.5_28056.xsdst ! RUN = 28056 ! NEVT = 2000
FILE = /castor/cern.ch/delphi/MCprod/lyon/bdkrc01/v99e/195.5/bdkrc01_eett_195.5_28057.xsdst ! RUN = 28057 ! NEVT = 2000
FILE = /castor/cern.ch/delphi/MCprod/lyon/bdkrc01/v99e/195.5/bdkrc01_eett_195.5_28058.xsdst ! RUN = 28058 ! NEVT = 2000
FILE = /castor/cern.ch/delphi/MCprod/lyon/bdkrc01/v99e/195.5/bdkrc01_eett_195.5_28059.xsdst ! RUN = 28059 ! NEVT = 2000
FILE = /castor/cern.ch/delphi/MCprod/lyon/bdkrc01/v99e/195.5/bdkrc01_eett_195.5_28060.xsdst ! RUN = 28060 ! NEVT = 2000
FILE = /castor/cern.ch/delphi/MCprod/lyon/bdkrc01/v99e/195.5/bdkrc01_eett_195.5_28061.xsdst ! RUN = 28061 ! NEVT = 2000
FILE = /castor/cern.ch/delphi/MCprod/lyon/bdkrc01/v99e/195.5/bdkrc01_eett_195.5_28062.xsdst ! RUN = 28062 ! NEVT = 2000
FILE = /castor/cern.ch/delphi/MCprod/lyon/bdkrc01/v99e/195.5/bdkrc01_eett_195.5_28063.xsdst ! RUN = 28063 ! NEVT = 2000
FILE = /castor/cern.ch/delphi/MCprod/lyon/bdkrc01/v99e/195.5/bdkrc01_eett_195.5_28064.xsdst ! RUN = 28064 ! NEVT = 2000
FILE = /castor/cern.ch/delphi/MCprod/lyon/bdkrc01/v99e/195.5/bdkrc01_eett_195.5_28065.xsdst ! RUN = 28065 ! NEVT = 2000
FILE = /castor/cern.ch/delphi/MCprod/lyon/bdkrc01/v99e/195.5/bdkrc01_eett_195.5_28066.xsdst ! RUN = 28066 ! NEVT = 2000
FILE = /castor/cern.ch/delphi/MCprod/lyon/bdkrc01/v99e/195.5/bdkrc01_eett_195.5_28067.xsdst ! RUN = 28067 ! NEVT = 2000
FILE = /castor/cern.ch/delphi/MCprod/lyon/bdkrc01/v99e/195.5/bdkrc01_eett_195.5_28068.xsdst ! RUN = 28068 ! NEVT = 2000
FILE = /castor/cern.ch/delphi/MCprod/lyon/bdkrc01/v99e/195.5/bdkrc01_eett_195.5_28069.xsdst ! RUN = 28069 ! NEVT = 2000
FILE = /castor/cern.ch/delphi/MCprod/lyon/bdkrc01/v99e/195.5/bdkrc01_eett_195.5_28070.xsdst ! RUN = 28070 ! NEVT = 2000
FILE = /castor/cern.ch/delphi/MCprod/lyon/bdkrc01/v99e/195.5/bdkrc01_eett_195.5_28071.xsdst ! RUN = 28071 ! NEVT = 2000
FILE = /castor/cern.ch/delphi/MCprod/lyon/bdkrc01/v99e/195.5/bdkrc01_eett_195.5_28072.xsdst ! RUN = 28072 ! NEVT = 2000
FILE = /castor/cern.ch/delphi/MCprod/lyon/bdkrc01/v99e/195.5/bdkrc01_eett_195.5_28073.xsdst ! RUN = 28073 ! NEVT = 2000
FILE = /castor/cern.ch/delphi/MCprod/lyon/bdkrc01/v99e/195.5/bdkrc01_eett_195.5_28074.xsdst ! RUN = 28074 ! NEVT = 2000
FILE = /castor/cern.ch/delphi/MCprod/lyon/bdkrc01/v99e/195.5/bdkrc01_eett_195.5_28075.xsdst ! RUN = 28075 ! NEVT = 2000
FILE = /castor/cern.ch/delphi/MCprod/lyon/bdkrc01/v99e/195.5/bdkrc01_eett_195.5_28076.xsdst ! RUN = 28076 ! NEVT = 2000
FILE = /castor/cern.ch/delphi/MCprod/lyon/bdkrc01/v99e/195.5/bdkrc01_eett_195.5_28077.xsdst ! RUN = 28077 ! NEVT = 2000
FILE = /castor/cern.ch/delphi/MCprod/lyon/bdkrc01/v99e/195.5/bdkrc01_eett_195.5_28078.xsdst ! RUN = 28078 ! NEVT = 2000
FILE = /castor/cern.ch/delphi/MCprod/lyon/bdkrc01/v99e/195.5/bdkrc01_eett_195.5_28079.xsdst ! RUN = 28079 ! NEVT = 2000
FILE = /castor/cern.ch/delphi/MCprod/lyon/bdkrc01/v99e/195.5/bdkrc01_eett_195.5_28080.xsdst ! RUN = 28080 ! NEVT = 2000
FILE = /castor/cern.ch/delphi/MCprod/lyon/bdkrc01/v99e/195.5/bdkrc01_eett_195.5_28081.xsdst ! RUN = 28081 ! NEVT = 2000
FILE = /castor/cern.ch/delphi/MCprod/lyon/bdkrc01/v99e/195.5/bdkrc01_eett_195.5_28082.xsdst ! RUN = 28082 ! NEVT = 2000
FILE = /castor/cern.ch/delphi/MCprod/lyon/bdkrc01/v99e/195.5/bdkrc01_eett_195.5_28083.xsdst ! RUN = 28083 ! NEVT = 2000
FILE = /castor/cern.ch/delphi/MCprod/lyon/bdkrc01/v99e/195.5/bdkrc01_eett_195.5_28084.xsdst ! RUN = 28084 ! NEVT = 2000
FILE = /castor/cern.ch/delphi/MCprod/lyon/bdkrc01/v99e/195.5/bdkrc01_eett_195.5_28085.xsdst ! RUN = 28085 ! NEVT = 2000
FILE = /castor/cern.ch/delphi/MCprod/lyon/bdkrc01/v99e/195.5/bdkrc01_eett_195.5_28086.xsdst ! RUN = 28086 ! NEVT = 2000
FILE = /castor/cern.ch/delphi/MCprod/lyon/bdkrc01/v99e/195.5/bdkrc01_eett_195.5_28087.xsdst ! RUN = 28087 ! NEVT = 2000
FILE = /castor/cern.ch/delphi/MCprod/lyon/bdkrc01/v99e/195.5/bdkrc01_eett_195.5_28088.xsdst ! RUN = 28088 ! NEVT = 2000
FILE = /castor/cern.ch/delphi/MCprod/lyon/bdkrc01/v99e/195.5/bdkrc01_eett_195.5_28089.xsdst ! RUN = 28089 ! NEVT = 2000
FILE = /castor/cern.ch/delphi/MCprod/lyon/bdkrc01/v99e/195.5/bdkrc01_eett_195.5_28090.xsdst ! RUN = 28090 ! NEVT = 2000
FILE = /castor/cern.ch/delphi/MCprod/lyon/bdkrc01/v99e/195.5/bdkrc01_eett_195.5_28091.xsdst ! RUN = 28091 ! NEVT = 2000
FILE = /castor/cern.ch/delphi/MCprod/lyon/bdkrc01/v99e/195.5/bdkrc01_eett_195.5_28092.xsdst ! RUN = 28092 ! NEVT = 2000
FILE = /castor/cern.ch/delphi/MCprod/lyon/bdkrc01/v99e/195.5/bdkrc01_eett_195.5_28093.xsdst ! RUN = 28093 ! NEVT = 2000
FILE = /castor/cern.ch/delphi/MCprod/lyon/bdkrc01/v99e/195.5/bdkrc01_eett_195.5_28094.xsdst ! RUN = 28094 ! NEVT = 2000
FILE = /castor/cern.ch/delphi/MCprod/lyon/bdkrc01/v99e/195.5/bdkrc01_eett_195.5_28095.xsdst ! RUN = 28095 ! NEVT = 2000
FILE = /castor/cern.ch/delphi/MCprod/lyon/bdkrc01/v99e/195.5/bdkrc01_eett_195.5_28096.xsdst ! RUN = 28096 ! NEVT = 2000
FILE = /castor/cern.ch/delphi/MCprod/lyon/bdkrc01/v99e/195.5/bdkrc01_eett_195.5_28097.xsdst ! RUN = 28097 ! NEVT = 2000
FILE = /castor/cern.ch/delphi/MCprod/lyon/bdkrc01/v99e/195.5/bdkrc01_eett_195.5_28098.xsdst ! RUN = 28098 ! NEVT = 2000
FILE = /castor/cern.ch/delphi/MCprod/lyon/bdkrc01/v99e/195.5/bdkrc01_eett_195.5_28099.xsdst ! RUN = 28099 ! NEVT = 2000
FILE = /castor/cern.ch/delphi/MCprod/lyon/bdkrc01/v99e/195.5/bdkrc01_eett_195.5_28100.xsdst ! RUN = 28100 ! NEVT = 2000
