*
*   Nickname     : xs_bdkrc02eemm_e201.6_r99_1l_e1
*   Generic Name : //CERN/DELPHI/P02_SIMD/XSDST/BDKRC02EEMM/E201.6/RAL/SUMT/C001-30
*   Description  :  Extended Short DST simulation 99_e1 done at ecms=201.6 , RAL
*---
*   Comments     : in total 290059 events in 30 files time stamp: Wed Jan  9 13:58:31 2002
*---
*
*
*
*
*
FILE = /castor/cern.ch/delphi/MCprod/ral/bdkrc02/v99e/201.6/bdkrc02_eemm_201.6_36001.xsdst ! RUN = 36001 ! NEVT = 10000
FILE = /castor/cern.ch/delphi/MCprod/ral/bdkrc02/v99e/201.6/bdkrc02_eemm_201.6_36002.xsdst ! RUN = 36002 ! NEVT = 10000
FILE = /castor/cern.ch/delphi/MCprod/ral/bdkrc02/v99e/201.6/bdkrc02_eemm_201.6_36003.xsdst ! RUN = 36003 ! NEVT = 10000
FILE = /castor/cern.ch/delphi/MCprod/ral/bdkrc02/v99e/201.6/bdkrc02_eemm_201.6_36004.xsdst ! RUN = 36004 ! NEVT = 8057
FILE = /castor/cern.ch/delphi/MCprod/ral/bdkrc02/v99e/201.6/bdkrc02_eemm_201.6_36005.xsdst ! RUN = 36005 ! NEVT = 10000
FILE = /castor/cern.ch/delphi/MCprod/ral/bdkrc02/v99e/201.6/bdkrc02_eemm_201.6_36006.xsdst ! RUN = 36006 ! NEVT = 4460
FILE = /castor/cern.ch/delphi/MCprod/ral/bdkrc02/v99e/201.6/bdkrc02_eemm_201.6_36007.xsdst ! RUN = 36007 ! NEVT = 10000
FILE = /castor/cern.ch/delphi/MCprod/ral/bdkrc02/v99e/201.6/bdkrc02_eemm_201.6_36008.xsdst ! RUN = 36008 ! NEVT = 10000
FILE = /castor/cern.ch/delphi/MCprod/ral/bdkrc02/v99e/201.6/bdkrc02_eemm_201.6_36009.xsdst ! RUN = 36009 ! NEVT = 10000
FILE = /castor/cern.ch/delphi/MCprod/ral/bdkrc02/v99e/201.6/bdkrc02_eemm_201.6_36010.xsdst ! RUN = 36010 ! NEVT = 10000
FILE = /castor/cern.ch/delphi/MCprod/ral/bdkrc02/v99e/201.6/bdkrc02_eemm_201.6_36011.xsdst ! RUN = 36011 ! NEVT = 10000
FILE = /castor/cern.ch/delphi/MCprod/ral/bdkrc02/v99e/201.6/bdkrc02_eemm_201.6_36012.xsdst ! RUN = 36012 ! NEVT = 10000
FILE = /castor/cern.ch/delphi/MCprod/ral/bdkrc02/v99e/201.6/bdkrc02_eemm_201.6_36013.xsdst ! RUN = 36013 ! NEVT = 10000
FILE = /castor/cern.ch/delphi/MCprod/ral/bdkrc02/v99e/201.6/bdkrc02_eemm_201.6_36014.xsdst ! RUN = 36014 ! NEVT = 10000
FILE = /castor/cern.ch/delphi/MCprod/ral/bdkrc02/v99e/201.6/bdkrc02_eemm_201.6_36015.xsdst ! RUN = 36015 ! NEVT = 10000
FILE = /castor/cern.ch/delphi/MCprod/ral/bdkrc02/v99e/201.6/bdkrc02_eemm_201.6_36016.xsdst ! RUN = 36016 ! NEVT = 10000
FILE = /castor/cern.ch/delphi/MCprod/ral/bdkrc02/v99e/201.6/bdkrc02_eemm_201.6_36017.xsdst ! RUN = 36017 ! NEVT = 7542
FILE = /castor/cern.ch/delphi/MCprod/ral/bdkrc02/v99e/201.6/bdkrc02_eemm_201.6_36018.xsdst ! RUN = 36018 ! NEVT = 10000
FILE = /castor/cern.ch/delphi/MCprod/ral/bdkrc02/v99e/201.6/bdkrc02_eemm_201.6_36019.xsdst ! RUN = 36019 ! NEVT = 10000
FILE = /castor/cern.ch/delphi/MCprod/ral/bdkrc02/v99e/201.6/bdkrc02_eemm_201.6_36020.xsdst ! RUN = 36020 ! NEVT = 10000
FILE = /castor/cern.ch/delphi/MCprod/ral/bdkrc02/v99e/201.6/bdkrc02_eemm_201.6_36021.xsdst ! RUN = 36021 ! NEVT = 10000
FILE = /castor/cern.ch/delphi/MCprod/ral/bdkrc02/v99e/201.6/bdkrc02_eemm_201.6_36022.xsdst ! RUN = 36022 ! NEVT = 10000
FILE = /castor/cern.ch/delphi/MCprod/ral/bdkrc02/v99e/201.6/bdkrc02_eemm_201.6_36023.xsdst ! RUN = 36023 ! NEVT = 10000
FILE = /castor/cern.ch/delphi/MCprod/ral/bdkrc02/v99e/201.6/bdkrc02_eemm_201.6_36024.xsdst ! RUN = 36024 ! NEVT = 10000
FILE = /castor/cern.ch/delphi/MCprod/ral/bdkrc02/v99e/201.6/bdkrc02_eemm_201.6_36025.xsdst ! RUN = 36025 ! NEVT = 10000
FILE = /castor/cern.ch/delphi/MCprod/ral/bdkrc02/v99e/201.6/bdkrc02_eemm_201.6_36026.xsdst ! RUN = 36026 ! NEVT = 10000
FILE = /castor/cern.ch/delphi/MCprod/ral/bdkrc02/v99e/201.6/bdkrc02_eemm_201.6_36027.xsdst ! RUN = 36027 ! NEVT = 10000
FILE = /castor/cern.ch/delphi/MCprod/ral/bdkrc02/v99e/201.6/bdkrc02_eemm_201.6_36028.xsdst ! RUN = 36028 ! NEVT = 10000
FILE = /castor/cern.ch/delphi/MCprod/ral/bdkrc02/v99e/201.6/bdkrc02_eemm_201.6_36029.xsdst ! RUN = 36029 ! NEVT = 10000
FILE = /castor/cern.ch/delphi/MCprod/ral/bdkrc02/v99e/201.6/bdkrc02_eemm_201.6_36030.xsdst ! RUN = 36030 ! NEVT = 10000
