*
*   Nickname     : xs_bdkrc01eemm_e199.5_l99_1l_e1
*   Generic Name : //CERN/DELPHI/P02_SIMD/XSDST/BDKRC01EEMM/E199.5/LYON/SUMT/C001-100
*   Description  :  Extended Short DST simulation 99_e1 done at ecms=199.5 , Lyon
*---
*   Comments     : in total 198368 events in 100 files time stamp: Sun Oct 21 10:16:56 2001
*---
*
*
*
*
*
FILE = /castor/cern.ch/delphi/MCprod/lyon/bdkrc01/v99e/199.5/bdkrc01_eemm_199.5_30001.xsdst ! RUN = 30001 ! NEVT = 2000
FILE = /castor/cern.ch/delphi/MCprod/lyon/bdkrc01/v99e/199.5/bdkrc01_eemm_199.5_30002.xsdst ! RUN = 30002 ! NEVT = 2000
FILE = /castor/cern.ch/delphi/MCprod/lyon/bdkrc01/v99e/199.5/bdkrc01_eemm_199.5_30003.xsdst ! RUN = 30003 ! NEVT = 2000
FILE = /castor/cern.ch/delphi/MCprod/lyon/bdkrc01/v99e/199.5/bdkrc01_eemm_199.5_30004.xsdst ! RUN = 30004 ! NEVT = 2000
FILE = /castor/cern.ch/delphi/MCprod/lyon/bdkrc01/v99e/199.5/bdkrc01_eemm_199.5_30005.xsdst ! RUN = 30005 ! NEVT = 2000
FILE = /castor/cern.ch/delphi/MCprod/lyon/bdkrc01/v99e/199.5/bdkrc01_eemm_199.5_30006.xsdst ! RUN = 30006 ! NEVT = 2000
FILE = /castor/cern.ch/delphi/MCprod/lyon/bdkrc01/v99e/199.5/bdkrc01_eemm_199.5_30007.xsdst ! RUN = 30007 ! NEVT = 2000
FILE = /castor/cern.ch/delphi/MCprod/lyon/bdkrc01/v99e/199.5/bdkrc01_eemm_199.5_30008.xsdst ! RUN = 30008 ! NEVT = 2000
FILE = /castor/cern.ch/delphi/MCprod/lyon/bdkrc01/v99e/199.5/bdkrc01_eemm_199.5_30009.xsdst ! RUN = 30009 ! NEVT = 2000
FILE = /castor/cern.ch/delphi/MCprod/lyon/bdkrc01/v99e/199.5/bdkrc01_eemm_199.5_30010.xsdst ! RUN = 30010 ! NEVT = 2000
FILE = /castor/cern.ch/delphi/MCprod/lyon/bdkrc01/v99e/199.5/bdkrc01_eemm_199.5_30011.xsdst ! RUN = 30011 ! NEVT = 2000
FILE = /castor/cern.ch/delphi/MCprod/lyon/bdkrc01/v99e/199.5/bdkrc01_eemm_199.5_30012.xsdst ! RUN = 30012 ! NEVT = 2000
FILE = /castor/cern.ch/delphi/MCprod/lyon/bdkrc01/v99e/199.5/bdkrc01_eemm_199.5_30013.xsdst ! RUN = 30013 ! NEVT = 2000
FILE = /castor/cern.ch/delphi/MCprod/lyon/bdkrc01/v99e/199.5/bdkrc01_eemm_199.5_30014.xsdst ! RUN = 30014 ! NEVT = 2000
FILE = /castor/cern.ch/delphi/MCprod/lyon/bdkrc01/v99e/199.5/bdkrc01_eemm_199.5_30015.xsdst ! RUN = 30015 ! NEVT = 2000
FILE = /castor/cern.ch/delphi/MCprod/lyon/bdkrc01/v99e/199.5/bdkrc01_eemm_199.5_30016.xsdst ! RUN = 30016 ! NEVT = 2000
FILE = /castor/cern.ch/delphi/MCprod/lyon/bdkrc01/v99e/199.5/bdkrc01_eemm_199.5_30017.xsdst ! RUN = 30017 ! NEVT = 2000
FILE = /castor/cern.ch/delphi/MCprod/lyon/bdkrc01/v99e/199.5/bdkrc01_eemm_199.5_30018.xsdst ! RUN = 30018 ! NEVT = 2000
FILE = /castor/cern.ch/delphi/MCprod/lyon/bdkrc01/v99e/199.5/bdkrc01_eemm_199.5_30019.xsdst ! RUN = 30019 ! NEVT = 2000
FILE = /castor/cern.ch/delphi/MCprod/lyon/bdkrc01/v99e/199.5/bdkrc01_eemm_199.5_30020.xsdst ! RUN = 30020 ! NEVT = 2000
FILE = /castor/cern.ch/delphi/MCprod/lyon/bdkrc01/v99e/199.5/bdkrc01_eemm_199.5_30021.xsdst ! RUN = 30021 ! NEVT = 2000
FILE = /castor/cern.ch/delphi/MCprod/lyon/bdkrc01/v99e/199.5/bdkrc01_eemm_199.5_30022.xsdst ! RUN = 30022 ! NEVT = 2000
FILE = /castor/cern.ch/delphi/MCprod/lyon/bdkrc01/v99e/199.5/bdkrc01_eemm_199.5_30023.xsdst ! RUN = 30023 ! NEVT = 2000
FILE = /castor/cern.ch/delphi/MCprod/lyon/bdkrc01/v99e/199.5/bdkrc01_eemm_199.5_30024.xsdst ! RUN = 30024 ! NEVT = 2000
FILE = /castor/cern.ch/delphi/MCprod/lyon/bdkrc01/v99e/199.5/bdkrc01_eemm_199.5_30025.xsdst ! RUN = 30025 ! NEVT = 2000
FILE = /castor/cern.ch/delphi/MCprod/lyon/bdkrc01/v99e/199.5/bdkrc01_eemm_199.5_30026.xsdst ! RUN = 30026 ! NEVT = 2000
FILE = /castor/cern.ch/delphi/MCprod/lyon/bdkrc01/v99e/199.5/bdkrc01_eemm_199.5_30027.xsdst ! RUN = 30027 ! NEVT = 2000
FILE = /castor/cern.ch/delphi/MCprod/lyon/bdkrc01/v99e/199.5/bdkrc01_eemm_199.5_30028.xsdst ! RUN = 30028 ! NEVT = 2000
FILE = /castor/cern.ch/delphi/MCprod/lyon/bdkrc01/v99e/199.5/bdkrc01_eemm_199.5_30029.xsdst ! RUN = 30029 ! NEVT = 2000
FILE = /castor/cern.ch/delphi/MCprod/lyon/bdkrc01/v99e/199.5/bdkrc01_eemm_199.5_30030.xsdst ! RUN = 30030 ! NEVT = 2000
FILE = /castor/cern.ch/delphi/MCprod/lyon/bdkrc01/v99e/199.5/bdkrc01_eemm_199.5_30031.xsdst ! RUN = 30031 ! NEVT = 2000
FILE = /castor/cern.ch/delphi/MCprod/lyon/bdkrc01/v99e/199.5/bdkrc01_eemm_199.5_30032.xsdst ! RUN = 30032 ! NEVT = 2000
FILE = /castor/cern.ch/delphi/MCprod/lyon/bdkrc01/v99e/199.5/bdkrc01_eemm_199.5_30033.xsdst ! RUN = 30033 ! NEVT = 2000
FILE = /castor/cern.ch/delphi/MCprod/lyon/bdkrc01/v99e/199.5/bdkrc01_eemm_199.5_30034.xsdst ! RUN = 30034 ! NEVT = 2000
FILE = /castor/cern.ch/delphi/MCprod/lyon/bdkrc01/v99e/199.5/bdkrc01_eemm_199.5_30035.xsdst ! RUN = 30035 ! NEVT = 2000
FILE = /castor/cern.ch/delphi/MCprod/lyon/bdkrc01/v99e/199.5/bdkrc01_eemm_199.5_30036.xsdst ! RUN = 30036 ! NEVT = 2000
FILE = /castor/cern.ch/delphi/MCprod/lyon/bdkrc01/v99e/199.5/bdkrc01_eemm_199.5_30037.xsdst ! RUN = 30037 ! NEVT = 2000
FILE = /castor/cern.ch/delphi/MCprod/lyon/bdkrc01/v99e/199.5/bdkrc01_eemm_199.5_30038.xsdst ! RUN = 30038 ! NEVT = 2000
FILE = /castor/cern.ch/delphi/MCprod/lyon/bdkrc01/v99e/199.5/bdkrc01_eemm_199.5_30039.xsdst ! RUN = 30039 ! NEVT = 2000
FILE = /castor/cern.ch/delphi/MCprod/lyon/bdkrc01/v99e/199.5/bdkrc01_eemm_199.5_30040.xsdst ! RUN = 30040 ! NEVT = 2000
FILE = /castor/cern.ch/delphi/MCprod/lyon/bdkrc01/v99e/199.5/bdkrc01_eemm_199.5_30041.xsdst ! RUN = 30041 ! NEVT = 2000
FILE = /castor/cern.ch/delphi/MCprod/lyon/bdkrc01/v99e/199.5/bdkrc01_eemm_199.5_30042.xsdst ! RUN = 30042 ! NEVT = 2000
FILE = /castor/cern.ch/delphi/MCprod/lyon/bdkrc01/v99e/199.5/bdkrc01_eemm_199.5_30043.xsdst ! RUN = 30043 ! NEVT = 2000
FILE = /castor/cern.ch/delphi/MCprod/lyon/bdkrc01/v99e/199.5/bdkrc01_eemm_199.5_30044.xsdst ! RUN = 30044 ! NEVT = 2000
FILE = /castor/cern.ch/delphi/MCprod/lyon/bdkrc01/v99e/199.5/bdkrc01_eemm_199.5_30045.xsdst ! RUN = 30045 ! NEVT = 2000
FILE = /castor/cern.ch/delphi/MCprod/lyon/bdkrc01/v99e/199.5/bdkrc01_eemm_199.5_30046.xsdst ! RUN = 30046 ! NEVT = 2000
FILE = /castor/cern.ch/delphi/MCprod/lyon/bdkrc01/v99e/199.5/bdkrc01_eemm_199.5_30047.xsdst ! RUN = 30047 ! NEVT = 2000
FILE = /castor/cern.ch/delphi/MCprod/lyon/bdkrc01/v99e/199.5/bdkrc01_eemm_199.5_30048.xsdst ! RUN = 30048 ! NEVT = 2000
FILE = /castor/cern.ch/delphi/MCprod/lyon/bdkrc01/v99e/199.5/bdkrc01_eemm_199.5_30049.xsdst ! RUN = 30049 ! NEVT = 2000
FILE = /castor/cern.ch/delphi/MCprod/lyon/bdkrc01/v99e/199.5/bdkrc01_eemm_199.5_30050.xsdst ! RUN = 30050 ! NEVT = 2000
FILE = /castor/cern.ch/delphi/MCprod/lyon/bdkrc01/v99e/199.5/bdkrc01_eemm_199.5_30051.xsdst ! RUN = 30051 ! NEVT = 2000
FILE = /castor/cern.ch/delphi/MCprod/lyon/bdkrc01/v99e/199.5/bdkrc01_eemm_199.5_30052.xsdst ! RUN = 30052 ! NEVT = 2000
FILE = /castor/cern.ch/delphi/MCprod/lyon/bdkrc01/v99e/199.5/bdkrc01_eemm_199.5_30053.xsdst ! RUN = 30053 ! NEVT = 2000
FILE = /castor/cern.ch/delphi/MCprod/lyon/bdkrc01/v99e/199.5/bdkrc01_eemm_199.5_30054.xsdst ! RUN = 30054 ! NEVT = 2000
FILE = /castor/cern.ch/delphi/MCprod/lyon/bdkrc01/v99e/199.5/bdkrc01_eemm_199.5_30055.xsdst ! RUN = 30055 ! NEVT = 2000
FILE = /castor/cern.ch/delphi/MCprod/lyon/bdkrc01/v99e/199.5/bdkrc01_eemm_199.5_30056.xsdst ! RUN = 30056 ! NEVT = 2000
FILE = /castor/cern.ch/delphi/MCprod/lyon/bdkrc01/v99e/199.5/bdkrc01_eemm_199.5_30057.xsdst ! RUN = 30057 ! NEVT = 2000
FILE = /castor/cern.ch/delphi/MCprod/lyon/bdkrc01/v99e/199.5/bdkrc01_eemm_199.5_30058.xsdst ! RUN = 30058 ! NEVT = 2000
FILE = /castor/cern.ch/delphi/MCprod/lyon/bdkrc01/v99e/199.5/bdkrc01_eemm_199.5_30059.xsdst ! RUN = 30059 ! NEVT = 2000
FILE = /castor/cern.ch/delphi/MCprod/lyon/bdkrc01/v99e/199.5/bdkrc01_eemm_199.5_30060.xsdst ! RUN = 30060 ! NEVT = 368
FILE = /castor/cern.ch/delphi/MCprod/lyon/bdkrc01/v99e/199.5/bdkrc01_eemm_199.5_30061.xsdst ! RUN = 30061 ! NEVT = 2000
FILE = /castor/cern.ch/delphi/MCprod/lyon/bdkrc01/v99e/199.5/bdkrc01_eemm_199.5_30062.xsdst ! RUN = 30062 ! NEVT = 2000
FILE = /castor/cern.ch/delphi/MCprod/lyon/bdkrc01/v99e/199.5/bdkrc01_eemm_199.5_30063.xsdst ! RUN = 30063 ! NEVT = 2000
FILE = /castor/cern.ch/delphi/MCprod/lyon/bdkrc01/v99e/199.5/bdkrc01_eemm_199.5_30064.xsdst ! RUN = 30064 ! NEVT = 2000
FILE = /castor/cern.ch/delphi/MCprod/lyon/bdkrc01/v99e/199.5/bdkrc01_eemm_199.5_30065.xsdst ! RUN = 30065 ! NEVT = 2000
FILE = /castor/cern.ch/delphi/MCprod/lyon/bdkrc01/v99e/199.5/bdkrc01_eemm_199.5_30066.xsdst ! RUN = 30066 ! NEVT = 2000
FILE = /castor/cern.ch/delphi/MCprod/lyon/bdkrc01/v99e/199.5/bdkrc01_eemm_199.5_30067.xsdst ! RUN = 30067 ! NEVT = 2000
FILE = /castor/cern.ch/delphi/MCprod/lyon/bdkrc01/v99e/199.5/bdkrc01_eemm_199.5_30068.xsdst ! RUN = 30068 ! NEVT = 2000
FILE = /castor/cern.ch/delphi/MCprod/lyon/bdkrc01/v99e/199.5/bdkrc01_eemm_199.5_30069.xsdst ! RUN = 30069 ! NEVT = 2000
FILE = /castor/cern.ch/delphi/MCprod/lyon/bdkrc01/v99e/199.5/bdkrc01_eemm_199.5_30070.xsdst ! RUN = 30070 ! NEVT = 2000
FILE = /castor/cern.ch/delphi/MCprod/lyon/bdkrc01/v99e/199.5/bdkrc01_eemm_199.5_30071.xsdst ! RUN = 30071 ! NEVT = 2000
FILE = /castor/cern.ch/delphi/MCprod/lyon/bdkrc01/v99e/199.5/bdkrc01_eemm_199.5_30072.xsdst ! RUN = 30072 ! NEVT = 2000
FILE = /castor/cern.ch/delphi/MCprod/lyon/bdkrc01/v99e/199.5/bdkrc01_eemm_199.5_30073.xsdst ! RUN = 30073 ! NEVT = 2000
FILE = /castor/cern.ch/delphi/MCprod/lyon/bdkrc01/v99e/199.5/bdkrc01_eemm_199.5_30074.xsdst ! RUN = 30074 ! NEVT = 2000
FILE = /castor/cern.ch/delphi/MCprod/lyon/bdkrc01/v99e/199.5/bdkrc01_eemm_199.5_30075.xsdst ! RUN = 30075 ! NEVT = 2000
FILE = /castor/cern.ch/delphi/MCprod/lyon/bdkrc01/v99e/199.5/bdkrc01_eemm_199.5_30076.xsdst ! RUN = 30076 ! NEVT = 2000
FILE = /castor/cern.ch/delphi/MCprod/lyon/bdkrc01/v99e/199.5/bdkrc01_eemm_199.5_30077.xsdst ! RUN = 30077 ! NEVT = 2000
FILE = /castor/cern.ch/delphi/MCprod/lyon/bdkrc01/v99e/199.5/bdkrc01_eemm_199.5_30078.xsdst ! RUN = 30078 ! NEVT = 2000
FILE = /castor/cern.ch/delphi/MCprod/lyon/bdkrc01/v99e/199.5/bdkrc01_eemm_199.5_30079.xsdst ! RUN = 30079 ! NEVT = 2000
FILE = /castor/cern.ch/delphi/MCprod/lyon/bdkrc01/v99e/199.5/bdkrc01_eemm_199.5_30080.xsdst ! RUN = 30080 ! NEVT = 2000
FILE = /castor/cern.ch/delphi/MCprod/lyon/bdkrc01/v99e/199.5/bdkrc01_eemm_199.5_30081.xsdst ! RUN = 30081 ! NEVT = 2000
FILE = /castor/cern.ch/delphi/MCprod/lyon/bdkrc01/v99e/199.5/bdkrc01_eemm_199.5_30082.xsdst ! RUN = 30082 ! NEVT = 2000
FILE = /castor/cern.ch/delphi/MCprod/lyon/bdkrc01/v99e/199.5/bdkrc01_eemm_199.5_30083.xsdst ! RUN = 30083 ! NEVT = 2000
FILE = /castor/cern.ch/delphi/MCprod/lyon/bdkrc01/v99e/199.5/bdkrc01_eemm_199.5_30084.xsdst ! RUN = 30084 ! NEVT = 2000
FILE = /castor/cern.ch/delphi/MCprod/lyon/bdkrc01/v99e/199.5/bdkrc01_eemm_199.5_30085.xsdst ! RUN = 30085 ! NEVT = 2000
FILE = /castor/cern.ch/delphi/MCprod/lyon/bdkrc01/v99e/199.5/bdkrc01_eemm_199.5_30086.xsdst ! RUN = 30086 ! NEVT = 2000
FILE = /castor/cern.ch/delphi/MCprod/lyon/bdkrc01/v99e/199.5/bdkrc01_eemm_199.5_30087.xsdst ! RUN = 30087 ! NEVT = 2000
FILE = /castor/cern.ch/delphi/MCprod/lyon/bdkrc01/v99e/199.5/bdkrc01_eemm_199.5_30088.xsdst ! RUN = 30088 ! NEVT = 2000
FILE = /castor/cern.ch/delphi/MCprod/lyon/bdkrc01/v99e/199.5/bdkrc01_eemm_199.5_30089.xsdst ! RUN = 30089 ! NEVT = 2000
FILE = /castor/cern.ch/delphi/MCprod/lyon/bdkrc01/v99e/199.5/bdkrc01_eemm_199.5_30090.xsdst ! RUN = 30090 ! NEVT = 2000
FILE = /castor/cern.ch/delphi/MCprod/lyon/bdkrc01/v99e/199.5/bdkrc01_eemm_199.5_30091.xsdst ! RUN = 30091 ! NEVT = 2000
FILE = /castor/cern.ch/delphi/MCprod/lyon/bdkrc01/v99e/199.5/bdkrc01_eemm_199.5_30092.xsdst ! RUN = 30092 ! NEVT = 2000
FILE = /castor/cern.ch/delphi/MCprod/lyon/bdkrc01/v99e/199.5/bdkrc01_eemm_199.5_30093.xsdst ! RUN = 30093 ! NEVT = 2000
FILE = /castor/cern.ch/delphi/MCprod/lyon/bdkrc01/v99e/199.5/bdkrc01_eemm_199.5_30094.xsdst ! RUN = 30094 ! NEVT = 2000
FILE = /castor/cern.ch/delphi/MCprod/lyon/bdkrc01/v99e/199.5/bdkrc01_eemm_199.5_30095.xsdst ! RUN = 30095 ! NEVT = 2000
FILE = /castor/cern.ch/delphi/MCprod/lyon/bdkrc01/v99e/199.5/bdkrc01_eemm_199.5_30096.xsdst ! RUN = 30096 ! NEVT = 2000
FILE = /castor/cern.ch/delphi/MCprod/lyon/bdkrc01/v99e/199.5/bdkrc01_eemm_199.5_30097.xsdst ! RUN = 30097 ! NEVT = 2000
FILE = /castor/cern.ch/delphi/MCprod/lyon/bdkrc01/v99e/199.5/bdkrc01_eemm_199.5_30098.xsdst ! RUN = 30098 ! NEVT = 2000
FILE = /castor/cern.ch/delphi/MCprod/lyon/bdkrc01/v99e/199.5/bdkrc01_eemm_199.5_30099.xsdst ! RUN = 30099 ! NEVT = 2000
FILE = /castor/cern.ch/delphi/MCprod/lyon/bdkrc01/v99e/199.5/bdkrc01_eemm_199.5_30100.xsdst ! RUN = 30100 ! NEVT = 2000
