*
*   Nickname     : xs_bdkrc01eemm_e191.6_r99_1l_e1
*   Generic Name : //CERN/DELPHI/P02_SIMD/XSDST/BDKRC01EEMM/E191.6/RAL/SUMT/C001-250
*   Description  :  Extended Short DST simulation 99_e1 done at ecms=191.6 , RAL
*---
*   Comments     : in total 500000 events in 250 files time stamp: Sat Oct 27 12:15:32 2001
*---
*
*
*
*
*
FILE = /castor/cern.ch/delphi/MCprod/ral/bdkrc01/v99e/191.6/bdkrc01_eemm_191.6_24001.xsdst ! RUN = 24001 ! NEVT = 2000
FILE = /castor/cern.ch/delphi/MCprod/ral/bdkrc01/v99e/191.6/bdkrc01_eemm_191.6_24002.xsdst ! RUN = 24002 ! NEVT = 2000
FILE = /castor/cern.ch/delphi/MCprod/ral/bdkrc01/v99e/191.6/bdkrc01_eemm_191.6_24003.xsdst ! RUN = 24003 ! NEVT = 2000
FILE = /castor/cern.ch/delphi/MCprod/ral/bdkrc01/v99e/191.6/bdkrc01_eemm_191.6_24004.xsdst ! RUN = 24004 ! NEVT = 2000
FILE = /castor/cern.ch/delphi/MCprod/ral/bdkrc01/v99e/191.6/bdkrc01_eemm_191.6_24005.xsdst ! RUN = 24005 ! NEVT = 2000
FILE = /castor/cern.ch/delphi/MCprod/ral/bdkrc01/v99e/191.6/bdkrc01_eemm_191.6_24006.xsdst ! RUN = 24006 ! NEVT = 2000
FILE = /castor/cern.ch/delphi/MCprod/ral/bdkrc01/v99e/191.6/bdkrc01_eemm_191.6_24007.xsdst ! RUN = 24007 ! NEVT = 2000
FILE = /castor/cern.ch/delphi/MCprod/ral/bdkrc01/v99e/191.6/bdkrc01_eemm_191.6_24008.xsdst ! RUN = 24008 ! NEVT = 2000
FILE = /castor/cern.ch/delphi/MCprod/ral/bdkrc01/v99e/191.6/bdkrc01_eemm_191.6_24009.xsdst ! RUN = 24009 ! NEVT = 2000
FILE = /castor/cern.ch/delphi/MCprod/ral/bdkrc01/v99e/191.6/bdkrc01_eemm_191.6_24010.xsdst ! RUN = 24010 ! NEVT = 2000
FILE = /castor/cern.ch/delphi/MCprod/ral/bdkrc01/v99e/191.6/bdkrc01_eemm_191.6_24011.xsdst ! RUN = 24011 ! NEVT = 2000
FILE = /castor/cern.ch/delphi/MCprod/ral/bdkrc01/v99e/191.6/bdkrc01_eemm_191.6_24012.xsdst ! RUN = 24012 ! NEVT = 2000
FILE = /castor/cern.ch/delphi/MCprod/ral/bdkrc01/v99e/191.6/bdkrc01_eemm_191.6_24013.xsdst ! RUN = 24013 ! NEVT = 2000
FILE = /castor/cern.ch/delphi/MCprod/ral/bdkrc01/v99e/191.6/bdkrc01_eemm_191.6_24014.xsdst ! RUN = 24014 ! NEVT = 2000
FILE = /castor/cern.ch/delphi/MCprod/ral/bdkrc01/v99e/191.6/bdkrc01_eemm_191.6_24015.xsdst ! RUN = 24015 ! NEVT = 2000
FILE = /castor/cern.ch/delphi/MCprod/ral/bdkrc01/v99e/191.6/bdkrc01_eemm_191.6_24016.xsdst ! RUN = 24016 ! NEVT = 2000
FILE = /castor/cern.ch/delphi/MCprod/ral/bdkrc01/v99e/191.6/bdkrc01_eemm_191.6_24017.xsdst ! RUN = 24017 ! NEVT = 2000
FILE = /castor/cern.ch/delphi/MCprod/ral/bdkrc01/v99e/191.6/bdkrc01_eemm_191.6_24018.xsdst ! RUN = 24018 ! NEVT = 2000
FILE = /castor/cern.ch/delphi/MCprod/ral/bdkrc01/v99e/191.6/bdkrc01_eemm_191.6_24019.xsdst ! RUN = 24019 ! NEVT = 2000
FILE = /castor/cern.ch/delphi/MCprod/ral/bdkrc01/v99e/191.6/bdkrc01_eemm_191.6_24020.xsdst ! RUN = 24020 ! NEVT = 2000
FILE = /castor/cern.ch/delphi/MCprod/ral/bdkrc01/v99e/191.6/bdkrc01_eemm_191.6_24021.xsdst ! RUN = 24021 ! NEVT = 2000
FILE = /castor/cern.ch/delphi/MCprod/ral/bdkrc01/v99e/191.6/bdkrc01_eemm_191.6_24022.xsdst ! RUN = 24022 ! NEVT = 2000
FILE = /castor/cern.ch/delphi/MCprod/ral/bdkrc01/v99e/191.6/bdkrc01_eemm_191.6_24023.xsdst ! RUN = 24023 ! NEVT = 2000
FILE = /castor/cern.ch/delphi/MCprod/ral/bdkrc01/v99e/191.6/bdkrc01_eemm_191.6_24024.xsdst ! RUN = 24024 ! NEVT = 2000
FILE = /castor/cern.ch/delphi/MCprod/ral/bdkrc01/v99e/191.6/bdkrc01_eemm_191.6_24025.xsdst ! RUN = 24025 ! NEVT = 2000
FILE = /castor/cern.ch/delphi/MCprod/ral/bdkrc01/v99e/191.6/bdkrc01_eemm_191.6_24026.xsdst ! RUN = 24026 ! NEVT = 2000
FILE = /castor/cern.ch/delphi/MCprod/ral/bdkrc01/v99e/191.6/bdkrc01_eemm_191.6_24027.xsdst ! RUN = 24027 ! NEVT = 2000
FILE = /castor/cern.ch/delphi/MCprod/ral/bdkrc01/v99e/191.6/bdkrc01_eemm_191.6_24028.xsdst ! RUN = 24028 ! NEVT = 2000
FILE = /castor/cern.ch/delphi/MCprod/ral/bdkrc01/v99e/191.6/bdkrc01_eemm_191.6_24029.xsdst ! RUN = 24029 ! NEVT = 2000
FILE = /castor/cern.ch/delphi/MCprod/ral/bdkrc01/v99e/191.6/bdkrc01_eemm_191.6_24030.xsdst ! RUN = 24030 ! NEVT = 2000
FILE = /castor/cern.ch/delphi/MCprod/ral/bdkrc01/v99e/191.6/bdkrc01_eemm_191.6_24031.xsdst ! RUN = 24031 ! NEVT = 2000
FILE = /castor/cern.ch/delphi/MCprod/ral/bdkrc01/v99e/191.6/bdkrc01_eemm_191.6_24032.xsdst ! RUN = 24032 ! NEVT = 2000
FILE = /castor/cern.ch/delphi/MCprod/ral/bdkrc01/v99e/191.6/bdkrc01_eemm_191.6_24033.xsdst ! RUN = 24033 ! NEVT = 2000
FILE = /castor/cern.ch/delphi/MCprod/ral/bdkrc01/v99e/191.6/bdkrc01_eemm_191.6_24034.xsdst ! RUN = 24034 ! NEVT = 2000
FILE = /castor/cern.ch/delphi/MCprod/ral/bdkrc01/v99e/191.6/bdkrc01_eemm_191.6_24035.xsdst ! RUN = 24035 ! NEVT = 2000
FILE = /castor/cern.ch/delphi/MCprod/ral/bdkrc01/v99e/191.6/bdkrc01_eemm_191.6_24036.xsdst ! RUN = 24036 ! NEVT = 2000
FILE = /castor/cern.ch/delphi/MCprod/ral/bdkrc01/v99e/191.6/bdkrc01_eemm_191.6_24037.xsdst ! RUN = 24037 ! NEVT = 2000
FILE = /castor/cern.ch/delphi/MCprod/ral/bdkrc01/v99e/191.6/bdkrc01_eemm_191.6_24038.xsdst ! RUN = 24038 ! NEVT = 2000
FILE = /castor/cern.ch/delphi/MCprod/ral/bdkrc01/v99e/191.6/bdkrc01_eemm_191.6_24039.xsdst ! RUN = 24039 ! NEVT = 2000
FILE = /castor/cern.ch/delphi/MCprod/ral/bdkrc01/v99e/191.6/bdkrc01_eemm_191.6_24040.xsdst ! RUN = 24040 ! NEVT = 2000
FILE = /castor/cern.ch/delphi/MCprod/ral/bdkrc01/v99e/191.6/bdkrc01_eemm_191.6_24041.xsdst ! RUN = 24041 ! NEVT = 2000
FILE = /castor/cern.ch/delphi/MCprod/ral/bdkrc01/v99e/191.6/bdkrc01_eemm_191.6_24042.xsdst ! RUN = 24042 ! NEVT = 2000
FILE = /castor/cern.ch/delphi/MCprod/ral/bdkrc01/v99e/191.6/bdkrc01_eemm_191.6_24043.xsdst ! RUN = 24043 ! NEVT = 2000
FILE = /castor/cern.ch/delphi/MCprod/ral/bdkrc01/v99e/191.6/bdkrc01_eemm_191.6_24044.xsdst ! RUN = 24044 ! NEVT = 2000
FILE = /castor/cern.ch/delphi/MCprod/ral/bdkrc01/v99e/191.6/bdkrc01_eemm_191.6_24045.xsdst ! RUN = 24045 ! NEVT = 2000
FILE = /castor/cern.ch/delphi/MCprod/ral/bdkrc01/v99e/191.6/bdkrc01_eemm_191.6_24046.xsdst ! RUN = 24046 ! NEVT = 2000
FILE = /castor/cern.ch/delphi/MCprod/ral/bdkrc01/v99e/191.6/bdkrc01_eemm_191.6_24047.xsdst ! RUN = 24047 ! NEVT = 2000
FILE = /castor/cern.ch/delphi/MCprod/ral/bdkrc01/v99e/191.6/bdkrc01_eemm_191.6_24048.xsdst ! RUN = 24048 ! NEVT = 2000
FILE = /castor/cern.ch/delphi/MCprod/ral/bdkrc01/v99e/191.6/bdkrc01_eemm_191.6_24049.xsdst ! RUN = 24049 ! NEVT = 2000
FILE = /castor/cern.ch/delphi/MCprod/ral/bdkrc01/v99e/191.6/bdkrc01_eemm_191.6_24050.xsdst ! RUN = 24050 ! NEVT = 2000
FILE = /castor/cern.ch/delphi/MCprod/ral/bdkrc01/v99e/191.6/bdkrc01_eemm_191.6_24051.xsdst ! RUN = 24051 ! NEVT = 2000
FILE = /castor/cern.ch/delphi/MCprod/ral/bdkrc01/v99e/191.6/bdkrc01_eemm_191.6_24052.xsdst ! RUN = 24052 ! NEVT = 2000
FILE = /castor/cern.ch/delphi/MCprod/ral/bdkrc01/v99e/191.6/bdkrc01_eemm_191.6_24053.xsdst ! RUN = 24053 ! NEVT = 2000
FILE = /castor/cern.ch/delphi/MCprod/ral/bdkrc01/v99e/191.6/bdkrc01_eemm_191.6_24054.xsdst ! RUN = 24054 ! NEVT = 2000
FILE = /castor/cern.ch/delphi/MCprod/ral/bdkrc01/v99e/191.6/bdkrc01_eemm_191.6_24055.xsdst ! RUN = 24055 ! NEVT = 2000
FILE = /castor/cern.ch/delphi/MCprod/ral/bdkrc01/v99e/191.6/bdkrc01_eemm_191.6_24056.xsdst ! RUN = 24056 ! NEVT = 2000
FILE = /castor/cern.ch/delphi/MCprod/ral/bdkrc01/v99e/191.6/bdkrc01_eemm_191.6_24057.xsdst ! RUN = 24057 ! NEVT = 2000
FILE = /castor/cern.ch/delphi/MCprod/ral/bdkrc01/v99e/191.6/bdkrc01_eemm_191.6_24058.xsdst ! RUN = 24058 ! NEVT = 2000
FILE = /castor/cern.ch/delphi/MCprod/ral/bdkrc01/v99e/191.6/bdkrc01_eemm_191.6_24059.xsdst ! RUN = 24059 ! NEVT = 2000
FILE = /castor/cern.ch/delphi/MCprod/ral/bdkrc01/v99e/191.6/bdkrc01_eemm_191.6_24060.xsdst ! RUN = 24060 ! NEVT = 2000
FILE = /castor/cern.ch/delphi/MCprod/ral/bdkrc01/v99e/191.6/bdkrc01_eemm_191.6_24061.xsdst ! RUN = 24061 ! NEVT = 2000
FILE = /castor/cern.ch/delphi/MCprod/ral/bdkrc01/v99e/191.6/bdkrc01_eemm_191.6_24062.xsdst ! RUN = 24062 ! NEVT = 2000
FILE = /castor/cern.ch/delphi/MCprod/ral/bdkrc01/v99e/191.6/bdkrc01_eemm_191.6_24063.xsdst ! RUN = 24063 ! NEVT = 2000
FILE = /castor/cern.ch/delphi/MCprod/ral/bdkrc01/v99e/191.6/bdkrc01_eemm_191.6_24064.xsdst ! RUN = 24064 ! NEVT = 2000
FILE = /castor/cern.ch/delphi/MCprod/ral/bdkrc01/v99e/191.6/bdkrc01_eemm_191.6_24065.xsdst ! RUN = 24065 ! NEVT = 2000
FILE = /castor/cern.ch/delphi/MCprod/ral/bdkrc01/v99e/191.6/bdkrc01_eemm_191.6_24066.xsdst ! RUN = 24066 ! NEVT = 2000
FILE = /castor/cern.ch/delphi/MCprod/ral/bdkrc01/v99e/191.6/bdkrc01_eemm_191.6_24067.xsdst ! RUN = 24067 ! NEVT = 2000
FILE = /castor/cern.ch/delphi/MCprod/ral/bdkrc01/v99e/191.6/bdkrc01_eemm_191.6_24068.xsdst ! RUN = 24068 ! NEVT = 2000
FILE = /castor/cern.ch/delphi/MCprod/ral/bdkrc01/v99e/191.6/bdkrc01_eemm_191.6_24069.xsdst ! RUN = 24069 ! NEVT = 2000
FILE = /castor/cern.ch/delphi/MCprod/ral/bdkrc01/v99e/191.6/bdkrc01_eemm_191.6_24070.xsdst ! RUN = 24070 ! NEVT = 2000
FILE = /castor/cern.ch/delphi/MCprod/ral/bdkrc01/v99e/191.6/bdkrc01_eemm_191.6_24071.xsdst ! RUN = 24071 ! NEVT = 2000
FILE = /castor/cern.ch/delphi/MCprod/ral/bdkrc01/v99e/191.6/bdkrc01_eemm_191.6_24072.xsdst ! RUN = 24072 ! NEVT = 2000
FILE = /castor/cern.ch/delphi/MCprod/ral/bdkrc01/v99e/191.6/bdkrc01_eemm_191.6_24073.xsdst ! RUN = 24073 ! NEVT = 2000
FILE = /castor/cern.ch/delphi/MCprod/ral/bdkrc01/v99e/191.6/bdkrc01_eemm_191.6_24074.xsdst ! RUN = 24074 ! NEVT = 2000
FILE = /castor/cern.ch/delphi/MCprod/ral/bdkrc01/v99e/191.6/bdkrc01_eemm_191.6_24075.xsdst ! RUN = 24075 ! NEVT = 2000
FILE = /castor/cern.ch/delphi/MCprod/ral/bdkrc01/v99e/191.6/bdkrc01_eemm_191.6_24076.xsdst ! RUN = 24076 ! NEVT = 2000
FILE = /castor/cern.ch/delphi/MCprod/ral/bdkrc01/v99e/191.6/bdkrc01_eemm_191.6_24077.xsdst ! RUN = 24077 ! NEVT = 2000
FILE = /castor/cern.ch/delphi/MCprod/ral/bdkrc01/v99e/191.6/bdkrc01_eemm_191.6_24078.xsdst ! RUN = 24078 ! NEVT = 2000
FILE = /castor/cern.ch/delphi/MCprod/ral/bdkrc01/v99e/191.6/bdkrc01_eemm_191.6_24079.xsdst ! RUN = 24079 ! NEVT = 2000
FILE = /castor/cern.ch/delphi/MCprod/ral/bdkrc01/v99e/191.6/bdkrc01_eemm_191.6_24080.xsdst ! RUN = 24080 ! NEVT = 2000
FILE = /castor/cern.ch/delphi/MCprod/ral/bdkrc01/v99e/191.6/bdkrc01_eemm_191.6_24081.xsdst ! RUN = 24081 ! NEVT = 2000
FILE = /castor/cern.ch/delphi/MCprod/ral/bdkrc01/v99e/191.6/bdkrc01_eemm_191.6_24082.xsdst ! RUN = 24082 ! NEVT = 2000
FILE = /castor/cern.ch/delphi/MCprod/ral/bdkrc01/v99e/191.6/bdkrc01_eemm_191.6_24083.xsdst ! RUN = 24083 ! NEVT = 2000
FILE = /castor/cern.ch/delphi/MCprod/ral/bdkrc01/v99e/191.6/bdkrc01_eemm_191.6_24084.xsdst ! RUN = 24084 ! NEVT = 2000
FILE = /castor/cern.ch/delphi/MCprod/ral/bdkrc01/v99e/191.6/bdkrc01_eemm_191.6_24085.xsdst ! RUN = 24085 ! NEVT = 2000
FILE = /castor/cern.ch/delphi/MCprod/ral/bdkrc01/v99e/191.6/bdkrc01_eemm_191.6_24086.xsdst ! RUN = 24086 ! NEVT = 2000
FILE = /castor/cern.ch/delphi/MCprod/ral/bdkrc01/v99e/191.6/bdkrc01_eemm_191.6_24087.xsdst ! RUN = 24087 ! NEVT = 2000
FILE = /castor/cern.ch/delphi/MCprod/ral/bdkrc01/v99e/191.6/bdkrc01_eemm_191.6_24088.xsdst ! RUN = 24088 ! NEVT = 2000
FILE = /castor/cern.ch/delphi/MCprod/ral/bdkrc01/v99e/191.6/bdkrc01_eemm_191.6_24089.xsdst ! RUN = 24089 ! NEVT = 2000
FILE = /castor/cern.ch/delphi/MCprod/ral/bdkrc01/v99e/191.6/bdkrc01_eemm_191.6_24090.xsdst ! RUN = 24090 ! NEVT = 2000
FILE = /castor/cern.ch/delphi/MCprod/ral/bdkrc01/v99e/191.6/bdkrc01_eemm_191.6_24091.xsdst ! RUN = 24091 ! NEVT = 2000
FILE = /castor/cern.ch/delphi/MCprod/ral/bdkrc01/v99e/191.6/bdkrc01_eemm_191.6_24092.xsdst ! RUN = 24092 ! NEVT = 2000
FILE = /castor/cern.ch/delphi/MCprod/ral/bdkrc01/v99e/191.6/bdkrc01_eemm_191.6_24093.xsdst ! RUN = 24093 ! NEVT = 2000
FILE = /castor/cern.ch/delphi/MCprod/ral/bdkrc01/v99e/191.6/bdkrc01_eemm_191.6_24094.xsdst ! RUN = 24094 ! NEVT = 2000
FILE = /castor/cern.ch/delphi/MCprod/ral/bdkrc01/v99e/191.6/bdkrc01_eemm_191.6_24095.xsdst ! RUN = 24095 ! NEVT = 2000
FILE = /castor/cern.ch/delphi/MCprod/ral/bdkrc01/v99e/191.6/bdkrc01_eemm_191.6_24096.xsdst ! RUN = 24096 ! NEVT = 2000
FILE = /castor/cern.ch/delphi/MCprod/ral/bdkrc01/v99e/191.6/bdkrc01_eemm_191.6_24097.xsdst ! RUN = 24097 ! NEVT = 2000
FILE = /castor/cern.ch/delphi/MCprod/ral/bdkrc01/v99e/191.6/bdkrc01_eemm_191.6_24098.xsdst ! RUN = 24098 ! NEVT = 2000
FILE = /castor/cern.ch/delphi/MCprod/ral/bdkrc01/v99e/191.6/bdkrc01_eemm_191.6_24099.xsdst ! RUN = 24099 ! NEVT = 2000
FILE = /castor/cern.ch/delphi/MCprod/ral/bdkrc01/v99e/191.6/bdkrc01_eemm_191.6_24100.xsdst ! RUN = 24100 ! NEVT = 2000
FILE = /castor/cern.ch/delphi/MCprod/ral/bdkrc01/v99e/191.6/bdkrc01_eemm_191.6_24101.xsdst ! RUN = 24101 ! NEVT = 2000
FILE = /castor/cern.ch/delphi/MCprod/ral/bdkrc01/v99e/191.6/bdkrc01_eemm_191.6_24102.xsdst ! RUN = 24102 ! NEVT = 2000
FILE = /castor/cern.ch/delphi/MCprod/ral/bdkrc01/v99e/191.6/bdkrc01_eemm_191.6_24103.xsdst ! RUN = 24103 ! NEVT = 2000
FILE = /castor/cern.ch/delphi/MCprod/ral/bdkrc01/v99e/191.6/bdkrc01_eemm_191.6_24104.xsdst ! RUN = 24104 ! NEVT = 2000
FILE = /castor/cern.ch/delphi/MCprod/ral/bdkrc01/v99e/191.6/bdkrc01_eemm_191.6_24105.xsdst ! RUN = 24105 ! NEVT = 2000
FILE = /castor/cern.ch/delphi/MCprod/ral/bdkrc01/v99e/191.6/bdkrc01_eemm_191.6_24106.xsdst ! RUN = 24106 ! NEVT = 2000
FILE = /castor/cern.ch/delphi/MCprod/ral/bdkrc01/v99e/191.6/bdkrc01_eemm_191.6_24107.xsdst ! RUN = 24107 ! NEVT = 2000
FILE = /castor/cern.ch/delphi/MCprod/ral/bdkrc01/v99e/191.6/bdkrc01_eemm_191.6_24108.xsdst ! RUN = 24108 ! NEVT = 2000
FILE = /castor/cern.ch/delphi/MCprod/ral/bdkrc01/v99e/191.6/bdkrc01_eemm_191.6_24109.xsdst ! RUN = 24109 ! NEVT = 2000
FILE = /castor/cern.ch/delphi/MCprod/ral/bdkrc01/v99e/191.6/bdkrc01_eemm_191.6_24110.xsdst ! RUN = 24110 ! NEVT = 2000
FILE = /castor/cern.ch/delphi/MCprod/ral/bdkrc01/v99e/191.6/bdkrc01_eemm_191.6_24111.xsdst ! RUN = 24111 ! NEVT = 2000
FILE = /castor/cern.ch/delphi/MCprod/ral/bdkrc01/v99e/191.6/bdkrc01_eemm_191.6_24112.xsdst ! RUN = 24112 ! NEVT = 2000
FILE = /castor/cern.ch/delphi/MCprod/ral/bdkrc01/v99e/191.6/bdkrc01_eemm_191.6_24113.xsdst ! RUN = 24113 ! NEVT = 2000
FILE = /castor/cern.ch/delphi/MCprod/ral/bdkrc01/v99e/191.6/bdkrc01_eemm_191.6_24114.xsdst ! RUN = 24114 ! NEVT = 2000
FILE = /castor/cern.ch/delphi/MCprod/ral/bdkrc01/v99e/191.6/bdkrc01_eemm_191.6_24115.xsdst ! RUN = 24115 ! NEVT = 2000
FILE = /castor/cern.ch/delphi/MCprod/ral/bdkrc01/v99e/191.6/bdkrc01_eemm_191.6_24116.xsdst ! RUN = 24116 ! NEVT = 2000
FILE = /castor/cern.ch/delphi/MCprod/ral/bdkrc01/v99e/191.6/bdkrc01_eemm_191.6_24117.xsdst ! RUN = 24117 ! NEVT = 2000
FILE = /castor/cern.ch/delphi/MCprod/ral/bdkrc01/v99e/191.6/bdkrc01_eemm_191.6_24118.xsdst ! RUN = 24118 ! NEVT = 2000
FILE = /castor/cern.ch/delphi/MCprod/ral/bdkrc01/v99e/191.6/bdkrc01_eemm_191.6_24119.xsdst ! RUN = 24119 ! NEVT = 2000
FILE = /castor/cern.ch/delphi/MCprod/ral/bdkrc01/v99e/191.6/bdkrc01_eemm_191.6_24120.xsdst ! RUN = 24120 ! NEVT = 2000
FILE = /castor/cern.ch/delphi/MCprod/ral/bdkrc01/v99e/191.6/bdkrc01_eemm_191.6_24121.xsdst ! RUN = 24121 ! NEVT = 2000
FILE = /castor/cern.ch/delphi/MCprod/ral/bdkrc01/v99e/191.6/bdkrc01_eemm_191.6_24122.xsdst ! RUN = 24122 ! NEVT = 2000
FILE = /castor/cern.ch/delphi/MCprod/ral/bdkrc01/v99e/191.6/bdkrc01_eemm_191.6_24123.xsdst ! RUN = 24123 ! NEVT = 2000
FILE = /castor/cern.ch/delphi/MCprod/ral/bdkrc01/v99e/191.6/bdkrc01_eemm_191.6_24124.xsdst ! RUN = 24124 ! NEVT = 2000
FILE = /castor/cern.ch/delphi/MCprod/ral/bdkrc01/v99e/191.6/bdkrc01_eemm_191.6_24125.xsdst ! RUN = 24125 ! NEVT = 2000
FILE = /castor/cern.ch/delphi/MCprod/ral/bdkrc01/v99e/191.6/bdkrc01_eemm_191.6_24126.xsdst ! RUN = 24126 ! NEVT = 2000
FILE = /castor/cern.ch/delphi/MCprod/ral/bdkrc01/v99e/191.6/bdkrc01_eemm_191.6_24127.xsdst ! RUN = 24127 ! NEVT = 2000
FILE = /castor/cern.ch/delphi/MCprod/ral/bdkrc01/v99e/191.6/bdkrc01_eemm_191.6_24128.xsdst ! RUN = 24128 ! NEVT = 2000
FILE = /castor/cern.ch/delphi/MCprod/ral/bdkrc01/v99e/191.6/bdkrc01_eemm_191.6_24129.xsdst ! RUN = 24129 ! NEVT = 2000
FILE = /castor/cern.ch/delphi/MCprod/ral/bdkrc01/v99e/191.6/bdkrc01_eemm_191.6_24130.xsdst ! RUN = 24130 ! NEVT = 2000
FILE = /castor/cern.ch/delphi/MCprod/ral/bdkrc01/v99e/191.6/bdkrc01_eemm_191.6_24131.xsdst ! RUN = 24131 ! NEVT = 2000
FILE = /castor/cern.ch/delphi/MCprod/ral/bdkrc01/v99e/191.6/bdkrc01_eemm_191.6_24132.xsdst ! RUN = 24132 ! NEVT = 2000
FILE = /castor/cern.ch/delphi/MCprod/ral/bdkrc01/v99e/191.6/bdkrc01_eemm_191.6_24133.xsdst ! RUN = 24133 ! NEVT = 2000
FILE = /castor/cern.ch/delphi/MCprod/ral/bdkrc01/v99e/191.6/bdkrc01_eemm_191.6_24134.xsdst ! RUN = 24134 ! NEVT = 2000
FILE = /castor/cern.ch/delphi/MCprod/ral/bdkrc01/v99e/191.6/bdkrc01_eemm_191.6_24135.xsdst ! RUN = 24135 ! NEVT = 2000
FILE = /castor/cern.ch/delphi/MCprod/ral/bdkrc01/v99e/191.6/bdkrc01_eemm_191.6_24136.xsdst ! RUN = 24136 ! NEVT = 2000
FILE = /castor/cern.ch/delphi/MCprod/ral/bdkrc01/v99e/191.6/bdkrc01_eemm_191.6_24137.xsdst ! RUN = 24137 ! NEVT = 2000
FILE = /castor/cern.ch/delphi/MCprod/ral/bdkrc01/v99e/191.6/bdkrc01_eemm_191.6_24138.xsdst ! RUN = 24138 ! NEVT = 2000
FILE = /castor/cern.ch/delphi/MCprod/ral/bdkrc01/v99e/191.6/bdkrc01_eemm_191.6_24139.xsdst ! RUN = 24139 ! NEVT = 2000
FILE = /castor/cern.ch/delphi/MCprod/ral/bdkrc01/v99e/191.6/bdkrc01_eemm_191.6_24140.xsdst ! RUN = 24140 ! NEVT = 2000
FILE = /castor/cern.ch/delphi/MCprod/ral/bdkrc01/v99e/191.6/bdkrc01_eemm_191.6_24141.xsdst ! RUN = 24141 ! NEVT = 2000
FILE = /castor/cern.ch/delphi/MCprod/ral/bdkrc01/v99e/191.6/bdkrc01_eemm_191.6_24142.xsdst ! RUN = 24142 ! NEVT = 2000
FILE = /castor/cern.ch/delphi/MCprod/ral/bdkrc01/v99e/191.6/bdkrc01_eemm_191.6_24143.xsdst ! RUN = 24143 ! NEVT = 2000
FILE = /castor/cern.ch/delphi/MCprod/ral/bdkrc01/v99e/191.6/bdkrc01_eemm_191.6_24144.xsdst ! RUN = 24144 ! NEVT = 2000
FILE = /castor/cern.ch/delphi/MCprod/ral/bdkrc01/v99e/191.6/bdkrc01_eemm_191.6_24145.xsdst ! RUN = 24145 ! NEVT = 2000
FILE = /castor/cern.ch/delphi/MCprod/ral/bdkrc01/v99e/191.6/bdkrc01_eemm_191.6_24146.xsdst ! RUN = 24146 ! NEVT = 2000
FILE = /castor/cern.ch/delphi/MCprod/ral/bdkrc01/v99e/191.6/bdkrc01_eemm_191.6_24147.xsdst ! RUN = 24147 ! NEVT = 2000
FILE = /castor/cern.ch/delphi/MCprod/ral/bdkrc01/v99e/191.6/bdkrc01_eemm_191.6_24148.xsdst ! RUN = 24148 ! NEVT = 2000
FILE = /castor/cern.ch/delphi/MCprod/ral/bdkrc01/v99e/191.6/bdkrc01_eemm_191.6_24149.xsdst ! RUN = 24149 ! NEVT = 2000
FILE = /castor/cern.ch/delphi/MCprod/ral/bdkrc01/v99e/191.6/bdkrc01_eemm_191.6_24150.xsdst ! RUN = 24150 ! NEVT = 2000
FILE = /castor/cern.ch/delphi/MCprod/ral/bdkrc01/v99e/191.6/bdkrc01_eemm_191.6_24151.xsdst ! RUN = 24151 ! NEVT = 2000
FILE = /castor/cern.ch/delphi/MCprod/ral/bdkrc01/v99e/191.6/bdkrc01_eemm_191.6_24152.xsdst ! RUN = 24152 ! NEVT = 2000
FILE = /castor/cern.ch/delphi/MCprod/ral/bdkrc01/v99e/191.6/bdkrc01_eemm_191.6_24153.xsdst ! RUN = 24153 ! NEVT = 2000
FILE = /castor/cern.ch/delphi/MCprod/ral/bdkrc01/v99e/191.6/bdkrc01_eemm_191.6_24154.xsdst ! RUN = 24154 ! NEVT = 2000
FILE = /castor/cern.ch/delphi/MCprod/ral/bdkrc01/v99e/191.6/bdkrc01_eemm_191.6_24155.xsdst ! RUN = 24155 ! NEVT = 2000
FILE = /castor/cern.ch/delphi/MCprod/ral/bdkrc01/v99e/191.6/bdkrc01_eemm_191.6_24156.xsdst ! RUN = 24156 ! NEVT = 2000
FILE = /castor/cern.ch/delphi/MCprod/ral/bdkrc01/v99e/191.6/bdkrc01_eemm_191.6_24157.xsdst ! RUN = 24157 ! NEVT = 2000
FILE = /castor/cern.ch/delphi/MCprod/ral/bdkrc01/v99e/191.6/bdkrc01_eemm_191.6_24158.xsdst ! RUN = 24158 ! NEVT = 2000
FILE = /castor/cern.ch/delphi/MCprod/ral/bdkrc01/v99e/191.6/bdkrc01_eemm_191.6_24159.xsdst ! RUN = 24159 ! NEVT = 2000
FILE = /castor/cern.ch/delphi/MCprod/ral/bdkrc01/v99e/191.6/bdkrc01_eemm_191.6_24160.xsdst ! RUN = 24160 ! NEVT = 2000
FILE = /castor/cern.ch/delphi/MCprod/ral/bdkrc01/v99e/191.6/bdkrc01_eemm_191.6_24161.xsdst ! RUN = 24161 ! NEVT = 2000
FILE = /castor/cern.ch/delphi/MCprod/ral/bdkrc01/v99e/191.6/bdkrc01_eemm_191.6_24162.xsdst ! RUN = 24162 ! NEVT = 2000
FILE = /castor/cern.ch/delphi/MCprod/ral/bdkrc01/v99e/191.6/bdkrc01_eemm_191.6_24163.xsdst ! RUN = 24163 ! NEVT = 2000
FILE = /castor/cern.ch/delphi/MCprod/ral/bdkrc01/v99e/191.6/bdkrc01_eemm_191.6_24164.xsdst ! RUN = 24164 ! NEVT = 2000
FILE = /castor/cern.ch/delphi/MCprod/ral/bdkrc01/v99e/191.6/bdkrc01_eemm_191.6_24165.xsdst ! RUN = 24165 ! NEVT = 2000
FILE = /castor/cern.ch/delphi/MCprod/ral/bdkrc01/v99e/191.6/bdkrc01_eemm_191.6_24166.xsdst ! RUN = 24166 ! NEVT = 2000
FILE = /castor/cern.ch/delphi/MCprod/ral/bdkrc01/v99e/191.6/bdkrc01_eemm_191.6_24167.xsdst ! RUN = 24167 ! NEVT = 2000
FILE = /castor/cern.ch/delphi/MCprod/ral/bdkrc01/v99e/191.6/bdkrc01_eemm_191.6_24168.xsdst ! RUN = 24168 ! NEVT = 2000
FILE = /castor/cern.ch/delphi/MCprod/ral/bdkrc01/v99e/191.6/bdkrc01_eemm_191.6_24169.xsdst ! RUN = 24169 ! NEVT = 2000
FILE = /castor/cern.ch/delphi/MCprod/ral/bdkrc01/v99e/191.6/bdkrc01_eemm_191.6_24170.xsdst ! RUN = 24170 ! NEVT = 2000
FILE = /castor/cern.ch/delphi/MCprod/ral/bdkrc01/v99e/191.6/bdkrc01_eemm_191.6_24171.xsdst ! RUN = 24171 ! NEVT = 2000
FILE = /castor/cern.ch/delphi/MCprod/ral/bdkrc01/v99e/191.6/bdkrc01_eemm_191.6_24172.xsdst ! RUN = 24172 ! NEVT = 2000
FILE = /castor/cern.ch/delphi/MCprod/ral/bdkrc01/v99e/191.6/bdkrc01_eemm_191.6_24173.xsdst ! RUN = 24173 ! NEVT = 2000
FILE = /castor/cern.ch/delphi/MCprod/ral/bdkrc01/v99e/191.6/bdkrc01_eemm_191.6_24174.xsdst ! RUN = 24174 ! NEVT = 2000
FILE = /castor/cern.ch/delphi/MCprod/ral/bdkrc01/v99e/191.6/bdkrc01_eemm_191.6_24175.xsdst ! RUN = 24175 ! NEVT = 2000
FILE = /castor/cern.ch/delphi/MCprod/ral/bdkrc01/v99e/191.6/bdkrc01_eemm_191.6_24176.xsdst ! RUN = 24176 ! NEVT = 2000
FILE = /castor/cern.ch/delphi/MCprod/ral/bdkrc01/v99e/191.6/bdkrc01_eemm_191.6_24177.xsdst ! RUN = 24177 ! NEVT = 2000
FILE = /castor/cern.ch/delphi/MCprod/ral/bdkrc01/v99e/191.6/bdkrc01_eemm_191.6_24178.xsdst ! RUN = 24178 ! NEVT = 2000
FILE = /castor/cern.ch/delphi/MCprod/ral/bdkrc01/v99e/191.6/bdkrc01_eemm_191.6_24179.xsdst ! RUN = 24179 ! NEVT = 2000
FILE = /castor/cern.ch/delphi/MCprod/ral/bdkrc01/v99e/191.6/bdkrc01_eemm_191.6_24180.xsdst ! RUN = 24180 ! NEVT = 2000
FILE = /castor/cern.ch/delphi/MCprod/ral/bdkrc01/v99e/191.6/bdkrc01_eemm_191.6_24181.xsdst ! RUN = 24181 ! NEVT = 2000
FILE = /castor/cern.ch/delphi/MCprod/ral/bdkrc01/v99e/191.6/bdkrc01_eemm_191.6_24182.xsdst ! RUN = 24182 ! NEVT = 2000
FILE = /castor/cern.ch/delphi/MCprod/ral/bdkrc01/v99e/191.6/bdkrc01_eemm_191.6_24183.xsdst ! RUN = 24183 ! NEVT = 2000
FILE = /castor/cern.ch/delphi/MCprod/ral/bdkrc01/v99e/191.6/bdkrc01_eemm_191.6_24184.xsdst ! RUN = 24184 ! NEVT = 2000
FILE = /castor/cern.ch/delphi/MCprod/ral/bdkrc01/v99e/191.6/bdkrc01_eemm_191.6_24185.xsdst ! RUN = 24185 ! NEVT = 2000
FILE = /castor/cern.ch/delphi/MCprod/ral/bdkrc01/v99e/191.6/bdkrc01_eemm_191.6_24186.xsdst ! RUN = 24186 ! NEVT = 2000
FILE = /castor/cern.ch/delphi/MCprod/ral/bdkrc01/v99e/191.6/bdkrc01_eemm_191.6_24187.xsdst ! RUN = 24187 ! NEVT = 2000
FILE = /castor/cern.ch/delphi/MCprod/ral/bdkrc01/v99e/191.6/bdkrc01_eemm_191.6_24188.xsdst ! RUN = 24188 ! NEVT = 2000
FILE = /castor/cern.ch/delphi/MCprod/ral/bdkrc01/v99e/191.6/bdkrc01_eemm_191.6_24189.xsdst ! RUN = 24189 ! NEVT = 2000
FILE = /castor/cern.ch/delphi/MCprod/ral/bdkrc01/v99e/191.6/bdkrc01_eemm_191.6_24190.xsdst ! RUN = 24190 ! NEVT = 2000
FILE = /castor/cern.ch/delphi/MCprod/ral/bdkrc01/v99e/191.6/bdkrc01_eemm_191.6_24191.xsdst ! RUN = 24191 ! NEVT = 2000
FILE = /castor/cern.ch/delphi/MCprod/ral/bdkrc01/v99e/191.6/bdkrc01_eemm_191.6_24192.xsdst ! RUN = 24192 ! NEVT = 2000
FILE = /castor/cern.ch/delphi/MCprod/ral/bdkrc01/v99e/191.6/bdkrc01_eemm_191.6_24193.xsdst ! RUN = 24193 ! NEVT = 2000
FILE = /castor/cern.ch/delphi/MCprod/ral/bdkrc01/v99e/191.6/bdkrc01_eemm_191.6_24194.xsdst ! RUN = 24194 ! NEVT = 2000
FILE = /castor/cern.ch/delphi/MCprod/ral/bdkrc01/v99e/191.6/bdkrc01_eemm_191.6_24195.xsdst ! RUN = 24195 ! NEVT = 2000
FILE = /castor/cern.ch/delphi/MCprod/ral/bdkrc01/v99e/191.6/bdkrc01_eemm_191.6_24196.xsdst ! RUN = 24196 ! NEVT = 2000
FILE = /castor/cern.ch/delphi/MCprod/ral/bdkrc01/v99e/191.6/bdkrc01_eemm_191.6_24197.xsdst ! RUN = 24197 ! NEVT = 2000
FILE = /castor/cern.ch/delphi/MCprod/ral/bdkrc01/v99e/191.6/bdkrc01_eemm_191.6_24198.xsdst ! RUN = 24198 ! NEVT = 2000
FILE = /castor/cern.ch/delphi/MCprod/ral/bdkrc01/v99e/191.6/bdkrc01_eemm_191.6_24199.xsdst ! RUN = 24199 ! NEVT = 2000
FILE = /castor/cern.ch/delphi/MCprod/ral/bdkrc01/v99e/191.6/bdkrc01_eemm_191.6_24200.xsdst ! RUN = 24200 ! NEVT = 2000
FILE = /castor/cern.ch/delphi/MCprod/ral/bdkrc01/v99e/191.6/bdkrc01_eemm_191.6_24201.xsdst ! RUN = 24201 ! NEVT = 2000
FILE = /castor/cern.ch/delphi/MCprod/ral/bdkrc01/v99e/191.6/bdkrc01_eemm_191.6_24202.xsdst ! RUN = 24202 ! NEVT = 2000
FILE = /castor/cern.ch/delphi/MCprod/ral/bdkrc01/v99e/191.6/bdkrc01_eemm_191.6_24203.xsdst ! RUN = 24203 ! NEVT = 2000
FILE = /castor/cern.ch/delphi/MCprod/ral/bdkrc01/v99e/191.6/bdkrc01_eemm_191.6_24204.xsdst ! RUN = 24204 ! NEVT = 2000
FILE = /castor/cern.ch/delphi/MCprod/ral/bdkrc01/v99e/191.6/bdkrc01_eemm_191.6_24205.xsdst ! RUN = 24205 ! NEVT = 2000
FILE = /castor/cern.ch/delphi/MCprod/ral/bdkrc01/v99e/191.6/bdkrc01_eemm_191.6_24206.xsdst ! RUN = 24206 ! NEVT = 2000
FILE = /castor/cern.ch/delphi/MCprod/ral/bdkrc01/v99e/191.6/bdkrc01_eemm_191.6_24207.xsdst ! RUN = 24207 ! NEVT = 2000
FILE = /castor/cern.ch/delphi/MCprod/ral/bdkrc01/v99e/191.6/bdkrc01_eemm_191.6_24208.xsdst ! RUN = 24208 ! NEVT = 2000
FILE = /castor/cern.ch/delphi/MCprod/ral/bdkrc01/v99e/191.6/bdkrc01_eemm_191.6_24209.xsdst ! RUN = 24209 ! NEVT = 2000
FILE = /castor/cern.ch/delphi/MCprod/ral/bdkrc01/v99e/191.6/bdkrc01_eemm_191.6_24210.xsdst ! RUN = 24210 ! NEVT = 2000
FILE = /castor/cern.ch/delphi/MCprod/ral/bdkrc01/v99e/191.6/bdkrc01_eemm_191.6_24211.xsdst ! RUN = 24211 ! NEVT = 2000
FILE = /castor/cern.ch/delphi/MCprod/ral/bdkrc01/v99e/191.6/bdkrc01_eemm_191.6_24212.xsdst ! RUN = 24212 ! NEVT = 2000
FILE = /castor/cern.ch/delphi/MCprod/ral/bdkrc01/v99e/191.6/bdkrc01_eemm_191.6_24213.xsdst ! RUN = 24213 ! NEVT = 2000
FILE = /castor/cern.ch/delphi/MCprod/ral/bdkrc01/v99e/191.6/bdkrc01_eemm_191.6_24214.xsdst ! RUN = 24214 ! NEVT = 2000
FILE = /castor/cern.ch/delphi/MCprod/ral/bdkrc01/v99e/191.6/bdkrc01_eemm_191.6_24215.xsdst ! RUN = 24215 ! NEVT = 2000
FILE = /castor/cern.ch/delphi/MCprod/ral/bdkrc01/v99e/191.6/bdkrc01_eemm_191.6_24216.xsdst ! RUN = 24216 ! NEVT = 2000
FILE = /castor/cern.ch/delphi/MCprod/ral/bdkrc01/v99e/191.6/bdkrc01_eemm_191.6_24217.xsdst ! RUN = 24217 ! NEVT = 2000
FILE = /castor/cern.ch/delphi/MCprod/ral/bdkrc01/v99e/191.6/bdkrc01_eemm_191.6_24218.xsdst ! RUN = 24218 ! NEVT = 2000
FILE = /castor/cern.ch/delphi/MCprod/ral/bdkrc01/v99e/191.6/bdkrc01_eemm_191.6_24219.xsdst ! RUN = 24219 ! NEVT = 2000
FILE = /castor/cern.ch/delphi/MCprod/ral/bdkrc01/v99e/191.6/bdkrc01_eemm_191.6_24220.xsdst ! RUN = 24220 ! NEVT = 2000
FILE = /castor/cern.ch/delphi/MCprod/ral/bdkrc01/v99e/191.6/bdkrc01_eemm_191.6_24221.xsdst ! RUN = 24221 ! NEVT = 2000
FILE = /castor/cern.ch/delphi/MCprod/ral/bdkrc01/v99e/191.6/bdkrc01_eemm_191.6_24222.xsdst ! RUN = 24222 ! NEVT = 2000
FILE = /castor/cern.ch/delphi/MCprod/ral/bdkrc01/v99e/191.6/bdkrc01_eemm_191.6_24223.xsdst ! RUN = 24223 ! NEVT = 2000
FILE = /castor/cern.ch/delphi/MCprod/ral/bdkrc01/v99e/191.6/bdkrc01_eemm_191.6_24224.xsdst ! RUN = 24224 ! NEVT = 2000
FILE = /castor/cern.ch/delphi/MCprod/ral/bdkrc01/v99e/191.6/bdkrc01_eemm_191.6_24225.xsdst ! RUN = 24225 ! NEVT = 2000
FILE = /castor/cern.ch/delphi/MCprod/ral/bdkrc01/v99e/191.6/bdkrc01_eemm_191.6_24226.xsdst ! RUN = 24226 ! NEVT = 2000
FILE = /castor/cern.ch/delphi/MCprod/ral/bdkrc01/v99e/191.6/bdkrc01_eemm_191.6_24227.xsdst ! RUN = 24227 ! NEVT = 2000
FILE = /castor/cern.ch/delphi/MCprod/ral/bdkrc01/v99e/191.6/bdkrc01_eemm_191.6_24228.xsdst ! RUN = 24228 ! NEVT = 2000
FILE = /castor/cern.ch/delphi/MCprod/ral/bdkrc01/v99e/191.6/bdkrc01_eemm_191.6_24229.xsdst ! RUN = 24229 ! NEVT = 2000
FILE = /castor/cern.ch/delphi/MCprod/ral/bdkrc01/v99e/191.6/bdkrc01_eemm_191.6_24230.xsdst ! RUN = 24230 ! NEVT = 2000
FILE = /castor/cern.ch/delphi/MCprod/ral/bdkrc01/v99e/191.6/bdkrc01_eemm_191.6_24231.xsdst ! RUN = 24231 ! NEVT = 2000
FILE = /castor/cern.ch/delphi/MCprod/ral/bdkrc01/v99e/191.6/bdkrc01_eemm_191.6_24232.xsdst ! RUN = 24232 ! NEVT = 2000
FILE = /castor/cern.ch/delphi/MCprod/ral/bdkrc01/v99e/191.6/bdkrc01_eemm_191.6_24233.xsdst ! RUN = 24233 ! NEVT = 2000
FILE = /castor/cern.ch/delphi/MCprod/ral/bdkrc01/v99e/191.6/bdkrc01_eemm_191.6_24234.xsdst ! RUN = 24234 ! NEVT = 2000
FILE = /castor/cern.ch/delphi/MCprod/ral/bdkrc01/v99e/191.6/bdkrc01_eemm_191.6_24235.xsdst ! RUN = 24235 ! NEVT = 2000
FILE = /castor/cern.ch/delphi/MCprod/ral/bdkrc01/v99e/191.6/bdkrc01_eemm_191.6_24236.xsdst ! RUN = 24236 ! NEVT = 2000
FILE = /castor/cern.ch/delphi/MCprod/ral/bdkrc01/v99e/191.6/bdkrc01_eemm_191.6_24237.xsdst ! RUN = 24237 ! NEVT = 2000
FILE = /castor/cern.ch/delphi/MCprod/ral/bdkrc01/v99e/191.6/bdkrc01_eemm_191.6_24238.xsdst ! RUN = 24238 ! NEVT = 2000
FILE = /castor/cern.ch/delphi/MCprod/ral/bdkrc01/v99e/191.6/bdkrc01_eemm_191.6_24239.xsdst ! RUN = 24239 ! NEVT = 2000
FILE = /castor/cern.ch/delphi/MCprod/ral/bdkrc01/v99e/191.6/bdkrc01_eemm_191.6_24240.xsdst ! RUN = 24240 ! NEVT = 2000
FILE = /castor/cern.ch/delphi/MCprod/ral/bdkrc01/v99e/191.6/bdkrc01_eemm_191.6_24241.xsdst ! RUN = 24241 ! NEVT = 2000
FILE = /castor/cern.ch/delphi/MCprod/ral/bdkrc01/v99e/191.6/bdkrc01_eemm_191.6_24242.xsdst ! RUN = 24242 ! NEVT = 2000
FILE = /castor/cern.ch/delphi/MCprod/ral/bdkrc01/v99e/191.6/bdkrc01_eemm_191.6_24243.xsdst ! RUN = 24243 ! NEVT = 2000
FILE = /castor/cern.ch/delphi/MCprod/ral/bdkrc01/v99e/191.6/bdkrc01_eemm_191.6_24244.xsdst ! RUN = 24244 ! NEVT = 2000
FILE = /castor/cern.ch/delphi/MCprod/ral/bdkrc01/v99e/191.6/bdkrc01_eemm_191.6_24245.xsdst ! RUN = 24245 ! NEVT = 2000
FILE = /castor/cern.ch/delphi/MCprod/ral/bdkrc01/v99e/191.6/bdkrc01_eemm_191.6_24246.xsdst ! RUN = 24246 ! NEVT = 2000
FILE = /castor/cern.ch/delphi/MCprod/ral/bdkrc01/v99e/191.6/bdkrc01_eemm_191.6_24247.xsdst ! RUN = 24247 ! NEVT = 2000
FILE = /castor/cern.ch/delphi/MCprod/ral/bdkrc01/v99e/191.6/bdkrc01_eemm_191.6_24248.xsdst ! RUN = 24248 ! NEVT = 2000
FILE = /castor/cern.ch/delphi/MCprod/ral/bdkrc01/v99e/191.6/bdkrc01_eemm_191.6_24249.xsdst ! RUN = 24249 ! NEVT = 2000
FILE = /castor/cern.ch/delphi/MCprod/ral/bdkrc01/v99e/191.6/bdkrc01_eemm_191.6_24250.xsdst ! RUN = 24250 ! NEVT = 2000
