*   Nickname :     xs_ggtwogam2054pic_e199.5_c99_1l_e1
*   Generic Name : //CERN/DELPHI/P02_SIMD/XSDST/GGTWOGAM2054PIC/E199.5/CERN/SUMT/C001-99
*   Description :   Extended Short DST simulation 99e  done at ecm=199.5 GeV , CERN
*---
*   Comments :     in total 988921 events in 99 files, time stamp: Fri Sep 6 10:10:19 2002
*---
*
*
*
FILE = /castor/cern.ch/delphi/MCprod/cern/ggtwogam205/v99e/199.5/ggtwogam205_4pic_199.5_0101.xsdst ! RUN = 0101 ! NEVT = 10000
FILE = /castor/cern.ch/delphi/MCprod/cern/ggtwogam205/v99e/199.5/ggtwogam205_4pic_199.5_0102.xsdst ! RUN = 0102 ! NEVT = 10000
FILE = /castor/cern.ch/delphi/MCprod/cern/ggtwogam205/v99e/199.5/ggtwogam205_4pic_199.5_0103.xsdst ! RUN = 0103 ! NEVT = 10000
FILE = /castor/cern.ch/delphi/MCprod/cern/ggtwogam205/v99e/199.5/ggtwogam205_4pic_199.5_0104.xsdst ! RUN = 0104 ! NEVT = 10000
FILE = /castor/cern.ch/delphi/MCprod/cern/ggtwogam205/v99e/199.5/ggtwogam205_4pic_199.5_0105.xsdst ! RUN = 0105 ! NEVT = 10000
FILE = /castor/cern.ch/delphi/MCprod/cern/ggtwogam205/v99e/199.5/ggtwogam205_4pic_199.5_0106.xsdst ! RUN = 0106 ! NEVT = 10000
FILE = /castor/cern.ch/delphi/MCprod/cern/ggtwogam205/v99e/199.5/ggtwogam205_4pic_199.5_0107.xsdst ! RUN = 0107 ! NEVT = 10000
FILE = /castor/cern.ch/delphi/MCprod/cern/ggtwogam205/v99e/199.5/ggtwogam205_4pic_199.5_0108.xsdst ! RUN = 0108 ! NEVT = 10000
FILE = /castor/cern.ch/delphi/MCprod/cern/ggtwogam205/v99e/199.5/ggtwogam205_4pic_199.5_0109.xsdst ! RUN = 0109 ! NEVT = 10000
FILE = /castor/cern.ch/delphi/MCprod/cern/ggtwogam205/v99e/199.5/ggtwogam205_4pic_199.5_0110.xsdst ! RUN = 0110 ! NEVT = 10000
FILE = /castor/cern.ch/delphi/MCprod/cern/ggtwogam205/v99e/199.5/ggtwogam205_4pic_199.5_0201.xsdst ! RUN = 0201 ! NEVT = 10000
FILE = /castor/cern.ch/delphi/MCprod/cern/ggtwogam205/v99e/199.5/ggtwogam205_4pic_199.5_0202.xsdst ! RUN = 0202 ! NEVT = 10000
FILE = /castor/cern.ch/delphi/MCprod/cern/ggtwogam205/v99e/199.5/ggtwogam205_4pic_199.5_0203.xsdst ! RUN = 0203 ! NEVT = 10000
FILE = /castor/cern.ch/delphi/MCprod/cern/ggtwogam205/v99e/199.5/ggtwogam205_4pic_199.5_0204.xsdst ! RUN = 0204 ! NEVT = 10000
FILE = /castor/cern.ch/delphi/MCprod/cern/ggtwogam205/v99e/199.5/ggtwogam205_4pic_199.5_0205.xsdst ! RUN = 0205 ! NEVT = 10000
FILE = /castor/cern.ch/delphi/MCprod/cern/ggtwogam205/v99e/199.5/ggtwogam205_4pic_199.5_0206.xsdst ! RUN = 0206 ! NEVT = 10000
FILE = /castor/cern.ch/delphi/MCprod/cern/ggtwogam205/v99e/199.5/ggtwogam205_4pic_199.5_0207.xsdst ! RUN = 0207 ! NEVT = 10000
FILE = /castor/cern.ch/delphi/MCprod/cern/ggtwogam205/v99e/199.5/ggtwogam205_4pic_199.5_0208.xsdst ! RUN = 0208 ! NEVT = 10000
FILE = /castor/cern.ch/delphi/MCprod/cern/ggtwogam205/v99e/199.5/ggtwogam205_4pic_199.5_0209.xsdst ! RUN = 0209 ! NEVT = 10000
FILE = /castor/cern.ch/delphi/MCprod/cern/ggtwogam205/v99e/199.5/ggtwogam205_4pic_199.5_0210.xsdst ! RUN = 0210 ! NEVT = 10000
FILE = /castor/cern.ch/delphi/MCprod/cern/ggtwogam205/v99e/199.5/ggtwogam205_4pic_199.5_0301.xsdst ! RUN = 0301 ! NEVT = 10000
FILE = /castor/cern.ch/delphi/MCprod/cern/ggtwogam205/v99e/199.5/ggtwogam205_4pic_199.5_0302.xsdst ! RUN = 0302 ! NEVT = 10000
FILE = /castor/cern.ch/delphi/MCprod/cern/ggtwogam205/v99e/199.5/ggtwogam205_4pic_199.5_0303.xsdst ! RUN = 0303 ! NEVT = 10000
FILE = /castor/cern.ch/delphi/MCprod/cern/ggtwogam205/v99e/199.5/ggtwogam205_4pic_199.5_0304.xsdst ! RUN = 0304 ! NEVT = 10000
FILE = /castor/cern.ch/delphi/MCprod/cern/ggtwogam205/v99e/199.5/ggtwogam205_4pic_199.5_0305.xsdst ! RUN = 0305 ! NEVT = 10000
FILE = /castor/cern.ch/delphi/MCprod/cern/ggtwogam205/v99e/199.5/ggtwogam205_4pic_199.5_0306.xsdst ! RUN = 0306 ! NEVT = 10000
FILE = /castor/cern.ch/delphi/MCprod/cern/ggtwogam205/v99e/199.5/ggtwogam205_4pic_199.5_0307.xsdst ! RUN = 0307 ! NEVT = 10000
FILE = /castor/cern.ch/delphi/MCprod/cern/ggtwogam205/v99e/199.5/ggtwogam205_4pic_199.5_0308.xsdst ! RUN = 0308 ! NEVT = 10000
FILE = /castor/cern.ch/delphi/MCprod/cern/ggtwogam205/v99e/199.5/ggtwogam205_4pic_199.5_0309.xsdst ! RUN = 0309 ! NEVT = 10000
FILE = /castor/cern.ch/delphi/MCprod/cern/ggtwogam205/v99e/199.5/ggtwogam205_4pic_199.5_0310.xsdst ! RUN = 0310 ! NEVT = 10000
FILE = /castor/cern.ch/delphi/MCprod/cern/ggtwogam205/v99e/199.5/ggtwogam205_4pic_199.5_0401.xsdst ! RUN = 0401 ! NEVT = 10000
FILE = /castor/cern.ch/delphi/MCprod/cern/ggtwogam205/v99e/199.5/ggtwogam205_4pic_199.5_0402.xsdst ! RUN = 0402 ! NEVT = 10000
FILE = /castor/cern.ch/delphi/MCprod/cern/ggtwogam205/v99e/199.5/ggtwogam205_4pic_199.5_0403.xsdst ! RUN = 0403 ! NEVT = 10000
FILE = /castor/cern.ch/delphi/MCprod/cern/ggtwogam205/v99e/199.5/ggtwogam205_4pic_199.5_0404.xsdst ! RUN = 0404 ! NEVT = 10000
FILE = /castor/cern.ch/delphi/MCprod/cern/ggtwogam205/v99e/199.5/ggtwogam205_4pic_199.5_0405.xsdst ! RUN = 0405 ! NEVT = 10000
FILE = /castor/cern.ch/delphi/MCprod/cern/ggtwogam205/v99e/199.5/ggtwogam205_4pic_199.5_0406.xsdst ! RUN = 0406 ! NEVT = 10000
FILE = /castor/cern.ch/delphi/MCprod/cern/ggtwogam205/v99e/199.5/ggtwogam205_4pic_199.5_0407.xsdst ! RUN = 0407 ! NEVT = 10000
FILE = /castor/cern.ch/delphi/MCprod/cern/ggtwogam205/v99e/199.5/ggtwogam205_4pic_199.5_0408.xsdst ! RUN = 0408 ! NEVT = 10000
FILE = /castor/cern.ch/delphi/MCprod/cern/ggtwogam205/v99e/199.5/ggtwogam205_4pic_199.5_0409.xsdst ! RUN = 0409 ! NEVT = 10000
FILE = /castor/cern.ch/delphi/MCprod/cern/ggtwogam205/v99e/199.5/ggtwogam205_4pic_199.5_0410.xsdst ! RUN = 0410 ! NEVT = 10000
FILE = /castor/cern.ch/delphi/MCprod/cern/ggtwogam205/v99e/199.5/ggtwogam205_4pic_199.5_0501.xsdst ! RUN = 0501 ! NEVT = 10000
FILE = /castor/cern.ch/delphi/MCprod/cern/ggtwogam205/v99e/199.5/ggtwogam205_4pic_199.5_0502.xsdst ! RUN = 0502 ! NEVT = 10000
FILE = /castor/cern.ch/delphi/MCprod/cern/ggtwogam205/v99e/199.5/ggtwogam205_4pic_199.5_0503.xsdst ! RUN = 0503 ! NEVT = 8921
FILE = /castor/cern.ch/delphi/MCprod/cern/ggtwogam205/v99e/199.5/ggtwogam205_4pic_199.5_0504.xsdst ! RUN = 0504 ! NEVT = 10000
FILE = /castor/cern.ch/delphi/MCprod/cern/ggtwogam205/v99e/199.5/ggtwogam205_4pic_199.5_0505.xsdst ! RUN = 0505 ! NEVT = 10000
FILE = /castor/cern.ch/delphi/MCprod/cern/ggtwogam205/v99e/199.5/ggtwogam205_4pic_199.5_0506.xsdst ! RUN = 0506 ! NEVT = 10000
FILE = /castor/cern.ch/delphi/MCprod/cern/ggtwogam205/v99e/199.5/ggtwogam205_4pic_199.5_0507.xsdst ! RUN = 0507 ! NEVT = 10000
FILE = /castor/cern.ch/delphi/MCprod/cern/ggtwogam205/v99e/199.5/ggtwogam205_4pic_199.5_0508.xsdst ! RUN = 0508 ! NEVT = 10000
FILE = /castor/cern.ch/delphi/MCprod/cern/ggtwogam205/v99e/199.5/ggtwogam205_4pic_199.5_0509.xsdst ! RUN = 0509 ! NEVT = 10000
FILE = /castor/cern.ch/delphi/MCprod/cern/ggtwogam205/v99e/199.5/ggtwogam205_4pic_199.5_0510.xsdst ! RUN = 0510 ! NEVT = 10000
FILE = /castor/cern.ch/delphi/MCprod/cern/ggtwogam205/v99e/199.5/ggtwogam205_4pic_199.5_0601.xsdst ! RUN = 0601 ! NEVT = 10000
FILE = /castor/cern.ch/delphi/MCprod/cern/ggtwogam205/v99e/199.5/ggtwogam205_4pic_199.5_0602.xsdst ! RUN = 0602 ! NEVT = 10000
FILE = /castor/cern.ch/delphi/MCprod/cern/ggtwogam205/v99e/199.5/ggtwogam205_4pic_199.5_0603.xsdst ! RUN = 0603 ! NEVT = 10000
FILE = /castor/cern.ch/delphi/MCprod/cern/ggtwogam205/v99e/199.5/ggtwogam205_4pic_199.5_0604.xsdst ! RUN = 0604 ! NEVT = 10000
FILE = /castor/cern.ch/delphi/MCprod/cern/ggtwogam205/v99e/199.5/ggtwogam205_4pic_199.5_0605.xsdst ! RUN = 0605 ! NEVT = 10000
FILE = /castor/cern.ch/delphi/MCprod/cern/ggtwogam205/v99e/199.5/ggtwogam205_4pic_199.5_0606.xsdst ! RUN = 0606 ! NEVT = 10000
FILE = /castor/cern.ch/delphi/MCprod/cern/ggtwogam205/v99e/199.5/ggtwogam205_4pic_199.5_0607.xsdst ! RUN = 0607 ! NEVT = 10000
FILE = /castor/cern.ch/delphi/MCprod/cern/ggtwogam205/v99e/199.5/ggtwogam205_4pic_199.5_0608.xsdst ! RUN = 0608 ! NEVT = 10000
FILE = /castor/cern.ch/delphi/MCprod/cern/ggtwogam205/v99e/199.5/ggtwogam205_4pic_199.5_0609.xsdst ! RUN = 0609 ! NEVT = 10000
FILE = /castor/cern.ch/delphi/MCprod/cern/ggtwogam205/v99e/199.5/ggtwogam205_4pic_199.5_0610.xsdst ! RUN = 0610 ! NEVT = 10000
FILE = /castor/cern.ch/delphi/MCprod/cern/ggtwogam205/v99e/199.5/ggtwogam205_4pic_199.5_0701.xsdst ! RUN = 0701 ! NEVT = 10000
FILE = /castor/cern.ch/delphi/MCprod/cern/ggtwogam205/v99e/199.5/ggtwogam205_4pic_199.5_0702.xsdst ! RUN = 0702 ! NEVT = 10000
FILE = /castor/cern.ch/delphi/MCprod/cern/ggtwogam205/v99e/199.5/ggtwogam205_4pic_199.5_0703.xsdst ! RUN = 0703 ! NEVT = 10000
FILE = /castor/cern.ch/delphi/MCprod/cern/ggtwogam205/v99e/199.5/ggtwogam205_4pic_199.5_0704.xsdst ! RUN = 0704 ! NEVT = 10000
FILE = /castor/cern.ch/delphi/MCprod/cern/ggtwogam205/v99e/199.5/ggtwogam205_4pic_199.5_0705.xsdst ! RUN = 0705 ! NEVT = 10000
FILE = /castor/cern.ch/delphi/MCprod/cern/ggtwogam205/v99e/199.5/ggtwogam205_4pic_199.5_0706.xsdst ! RUN = 0706 ! NEVT = 10000
FILE = /castor/cern.ch/delphi/MCprod/cern/ggtwogam205/v99e/199.5/ggtwogam205_4pic_199.5_0707.xsdst ! RUN = 0707 ! NEVT = 10000
FILE = /castor/cern.ch/delphi/MCprod/cern/ggtwogam205/v99e/199.5/ggtwogam205_4pic_199.5_0708.xsdst ! RUN = 0708 ! NEVT = 10000
FILE = /castor/cern.ch/delphi/MCprod/cern/ggtwogam205/v99e/199.5/ggtwogam205_4pic_199.5_0709.xsdst ! RUN = 0709 ! NEVT = 10000
FILE = /castor/cern.ch/delphi/MCprod/cern/ggtwogam205/v99e/199.5/ggtwogam205_4pic_199.5_0710.xsdst ! RUN = 0710 ! NEVT = 10000
FILE = /castor/cern.ch/delphi/MCprod/cern/ggtwogam205/v99e/199.5/ggtwogam205_4pic_199.5_0802.xsdst ! RUN = 0802 ! NEVT = 10000
FILE = /castor/cern.ch/delphi/MCprod/cern/ggtwogam205/v99e/199.5/ggtwogam205_4pic_199.5_0803.xsdst ! RUN = 0803 ! NEVT = 10000
FILE = /castor/cern.ch/delphi/MCprod/cern/ggtwogam205/v99e/199.5/ggtwogam205_4pic_199.5_0804.xsdst ! RUN = 0804 ! NEVT = 10000
FILE = /castor/cern.ch/delphi/MCprod/cern/ggtwogam205/v99e/199.5/ggtwogam205_4pic_199.5_0805.xsdst ! RUN = 0805 ! NEVT = 10000
FILE = /castor/cern.ch/delphi/MCprod/cern/ggtwogam205/v99e/199.5/ggtwogam205_4pic_199.5_0806.xsdst ! RUN = 0806 ! NEVT = 10000
FILE = /castor/cern.ch/delphi/MCprod/cern/ggtwogam205/v99e/199.5/ggtwogam205_4pic_199.5_0807.xsdst ! RUN = 0807 ! NEVT = 10000
FILE = /castor/cern.ch/delphi/MCprod/cern/ggtwogam205/v99e/199.5/ggtwogam205_4pic_199.5_0808.xsdst ! RUN = 0808 ! NEVT = 10000
FILE = /castor/cern.ch/delphi/MCprod/cern/ggtwogam205/v99e/199.5/ggtwogam205_4pic_199.5_0809.xsdst ! RUN = 0809 ! NEVT = 10000
FILE = /castor/cern.ch/delphi/MCprod/cern/ggtwogam205/v99e/199.5/ggtwogam205_4pic_199.5_0810.xsdst ! RUN = 0810 ! NEVT = 10000
FILE = /castor/cern.ch/delphi/MCprod/cern/ggtwogam205/v99e/199.5/ggtwogam205_4pic_199.5_0901.xsdst ! RUN = 0901 ! NEVT = 10000
FILE = /castor/cern.ch/delphi/MCprod/cern/ggtwogam205/v99e/199.5/ggtwogam205_4pic_199.5_0902.xsdst ! RUN = 0902 ! NEVT = 10000
FILE = /castor/cern.ch/delphi/MCprod/cern/ggtwogam205/v99e/199.5/ggtwogam205_4pic_199.5_0903.xsdst ! RUN = 0903 ! NEVT = 10000
FILE = /castor/cern.ch/delphi/MCprod/cern/ggtwogam205/v99e/199.5/ggtwogam205_4pic_199.5_0904.xsdst ! RUN = 0904 ! NEVT = 10000
FILE = /castor/cern.ch/delphi/MCprod/cern/ggtwogam205/v99e/199.5/ggtwogam205_4pic_199.5_0905.xsdst ! RUN = 0905 ! NEVT = 10000
FILE = /castor/cern.ch/delphi/MCprod/cern/ggtwogam205/v99e/199.5/ggtwogam205_4pic_199.5_0906.xsdst ! RUN = 0906 ! NEVT = 10000
FILE = /castor/cern.ch/delphi/MCprod/cern/ggtwogam205/v99e/199.5/ggtwogam205_4pic_199.5_0907.xsdst ! RUN = 0907 ! NEVT = 10000
FILE = /castor/cern.ch/delphi/MCprod/cern/ggtwogam205/v99e/199.5/ggtwogam205_4pic_199.5_0908.xsdst ! RUN = 0908 ! NEVT = 10000
FILE = /castor/cern.ch/delphi/MCprod/cern/ggtwogam205/v99e/199.5/ggtwogam205_4pic_199.5_0909.xsdst ! RUN = 0909 ! NEVT = 10000
FILE = /castor/cern.ch/delphi/MCprod/cern/ggtwogam205/v99e/199.5/ggtwogam205_4pic_199.5_0910.xsdst ! RUN = 0910 ! NEVT = 10000
FILE = /castor/cern.ch/delphi/MCprod/cern/ggtwogam205/v99e/199.5/ggtwogam205_4pic_199.5_1001.xsdst ! RUN = 1001 ! NEVT = 10000
FILE = /castor/cern.ch/delphi/MCprod/cern/ggtwogam205/v99e/199.5/ggtwogam205_4pic_199.5_1002.xsdst ! RUN = 1002 ! NEVT = 10000
FILE = /castor/cern.ch/delphi/MCprod/cern/ggtwogam205/v99e/199.5/ggtwogam205_4pic_199.5_1003.xsdst ! RUN = 1003 ! NEVT = 10000
FILE = /castor/cern.ch/delphi/MCprod/cern/ggtwogam205/v99e/199.5/ggtwogam205_4pic_199.5_1004.xsdst ! RUN = 1004 ! NEVT = 10000
FILE = /castor/cern.ch/delphi/MCprod/cern/ggtwogam205/v99e/199.5/ggtwogam205_4pic_199.5_1005.xsdst ! RUN = 1005 ! NEVT = 10000
FILE = /castor/cern.ch/delphi/MCprod/cern/ggtwogam205/v99e/199.5/ggtwogam205_4pic_199.5_1006.xsdst ! RUN = 1006 ! NEVT = 10000
FILE = /castor/cern.ch/delphi/MCprod/cern/ggtwogam205/v99e/199.5/ggtwogam205_4pic_199.5_1007.xsdst ! RUN = 1007 ! NEVT = 10000
FILE = /castor/cern.ch/delphi/MCprod/cern/ggtwogam205/v99e/199.5/ggtwogam205_4pic_199.5_1008.xsdst ! RUN = 1008 ! NEVT = 10000
FILE = /castor/cern.ch/delphi/MCprod/cern/ggtwogam205/v99e/199.5/ggtwogam205_4pic_199.5_1009.xsdst ! RUN = 1009 ! NEVT = 10000
FILE = /castor/cern.ch/delphi/MCprod/cern/ggtwogam205/v99e/199.5/ggtwogam205_4pic_199.5_1010.xsdst ! RUN = 1010 ! NEVT = 10000
