*
*   Nickname     : xs_phojet110qq_e199.5_c99_1l_e1
*   Generic Name : //CERN/DELPHI/P02_SIMD/XSDST/PHOJET110QQ/E199.5/CERN/SUMT/C001-210
*   Description  :  Extended Short DST simulation 99_e1 done at ecms=199.5 , CERN
*---
*   Comments     : in total 1037292 events in 210 files time stamp: Wed Feb  6 01:22:11 2002
*---
*
*
*
*
*
FILE = /castor/cern.ch/delphi/MCprod/cern/phojet110/v99e/199.5/phojet110_qq_199.5_10001.xsdst ! RUN = 10001 ! NEVT = 5000
FILE = /castor/cern.ch/delphi/MCprod/cern/phojet110/v99e/199.5/phojet110_qq_199.5_10002.xsdst ! RUN = 10002 ! NEVT = 5000
FILE = /castor/cern.ch/delphi/MCprod/cern/phojet110/v99e/199.5/phojet110_qq_199.5_10003.xsdst ! RUN = 10003 ! NEVT = 5000
FILE = /castor/cern.ch/delphi/MCprod/cern/phojet110/v99e/199.5/phojet110_qq_199.5_10004.xsdst ! RUN = 10004 ! NEVT = 5000
FILE = /castor/cern.ch/delphi/MCprod/cern/phojet110/v99e/199.5/phojet110_qq_199.5_10005.xsdst ! RUN = 10005 ! NEVT = 5000
FILE = /castor/cern.ch/delphi/MCprod/cern/phojet110/v99e/199.5/phojet110_qq_199.5_10006.xsdst ! RUN = 10006 ! NEVT = 5000
FILE = /castor/cern.ch/delphi/MCprod/cern/phojet110/v99e/199.5/phojet110_qq_199.5_10007.xsdst ! RUN = 10007 ! NEVT = 5000
FILE = /castor/cern.ch/delphi/MCprod/cern/phojet110/v99e/199.5/phojet110_qq_199.5_10008.xsdst ! RUN = 10008 ! NEVT = 5000
FILE = /castor/cern.ch/delphi/MCprod/cern/phojet110/v99e/199.5/phojet110_qq_199.5_10009.xsdst ! RUN = 10009 ! NEVT = 5000
FILE = /castor/cern.ch/delphi/MCprod/cern/phojet110/v99e/199.5/phojet110_qq_199.5_10010.xsdst ! RUN = 10010 ! NEVT = 5000
FILE = /castor/cern.ch/delphi/MCprod/cern/phojet110/v99e/199.5/phojet110_qq_199.5_10011.xsdst ! RUN = 10011 ! NEVT = 5000
FILE = /castor/cern.ch/delphi/MCprod/cern/phojet110/v99e/199.5/phojet110_qq_199.5_10012.xsdst ! RUN = 10012 ! NEVT = 5000
FILE = /castor/cern.ch/delphi/MCprod/cern/phojet110/v99e/199.5/phojet110_qq_199.5_10013.xsdst ! RUN = 10013 ! NEVT = 5000
FILE = /castor/cern.ch/delphi/MCprod/cern/phojet110/v99e/199.5/phojet110_qq_199.5_10014.xsdst ! RUN = 10014 ! NEVT = 5000
FILE = /castor/cern.ch/delphi/MCprod/cern/phojet110/v99e/199.5/phojet110_qq_199.5_10015.xsdst ! RUN = 10015 ! NEVT = 5000
FILE = /castor/cern.ch/delphi/MCprod/cern/phojet110/v99e/199.5/phojet110_qq_199.5_10016.xsdst ! RUN = 10016 ! NEVT = 5000
FILE = /castor/cern.ch/delphi/MCprod/cern/phojet110/v99e/199.5/phojet110_qq_199.5_10017.xsdst ! RUN = 10017 ! NEVT = 5000
FILE = /castor/cern.ch/delphi/MCprod/cern/phojet110/v99e/199.5/phojet110_qq_199.5_10018.xsdst ! RUN = 10018 ! NEVT = 5000
FILE = /castor/cern.ch/delphi/MCprod/cern/phojet110/v99e/199.5/phojet110_qq_199.5_10019.xsdst ! RUN = 10019 ! NEVT = 5000
FILE = /castor/cern.ch/delphi/MCprod/cern/phojet110/v99e/199.5/phojet110_qq_199.5_10020.xsdst ! RUN = 10020 ! NEVT = 5000
FILE = /castor/cern.ch/delphi/MCprod/cern/phojet110/v99e/199.5/phojet110_qq_199.5_10021.xsdst ! RUN = 10021 ! NEVT = 5000
FILE = /castor/cern.ch/delphi/MCprod/cern/phojet110/v99e/199.5/phojet110_qq_199.5_10022.xsdst ! RUN = 10022 ! NEVT = 5000
FILE = /castor/cern.ch/delphi/MCprod/cern/phojet110/v99e/199.5/phojet110_qq_199.5_10023.xsdst ! RUN = 10023 ! NEVT = 5000
FILE = /castor/cern.ch/delphi/MCprod/cern/phojet110/v99e/199.5/phojet110_qq_199.5_10024.xsdst ! RUN = 10024 ! NEVT = 5000
FILE = /castor/cern.ch/delphi/MCprod/cern/phojet110/v99e/199.5/phojet110_qq_199.5_10025.xsdst ! RUN = 10025 ! NEVT = 5000
FILE = /castor/cern.ch/delphi/MCprod/cern/phojet110/v99e/199.5/phojet110_qq_199.5_10026.xsdst ! RUN = 10026 ! NEVT = 5000
FILE = /castor/cern.ch/delphi/MCprod/cern/phojet110/v99e/199.5/phojet110_qq_199.5_10027.xsdst ! RUN = 10027 ! NEVT = 5000
FILE = /castor/cern.ch/delphi/MCprod/cern/phojet110/v99e/199.5/phojet110_qq_199.5_10028.xsdst ! RUN = 10028 ! NEVT = 5000
FILE = /castor/cern.ch/delphi/MCprod/cern/phojet110/v99e/199.5/phojet110_qq_199.5_10029.xsdst ! RUN = 10029 ! NEVT = 5000
FILE = /castor/cern.ch/delphi/MCprod/cern/phojet110/v99e/199.5/phojet110_qq_199.5_10030.xsdst ! RUN = 10030 ! NEVT = 5000
FILE = /castor/cern.ch/delphi/MCprod/cern/phojet110/v99e/199.5/phojet110_qq_199.5_10031.xsdst ! RUN = 10031 ! NEVT = 5000
FILE = /castor/cern.ch/delphi/MCprod/cern/phojet110/v99e/199.5/phojet110_qq_199.5_10032.xsdst ! RUN = 10032 ! NEVT = 5000
FILE = /castor/cern.ch/delphi/MCprod/cern/phojet110/v99e/199.5/phojet110_qq_199.5_10033.xsdst ! RUN = 10033 ! NEVT = 5000
FILE = /castor/cern.ch/delphi/MCprod/cern/phojet110/v99e/199.5/phojet110_qq_199.5_10034.xsdst ! RUN = 10034 ! NEVT = 5000
FILE = /castor/cern.ch/delphi/MCprod/cern/phojet110/v99e/199.5/phojet110_qq_199.5_10035.xsdst ! RUN = 10035 ! NEVT = 5000
FILE = /castor/cern.ch/delphi/MCprod/cern/phojet110/v99e/199.5/phojet110_qq_199.5_10036.xsdst ! RUN = 10036 ! NEVT = 5000
FILE = /castor/cern.ch/delphi/MCprod/cern/phojet110/v99e/199.5/phojet110_qq_199.5_10037.xsdst ! RUN = 10037 ! NEVT = 5000
FILE = /castor/cern.ch/delphi/MCprod/cern/phojet110/v99e/199.5/phojet110_qq_199.5_10038.xsdst ! RUN = 10038 ! NEVT = 5000
FILE = /castor/cern.ch/delphi/MCprod/cern/phojet110/v99e/199.5/phojet110_qq_199.5_10039.xsdst ! RUN = 10039 ! NEVT = 5000
FILE = /castor/cern.ch/delphi/MCprod/cern/phojet110/v99e/199.5/phojet110_qq_199.5_10040.xsdst ! RUN = 10040 ! NEVT = 5000
FILE = /castor/cern.ch/delphi/MCprod/cern/phojet110/v99e/199.5/phojet110_qq_199.5_10041.xsdst ! RUN = 10041 ! NEVT = 5000
FILE = /castor/cern.ch/delphi/MCprod/cern/phojet110/v99e/199.5/phojet110_qq_199.5_10042.xsdst ! RUN = 10042 ! NEVT = 5000
FILE = /castor/cern.ch/delphi/MCprod/cern/phojet110/v99e/199.5/phojet110_qq_199.5_10043.xsdst ! RUN = 10043 ! NEVT = 5000
FILE = /castor/cern.ch/delphi/MCprod/cern/phojet110/v99e/199.5/phojet110_qq_199.5_10044.xsdst ! RUN = 10044 ! NEVT = 5000
FILE = /castor/cern.ch/delphi/MCprod/cern/phojet110/v99e/199.5/phojet110_qq_199.5_10045.xsdst ! RUN = 10045 ! NEVT = 5000
FILE = /castor/cern.ch/delphi/MCprod/cern/phojet110/v99e/199.5/phojet110_qq_199.5_10046.xsdst ! RUN = 10046 ! NEVT = 5000
FILE = /castor/cern.ch/delphi/MCprod/cern/phojet110/v99e/199.5/phojet110_qq_199.5_10047.xsdst ! RUN = 10047 ! NEVT = 5000
FILE = /castor/cern.ch/delphi/MCprod/cern/phojet110/v99e/199.5/phojet110_qq_199.5_10048.xsdst ! RUN = 10048 ! NEVT = 5000
FILE = /castor/cern.ch/delphi/MCprod/cern/phojet110/v99e/199.5/phojet110_qq_199.5_10049.xsdst ! RUN = 10049 ! NEVT = 5000
FILE = /castor/cern.ch/delphi/MCprod/cern/phojet110/v99e/199.5/phojet110_qq_199.5_10050.xsdst ! RUN = 10050 ! NEVT = 5000
FILE = /castor/cern.ch/delphi/MCprod/cern/phojet110/v99e/199.5/phojet110_qq_199.5_10051.xsdst ! RUN = 10051 ! NEVT = 5000
FILE = /castor/cern.ch/delphi/MCprod/cern/phojet110/v99e/199.5/phojet110_qq_199.5_10052.xsdst ! RUN = 10052 ! NEVT = 5000
FILE = /castor/cern.ch/delphi/MCprod/cern/phojet110/v99e/199.5/phojet110_qq_199.5_10053.xsdst ! RUN = 10053 ! NEVT = 5000
FILE = /castor/cern.ch/delphi/MCprod/cern/phojet110/v99e/199.5/phojet110_qq_199.5_10054.xsdst ! RUN = 10054 ! NEVT = 5000
FILE = /castor/cern.ch/delphi/MCprod/cern/phojet110/v99e/199.5/phojet110_qq_199.5_10055.xsdst ! RUN = 10055 ! NEVT = 5000
FILE = /castor/cern.ch/delphi/MCprod/cern/phojet110/v99e/199.5/phojet110_qq_199.5_10056.xsdst ! RUN = 10056 ! NEVT = 5000
FILE = /castor/cern.ch/delphi/MCprod/cern/phojet110/v99e/199.5/phojet110_qq_199.5_10057.xsdst ! RUN = 10057 ! NEVT = 5000
FILE = /castor/cern.ch/delphi/MCprod/cern/phojet110/v99e/199.5/phojet110_qq_199.5_10058.xsdst ! RUN = 10058 ! NEVT = 5000
FILE = /castor/cern.ch/delphi/MCprod/cern/phojet110/v99e/199.5/phojet110_qq_199.5_10059.xsdst ! RUN = 10059 ! NEVT = 5000
FILE = /castor/cern.ch/delphi/MCprod/cern/phojet110/v99e/199.5/phojet110_qq_199.5_10060.xsdst ! RUN = 10060 ! NEVT = 5000
FILE = /castor/cern.ch/delphi/MCprod/cern/phojet110/v99e/199.5/phojet110_qq_199.5_10061.xsdst ! RUN = 10061 ! NEVT = 5000
FILE = /castor/cern.ch/delphi/MCprod/cern/phojet110/v99e/199.5/phojet110_qq_199.5_10062.xsdst ! RUN = 10062 ! NEVT = 5000
FILE = /castor/cern.ch/delphi/MCprod/cern/phojet110/v99e/199.5/phojet110_qq_199.5_10063.xsdst ! RUN = 10063 ! NEVT = 5000
FILE = /castor/cern.ch/delphi/MCprod/cern/phojet110/v99e/199.5/phojet110_qq_199.5_10064.xsdst ! RUN = 10064 ! NEVT = 5000
FILE = /castor/cern.ch/delphi/MCprod/cern/phojet110/v99e/199.5/phojet110_qq_199.5_10065.xsdst ! RUN = 10065 ! NEVT = 5000
FILE = /castor/cern.ch/delphi/MCprod/cern/phojet110/v99e/199.5/phojet110_qq_199.5_10066.xsdst ! RUN = 10066 ! NEVT = 5000
FILE = /castor/cern.ch/delphi/MCprod/cern/phojet110/v99e/199.5/phojet110_qq_199.5_10067.xsdst ! RUN = 10067 ! NEVT = 5000
FILE = /castor/cern.ch/delphi/MCprod/cern/phojet110/v99e/199.5/phojet110_qq_199.5_10068.xsdst ! RUN = 10068 ! NEVT = 5000
FILE = /castor/cern.ch/delphi/MCprod/cern/phojet110/v99e/199.5/phojet110_qq_199.5_10069.xsdst ! RUN = 10069 ! NEVT = 5000
FILE = /castor/cern.ch/delphi/MCprod/cern/phojet110/v99e/199.5/phojet110_qq_199.5_10070.xsdst ! RUN = 10070 ! NEVT = 5000
FILE = /castor/cern.ch/delphi/MCprod/cern/phojet110/v99e/199.5/phojet110_qq_199.5_10071.xsdst ! RUN = 10071 ! NEVT = 5000
FILE = /castor/cern.ch/delphi/MCprod/cern/phojet110/v99e/199.5/phojet110_qq_199.5_10072.xsdst ! RUN = 10072 ! NEVT = 5000
FILE = /castor/cern.ch/delphi/MCprod/cern/phojet110/v99e/199.5/phojet110_qq_199.5_10073.xsdst ! RUN = 10073 ! NEVT = 5000
FILE = /castor/cern.ch/delphi/MCprod/cern/phojet110/v99e/199.5/phojet110_qq_199.5_10074.xsdst ! RUN = 10074 ! NEVT = 5000
FILE = /castor/cern.ch/delphi/MCprod/cern/phojet110/v99e/199.5/phojet110_qq_199.5_10075.xsdst ! RUN = 10075 ! NEVT = 5000
FILE = /castor/cern.ch/delphi/MCprod/cern/phojet110/v99e/199.5/phojet110_qq_199.5_10076.xsdst ! RUN = 10076 ! NEVT = 5000
FILE = /castor/cern.ch/delphi/MCprod/cern/phojet110/v99e/199.5/phojet110_qq_199.5_10077.xsdst ! RUN = 10077 ! NEVT = 5000
FILE = /castor/cern.ch/delphi/MCprod/cern/phojet110/v99e/199.5/phojet110_qq_199.5_10078.xsdst ! RUN = 10078 ! NEVT = 5000
FILE = /castor/cern.ch/delphi/MCprod/cern/phojet110/v99e/199.5/phojet110_qq_199.5_10079.xsdst ! RUN = 10079 ! NEVT = 945
FILE = /castor/cern.ch/delphi/MCprod/cern/phojet110/v99e/199.5/phojet110_qq_199.5_10080.xsdst ! RUN = 10080 ! NEVT = 5000
FILE = /castor/cern.ch/delphi/MCprod/cern/phojet110/v99e/199.5/phojet110_qq_199.5_10081.xsdst ! RUN = 10081 ! NEVT = 5000
FILE = /castor/cern.ch/delphi/MCprod/cern/phojet110/v99e/199.5/phojet110_qq_199.5_10082.xsdst ! RUN = 10082 ! NEVT = 5000
FILE = /castor/cern.ch/delphi/MCprod/cern/phojet110/v99e/199.5/phojet110_qq_199.5_10083.xsdst ! RUN = 10083 ! NEVT = 5000
FILE = /castor/cern.ch/delphi/MCprod/cern/phojet110/v99e/199.5/phojet110_qq_199.5_10084.xsdst ! RUN = 10084 ! NEVT = 5000
FILE = /castor/cern.ch/delphi/MCprod/cern/phojet110/v99e/199.5/phojet110_qq_199.5_10085.xsdst ! RUN = 10085 ! NEVT = 5000
FILE = /castor/cern.ch/delphi/MCprod/cern/phojet110/v99e/199.5/phojet110_qq_199.5_10086.xsdst ! RUN = 10086 ! NEVT = 5000
FILE = /castor/cern.ch/delphi/MCprod/cern/phojet110/v99e/199.5/phojet110_qq_199.5_10087.xsdst ! RUN = 10087 ! NEVT = 5000
FILE = /castor/cern.ch/delphi/MCprod/cern/phojet110/v99e/199.5/phojet110_qq_199.5_10088.xsdst ! RUN = 10088 ! NEVT = 5000
FILE = /castor/cern.ch/delphi/MCprod/cern/phojet110/v99e/199.5/phojet110_qq_199.5_10089.xsdst ! RUN = 10089 ! NEVT = 5000
FILE = /castor/cern.ch/delphi/MCprod/cern/phojet110/v99e/199.5/phojet110_qq_199.5_10090.xsdst ! RUN = 10090 ! NEVT = 5000
FILE = /castor/cern.ch/delphi/MCprod/cern/phojet110/v99e/199.5/phojet110_qq_199.5_10091.xsdst ! RUN = 10091 ! NEVT = 5000
FILE = /castor/cern.ch/delphi/MCprod/cern/phojet110/v99e/199.5/phojet110_qq_199.5_10092.xsdst ! RUN = 10092 ! NEVT = 5000
FILE = /castor/cern.ch/delphi/MCprod/cern/phojet110/v99e/199.5/phojet110_qq_199.5_10093.xsdst ! RUN = 10093 ! NEVT = 5000
FILE = /castor/cern.ch/delphi/MCprod/cern/phojet110/v99e/199.5/phojet110_qq_199.5_10094.xsdst ! RUN = 10094 ! NEVT = 5000
FILE = /castor/cern.ch/delphi/MCprod/cern/phojet110/v99e/199.5/phojet110_qq_199.5_10095.xsdst ! RUN = 10095 ! NEVT = 5000
FILE = /castor/cern.ch/delphi/MCprod/cern/phojet110/v99e/199.5/phojet110_qq_199.5_10096.xsdst ! RUN = 10096 ! NEVT = 5000
FILE = /castor/cern.ch/delphi/MCprod/cern/phojet110/v99e/199.5/phojet110_qq_199.5_10097.xsdst ! RUN = 10097 ! NEVT = 5000
FILE = /castor/cern.ch/delphi/MCprod/cern/phojet110/v99e/199.5/phojet110_qq_199.5_10098.xsdst ! RUN = 10098 ! NEVT = 5000
FILE = /castor/cern.ch/delphi/MCprod/cern/phojet110/v99e/199.5/phojet110_qq_199.5_10099.xsdst ! RUN = 10099 ! NEVT = 5000
FILE = /castor/cern.ch/delphi/MCprod/cern/phojet110/v99e/199.5/phojet110_qq_199.5_10100.xsdst ! RUN = 10100 ! NEVT = 5000
FILE = /castor/cern.ch/delphi/MCprod/cern/phojet110/v99e/199.5/phojet110_qq_199.5_10101.xsdst ! RUN = 10101 ! NEVT = 5000
FILE = /castor/cern.ch/delphi/MCprod/cern/phojet110/v99e/199.5/phojet110_qq_199.5_10102.xsdst ! RUN = 10102 ! NEVT = 5000
FILE = /castor/cern.ch/delphi/MCprod/cern/phojet110/v99e/199.5/phojet110_qq_199.5_10103.xsdst ! RUN = 10103 ! NEVT = 5000
FILE = /castor/cern.ch/delphi/MCprod/cern/phojet110/v99e/199.5/phojet110_qq_199.5_10104.xsdst ! RUN = 10104 ! NEVT = 5000
FILE = /castor/cern.ch/delphi/MCprod/cern/phojet110/v99e/199.5/phojet110_qq_199.5_10105.xsdst ! RUN = 10105 ! NEVT = 5000
FILE = /castor/cern.ch/delphi/MCprod/cern/phojet110/v99e/199.5/phojet110_qq_199.5_10106.xsdst ! RUN = 10106 ! NEVT = 5000
FILE = /castor/cern.ch/delphi/MCprod/cern/phojet110/v99e/199.5/phojet110_qq_199.5_10107.xsdst ! RUN = 10107 ! NEVT = 5000
FILE = /castor/cern.ch/delphi/MCprod/cern/phojet110/v99e/199.5/phojet110_qq_199.5_10108.xsdst ! RUN = 10108 ! NEVT = 5000
FILE = /castor/cern.ch/delphi/MCprod/cern/phojet110/v99e/199.5/phojet110_qq_199.5_10109.xsdst ! RUN = 10109 ! NEVT = 5000
FILE = /castor/cern.ch/delphi/MCprod/cern/phojet110/v99e/199.5/phojet110_qq_199.5_10110.xsdst ! RUN = 10110 ! NEVT = 5000
FILE = /castor/cern.ch/delphi/MCprod/cern/phojet110/v99e/199.5/phojet110_qq_199.5_10111.xsdst ! RUN = 10111 ! NEVT = 5000
FILE = /castor/cern.ch/delphi/MCprod/cern/phojet110/v99e/199.5/phojet110_qq_199.5_10112.xsdst ! RUN = 10112 ! NEVT = 5000
FILE = /castor/cern.ch/delphi/MCprod/cern/phojet110/v99e/199.5/phojet110_qq_199.5_10113.xsdst ! RUN = 10113 ! NEVT = 5000
FILE = /castor/cern.ch/delphi/MCprod/cern/phojet110/v99e/199.5/phojet110_qq_199.5_10114.xsdst ! RUN = 10114 ! NEVT = 5000
FILE = /castor/cern.ch/delphi/MCprod/cern/phojet110/v99e/199.5/phojet110_qq_199.5_10115.xsdst ! RUN = 10115 ! NEVT = 5000
FILE = /castor/cern.ch/delphi/MCprod/cern/phojet110/v99e/199.5/phojet110_qq_199.5_10116.xsdst ! RUN = 10116 ! NEVT = 5000
FILE = /castor/cern.ch/delphi/MCprod/cern/phojet110/v99e/199.5/phojet110_qq_199.5_10117.xsdst ! RUN = 10117 ! NEVT = 5000
FILE = /castor/cern.ch/delphi/MCprod/cern/phojet110/v99e/199.5/phojet110_qq_199.5_10118.xsdst ! RUN = 10118 ! NEVT = 5000
FILE = /castor/cern.ch/delphi/MCprod/cern/phojet110/v99e/199.5/phojet110_qq_199.5_10119.xsdst ! RUN = 10119 ! NEVT = 5000
FILE = /castor/cern.ch/delphi/MCprod/cern/phojet110/v99e/199.5/phojet110_qq_199.5_10120.xsdst ! RUN = 10120 ! NEVT = 5000
FILE = /castor/cern.ch/delphi/MCprod/cern/phojet110/v99e/199.5/phojet110_qq_199.5_10121.xsdst ! RUN = 10121 ! NEVT = 5000
FILE = /castor/cern.ch/delphi/MCprod/cern/phojet110/v99e/199.5/phojet110_qq_199.5_10122.xsdst ! RUN = 10122 ! NEVT = 5000
FILE = /castor/cern.ch/delphi/MCprod/cern/phojet110/v99e/199.5/phojet110_qq_199.5_10123.xsdst ! RUN = 10123 ! NEVT = 5000
FILE = /castor/cern.ch/delphi/MCprod/cern/phojet110/v99e/199.5/phojet110_qq_199.5_10124.xsdst ! RUN = 10124 ! NEVT = 5000
FILE = /castor/cern.ch/delphi/MCprod/cern/phojet110/v99e/199.5/phojet110_qq_199.5_10125.xsdst ! RUN = 10125 ! NEVT = 5000
FILE = /castor/cern.ch/delphi/MCprod/cern/phojet110/v99e/199.5/phojet110_qq_199.5_10126.xsdst ! RUN = 10126 ! NEVT = 5000
FILE = /castor/cern.ch/delphi/MCprod/cern/phojet110/v99e/199.5/phojet110_qq_199.5_10127.xsdst ! RUN = 10127 ! NEVT = 5000
FILE = /castor/cern.ch/delphi/MCprod/cern/phojet110/v99e/199.5/phojet110_qq_199.5_10128.xsdst ! RUN = 10128 ! NEVT = 5000
FILE = /castor/cern.ch/delphi/MCprod/cern/phojet110/v99e/199.5/phojet110_qq_199.5_10129.xsdst ! RUN = 10129 ! NEVT = 5000
FILE = /castor/cern.ch/delphi/MCprod/cern/phojet110/v99e/199.5/phojet110_qq_199.5_10130.xsdst ! RUN = 10130 ! NEVT = 5000
FILE = /castor/cern.ch/delphi/MCprod/cern/phojet110/v99e/199.5/phojet110_qq_199.5_10131.xsdst ! RUN = 10131 ! NEVT = 466
FILE = /castor/cern.ch/delphi/MCprod/cern/phojet110/v99e/199.5/phojet110_qq_199.5_10132.xsdst ! RUN = 10132 ! NEVT = 5000
FILE = /castor/cern.ch/delphi/MCprod/cern/phojet110/v99e/199.5/phojet110_qq_199.5_10133.xsdst ! RUN = 10133 ! NEVT = 5000
FILE = /castor/cern.ch/delphi/MCprod/cern/phojet110/v99e/199.5/phojet110_qq_199.5_10134.xsdst ! RUN = 10134 ! NEVT = 5000
FILE = /castor/cern.ch/delphi/MCprod/cern/phojet110/v99e/199.5/phojet110_qq_199.5_10135.xsdst ! RUN = 10135 ! NEVT = 5000
FILE = /castor/cern.ch/delphi/MCprod/cern/phojet110/v99e/199.5/phojet110_qq_199.5_10136.xsdst ! RUN = 10136 ! NEVT = 5000
FILE = /castor/cern.ch/delphi/MCprod/cern/phojet110/v99e/199.5/phojet110_qq_199.5_10137.xsdst ! RUN = 10137 ! NEVT = 5000
FILE = /castor/cern.ch/delphi/MCprod/cern/phojet110/v99e/199.5/phojet110_qq_199.5_10138.xsdst ! RUN = 10138 ! NEVT = 5000
FILE = /castor/cern.ch/delphi/MCprod/cern/phojet110/v99e/199.5/phojet110_qq_199.5_10139.xsdst ! RUN = 10139 ! NEVT = 5000
FILE = /castor/cern.ch/delphi/MCprod/cern/phojet110/v99e/199.5/phojet110_qq_199.5_10140.xsdst ! RUN = 10140 ! NEVT = 5000
FILE = /castor/cern.ch/delphi/MCprod/cern/phojet110/v99e/199.5/phojet110_qq_199.5_10141.xsdst ! RUN = 10141 ! NEVT = 5000
FILE = /castor/cern.ch/delphi/MCprod/cern/phojet110/v99e/199.5/phojet110_qq_199.5_10142.xsdst ! RUN = 10142 ! NEVT = 5000
FILE = /castor/cern.ch/delphi/MCprod/cern/phojet110/v99e/199.5/phojet110_qq_199.5_10143.xsdst ! RUN = 10143 ! NEVT = 5000
FILE = /castor/cern.ch/delphi/MCprod/cern/phojet110/v99e/199.5/phojet110_qq_199.5_10144.xsdst ! RUN = 10144 ! NEVT = 5000
FILE = /castor/cern.ch/delphi/MCprod/cern/phojet110/v99e/199.5/phojet110_qq_199.5_10145.xsdst ! RUN = 10145 ! NEVT = 5000
FILE = /castor/cern.ch/delphi/MCprod/cern/phojet110/v99e/199.5/phojet110_qq_199.5_10146.xsdst ! RUN = 10146 ! NEVT = 5000
FILE = /castor/cern.ch/delphi/MCprod/cern/phojet110/v99e/199.5/phojet110_qq_199.5_10147.xsdst ! RUN = 10147 ! NEVT = 5000
FILE = /castor/cern.ch/delphi/MCprod/cern/phojet110/v99e/199.5/phojet110_qq_199.5_10148.xsdst ! RUN = 10148 ! NEVT = 5000
FILE = /castor/cern.ch/delphi/MCprod/cern/phojet110/v99e/199.5/phojet110_qq_199.5_10149.xsdst ! RUN = 10149 ! NEVT = 5000
FILE = /castor/cern.ch/delphi/MCprod/cern/phojet110/v99e/199.5/phojet110_qq_199.5_10150.xsdst ! RUN = 10150 ! NEVT = 5000
FILE = /castor/cern.ch/delphi/MCprod/cern/phojet110/v99e/199.5/phojet110_qq_199.5_10151.xsdst ! RUN = 10151 ! NEVT = 5000
FILE = /castor/cern.ch/delphi/MCprod/cern/phojet110/v99e/199.5/phojet110_qq_199.5_10152.xsdst ! RUN = 10152 ! NEVT = 5000
FILE = /castor/cern.ch/delphi/MCprod/cern/phojet110/v99e/199.5/phojet110_qq_199.5_10153.xsdst ! RUN = 10153 ! NEVT = 5000
FILE = /castor/cern.ch/delphi/MCprod/cern/phojet110/v99e/199.5/phojet110_qq_199.5_10154.xsdst ! RUN = 10154 ! NEVT = 5000
FILE = /castor/cern.ch/delphi/MCprod/cern/phojet110/v99e/199.5/phojet110_qq_199.5_10155.xsdst ! RUN = 10155 ! NEVT = 5000
FILE = /castor/cern.ch/delphi/MCprod/cern/phojet110/v99e/199.5/phojet110_qq_199.5_10156.xsdst ! RUN = 10156 ! NEVT = 5000
FILE = /castor/cern.ch/delphi/MCprod/cern/phojet110/v99e/199.5/phojet110_qq_199.5_10157.xsdst ! RUN = 10157 ! NEVT = 5000
FILE = /castor/cern.ch/delphi/MCprod/cern/phojet110/v99e/199.5/phojet110_qq_199.5_10158.xsdst ! RUN = 10158 ! NEVT = 5000
FILE = /castor/cern.ch/delphi/MCprod/cern/phojet110/v99e/199.5/phojet110_qq_199.5_10159.xsdst ! RUN = 10159 ! NEVT = 5000
FILE = /castor/cern.ch/delphi/MCprod/cern/phojet110/v99e/199.5/phojet110_qq_199.5_10160.xsdst ! RUN = 10160 ! NEVT = 5000
FILE = /castor/cern.ch/delphi/MCprod/cern/phojet110/v99e/199.5/phojet110_qq_199.5_10161.xsdst ! RUN = 10161 ! NEVT = 5000
FILE = /castor/cern.ch/delphi/MCprod/cern/phojet110/v99e/199.5/phojet110_qq_199.5_10162.xsdst ! RUN = 10162 ! NEVT = 5000
FILE = /castor/cern.ch/delphi/MCprod/cern/phojet110/v99e/199.5/phojet110_qq_199.5_10163.xsdst ! RUN = 10163 ! NEVT = 5000
FILE = /castor/cern.ch/delphi/MCprod/cern/phojet110/v99e/199.5/phojet110_qq_199.5_10164.xsdst ! RUN = 10164 ! NEVT = 5000
FILE = /castor/cern.ch/delphi/MCprod/cern/phojet110/v99e/199.5/phojet110_qq_199.5_10165.xsdst ! RUN = 10165 ! NEVT = 5000
FILE = /castor/cern.ch/delphi/MCprod/cern/phojet110/v99e/199.5/phojet110_qq_199.5_10166.xsdst ! RUN = 10166 ! NEVT = 5000
FILE = /castor/cern.ch/delphi/MCprod/cern/phojet110/v99e/199.5/phojet110_qq_199.5_10167.xsdst ! RUN = 10167 ! NEVT = 5000
FILE = /castor/cern.ch/delphi/MCprod/cern/phojet110/v99e/199.5/phojet110_qq_199.5_10168.xsdst ! RUN = 10168 ! NEVT = 5000
FILE = /castor/cern.ch/delphi/MCprod/cern/phojet110/v99e/199.5/phojet110_qq_199.5_10169.xsdst ! RUN = 10169 ! NEVT = 5000
FILE = /castor/cern.ch/delphi/MCprod/cern/phojet110/v99e/199.5/phojet110_qq_199.5_10170.xsdst ! RUN = 10170 ! NEVT = 5000
FILE = /castor/cern.ch/delphi/MCprod/cern/phojet110/v99e/199.5/phojet110_qq_199.5_10171.xsdst ! RUN = 10171 ! NEVT = 5000
FILE = /castor/cern.ch/delphi/MCprod/cern/phojet110/v99e/199.5/phojet110_qq_199.5_10172.xsdst ! RUN = 10172 ! NEVT = 5000
FILE = /castor/cern.ch/delphi/MCprod/cern/phojet110/v99e/199.5/phojet110_qq_199.5_10173.xsdst ! RUN = 10173 ! NEVT = 5000
FILE = /castor/cern.ch/delphi/MCprod/cern/phojet110/v99e/199.5/phojet110_qq_199.5_10174.xsdst ! RUN = 10174 ! NEVT = 5000
FILE = /castor/cern.ch/delphi/MCprod/cern/phojet110/v99e/199.5/phojet110_qq_199.5_10175.xsdst ! RUN = 10175 ! NEVT = 5000
FILE = /castor/cern.ch/delphi/MCprod/cern/phojet110/v99e/199.5/phojet110_qq_199.5_10176.xsdst ! RUN = 10176 ! NEVT = 5000
FILE = /castor/cern.ch/delphi/MCprod/cern/phojet110/v99e/199.5/phojet110_qq_199.5_10177.xsdst ! RUN = 10177 ! NEVT = 5000
FILE = /castor/cern.ch/delphi/MCprod/cern/phojet110/v99e/199.5/phojet110_qq_199.5_10178.xsdst ! RUN = 10178 ! NEVT = 5000
FILE = /castor/cern.ch/delphi/MCprod/cern/phojet110/v99e/199.5/phojet110_qq_199.5_10179.xsdst ! RUN = 10179 ! NEVT = 5000
FILE = /castor/cern.ch/delphi/MCprod/cern/phojet110/v99e/199.5/phojet110_qq_199.5_10180.xsdst ! RUN = 10180 ! NEVT = 5000
FILE = /castor/cern.ch/delphi/MCprod/cern/phojet110/v99e/199.5/phojet110_qq_199.5_10181.xsdst ! RUN = 10181 ! NEVT = 5000
FILE = /castor/cern.ch/delphi/MCprod/cern/phojet110/v99e/199.5/phojet110_qq_199.5_10182.xsdst ! RUN = 10182 ! NEVT = 5000
FILE = /castor/cern.ch/delphi/MCprod/cern/phojet110/v99e/199.5/phojet110_qq_199.5_10183.xsdst ! RUN = 10183 ! NEVT = 5000
FILE = /castor/cern.ch/delphi/MCprod/cern/phojet110/v99e/199.5/phojet110_qq_199.5_10184.xsdst ! RUN = 10184 ! NEVT = 5000
FILE = /castor/cern.ch/delphi/MCprod/cern/phojet110/v99e/199.5/phojet110_qq_199.5_10185.xsdst ! RUN = 10185 ! NEVT = 5000
FILE = /castor/cern.ch/delphi/MCprod/cern/phojet110/v99e/199.5/phojet110_qq_199.5_10186.xsdst ! RUN = 10186 ! NEVT = 5000
FILE = /castor/cern.ch/delphi/MCprod/cern/phojet110/v99e/199.5/phojet110_qq_199.5_10187.xsdst ! RUN = 10187 ! NEVT = 5000
FILE = /castor/cern.ch/delphi/MCprod/cern/phojet110/v99e/199.5/phojet110_qq_199.5_10188.xsdst ! RUN = 10188 ! NEVT = 5000
FILE = /castor/cern.ch/delphi/MCprod/cern/phojet110/v99e/199.5/phojet110_qq_199.5_10189.xsdst ! RUN = 10189 ! NEVT = 5000
FILE = /castor/cern.ch/delphi/MCprod/cern/phojet110/v99e/199.5/phojet110_qq_199.5_10190.xsdst ! RUN = 10190 ! NEVT = 5000
FILE = /castor/cern.ch/delphi/MCprod/cern/phojet110/v99e/199.5/phojet110_qq_199.5_10191.xsdst ! RUN = 10191 ! NEVT = 5000
FILE = /castor/cern.ch/delphi/MCprod/cern/phojet110/v99e/199.5/phojet110_qq_199.5_10192.xsdst ! RUN = 10192 ! NEVT = 5000
FILE = /castor/cern.ch/delphi/MCprod/cern/phojet110/v99e/199.5/phojet110_qq_199.5_10193.xsdst ! RUN = 10193 ! NEVT = 5000
FILE = /castor/cern.ch/delphi/MCprod/cern/phojet110/v99e/199.5/phojet110_qq_199.5_10194.xsdst ! RUN = 10194 ! NEVT = 5000
FILE = /castor/cern.ch/delphi/MCprod/cern/phojet110/v99e/199.5/phojet110_qq_199.5_10195.xsdst ! RUN = 10195 ! NEVT = 5000
FILE = /castor/cern.ch/delphi/MCprod/cern/phojet110/v99e/199.5/phojet110_qq_199.5_10196.xsdst ! RUN = 10196 ! NEVT = 5000
FILE = /castor/cern.ch/delphi/MCprod/cern/phojet110/v99e/199.5/phojet110_qq_199.5_10197.xsdst ! RUN = 10197 ! NEVT = 5000
FILE = /castor/cern.ch/delphi/MCprod/cern/phojet110/v99e/199.5/phojet110_qq_199.5_10198.xsdst ! RUN = 10198 ! NEVT = 5000
FILE = /castor/cern.ch/delphi/MCprod/cern/phojet110/v99e/199.5/phojet110_qq_199.5_10199.xsdst ! RUN = 10199 ! NEVT = 5000
FILE = /castor/cern.ch/delphi/MCprod/cern/phojet110/v99e/199.5/phojet110_qq_199.5_10200.xsdst ! RUN = 10200 ! NEVT = 5000
FILE = /castor/cern.ch/delphi/MCprod/cern/phojet110/v99e/199.5/phojet110_qq_199.5_10201.xsdst ! RUN = 10201 ! NEVT = 5000
FILE = /castor/cern.ch/delphi/MCprod/cern/phojet110/v99e/199.5/phojet110_qq_199.5_10202.xsdst ! RUN = 10202 ! NEVT = 5000
FILE = /castor/cern.ch/delphi/MCprod/cern/phojet110/v99e/199.5/phojet110_qq_199.5_10203.xsdst ! RUN = 10203 ! NEVT = 881
FILE = /castor/cern.ch/delphi/MCprod/cern/phojet110/v99e/199.5/phojet110_qq_199.5_10204.xsdst ! RUN = 10204 ! NEVT = 5000
FILE = /castor/cern.ch/delphi/MCprod/cern/phojet110/v99e/199.5/phojet110_qq_199.5_10205.xsdst ! RUN = 10205 ! NEVT = 5000
FILE = /castor/cern.ch/delphi/MCprod/cern/phojet110/v99e/199.5/phojet110_qq_199.5_10206.xsdst ! RUN = 10206 ! NEVT = 5000
FILE = /castor/cern.ch/delphi/MCprod/cern/phojet110/v99e/199.5/phojet110_qq_199.5_10207.xsdst ! RUN = 10207 ! NEVT = 5000
FILE = /castor/cern.ch/delphi/MCprod/cern/phojet110/v99e/199.5/phojet110_qq_199.5_10208.xsdst ! RUN = 10208 ! NEVT = 5000
FILE = /castor/cern.ch/delphi/MCprod/cern/phojet110/v99e/199.5/phojet110_qq_199.5_10209.xsdst ! RUN = 10209 ! NEVT = 5000
FILE = /castor/cern.ch/delphi/MCprod/cern/phojet110/v99e/199.5/phojet110_qq_199.5_10210.xsdst ! RUN = 10210 ! NEVT = 5000
