*   Nickname :     xs_wphact244qsk1_e199.5_m80.4_c99_1l_e1
*   Generic Name : //CERN/DELPHI/P02_SIMD/XSDST/WPHACT244QSK1/E199.5/CERN/SUMT/C001-485
*   Description :   Extended Short DST simulation 99e  done at ecm=199.5 GeV , CERN
*   Comments :     in total 923715 events in 485 files, time stamp: Wed Dec 31 4:12:51 2003
*
*
*
FILE = /castor/cern.ch/delphi/MCprod/cern/wphact24/v99e/199.5/wphact24_4qsk1_199.5_80.4_204751.xsdst ! RUN = 204751 ! NEVT = 2000
FILE = /castor/cern.ch/delphi/MCprod/cern/wphact24/v99e/199.5/wphact24_4qsk1_199.5_80.4_204752.xsdst ! RUN = 204752 ! NEVT = 1999
FILE = /castor/cern.ch/delphi/MCprod/cern/wphact24/v99e/199.5/wphact24_4qsk1_199.5_80.4_204753.xsdst ! RUN = 204753 ! NEVT = 1999
FILE = /castor/cern.ch/delphi/MCprod/cern/wphact24/v99e/199.5/wphact24_4qsk1_199.5_80.4_204754.xsdst ! RUN = 204754 ! NEVT = 1998
FILE = /castor/cern.ch/delphi/MCprod/cern/wphact24/v99e/199.5/wphact24_4qsk1_199.5_80.4_204755.xsdst ! RUN = 204755 ! NEVT = 2000
FILE = /castor/cern.ch/delphi/MCprod/cern/wphact24/v99e/199.5/wphact24_4qsk1_199.5_80.4_204756.xsdst ! RUN = 204756 ! NEVT = 439
FILE = /castor/cern.ch/delphi/MCprod/cern/wphact24/v99e/199.5/wphact24_4qsk1_199.5_80.4_204757.xsdst ! RUN = 204757 ! NEVT = 2000
FILE = /castor/cern.ch/delphi/MCprod/cern/wphact24/v99e/199.5/wphact24_4qsk1_199.5_80.4_204758.xsdst ! RUN = 204758 ! NEVT = 1999
FILE = /castor/cern.ch/delphi/MCprod/cern/wphact24/v99e/199.5/wphact24_4qsk1_199.5_80.4_204759.xsdst ! RUN = 204759 ! NEVT = 1997
FILE = /castor/cern.ch/delphi/MCprod/cern/wphact24/v99e/199.5/wphact24_4qsk1_199.5_80.4_204760.xsdst ! RUN = 204760 ! NEVT = 1999
FILE = /castor/cern.ch/delphi/MCprod/cern/wphact24/v99e/199.5/wphact24_4qsk1_199.5_80.4_204761.xsdst ! RUN = 204761 ! NEVT = 2000
FILE = /castor/cern.ch/delphi/MCprod/cern/wphact24/v99e/199.5/wphact24_4qsk1_199.5_80.4_204762.xsdst ! RUN = 204762 ! NEVT = 1999
FILE = /castor/cern.ch/delphi/MCprod/cern/wphact24/v99e/199.5/wphact24_4qsk1_199.5_80.4_204763.xsdst ! RUN = 204763 ! NEVT = 1998
FILE = /castor/cern.ch/delphi/MCprod/cern/wphact24/v99e/199.5/wphact24_4qsk1_199.5_80.4_204764.xsdst ! RUN = 204764 ! NEVT = 1998
FILE = /castor/cern.ch/delphi/MCprod/cern/wphact24/v99e/199.5/wphact24_4qsk1_199.5_80.4_204765.xsdst ! RUN = 204765 ! NEVT = 2000
FILE = /castor/cern.ch/delphi/MCprod/cern/wphact24/v99e/199.5/wphact24_4qsk1_199.5_80.4_204766.xsdst ! RUN = 204766 ! NEVT = 1998
FILE = /castor/cern.ch/delphi/MCprod/cern/wphact24/v99e/199.5/wphact24_4qsk1_199.5_80.4_204767.xsdst ! RUN = 204767 ! NEVT = 1998
FILE = /castor/cern.ch/delphi/MCprod/cern/wphact24/v99e/199.5/wphact24_4qsk1_199.5_80.4_204769.xsdst ! RUN = 204769 ! NEVT = 1999
FILE = /castor/cern.ch/delphi/MCprod/cern/wphact24/v99e/199.5/wphact24_4qsk1_199.5_80.4_204770.xsdst ! RUN = 204770 ! NEVT = 1998
FILE = /castor/cern.ch/delphi/MCprod/cern/wphact24/v99e/199.5/wphact24_4qsk1_199.5_80.4_204771.xsdst ! RUN = 204771 ! NEVT = 1999
FILE = /castor/cern.ch/delphi/MCprod/cern/wphact24/v99e/199.5/wphact24_4qsk1_199.5_80.4_204772.xsdst ! RUN = 204772 ! NEVT = 2000
FILE = /castor/cern.ch/delphi/MCprod/cern/wphact24/v99e/199.5/wphact24_4qsk1_199.5_80.4_204773.xsdst ! RUN = 204773 ! NEVT = 1999
FILE = /castor/cern.ch/delphi/MCprod/cern/wphact24/v99e/199.5/wphact24_4qsk1_199.5_80.4_204774.xsdst ! RUN = 204774 ! NEVT = 2000
FILE = /castor/cern.ch/delphi/MCprod/cern/wphact24/v99e/199.5/wphact24_4qsk1_199.5_80.4_204776.xsdst ! RUN = 204776 ! NEVT = 2000
FILE = /castor/cern.ch/delphi/MCprod/cern/wphact24/v99e/199.5/wphact24_4qsk1_199.5_80.4_204777.xsdst ! RUN = 204777 ! NEVT = 2000
FILE = /castor/cern.ch/delphi/MCprod/cern/wphact24/v99e/199.5/wphact24_4qsk1_199.5_80.4_204778.xsdst ! RUN = 204778 ! NEVT = 2000
FILE = /castor/cern.ch/delphi/MCprod/cern/wphact24/v99e/199.5/wphact24_4qsk1_199.5_80.4_204779.xsdst ! RUN = 204779 ! NEVT = 1998
FILE = /castor/cern.ch/delphi/MCprod/cern/wphact24/v99e/199.5/wphact24_4qsk1_199.5_80.4_204780.xsdst ! RUN = 204780 ! NEVT = 2000
FILE = /castor/cern.ch/delphi/MCprod/cern/wphact24/v99e/199.5/wphact24_4qsk1_199.5_80.4_204782.xsdst ! RUN = 204782 ! NEVT = 1999
FILE = /castor/cern.ch/delphi/MCprod/cern/wphact24/v99e/199.5/wphact24_4qsk1_199.5_80.4_204783.xsdst ! RUN = 204783 ! NEVT = 2000
FILE = /castor/cern.ch/delphi/MCprod/cern/wphact24/v99e/199.5/wphact24_4qsk1_199.5_80.4_204784.xsdst ! RUN = 204784 ! NEVT = 1998
FILE = /castor/cern.ch/delphi/MCprod/cern/wphact24/v99e/199.5/wphact24_4qsk1_199.5_80.4_204785.xsdst ! RUN = 204785 ! NEVT = 2000
FILE = /castor/cern.ch/delphi/MCprod/cern/wphact24/v99e/199.5/wphact24_4qsk1_199.5_80.4_204786.xsdst ! RUN = 204786 ! NEVT = 2000
FILE = /castor/cern.ch/delphi/MCprod/cern/wphact24/v99e/199.5/wphact24_4qsk1_199.5_80.4_204787.xsdst ! RUN = 204787 ! NEVT = 1998
FILE = /castor/cern.ch/delphi/MCprod/cern/wphact24/v99e/199.5/wphact24_4qsk1_199.5_80.4_204788.xsdst ! RUN = 204788 ! NEVT = 1996
FILE = /castor/cern.ch/delphi/MCprod/cern/wphact24/v99e/199.5/wphact24_4qsk1_199.5_80.4_204789.xsdst ! RUN = 204789 ! NEVT = 1999
FILE = /castor/cern.ch/delphi/MCprod/cern/wphact24/v99e/199.5/wphact24_4qsk1_199.5_80.4_204790.xsdst ! RUN = 204790 ! NEVT = 1998
FILE = /castor/cern.ch/delphi/MCprod/cern/wphact24/v99e/199.5/wphact24_4qsk1_199.5_80.4_204791.xsdst ! RUN = 204791 ! NEVT = 2000
FILE = /castor/cern.ch/delphi/MCprod/cern/wphact24/v99e/199.5/wphact24_4qsk1_199.5_80.4_204792.xsdst ! RUN = 204792 ! NEVT = 1999
FILE = /castor/cern.ch/delphi/MCprod/cern/wphact24/v99e/199.5/wphact24_4qsk1_199.5_80.4_204793.xsdst ! RUN = 204793 ! NEVT = 2000
FILE = /castor/cern.ch/delphi/MCprod/cern/wphact24/v99e/199.5/wphact24_4qsk1_199.5_80.4_204794.xsdst ! RUN = 204794 ! NEVT = 1998
FILE = /castor/cern.ch/delphi/MCprod/cern/wphact24/v99e/199.5/wphact24_4qsk1_199.5_80.4_204795.xsdst ! RUN = 204795 ! NEVT = 1999
FILE = /castor/cern.ch/delphi/MCprod/cern/wphact24/v99e/199.5/wphact24_4qsk1_199.5_80.4_204796.xsdst ! RUN = 204796 ! NEVT = 1625
FILE = /castor/cern.ch/delphi/MCprod/cern/wphact24/v99e/199.5/wphact24_4qsk1_199.5_80.4_204797.xsdst ! RUN = 204797 ! NEVT = 1997
FILE = /castor/cern.ch/delphi/MCprod/cern/wphact24/v99e/199.5/wphact24_4qsk1_199.5_80.4_204798.xsdst ! RUN = 204798 ! NEVT = 2000
FILE = /castor/cern.ch/delphi/MCprod/cern/wphact24/v99e/199.5/wphact24_4qsk1_199.5_80.4_204799.xsdst ! RUN = 204799 ! NEVT = 1998
FILE = /castor/cern.ch/delphi/MCprod/cern/wphact24/v99e/199.5/wphact24_4qsk1_199.5_80.4_204800.xsdst ! RUN = 204800 ! NEVT = 2000
FILE = /castor/cern.ch/delphi/MCprod/cern/wphact24/v99e/199.5/wphact24_4qsk1_199.5_80.4_204801.xsdst ! RUN = 204801 ! NEVT = 2000
FILE = /castor/cern.ch/delphi/MCprod/cern/wphact24/v99e/199.5/wphact24_4qsk1_199.5_80.4_204802.xsdst ! RUN = 204802 ! NEVT = 1999
FILE = /castor/cern.ch/delphi/MCprod/cern/wphact24/v99e/199.5/wphact24_4qsk1_199.5_80.4_204803.xsdst ! RUN = 204803 ! NEVT = 2000
FILE = /castor/cern.ch/delphi/MCprod/cern/wphact24/v99e/199.5/wphact24_4qsk1_199.5_80.4_204804.xsdst ! RUN = 204804 ! NEVT = 2000
FILE = /castor/cern.ch/delphi/MCprod/cern/wphact24/v99e/199.5/wphact24_4qsk1_199.5_80.4_204805.xsdst ! RUN = 204805 ! NEVT = 1997
FILE = /castor/cern.ch/delphi/MCprod/cern/wphact24/v99e/199.5/wphact24_4qsk1_199.5_80.4_204806.xsdst ! RUN = 204806 ! NEVT = 1999
FILE = /castor/cern.ch/delphi/MCprod/cern/wphact24/v99e/199.5/wphact24_4qsk1_199.5_80.4_204808.xsdst ! RUN = 204808 ! NEVT = 1999
FILE = /castor/cern.ch/delphi/MCprod/cern/wphact24/v99e/199.5/wphact24_4qsk1_199.5_80.4_204809.xsdst ! RUN = 204809 ! NEVT = 2000
FILE = /castor/cern.ch/delphi/MCprod/cern/wphact24/v99e/199.5/wphact24_4qsk1_199.5_80.4_204810.xsdst ! RUN = 204810 ! NEVT = 2000
FILE = /castor/cern.ch/delphi/MCprod/cern/wphact24/v99e/199.5/wphact24_4qsk1_199.5_80.4_204811.xsdst ! RUN = 204811 ! NEVT = 2000
FILE = /castor/cern.ch/delphi/MCprod/cern/wphact24/v99e/199.5/wphact24_4qsk1_199.5_80.4_204812.xsdst ! RUN = 204812 ! NEVT = 2000
FILE = /castor/cern.ch/delphi/MCprod/cern/wphact24/v99e/199.5/wphact24_4qsk1_199.5_80.4_204813.xsdst ! RUN = 204813 ! NEVT = 2000
FILE = /castor/cern.ch/delphi/MCprod/cern/wphact24/v99e/199.5/wphact24_4qsk1_199.5_80.4_204814.xsdst ! RUN = 204814 ! NEVT = 2000
FILE = /castor/cern.ch/delphi/MCprod/cern/wphact24/v99e/199.5/wphact24_4qsk1_199.5_80.4_204815.xsdst ! RUN = 204815 ! NEVT = 1998
FILE = /castor/cern.ch/delphi/MCprod/cern/wphact24/v99e/199.5/wphact24_4qsk1_199.5_80.4_204816.xsdst ! RUN = 204816 ! NEVT = 2000
FILE = /castor/cern.ch/delphi/MCprod/cern/wphact24/v99e/199.5/wphact24_4qsk1_199.5_80.4_204817.xsdst ! RUN = 204817 ! NEVT = 726
FILE = /castor/cern.ch/delphi/MCprod/cern/wphact24/v99e/199.5/wphact24_4qsk1_199.5_80.4_204818.xsdst ! RUN = 204818 ! NEVT = 2000
FILE = /castor/cern.ch/delphi/MCprod/cern/wphact24/v99e/199.5/wphact24_4qsk1_199.5_80.4_204819.xsdst ! RUN = 204819 ! NEVT = 1999
FILE = /castor/cern.ch/delphi/MCprod/cern/wphact24/v99e/199.5/wphact24_4qsk1_199.5_80.4_204820.xsdst ! RUN = 204820 ! NEVT = 1941
FILE = /castor/cern.ch/delphi/MCprod/cern/wphact24/v99e/199.5/wphact24_4qsk1_199.5_80.4_204821.xsdst ! RUN = 204821 ! NEVT = 2000
FILE = /castor/cern.ch/delphi/MCprod/cern/wphact24/v99e/199.5/wphact24_4qsk1_199.5_80.4_204822.xsdst ! RUN = 204822 ! NEVT = 1996
FILE = /castor/cern.ch/delphi/MCprod/cern/wphact24/v99e/199.5/wphact24_4qsk1_199.5_80.4_204823.xsdst ! RUN = 204823 ! NEVT = 2000
FILE = /castor/cern.ch/delphi/MCprod/cern/wphact24/v99e/199.5/wphact24_4qsk1_199.5_80.4_204824.xsdst ! RUN = 204824 ! NEVT = 1998
FILE = /castor/cern.ch/delphi/MCprod/cern/wphact24/v99e/199.5/wphact24_4qsk1_199.5_80.4_204825.xsdst ! RUN = 204825 ! NEVT = 1999
FILE = /castor/cern.ch/delphi/MCprod/cern/wphact24/v99e/199.5/wphact24_4qsk1_199.5_80.4_204826.xsdst ! RUN = 204826 ! NEVT = 2000
FILE = /castor/cern.ch/delphi/MCprod/cern/wphact24/v99e/199.5/wphact24_4qsk1_199.5_80.4_204827.xsdst ! RUN = 204827 ! NEVT = 1998
FILE = /castor/cern.ch/delphi/MCprod/cern/wphact24/v99e/199.5/wphact24_4qsk1_199.5_80.4_204828.xsdst ! RUN = 204828 ! NEVT = 2000
FILE = /castor/cern.ch/delphi/MCprod/cern/wphact24/v99e/199.5/wphact24_4qsk1_199.5_80.4_204829.xsdst ! RUN = 204829 ! NEVT = 1999
FILE = /castor/cern.ch/delphi/MCprod/cern/wphact24/v99e/199.5/wphact24_4qsk1_199.5_80.4_204830.xsdst ! RUN = 204830 ! NEVT = 1998
FILE = /castor/cern.ch/delphi/MCprod/cern/wphact24/v99e/199.5/wphact24_4qsk1_199.5_80.4_204831.xsdst ! RUN = 204831 ! NEVT = 1999
FILE = /castor/cern.ch/delphi/MCprod/cern/wphact24/v99e/199.5/wphact24_4qsk1_199.5_80.4_204832.xsdst ! RUN = 204832 ! NEVT = 1999
FILE = /castor/cern.ch/delphi/MCprod/cern/wphact24/v99e/199.5/wphact24_4qsk1_199.5_80.4_204833.xsdst ! RUN = 204833 ! NEVT = 1998
FILE = /castor/cern.ch/delphi/MCprod/cern/wphact24/v99e/199.5/wphact24_4qsk1_199.5_80.4_204834.xsdst ! RUN = 204834 ! NEVT = 2000
FILE = /castor/cern.ch/delphi/MCprod/cern/wphact24/v99e/199.5/wphact24_4qsk1_199.5_80.4_204835.xsdst ! RUN = 204835 ! NEVT = 1136
FILE = /castor/cern.ch/delphi/MCprod/cern/wphact24/v99e/199.5/wphact24_4qsk1_199.5_80.4_204836.xsdst ! RUN = 204836 ! NEVT = 2000
FILE = /castor/cern.ch/delphi/MCprod/cern/wphact24/v99e/199.5/wphact24_4qsk1_199.5_80.4_204837.xsdst ! RUN = 204837 ! NEVT = 2000
FILE = /castor/cern.ch/delphi/MCprod/cern/wphact24/v99e/199.5/wphact24_4qsk1_199.5_80.4_204838.xsdst ! RUN = 204838 ! NEVT = 2000
FILE = /castor/cern.ch/delphi/MCprod/cern/wphact24/v99e/199.5/wphact24_4qsk1_199.5_80.4_204839.xsdst ! RUN = 204839 ! NEVT = 1999
FILE = /castor/cern.ch/delphi/MCprod/cern/wphact24/v99e/199.5/wphact24_4qsk1_199.5_80.4_204840.xsdst ! RUN = 204840 ! NEVT = 1997
FILE = /castor/cern.ch/delphi/MCprod/cern/wphact24/v99e/199.5/wphact24_4qsk1_199.5_80.4_204841.xsdst ! RUN = 204841 ! NEVT = 2000
FILE = /castor/cern.ch/delphi/MCprod/cern/wphact24/v99e/199.5/wphact24_4qsk1_199.5_80.4_204842.xsdst ! RUN = 204842 ! NEVT = 2000
FILE = /castor/cern.ch/delphi/MCprod/cern/wphact24/v99e/199.5/wphact24_4qsk1_199.5_80.4_204843.xsdst ! RUN = 204843 ! NEVT = 1996
FILE = /castor/cern.ch/delphi/MCprod/cern/wphact24/v99e/199.5/wphact24_4qsk1_199.5_80.4_204844.xsdst ! RUN = 204844 ! NEVT = 1999
FILE = /castor/cern.ch/delphi/MCprod/cern/wphact24/v99e/199.5/wphact24_4qsk1_199.5_80.4_204845.xsdst ! RUN = 204845 ! NEVT = 2000
FILE = /castor/cern.ch/delphi/MCprod/cern/wphact24/v99e/199.5/wphact24_4qsk1_199.5_80.4_204846.xsdst ! RUN = 204846 ! NEVT = 2000
FILE = /castor/cern.ch/delphi/MCprod/cern/wphact24/v99e/199.5/wphact24_4qsk1_199.5_80.4_204847.xsdst ! RUN = 204847 ! NEVT = 2000
FILE = /castor/cern.ch/delphi/MCprod/cern/wphact24/v99e/199.5/wphact24_4qsk1_199.5_80.4_204848.xsdst ! RUN = 204848 ! NEVT = 1998
FILE = /castor/cern.ch/delphi/MCprod/cern/wphact24/v99e/199.5/wphact24_4qsk1_199.5_80.4_204849.xsdst ! RUN = 204849 ! NEVT = 1999
FILE = /castor/cern.ch/delphi/MCprod/cern/wphact24/v99e/199.5/wphact24_4qsk1_199.5_80.4_204850.xsdst ! RUN = 204850 ! NEVT = 2000
FILE = /castor/cern.ch/delphi/MCprod/cern/wphact24/v99e/199.5/wphact24_4qsk1_199.5_80.4_204851.xsdst ! RUN = 204851 ! NEVT = 1996
FILE = /castor/cern.ch/delphi/MCprod/cern/wphact24/v99e/199.5/wphact24_4qsk1_199.5_80.4_204852.xsdst ! RUN = 204852 ! NEVT = 1999
FILE = /castor/cern.ch/delphi/MCprod/cern/wphact24/v99e/199.5/wphact24_4qsk1_199.5_80.4_204853.xsdst ! RUN = 204853 ! NEVT = 2000
FILE = /castor/cern.ch/delphi/MCprod/cern/wphact24/v99e/199.5/wphact24_4qsk1_199.5_80.4_204854.xsdst ! RUN = 204854 ! NEVT = 1999
FILE = /castor/cern.ch/delphi/MCprod/cern/wphact24/v99e/199.5/wphact24_4qsk1_199.5_80.4_204855.xsdst ! RUN = 204855 ! NEVT = 1999
FILE = /castor/cern.ch/delphi/MCprod/cern/wphact24/v99e/199.5/wphact24_4qsk1_199.5_80.4_204856.xsdst ! RUN = 204856 ! NEVT = 2000
FILE = /castor/cern.ch/delphi/MCprod/cern/wphact24/v99e/199.5/wphact24_4qsk1_199.5_80.4_204857.xsdst ! RUN = 204857 ! NEVT = 1999
FILE = /castor/cern.ch/delphi/MCprod/cern/wphact24/v99e/199.5/wphact24_4qsk1_199.5_80.4_204858.xsdst ! RUN = 204858 ! NEVT = 345
FILE = /castor/cern.ch/delphi/MCprod/cern/wphact24/v99e/199.5/wphact24_4qsk1_199.5_80.4_204859.xsdst ! RUN = 204859 ! NEVT = 905
FILE = /castor/cern.ch/delphi/MCprod/cern/wphact24/v99e/199.5/wphact24_4qsk1_199.5_80.4_204860.xsdst ! RUN = 204860 ! NEVT = 1999
FILE = /castor/cern.ch/delphi/MCprod/cern/wphact24/v99e/199.5/wphact24_4qsk1_199.5_80.4_204861.xsdst ! RUN = 204861 ! NEVT = 1999
FILE = /castor/cern.ch/delphi/MCprod/cern/wphact24/v99e/199.5/wphact24_4qsk1_199.5_80.4_204862.xsdst ! RUN = 204862 ! NEVT = 1998
FILE = /castor/cern.ch/delphi/MCprod/cern/wphact24/v99e/199.5/wphact24_4qsk1_199.5_80.4_204863.xsdst ! RUN = 204863 ! NEVT = 1999
FILE = /castor/cern.ch/delphi/MCprod/cern/wphact24/v99e/199.5/wphact24_4qsk1_199.5_80.4_204864.xsdst ! RUN = 204864 ! NEVT = 2000
FILE = /castor/cern.ch/delphi/MCprod/cern/wphact24/v99e/199.5/wphact24_4qsk1_199.5_80.4_204865.xsdst ! RUN = 204865 ! NEVT = 2000
FILE = /castor/cern.ch/delphi/MCprod/cern/wphact24/v99e/199.5/wphact24_4qsk1_199.5_80.4_204866.xsdst ! RUN = 204866 ! NEVT = 2000
FILE = /castor/cern.ch/delphi/MCprod/cern/wphact24/v99e/199.5/wphact24_4qsk1_199.5_80.4_204868.xsdst ! RUN = 204868 ! NEVT = 2000
FILE = /castor/cern.ch/delphi/MCprod/cern/wphact24/v99e/199.5/wphact24_4qsk1_199.5_80.4_204869.xsdst ! RUN = 204869 ! NEVT = 2000
FILE = /castor/cern.ch/delphi/MCprod/cern/wphact24/v99e/199.5/wphact24_4qsk1_199.5_80.4_204870.xsdst ! RUN = 204870 ! NEVT = 1999
FILE = /castor/cern.ch/delphi/MCprod/cern/wphact24/v99e/199.5/wphact24_4qsk1_199.5_80.4_204871.xsdst ! RUN = 204871 ! NEVT = 2000
FILE = /castor/cern.ch/delphi/MCprod/cern/wphact24/v99e/199.5/wphact24_4qsk1_199.5_80.4_204872.xsdst ! RUN = 204872 ! NEVT = 2000
FILE = /castor/cern.ch/delphi/MCprod/cern/wphact24/v99e/199.5/wphact24_4qsk1_199.5_80.4_204874.xsdst ! RUN = 204874 ! NEVT = 1999
FILE = /castor/cern.ch/delphi/MCprod/cern/wphact24/v99e/199.5/wphact24_4qsk1_199.5_80.4_204875.xsdst ! RUN = 204875 ! NEVT = 1998
FILE = /castor/cern.ch/delphi/MCprod/cern/wphact24/v99e/199.5/wphact24_4qsk1_199.5_80.4_204876.xsdst ! RUN = 204876 ! NEVT = 2000
FILE = /castor/cern.ch/delphi/MCprod/cern/wphact24/v99e/199.5/wphact24_4qsk1_199.5_80.4_204877.xsdst ! RUN = 204877 ! NEVT = 2000
FILE = /castor/cern.ch/delphi/MCprod/cern/wphact24/v99e/199.5/wphact24_4qsk1_199.5_80.4_204878.xsdst ! RUN = 204878 ! NEVT = 2000
FILE = /castor/cern.ch/delphi/MCprod/cern/wphact24/v99e/199.5/wphact24_4qsk1_199.5_80.4_204879.xsdst ! RUN = 204879 ! NEVT = 1998
FILE = /castor/cern.ch/delphi/MCprod/cern/wphact24/v99e/199.5/wphact24_4qsk1_199.5_80.4_204880.xsdst ! RUN = 204880 ! NEVT = 1999
FILE = /castor/cern.ch/delphi/MCprod/cern/wphact24/v99e/199.5/wphact24_4qsk1_199.5_80.4_204881.xsdst ! RUN = 204881 ! NEVT = 1999
FILE = /castor/cern.ch/delphi/MCprod/cern/wphact24/v99e/199.5/wphact24_4qsk1_199.5_80.4_204882.xsdst ! RUN = 204882 ! NEVT = 1999
FILE = /castor/cern.ch/delphi/MCprod/cern/wphact24/v99e/199.5/wphact24_4qsk1_199.5_80.4_204883.xsdst ! RUN = 204883 ! NEVT = 1999
FILE = /castor/cern.ch/delphi/MCprod/cern/wphact24/v99e/199.5/wphact24_4qsk1_199.5_80.4_204884.xsdst ! RUN = 204884 ! NEVT = 1999
FILE = /castor/cern.ch/delphi/MCprod/cern/wphact24/v99e/199.5/wphact24_4qsk1_199.5_80.4_204885.xsdst ! RUN = 204885 ! NEVT = 437
FILE = /castor/cern.ch/delphi/MCprod/cern/wphact24/v99e/199.5/wphact24_4qsk1_199.5_80.4_204886.xsdst ! RUN = 204886 ! NEVT = 1997
FILE = /castor/cern.ch/delphi/MCprod/cern/wphact24/v99e/199.5/wphact24_4qsk1_199.5_80.4_204887.xsdst ! RUN = 204887 ! NEVT = 1999
FILE = /castor/cern.ch/delphi/MCprod/cern/wphact24/v99e/199.5/wphact24_4qsk1_199.5_80.4_204888.xsdst ! RUN = 204888 ! NEVT = 1790
FILE = /castor/cern.ch/delphi/MCprod/cern/wphact24/v99e/199.5/wphact24_4qsk1_199.5_80.4_204889.xsdst ! RUN = 204889 ! NEVT = 1998
FILE = /castor/cern.ch/delphi/MCprod/cern/wphact24/v99e/199.5/wphact24_4qsk1_199.5_80.4_204890.xsdst ! RUN = 204890 ! NEVT = 1998
FILE = /castor/cern.ch/delphi/MCprod/cern/wphact24/v99e/199.5/wphact24_4qsk1_199.5_80.4_204891.xsdst ! RUN = 204891 ! NEVT = 1999
FILE = /castor/cern.ch/delphi/MCprod/cern/wphact24/v99e/199.5/wphact24_4qsk1_199.5_80.4_204892.xsdst ! RUN = 204892 ! NEVT = 1998
FILE = /castor/cern.ch/delphi/MCprod/cern/wphact24/v99e/199.5/wphact24_4qsk1_199.5_80.4_204893.xsdst ! RUN = 204893 ! NEVT = 1999
FILE = /castor/cern.ch/delphi/MCprod/cern/wphact24/v99e/199.5/wphact24_4qsk1_199.5_80.4_204894.xsdst ! RUN = 204894 ! NEVT = 1998
FILE = /castor/cern.ch/delphi/MCprod/cern/wphact24/v99e/199.5/wphact24_4qsk1_199.5_80.4_204895.xsdst ! RUN = 204895 ! NEVT = 1999
FILE = /castor/cern.ch/delphi/MCprod/cern/wphact24/v99e/199.5/wphact24_4qsk1_199.5_80.4_204896.xsdst ! RUN = 204896 ! NEVT = 2000
FILE = /castor/cern.ch/delphi/MCprod/cern/wphact24/v99e/199.5/wphact24_4qsk1_199.5_80.4_204897.xsdst ! RUN = 204897 ! NEVT = 1041
FILE = /castor/cern.ch/delphi/MCprod/cern/wphact24/v99e/199.5/wphact24_4qsk1_199.5_80.4_204898.xsdst ! RUN = 204898 ! NEVT = 1998
FILE = /castor/cern.ch/delphi/MCprod/cern/wphact24/v99e/199.5/wphact24_4qsk1_199.5_80.4_204899.xsdst ! RUN = 204899 ! NEVT = 347
FILE = /castor/cern.ch/delphi/MCprod/cern/wphact24/v99e/199.5/wphact24_4qsk1_199.5_80.4_204900.xsdst ! RUN = 204900 ! NEVT = 2000
FILE = /castor/cern.ch/delphi/MCprod/cern/wphact24/v99e/199.5/wphact24_4qsk1_199.5_80.4_204901.xsdst ! RUN = 204901 ! NEVT = 2000
FILE = /castor/cern.ch/delphi/MCprod/cern/wphact24/v99e/199.5/wphact24_4qsk1_199.5_80.4_204902.xsdst ! RUN = 204902 ! NEVT = 1999
FILE = /castor/cern.ch/delphi/MCprod/cern/wphact24/v99e/199.5/wphact24_4qsk1_199.5_80.4_204903.xsdst ! RUN = 204903 ! NEVT = 2000
FILE = /castor/cern.ch/delphi/MCprod/cern/wphact24/v99e/199.5/wphact24_4qsk1_199.5_80.4_204904.xsdst ! RUN = 204904 ! NEVT = 2000
FILE = /castor/cern.ch/delphi/MCprod/cern/wphact24/v99e/199.5/wphact24_4qsk1_199.5_80.4_204905.xsdst ! RUN = 204905 ! NEVT = 2000
FILE = /castor/cern.ch/delphi/MCprod/cern/wphact24/v99e/199.5/wphact24_4qsk1_199.5_80.4_204906.xsdst ! RUN = 204906 ! NEVT = 2000
FILE = /castor/cern.ch/delphi/MCprod/cern/wphact24/v99e/199.5/wphact24_4qsk1_199.5_80.4_204907.xsdst ! RUN = 204907 ! NEVT = 85
FILE = /castor/cern.ch/delphi/MCprod/cern/wphact24/v99e/199.5/wphact24_4qsk1_199.5_80.4_204908.xsdst ! RUN = 204908 ! NEVT = 1995
FILE = /castor/cern.ch/delphi/MCprod/cern/wphact24/v99e/199.5/wphact24_4qsk1_199.5_80.4_204909.xsdst ! RUN = 204909 ! NEVT = 2000
FILE = /castor/cern.ch/delphi/MCprod/cern/wphact24/v99e/199.5/wphact24_4qsk1_199.5_80.4_204910.xsdst ! RUN = 204910 ! NEVT = 2000
FILE = /castor/cern.ch/delphi/MCprod/cern/wphact24/v99e/199.5/wphact24_4qsk1_199.5_80.4_204911.xsdst ! RUN = 204911 ! NEVT = 1999
FILE = /castor/cern.ch/delphi/MCprod/cern/wphact24/v99e/199.5/wphact24_4qsk1_199.5_80.4_204912.xsdst ! RUN = 204912 ! NEVT = 1999
FILE = /castor/cern.ch/delphi/MCprod/cern/wphact24/v99e/199.5/wphact24_4qsk1_199.5_80.4_204913.xsdst ! RUN = 204913 ! NEVT = 1997
FILE = /castor/cern.ch/delphi/MCprod/cern/wphact24/v99e/199.5/wphact24_4qsk1_199.5_80.4_204914.xsdst ! RUN = 204914 ! NEVT = 2000
FILE = /castor/cern.ch/delphi/MCprod/cern/wphact24/v99e/199.5/wphact24_4qsk1_199.5_80.4_204915.xsdst ! RUN = 204915 ! NEVT = 2000
FILE = /castor/cern.ch/delphi/MCprod/cern/wphact24/v99e/199.5/wphact24_4qsk1_199.5_80.4_204916.xsdst ! RUN = 204916 ! NEVT = 1999
FILE = /castor/cern.ch/delphi/MCprod/cern/wphact24/v99e/199.5/wphact24_4qsk1_199.5_80.4_204917.xsdst ! RUN = 204917 ! NEVT = 1999
FILE = /castor/cern.ch/delphi/MCprod/cern/wphact24/v99e/199.5/wphact24_4qsk1_199.5_80.4_204918.xsdst ! RUN = 204918 ! NEVT = 1999
FILE = /castor/cern.ch/delphi/MCprod/cern/wphact24/v99e/199.5/wphact24_4qsk1_199.5_80.4_204919.xsdst ! RUN = 204919 ! NEVT = 2000
FILE = /castor/cern.ch/delphi/MCprod/cern/wphact24/v99e/199.5/wphact24_4qsk1_199.5_80.4_204920.xsdst ! RUN = 204920 ! NEVT = 1999
FILE = /castor/cern.ch/delphi/MCprod/cern/wphact24/v99e/199.5/wphact24_4qsk1_199.5_80.4_204921.xsdst ! RUN = 204921 ! NEVT = 1999
FILE = /castor/cern.ch/delphi/MCprod/cern/wphact24/v99e/199.5/wphact24_4qsk1_199.5_80.4_204922.xsdst ! RUN = 204922 ! NEVT = 1999
FILE = /castor/cern.ch/delphi/MCprod/cern/wphact24/v99e/199.5/wphact24_4qsk1_199.5_80.4_204923.xsdst ! RUN = 204923 ! NEVT = 1999
FILE = /castor/cern.ch/delphi/MCprod/cern/wphact24/v99e/199.5/wphact24_4qsk1_199.5_80.4_204924.xsdst ! RUN = 204924 ! NEVT = 2000
FILE = /castor/cern.ch/delphi/MCprod/cern/wphact24/v99e/199.5/wphact24_4qsk1_199.5_80.4_204925.xsdst ! RUN = 204925 ! NEVT = 1999
FILE = /castor/cern.ch/delphi/MCprod/cern/wphact24/v99e/199.5/wphact24_4qsk1_199.5_80.4_204926.xsdst ! RUN = 204926 ! NEVT = 2000
FILE = /castor/cern.ch/delphi/MCprod/cern/wphact24/v99e/199.5/wphact24_4qsk1_199.5_80.4_204927.xsdst ! RUN = 204927 ! NEVT = 1999
FILE = /castor/cern.ch/delphi/MCprod/cern/wphact24/v99e/199.5/wphact24_4qsk1_199.5_80.4_204928.xsdst ! RUN = 204928 ! NEVT = 1998
FILE = /castor/cern.ch/delphi/MCprod/cern/wphact24/v99e/199.5/wphact24_4qsk1_199.5_80.4_204929.xsdst ! RUN = 204929 ! NEVT = 1182
FILE = /castor/cern.ch/delphi/MCprod/cern/wphact24/v99e/199.5/wphact24_4qsk1_199.5_80.4_204931.xsdst ! RUN = 204931 ! NEVT = 1999
FILE = /castor/cern.ch/delphi/MCprod/cern/wphact24/v99e/199.5/wphact24_4qsk1_199.5_80.4_204932.xsdst ! RUN = 204932 ! NEVT = 1999
FILE = /castor/cern.ch/delphi/MCprod/cern/wphact24/v99e/199.5/wphact24_4qsk1_199.5_80.4_204933.xsdst ! RUN = 204933 ! NEVT = 2000
FILE = /castor/cern.ch/delphi/MCprod/cern/wphact24/v99e/199.5/wphact24_4qsk1_199.5_80.4_204934.xsdst ! RUN = 204934 ! NEVT = 1999
FILE = /castor/cern.ch/delphi/MCprod/cern/wphact24/v99e/199.5/wphact24_4qsk1_199.5_80.4_204935.xsdst ! RUN = 204935 ! NEVT = 1997
FILE = /castor/cern.ch/delphi/MCprod/cern/wphact24/v99e/199.5/wphact24_4qsk1_199.5_80.4_204936.xsdst ! RUN = 204936 ! NEVT = 2000
FILE = /castor/cern.ch/delphi/MCprod/cern/wphact24/v99e/199.5/wphact24_4qsk1_199.5_80.4_204937.xsdst ! RUN = 204937 ! NEVT = 1999
FILE = /castor/cern.ch/delphi/MCprod/cern/wphact24/v99e/199.5/wphact24_4qsk1_199.5_80.4_204938.xsdst ! RUN = 204938 ! NEVT = 1999
FILE = /castor/cern.ch/delphi/MCprod/cern/wphact24/v99e/199.5/wphact24_4qsk1_199.5_80.4_204939.xsdst ! RUN = 204939 ! NEVT = 1998
FILE = /castor/cern.ch/delphi/MCprod/cern/wphact24/v99e/199.5/wphact24_4qsk1_199.5_80.4_204940.xsdst ! RUN = 204940 ! NEVT = 1999
FILE = /castor/cern.ch/delphi/MCprod/cern/wphact24/v99e/199.5/wphact24_4qsk1_199.5_80.4_204941.xsdst ! RUN = 204941 ! NEVT = 1999
FILE = /castor/cern.ch/delphi/MCprod/cern/wphact24/v99e/199.5/wphact24_4qsk1_199.5_80.4_204942.xsdst ! RUN = 204942 ! NEVT = 2000
FILE = /castor/cern.ch/delphi/MCprod/cern/wphact24/v99e/199.5/wphact24_4qsk1_199.5_80.4_204943.xsdst ! RUN = 204943 ! NEVT = 1999
FILE = /castor/cern.ch/delphi/MCprod/cern/wphact24/v99e/199.5/wphact24_4qsk1_199.5_80.4_204944.xsdst ! RUN = 204944 ! NEVT = 1998
FILE = /castor/cern.ch/delphi/MCprod/cern/wphact24/v99e/199.5/wphact24_4qsk1_199.5_80.4_204945.xsdst ! RUN = 204945 ! NEVT = 1998
FILE = /castor/cern.ch/delphi/MCprod/cern/wphact24/v99e/199.5/wphact24_4qsk1_199.5_80.4_204946.xsdst ! RUN = 204946 ! NEVT = 1999
FILE = /castor/cern.ch/delphi/MCprod/cern/wphact24/v99e/199.5/wphact24_4qsk1_199.5_80.4_204947.xsdst ! RUN = 204947 ! NEVT = 1999
FILE = /castor/cern.ch/delphi/MCprod/cern/wphact24/v99e/199.5/wphact24_4qsk1_199.5_80.4_204948.xsdst ! RUN = 204948 ! NEVT = 1999
FILE = /castor/cern.ch/delphi/MCprod/cern/wphact24/v99e/199.5/wphact24_4qsk1_199.5_80.4_204949.xsdst ! RUN = 204949 ! NEVT = 61
FILE = /castor/cern.ch/delphi/MCprod/cern/wphact24/v99e/199.5/wphact24_4qsk1_199.5_80.4_204950.xsdst ! RUN = 204950 ! NEVT = 1997
FILE = /castor/cern.ch/delphi/MCprod/cern/wphact24/v99e/199.5/wphact24_4qsk1_199.5_80.4_204951.xsdst ! RUN = 204951 ! NEVT = 1997
FILE = /castor/cern.ch/delphi/MCprod/cern/wphact24/v99e/199.5/wphact24_4qsk1_199.5_80.4_204952.xsdst ! RUN = 204952 ! NEVT = 1997
FILE = /castor/cern.ch/delphi/MCprod/cern/wphact24/v99e/199.5/wphact24_4qsk1_199.5_80.4_204953.xsdst ! RUN = 204953 ! NEVT = 1999
FILE = /castor/cern.ch/delphi/MCprod/cern/wphact24/v99e/199.5/wphact24_4qsk1_199.5_80.4_204954.xsdst ! RUN = 204954 ! NEVT = 2000
FILE = /castor/cern.ch/delphi/MCprod/cern/wphact24/v99e/199.5/wphact24_4qsk1_199.5_80.4_204955.xsdst ! RUN = 204955 ! NEVT = 1999
FILE = /castor/cern.ch/delphi/MCprod/cern/wphact24/v99e/199.5/wphact24_4qsk1_199.5_80.4_204956.xsdst ! RUN = 204956 ! NEVT = 2000
FILE = /castor/cern.ch/delphi/MCprod/cern/wphact24/v99e/199.5/wphact24_4qsk1_199.5_80.4_204957.xsdst ! RUN = 204957 ! NEVT = 2000
FILE = /castor/cern.ch/delphi/MCprod/cern/wphact24/v99e/199.5/wphact24_4qsk1_199.5_80.4_204958.xsdst ! RUN = 204958 ! NEVT = 1997
FILE = /castor/cern.ch/delphi/MCprod/cern/wphact24/v99e/199.5/wphact24_4qsk1_199.5_80.4_204959.xsdst ! RUN = 204959 ! NEVT = 1999
FILE = /castor/cern.ch/delphi/MCprod/cern/wphact24/v99e/199.5/wphact24_4qsk1_199.5_80.4_204960.xsdst ! RUN = 204960 ! NEVT = 1997
FILE = /castor/cern.ch/delphi/MCprod/cern/wphact24/v99e/199.5/wphact24_4qsk1_199.5_80.4_204961.xsdst ! RUN = 204961 ! NEVT = 2000
FILE = /castor/cern.ch/delphi/MCprod/cern/wphact24/v99e/199.5/wphact24_4qsk1_199.5_80.4_204962.xsdst ! RUN = 204962 ! NEVT = 2000
FILE = /castor/cern.ch/delphi/MCprod/cern/wphact24/v99e/199.5/wphact24_4qsk1_199.5_80.4_204963.xsdst ! RUN = 204963 ! NEVT = 1998
FILE = /castor/cern.ch/delphi/MCprod/cern/wphact24/v99e/199.5/wphact24_4qsk1_199.5_80.4_204964.xsdst ! RUN = 204964 ! NEVT = 1999
FILE = /castor/cern.ch/delphi/MCprod/cern/wphact24/v99e/199.5/wphact24_4qsk1_199.5_80.4_204965.xsdst ! RUN = 204965 ! NEVT = 1999
FILE = /castor/cern.ch/delphi/MCprod/cern/wphact24/v99e/199.5/wphact24_4qsk1_199.5_80.4_204966.xsdst ! RUN = 204966 ! NEVT = 2000
FILE = /castor/cern.ch/delphi/MCprod/cern/wphact24/v99e/199.5/wphact24_4qsk1_199.5_80.4_204967.xsdst ! RUN = 204967 ! NEVT = 1999
FILE = /castor/cern.ch/delphi/MCprod/cern/wphact24/v99e/199.5/wphact24_4qsk1_199.5_80.4_204968.xsdst ! RUN = 204968 ! NEVT = 1822
FILE = /castor/cern.ch/delphi/MCprod/cern/wphact24/v99e/199.5/wphact24_4qsk1_199.5_80.4_204969.xsdst ! RUN = 204969 ! NEVT = 1999
FILE = /castor/cern.ch/delphi/MCprod/cern/wphact24/v99e/199.5/wphact24_4qsk1_199.5_80.4_204970.xsdst ! RUN = 204970 ! NEVT = 1999
FILE = /castor/cern.ch/delphi/MCprod/cern/wphact24/v99e/199.5/wphact24_4qsk1_199.5_80.4_204971.xsdst ! RUN = 204971 ! NEVT = 1997
FILE = /castor/cern.ch/delphi/MCprod/cern/wphact24/v99e/199.5/wphact24_4qsk1_199.5_80.4_204972.xsdst ! RUN = 204972 ! NEVT = 2000
FILE = /castor/cern.ch/delphi/MCprod/cern/wphact24/v99e/199.5/wphact24_4qsk1_199.5_80.4_204973.xsdst ! RUN = 204973 ! NEVT = 2000
FILE = /castor/cern.ch/delphi/MCprod/cern/wphact24/v99e/199.5/wphact24_4qsk1_199.5_80.4_204974.xsdst ! RUN = 204974 ! NEVT = 2000
FILE = /castor/cern.ch/delphi/MCprod/cern/wphact24/v99e/199.5/wphact24_4qsk1_199.5_80.4_204975.xsdst ! RUN = 204975 ! NEVT = 1997
FILE = /castor/cern.ch/delphi/MCprod/cern/wphact24/v99e/199.5/wphact24_4qsk1_199.5_80.4_204976.xsdst ! RUN = 204976 ! NEVT = 1998
FILE = /castor/cern.ch/delphi/MCprod/cern/wphact24/v99e/199.5/wphact24_4qsk1_199.5_80.4_204977.xsdst ! RUN = 204977 ! NEVT = 1802
FILE = /castor/cern.ch/delphi/MCprod/cern/wphact24/v99e/199.5/wphact24_4qsk1_199.5_80.4_204978.xsdst ! RUN = 204978 ! NEVT = 2000
FILE = /castor/cern.ch/delphi/MCprod/cern/wphact24/v99e/199.5/wphact24_4qsk1_199.5_80.4_204979.xsdst ! RUN = 204979 ! NEVT = 2000
FILE = /castor/cern.ch/delphi/MCprod/cern/wphact24/v99e/199.5/wphact24_4qsk1_199.5_80.4_204980.xsdst ! RUN = 204980 ! NEVT = 1999
FILE = /castor/cern.ch/delphi/MCprod/cern/wphact24/v99e/199.5/wphact24_4qsk1_199.5_80.4_204981.xsdst ! RUN = 204981 ! NEVT = 1999
FILE = /castor/cern.ch/delphi/MCprod/cern/wphact24/v99e/199.5/wphact24_4qsk1_199.5_80.4_204982.xsdst ! RUN = 204982 ! NEVT = 796
FILE = /castor/cern.ch/delphi/MCprod/cern/wphact24/v99e/199.5/wphact24_4qsk1_199.5_80.4_204983.xsdst ! RUN = 204983 ! NEVT = 2000
FILE = /castor/cern.ch/delphi/MCprod/cern/wphact24/v99e/199.5/wphact24_4qsk1_199.5_80.4_204984.xsdst ! RUN = 204984 ! NEVT = 1999
FILE = /castor/cern.ch/delphi/MCprod/cern/wphact24/v99e/199.5/wphact24_4qsk1_199.5_80.4_204985.xsdst ! RUN = 204985 ! NEVT = 662
FILE = /castor/cern.ch/delphi/MCprod/cern/wphact24/v99e/199.5/wphact24_4qsk1_199.5_80.4_204986.xsdst ! RUN = 204986 ! NEVT = 1997
FILE = /castor/cern.ch/delphi/MCprod/cern/wphact24/v99e/199.5/wphact24_4qsk1_199.5_80.4_204987.xsdst ! RUN = 204987 ! NEVT = 2000
FILE = /castor/cern.ch/delphi/MCprod/cern/wphact24/v99e/199.5/wphact24_4qsk1_199.5_80.4_204988.xsdst ! RUN = 204988 ! NEVT = 2000
FILE = /castor/cern.ch/delphi/MCprod/cern/wphact24/v99e/199.5/wphact24_4qsk1_199.5_80.4_204989.xsdst ! RUN = 204989 ! NEVT = 1999
FILE = /castor/cern.ch/delphi/MCprod/cern/wphact24/v99e/199.5/wphact24_4qsk1_199.5_80.4_204991.xsdst ! RUN = 204991 ! NEVT = 1999
FILE = /castor/cern.ch/delphi/MCprod/cern/wphact24/v99e/199.5/wphact24_4qsk1_199.5_80.4_204992.xsdst ! RUN = 204992 ! NEVT = 2000
FILE = /castor/cern.ch/delphi/MCprod/cern/wphact24/v99e/199.5/wphact24_4qsk1_199.5_80.4_204993.xsdst ! RUN = 204993 ! NEVT = 2000
FILE = /castor/cern.ch/delphi/MCprod/cern/wphact24/v99e/199.5/wphact24_4qsk1_199.5_80.4_204994.xsdst ! RUN = 204994 ! NEVT = 1999
FILE = /castor/cern.ch/delphi/MCprod/cern/wphact24/v99e/199.5/wphact24_4qsk1_199.5_80.4_204995.xsdst ! RUN = 204995 ! NEVT = 2000
FILE = /castor/cern.ch/delphi/MCprod/cern/wphact24/v99e/199.5/wphact24_4qsk1_199.5_80.4_204996.xsdst ! RUN = 204996 ! NEVT = 1997
FILE = /castor/cern.ch/delphi/MCprod/cern/wphact24/v99e/199.5/wphact24_4qsk1_199.5_80.4_204997.xsdst ! RUN = 204997 ! NEVT = 1999
FILE = /castor/cern.ch/delphi/MCprod/cern/wphact24/v99e/199.5/wphact24_4qsk1_199.5_80.4_204998.xsdst ! RUN = 204998 ! NEVT = 1998
FILE = /castor/cern.ch/delphi/MCprod/cern/wphact24/v99e/199.5/wphact24_4qsk1_199.5_80.4_204999.xsdst ! RUN = 204999 ! NEVT = 1998
FILE = /castor/cern.ch/delphi/MCprod/cern/wphact24/v99e/199.5/wphact24_4qsk1_199.5_80.4_205000.xsdst ! RUN = 205000 ! NEVT = 2000
FILE = /castor/cern.ch/delphi/MCprod/cern/wphact24/v99e/199.5/wphact24_4qsk1_199.5_80.4_205501.xsdst ! RUN = 205501 ! NEVT = 2000
FILE = /castor/cern.ch/delphi/MCprod/cern/wphact24/v99e/199.5/wphact24_4qsk1_199.5_80.4_205502.xsdst ! RUN = 205502 ! NEVT = 2000
FILE = /castor/cern.ch/delphi/MCprod/cern/wphact24/v99e/199.5/wphact24_4qsk1_199.5_80.4_205503.xsdst ! RUN = 205503 ! NEVT = 1862
FILE = /castor/cern.ch/delphi/MCprod/cern/wphact24/v99e/199.5/wphact24_4qsk1_199.5_80.4_205504.xsdst ! RUN = 205504 ! NEVT = 1999
FILE = /castor/cern.ch/delphi/MCprod/cern/wphact24/v99e/199.5/wphact24_4qsk1_199.5_80.4_205505.xsdst ! RUN = 205505 ! NEVT = 1999
FILE = /castor/cern.ch/delphi/MCprod/cern/wphact24/v99e/199.5/wphact24_4qsk1_199.5_80.4_205506.xsdst ! RUN = 205506 ! NEVT = 1998
FILE = /castor/cern.ch/delphi/MCprod/cern/wphact24/v99e/199.5/wphact24_4qsk1_199.5_80.4_205507.xsdst ! RUN = 205507 ! NEVT = 1999
FILE = /castor/cern.ch/delphi/MCprod/cern/wphact24/v99e/199.5/wphact24_4qsk1_199.5_80.4_205508.xsdst ! RUN = 205508 ! NEVT = 2000
FILE = /castor/cern.ch/delphi/MCprod/cern/wphact24/v99e/199.5/wphact24_4qsk1_199.5_80.4_205509.xsdst ! RUN = 205509 ! NEVT = 2000
FILE = /castor/cern.ch/delphi/MCprod/cern/wphact24/v99e/199.5/wphact24_4qsk1_199.5_80.4_205510.xsdst ! RUN = 205510 ! NEVT = 1999
FILE = /castor/cern.ch/delphi/MCprod/cern/wphact24/v99e/199.5/wphact24_4qsk1_199.5_80.4_205511.xsdst ! RUN = 205511 ! NEVT = 1999
FILE = /castor/cern.ch/delphi/MCprod/cern/wphact24/v99e/199.5/wphact24_4qsk1_199.5_80.4_205512.xsdst ! RUN = 205512 ! NEVT = 2000
FILE = /castor/cern.ch/delphi/MCprod/cern/wphact24/v99e/199.5/wphact24_4qsk1_199.5_80.4_205513.xsdst ! RUN = 205513 ! NEVT = 1572
FILE = /castor/cern.ch/delphi/MCprod/cern/wphact24/v99e/199.5/wphact24_4qsk1_199.5_80.4_205514.xsdst ! RUN = 205514 ! NEVT = 1999
FILE = /castor/cern.ch/delphi/MCprod/cern/wphact24/v99e/199.5/wphact24_4qsk1_199.5_80.4_205515.xsdst ! RUN = 205515 ! NEVT = 1999
FILE = /castor/cern.ch/delphi/MCprod/cern/wphact24/v99e/199.5/wphact24_4qsk1_199.5_80.4_205516.xsdst ! RUN = 205516 ! NEVT = 2000
FILE = /castor/cern.ch/delphi/MCprod/cern/wphact24/v99e/199.5/wphact24_4qsk1_199.5_80.4_205517.xsdst ! RUN = 205517 ! NEVT = 1999
FILE = /castor/cern.ch/delphi/MCprod/cern/wphact24/v99e/199.5/wphact24_4qsk1_199.5_80.4_205519.xsdst ! RUN = 205519 ! NEVT = 1461
FILE = /castor/cern.ch/delphi/MCprod/cern/wphact24/v99e/199.5/wphact24_4qsk1_199.5_80.4_205520.xsdst ! RUN = 205520 ! NEVT = 1107
FILE = /castor/cern.ch/delphi/MCprod/cern/wphact24/v99e/199.5/wphact24_4qsk1_199.5_80.4_205521.xsdst ! RUN = 205521 ! NEVT = 1999
FILE = /castor/cern.ch/delphi/MCprod/cern/wphact24/v99e/199.5/wphact24_4qsk1_199.5_80.4_205522.xsdst ! RUN = 205522 ! NEVT = 2000
FILE = /castor/cern.ch/delphi/MCprod/cern/wphact24/v99e/199.5/wphact24_4qsk1_199.5_80.4_205523.xsdst ! RUN = 205523 ! NEVT = 1999
FILE = /castor/cern.ch/delphi/MCprod/cern/wphact24/v99e/199.5/wphact24_4qsk1_199.5_80.4_205524.xsdst ! RUN = 205524 ! NEVT = 2000
FILE = /castor/cern.ch/delphi/MCprod/cern/wphact24/v99e/199.5/wphact24_4qsk1_199.5_80.4_205525.xsdst ! RUN = 205525 ! NEVT = 2000
FILE = /castor/cern.ch/delphi/MCprod/cern/wphact24/v99e/199.5/wphact24_4qsk1_199.5_80.4_205526.xsdst ! RUN = 205526 ! NEVT = 2000
FILE = /castor/cern.ch/delphi/MCprod/cern/wphact24/v99e/199.5/wphact24_4qsk1_199.5_80.4_205527.xsdst ! RUN = 205527 ! NEVT = 1999
FILE = /castor/cern.ch/delphi/MCprod/cern/wphact24/v99e/199.5/wphact24_4qsk1_199.5_80.4_205528.xsdst ! RUN = 205528 ! NEVT = 2000
FILE = /castor/cern.ch/delphi/MCprod/cern/wphact24/v99e/199.5/wphact24_4qsk1_199.5_80.4_205529.xsdst ! RUN = 205529 ! NEVT = 1999
FILE = /castor/cern.ch/delphi/MCprod/cern/wphact24/v99e/199.5/wphact24_4qsk1_199.5_80.4_205530.xsdst ! RUN = 205530 ! NEVT = 2000
FILE = /castor/cern.ch/delphi/MCprod/cern/wphact24/v99e/199.5/wphact24_4qsk1_199.5_80.4_205531.xsdst ! RUN = 205531 ! NEVT = 1999
FILE = /castor/cern.ch/delphi/MCprod/cern/wphact24/v99e/199.5/wphact24_4qsk1_199.5_80.4_205532.xsdst ! RUN = 205532 ! NEVT = 1999
FILE = /castor/cern.ch/delphi/MCprod/cern/wphact24/v99e/199.5/wphact24_4qsk1_199.5_80.4_205533.xsdst ! RUN = 205533 ! NEVT = 2000
FILE = /castor/cern.ch/delphi/MCprod/cern/wphact24/v99e/199.5/wphact24_4qsk1_199.5_80.4_205534.xsdst ! RUN = 205534 ! NEVT = 2000
FILE = /castor/cern.ch/delphi/MCprod/cern/wphact24/v99e/199.5/wphact24_4qsk1_199.5_80.4_205535.xsdst ! RUN = 205535 ! NEVT = 1999
FILE = /castor/cern.ch/delphi/MCprod/cern/wphact24/v99e/199.5/wphact24_4qsk1_199.5_80.4_205536.xsdst ! RUN = 205536 ! NEVT = 1999
FILE = /castor/cern.ch/delphi/MCprod/cern/wphact24/v99e/199.5/wphact24_4qsk1_199.5_80.4_205537.xsdst ! RUN = 205537 ! NEVT = 1771
FILE = /castor/cern.ch/delphi/MCprod/cern/wphact24/v99e/199.5/wphact24_4qsk1_199.5_80.4_205538.xsdst ! RUN = 205538 ! NEVT = 2000
FILE = /castor/cern.ch/delphi/MCprod/cern/wphact24/v99e/199.5/wphact24_4qsk1_199.5_80.4_205539.xsdst ! RUN = 205539 ! NEVT = 1996
FILE = /castor/cern.ch/delphi/MCprod/cern/wphact24/v99e/199.5/wphact24_4qsk1_199.5_80.4_205540.xsdst ! RUN = 205540 ! NEVT = 1998
FILE = /castor/cern.ch/delphi/MCprod/cern/wphact24/v99e/199.5/wphact24_4qsk1_199.5_80.4_205541.xsdst ! RUN = 205541 ! NEVT = 1861
FILE = /castor/cern.ch/delphi/MCprod/cern/wphact24/v99e/199.5/wphact24_4qsk1_199.5_80.4_205542.xsdst ! RUN = 205542 ! NEVT = 1999
FILE = /castor/cern.ch/delphi/MCprod/cern/wphact24/v99e/199.5/wphact24_4qsk1_199.5_80.4_205543.xsdst ! RUN = 205543 ! NEVT = 2000
FILE = /castor/cern.ch/delphi/MCprod/cern/wphact24/v99e/199.5/wphact24_4qsk1_199.5_80.4_205544.xsdst ! RUN = 205544 ! NEVT = 1998
FILE = /castor/cern.ch/delphi/MCprod/cern/wphact24/v99e/199.5/wphact24_4qsk1_199.5_80.4_205545.xsdst ! RUN = 205545 ! NEVT = 294
FILE = /castor/cern.ch/delphi/MCprod/cern/wphact24/v99e/199.5/wphact24_4qsk1_199.5_80.4_205546.xsdst ! RUN = 205546 ! NEVT = 51
FILE = /castor/cern.ch/delphi/MCprod/cern/wphact24/v99e/199.5/wphact24_4qsk1_199.5_80.4_205547.xsdst ! RUN = 205547 ! NEVT = 1999
FILE = /castor/cern.ch/delphi/MCprod/cern/wphact24/v99e/199.5/wphact24_4qsk1_199.5_80.4_205548.xsdst ! RUN = 205548 ! NEVT = 1998
FILE = /castor/cern.ch/delphi/MCprod/cern/wphact24/v99e/199.5/wphact24_4qsk1_199.5_80.4_205549.xsdst ! RUN = 205549 ! NEVT = 1998
FILE = /castor/cern.ch/delphi/MCprod/cern/wphact24/v99e/199.5/wphact24_4qsk1_199.5_80.4_205550.xsdst ! RUN = 205550 ! NEVT = 1999
FILE = /castor/cern.ch/delphi/MCprod/cern/wphact24/v99e/199.5/wphact24_4qsk1_199.5_80.4_205551.xsdst ! RUN = 205551 ! NEVT = 1999
FILE = /castor/cern.ch/delphi/MCprod/cern/wphact24/v99e/199.5/wphact24_4qsk1_199.5_80.4_205552.xsdst ! RUN = 205552 ! NEVT = 1999
FILE = /castor/cern.ch/delphi/MCprod/cern/wphact24/v99e/199.5/wphact24_4qsk1_199.5_80.4_205553.xsdst ! RUN = 205553 ! NEVT = 2000
FILE = /castor/cern.ch/delphi/MCprod/cern/wphact24/v99e/199.5/wphact24_4qsk1_199.5_80.4_205554.xsdst ! RUN = 205554 ! NEVT = 1999
FILE = /castor/cern.ch/delphi/MCprod/cern/wphact24/v99e/199.5/wphact24_4qsk1_199.5_80.4_205555.xsdst ! RUN = 205555 ! NEVT = 1996
FILE = /castor/cern.ch/delphi/MCprod/cern/wphact24/v99e/199.5/wphact24_4qsk1_199.5_80.4_205556.xsdst ! RUN = 205556 ! NEVT = 2000
FILE = /castor/cern.ch/delphi/MCprod/cern/wphact24/v99e/199.5/wphact24_4qsk1_199.5_80.4_205557.xsdst ! RUN = 205557 ! NEVT = 1997
FILE = /castor/cern.ch/delphi/MCprod/cern/wphact24/v99e/199.5/wphact24_4qsk1_199.5_80.4_205558.xsdst ! RUN = 205558 ! NEVT = 2000
FILE = /castor/cern.ch/delphi/MCprod/cern/wphact24/v99e/199.5/wphact24_4qsk1_199.5_80.4_205559.xsdst ! RUN = 205559 ! NEVT = 2000
FILE = /castor/cern.ch/delphi/MCprod/cern/wphact24/v99e/199.5/wphact24_4qsk1_199.5_80.4_205560.xsdst ! RUN = 205560 ! NEVT = 2000
FILE = /castor/cern.ch/delphi/MCprod/cern/wphact24/v99e/199.5/wphact24_4qsk1_199.5_80.4_205561.xsdst ! RUN = 205561 ! NEVT = 872
FILE = /castor/cern.ch/delphi/MCprod/cern/wphact24/v99e/199.5/wphact24_4qsk1_199.5_80.4_205562.xsdst ! RUN = 205562 ! NEVT = 1999
FILE = /castor/cern.ch/delphi/MCprod/cern/wphact24/v99e/199.5/wphact24_4qsk1_199.5_80.4_205564.xsdst ! RUN = 205564 ! NEVT = 1925
FILE = /castor/cern.ch/delphi/MCprod/cern/wphact24/v99e/199.5/wphact24_4qsk1_199.5_80.4_205565.xsdst ! RUN = 205565 ! NEVT = 2000
FILE = /castor/cern.ch/delphi/MCprod/cern/wphact24/v99e/199.5/wphact24_4qsk1_199.5_80.4_205566.xsdst ! RUN = 205566 ! NEVT = 1999
FILE = /castor/cern.ch/delphi/MCprod/cern/wphact24/v99e/199.5/wphact24_4qsk1_199.5_80.4_205567.xsdst ! RUN = 205567 ! NEVT = 1998
FILE = /castor/cern.ch/delphi/MCprod/cern/wphact24/v99e/199.5/wphact24_4qsk1_199.5_80.4_205568.xsdst ! RUN = 205568 ! NEVT = 1998
FILE = /castor/cern.ch/delphi/MCprod/cern/wphact24/v99e/199.5/wphact24_4qsk1_199.5_80.4_205570.xsdst ! RUN = 205570 ! NEVT = 2000
FILE = /castor/cern.ch/delphi/MCprod/cern/wphact24/v99e/199.5/wphact24_4qsk1_199.5_80.4_205571.xsdst ! RUN = 205571 ! NEVT = 1998
FILE = /castor/cern.ch/delphi/MCprod/cern/wphact24/v99e/199.5/wphact24_4qsk1_199.5_80.4_205572.xsdst ! RUN = 205572 ! NEVT = 1999
FILE = /castor/cern.ch/delphi/MCprod/cern/wphact24/v99e/199.5/wphact24_4qsk1_199.5_80.4_205573.xsdst ! RUN = 205573 ! NEVT = 2000
FILE = /castor/cern.ch/delphi/MCprod/cern/wphact24/v99e/199.5/wphact24_4qsk1_199.5_80.4_205574.xsdst ! RUN = 205574 ! NEVT = 2000
FILE = /castor/cern.ch/delphi/MCprod/cern/wphact24/v99e/199.5/wphact24_4qsk1_199.5_80.4_205575.xsdst ! RUN = 205575 ! NEVT = 2000
FILE = /castor/cern.ch/delphi/MCprod/cern/wphact24/v99e/199.5/wphact24_4qsk1_199.5_80.4_205576.xsdst ! RUN = 205576 ! NEVT = 1999
FILE = /castor/cern.ch/delphi/MCprod/cern/wphact24/v99e/199.5/wphact24_4qsk1_199.5_80.4_205577.xsdst ! RUN = 205577 ! NEVT = 1999
FILE = /castor/cern.ch/delphi/MCprod/cern/wphact24/v99e/199.5/wphact24_4qsk1_199.5_80.4_205578.xsdst ! RUN = 205578 ! NEVT = 2000
FILE = /castor/cern.ch/delphi/MCprod/cern/wphact24/v99e/199.5/wphact24_4qsk1_199.5_80.4_205579.xsdst ! RUN = 205579 ! NEVT = 1999
FILE = /castor/cern.ch/delphi/MCprod/cern/wphact24/v99e/199.5/wphact24_4qsk1_199.5_80.4_205580.xsdst ! RUN = 205580 ! NEVT = 1999
FILE = /castor/cern.ch/delphi/MCprod/cern/wphact24/v99e/199.5/wphact24_4qsk1_199.5_80.4_205581.xsdst ! RUN = 205581 ! NEVT = 2000
FILE = /castor/cern.ch/delphi/MCprod/cern/wphact24/v99e/199.5/wphact24_4qsk1_199.5_80.4_205582.xsdst ! RUN = 205582 ! NEVT = 2000
FILE = /castor/cern.ch/delphi/MCprod/cern/wphact24/v99e/199.5/wphact24_4qsk1_199.5_80.4_205583.xsdst ! RUN = 205583 ! NEVT = 2000
FILE = /castor/cern.ch/delphi/MCprod/cern/wphact24/v99e/199.5/wphact24_4qsk1_199.5_80.4_205584.xsdst ! RUN = 205584 ! NEVT = 2000
FILE = /castor/cern.ch/delphi/MCprod/cern/wphact24/v99e/199.5/wphact24_4qsk1_199.5_80.4_205585.xsdst ! RUN = 205585 ! NEVT = 2000
FILE = /castor/cern.ch/delphi/MCprod/cern/wphact24/v99e/199.5/wphact24_4qsk1_199.5_80.4_205586.xsdst ! RUN = 205586 ! NEVT = 2000
FILE = /castor/cern.ch/delphi/MCprod/cern/wphact24/v99e/199.5/wphact24_4qsk1_199.5_80.4_205587.xsdst ! RUN = 205587 ! NEVT = 2000
FILE = /castor/cern.ch/delphi/MCprod/cern/wphact24/v99e/199.5/wphact24_4qsk1_199.5_80.4_205588.xsdst ! RUN = 205588 ! NEVT = 2000
FILE = /castor/cern.ch/delphi/MCprod/cern/wphact24/v99e/199.5/wphact24_4qsk1_199.5_80.4_205589.xsdst ! RUN = 205589 ! NEVT = 1999
FILE = /castor/cern.ch/delphi/MCprod/cern/wphact24/v99e/199.5/wphact24_4qsk1_199.5_80.4_205591.xsdst ! RUN = 205591 ! NEVT = 505
FILE = /castor/cern.ch/delphi/MCprod/cern/wphact24/v99e/199.5/wphact24_4qsk1_199.5_80.4_205592.xsdst ! RUN = 205592 ! NEVT = 1999
FILE = /castor/cern.ch/delphi/MCprod/cern/wphact24/v99e/199.5/wphact24_4qsk1_199.5_80.4_205593.xsdst ! RUN = 205593 ! NEVT = 2000
FILE = /castor/cern.ch/delphi/MCprod/cern/wphact24/v99e/199.5/wphact24_4qsk1_199.5_80.4_205594.xsdst ! RUN = 205594 ! NEVT = 1999
FILE = /castor/cern.ch/delphi/MCprod/cern/wphact24/v99e/199.5/wphact24_4qsk1_199.5_80.4_205596.xsdst ! RUN = 205596 ! NEVT = 1999
FILE = /castor/cern.ch/delphi/MCprod/cern/wphact24/v99e/199.5/wphact24_4qsk1_199.5_80.4_205597.xsdst ! RUN = 205597 ! NEVT = 2000
FILE = /castor/cern.ch/delphi/MCprod/cern/wphact24/v99e/199.5/wphact24_4qsk1_199.5_80.4_205598.xsdst ! RUN = 205598 ! NEVT = 1999
FILE = /castor/cern.ch/delphi/MCprod/cern/wphact24/v99e/199.5/wphact24_4qsk1_199.5_80.4_205599.xsdst ! RUN = 205599 ! NEVT = 1999
FILE = /castor/cern.ch/delphi/MCprod/cern/wphact24/v99e/199.5/wphact24_4qsk1_199.5_80.4_205600.xsdst ! RUN = 205600 ! NEVT = 1998
FILE = /castor/cern.ch/delphi/MCprod/cern/wphact24/v99e/199.5/wphact24_4qsk1_199.5_80.4_205601.xsdst ! RUN = 205601 ! NEVT = 1998
FILE = /castor/cern.ch/delphi/MCprod/cern/wphact24/v99e/199.5/wphact24_4qsk1_199.5_80.4_205602.xsdst ! RUN = 205602 ! NEVT = 2000
FILE = /castor/cern.ch/delphi/MCprod/cern/wphact24/v99e/199.5/wphact24_4qsk1_199.5_80.4_205603.xsdst ! RUN = 205603 ! NEVT = 1999
FILE = /castor/cern.ch/delphi/MCprod/cern/wphact24/v99e/199.5/wphact24_4qsk1_199.5_80.4_205604.xsdst ! RUN = 205604 ! NEVT = 1999
FILE = /castor/cern.ch/delphi/MCprod/cern/wphact24/v99e/199.5/wphact24_4qsk1_199.5_80.4_205605.xsdst ! RUN = 205605 ! NEVT = 1996
FILE = /castor/cern.ch/delphi/MCprod/cern/wphact24/v99e/199.5/wphact24_4qsk1_199.5_80.4_205606.xsdst ! RUN = 205606 ! NEVT = 1998
FILE = /castor/cern.ch/delphi/MCprod/cern/wphact24/v99e/199.5/wphact24_4qsk1_199.5_80.4_205607.xsdst ! RUN = 205607 ! NEVT = 2000
FILE = /castor/cern.ch/delphi/MCprod/cern/wphact24/v99e/199.5/wphact24_4qsk1_199.5_80.4_205608.xsdst ! RUN = 205608 ! NEVT = 2000
FILE = /castor/cern.ch/delphi/MCprod/cern/wphact24/v99e/199.5/wphact24_4qsk1_199.5_80.4_205609.xsdst ! RUN = 205609 ! NEVT = 1999
FILE = /castor/cern.ch/delphi/MCprod/cern/wphact24/v99e/199.5/wphact24_4qsk1_199.5_80.4_205610.xsdst ! RUN = 205610 ! NEVT = 1999
FILE = /castor/cern.ch/delphi/MCprod/cern/wphact24/v99e/199.5/wphact24_4qsk1_199.5_80.4_205611.xsdst ! RUN = 205611 ! NEVT = 2000
FILE = /castor/cern.ch/delphi/MCprod/cern/wphact24/v99e/199.5/wphact24_4qsk1_199.5_80.4_205612.xsdst ! RUN = 205612 ! NEVT = 1998
FILE = /castor/cern.ch/delphi/MCprod/cern/wphact24/v99e/199.5/wphact24_4qsk1_199.5_80.4_205613.xsdst ! RUN = 205613 ! NEVT = 1999
FILE = /castor/cern.ch/delphi/MCprod/cern/wphact24/v99e/199.5/wphact24_4qsk1_199.5_80.4_205614.xsdst ! RUN = 205614 ! NEVT = 1999
FILE = /castor/cern.ch/delphi/MCprod/cern/wphact24/v99e/199.5/wphact24_4qsk1_199.5_80.4_205615.xsdst ! RUN = 205615 ! NEVT = 1999
FILE = /castor/cern.ch/delphi/MCprod/cern/wphact24/v99e/199.5/wphact24_4qsk1_199.5_80.4_205616.xsdst ! RUN = 205616 ! NEVT = 1999
FILE = /castor/cern.ch/delphi/MCprod/cern/wphact24/v99e/199.5/wphact24_4qsk1_199.5_80.4_205617.xsdst ! RUN = 205617 ! NEVT = 874
FILE = /castor/cern.ch/delphi/MCprod/cern/wphact24/v99e/199.5/wphact24_4qsk1_199.5_80.4_205618.xsdst ! RUN = 205618 ! NEVT = 2000
FILE = /castor/cern.ch/delphi/MCprod/cern/wphact24/v99e/199.5/wphact24_4qsk1_199.5_80.4_205619.xsdst ! RUN = 205619 ! NEVT = 518
FILE = /castor/cern.ch/delphi/MCprod/cern/wphact24/v99e/199.5/wphact24_4qsk1_199.5_80.4_205620.xsdst ! RUN = 205620 ! NEVT = 1999
FILE = /castor/cern.ch/delphi/MCprod/cern/wphact24/v99e/199.5/wphact24_4qsk1_199.5_80.4_205621.xsdst ! RUN = 205621 ! NEVT = 1998
FILE = /castor/cern.ch/delphi/MCprod/cern/wphact24/v99e/199.5/wphact24_4qsk1_199.5_80.4_205622.xsdst ! RUN = 205622 ! NEVT = 2000
FILE = /castor/cern.ch/delphi/MCprod/cern/wphact24/v99e/199.5/wphact24_4qsk1_199.5_80.4_205623.xsdst ! RUN = 205623 ! NEVT = 1999
FILE = /castor/cern.ch/delphi/MCprod/cern/wphact24/v99e/199.5/wphact24_4qsk1_199.5_80.4_205624.xsdst ! RUN = 205624 ! NEVT = 2000
FILE = /castor/cern.ch/delphi/MCprod/cern/wphact24/v99e/199.5/wphact24_4qsk1_199.5_80.4_205625.xsdst ! RUN = 205625 ! NEVT = 1999
FILE = /castor/cern.ch/delphi/MCprod/cern/wphact24/v99e/199.5/wphact24_4qsk1_199.5_80.4_205626.xsdst ! RUN = 205626 ! NEVT = 1997
FILE = /castor/cern.ch/delphi/MCprod/cern/wphact24/v99e/199.5/wphact24_4qsk1_199.5_80.4_205627.xsdst ! RUN = 205627 ! NEVT = 2000
FILE = /castor/cern.ch/delphi/MCprod/cern/wphact24/v99e/199.5/wphact24_4qsk1_199.5_80.4_205628.xsdst ! RUN = 205628 ! NEVT = 2000
FILE = /castor/cern.ch/delphi/MCprod/cern/wphact24/v99e/199.5/wphact24_4qsk1_199.5_80.4_205629.xsdst ! RUN = 205629 ! NEVT = 1999
FILE = /castor/cern.ch/delphi/MCprod/cern/wphact24/v99e/199.5/wphact24_4qsk1_199.5_80.4_205630.xsdst ! RUN = 205630 ! NEVT = 766
FILE = /castor/cern.ch/delphi/MCprod/cern/wphact24/v99e/199.5/wphact24_4qsk1_199.5_80.4_205631.xsdst ! RUN = 205631 ! NEVT = 2000
FILE = /castor/cern.ch/delphi/MCprod/cern/wphact24/v99e/199.5/wphact24_4qsk1_199.5_80.4_205632.xsdst ! RUN = 205632 ! NEVT = 1997
FILE = /castor/cern.ch/delphi/MCprod/cern/wphact24/v99e/199.5/wphact24_4qsk1_199.5_80.4_205633.xsdst ! RUN = 205633 ! NEVT = 1999
FILE = /castor/cern.ch/delphi/MCprod/cern/wphact24/v99e/199.5/wphact24_4qsk1_199.5_80.4_205634.xsdst ! RUN = 205634 ! NEVT = 1998
FILE = /castor/cern.ch/delphi/MCprod/cern/wphact24/v99e/199.5/wphact24_4qsk1_199.5_80.4_205635.xsdst ! RUN = 205635 ! NEVT = 939
FILE = /castor/cern.ch/delphi/MCprod/cern/wphact24/v99e/199.5/wphact24_4qsk1_199.5_80.4_205636.xsdst ! RUN = 205636 ! NEVT = 2000
FILE = /castor/cern.ch/delphi/MCprod/cern/wphact24/v99e/199.5/wphact24_4qsk1_199.5_80.4_205637.xsdst ! RUN = 205637 ! NEVT = 1998
FILE = /castor/cern.ch/delphi/MCprod/cern/wphact24/v99e/199.5/wphact24_4qsk1_199.5_80.4_205638.xsdst ! RUN = 205638 ! NEVT = 2000
FILE = /castor/cern.ch/delphi/MCprod/cern/wphact24/v99e/199.5/wphact24_4qsk1_199.5_80.4_205639.xsdst ! RUN = 205639 ! NEVT = 1998
FILE = /castor/cern.ch/delphi/MCprod/cern/wphact24/v99e/199.5/wphact24_4qsk1_199.5_80.4_205640.xsdst ! RUN = 205640 ! NEVT = 2000
FILE = /castor/cern.ch/delphi/MCprod/cern/wphact24/v99e/199.5/wphact24_4qsk1_199.5_80.4_205641.xsdst ! RUN = 205641 ! NEVT = 1999
FILE = /castor/cern.ch/delphi/MCprod/cern/wphact24/v99e/199.5/wphact24_4qsk1_199.5_80.4_205642.xsdst ! RUN = 205642 ! NEVT = 58
FILE = /castor/cern.ch/delphi/MCprod/cern/wphact24/v99e/199.5/wphact24_4qsk1_199.5_80.4_205643.xsdst ! RUN = 205643 ! NEVT = 1999
FILE = /castor/cern.ch/delphi/MCprod/cern/wphact24/v99e/199.5/wphact24_4qsk1_199.5_80.4_205644.xsdst ! RUN = 205644 ! NEVT = 2000
FILE = /castor/cern.ch/delphi/MCprod/cern/wphact24/v99e/199.5/wphact24_4qsk1_199.5_80.4_205645.xsdst ! RUN = 205645 ! NEVT = 1998
FILE = /castor/cern.ch/delphi/MCprod/cern/wphact24/v99e/199.5/wphact24_4qsk1_199.5_80.4_205646.xsdst ! RUN = 205646 ! NEVT = 1998
FILE = /castor/cern.ch/delphi/MCprod/cern/wphact24/v99e/199.5/wphact24_4qsk1_199.5_80.4_205647.xsdst ! RUN = 205647 ! NEVT = 2000
FILE = /castor/cern.ch/delphi/MCprod/cern/wphact24/v99e/199.5/wphact24_4qsk1_199.5_80.4_205648.xsdst ! RUN = 205648 ! NEVT = 1998
FILE = /castor/cern.ch/delphi/MCprod/cern/wphact24/v99e/199.5/wphact24_4qsk1_199.5_80.4_205649.xsdst ! RUN = 205649 ! NEVT = 1998
FILE = /castor/cern.ch/delphi/MCprod/cern/wphact24/v99e/199.5/wphact24_4qsk1_199.5_80.4_205650.xsdst ! RUN = 205650 ! NEVT = 2000
FILE = /castor/cern.ch/delphi/MCprod/cern/wphact24/v99e/199.5/wphact24_4qsk1_199.5_80.4_205651.xsdst ! RUN = 205651 ! NEVT = 1999
FILE = /castor/cern.ch/delphi/MCprod/cern/wphact24/v99e/199.5/wphact24_4qsk1_199.5_80.4_205652.xsdst ! RUN = 205652 ! NEVT = 2000
FILE = /castor/cern.ch/delphi/MCprod/cern/wphact24/v99e/199.5/wphact24_4qsk1_199.5_80.4_205653.xsdst ! RUN = 205653 ! NEVT = 2000
FILE = /castor/cern.ch/delphi/MCprod/cern/wphact24/v99e/199.5/wphact24_4qsk1_199.5_80.4_205654.xsdst ! RUN = 205654 ! NEVT = 1997
FILE = /castor/cern.ch/delphi/MCprod/cern/wphact24/v99e/199.5/wphact24_4qsk1_199.5_80.4_205655.xsdst ! RUN = 205655 ! NEVT = 1999
FILE = /castor/cern.ch/delphi/MCprod/cern/wphact24/v99e/199.5/wphact24_4qsk1_199.5_80.4_205656.xsdst ! RUN = 205656 ! NEVT = 1997
FILE = /castor/cern.ch/delphi/MCprod/cern/wphact24/v99e/199.5/wphact24_4qsk1_199.5_80.4_205657.xsdst ! RUN = 205657 ! NEVT = 1370
FILE = /castor/cern.ch/delphi/MCprod/cern/wphact24/v99e/199.5/wphact24_4qsk1_199.5_80.4_205658.xsdst ! RUN = 205658 ! NEVT = 1999
FILE = /castor/cern.ch/delphi/MCprod/cern/wphact24/v99e/199.5/wphact24_4qsk1_199.5_80.4_205659.xsdst ! RUN = 205659 ! NEVT = 2000
FILE = /castor/cern.ch/delphi/MCprod/cern/wphact24/v99e/199.5/wphact24_4qsk1_199.5_80.4_205660.xsdst ! RUN = 205660 ! NEVT = 2000
FILE = /castor/cern.ch/delphi/MCprod/cern/wphact24/v99e/199.5/wphact24_4qsk1_199.5_80.4_205661.xsdst ! RUN = 205661 ! NEVT = 1999
FILE = /castor/cern.ch/delphi/MCprod/cern/wphact24/v99e/199.5/wphact24_4qsk1_199.5_80.4_205662.xsdst ! RUN = 205662 ! NEVT = 2000
FILE = /castor/cern.ch/delphi/MCprod/cern/wphact24/v99e/199.5/wphact24_4qsk1_199.5_80.4_205663.xsdst ! RUN = 205663 ! NEVT = 1999
FILE = /castor/cern.ch/delphi/MCprod/cern/wphact24/v99e/199.5/wphact24_4qsk1_199.5_80.4_205664.xsdst ! RUN = 205664 ! NEVT = 2000
FILE = /castor/cern.ch/delphi/MCprod/cern/wphact24/v99e/199.5/wphact24_4qsk1_199.5_80.4_205665.xsdst ! RUN = 205665 ! NEVT = 240
FILE = /castor/cern.ch/delphi/MCprod/cern/wphact24/v99e/199.5/wphact24_4qsk1_199.5_80.4_205666.xsdst ! RUN = 205666 ! NEVT = 1998
FILE = /castor/cern.ch/delphi/MCprod/cern/wphact24/v99e/199.5/wphact24_4qsk1_199.5_80.4_205667.xsdst ! RUN = 205667 ! NEVT = 2000
FILE = /castor/cern.ch/delphi/MCprod/cern/wphact24/v99e/199.5/wphact24_4qsk1_199.5_80.4_205668.xsdst ! RUN = 205668 ! NEVT = 2000
FILE = /castor/cern.ch/delphi/MCprod/cern/wphact24/v99e/199.5/wphact24_4qsk1_199.5_80.4_205669.xsdst ! RUN = 205669 ! NEVT = 1998
FILE = /castor/cern.ch/delphi/MCprod/cern/wphact24/v99e/199.5/wphact24_4qsk1_199.5_80.4_205670.xsdst ! RUN = 205670 ! NEVT = 1479
FILE = /castor/cern.ch/delphi/MCprod/cern/wphact24/v99e/199.5/wphact24_4qsk1_199.5_80.4_205671.xsdst ! RUN = 205671 ! NEVT = 807
FILE = /castor/cern.ch/delphi/MCprod/cern/wphact24/v99e/199.5/wphact24_4qsk1_199.5_80.4_205672.xsdst ! RUN = 205672 ! NEVT = 1552
FILE = /castor/cern.ch/delphi/MCprod/cern/wphact24/v99e/199.5/wphact24_4qsk1_199.5_80.4_205673.xsdst ! RUN = 205673 ! NEVT = 1999
FILE = /castor/cern.ch/delphi/MCprod/cern/wphact24/v99e/199.5/wphact24_4qsk1_199.5_80.4_205674.xsdst ! RUN = 205674 ! NEVT = 1999
FILE = /castor/cern.ch/delphi/MCprod/cern/wphact24/v99e/199.5/wphact24_4qsk1_199.5_80.4_205675.xsdst ! RUN = 205675 ! NEVT = 2000
FILE = /castor/cern.ch/delphi/MCprod/cern/wphact24/v99e/199.5/wphact24_4qsk1_199.5_80.4_205676.xsdst ! RUN = 205676 ! NEVT = 320
FILE = /castor/cern.ch/delphi/MCprod/cern/wphact24/v99e/199.5/wphact24_4qsk1_199.5_80.4_205677.xsdst ! RUN = 205677 ! NEVT = 2000
FILE = /castor/cern.ch/delphi/MCprod/cern/wphact24/v99e/199.5/wphact24_4qsk1_199.5_80.4_205678.xsdst ! RUN = 205678 ! NEVT = 1998
FILE = /castor/cern.ch/delphi/MCprod/cern/wphact24/v99e/199.5/wphact24_4qsk1_199.5_80.4_205679.xsdst ! RUN = 205679 ! NEVT = 502
FILE = /castor/cern.ch/delphi/MCprod/cern/wphact24/v99e/199.5/wphact24_4qsk1_199.5_80.4_205680.xsdst ! RUN = 205680 ! NEVT = 1999
FILE = /castor/cern.ch/delphi/MCprod/cern/wphact24/v99e/199.5/wphact24_4qsk1_199.5_80.4_205681.xsdst ! RUN = 205681 ! NEVT = 1997
FILE = /castor/cern.ch/delphi/MCprod/cern/wphact24/v99e/199.5/wphact24_4qsk1_199.5_80.4_205682.xsdst ! RUN = 205682 ! NEVT = 2000
FILE = /castor/cern.ch/delphi/MCprod/cern/wphact24/v99e/199.5/wphact24_4qsk1_199.5_80.4_205683.xsdst ! RUN = 205683 ! NEVT = 2000
FILE = /castor/cern.ch/delphi/MCprod/cern/wphact24/v99e/199.5/wphact24_4qsk1_199.5_80.4_205684.xsdst ! RUN = 205684 ! NEVT = 1949
FILE = /castor/cern.ch/delphi/MCprod/cern/wphact24/v99e/199.5/wphact24_4qsk1_199.5_80.4_205685.xsdst ! RUN = 205685 ! NEVT = 1999
FILE = /castor/cern.ch/delphi/MCprod/cern/wphact24/v99e/199.5/wphact24_4qsk1_199.5_80.4_205686.xsdst ! RUN = 205686 ! NEVT = 1999
FILE = /castor/cern.ch/delphi/MCprod/cern/wphact24/v99e/199.5/wphact24_4qsk1_199.5_80.4_205687.xsdst ! RUN = 205687 ! NEVT = 1997
FILE = /castor/cern.ch/delphi/MCprod/cern/wphact24/v99e/199.5/wphact24_4qsk1_199.5_80.4_205688.xsdst ! RUN = 205688 ! NEVT = 2000
FILE = /castor/cern.ch/delphi/MCprod/cern/wphact24/v99e/199.5/wphact24_4qsk1_199.5_80.4_205689.xsdst ! RUN = 205689 ! NEVT = 1999
FILE = /castor/cern.ch/delphi/MCprod/cern/wphact24/v99e/199.5/wphact24_4qsk1_199.5_80.4_205690.xsdst ! RUN = 205690 ! NEVT = 1999
FILE = /castor/cern.ch/delphi/MCprod/cern/wphact24/v99e/199.5/wphact24_4qsk1_199.5_80.4_205691.xsdst ! RUN = 205691 ! NEVT = 1999
FILE = /castor/cern.ch/delphi/MCprod/cern/wphact24/v99e/199.5/wphact24_4qsk1_199.5_80.4_205692.xsdst ! RUN = 205692 ! NEVT = 1999
FILE = /castor/cern.ch/delphi/MCprod/cern/wphact24/v99e/199.5/wphact24_4qsk1_199.5_80.4_205693.xsdst ! RUN = 205693 ! NEVT = 1999
FILE = /castor/cern.ch/delphi/MCprod/cern/wphact24/v99e/199.5/wphact24_4qsk1_199.5_80.4_205694.xsdst ! RUN = 205694 ! NEVT = 2000
FILE = /castor/cern.ch/delphi/MCprod/cern/wphact24/v99e/199.5/wphact24_4qsk1_199.5_80.4_205695.xsdst ! RUN = 205695 ! NEVT = 1999
FILE = /castor/cern.ch/delphi/MCprod/cern/wphact24/v99e/199.5/wphact24_4qsk1_199.5_80.4_205696.xsdst ! RUN = 205696 ! NEVT = 2000
FILE = /castor/cern.ch/delphi/MCprod/cern/wphact24/v99e/199.5/wphact24_4qsk1_199.5_80.4_205697.xsdst ! RUN = 205697 ! NEVT = 1999
FILE = /castor/cern.ch/delphi/MCprod/cern/wphact24/v99e/199.5/wphact24_4qsk1_199.5_80.4_205698.xsdst ! RUN = 205698 ! NEVT = 2000
FILE = /castor/cern.ch/delphi/MCprod/cern/wphact24/v99e/199.5/wphact24_4qsk1_199.5_80.4_205699.xsdst ! RUN = 205699 ! NEVT = 1999
FILE = /castor/cern.ch/delphi/MCprod/cern/wphact24/v99e/199.5/wphact24_4qsk1_199.5_80.4_205700.xsdst ! RUN = 205700 ! NEVT = 1998
FILE = /castor/cern.ch/delphi/MCprod/cern/wphact24/v99e/199.5/wphact24_4qsk1_199.5_80.4_205701.xsdst ! RUN = 205701 ! NEVT = 1998
FILE = /castor/cern.ch/delphi/MCprod/cern/wphact24/v99e/199.5/wphact24_4qsk1_199.5_80.4_205702.xsdst ! RUN = 205702 ! NEVT = 2000
FILE = /castor/cern.ch/delphi/MCprod/cern/wphact24/v99e/199.5/wphact24_4qsk1_199.5_80.4_205703.xsdst ! RUN = 205703 ! NEVT = 2000
FILE = /castor/cern.ch/delphi/MCprod/cern/wphact24/v99e/199.5/wphact24_4qsk1_199.5_80.4_205704.xsdst ! RUN = 205704 ! NEVT = 1999
FILE = /castor/cern.ch/delphi/MCprod/cern/wphact24/v99e/199.5/wphact24_4qsk1_199.5_80.4_205705.xsdst ! RUN = 205705 ! NEVT = 1998
FILE = /castor/cern.ch/delphi/MCprod/cern/wphact24/v99e/199.5/wphact24_4qsk1_199.5_80.4_205706.xsdst ! RUN = 205706 ! NEVT = 1283
FILE = /castor/cern.ch/delphi/MCprod/cern/wphact24/v99e/199.5/wphact24_4qsk1_199.5_80.4_205707.xsdst ! RUN = 205707 ! NEVT = 1998
FILE = /castor/cern.ch/delphi/MCprod/cern/wphact24/v99e/199.5/wphact24_4qsk1_199.5_80.4_205708.xsdst ! RUN = 205708 ! NEVT = 1999
FILE = /castor/cern.ch/delphi/MCprod/cern/wphact24/v99e/199.5/wphact24_4qsk1_199.5_80.4_205709.xsdst ! RUN = 205709 ! NEVT = 2000
FILE = /castor/cern.ch/delphi/MCprod/cern/wphact24/v99e/199.5/wphact24_4qsk1_199.5_80.4_205710.xsdst ! RUN = 205710 ! NEVT = 2000
FILE = /castor/cern.ch/delphi/MCprod/cern/wphact24/v99e/199.5/wphact24_4qsk1_199.5_80.4_205711.xsdst ! RUN = 205711 ! NEVT = 1999
FILE = /castor/cern.ch/delphi/MCprod/cern/wphact24/v99e/199.5/wphact24_4qsk1_199.5_80.4_205712.xsdst ! RUN = 205712 ! NEVT = 1997
FILE = /castor/cern.ch/delphi/MCprod/cern/wphact24/v99e/199.5/wphact24_4qsk1_199.5_80.4_205713.xsdst ! RUN = 205713 ! NEVT = 2000
FILE = /castor/cern.ch/delphi/MCprod/cern/wphact24/v99e/199.5/wphact24_4qsk1_199.5_80.4_205714.xsdst ! RUN = 205714 ! NEVT = 1999
FILE = /castor/cern.ch/delphi/MCprod/cern/wphact24/v99e/199.5/wphact24_4qsk1_199.5_80.4_205715.xsdst ! RUN = 205715 ! NEVT = 1999
FILE = /castor/cern.ch/delphi/MCprod/cern/wphact24/v99e/199.5/wphact24_4qsk1_199.5_80.4_205716.xsdst ! RUN = 205716 ! NEVT = 1998
FILE = /castor/cern.ch/delphi/MCprod/cern/wphact24/v99e/199.5/wphact24_4qsk1_199.5_80.4_205717.xsdst ! RUN = 205717 ! NEVT = 2000
FILE = /castor/cern.ch/delphi/MCprod/cern/wphact24/v99e/199.5/wphact24_4qsk1_199.5_80.4_205718.xsdst ! RUN = 205718 ! NEVT = 1998
FILE = /castor/cern.ch/delphi/MCprod/cern/wphact24/v99e/199.5/wphact24_4qsk1_199.5_80.4_205719.xsdst ! RUN = 205719 ! NEVT = 1998
FILE = /castor/cern.ch/delphi/MCprod/cern/wphact24/v99e/199.5/wphact24_4qsk1_199.5_80.4_205720.xsdst ! RUN = 205720 ! NEVT = 2000
FILE = /castor/cern.ch/delphi/MCprod/cern/wphact24/v99e/199.5/wphact24_4qsk1_199.5_80.4_205721.xsdst ! RUN = 205721 ! NEVT = 1999
FILE = /castor/cern.ch/delphi/MCprod/cern/wphact24/v99e/199.5/wphact24_4qsk1_199.5_80.4_205722.xsdst ! RUN = 205722 ! NEVT = 1998
FILE = /castor/cern.ch/delphi/MCprod/cern/wphact24/v99e/199.5/wphact24_4qsk1_199.5_80.4_205723.xsdst ! RUN = 205723 ! NEVT = 2000
FILE = /castor/cern.ch/delphi/MCprod/cern/wphact24/v99e/199.5/wphact24_4qsk1_199.5_80.4_205724.xsdst ! RUN = 205724 ! NEVT = 2000
FILE = /castor/cern.ch/delphi/MCprod/cern/wphact24/v99e/199.5/wphact24_4qsk1_199.5_80.4_205726.xsdst ! RUN = 205726 ! NEVT = 1999
FILE = /castor/cern.ch/delphi/MCprod/cern/wphact24/v99e/199.5/wphact24_4qsk1_199.5_80.4_205727.xsdst ! RUN = 205727 ! NEVT = 1999
FILE = /castor/cern.ch/delphi/MCprod/cern/wphact24/v99e/199.5/wphact24_4qsk1_199.5_80.4_205728.xsdst ! RUN = 205728 ! NEVT = 885
FILE = /castor/cern.ch/delphi/MCprod/cern/wphact24/v99e/199.5/wphact24_4qsk1_199.5_80.4_205729.xsdst ! RUN = 205729 ! NEVT = 2000
FILE = /castor/cern.ch/delphi/MCprod/cern/wphact24/v99e/199.5/wphact24_4qsk1_199.5_80.4_205730.xsdst ! RUN = 205730 ! NEVT = 1999
FILE = /castor/cern.ch/delphi/MCprod/cern/wphact24/v99e/199.5/wphact24_4qsk1_199.5_80.4_205731.xsdst ! RUN = 205731 ! NEVT = 1448
FILE = /castor/cern.ch/delphi/MCprod/cern/wphact24/v99e/199.5/wphact24_4qsk1_199.5_80.4_205732.xsdst ! RUN = 205732 ! NEVT = 1997
FILE = /castor/cern.ch/delphi/MCprod/cern/wphact24/v99e/199.5/wphact24_4qsk1_199.5_80.4_205733.xsdst ! RUN = 205733 ! NEVT = 1998
FILE = /castor/cern.ch/delphi/MCprod/cern/wphact24/v99e/199.5/wphact24_4qsk1_199.5_80.4_205734.xsdst ! RUN = 205734 ! NEVT = 2000
FILE = /castor/cern.ch/delphi/MCprod/cern/wphact24/v99e/199.5/wphact24_4qsk1_199.5_80.4_205735.xsdst ! RUN = 205735 ! NEVT = 1999
FILE = /castor/cern.ch/delphi/MCprod/cern/wphact24/v99e/199.5/wphact24_4qsk1_199.5_80.4_205736.xsdst ! RUN = 205736 ! NEVT = 1996
FILE = /castor/cern.ch/delphi/MCprod/cern/wphact24/v99e/199.5/wphact24_4qsk1_199.5_80.4_205737.xsdst ! RUN = 205737 ! NEVT = 1999
FILE = /castor/cern.ch/delphi/MCprod/cern/wphact24/v99e/199.5/wphact24_4qsk1_199.5_80.4_205738.xsdst ! RUN = 205738 ! NEVT = 1999
FILE = /castor/cern.ch/delphi/MCprod/cern/wphact24/v99e/199.5/wphact24_4qsk1_199.5_80.4_205739.xsdst ! RUN = 205739 ! NEVT = 1999
FILE = /castor/cern.ch/delphi/MCprod/cern/wphact24/v99e/199.5/wphact24_4qsk1_199.5_80.4_205740.xsdst ! RUN = 205740 ! NEVT = 1999
FILE = /castor/cern.ch/delphi/MCprod/cern/wphact24/v99e/199.5/wphact24_4qsk1_199.5_80.4_205741.xsdst ! RUN = 205741 ! NEVT = 2000
FILE = /castor/cern.ch/delphi/MCprod/cern/wphact24/v99e/199.5/wphact24_4qsk1_199.5_80.4_205742.xsdst ! RUN = 205742 ! NEVT = 1562
FILE = /castor/cern.ch/delphi/MCprod/cern/wphact24/v99e/199.5/wphact24_4qsk1_199.5_80.4_205743.xsdst ! RUN = 205743 ! NEVT = 1149
FILE = /castor/cern.ch/delphi/MCprod/cern/wphact24/v99e/199.5/wphact24_4qsk1_199.5_80.4_205744.xsdst ! RUN = 205744 ! NEVT = 1999
FILE = /castor/cern.ch/delphi/MCprod/cern/wphact24/v99e/199.5/wphact24_4qsk1_199.5_80.4_205745.xsdst ! RUN = 205745 ! NEVT = 1999
FILE = /castor/cern.ch/delphi/MCprod/cern/wphact24/v99e/199.5/wphact24_4qsk1_199.5_80.4_205746.xsdst ! RUN = 205746 ! NEVT = 1999
FILE = /castor/cern.ch/delphi/MCprod/cern/wphact24/v99e/199.5/wphact24_4qsk1_199.5_80.4_205748.xsdst ! RUN = 205748 ! NEVT = 1999
FILE = /castor/cern.ch/delphi/MCprod/cern/wphact24/v99e/199.5/wphact24_4qsk1_199.5_80.4_205749.xsdst ! RUN = 205749 ! NEVT = 2000
FILE = /castor/cern.ch/delphi/MCprod/cern/wphact24/v99e/199.5/wphact24_4qsk1_199.5_80.4_205750.xsdst ! RUN = 205750 ! NEVT = 2000
