*   Nickname :     xs_wphact24cc_e195.5_m80.4_c99_1l_e1
*   Generic Name : //CERN/DELPHI/P02_SIMD/XSDST/WPHACT24CC/E195.5/CERN/SUMT/C001-494
*   Description :   Extended Short DST simulation 99e  done at ecm=195.5 GeV , CERN
*   Comments :     in total 979154 events in 494 files, time stamp: Fri Jul 4 4:13:16 2003
*
*
*
FILE = /castor/cern.ch/delphi/MCprod/cern/wphact24/v99e/195.5/wphact24_cc_195.5_80.4_201001.xsdst ! RUN = 201001 ! NEVT = 2000
FILE = /castor/cern.ch/delphi/MCprod/cern/wphact24/v99e/195.5/wphact24_cc_195.5_80.4_201002.xsdst ! RUN = 201002 ! NEVT = 1999
FILE = /castor/cern.ch/delphi/MCprod/cern/wphact24/v99e/195.5/wphact24_cc_195.5_80.4_201003.xsdst ! RUN = 201003 ! NEVT = 1998
FILE = /castor/cern.ch/delphi/MCprod/cern/wphact24/v99e/195.5/wphact24_cc_195.5_80.4_201004.xsdst ! RUN = 201004 ! NEVT = 2000
FILE = /castor/cern.ch/delphi/MCprod/cern/wphact24/v99e/195.5/wphact24_cc_195.5_80.4_201005.xsdst ! RUN = 201005 ! NEVT = 1999
FILE = /castor/cern.ch/delphi/MCprod/cern/wphact24/v99e/195.5/wphact24_cc_195.5_80.4_201006.xsdst ! RUN = 201006 ! NEVT = 2000
FILE = /castor/cern.ch/delphi/MCprod/cern/wphact24/v99e/195.5/wphact24_cc_195.5_80.4_201007.xsdst ! RUN = 201007 ! NEVT = 1997
FILE = /castor/cern.ch/delphi/MCprod/cern/wphact24/v99e/195.5/wphact24_cc_195.5_80.4_201008.xsdst ! RUN = 201008 ! NEVT = 1999
FILE = /castor/cern.ch/delphi/MCprod/cern/wphact24/v99e/195.5/wphact24_cc_195.5_80.4_201009.xsdst ! RUN = 201009 ! NEVT = 1998
FILE = /castor/cern.ch/delphi/MCprod/cern/wphact24/v99e/195.5/wphact24_cc_195.5_80.4_201010.xsdst ! RUN = 201010 ! NEVT = 1999
FILE = /castor/cern.ch/delphi/MCprod/cern/wphact24/v99e/195.5/wphact24_cc_195.5_80.4_201011.xsdst ! RUN = 201011 ! NEVT = 1999
FILE = /castor/cern.ch/delphi/MCprod/cern/wphact24/v99e/195.5/wphact24_cc_195.5_80.4_201012.xsdst ! RUN = 201012 ! NEVT = 1999
FILE = /castor/cern.ch/delphi/MCprod/cern/wphact24/v99e/195.5/wphact24_cc_195.5_80.4_201013.xsdst ! RUN = 201013 ! NEVT = 2000
FILE = /castor/cern.ch/delphi/MCprod/cern/wphact24/v99e/195.5/wphact24_cc_195.5_80.4_201014.xsdst ! RUN = 201014 ! NEVT = 2000
FILE = /castor/cern.ch/delphi/MCprod/cern/wphact24/v99e/195.5/wphact24_cc_195.5_80.4_201015.xsdst ! RUN = 201015 ! NEVT = 948
FILE = /castor/cern.ch/delphi/MCprod/cern/wphact24/v99e/195.5/wphact24_cc_195.5_80.4_201016.xsdst ! RUN = 201016 ! NEVT = 2000
FILE = /castor/cern.ch/delphi/MCprod/cern/wphact24/v99e/195.5/wphact24_cc_195.5_80.4_201017.xsdst ! RUN = 201017 ! NEVT = 2000
FILE = /castor/cern.ch/delphi/MCprod/cern/wphact24/v99e/195.5/wphact24_cc_195.5_80.4_201018.xsdst ! RUN = 201018 ! NEVT = 2000
FILE = /castor/cern.ch/delphi/MCprod/cern/wphact24/v99e/195.5/wphact24_cc_195.5_80.4_201019.xsdst ! RUN = 201019 ! NEVT = 1999
FILE = /castor/cern.ch/delphi/MCprod/cern/wphact24/v99e/195.5/wphact24_cc_195.5_80.4_201020.xsdst ! RUN = 201020 ! NEVT = 725
FILE = /castor/cern.ch/delphi/MCprod/cern/wphact24/v99e/195.5/wphact24_cc_195.5_80.4_201021.xsdst ! RUN = 201021 ! NEVT = 1999
FILE = /castor/cern.ch/delphi/MCprod/cern/wphact24/v99e/195.5/wphact24_cc_195.5_80.4_201022.xsdst ! RUN = 201022 ! NEVT = 1999
FILE = /castor/cern.ch/delphi/MCprod/cern/wphact24/v99e/195.5/wphact24_cc_195.5_80.4_201023.xsdst ! RUN = 201023 ! NEVT = 1999
FILE = /castor/cern.ch/delphi/MCprod/cern/wphact24/v99e/195.5/wphact24_cc_195.5_80.4_201024.xsdst ! RUN = 201024 ! NEVT = 1999
FILE = /castor/cern.ch/delphi/MCprod/cern/wphact24/v99e/195.5/wphact24_cc_195.5_80.4_201025.xsdst ! RUN = 201025 ! NEVT = 1999
FILE = /castor/cern.ch/delphi/MCprod/cern/wphact24/v99e/195.5/wphact24_cc_195.5_80.4_201026.xsdst ! RUN = 201026 ! NEVT = 1998
FILE = /castor/cern.ch/delphi/MCprod/cern/wphact24/v99e/195.5/wphact24_cc_195.5_80.4_201027.xsdst ! RUN = 201027 ! NEVT = 2000
FILE = /castor/cern.ch/delphi/MCprod/cern/wphact24/v99e/195.5/wphact24_cc_195.5_80.4_201028.xsdst ! RUN = 201028 ! NEVT = 2000
FILE = /castor/cern.ch/delphi/MCprod/cern/wphact24/v99e/195.5/wphact24_cc_195.5_80.4_201029.xsdst ! RUN = 201029 ! NEVT = 2000
FILE = /castor/cern.ch/delphi/MCprod/cern/wphact24/v99e/195.5/wphact24_cc_195.5_80.4_201030.xsdst ! RUN = 201030 ! NEVT = 2000
FILE = /castor/cern.ch/delphi/MCprod/cern/wphact24/v99e/195.5/wphact24_cc_195.5_80.4_201031.xsdst ! RUN = 201031 ! NEVT = 1999
FILE = /castor/cern.ch/delphi/MCprod/cern/wphact24/v99e/195.5/wphact24_cc_195.5_80.4_201032.xsdst ! RUN = 201032 ! NEVT = 1999
FILE = /castor/cern.ch/delphi/MCprod/cern/wphact24/v99e/195.5/wphact24_cc_195.5_80.4_201033.xsdst ! RUN = 201033 ! NEVT = 2000
FILE = /castor/cern.ch/delphi/MCprod/cern/wphact24/v99e/195.5/wphact24_cc_195.5_80.4_201034.xsdst ! RUN = 201034 ! NEVT = 1999
FILE = /castor/cern.ch/delphi/MCprod/cern/wphact24/v99e/195.5/wphact24_cc_195.5_80.4_201035.xsdst ! RUN = 201035 ! NEVT = 1164
FILE = /castor/cern.ch/delphi/MCprod/cern/wphact24/v99e/195.5/wphact24_cc_195.5_80.4_201036.xsdst ! RUN = 201036 ! NEVT = 2000
FILE = /castor/cern.ch/delphi/MCprod/cern/wphact24/v99e/195.5/wphact24_cc_195.5_80.4_201037.xsdst ! RUN = 201037 ! NEVT = 2000
FILE = /castor/cern.ch/delphi/MCprod/cern/wphact24/v99e/195.5/wphact24_cc_195.5_80.4_201038.xsdst ! RUN = 201038 ! NEVT = 1998
FILE = /castor/cern.ch/delphi/MCprod/cern/wphact24/v99e/195.5/wphact24_cc_195.5_80.4_201039.xsdst ! RUN = 201039 ! NEVT = 1996
FILE = /castor/cern.ch/delphi/MCprod/cern/wphact24/v99e/195.5/wphact24_cc_195.5_80.4_201040.xsdst ! RUN = 201040 ! NEVT = 1999
FILE = /castor/cern.ch/delphi/MCprod/cern/wphact24/v99e/195.5/wphact24_cc_195.5_80.4_201041.xsdst ! RUN = 201041 ! NEVT = 2000
FILE = /castor/cern.ch/delphi/MCprod/cern/wphact24/v99e/195.5/wphact24_cc_195.5_80.4_201042.xsdst ! RUN = 201042 ! NEVT = 2000
FILE = /castor/cern.ch/delphi/MCprod/cern/wphact24/v99e/195.5/wphact24_cc_195.5_80.4_201043.xsdst ! RUN = 201043 ! NEVT = 2000
FILE = /castor/cern.ch/delphi/MCprod/cern/wphact24/v99e/195.5/wphact24_cc_195.5_80.4_201044.xsdst ! RUN = 201044 ! NEVT = 2000
FILE = /castor/cern.ch/delphi/MCprod/cern/wphact24/v99e/195.5/wphact24_cc_195.5_80.4_201045.xsdst ! RUN = 201045 ! NEVT = 1999
FILE = /castor/cern.ch/delphi/MCprod/cern/wphact24/v99e/195.5/wphact24_cc_195.5_80.4_201046.xsdst ! RUN = 201046 ! NEVT = 2000
FILE = /castor/cern.ch/delphi/MCprod/cern/wphact24/v99e/195.5/wphact24_cc_195.5_80.4_201047.xsdst ! RUN = 201047 ! NEVT = 2000
FILE = /castor/cern.ch/delphi/MCprod/cern/wphact24/v99e/195.5/wphact24_cc_195.5_80.4_201048.xsdst ! RUN = 201048 ! NEVT = 2000
FILE = /castor/cern.ch/delphi/MCprod/cern/wphact24/v99e/195.5/wphact24_cc_195.5_80.4_201049.xsdst ! RUN = 201049 ! NEVT = 2000
FILE = /castor/cern.ch/delphi/MCprod/cern/wphact24/v99e/195.5/wphact24_cc_195.5_80.4_201050.xsdst ! RUN = 201050 ! NEVT = 2000
FILE = /castor/cern.ch/delphi/MCprod/cern/wphact24/v99e/195.5/wphact24_cc_195.5_80.4_201051.xsdst ! RUN = 201051 ! NEVT = 1999
FILE = /castor/cern.ch/delphi/MCprod/cern/wphact24/v99e/195.5/wphact24_cc_195.5_80.4_201052.xsdst ! RUN = 201052 ! NEVT = 2000
FILE = /castor/cern.ch/delphi/MCprod/cern/wphact24/v99e/195.5/wphact24_cc_195.5_80.4_201053.xsdst ! RUN = 201053 ! NEVT = 2000
FILE = /castor/cern.ch/delphi/MCprod/cern/wphact24/v99e/195.5/wphact24_cc_195.5_80.4_201054.xsdst ! RUN = 201054 ! NEVT = 2000
FILE = /castor/cern.ch/delphi/MCprod/cern/wphact24/v99e/195.5/wphact24_cc_195.5_80.4_201055.xsdst ! RUN = 201055 ! NEVT = 2000
FILE = /castor/cern.ch/delphi/MCprod/cern/wphact24/v99e/195.5/wphact24_cc_195.5_80.4_201056.xsdst ! RUN = 201056 ! NEVT = 2000
FILE = /castor/cern.ch/delphi/MCprod/cern/wphact24/v99e/195.5/wphact24_cc_195.5_80.4_201057.xsdst ! RUN = 201057 ! NEVT = 2000
FILE = /castor/cern.ch/delphi/MCprod/cern/wphact24/v99e/195.5/wphact24_cc_195.5_80.4_201058.xsdst ! RUN = 201058 ! NEVT = 1997
FILE = /castor/cern.ch/delphi/MCprod/cern/wphact24/v99e/195.5/wphact24_cc_195.5_80.4_201059.xsdst ! RUN = 201059 ! NEVT = 1999
FILE = /castor/cern.ch/delphi/MCprod/cern/wphact24/v99e/195.5/wphact24_cc_195.5_80.4_201060.xsdst ! RUN = 201060 ! NEVT = 2000
FILE = /castor/cern.ch/delphi/MCprod/cern/wphact24/v99e/195.5/wphact24_cc_195.5_80.4_201061.xsdst ! RUN = 201061 ! NEVT = 2000
FILE = /castor/cern.ch/delphi/MCprod/cern/wphact24/v99e/195.5/wphact24_cc_195.5_80.4_201062.xsdst ! RUN = 201062 ! NEVT = 1998
FILE = /castor/cern.ch/delphi/MCprod/cern/wphact24/v99e/195.5/wphact24_cc_195.5_80.4_201063.xsdst ! RUN = 201063 ! NEVT = 1999
FILE = /castor/cern.ch/delphi/MCprod/cern/wphact24/v99e/195.5/wphact24_cc_195.5_80.4_201064.xsdst ! RUN = 201064 ! NEVT = 1999
FILE = /castor/cern.ch/delphi/MCprod/cern/wphact24/v99e/195.5/wphact24_cc_195.5_80.4_201065.xsdst ! RUN = 201065 ! NEVT = 2000
FILE = /castor/cern.ch/delphi/MCprod/cern/wphact24/v99e/195.5/wphact24_cc_195.5_80.4_201067.xsdst ! RUN = 201067 ! NEVT = 1999
FILE = /castor/cern.ch/delphi/MCprod/cern/wphact24/v99e/195.5/wphact24_cc_195.5_80.4_201068.xsdst ! RUN = 201068 ! NEVT = 1999
FILE = /castor/cern.ch/delphi/MCprod/cern/wphact24/v99e/195.5/wphact24_cc_195.5_80.4_201069.xsdst ! RUN = 201069 ! NEVT = 2000
FILE = /castor/cern.ch/delphi/MCprod/cern/wphact24/v99e/195.5/wphact24_cc_195.5_80.4_201070.xsdst ! RUN = 201070 ! NEVT = 2000
FILE = /castor/cern.ch/delphi/MCprod/cern/wphact24/v99e/195.5/wphact24_cc_195.5_80.4_201071.xsdst ! RUN = 201071 ! NEVT = 1999
FILE = /castor/cern.ch/delphi/MCprod/cern/wphact24/v99e/195.5/wphact24_cc_195.5_80.4_201072.xsdst ! RUN = 201072 ! NEVT = 1999
FILE = /castor/cern.ch/delphi/MCprod/cern/wphact24/v99e/195.5/wphact24_cc_195.5_80.4_201073.xsdst ! RUN = 201073 ! NEVT = 1999
FILE = /castor/cern.ch/delphi/MCprod/cern/wphact24/v99e/195.5/wphact24_cc_195.5_80.4_201074.xsdst ! RUN = 201074 ! NEVT = 2000
FILE = /castor/cern.ch/delphi/MCprod/cern/wphact24/v99e/195.5/wphact24_cc_195.5_80.4_201075.xsdst ! RUN = 201075 ! NEVT = 2000
FILE = /castor/cern.ch/delphi/MCprod/cern/wphact24/v99e/195.5/wphact24_cc_195.5_80.4_201076.xsdst ! RUN = 201076 ! NEVT = 1998
FILE = /castor/cern.ch/delphi/MCprod/cern/wphact24/v99e/195.5/wphact24_cc_195.5_80.4_201077.xsdst ! RUN = 201077 ! NEVT = 2000
FILE = /castor/cern.ch/delphi/MCprod/cern/wphact24/v99e/195.5/wphact24_cc_195.5_80.4_201078.xsdst ! RUN = 201078 ! NEVT = 2000
FILE = /castor/cern.ch/delphi/MCprod/cern/wphact24/v99e/195.5/wphact24_cc_195.5_80.4_201079.xsdst ! RUN = 201079 ! NEVT = 1999
FILE = /castor/cern.ch/delphi/MCprod/cern/wphact24/v99e/195.5/wphact24_cc_195.5_80.4_201080.xsdst ! RUN = 201080 ! NEVT = 1998
FILE = /castor/cern.ch/delphi/MCprod/cern/wphact24/v99e/195.5/wphact24_cc_195.5_80.4_201081.xsdst ! RUN = 201081 ! NEVT = 2000
FILE = /castor/cern.ch/delphi/MCprod/cern/wphact24/v99e/195.5/wphact24_cc_195.5_80.4_201082.xsdst ! RUN = 201082 ! NEVT = 2000
FILE = /castor/cern.ch/delphi/MCprod/cern/wphact24/v99e/195.5/wphact24_cc_195.5_80.4_201083.xsdst ! RUN = 201083 ! NEVT = 1998
FILE = /castor/cern.ch/delphi/MCprod/cern/wphact24/v99e/195.5/wphact24_cc_195.5_80.4_201084.xsdst ! RUN = 201084 ! NEVT = 1999
FILE = /castor/cern.ch/delphi/MCprod/cern/wphact24/v99e/195.5/wphact24_cc_195.5_80.4_201085.xsdst ! RUN = 201085 ! NEVT = 2000
FILE = /castor/cern.ch/delphi/MCprod/cern/wphact24/v99e/195.5/wphact24_cc_195.5_80.4_201086.xsdst ! RUN = 201086 ! NEVT = 1997
FILE = /castor/cern.ch/delphi/MCprod/cern/wphact24/v99e/195.5/wphact24_cc_195.5_80.4_201087.xsdst ! RUN = 201087 ! NEVT = 2000
FILE = /castor/cern.ch/delphi/MCprod/cern/wphact24/v99e/195.5/wphact24_cc_195.5_80.4_201088.xsdst ! RUN = 201088 ! NEVT = 1999
FILE = /castor/cern.ch/delphi/MCprod/cern/wphact24/v99e/195.5/wphact24_cc_195.5_80.4_201089.xsdst ! RUN = 201089 ! NEVT = 2000
FILE = /castor/cern.ch/delphi/MCprod/cern/wphact24/v99e/195.5/wphact24_cc_195.5_80.4_201090.xsdst ! RUN = 201090 ! NEVT = 1997
FILE = /castor/cern.ch/delphi/MCprod/cern/wphact24/v99e/195.5/wphact24_cc_195.5_80.4_201091.xsdst ! RUN = 201091 ! NEVT = 1999
FILE = /castor/cern.ch/delphi/MCprod/cern/wphact24/v99e/195.5/wphact24_cc_195.5_80.4_201092.xsdst ! RUN = 201092 ! NEVT = 2000
FILE = /castor/cern.ch/delphi/MCprod/cern/wphact24/v99e/195.5/wphact24_cc_195.5_80.4_201093.xsdst ! RUN = 201093 ! NEVT = 1999
FILE = /castor/cern.ch/delphi/MCprod/cern/wphact24/v99e/195.5/wphact24_cc_195.5_80.4_201094.xsdst ! RUN = 201094 ! NEVT = 1999
FILE = /castor/cern.ch/delphi/MCprod/cern/wphact24/v99e/195.5/wphact24_cc_195.5_80.4_201095.xsdst ! RUN = 201095 ! NEVT = 2000
FILE = /castor/cern.ch/delphi/MCprod/cern/wphact24/v99e/195.5/wphact24_cc_195.5_80.4_201096.xsdst ! RUN = 201096 ! NEVT = 1999
FILE = /castor/cern.ch/delphi/MCprod/cern/wphact24/v99e/195.5/wphact24_cc_195.5_80.4_201097.xsdst ! RUN = 201097 ! NEVT = 2000
FILE = /castor/cern.ch/delphi/MCprod/cern/wphact24/v99e/195.5/wphact24_cc_195.5_80.4_201098.xsdst ! RUN = 201098 ! NEVT = 1997
FILE = /castor/cern.ch/delphi/MCprod/cern/wphact24/v99e/195.5/wphact24_cc_195.5_80.4_201099.xsdst ! RUN = 201099 ! NEVT = 2000
FILE = /castor/cern.ch/delphi/MCprod/cern/wphact24/v99e/195.5/wphact24_cc_195.5_80.4_201100.xsdst ! RUN = 201100 ! NEVT = 2000
FILE = /castor/cern.ch/delphi/MCprod/cern/wphact24/v99e/195.5/wphact24_cc_195.5_80.4_201101.xsdst ! RUN = 201101 ! NEVT = 1998
FILE = /castor/cern.ch/delphi/MCprod/cern/wphact24/v99e/195.5/wphact24_cc_195.5_80.4_201102.xsdst ! RUN = 201102 ! NEVT = 1997
FILE = /castor/cern.ch/delphi/MCprod/cern/wphact24/v99e/195.5/wphact24_cc_195.5_80.4_201103.xsdst ! RUN = 201103 ! NEVT = 1998
FILE = /castor/cern.ch/delphi/MCprod/cern/wphact24/v99e/195.5/wphact24_cc_195.5_80.4_201104.xsdst ! RUN = 201104 ! NEVT = 1999
FILE = /castor/cern.ch/delphi/MCprod/cern/wphact24/v99e/195.5/wphact24_cc_195.5_80.4_201105.xsdst ! RUN = 201105 ! NEVT = 1999
FILE = /castor/cern.ch/delphi/MCprod/cern/wphact24/v99e/195.5/wphact24_cc_195.5_80.4_201106.xsdst ! RUN = 201106 ! NEVT = 2000
FILE = /castor/cern.ch/delphi/MCprod/cern/wphact24/v99e/195.5/wphact24_cc_195.5_80.4_201107.xsdst ! RUN = 201107 ! NEVT = 2000
FILE = /castor/cern.ch/delphi/MCprod/cern/wphact24/v99e/195.5/wphact24_cc_195.5_80.4_201108.xsdst ! RUN = 201108 ! NEVT = 2000
FILE = /castor/cern.ch/delphi/MCprod/cern/wphact24/v99e/195.5/wphact24_cc_195.5_80.4_201109.xsdst ! RUN = 201109 ! NEVT = 1998
FILE = /castor/cern.ch/delphi/MCprod/cern/wphact24/v99e/195.5/wphact24_cc_195.5_80.4_201110.xsdst ! RUN = 201110 ! NEVT = 1999
FILE = /castor/cern.ch/delphi/MCprod/cern/wphact24/v99e/195.5/wphact24_cc_195.5_80.4_201111.xsdst ! RUN = 201111 ! NEVT = 1999
FILE = /castor/cern.ch/delphi/MCprod/cern/wphact24/v99e/195.5/wphact24_cc_195.5_80.4_201112.xsdst ! RUN = 201112 ! NEVT = 2000
FILE = /castor/cern.ch/delphi/MCprod/cern/wphact24/v99e/195.5/wphact24_cc_195.5_80.4_201113.xsdst ! RUN = 201113 ! NEVT = 2000
FILE = /castor/cern.ch/delphi/MCprod/cern/wphact24/v99e/195.5/wphact24_cc_195.5_80.4_201114.xsdst ! RUN = 201114 ! NEVT = 1999
FILE = /castor/cern.ch/delphi/MCprod/cern/wphact24/v99e/195.5/wphact24_cc_195.5_80.4_201115.xsdst ! RUN = 201115 ! NEVT = 2000
FILE = /castor/cern.ch/delphi/MCprod/cern/wphact24/v99e/195.5/wphact24_cc_195.5_80.4_201116.xsdst ! RUN = 201116 ! NEVT = 1999
FILE = /castor/cern.ch/delphi/MCprod/cern/wphact24/v99e/195.5/wphact24_cc_195.5_80.4_201117.xsdst ! RUN = 201117 ! NEVT = 2000
FILE = /castor/cern.ch/delphi/MCprod/cern/wphact24/v99e/195.5/wphact24_cc_195.5_80.4_201118.xsdst ! RUN = 201118 ! NEVT = 1999
FILE = /castor/cern.ch/delphi/MCprod/cern/wphact24/v99e/195.5/wphact24_cc_195.5_80.4_201119.xsdst ! RUN = 201119 ! NEVT = 1997
FILE = /castor/cern.ch/delphi/MCprod/cern/wphact24/v99e/195.5/wphact24_cc_195.5_80.4_201120.xsdst ! RUN = 201120 ! NEVT = 2000
FILE = /castor/cern.ch/delphi/MCprod/cern/wphact24/v99e/195.5/wphact24_cc_195.5_80.4_201121.xsdst ! RUN = 201121 ! NEVT = 1999
FILE = /castor/cern.ch/delphi/MCprod/cern/wphact24/v99e/195.5/wphact24_cc_195.5_80.4_201122.xsdst ! RUN = 201122 ! NEVT = 1999
FILE = /castor/cern.ch/delphi/MCprod/cern/wphact24/v99e/195.5/wphact24_cc_195.5_80.4_201123.xsdst ! RUN = 201123 ! NEVT = 1999
FILE = /castor/cern.ch/delphi/MCprod/cern/wphact24/v99e/195.5/wphact24_cc_195.5_80.4_201124.xsdst ! RUN = 201124 ! NEVT = 2000
FILE = /castor/cern.ch/delphi/MCprod/cern/wphact24/v99e/195.5/wphact24_cc_195.5_80.4_201125.xsdst ! RUN = 201125 ! NEVT = 2000
FILE = /castor/cern.ch/delphi/MCprod/cern/wphact24/v99e/195.5/wphact24_cc_195.5_80.4_201126.xsdst ! RUN = 201126 ! NEVT = 2000
FILE = /castor/cern.ch/delphi/MCprod/cern/wphact24/v99e/195.5/wphact24_cc_195.5_80.4_201127.xsdst ! RUN = 201127 ! NEVT = 1999
FILE = /castor/cern.ch/delphi/MCprod/cern/wphact24/v99e/195.5/wphact24_cc_195.5_80.4_201128.xsdst ! RUN = 201128 ! NEVT = 1999
FILE = /castor/cern.ch/delphi/MCprod/cern/wphact24/v99e/195.5/wphact24_cc_195.5_80.4_201129.xsdst ! RUN = 201129 ! NEVT = 1999
FILE = /castor/cern.ch/delphi/MCprod/cern/wphact24/v99e/195.5/wphact24_cc_195.5_80.4_201130.xsdst ! RUN = 201130 ! NEVT = 1999
FILE = /castor/cern.ch/delphi/MCprod/cern/wphact24/v99e/195.5/wphact24_cc_195.5_80.4_201131.xsdst ! RUN = 201131 ! NEVT = 1999
FILE = /castor/cern.ch/delphi/MCprod/cern/wphact24/v99e/195.5/wphact24_cc_195.5_80.4_201132.xsdst ! RUN = 201132 ! NEVT = 1998
FILE = /castor/cern.ch/delphi/MCprod/cern/wphact24/v99e/195.5/wphact24_cc_195.5_80.4_201133.xsdst ! RUN = 201133 ! NEVT = 2000
FILE = /castor/cern.ch/delphi/MCprod/cern/wphact24/v99e/195.5/wphact24_cc_195.5_80.4_201134.xsdst ! RUN = 201134 ! NEVT = 2000
FILE = /castor/cern.ch/delphi/MCprod/cern/wphact24/v99e/195.5/wphact24_cc_195.5_80.4_201135.xsdst ! RUN = 201135 ! NEVT = 2000
FILE = /castor/cern.ch/delphi/MCprod/cern/wphact24/v99e/195.5/wphact24_cc_195.5_80.4_201136.xsdst ! RUN = 201136 ! NEVT = 1998
FILE = /castor/cern.ch/delphi/MCprod/cern/wphact24/v99e/195.5/wphact24_cc_195.5_80.4_201137.xsdst ! RUN = 201137 ! NEVT = 2000
FILE = /castor/cern.ch/delphi/MCprod/cern/wphact24/v99e/195.5/wphact24_cc_195.5_80.4_201138.xsdst ! RUN = 201138 ! NEVT = 1999
FILE = /castor/cern.ch/delphi/MCprod/cern/wphact24/v99e/195.5/wphact24_cc_195.5_80.4_201139.xsdst ! RUN = 201139 ! NEVT = 2000
FILE = /castor/cern.ch/delphi/MCprod/cern/wphact24/v99e/195.5/wphact24_cc_195.5_80.4_201140.xsdst ! RUN = 201140 ! NEVT = 2000
FILE = /castor/cern.ch/delphi/MCprod/cern/wphact24/v99e/195.5/wphact24_cc_195.5_80.4_201141.xsdst ! RUN = 201141 ! NEVT = 2000
FILE = /castor/cern.ch/delphi/MCprod/cern/wphact24/v99e/195.5/wphact24_cc_195.5_80.4_201142.xsdst ! RUN = 201142 ! NEVT = 2000
FILE = /castor/cern.ch/delphi/MCprod/cern/wphact24/v99e/195.5/wphact24_cc_195.5_80.4_201143.xsdst ! RUN = 201143 ! NEVT = 2000
FILE = /castor/cern.ch/delphi/MCprod/cern/wphact24/v99e/195.5/wphact24_cc_195.5_80.4_201144.xsdst ! RUN = 201144 ! NEVT = 2000
FILE = /castor/cern.ch/delphi/MCprod/cern/wphact24/v99e/195.5/wphact24_cc_195.5_80.4_201145.xsdst ! RUN = 201145 ! NEVT = 1999
FILE = /castor/cern.ch/delphi/MCprod/cern/wphact24/v99e/195.5/wphact24_cc_195.5_80.4_201146.xsdst ! RUN = 201146 ! NEVT = 2000
FILE = /castor/cern.ch/delphi/MCprod/cern/wphact24/v99e/195.5/wphact24_cc_195.5_80.4_201147.xsdst ! RUN = 201147 ! NEVT = 2000
FILE = /castor/cern.ch/delphi/MCprod/cern/wphact24/v99e/195.5/wphact24_cc_195.5_80.4_201148.xsdst ! RUN = 201148 ! NEVT = 2000
FILE = /castor/cern.ch/delphi/MCprod/cern/wphact24/v99e/195.5/wphact24_cc_195.5_80.4_201149.xsdst ! RUN = 201149 ! NEVT = 2000
FILE = /castor/cern.ch/delphi/MCprod/cern/wphact24/v99e/195.5/wphact24_cc_195.5_80.4_201150.xsdst ! RUN = 201150 ! NEVT = 2000
FILE = /castor/cern.ch/delphi/MCprod/cern/wphact24/v99e/195.5/wphact24_cc_195.5_80.4_201151.xsdst ! RUN = 201151 ! NEVT = 1996
FILE = /castor/cern.ch/delphi/MCprod/cern/wphact24/v99e/195.5/wphact24_cc_195.5_80.4_201152.xsdst ! RUN = 201152 ! NEVT = 1998
FILE = /castor/cern.ch/delphi/MCprod/cern/wphact24/v99e/195.5/wphact24_cc_195.5_80.4_201153.xsdst ! RUN = 201153 ! NEVT = 1999
FILE = /castor/cern.ch/delphi/MCprod/cern/wphact24/v99e/195.5/wphact24_cc_195.5_80.4_201154.xsdst ! RUN = 201154 ! NEVT = 2000
FILE = /castor/cern.ch/delphi/MCprod/cern/wphact24/v99e/195.5/wphact24_cc_195.5_80.4_201155.xsdst ! RUN = 201155 ! NEVT = 2000
FILE = /castor/cern.ch/delphi/MCprod/cern/wphact24/v99e/195.5/wphact24_cc_195.5_80.4_201156.xsdst ! RUN = 201156 ! NEVT = 1999
FILE = /castor/cern.ch/delphi/MCprod/cern/wphact24/v99e/195.5/wphact24_cc_195.5_80.4_201157.xsdst ! RUN = 201157 ! NEVT = 2000
FILE = /castor/cern.ch/delphi/MCprod/cern/wphact24/v99e/195.5/wphact24_cc_195.5_80.4_201158.xsdst ! RUN = 201158 ! NEVT = 2000
FILE = /castor/cern.ch/delphi/MCprod/cern/wphact24/v99e/195.5/wphact24_cc_195.5_80.4_201159.xsdst ! RUN = 201159 ! NEVT = 1999
FILE = /castor/cern.ch/delphi/MCprod/cern/wphact24/v99e/195.5/wphact24_cc_195.5_80.4_201160.xsdst ! RUN = 201160 ! NEVT = 1999
FILE = /castor/cern.ch/delphi/MCprod/cern/wphact24/v99e/195.5/wphact24_cc_195.5_80.4_201161.xsdst ! RUN = 201161 ! NEVT = 1999
FILE = /castor/cern.ch/delphi/MCprod/cern/wphact24/v99e/195.5/wphact24_cc_195.5_80.4_201162.xsdst ! RUN = 201162 ! NEVT = 1998
FILE = /castor/cern.ch/delphi/MCprod/cern/wphact24/v99e/195.5/wphact24_cc_195.5_80.4_201163.xsdst ! RUN = 201163 ! NEVT = 1999
FILE = /castor/cern.ch/delphi/MCprod/cern/wphact24/v99e/195.5/wphact24_cc_195.5_80.4_201164.xsdst ! RUN = 201164 ! NEVT = 1996
FILE = /castor/cern.ch/delphi/MCprod/cern/wphact24/v99e/195.5/wphact24_cc_195.5_80.4_201165.xsdst ! RUN = 201165 ! NEVT = 2000
FILE = /castor/cern.ch/delphi/MCprod/cern/wphact24/v99e/195.5/wphact24_cc_195.5_80.4_201166.xsdst ! RUN = 201166 ! NEVT = 1999
FILE = /castor/cern.ch/delphi/MCprod/cern/wphact24/v99e/195.5/wphact24_cc_195.5_80.4_201167.xsdst ! RUN = 201167 ! NEVT = 1998
FILE = /castor/cern.ch/delphi/MCprod/cern/wphact24/v99e/195.5/wphact24_cc_195.5_80.4_201168.xsdst ! RUN = 201168 ! NEVT = 1998
FILE = /castor/cern.ch/delphi/MCprod/cern/wphact24/v99e/195.5/wphact24_cc_195.5_80.4_201169.xsdst ! RUN = 201169 ! NEVT = 1998
FILE = /castor/cern.ch/delphi/MCprod/cern/wphact24/v99e/195.5/wphact24_cc_195.5_80.4_201170.xsdst ! RUN = 201170 ! NEVT = 1998
FILE = /castor/cern.ch/delphi/MCprod/cern/wphact24/v99e/195.5/wphact24_cc_195.5_80.4_201171.xsdst ! RUN = 201171 ! NEVT = 2000
FILE = /castor/cern.ch/delphi/MCprod/cern/wphact24/v99e/195.5/wphact24_cc_195.5_80.4_201172.xsdst ! RUN = 201172 ! NEVT = 2000
FILE = /castor/cern.ch/delphi/MCprod/cern/wphact24/v99e/195.5/wphact24_cc_195.5_80.4_201173.xsdst ! RUN = 201173 ! NEVT = 1999
FILE = /castor/cern.ch/delphi/MCprod/cern/wphact24/v99e/195.5/wphact24_cc_195.5_80.4_201174.xsdst ! RUN = 201174 ! NEVT = 2000
FILE = /castor/cern.ch/delphi/MCprod/cern/wphact24/v99e/195.5/wphact24_cc_195.5_80.4_201175.xsdst ! RUN = 201175 ! NEVT = 2000
FILE = /castor/cern.ch/delphi/MCprod/cern/wphact24/v99e/195.5/wphact24_cc_195.5_80.4_201176.xsdst ! RUN = 201176 ! NEVT = 2000
FILE = /castor/cern.ch/delphi/MCprod/cern/wphact24/v99e/195.5/wphact24_cc_195.5_80.4_201177.xsdst ! RUN = 201177 ! NEVT = 1031
FILE = /castor/cern.ch/delphi/MCprod/cern/wphact24/v99e/195.5/wphact24_cc_195.5_80.4_201178.xsdst ! RUN = 201178 ! NEVT = 1997
FILE = /castor/cern.ch/delphi/MCprod/cern/wphact24/v99e/195.5/wphact24_cc_195.5_80.4_201179.xsdst ! RUN = 201179 ! NEVT = 2000
FILE = /castor/cern.ch/delphi/MCprod/cern/wphact24/v99e/195.5/wphact24_cc_195.5_80.4_201180.xsdst ! RUN = 201180 ! NEVT = 2000
FILE = /castor/cern.ch/delphi/MCprod/cern/wphact24/v99e/195.5/wphact24_cc_195.5_80.4_201181.xsdst ! RUN = 201181 ! NEVT = 2000
FILE = /castor/cern.ch/delphi/MCprod/cern/wphact24/v99e/195.5/wphact24_cc_195.5_80.4_201182.xsdst ! RUN = 201182 ! NEVT = 1999
FILE = /castor/cern.ch/delphi/MCprod/cern/wphact24/v99e/195.5/wphact24_cc_195.5_80.4_201183.xsdst ! RUN = 201183 ! NEVT = 1999
FILE = /castor/cern.ch/delphi/MCprod/cern/wphact24/v99e/195.5/wphact24_cc_195.5_80.4_201184.xsdst ! RUN = 201184 ! NEVT = 2000
FILE = /castor/cern.ch/delphi/MCprod/cern/wphact24/v99e/195.5/wphact24_cc_195.5_80.4_201185.xsdst ! RUN = 201185 ! NEVT = 2000
FILE = /castor/cern.ch/delphi/MCprod/cern/wphact24/v99e/195.5/wphact24_cc_195.5_80.4_201186.xsdst ! RUN = 201186 ! NEVT = 1999
FILE = /castor/cern.ch/delphi/MCprod/cern/wphact24/v99e/195.5/wphact24_cc_195.5_80.4_201187.xsdst ! RUN = 201187 ! NEVT = 1999
FILE = /castor/cern.ch/delphi/MCprod/cern/wphact24/v99e/195.5/wphact24_cc_195.5_80.4_201189.xsdst ! RUN = 201189 ! NEVT = 1999
FILE = /castor/cern.ch/delphi/MCprod/cern/wphact24/v99e/195.5/wphact24_cc_195.5_80.4_201190.xsdst ! RUN = 201190 ! NEVT = 1997
FILE = /castor/cern.ch/delphi/MCprod/cern/wphact24/v99e/195.5/wphact24_cc_195.5_80.4_201191.xsdst ! RUN = 201191 ! NEVT = 1999
FILE = /castor/cern.ch/delphi/MCprod/cern/wphact24/v99e/195.5/wphact24_cc_195.5_80.4_201192.xsdst ! RUN = 201192 ! NEVT = 1998
FILE = /castor/cern.ch/delphi/MCprod/cern/wphact24/v99e/195.5/wphact24_cc_195.5_80.4_201193.xsdst ! RUN = 201193 ! NEVT = 1999
FILE = /castor/cern.ch/delphi/MCprod/cern/wphact24/v99e/195.5/wphact24_cc_195.5_80.4_201194.xsdst ! RUN = 201194 ! NEVT = 2000
FILE = /castor/cern.ch/delphi/MCprod/cern/wphact24/v99e/195.5/wphact24_cc_195.5_80.4_201195.xsdst ! RUN = 201195 ! NEVT = 1998
FILE = /castor/cern.ch/delphi/MCprod/cern/wphact24/v99e/195.5/wphact24_cc_195.5_80.4_201196.xsdst ! RUN = 201196 ! NEVT = 1999
FILE = /castor/cern.ch/delphi/MCprod/cern/wphact24/v99e/195.5/wphact24_cc_195.5_80.4_201197.xsdst ! RUN = 201197 ! NEVT = 1998
FILE = /castor/cern.ch/delphi/MCprod/cern/wphact24/v99e/195.5/wphact24_cc_195.5_80.4_201198.xsdst ! RUN = 201198 ! NEVT = 1999
FILE = /castor/cern.ch/delphi/MCprod/cern/wphact24/v99e/195.5/wphact24_cc_195.5_80.4_201199.xsdst ! RUN = 201199 ! NEVT = 1998
FILE = /castor/cern.ch/delphi/MCprod/cern/wphact24/v99e/195.5/wphact24_cc_195.5_80.4_201200.xsdst ! RUN = 201200 ! NEVT = 1997
FILE = /castor/cern.ch/delphi/MCprod/cern/wphact24/v99e/195.5/wphact24_cc_195.5_80.4_201201.xsdst ! RUN = 201201 ! NEVT = 1999
FILE = /castor/cern.ch/delphi/MCprod/cern/wphact24/v99e/195.5/wphact24_cc_195.5_80.4_201202.xsdst ! RUN = 201202 ! NEVT = 1999
FILE = /castor/cern.ch/delphi/MCprod/cern/wphact24/v99e/195.5/wphact24_cc_195.5_80.4_201203.xsdst ! RUN = 201203 ! NEVT = 2000
FILE = /castor/cern.ch/delphi/MCprod/cern/wphact24/v99e/195.5/wphact24_cc_195.5_80.4_201204.xsdst ! RUN = 201204 ! NEVT = 2000
FILE = /castor/cern.ch/delphi/MCprod/cern/wphact24/v99e/195.5/wphact24_cc_195.5_80.4_201205.xsdst ! RUN = 201205 ! NEVT = 1999
FILE = /castor/cern.ch/delphi/MCprod/cern/wphact24/v99e/195.5/wphact24_cc_195.5_80.4_201206.xsdst ! RUN = 201206 ! NEVT = 1996
FILE = /castor/cern.ch/delphi/MCprod/cern/wphact24/v99e/195.5/wphact24_cc_195.5_80.4_201207.xsdst ! RUN = 201207 ! NEVT = 2000
FILE = /castor/cern.ch/delphi/MCprod/cern/wphact24/v99e/195.5/wphact24_cc_195.5_80.4_201208.xsdst ! RUN = 201208 ! NEVT = 1998
FILE = /castor/cern.ch/delphi/MCprod/cern/wphact24/v99e/195.5/wphact24_cc_195.5_80.4_201209.xsdst ! RUN = 201209 ! NEVT = 1999
FILE = /castor/cern.ch/delphi/MCprod/cern/wphact24/v99e/195.5/wphact24_cc_195.5_80.4_201210.xsdst ! RUN = 201210 ! NEVT = 893
FILE = /castor/cern.ch/delphi/MCprod/cern/wphact24/v99e/195.5/wphact24_cc_195.5_80.4_201211.xsdst ! RUN = 201211 ! NEVT = 1999
FILE = /castor/cern.ch/delphi/MCprod/cern/wphact24/v99e/195.5/wphact24_cc_195.5_80.4_201212.xsdst ! RUN = 201212 ! NEVT = 1999
FILE = /castor/cern.ch/delphi/MCprod/cern/wphact24/v99e/195.5/wphact24_cc_195.5_80.4_201213.xsdst ! RUN = 201213 ! NEVT = 1998
FILE = /castor/cern.ch/delphi/MCprod/cern/wphact24/v99e/195.5/wphact24_cc_195.5_80.4_201214.xsdst ! RUN = 201214 ! NEVT = 1999
FILE = /castor/cern.ch/delphi/MCprod/cern/wphact24/v99e/195.5/wphact24_cc_195.5_80.4_201215.xsdst ! RUN = 201215 ! NEVT = 1999
FILE = /castor/cern.ch/delphi/MCprod/cern/wphact24/v99e/195.5/wphact24_cc_195.5_80.4_201216.xsdst ! RUN = 201216 ! NEVT = 1999
FILE = /castor/cern.ch/delphi/MCprod/cern/wphact24/v99e/195.5/wphact24_cc_195.5_80.4_201217.xsdst ! RUN = 201217 ! NEVT = 2000
FILE = /castor/cern.ch/delphi/MCprod/cern/wphact24/v99e/195.5/wphact24_cc_195.5_80.4_201218.xsdst ! RUN = 201218 ! NEVT = 1999
FILE = /castor/cern.ch/delphi/MCprod/cern/wphact24/v99e/195.5/wphact24_cc_195.5_80.4_201219.xsdst ! RUN = 201219 ! NEVT = 1999
FILE = /castor/cern.ch/delphi/MCprod/cern/wphact24/v99e/195.5/wphact24_cc_195.5_80.4_201220.xsdst ! RUN = 201220 ! NEVT = 2000
FILE = /castor/cern.ch/delphi/MCprod/cern/wphact24/v99e/195.5/wphact24_cc_195.5_80.4_201221.xsdst ! RUN = 201221 ! NEVT = 2000
FILE = /castor/cern.ch/delphi/MCprod/cern/wphact24/v99e/195.5/wphact24_cc_195.5_80.4_201222.xsdst ! RUN = 201222 ! NEVT = 1999
FILE = /castor/cern.ch/delphi/MCprod/cern/wphact24/v99e/195.5/wphact24_cc_195.5_80.4_201223.xsdst ! RUN = 201223 ! NEVT = 1999
FILE = /castor/cern.ch/delphi/MCprod/cern/wphact24/v99e/195.5/wphact24_cc_195.5_80.4_201224.xsdst ! RUN = 201224 ! NEVT = 2000
FILE = /castor/cern.ch/delphi/MCprod/cern/wphact24/v99e/195.5/wphact24_cc_195.5_80.4_201225.xsdst ! RUN = 201225 ! NEVT = 2000
FILE = /castor/cern.ch/delphi/MCprod/cern/wphact24/v99e/195.5/wphact24_cc_195.5_80.4_201226.xsdst ! RUN = 201226 ! NEVT = 1999
FILE = /castor/cern.ch/delphi/MCprod/cern/wphact24/v99e/195.5/wphact24_cc_195.5_80.4_201227.xsdst ! RUN = 201227 ! NEVT = 2000
FILE = /castor/cern.ch/delphi/MCprod/cern/wphact24/v99e/195.5/wphact24_cc_195.5_80.4_201228.xsdst ! RUN = 201228 ! NEVT = 1999
FILE = /castor/cern.ch/delphi/MCprod/cern/wphact24/v99e/195.5/wphact24_cc_195.5_80.4_201229.xsdst ! RUN = 201229 ! NEVT = 1999
FILE = /castor/cern.ch/delphi/MCprod/cern/wphact24/v99e/195.5/wphact24_cc_195.5_80.4_201230.xsdst ! RUN = 201230 ! NEVT = 1998
FILE = /castor/cern.ch/delphi/MCprod/cern/wphact24/v99e/195.5/wphact24_cc_195.5_80.4_201231.xsdst ! RUN = 201231 ! NEVT = 2000
FILE = /castor/cern.ch/delphi/MCprod/cern/wphact24/v99e/195.5/wphact24_cc_195.5_80.4_201232.xsdst ! RUN = 201232 ! NEVT = 1999
FILE = /castor/cern.ch/delphi/MCprod/cern/wphact24/v99e/195.5/wphact24_cc_195.5_80.4_201233.xsdst ! RUN = 201233 ! NEVT = 2000
FILE = /castor/cern.ch/delphi/MCprod/cern/wphact24/v99e/195.5/wphact24_cc_195.5_80.4_201234.xsdst ! RUN = 201234 ! NEVT = 1999
FILE = /castor/cern.ch/delphi/MCprod/cern/wphact24/v99e/195.5/wphact24_cc_195.5_80.4_201235.xsdst ! RUN = 201235 ! NEVT = 1999
FILE = /castor/cern.ch/delphi/MCprod/cern/wphact24/v99e/195.5/wphact24_cc_195.5_80.4_201237.xsdst ! RUN = 201237 ! NEVT = 2000
FILE = /castor/cern.ch/delphi/MCprod/cern/wphact24/v99e/195.5/wphact24_cc_195.5_80.4_201238.xsdst ! RUN = 201238 ! NEVT = 2000
FILE = /castor/cern.ch/delphi/MCprod/cern/wphact24/v99e/195.5/wphact24_cc_195.5_80.4_201239.xsdst ! RUN = 201239 ! NEVT = 1998
FILE = /castor/cern.ch/delphi/MCprod/cern/wphact24/v99e/195.5/wphact24_cc_195.5_80.4_201240.xsdst ! RUN = 201240 ! NEVT = 2000
FILE = /castor/cern.ch/delphi/MCprod/cern/wphact24/v99e/195.5/wphact24_cc_195.5_80.4_201241.xsdst ! RUN = 201241 ! NEVT = 1999
FILE = /castor/cern.ch/delphi/MCprod/cern/wphact24/v99e/195.5/wphact24_cc_195.5_80.4_201242.xsdst ! RUN = 201242 ! NEVT = 1999
FILE = /castor/cern.ch/delphi/MCprod/cern/wphact24/v99e/195.5/wphact24_cc_195.5_80.4_201243.xsdst ! RUN = 201243 ! NEVT = 1999
FILE = /castor/cern.ch/delphi/MCprod/cern/wphact24/v99e/195.5/wphact24_cc_195.5_80.4_201244.xsdst ! RUN = 201244 ! NEVT = 2000
FILE = /castor/cern.ch/delphi/MCprod/cern/wphact24/v99e/195.5/wphact24_cc_195.5_80.4_201245.xsdst ! RUN = 201245 ! NEVT = 1999
FILE = /castor/cern.ch/delphi/MCprod/cern/wphact24/v99e/195.5/wphact24_cc_195.5_80.4_201246.xsdst ! RUN = 201246 ! NEVT = 2000
FILE = /castor/cern.ch/delphi/MCprod/cern/wphact24/v99e/195.5/wphact24_cc_195.5_80.4_201247.xsdst ! RUN = 201247 ! NEVT = 1998
FILE = /castor/cern.ch/delphi/MCprod/cern/wphact24/v99e/195.5/wphact24_cc_195.5_80.4_201248.xsdst ! RUN = 201248 ! NEVT = 2000
FILE = /castor/cern.ch/delphi/MCprod/cern/wphact24/v99e/195.5/wphact24_cc_195.5_80.4_201249.xsdst ! RUN = 201249 ! NEVT = 1999
FILE = /castor/cern.ch/delphi/MCprod/cern/wphact24/v99e/195.5/wphact24_cc_195.5_80.4_201251.xsdst ! RUN = 201251 ! NEVT = 1999
FILE = /castor/cern.ch/delphi/MCprod/cern/wphact24/v99e/195.5/wphact24_cc_195.5_80.4_201252.xsdst ! RUN = 201252 ! NEVT = 2000
FILE = /castor/cern.ch/delphi/MCprod/cern/wphact24/v99e/195.5/wphact24_cc_195.5_80.4_201253.xsdst ! RUN = 201253 ! NEVT = 1999
FILE = /castor/cern.ch/delphi/MCprod/cern/wphact24/v99e/195.5/wphact24_cc_195.5_80.4_201254.xsdst ! RUN = 201254 ! NEVT = 2000
FILE = /castor/cern.ch/delphi/MCprod/cern/wphact24/v99e/195.5/wphact24_cc_195.5_80.4_201255.xsdst ! RUN = 201255 ! NEVT = 2000
FILE = /castor/cern.ch/delphi/MCprod/cern/wphact24/v99e/195.5/wphact24_cc_195.5_80.4_201256.xsdst ! RUN = 201256 ! NEVT = 1999
FILE = /castor/cern.ch/delphi/MCprod/cern/wphact24/v99e/195.5/wphact24_cc_195.5_80.4_201257.xsdst ! RUN = 201257 ! NEVT = 2000
FILE = /castor/cern.ch/delphi/MCprod/cern/wphact24/v99e/195.5/wphact24_cc_195.5_80.4_201258.xsdst ! RUN = 201258 ! NEVT = 2000
FILE = /castor/cern.ch/delphi/MCprod/cern/wphact24/v99e/195.5/wphact24_cc_195.5_80.4_201259.xsdst ! RUN = 201259 ! NEVT = 1997
FILE = /castor/cern.ch/delphi/MCprod/cern/wphact24/v99e/195.5/wphact24_cc_195.5_80.4_201260.xsdst ! RUN = 201260 ! NEVT = 1999
FILE = /castor/cern.ch/delphi/MCprod/cern/wphact24/v99e/195.5/wphact24_cc_195.5_80.4_201261.xsdst ! RUN = 201261 ! NEVT = 1998
FILE = /castor/cern.ch/delphi/MCprod/cern/wphact24/v99e/195.5/wphact24_cc_195.5_80.4_201262.xsdst ! RUN = 201262 ! NEVT = 1999
FILE = /castor/cern.ch/delphi/MCprod/cern/wphact24/v99e/195.5/wphact24_cc_195.5_80.4_201263.xsdst ! RUN = 201263 ! NEVT = 2000
FILE = /castor/cern.ch/delphi/MCprod/cern/wphact24/v99e/195.5/wphact24_cc_195.5_80.4_201264.xsdst ! RUN = 201264 ! NEVT = 1999
FILE = /castor/cern.ch/delphi/MCprod/cern/wphact24/v99e/195.5/wphact24_cc_195.5_80.4_201265.xsdst ! RUN = 201265 ! NEVT = 2000
FILE = /castor/cern.ch/delphi/MCprod/cern/wphact24/v99e/195.5/wphact24_cc_195.5_80.4_201266.xsdst ! RUN = 201266 ! NEVT = 1999
FILE = /castor/cern.ch/delphi/MCprod/cern/wphact24/v99e/195.5/wphact24_cc_195.5_80.4_201267.xsdst ! RUN = 201267 ! NEVT = 2000
FILE = /castor/cern.ch/delphi/MCprod/cern/wphact24/v99e/195.5/wphact24_cc_195.5_80.4_201268.xsdst ! RUN = 201268 ! NEVT = 2000
FILE = /castor/cern.ch/delphi/MCprod/cern/wphact24/v99e/195.5/wphact24_cc_195.5_80.4_201269.xsdst ! RUN = 201269 ! NEVT = 1999
FILE = /castor/cern.ch/delphi/MCprod/cern/wphact24/v99e/195.5/wphact24_cc_195.5_80.4_201270.xsdst ! RUN = 201270 ! NEVT = 1997
FILE = /castor/cern.ch/delphi/MCprod/cern/wphact24/v99e/195.5/wphact24_cc_195.5_80.4_201271.xsdst ! RUN = 201271 ! NEVT = 1999
FILE = /castor/cern.ch/delphi/MCprod/cern/wphact24/v99e/195.5/wphact24_cc_195.5_80.4_201272.xsdst ! RUN = 201272 ! NEVT = 1999
FILE = /castor/cern.ch/delphi/MCprod/cern/wphact24/v99e/195.5/wphact24_cc_195.5_80.4_201273.xsdst ! RUN = 201273 ! NEVT = 2000
FILE = /castor/cern.ch/delphi/MCprod/cern/wphact24/v99e/195.5/wphact24_cc_195.5_80.4_201274.xsdst ! RUN = 201274 ! NEVT = 1999
FILE = /castor/cern.ch/delphi/MCprod/cern/wphact24/v99e/195.5/wphact24_cc_195.5_80.4_201275.xsdst ! RUN = 201275 ! NEVT = 1998
FILE = /castor/cern.ch/delphi/MCprod/cern/wphact24/v99e/195.5/wphact24_cc_195.5_80.4_201276.xsdst ! RUN = 201276 ! NEVT = 1999
FILE = /castor/cern.ch/delphi/MCprod/cern/wphact24/v99e/195.5/wphact24_cc_195.5_80.4_201277.xsdst ! RUN = 201277 ! NEVT = 2000
FILE = /castor/cern.ch/delphi/MCprod/cern/wphact24/v99e/195.5/wphact24_cc_195.5_80.4_201278.xsdst ! RUN = 201278 ! NEVT = 1999
FILE = /castor/cern.ch/delphi/MCprod/cern/wphact24/v99e/195.5/wphact24_cc_195.5_80.4_201279.xsdst ! RUN = 201279 ! NEVT = 1615
FILE = /castor/cern.ch/delphi/MCprod/cern/wphact24/v99e/195.5/wphact24_cc_195.5_80.4_201280.xsdst ! RUN = 201280 ! NEVT = 1999
FILE = /castor/cern.ch/delphi/MCprod/cern/wphact24/v99e/195.5/wphact24_cc_195.5_80.4_201281.xsdst ! RUN = 201281 ! NEVT = 1998
FILE = /castor/cern.ch/delphi/MCprod/cern/wphact24/v99e/195.5/wphact24_cc_195.5_80.4_201282.xsdst ! RUN = 201282 ! NEVT = 2000
FILE = /castor/cern.ch/delphi/MCprod/cern/wphact24/v99e/195.5/wphact24_cc_195.5_80.4_201283.xsdst ! RUN = 201283 ! NEVT = 2000
FILE = /castor/cern.ch/delphi/MCprod/cern/wphact24/v99e/195.5/wphact24_cc_195.5_80.4_201284.xsdst ! RUN = 201284 ! NEVT = 1998
FILE = /castor/cern.ch/delphi/MCprod/cern/wphact24/v99e/195.5/wphact24_cc_195.5_80.4_201285.xsdst ! RUN = 201285 ! NEVT = 1999
FILE = /castor/cern.ch/delphi/MCprod/cern/wphact24/v99e/195.5/wphact24_cc_195.5_80.4_201286.xsdst ! RUN = 201286 ! NEVT = 1998
FILE = /castor/cern.ch/delphi/MCprod/cern/wphact24/v99e/195.5/wphact24_cc_195.5_80.4_201287.xsdst ! RUN = 201287 ! NEVT = 2000
FILE = /castor/cern.ch/delphi/MCprod/cern/wphact24/v99e/195.5/wphact24_cc_195.5_80.4_201288.xsdst ! RUN = 201288 ! NEVT = 2000
FILE = /castor/cern.ch/delphi/MCprod/cern/wphact24/v99e/195.5/wphact24_cc_195.5_80.4_201289.xsdst ! RUN = 201289 ! NEVT = 1999
FILE = /castor/cern.ch/delphi/MCprod/cern/wphact24/v99e/195.5/wphact24_cc_195.5_80.4_201290.xsdst ! RUN = 201290 ! NEVT = 1999
FILE = /castor/cern.ch/delphi/MCprod/cern/wphact24/v99e/195.5/wphact24_cc_195.5_80.4_201291.xsdst ! RUN = 201291 ! NEVT = 1999
FILE = /castor/cern.ch/delphi/MCprod/cern/wphact24/v99e/195.5/wphact24_cc_195.5_80.4_201292.xsdst ! RUN = 201292 ! NEVT = 2000
FILE = /castor/cern.ch/delphi/MCprod/cern/wphact24/v99e/195.5/wphact24_cc_195.5_80.4_201293.xsdst ! RUN = 201293 ! NEVT = 2000
FILE = /castor/cern.ch/delphi/MCprod/cern/wphact24/v99e/195.5/wphact24_cc_195.5_80.4_201294.xsdst ! RUN = 201294 ! NEVT = 2000
FILE = /castor/cern.ch/delphi/MCprod/cern/wphact24/v99e/195.5/wphact24_cc_195.5_80.4_201295.xsdst ! RUN = 201295 ! NEVT = 1999
FILE = /castor/cern.ch/delphi/MCprod/cern/wphact24/v99e/195.5/wphact24_cc_195.5_80.4_201296.xsdst ! RUN = 201296 ! NEVT = 1999
FILE = /castor/cern.ch/delphi/MCprod/cern/wphact24/v99e/195.5/wphact24_cc_195.5_80.4_201297.xsdst ! RUN = 201297 ! NEVT = 2000
FILE = /castor/cern.ch/delphi/MCprod/cern/wphact24/v99e/195.5/wphact24_cc_195.5_80.4_201298.xsdst ! RUN = 201298 ! NEVT = 1998
FILE = /castor/cern.ch/delphi/MCprod/cern/wphact24/v99e/195.5/wphact24_cc_195.5_80.4_201299.xsdst ! RUN = 201299 ! NEVT = 2000
FILE = /castor/cern.ch/delphi/MCprod/cern/wphact24/v99e/195.5/wphact24_cc_195.5_80.4_201300.xsdst ! RUN = 201300 ! NEVT = 1998
FILE = /castor/cern.ch/delphi/MCprod/cern/wphact24/v99e/195.5/wphact24_cc_195.5_80.4_201301.xsdst ! RUN = 201301 ! NEVT = 1999
FILE = /castor/cern.ch/delphi/MCprod/cern/wphact24/v99e/195.5/wphact24_cc_195.5_80.4_201302.xsdst ! RUN = 201302 ! NEVT = 1999
FILE = /castor/cern.ch/delphi/MCprod/cern/wphact24/v99e/195.5/wphact24_cc_195.5_80.4_201303.xsdst ! RUN = 201303 ! NEVT = 1999
FILE = /castor/cern.ch/delphi/MCprod/cern/wphact24/v99e/195.5/wphact24_cc_195.5_80.4_201304.xsdst ! RUN = 201304 ! NEVT = 2000
FILE = /castor/cern.ch/delphi/MCprod/cern/wphact24/v99e/195.5/wphact24_cc_195.5_80.4_201305.xsdst ! RUN = 201305 ! NEVT = 1998
FILE = /castor/cern.ch/delphi/MCprod/cern/wphact24/v99e/195.5/wphact24_cc_195.5_80.4_201306.xsdst ! RUN = 201306 ! NEVT = 2000
FILE = /castor/cern.ch/delphi/MCprod/cern/wphact24/v99e/195.5/wphact24_cc_195.5_80.4_201307.xsdst ! RUN = 201307 ! NEVT = 2000
FILE = /castor/cern.ch/delphi/MCprod/cern/wphact24/v99e/195.5/wphact24_cc_195.5_80.4_201308.xsdst ! RUN = 201308 ! NEVT = 2000
FILE = /castor/cern.ch/delphi/MCprod/cern/wphact24/v99e/195.5/wphact24_cc_195.5_80.4_201309.xsdst ! RUN = 201309 ! NEVT = 2000
FILE = /castor/cern.ch/delphi/MCprod/cern/wphact24/v99e/195.5/wphact24_cc_195.5_80.4_201310.xsdst ! RUN = 201310 ! NEVT = 1998
FILE = /castor/cern.ch/delphi/MCprod/cern/wphact24/v99e/195.5/wphact24_cc_195.5_80.4_201311.xsdst ! RUN = 201311 ! NEVT = 1999
FILE = /castor/cern.ch/delphi/MCprod/cern/wphact24/v99e/195.5/wphact24_cc_195.5_80.4_201312.xsdst ! RUN = 201312 ! NEVT = 2000
FILE = /castor/cern.ch/delphi/MCprod/cern/wphact24/v99e/195.5/wphact24_cc_195.5_80.4_201313.xsdst ! RUN = 201313 ! NEVT = 2000
FILE = /castor/cern.ch/delphi/MCprod/cern/wphact24/v99e/195.5/wphact24_cc_195.5_80.4_201314.xsdst ! RUN = 201314 ! NEVT = 2000
FILE = /castor/cern.ch/delphi/MCprod/cern/wphact24/v99e/195.5/wphact24_cc_195.5_80.4_201315.xsdst ! RUN = 201315 ! NEVT = 1999
FILE = /castor/cern.ch/delphi/MCprod/cern/wphact24/v99e/195.5/wphact24_cc_195.5_80.4_201316.xsdst ! RUN = 201316 ! NEVT = 1999
FILE = /castor/cern.ch/delphi/MCprod/cern/wphact24/v99e/195.5/wphact24_cc_195.5_80.4_201317.xsdst ! RUN = 201317 ! NEVT = 2000
FILE = /castor/cern.ch/delphi/MCprod/cern/wphact24/v99e/195.5/wphact24_cc_195.5_80.4_201318.xsdst ! RUN = 201318 ! NEVT = 2000
FILE = /castor/cern.ch/delphi/MCprod/cern/wphact24/v99e/195.5/wphact24_cc_195.5_80.4_201319.xsdst ! RUN = 201319 ! NEVT = 1999
FILE = /castor/cern.ch/delphi/MCprod/cern/wphact24/v99e/195.5/wphact24_cc_195.5_80.4_201320.xsdst ! RUN = 201320 ! NEVT = 1998
FILE = /castor/cern.ch/delphi/MCprod/cern/wphact24/v99e/195.5/wphact24_cc_195.5_80.4_201321.xsdst ! RUN = 201321 ! NEVT = 1999
FILE = /castor/cern.ch/delphi/MCprod/cern/wphact24/v99e/195.5/wphact24_cc_195.5_80.4_201322.xsdst ! RUN = 201322 ! NEVT = 1999
FILE = /castor/cern.ch/delphi/MCprod/cern/wphact24/v99e/195.5/wphact24_cc_195.5_80.4_201323.xsdst ! RUN = 201323 ! NEVT = 1999
FILE = /castor/cern.ch/delphi/MCprod/cern/wphact24/v99e/195.5/wphact24_cc_195.5_80.4_201324.xsdst ! RUN = 201324 ! NEVT = 1999
FILE = /castor/cern.ch/delphi/MCprod/cern/wphact24/v99e/195.5/wphact24_cc_195.5_80.4_201325.xsdst ! RUN = 201325 ! NEVT = 2000
FILE = /castor/cern.ch/delphi/MCprod/cern/wphact24/v99e/195.5/wphact24_cc_195.5_80.4_201326.xsdst ! RUN = 201326 ! NEVT = 2000
FILE = /castor/cern.ch/delphi/MCprod/cern/wphact24/v99e/195.5/wphact24_cc_195.5_80.4_201327.xsdst ! RUN = 201327 ! NEVT = 2000
FILE = /castor/cern.ch/delphi/MCprod/cern/wphact24/v99e/195.5/wphact24_cc_195.5_80.4_201328.xsdst ! RUN = 201328 ! NEVT = 2000
FILE = /castor/cern.ch/delphi/MCprod/cern/wphact24/v99e/195.5/wphact24_cc_195.5_80.4_201329.xsdst ! RUN = 201329 ! NEVT = 2000
FILE = /castor/cern.ch/delphi/MCprod/cern/wphact24/v99e/195.5/wphact24_cc_195.5_80.4_201330.xsdst ! RUN = 201330 ! NEVT = 2000
FILE = /castor/cern.ch/delphi/MCprod/cern/wphact24/v99e/195.5/wphact24_cc_195.5_80.4_201331.xsdst ! RUN = 201331 ! NEVT = 1998
FILE = /castor/cern.ch/delphi/MCprod/cern/wphact24/v99e/195.5/wphact24_cc_195.5_80.4_201332.xsdst ! RUN = 201332 ! NEVT = 1999
FILE = /castor/cern.ch/delphi/MCprod/cern/wphact24/v99e/195.5/wphact24_cc_195.5_80.4_201333.xsdst ! RUN = 201333 ! NEVT = 1999
FILE = /castor/cern.ch/delphi/MCprod/cern/wphact24/v99e/195.5/wphact24_cc_195.5_80.4_201334.xsdst ! RUN = 201334 ! NEVT = 1999
FILE = /castor/cern.ch/delphi/MCprod/cern/wphact24/v99e/195.5/wphact24_cc_195.5_80.4_201335.xsdst ! RUN = 201335 ! NEVT = 5
FILE = /castor/cern.ch/delphi/MCprod/cern/wphact24/v99e/195.5/wphact24_cc_195.5_80.4_201336.xsdst ! RUN = 201336 ! NEVT = 1999
FILE = /castor/cern.ch/delphi/MCprod/cern/wphact24/v99e/195.5/wphact24_cc_195.5_80.4_201337.xsdst ! RUN = 201337 ! NEVT = 1999
FILE = /castor/cern.ch/delphi/MCprod/cern/wphact24/v99e/195.5/wphact24_cc_195.5_80.4_201338.xsdst ! RUN = 201338 ! NEVT = 2000
FILE = /castor/cern.ch/delphi/MCprod/cern/wphact24/v99e/195.5/wphact24_cc_195.5_80.4_201339.xsdst ! RUN = 201339 ! NEVT = 1998
FILE = /castor/cern.ch/delphi/MCprod/cern/wphact24/v99e/195.5/wphact24_cc_195.5_80.4_201340.xsdst ! RUN = 201340 ! NEVT = 1999
FILE = /castor/cern.ch/delphi/MCprod/cern/wphact24/v99e/195.5/wphact24_cc_195.5_80.4_201341.xsdst ! RUN = 201341 ! NEVT = 2000
FILE = /castor/cern.ch/delphi/MCprod/cern/wphact24/v99e/195.5/wphact24_cc_195.5_80.4_201342.xsdst ! RUN = 201342 ! NEVT = 1999
FILE = /castor/cern.ch/delphi/MCprod/cern/wphact24/v99e/195.5/wphact24_cc_195.5_80.4_201343.xsdst ! RUN = 201343 ! NEVT = 2000
FILE = /castor/cern.ch/delphi/MCprod/cern/wphact24/v99e/195.5/wphact24_cc_195.5_80.4_201344.xsdst ! RUN = 201344 ! NEVT = 1999
FILE = /castor/cern.ch/delphi/MCprod/cern/wphact24/v99e/195.5/wphact24_cc_195.5_80.4_201345.xsdst ! RUN = 201345 ! NEVT = 2000
FILE = /castor/cern.ch/delphi/MCprod/cern/wphact24/v99e/195.5/wphact24_cc_195.5_80.4_201346.xsdst ! RUN = 201346 ! NEVT = 2000
FILE = /castor/cern.ch/delphi/MCprod/cern/wphact24/v99e/195.5/wphact24_cc_195.5_80.4_201347.xsdst ! RUN = 201347 ! NEVT = 1998
FILE = /castor/cern.ch/delphi/MCprod/cern/wphact24/v99e/195.5/wphact24_cc_195.5_80.4_201348.xsdst ! RUN = 201348 ! NEVT = 1998
FILE = /castor/cern.ch/delphi/MCprod/cern/wphact24/v99e/195.5/wphact24_cc_195.5_80.4_201349.xsdst ! RUN = 201349 ! NEVT = 2000
FILE = /castor/cern.ch/delphi/MCprod/cern/wphact24/v99e/195.5/wphact24_cc_195.5_80.4_201350.xsdst ! RUN = 201350 ! NEVT = 2000
FILE = /castor/cern.ch/delphi/MCprod/cern/wphact24/v99e/195.5/wphact24_cc_195.5_80.4_201351.xsdst ! RUN = 201351 ! NEVT = 1999
FILE = /castor/cern.ch/delphi/MCprod/cern/wphact24/v99e/195.5/wphact24_cc_195.5_80.4_201352.xsdst ! RUN = 201352 ! NEVT = 1999
FILE = /castor/cern.ch/delphi/MCprod/cern/wphact24/v99e/195.5/wphact24_cc_195.5_80.4_201353.xsdst ! RUN = 201353 ! NEVT = 1999
FILE = /castor/cern.ch/delphi/MCprod/cern/wphact24/v99e/195.5/wphact24_cc_195.5_80.4_201354.xsdst ! RUN = 201354 ! NEVT = 1999
FILE = /castor/cern.ch/delphi/MCprod/cern/wphact24/v99e/195.5/wphact24_cc_195.5_80.4_201355.xsdst ! RUN = 201355 ! NEVT = 1998
FILE = /castor/cern.ch/delphi/MCprod/cern/wphact24/v99e/195.5/wphact24_cc_195.5_80.4_201356.xsdst ! RUN = 201356 ! NEVT = 1998
FILE = /castor/cern.ch/delphi/MCprod/cern/wphact24/v99e/195.5/wphact24_cc_195.5_80.4_201357.xsdst ! RUN = 201357 ! NEVT = 2000
FILE = /castor/cern.ch/delphi/MCprod/cern/wphact24/v99e/195.5/wphact24_cc_195.5_80.4_201358.xsdst ! RUN = 201358 ! NEVT = 1998
FILE = /castor/cern.ch/delphi/MCprod/cern/wphact24/v99e/195.5/wphact24_cc_195.5_80.4_201359.xsdst ! RUN = 201359 ! NEVT = 1997
FILE = /castor/cern.ch/delphi/MCprod/cern/wphact24/v99e/195.5/wphact24_cc_195.5_80.4_201360.xsdst ! RUN = 201360 ! NEVT = 2000
FILE = /castor/cern.ch/delphi/MCprod/cern/wphact24/v99e/195.5/wphact24_cc_195.5_80.4_201361.xsdst ! RUN = 201361 ! NEVT = 2000
FILE = /castor/cern.ch/delphi/MCprod/cern/wphact24/v99e/195.5/wphact24_cc_195.5_80.4_201363.xsdst ! RUN = 201363 ! NEVT = 1997
FILE = /castor/cern.ch/delphi/MCprod/cern/wphact24/v99e/195.5/wphact24_cc_195.5_80.4_201364.xsdst ! RUN = 201364 ! NEVT = 2000
FILE = /castor/cern.ch/delphi/MCprod/cern/wphact24/v99e/195.5/wphact24_cc_195.5_80.4_201365.xsdst ! RUN = 201365 ! NEVT = 2000
FILE = /castor/cern.ch/delphi/MCprod/cern/wphact24/v99e/195.5/wphact24_cc_195.5_80.4_201366.xsdst ! RUN = 201366 ! NEVT = 1999
FILE = /castor/cern.ch/delphi/MCprod/cern/wphact24/v99e/195.5/wphact24_cc_195.5_80.4_201367.xsdst ! RUN = 201367 ! NEVT = 1999
FILE = /castor/cern.ch/delphi/MCprod/cern/wphact24/v99e/195.5/wphact24_cc_195.5_80.4_201368.xsdst ! RUN = 201368 ! NEVT = 2000
FILE = /castor/cern.ch/delphi/MCprod/cern/wphact24/v99e/195.5/wphact24_cc_195.5_80.4_201369.xsdst ! RUN = 201369 ! NEVT = 2000
FILE = /castor/cern.ch/delphi/MCprod/cern/wphact24/v99e/195.5/wphact24_cc_195.5_80.4_201370.xsdst ! RUN = 201370 ! NEVT = 1998
FILE = /castor/cern.ch/delphi/MCprod/cern/wphact24/v99e/195.5/wphact24_cc_195.5_80.4_201371.xsdst ! RUN = 201371 ! NEVT = 1999
FILE = /castor/cern.ch/delphi/MCprod/cern/wphact24/v99e/195.5/wphact24_cc_195.5_80.4_201373.xsdst ! RUN = 201373 ! NEVT = 1998
FILE = /castor/cern.ch/delphi/MCprod/cern/wphact24/v99e/195.5/wphact24_cc_195.5_80.4_201374.xsdst ! RUN = 201374 ! NEVT = 1999
FILE = /castor/cern.ch/delphi/MCprod/cern/wphact24/v99e/195.5/wphact24_cc_195.5_80.4_201375.xsdst ! RUN = 201375 ! NEVT = 2000
FILE = /castor/cern.ch/delphi/MCprod/cern/wphact24/v99e/195.5/wphact24_cc_195.5_80.4_201376.xsdst ! RUN = 201376 ! NEVT = 1999
FILE = /castor/cern.ch/delphi/MCprod/cern/wphact24/v99e/195.5/wphact24_cc_195.5_80.4_201377.xsdst ! RUN = 201377 ! NEVT = 1999
FILE = /castor/cern.ch/delphi/MCprod/cern/wphact24/v99e/195.5/wphact24_cc_195.5_80.4_201378.xsdst ! RUN = 201378 ! NEVT = 1998
FILE = /castor/cern.ch/delphi/MCprod/cern/wphact24/v99e/195.5/wphact24_cc_195.5_80.4_201379.xsdst ! RUN = 201379 ! NEVT = 1998
FILE = /castor/cern.ch/delphi/MCprod/cern/wphact24/v99e/195.5/wphact24_cc_195.5_80.4_201380.xsdst ! RUN = 201380 ! NEVT = 1997
FILE = /castor/cern.ch/delphi/MCprod/cern/wphact24/v99e/195.5/wphact24_cc_195.5_80.4_201381.xsdst ! RUN = 201381 ! NEVT = 2000
FILE = /castor/cern.ch/delphi/MCprod/cern/wphact24/v99e/195.5/wphact24_cc_195.5_80.4_201382.xsdst ! RUN = 201382 ! NEVT = 1999
FILE = /castor/cern.ch/delphi/MCprod/cern/wphact24/v99e/195.5/wphact24_cc_195.5_80.4_201383.xsdst ! RUN = 201383 ! NEVT = 1998
FILE = /castor/cern.ch/delphi/MCprod/cern/wphact24/v99e/195.5/wphact24_cc_195.5_80.4_201384.xsdst ! RUN = 201384 ! NEVT = 1998
FILE = /castor/cern.ch/delphi/MCprod/cern/wphact24/v99e/195.5/wphact24_cc_195.5_80.4_201385.xsdst ! RUN = 201385 ! NEVT = 1999
FILE = /castor/cern.ch/delphi/MCprod/cern/wphact24/v99e/195.5/wphact24_cc_195.5_80.4_201386.xsdst ! RUN = 201386 ! NEVT = 1998
FILE = /castor/cern.ch/delphi/MCprod/cern/wphact24/v99e/195.5/wphact24_cc_195.5_80.4_201387.xsdst ! RUN = 201387 ! NEVT = 1998
FILE = /castor/cern.ch/delphi/MCprod/cern/wphact24/v99e/195.5/wphact24_cc_195.5_80.4_201388.xsdst ! RUN = 201388 ! NEVT = 2000
FILE = /castor/cern.ch/delphi/MCprod/cern/wphact24/v99e/195.5/wphact24_cc_195.5_80.4_201389.xsdst ! RUN = 201389 ! NEVT = 1158
FILE = /castor/cern.ch/delphi/MCprod/cern/wphact24/v99e/195.5/wphact24_cc_195.5_80.4_201390.xsdst ! RUN = 201390 ! NEVT = 1999
FILE = /castor/cern.ch/delphi/MCprod/cern/wphact24/v99e/195.5/wphact24_cc_195.5_80.4_201391.xsdst ! RUN = 201391 ! NEVT = 1999
FILE = /castor/cern.ch/delphi/MCprod/cern/wphact24/v99e/195.5/wphact24_cc_195.5_80.4_201392.xsdst ! RUN = 201392 ! NEVT = 1999
FILE = /castor/cern.ch/delphi/MCprod/cern/wphact24/v99e/195.5/wphact24_cc_195.5_80.4_201393.xsdst ! RUN = 201393 ! NEVT = 2000
FILE = /castor/cern.ch/delphi/MCprod/cern/wphact24/v99e/195.5/wphact24_cc_195.5_80.4_201394.xsdst ! RUN = 201394 ! NEVT = 2000
FILE = /castor/cern.ch/delphi/MCprod/cern/wphact24/v99e/195.5/wphact24_cc_195.5_80.4_201395.xsdst ! RUN = 201395 ! NEVT = 2000
FILE = /castor/cern.ch/delphi/MCprod/cern/wphact24/v99e/195.5/wphact24_cc_195.5_80.4_201396.xsdst ! RUN = 201396 ! NEVT = 1999
FILE = /castor/cern.ch/delphi/MCprod/cern/wphact24/v99e/195.5/wphact24_cc_195.5_80.4_201397.xsdst ! RUN = 201397 ! NEVT = 2000
FILE = /castor/cern.ch/delphi/MCprod/cern/wphact24/v99e/195.5/wphact24_cc_195.5_80.4_201398.xsdst ! RUN = 201398 ! NEVT = 2000
FILE = /castor/cern.ch/delphi/MCprod/cern/wphact24/v99e/195.5/wphact24_cc_195.5_80.4_201399.xsdst ! RUN = 201399 ! NEVT = 1997
FILE = /castor/cern.ch/delphi/MCprod/cern/wphact24/v99e/195.5/wphact24_cc_195.5_80.4_201400.xsdst ! RUN = 201400 ! NEVT = 1997
FILE = /castor/cern.ch/delphi/MCprod/cern/wphact24/v99e/195.5/wphact24_cc_195.5_80.4_201401.xsdst ! RUN = 201401 ! NEVT = 1999
FILE = /castor/cern.ch/delphi/MCprod/cern/wphact24/v99e/195.5/wphact24_cc_195.5_80.4_201402.xsdst ! RUN = 201402 ! NEVT = 1999
FILE = /castor/cern.ch/delphi/MCprod/cern/wphact24/v99e/195.5/wphact24_cc_195.5_80.4_201403.xsdst ! RUN = 201403 ! NEVT = 1998
FILE = /castor/cern.ch/delphi/MCprod/cern/wphact24/v99e/195.5/wphact24_cc_195.5_80.4_201404.xsdst ! RUN = 201404 ! NEVT = 2000
FILE = /castor/cern.ch/delphi/MCprod/cern/wphact24/v99e/195.5/wphact24_cc_195.5_80.4_201405.xsdst ! RUN = 201405 ! NEVT = 2000
FILE = /castor/cern.ch/delphi/MCprod/cern/wphact24/v99e/195.5/wphact24_cc_195.5_80.4_201406.xsdst ! RUN = 201406 ! NEVT = 1999
FILE = /castor/cern.ch/delphi/MCprod/cern/wphact24/v99e/195.5/wphact24_cc_195.5_80.4_201407.xsdst ! RUN = 201407 ! NEVT = 1999
FILE = /castor/cern.ch/delphi/MCprod/cern/wphact24/v99e/195.5/wphact24_cc_195.5_80.4_201408.xsdst ! RUN = 201408 ! NEVT = 2000
FILE = /castor/cern.ch/delphi/MCprod/cern/wphact24/v99e/195.5/wphact24_cc_195.5_80.4_201409.xsdst ! RUN = 201409 ! NEVT = 1996
FILE = /castor/cern.ch/delphi/MCprod/cern/wphact24/v99e/195.5/wphact24_cc_195.5_80.4_201410.xsdst ! RUN = 201410 ! NEVT = 2000
FILE = /castor/cern.ch/delphi/MCprod/cern/wphact24/v99e/195.5/wphact24_cc_195.5_80.4_201411.xsdst ! RUN = 201411 ! NEVT = 2000
FILE = /castor/cern.ch/delphi/MCprod/cern/wphact24/v99e/195.5/wphact24_cc_195.5_80.4_201412.xsdst ! RUN = 201412 ! NEVT = 2000
FILE = /castor/cern.ch/delphi/MCprod/cern/wphact24/v99e/195.5/wphact24_cc_195.5_80.4_201413.xsdst ! RUN = 201413 ! NEVT = 2000
FILE = /castor/cern.ch/delphi/MCprod/cern/wphact24/v99e/195.5/wphact24_cc_195.5_80.4_201414.xsdst ! RUN = 201414 ! NEVT = 1998
FILE = /castor/cern.ch/delphi/MCprod/cern/wphact24/v99e/195.5/wphact24_cc_195.5_80.4_201415.xsdst ! RUN = 201415 ! NEVT = 2000
FILE = /castor/cern.ch/delphi/MCprod/cern/wphact24/v99e/195.5/wphact24_cc_195.5_80.4_201416.xsdst ! RUN = 201416 ! NEVT = 2000
FILE = /castor/cern.ch/delphi/MCprod/cern/wphact24/v99e/195.5/wphact24_cc_195.5_80.4_201417.xsdst ! RUN = 201417 ! NEVT = 1998
FILE = /castor/cern.ch/delphi/MCprod/cern/wphact24/v99e/195.5/wphact24_cc_195.5_80.4_201418.xsdst ! RUN = 201418 ! NEVT = 2000
FILE = /castor/cern.ch/delphi/MCprod/cern/wphact24/v99e/195.5/wphact24_cc_195.5_80.4_201419.xsdst ! RUN = 201419 ! NEVT = 1999
FILE = /castor/cern.ch/delphi/MCprod/cern/wphact24/v99e/195.5/wphact24_cc_195.5_80.4_201420.xsdst ! RUN = 201420 ! NEVT = 2000
FILE = /castor/cern.ch/delphi/MCprod/cern/wphact24/v99e/195.5/wphact24_cc_195.5_80.4_201421.xsdst ! RUN = 201421 ! NEVT = 2000
FILE = /castor/cern.ch/delphi/MCprod/cern/wphact24/v99e/195.5/wphact24_cc_195.5_80.4_201422.xsdst ! RUN = 201422 ! NEVT = 1999
FILE = /castor/cern.ch/delphi/MCprod/cern/wphact24/v99e/195.5/wphact24_cc_195.5_80.4_201423.xsdst ! RUN = 201423 ! NEVT = 1999
FILE = /castor/cern.ch/delphi/MCprod/cern/wphact24/v99e/195.5/wphact24_cc_195.5_80.4_201424.xsdst ! RUN = 201424 ! NEVT = 2000
FILE = /castor/cern.ch/delphi/MCprod/cern/wphact24/v99e/195.5/wphact24_cc_195.5_80.4_201425.xsdst ! RUN = 201425 ! NEVT = 2000
FILE = /castor/cern.ch/delphi/MCprod/cern/wphact24/v99e/195.5/wphact24_cc_195.5_80.4_201426.xsdst ! RUN = 201426 ! NEVT = 2000
FILE = /castor/cern.ch/delphi/MCprod/cern/wphact24/v99e/195.5/wphact24_cc_195.5_80.4_201427.xsdst ! RUN = 201427 ! NEVT = 1999
FILE = /castor/cern.ch/delphi/MCprod/cern/wphact24/v99e/195.5/wphact24_cc_195.5_80.4_201428.xsdst ! RUN = 201428 ! NEVT = 1999
FILE = /castor/cern.ch/delphi/MCprod/cern/wphact24/v99e/195.5/wphact24_cc_195.5_80.4_201429.xsdst ! RUN = 201429 ! NEVT = 2000
FILE = /castor/cern.ch/delphi/MCprod/cern/wphact24/v99e/195.5/wphact24_cc_195.5_80.4_201430.xsdst ! RUN = 201430 ! NEVT = 1999
FILE = /castor/cern.ch/delphi/MCprod/cern/wphact24/v99e/195.5/wphact24_cc_195.5_80.4_201431.xsdst ! RUN = 201431 ! NEVT = 1999
FILE = /castor/cern.ch/delphi/MCprod/cern/wphact24/v99e/195.5/wphact24_cc_195.5_80.4_201432.xsdst ! RUN = 201432 ! NEVT = 1999
FILE = /castor/cern.ch/delphi/MCprod/cern/wphact24/v99e/195.5/wphact24_cc_195.5_80.4_201433.xsdst ! RUN = 201433 ! NEVT = 1999
FILE = /castor/cern.ch/delphi/MCprod/cern/wphact24/v99e/195.5/wphact24_cc_195.5_80.4_201434.xsdst ! RUN = 201434 ! NEVT = 1999
FILE = /castor/cern.ch/delphi/MCprod/cern/wphact24/v99e/195.5/wphact24_cc_195.5_80.4_201435.xsdst ! RUN = 201435 ! NEVT = 1999
FILE = /castor/cern.ch/delphi/MCprod/cern/wphact24/v99e/195.5/wphact24_cc_195.5_80.4_201436.xsdst ! RUN = 201436 ! NEVT = 2000
FILE = /castor/cern.ch/delphi/MCprod/cern/wphact24/v99e/195.5/wphact24_cc_195.5_80.4_201437.xsdst ! RUN = 201437 ! NEVT = 2000
FILE = /castor/cern.ch/delphi/MCprod/cern/wphact24/v99e/195.5/wphact24_cc_195.5_80.4_201438.xsdst ! RUN = 201438 ! NEVT = 1999
FILE = /castor/cern.ch/delphi/MCprod/cern/wphact24/v99e/195.5/wphact24_cc_195.5_80.4_201439.xsdst ! RUN = 201439 ! NEVT = 1998
FILE = /castor/cern.ch/delphi/MCprod/cern/wphact24/v99e/195.5/wphact24_cc_195.5_80.4_201440.xsdst ! RUN = 201440 ! NEVT = 1999
FILE = /castor/cern.ch/delphi/MCprod/cern/wphact24/v99e/195.5/wphact24_cc_195.5_80.4_201441.xsdst ! RUN = 201441 ! NEVT = 1998
FILE = /castor/cern.ch/delphi/MCprod/cern/wphact24/v99e/195.5/wphact24_cc_195.5_80.4_201442.xsdst ! RUN = 201442 ! NEVT = 1999
FILE = /castor/cern.ch/delphi/MCprod/cern/wphact24/v99e/195.5/wphact24_cc_195.5_80.4_201443.xsdst ! RUN = 201443 ! NEVT = 1999
FILE = /castor/cern.ch/delphi/MCprod/cern/wphact24/v99e/195.5/wphact24_cc_195.5_80.4_201444.xsdst ! RUN = 201444 ! NEVT = 2000
FILE = /castor/cern.ch/delphi/MCprod/cern/wphact24/v99e/195.5/wphact24_cc_195.5_80.4_201445.xsdst ! RUN = 201445 ! NEVT = 2000
FILE = /castor/cern.ch/delphi/MCprod/cern/wphact24/v99e/195.5/wphact24_cc_195.5_80.4_201446.xsdst ! RUN = 201446 ! NEVT = 1999
FILE = /castor/cern.ch/delphi/MCprod/cern/wphact24/v99e/195.5/wphact24_cc_195.5_80.4_201447.xsdst ! RUN = 201447 ! NEVT = 1999
FILE = /castor/cern.ch/delphi/MCprod/cern/wphact24/v99e/195.5/wphact24_cc_195.5_80.4_201448.xsdst ! RUN = 201448 ! NEVT = 2000
FILE = /castor/cern.ch/delphi/MCprod/cern/wphact24/v99e/195.5/wphact24_cc_195.5_80.4_201449.xsdst ! RUN = 201449 ! NEVT = 2000
FILE = /castor/cern.ch/delphi/MCprod/cern/wphact24/v99e/195.5/wphact24_cc_195.5_80.4_201450.xsdst ! RUN = 201450 ! NEVT = 1999
FILE = /castor/cern.ch/delphi/MCprod/cern/wphact24/v99e/195.5/wphact24_cc_195.5_80.4_201451.xsdst ! RUN = 201451 ! NEVT = 2000
FILE = /castor/cern.ch/delphi/MCprod/cern/wphact24/v99e/195.5/wphact24_cc_195.5_80.4_201452.xsdst ! RUN = 201452 ! NEVT = 2000
FILE = /castor/cern.ch/delphi/MCprod/cern/wphact24/v99e/195.5/wphact24_cc_195.5_80.4_201453.xsdst ! RUN = 201453 ! NEVT = 2000
FILE = /castor/cern.ch/delphi/MCprod/cern/wphact24/v99e/195.5/wphact24_cc_195.5_80.4_201454.xsdst ! RUN = 201454 ! NEVT = 2000
FILE = /castor/cern.ch/delphi/MCprod/cern/wphact24/v99e/195.5/wphact24_cc_195.5_80.4_201455.xsdst ! RUN = 201455 ! NEVT = 1999
FILE = /castor/cern.ch/delphi/MCprod/cern/wphact24/v99e/195.5/wphact24_cc_195.5_80.4_201456.xsdst ! RUN = 201456 ! NEVT = 2000
FILE = /castor/cern.ch/delphi/MCprod/cern/wphact24/v99e/195.5/wphact24_cc_195.5_80.4_201457.xsdst ! RUN = 201457 ! NEVT = 1999
FILE = /castor/cern.ch/delphi/MCprod/cern/wphact24/v99e/195.5/wphact24_cc_195.5_80.4_201458.xsdst ! RUN = 201458 ! NEVT = 1999
FILE = /castor/cern.ch/delphi/MCprod/cern/wphact24/v99e/195.5/wphact24_cc_195.5_80.4_201459.xsdst ! RUN = 201459 ! NEVT = 2000
FILE = /castor/cern.ch/delphi/MCprod/cern/wphact24/v99e/195.5/wphact24_cc_195.5_80.4_201460.xsdst ! RUN = 201460 ! NEVT = 1999
FILE = /castor/cern.ch/delphi/MCprod/cern/wphact24/v99e/195.5/wphact24_cc_195.5_80.4_201461.xsdst ! RUN = 201461 ! NEVT = 2000
FILE = /castor/cern.ch/delphi/MCprod/cern/wphact24/v99e/195.5/wphact24_cc_195.5_80.4_201462.xsdst ! RUN = 201462 ! NEVT = 1998
FILE = /castor/cern.ch/delphi/MCprod/cern/wphact24/v99e/195.5/wphact24_cc_195.5_80.4_201463.xsdst ! RUN = 201463 ! NEVT = 1998
FILE = /castor/cern.ch/delphi/MCprod/cern/wphact24/v99e/195.5/wphact24_cc_195.5_80.4_201464.xsdst ! RUN = 201464 ! NEVT = 1997
FILE = /castor/cern.ch/delphi/MCprod/cern/wphact24/v99e/195.5/wphact24_cc_195.5_80.4_201465.xsdst ! RUN = 201465 ! NEVT = 1998
FILE = /castor/cern.ch/delphi/MCprod/cern/wphact24/v99e/195.5/wphact24_cc_195.5_80.4_201466.xsdst ! RUN = 201466 ! NEVT = 2000
FILE = /castor/cern.ch/delphi/MCprod/cern/wphact24/v99e/195.5/wphact24_cc_195.5_80.4_201467.xsdst ! RUN = 201467 ! NEVT = 2000
FILE = /castor/cern.ch/delphi/MCprod/cern/wphact24/v99e/195.5/wphact24_cc_195.5_80.4_201468.xsdst ! RUN = 201468 ! NEVT = 2000
FILE = /castor/cern.ch/delphi/MCprod/cern/wphact24/v99e/195.5/wphact24_cc_195.5_80.4_201469.xsdst ! RUN = 201469 ! NEVT = 2000
FILE = /castor/cern.ch/delphi/MCprod/cern/wphact24/v99e/195.5/wphact24_cc_195.5_80.4_201470.xsdst ! RUN = 201470 ! NEVT = 2000
FILE = /castor/cern.ch/delphi/MCprod/cern/wphact24/v99e/195.5/wphact24_cc_195.5_80.4_201471.xsdst ! RUN = 201471 ! NEVT = 1999
FILE = /castor/cern.ch/delphi/MCprod/cern/wphact24/v99e/195.5/wphact24_cc_195.5_80.4_201472.xsdst ! RUN = 201472 ! NEVT = 2000
FILE = /castor/cern.ch/delphi/MCprod/cern/wphact24/v99e/195.5/wphact24_cc_195.5_80.4_201473.xsdst ! RUN = 201473 ! NEVT = 2000
FILE = /castor/cern.ch/delphi/MCprod/cern/wphact24/v99e/195.5/wphact24_cc_195.5_80.4_201474.xsdst ! RUN = 201474 ! NEVT = 1998
FILE = /castor/cern.ch/delphi/MCprod/cern/wphact24/v99e/195.5/wphact24_cc_195.5_80.4_201475.xsdst ! RUN = 201475 ! NEVT = 2000
FILE = /castor/cern.ch/delphi/MCprod/cern/wphact24/v99e/195.5/wphact24_cc_195.5_80.4_201476.xsdst ! RUN = 201476 ! NEVT = 1999
FILE = /castor/cern.ch/delphi/MCprod/cern/wphact24/v99e/195.5/wphact24_cc_195.5_80.4_201477.xsdst ! RUN = 201477 ! NEVT = 2000
FILE = /castor/cern.ch/delphi/MCprod/cern/wphact24/v99e/195.5/wphact24_cc_195.5_80.4_201478.xsdst ! RUN = 201478 ! NEVT = 2000
FILE = /castor/cern.ch/delphi/MCprod/cern/wphact24/v99e/195.5/wphact24_cc_195.5_80.4_201479.xsdst ! RUN = 201479 ! NEVT = 1999
FILE = /castor/cern.ch/delphi/MCprod/cern/wphact24/v99e/195.5/wphact24_cc_195.5_80.4_201480.xsdst ! RUN = 201480 ! NEVT = 1999
FILE = /castor/cern.ch/delphi/MCprod/cern/wphact24/v99e/195.5/wphact24_cc_195.5_80.4_201481.xsdst ! RUN = 201481 ! NEVT = 2000
FILE = /castor/cern.ch/delphi/MCprod/cern/wphact24/v99e/195.5/wphact24_cc_195.5_80.4_201482.xsdst ! RUN = 201482 ! NEVT = 2000
FILE = /castor/cern.ch/delphi/MCprod/cern/wphact24/v99e/195.5/wphact24_cc_195.5_80.4_201483.xsdst ! RUN = 201483 ! NEVT = 1997
FILE = /castor/cern.ch/delphi/MCprod/cern/wphact24/v99e/195.5/wphact24_cc_195.5_80.4_201484.xsdst ! RUN = 201484 ! NEVT = 2000
FILE = /castor/cern.ch/delphi/MCprod/cern/wphact24/v99e/195.5/wphact24_cc_195.5_80.4_201485.xsdst ! RUN = 201485 ! NEVT = 2000
FILE = /castor/cern.ch/delphi/MCprod/cern/wphact24/v99e/195.5/wphact24_cc_195.5_80.4_201486.xsdst ! RUN = 201486 ! NEVT = 1998
FILE = /castor/cern.ch/delphi/MCprod/cern/wphact24/v99e/195.5/wphact24_cc_195.5_80.4_201487.xsdst ! RUN = 201487 ! NEVT = 2000
FILE = /castor/cern.ch/delphi/MCprod/cern/wphact24/v99e/195.5/wphact24_cc_195.5_80.4_201488.xsdst ! RUN = 201488 ! NEVT = 2000
FILE = /castor/cern.ch/delphi/MCprod/cern/wphact24/v99e/195.5/wphact24_cc_195.5_80.4_201489.xsdst ! RUN = 201489 ! NEVT = 1999
FILE = /castor/cern.ch/delphi/MCprod/cern/wphact24/v99e/195.5/wphact24_cc_195.5_80.4_201490.xsdst ! RUN = 201490 ! NEVT = 1999
FILE = /castor/cern.ch/delphi/MCprod/cern/wphact24/v99e/195.5/wphact24_cc_195.5_80.4_201491.xsdst ! RUN = 201491 ! NEVT = 1999
FILE = /castor/cern.ch/delphi/MCprod/cern/wphact24/v99e/195.5/wphact24_cc_195.5_80.4_201492.xsdst ! RUN = 201492 ! NEVT = 1999
FILE = /castor/cern.ch/delphi/MCprod/cern/wphact24/v99e/195.5/wphact24_cc_195.5_80.4_201493.xsdst ! RUN = 201493 ! NEVT = 2000
FILE = /castor/cern.ch/delphi/MCprod/cern/wphact24/v99e/195.5/wphact24_cc_195.5_80.4_201494.xsdst ! RUN = 201494 ! NEVT = 1999
FILE = /castor/cern.ch/delphi/MCprod/cern/wphact24/v99e/195.5/wphact24_cc_195.5_80.4_201495.xsdst ! RUN = 201495 ! NEVT = 2000
FILE = /castor/cern.ch/delphi/MCprod/cern/wphact24/v99e/195.5/wphact24_cc_195.5_80.4_201496.xsdst ! RUN = 201496 ! NEVT = 2000
FILE = /castor/cern.ch/delphi/MCprod/cern/wphact24/v99e/195.5/wphact24_cc_195.5_80.4_201497.xsdst ! RUN = 201497 ! NEVT = 2000
FILE = /castor/cern.ch/delphi/MCprod/cern/wphact24/v99e/195.5/wphact24_cc_195.5_80.4_201498.xsdst ! RUN = 201498 ! NEVT = 2000
FILE = /castor/cern.ch/delphi/MCprod/cern/wphact24/v99e/195.5/wphact24_cc_195.5_80.4_201499.xsdst ! RUN = 201499 ! NEVT = 1999
FILE = /castor/cern.ch/delphi/MCprod/cern/wphact24/v99e/195.5/wphact24_cc_195.5_80.4_201500.xsdst ! RUN = 201500 ! NEVT = 2000
