*
*   Nickname     : xs_wphact21nc4f_e195.5_m80.4_l99_1l_e1
*   Generic Name : //CERN/DELPHI/P02_SIMD/XSDST/WPHACT21NC4F/E195.5/LYON/SUMT/C001-560
*   Description  :  Extended Short DST simulation 99_e1 done at ecms=195.5 , Lyon
*---
*   Comments     : in total 515834 events in 560 files time stamp: Wed Nov 21 10:37:45 2001
*---
*
*
*
*
*
FILE = /castor/cern.ch/delphi/MCprod/lyon/wphact21/v99e/195.5/wphact21_nc4f_195.5_80.4_16001.xsdst ! RUN = 16001 ! NEVT = 1000
FILE = /castor/cern.ch/delphi/MCprod/lyon/wphact21/v99e/195.5/wphact21_nc4f_195.5_80.4_16002.xsdst ! RUN = 16002 ! NEVT = 76
FILE = /castor/cern.ch/delphi/MCprod/lyon/wphact21/v99e/195.5/wphact21_nc4f_195.5_80.4_16003.xsdst ! RUN = 16003 ! NEVT = 999
FILE = /castor/cern.ch/delphi/MCprod/lyon/wphact21/v99e/195.5/wphact21_nc4f_195.5_80.4_16004.xsdst ! RUN = 16004 ! NEVT = 1000
FILE = /castor/cern.ch/delphi/MCprod/lyon/wphact21/v99e/195.5/wphact21_nc4f_195.5_80.4_16005.xsdst ! RUN = 16005 ! NEVT = 1000
FILE = /castor/cern.ch/delphi/MCprod/lyon/wphact21/v99e/195.5/wphact21_nc4f_195.5_80.4_16006.xsdst ! RUN = 16006 ! NEVT = 1000
FILE = /castor/cern.ch/delphi/MCprod/lyon/wphact21/v99e/195.5/wphact21_nc4f_195.5_80.4_16007.xsdst ! RUN = 16007 ! NEVT = 1000
FILE = /castor/cern.ch/delphi/MCprod/lyon/wphact21/v99e/195.5/wphact21_nc4f_195.5_80.4_16008.xsdst ! RUN = 16008 ! NEVT = 1000
FILE = /castor/cern.ch/delphi/MCprod/lyon/wphact21/v99e/195.5/wphact21_nc4f_195.5_80.4_16009.xsdst ! RUN = 16009 ! NEVT = 326
FILE = /castor/cern.ch/delphi/MCprod/lyon/wphact21/v99e/195.5/wphact21_nc4f_195.5_80.4_16010.xsdst ! RUN = 16010 ! NEVT = 129
FILE = /castor/cern.ch/delphi/MCprod/lyon/wphact21/v99e/195.5/wphact21_nc4f_195.5_80.4_16011.xsdst ! RUN = 16011 ! NEVT = 1000
FILE = /castor/cern.ch/delphi/MCprod/lyon/wphact21/v99e/195.5/wphact21_nc4f_195.5_80.4_16012.xsdst ! RUN = 16012 ! NEVT = 119
FILE = /castor/cern.ch/delphi/MCprod/lyon/wphact21/v99e/195.5/wphact21_nc4f_195.5_80.4_16013.xsdst ! RUN = 16013 ! NEVT = 1000
FILE = /castor/cern.ch/delphi/MCprod/lyon/wphact21/v99e/195.5/wphact21_nc4f_195.5_80.4_16014.xsdst ! RUN = 16014 ! NEVT = 1000
FILE = /castor/cern.ch/delphi/MCprod/lyon/wphact21/v99e/195.5/wphact21_nc4f_195.5_80.4_16015.xsdst ! RUN = 16015 ! NEVT = 1000
FILE = /castor/cern.ch/delphi/MCprod/lyon/wphact21/v99e/195.5/wphact21_nc4f_195.5_80.4_16016.xsdst ! RUN = 16016 ! NEVT = 999
FILE = /castor/cern.ch/delphi/MCprod/lyon/wphact21/v99e/195.5/wphact21_nc4f_195.5_80.4_16017.xsdst ! RUN = 16017 ! NEVT = 1000
FILE = /castor/cern.ch/delphi/MCprod/lyon/wphact21/v99e/195.5/wphact21_nc4f_195.5_80.4_16018.xsdst ! RUN = 16018 ! NEVT = 213
FILE = /castor/cern.ch/delphi/MCprod/lyon/wphact21/v99e/195.5/wphact21_nc4f_195.5_80.4_16019.xsdst ! RUN = 16019 ! NEVT = 110
FILE = /castor/cern.ch/delphi/MCprod/lyon/wphact21/v99e/195.5/wphact21_nc4f_195.5_80.4_16020.xsdst ! RUN = 16020 ! NEVT = 1000
FILE = /castor/cern.ch/delphi/MCprod/lyon/wphact21/v99e/195.5/wphact21_nc4f_195.5_80.4_16021.xsdst ! RUN = 16021 ! NEVT = 998
FILE = /castor/cern.ch/delphi/MCprod/lyon/wphact21/v99e/195.5/wphact21_nc4f_195.5_80.4_16022.xsdst ! RUN = 16022 ! NEVT = 1000
FILE = /castor/cern.ch/delphi/MCprod/lyon/wphact21/v99e/195.5/wphact21_nc4f_195.5_80.4_16023.xsdst ! RUN = 16023 ! NEVT = 1000
FILE = /castor/cern.ch/delphi/MCprod/lyon/wphact21/v99e/195.5/wphact21_nc4f_195.5_80.4_16024.xsdst ! RUN = 16024 ! NEVT = 1000
FILE = /castor/cern.ch/delphi/MCprod/lyon/wphact21/v99e/195.5/wphact21_nc4f_195.5_80.4_16025.xsdst ! RUN = 16025 ! NEVT = 1000
FILE = /castor/cern.ch/delphi/MCprod/lyon/wphact21/v99e/195.5/wphact21_nc4f_195.5_80.4_16026.xsdst ! RUN = 16026 ! NEVT = 1000
FILE = /castor/cern.ch/delphi/MCprod/lyon/wphact21/v99e/195.5/wphact21_nc4f_195.5_80.4_16027.xsdst ! RUN = 16027 ! NEVT = 999
FILE = /castor/cern.ch/delphi/MCprod/lyon/wphact21/v99e/195.5/wphact21_nc4f_195.5_80.4_16028.xsdst ! RUN = 16028 ! NEVT = 1000
FILE = /castor/cern.ch/delphi/MCprod/lyon/wphact21/v99e/195.5/wphact21_nc4f_195.5_80.4_16029.xsdst ! RUN = 16029 ! NEVT = 1000
FILE = /castor/cern.ch/delphi/MCprod/lyon/wphact21/v99e/195.5/wphact21_nc4f_195.5_80.4_16030.xsdst ! RUN = 16030 ! NEVT = 1000
FILE = /castor/cern.ch/delphi/MCprod/lyon/wphact21/v99e/195.5/wphact21_nc4f_195.5_80.4_16031.xsdst ! RUN = 16031 ! NEVT = 1000
FILE = /castor/cern.ch/delphi/MCprod/lyon/wphact21/v99e/195.5/wphact21_nc4f_195.5_80.4_16032.xsdst ! RUN = 16032 ! NEVT = 1000
FILE = /castor/cern.ch/delphi/MCprod/lyon/wphact21/v99e/195.5/wphact21_nc4f_195.5_80.4_16033.xsdst ! RUN = 16033 ! NEVT = 1000
FILE = /castor/cern.ch/delphi/MCprod/lyon/wphact21/v99e/195.5/wphact21_nc4f_195.5_80.4_16034.xsdst ! RUN = 16034 ! NEVT = 1000
FILE = /castor/cern.ch/delphi/MCprod/lyon/wphact21/v99e/195.5/wphact21_nc4f_195.5_80.4_16035.xsdst ! RUN = 16035 ! NEVT = 1000
FILE = /castor/cern.ch/delphi/MCprod/lyon/wphact21/v99e/195.5/wphact21_nc4f_195.5_80.4_16036.xsdst ! RUN = 16036 ! NEVT = 1000
FILE = /castor/cern.ch/delphi/MCprod/lyon/wphact21/v99e/195.5/wphact21_nc4f_195.5_80.4_16037.xsdst ! RUN = 16037 ! NEVT = 999
FILE = /castor/cern.ch/delphi/MCprod/lyon/wphact21/v99e/195.5/wphact21_nc4f_195.5_80.4_16038.xsdst ! RUN = 16038 ! NEVT = 53
FILE = /castor/cern.ch/delphi/MCprod/lyon/wphact21/v99e/195.5/wphact21_nc4f_195.5_80.4_16039.xsdst ! RUN = 16039 ! NEVT = 1000
FILE = /castor/cern.ch/delphi/MCprod/lyon/wphact21/v99e/195.5/wphact21_nc4f_195.5_80.4_16040.xsdst ! RUN = 16040 ! NEVT = 26
FILE = /castor/cern.ch/delphi/MCprod/lyon/wphact21/v99e/195.5/wphact21_nc4f_195.5_80.4_16041.xsdst ! RUN = 16041 ! NEVT = 1000
FILE = /castor/cern.ch/delphi/MCprod/lyon/wphact21/v99e/195.5/wphact21_nc4f_195.5_80.4_16042.xsdst ! RUN = 16042 ! NEVT = 1000
FILE = /castor/cern.ch/delphi/MCprod/lyon/wphact21/v99e/195.5/wphact21_nc4f_195.5_80.4_16043.xsdst ! RUN = 16043 ! NEVT = 1000
FILE = /castor/cern.ch/delphi/MCprod/lyon/wphact21/v99e/195.5/wphact21_nc4f_195.5_80.4_16044.xsdst ! RUN = 16044 ! NEVT = 1000
FILE = /castor/cern.ch/delphi/MCprod/lyon/wphact21/v99e/195.5/wphact21_nc4f_195.5_80.4_16045.xsdst ! RUN = 16045 ! NEVT = 999
FILE = /castor/cern.ch/delphi/MCprod/lyon/wphact21/v99e/195.5/wphact21_nc4f_195.5_80.4_16046.xsdst ! RUN = 16046 ! NEVT = 1000
FILE = /castor/cern.ch/delphi/MCprod/lyon/wphact21/v99e/195.5/wphact21_nc4f_195.5_80.4_16047.xsdst ! RUN = 16047 ! NEVT = 1000
FILE = /castor/cern.ch/delphi/MCprod/lyon/wphact21/v99e/195.5/wphact21_nc4f_195.5_80.4_16048.xsdst ! RUN = 16048 ! NEVT = 1000
FILE = /castor/cern.ch/delphi/MCprod/lyon/wphact21/v99e/195.5/wphact21_nc4f_195.5_80.4_16049.xsdst ! RUN = 16049 ! NEVT = 96
FILE = /castor/cern.ch/delphi/MCprod/lyon/wphact21/v99e/195.5/wphact21_nc4f_195.5_80.4_16050.xsdst ! RUN = 16050 ! NEVT = 1000
FILE = /castor/cern.ch/delphi/MCprod/lyon/wphact21/v99e/195.5/wphact21_nc4f_195.5_80.4_16051.xsdst ! RUN = 16051 ! NEVT = 254
FILE = /castor/cern.ch/delphi/MCprod/lyon/wphact21/v99e/195.5/wphact21_nc4f_195.5_80.4_16052.xsdst ! RUN = 16052 ! NEVT = 438
FILE = /castor/cern.ch/delphi/MCprod/lyon/wphact21/v99e/195.5/wphact21_nc4f_195.5_80.4_16053.xsdst ! RUN = 16053 ! NEVT = 1000
FILE = /castor/cern.ch/delphi/MCprod/lyon/wphact21/v99e/195.5/wphact21_nc4f_195.5_80.4_16054.xsdst ! RUN = 16054 ! NEVT = 311
FILE = /castor/cern.ch/delphi/MCprod/lyon/wphact21/v99e/195.5/wphact21_nc4f_195.5_80.4_16055.xsdst ! RUN = 16055 ! NEVT = 999
FILE = /castor/cern.ch/delphi/MCprod/lyon/wphact21/v99e/195.5/wphact21_nc4f_195.5_80.4_16056.xsdst ! RUN = 16056 ! NEVT = 1000
FILE = /castor/cern.ch/delphi/MCprod/lyon/wphact21/v99e/195.5/wphact21_nc4f_195.5_80.4_16057.xsdst ! RUN = 16057 ! NEVT = 1000
FILE = /castor/cern.ch/delphi/MCprod/lyon/wphact21/v99e/195.5/wphact21_nc4f_195.5_80.4_16058.xsdst ! RUN = 16058 ! NEVT = 208
FILE = /castor/cern.ch/delphi/MCprod/lyon/wphact21/v99e/195.5/wphact21_nc4f_195.5_80.4_16059.xsdst ! RUN = 16059 ! NEVT = 1000
FILE = /castor/cern.ch/delphi/MCprod/lyon/wphact21/v99e/195.5/wphact21_nc4f_195.5_80.4_16060.xsdst ! RUN = 16060 ! NEVT = 999
FILE = /castor/cern.ch/delphi/MCprod/lyon/wphact21/v99e/195.5/wphact21_nc4f_195.5_80.4_16061.xsdst ! RUN = 16061 ! NEVT = 504
FILE = /castor/cern.ch/delphi/MCprod/lyon/wphact21/v99e/195.5/wphact21_nc4f_195.5_80.4_16062.xsdst ! RUN = 16062 ! NEVT = 999
FILE = /castor/cern.ch/delphi/MCprod/lyon/wphact21/v99e/195.5/wphact21_nc4f_195.5_80.4_16063.xsdst ! RUN = 16063 ! NEVT = 1000
FILE = /castor/cern.ch/delphi/MCprod/lyon/wphact21/v99e/195.5/wphact21_nc4f_195.5_80.4_16064.xsdst ! RUN = 16064 ! NEVT = 1000
FILE = /castor/cern.ch/delphi/MCprod/lyon/wphact21/v99e/195.5/wphact21_nc4f_195.5_80.4_16065.xsdst ! RUN = 16065 ! NEVT = 202
FILE = /castor/cern.ch/delphi/MCprod/lyon/wphact21/v99e/195.5/wphact21_nc4f_195.5_80.4_16066.xsdst ! RUN = 16066 ! NEVT = 999
FILE = /castor/cern.ch/delphi/MCprod/lyon/wphact21/v99e/195.5/wphact21_nc4f_195.5_80.4_16067.xsdst ! RUN = 16067 ! NEVT = 1000
FILE = /castor/cern.ch/delphi/MCprod/lyon/wphact21/v99e/195.5/wphact21_nc4f_195.5_80.4_16068.xsdst ! RUN = 16068 ! NEVT = 999
FILE = /castor/cern.ch/delphi/MCprod/lyon/wphact21/v99e/195.5/wphact21_nc4f_195.5_80.4_16069.xsdst ! RUN = 16069 ! NEVT = 236
FILE = /castor/cern.ch/delphi/MCprod/lyon/wphact21/v99e/195.5/wphact21_nc4f_195.5_80.4_16070.xsdst ! RUN = 16070 ! NEVT = 356
FILE = /castor/cern.ch/delphi/MCprod/lyon/wphact21/v99e/195.5/wphact21_nc4f_195.5_80.4_16071.xsdst ! RUN = 16071 ! NEVT = 602
FILE = /castor/cern.ch/delphi/MCprod/lyon/wphact21/v99e/195.5/wphact21_nc4f_195.5_80.4_16072.xsdst ! RUN = 16072 ! NEVT = 1000
FILE = /castor/cern.ch/delphi/MCprod/lyon/wphact21/v99e/195.5/wphact21_nc4f_195.5_80.4_16073.xsdst ! RUN = 16073 ! NEVT = 1000
FILE = /castor/cern.ch/delphi/MCprod/lyon/wphact21/v99e/195.5/wphact21_nc4f_195.5_80.4_16074.xsdst ! RUN = 16074 ! NEVT = 1000
FILE = /castor/cern.ch/delphi/MCprod/lyon/wphact21/v99e/195.5/wphact21_nc4f_195.5_80.4_16075.xsdst ! RUN = 16075 ! NEVT = 1000
FILE = /castor/cern.ch/delphi/MCprod/lyon/wphact21/v99e/195.5/wphact21_nc4f_195.5_80.4_16076.xsdst ! RUN = 16076 ! NEVT = 61
FILE = /castor/cern.ch/delphi/MCprod/lyon/wphact21/v99e/195.5/wphact21_nc4f_195.5_80.4_16077.xsdst ! RUN = 16077 ! NEVT = 1000
FILE = /castor/cern.ch/delphi/MCprod/lyon/wphact21/v99e/195.5/wphact21_nc4f_195.5_80.4_16078.xsdst ! RUN = 16078 ! NEVT = 1000
FILE = /castor/cern.ch/delphi/MCprod/lyon/wphact21/v99e/195.5/wphact21_nc4f_195.5_80.4_16079.xsdst ! RUN = 16079 ! NEVT = 1000
FILE = /castor/cern.ch/delphi/MCprod/lyon/wphact21/v99e/195.5/wphact21_nc4f_195.5_80.4_16080.xsdst ! RUN = 16080 ! NEVT = 281
FILE = /castor/cern.ch/delphi/MCprod/lyon/wphact21/v99e/195.5/wphact21_nc4f_195.5_80.4_16081.xsdst ! RUN = 16081 ! NEVT = 1000
FILE = /castor/cern.ch/delphi/MCprod/lyon/wphact21/v99e/195.5/wphact21_nc4f_195.5_80.4_16082.xsdst ! RUN = 16082 ! NEVT = 398
FILE = /castor/cern.ch/delphi/MCprod/lyon/wphact21/v99e/195.5/wphact21_nc4f_195.5_80.4_16083.xsdst ! RUN = 16083 ! NEVT = 153
FILE = /castor/cern.ch/delphi/MCprod/lyon/wphact21/v99e/195.5/wphact21_nc4f_195.5_80.4_16084.xsdst ! RUN = 16084 ! NEVT = 1000
FILE = /castor/cern.ch/delphi/MCprod/lyon/wphact21/v99e/195.5/wphact21_nc4f_195.5_80.4_16085.xsdst ! RUN = 16085 ! NEVT = 1000
FILE = /castor/cern.ch/delphi/MCprod/lyon/wphact21/v99e/195.5/wphact21_nc4f_195.5_80.4_16086.xsdst ! RUN = 16086 ! NEVT = 999
FILE = /castor/cern.ch/delphi/MCprod/lyon/wphact21/v99e/195.5/wphact21_nc4f_195.5_80.4_16087.xsdst ! RUN = 16087 ! NEVT = 1000
FILE = /castor/cern.ch/delphi/MCprod/lyon/wphact21/v99e/195.5/wphact21_nc4f_195.5_80.4_16088.xsdst ! RUN = 16088 ! NEVT = 1000
FILE = /castor/cern.ch/delphi/MCprod/lyon/wphact21/v99e/195.5/wphact21_nc4f_195.5_80.4_16089.xsdst ! RUN = 16089 ! NEVT = 1000
FILE = /castor/cern.ch/delphi/MCprod/lyon/wphact21/v99e/195.5/wphact21_nc4f_195.5_80.4_16090.xsdst ! RUN = 16090 ! NEVT = 1000
FILE = /castor/cern.ch/delphi/MCprod/lyon/wphact21/v99e/195.5/wphact21_nc4f_195.5_80.4_16091.xsdst ! RUN = 16091 ! NEVT = 999
FILE = /castor/cern.ch/delphi/MCprod/lyon/wphact21/v99e/195.5/wphact21_nc4f_195.5_80.4_16092.xsdst ! RUN = 16092 ! NEVT = 1000
FILE = /castor/cern.ch/delphi/MCprod/lyon/wphact21/v99e/195.5/wphact21_nc4f_195.5_80.4_16093.xsdst ! RUN = 16093 ! NEVT = 999
FILE = /castor/cern.ch/delphi/MCprod/lyon/wphact21/v99e/195.5/wphact21_nc4f_195.5_80.4_16094.xsdst ! RUN = 16094 ! NEVT = 999
FILE = /castor/cern.ch/delphi/MCprod/lyon/wphact21/v99e/195.5/wphact21_nc4f_195.5_80.4_16095.xsdst ! RUN = 16095 ! NEVT = 998
FILE = /castor/cern.ch/delphi/MCprod/lyon/wphact21/v99e/195.5/wphact21_nc4f_195.5_80.4_16096.xsdst ! RUN = 16096 ! NEVT = 1000
FILE = /castor/cern.ch/delphi/MCprod/lyon/wphact21/v99e/195.5/wphact21_nc4f_195.5_80.4_16097.xsdst ! RUN = 16097 ! NEVT = 187
FILE = /castor/cern.ch/delphi/MCprod/lyon/wphact21/v99e/195.5/wphact21_nc4f_195.5_80.4_16098.xsdst ! RUN = 16098 ! NEVT = 1000
FILE = /castor/cern.ch/delphi/MCprod/lyon/wphact21/v99e/195.5/wphact21_nc4f_195.5_80.4_16099.xsdst ! RUN = 16099 ! NEVT = 1000
FILE = /castor/cern.ch/delphi/MCprod/lyon/wphact21/v99e/195.5/wphact21_nc4f_195.5_80.4_16100.xsdst ! RUN = 16100 ! NEVT = 1000
FILE = /castor/cern.ch/delphi/MCprod/lyon/wphact21/v99e/195.5/wphact21_nc4f_195.5_80.4_16101.xsdst ! RUN = 16101 ! NEVT = 1000
FILE = /castor/cern.ch/delphi/MCprod/lyon/wphact21/v99e/195.5/wphact21_nc4f_195.5_80.4_16102.xsdst ! RUN = 16102 ! NEVT = 1000
FILE = /castor/cern.ch/delphi/MCprod/lyon/wphact21/v99e/195.5/wphact21_nc4f_195.5_80.4_16103.xsdst ! RUN = 16103 ! NEVT = 1000
FILE = /castor/cern.ch/delphi/MCprod/lyon/wphact21/v99e/195.5/wphact21_nc4f_195.5_80.4_16104.xsdst ! RUN = 16104 ! NEVT = 1000
FILE = /castor/cern.ch/delphi/MCprod/lyon/wphact21/v99e/195.5/wphact21_nc4f_195.5_80.4_16105.xsdst ! RUN = 16105 ! NEVT = 1000
FILE = /castor/cern.ch/delphi/MCprod/lyon/wphact21/v99e/195.5/wphact21_nc4f_195.5_80.4_16106.xsdst ! RUN = 16106 ! NEVT = 1000
FILE = /castor/cern.ch/delphi/MCprod/lyon/wphact21/v99e/195.5/wphact21_nc4f_195.5_80.4_16107.xsdst ! RUN = 16107 ! NEVT = 1000
FILE = /castor/cern.ch/delphi/MCprod/lyon/wphact21/v99e/195.5/wphact21_nc4f_195.5_80.4_16108.xsdst ! RUN = 16108 ! NEVT = 1000
FILE = /castor/cern.ch/delphi/MCprod/lyon/wphact21/v99e/195.5/wphact21_nc4f_195.5_80.4_16109.xsdst ! RUN = 16109 ! NEVT = 497
FILE = /castor/cern.ch/delphi/MCprod/lyon/wphact21/v99e/195.5/wphact21_nc4f_195.5_80.4_16110.xsdst ! RUN = 16110 ! NEVT = 1000
FILE = /castor/cern.ch/delphi/MCprod/lyon/wphact21/v99e/195.5/wphact21_nc4f_195.5_80.4_16111.xsdst ! RUN = 16111 ! NEVT = 199
FILE = /castor/cern.ch/delphi/MCprod/lyon/wphact21/v99e/195.5/wphact21_nc4f_195.5_80.4_16112.xsdst ! RUN = 16112 ! NEVT = 1000
FILE = /castor/cern.ch/delphi/MCprod/lyon/wphact21/v99e/195.5/wphact21_nc4f_195.5_80.4_16113.xsdst ! RUN = 16113 ! NEVT = 1000
FILE = /castor/cern.ch/delphi/MCprod/lyon/wphact21/v99e/195.5/wphact21_nc4f_195.5_80.4_16114.xsdst ! RUN = 16114 ! NEVT = 1000
FILE = /castor/cern.ch/delphi/MCprod/lyon/wphact21/v99e/195.5/wphact21_nc4f_195.5_80.4_16115.xsdst ! RUN = 16115 ! NEVT = 1000
FILE = /castor/cern.ch/delphi/MCprod/lyon/wphact21/v99e/195.5/wphact21_nc4f_195.5_80.4_16116.xsdst ! RUN = 16116 ! NEVT = 1000
FILE = /castor/cern.ch/delphi/MCprod/lyon/wphact21/v99e/195.5/wphact21_nc4f_195.5_80.4_16117.xsdst ! RUN = 16117 ! NEVT = 1000
FILE = /castor/cern.ch/delphi/MCprod/lyon/wphact21/v99e/195.5/wphact21_nc4f_195.5_80.4_16118.xsdst ! RUN = 16118 ! NEVT = 1000
FILE = /castor/cern.ch/delphi/MCprod/lyon/wphact21/v99e/195.5/wphact21_nc4f_195.5_80.4_16119.xsdst ! RUN = 16119 ! NEVT = 78
FILE = /castor/cern.ch/delphi/MCprod/lyon/wphact21/v99e/195.5/wphact21_nc4f_195.5_80.4_16120.xsdst ! RUN = 16120 ! NEVT = 1000
FILE = /castor/cern.ch/delphi/MCprod/lyon/wphact21/v99e/195.5/wphact21_nc4f_195.5_80.4_16121.xsdst ! RUN = 16121 ! NEVT = 288
FILE = /castor/cern.ch/delphi/MCprod/lyon/wphact21/v99e/195.5/wphact21_nc4f_195.5_80.4_16122.xsdst ! RUN = 16122 ! NEVT = 319
FILE = /castor/cern.ch/delphi/MCprod/lyon/wphact21/v99e/195.5/wphact21_nc4f_195.5_80.4_16123.xsdst ! RUN = 16123 ! NEVT = 1000
FILE = /castor/cern.ch/delphi/MCprod/lyon/wphact21/v99e/195.5/wphact21_nc4f_195.5_80.4_16124.xsdst ! RUN = 16124 ! NEVT = 311
FILE = /castor/cern.ch/delphi/MCprod/lyon/wphact21/v99e/195.5/wphact21_nc4f_195.5_80.4_16125.xsdst ! RUN = 16125 ! NEVT = 1000
FILE = /castor/cern.ch/delphi/MCprod/lyon/wphact21/v99e/195.5/wphact21_nc4f_195.5_80.4_16126.xsdst ! RUN = 16126 ! NEVT = 219
FILE = /castor/cern.ch/delphi/MCprod/lyon/wphact21/v99e/195.5/wphact21_nc4f_195.5_80.4_16127.xsdst ! RUN = 16127 ! NEVT = 1000
FILE = /castor/cern.ch/delphi/MCprod/lyon/wphact21/v99e/195.5/wphact21_nc4f_195.5_80.4_16128.xsdst ! RUN = 16128 ! NEVT = 105
FILE = /castor/cern.ch/delphi/MCprod/lyon/wphact21/v99e/195.5/wphact21_nc4f_195.5_80.4_16129.xsdst ! RUN = 16129 ! NEVT = 999
FILE = /castor/cern.ch/delphi/MCprod/lyon/wphact21/v99e/195.5/wphact21_nc4f_195.5_80.4_16130.xsdst ! RUN = 16130 ! NEVT = 254
FILE = /castor/cern.ch/delphi/MCprod/lyon/wphact21/v99e/195.5/wphact21_nc4f_195.5_80.4_16131.xsdst ! RUN = 16131 ! NEVT = 999
FILE = /castor/cern.ch/delphi/MCprod/lyon/wphact21/v99e/195.5/wphact21_nc4f_195.5_80.4_16132.xsdst ! RUN = 16132 ! NEVT = 1000
FILE = /castor/cern.ch/delphi/MCprod/lyon/wphact21/v99e/195.5/wphact21_nc4f_195.5_80.4_16133.xsdst ! RUN = 16133 ! NEVT = 305
FILE = /castor/cern.ch/delphi/MCprod/lyon/wphact21/v99e/195.5/wphact21_nc4f_195.5_80.4_16134.xsdst ! RUN = 16134 ! NEVT = 1000
FILE = /castor/cern.ch/delphi/MCprod/lyon/wphact21/v99e/195.5/wphact21_nc4f_195.5_80.4_16135.xsdst ! RUN = 16135 ! NEVT = 999
FILE = /castor/cern.ch/delphi/MCprod/lyon/wphact21/v99e/195.5/wphact21_nc4f_195.5_80.4_16136.xsdst ! RUN = 16136 ! NEVT = 962
FILE = /castor/cern.ch/delphi/MCprod/lyon/wphact21/v99e/195.5/wphact21_nc4f_195.5_80.4_16137.xsdst ! RUN = 16137 ! NEVT = 1000
FILE = /castor/cern.ch/delphi/MCprod/lyon/wphact21/v99e/195.5/wphact21_nc4f_195.5_80.4_16138.xsdst ! RUN = 16138 ! NEVT = 197
FILE = /castor/cern.ch/delphi/MCprod/lyon/wphact21/v99e/195.5/wphact21_nc4f_195.5_80.4_16139.xsdst ! RUN = 16139 ! NEVT = 1000
FILE = /castor/cern.ch/delphi/MCprod/lyon/wphact21/v99e/195.5/wphact21_nc4f_195.5_80.4_16140.xsdst ! RUN = 16140 ! NEVT = 188
FILE = /castor/cern.ch/delphi/MCprod/lyon/wphact21/v99e/195.5/wphact21_nc4f_195.5_80.4_16141.xsdst ! RUN = 16141 ! NEVT = 1000
FILE = /castor/cern.ch/delphi/MCprod/lyon/wphact21/v99e/195.5/wphact21_nc4f_195.5_80.4_16142.xsdst ! RUN = 16142 ! NEVT = 14
FILE = /castor/cern.ch/delphi/MCprod/lyon/wphact21/v99e/195.5/wphact21_nc4f_195.5_80.4_16143.xsdst ! RUN = 16143 ! NEVT = 1000
FILE = /castor/cern.ch/delphi/MCprod/lyon/wphact21/v99e/195.5/wphact21_nc4f_195.5_80.4_16144.xsdst ! RUN = 16144 ! NEVT = 1000
FILE = /castor/cern.ch/delphi/MCprod/lyon/wphact21/v99e/195.5/wphact21_nc4f_195.5_80.4_16145.xsdst ! RUN = 16145 ! NEVT = 335
FILE = /castor/cern.ch/delphi/MCprod/lyon/wphact21/v99e/195.5/wphact21_nc4f_195.5_80.4_16146.xsdst ! RUN = 16146 ! NEVT = 1000
FILE = /castor/cern.ch/delphi/MCprod/lyon/wphact21/v99e/195.5/wphact21_nc4f_195.5_80.4_16147.xsdst ! RUN = 16147 ! NEVT = 9
FILE = /castor/cern.ch/delphi/MCprod/lyon/wphact21/v99e/195.5/wphact21_nc4f_195.5_80.4_16148.xsdst ! RUN = 16148 ! NEVT = 1000
FILE = /castor/cern.ch/delphi/MCprod/lyon/wphact21/v99e/195.5/wphact21_nc4f_195.5_80.4_16149.xsdst ! RUN = 16149 ! NEVT = 999
FILE = /castor/cern.ch/delphi/MCprod/lyon/wphact21/v99e/195.5/wphact21_nc4f_195.5_80.4_16150.xsdst ! RUN = 16150 ! NEVT = 1000
FILE = /castor/cern.ch/delphi/MCprod/lyon/wphact21/v99e/195.5/wphact21_nc4f_195.5_80.4_16151.xsdst ! RUN = 16151 ! NEVT = 1000
FILE = /castor/cern.ch/delphi/MCprod/lyon/wphact21/v99e/195.5/wphact21_nc4f_195.5_80.4_16152.xsdst ! RUN = 16152 ! NEVT = 1000
FILE = /castor/cern.ch/delphi/MCprod/lyon/wphact21/v99e/195.5/wphact21_nc4f_195.5_80.4_16153.xsdst ! RUN = 16153 ! NEVT = 1000
FILE = /castor/cern.ch/delphi/MCprod/lyon/wphact21/v99e/195.5/wphact21_nc4f_195.5_80.4_16154.xsdst ! RUN = 16154 ! NEVT = 1000
FILE = /castor/cern.ch/delphi/MCprod/lyon/wphact21/v99e/195.5/wphact21_nc4f_195.5_80.4_16155.xsdst ! RUN = 16155 ! NEVT = 999
FILE = /castor/cern.ch/delphi/MCprod/lyon/wphact21/v99e/195.5/wphact21_nc4f_195.5_80.4_16156.xsdst ! RUN = 16156 ! NEVT = 151
FILE = /castor/cern.ch/delphi/MCprod/lyon/wphact21/v99e/195.5/wphact21_nc4f_195.5_80.4_16157.xsdst ! RUN = 16157 ! NEVT = 1000
FILE = /castor/cern.ch/delphi/MCprod/lyon/wphact21/v99e/195.5/wphact21_nc4f_195.5_80.4_16158.xsdst ! RUN = 16158 ! NEVT = 1000
FILE = /castor/cern.ch/delphi/MCprod/lyon/wphact21/v99e/195.5/wphact21_nc4f_195.5_80.4_16159.xsdst ! RUN = 16159 ! NEVT = 100
FILE = /castor/cern.ch/delphi/MCprod/lyon/wphact21/v99e/195.5/wphact21_nc4f_195.5_80.4_16170.xsdst ! RUN = 16170 ! NEVT = 700
FILE = /castor/cern.ch/delphi/MCprod/lyon/wphact21/v99e/195.5/wphact21_nc4f_195.5_80.4_16182.xsdst ! RUN = 16182 ! NEVT = 699
FILE = /castor/cern.ch/delphi/MCprod/lyon/wphact21/v99e/195.5/wphact21_nc4f_195.5_80.4_16193.xsdst ! RUN = 16193 ! NEVT = 700
FILE = /castor/cern.ch/delphi/MCprod/lyon/wphact21/v99e/195.5/wphact21_nc4f_195.5_80.4_16198.xsdst ! RUN = 16198 ! NEVT = 700
FILE = /castor/cern.ch/delphi/MCprod/lyon/wphact21/v99e/195.5/wphact21_nc4f_195.5_80.4_16199.xsdst ! RUN = 16199 ! NEVT = 700
FILE = /castor/cern.ch/delphi/MCprod/lyon/wphact21/v99e/195.5/wphact21_nc4f_195.5_80.4_16203.xsdst ! RUN = 16203 ! NEVT = 700
FILE = /castor/cern.ch/delphi/MCprod/lyon/wphact21/v99e/195.5/wphact21_nc4f_195.5_80.4_16206.xsdst ! RUN = 16206 ! NEVT = 700
FILE = /castor/cern.ch/delphi/MCprod/lyon/wphact21/v99e/195.5/wphact21_nc4f_195.5_80.4_16209.xsdst ! RUN = 16209 ! NEVT = 700
FILE = /castor/cern.ch/delphi/MCprod/lyon/wphact21/v99e/195.5/wphact21_nc4f_195.5_80.4_16211.xsdst ! RUN = 16211 ! NEVT = 700
FILE = /castor/cern.ch/delphi/MCprod/lyon/wphact21/v99e/195.5/wphact21_nc4f_195.5_80.4_16212.xsdst ! RUN = 16212 ! NEVT = 700
FILE = /castor/cern.ch/delphi/MCprod/lyon/wphact21/v99e/195.5/wphact21_nc4f_195.5_80.4_16213.xsdst ! RUN = 16213 ! NEVT = 700
FILE = /castor/cern.ch/delphi/MCprod/lyon/wphact21/v99e/195.5/wphact21_nc4f_195.5_80.4_16214.xsdst ! RUN = 16214 ! NEVT = 700
FILE = /castor/cern.ch/delphi/MCprod/lyon/wphact21/v99e/195.5/wphact21_nc4f_195.5_80.4_16215.xsdst ! RUN = 16215 ! NEVT = 700
FILE = /castor/cern.ch/delphi/MCprod/lyon/wphact21/v99e/195.5/wphact21_nc4f_195.5_80.4_16216.xsdst ! RUN = 16216 ! NEVT = 700
FILE = /castor/cern.ch/delphi/MCprod/lyon/wphact21/v99e/195.5/wphact21_nc4f_195.5_80.4_16217.xsdst ! RUN = 16217 ! NEVT = 700
FILE = /castor/cern.ch/delphi/MCprod/lyon/wphact21/v99e/195.5/wphact21_nc4f_195.5_80.4_16218.xsdst ! RUN = 16218 ! NEVT = 700
FILE = /castor/cern.ch/delphi/MCprod/lyon/wphact21/v99e/195.5/wphact21_nc4f_195.5_80.4_16219.xsdst ! RUN = 16219 ! NEVT = 700
FILE = /castor/cern.ch/delphi/MCprod/lyon/wphact21/v99e/195.5/wphact21_nc4f_195.5_80.4_16220.xsdst ! RUN = 16220 ! NEVT = 700
FILE = /castor/cern.ch/delphi/MCprod/lyon/wphact21/v99e/195.5/wphact21_nc4f_195.5_80.4_16221.xsdst ! RUN = 16221 ! NEVT = 700
FILE = /castor/cern.ch/delphi/MCprod/lyon/wphact21/v99e/195.5/wphact21_nc4f_195.5_80.4_16222.xsdst ! RUN = 16222 ! NEVT = 700
FILE = /castor/cern.ch/delphi/MCprod/lyon/wphact21/v99e/195.5/wphact21_nc4f_195.5_80.4_16223.xsdst ! RUN = 16223 ! NEVT = 700
FILE = /castor/cern.ch/delphi/MCprod/lyon/wphact21/v99e/195.5/wphact21_nc4f_195.5_80.4_16224.xsdst ! RUN = 16224 ! NEVT = 700
FILE = /castor/cern.ch/delphi/MCprod/lyon/wphact21/v99e/195.5/wphact21_nc4f_195.5_80.4_16225.xsdst ! RUN = 16225 ! NEVT = 700
FILE = /castor/cern.ch/delphi/MCprod/lyon/wphact21/v99e/195.5/wphact21_nc4f_195.5_80.4_16226.xsdst ! RUN = 16226 ! NEVT = 700
FILE = /castor/cern.ch/delphi/MCprod/lyon/wphact21/v99e/195.5/wphact21_nc4f_195.5_80.4_16227.xsdst ! RUN = 16227 ! NEVT = 700
FILE = /castor/cern.ch/delphi/MCprod/lyon/wphact21/v99e/195.5/wphact21_nc4f_195.5_80.4_16228.xsdst ! RUN = 16228 ! NEVT = 700
FILE = /castor/cern.ch/delphi/MCprod/lyon/wphact21/v99e/195.5/wphact21_nc4f_195.5_80.4_16229.xsdst ! RUN = 16229 ! NEVT = 700
FILE = /castor/cern.ch/delphi/MCprod/lyon/wphact21/v99e/195.5/wphact21_nc4f_195.5_80.4_16230.xsdst ! RUN = 16230 ! NEVT = 700
FILE = /castor/cern.ch/delphi/MCprod/lyon/wphact21/v99e/195.5/wphact21_nc4f_195.5_80.4_16231.xsdst ! RUN = 16231 ! NEVT = 700
FILE = /castor/cern.ch/delphi/MCprod/lyon/wphact21/v99e/195.5/wphact21_nc4f_195.5_80.4_16232.xsdst ! RUN = 16232 ! NEVT = 700
FILE = /castor/cern.ch/delphi/MCprod/lyon/wphact21/v99e/195.5/wphact21_nc4f_195.5_80.4_16233.xsdst ! RUN = 16233 ! NEVT = 700
FILE = /castor/cern.ch/delphi/MCprod/lyon/wphact21/v99e/195.5/wphact21_nc4f_195.5_80.4_16234.xsdst ! RUN = 16234 ! NEVT = 700
FILE = /castor/cern.ch/delphi/MCprod/lyon/wphact21/v99e/195.5/wphact21_nc4f_195.5_80.4_16235.xsdst ! RUN = 16235 ! NEVT = 700
FILE = /castor/cern.ch/delphi/MCprod/lyon/wphact21/v99e/195.5/wphact21_nc4f_195.5_80.4_16236.xsdst ! RUN = 16236 ! NEVT = 700
FILE = /castor/cern.ch/delphi/MCprod/lyon/wphact21/v99e/195.5/wphact21_nc4f_195.5_80.4_16471.xsdst ! RUN = 16471 ! NEVT = 205
FILE = /castor/cern.ch/delphi/MCprod/lyon/wphact21/v99e/195.5/wphact21_nc4f_195.5_80.4_16488.xsdst ! RUN = 16488 ! NEVT = 700
FILE = /castor/cern.ch/delphi/MCprod/lyon/wphact21/v99e/195.5/wphact21_nc4f_195.5_80.4_16489.xsdst ! RUN = 16489 ! NEVT = 700
FILE = /castor/cern.ch/delphi/MCprod/lyon/wphact21/v99e/195.5/wphact21_nc4f_195.5_80.4_16490.xsdst ! RUN = 16490 ! NEVT = 700
FILE = /castor/cern.ch/delphi/MCprod/lyon/wphact21/v99e/195.5/wphact21_nc4f_195.5_80.4_16491.xsdst ! RUN = 16491 ! NEVT = 700
FILE = /castor/cern.ch/delphi/MCprod/lyon/wphact21/v99e/195.5/wphact21_nc4f_195.5_80.4_16494.xsdst ! RUN = 16494 ! NEVT = 700
FILE = /castor/cern.ch/delphi/MCprod/lyon/wphact21/v99e/195.5/wphact21_nc4f_195.5_80.4_16500.xsdst ! RUN = 16500 ! NEVT = 999
FILE = /castor/cern.ch/delphi/MCprod/lyon/wphact21/v99e/195.5/wphact21_nc4f_195.5_80.4_16501.xsdst ! RUN = 16501 ! NEVT = 1000
FILE = /castor/cern.ch/delphi/MCprod/lyon/wphact21/v99e/195.5/wphact21_nc4f_195.5_80.4_16502.xsdst ! RUN = 16502 ! NEVT = 1000
FILE = /castor/cern.ch/delphi/MCprod/lyon/wphact21/v99e/195.5/wphact21_nc4f_195.5_80.4_16503.xsdst ! RUN = 16503 ! NEVT = 1000
FILE = /castor/cern.ch/delphi/MCprod/lyon/wphact21/v99e/195.5/wphact21_nc4f_195.5_80.4_16504.xsdst ! RUN = 16504 ! NEVT = 1000
FILE = /castor/cern.ch/delphi/MCprod/lyon/wphact21/v99e/195.5/wphact21_nc4f_195.5_80.4_16505.xsdst ! RUN = 16505 ! NEVT = 1000
FILE = /castor/cern.ch/delphi/MCprod/lyon/wphact21/v99e/195.5/wphact21_nc4f_195.5_80.4_16506.xsdst ! RUN = 16506 ! NEVT = 1000
FILE = /castor/cern.ch/delphi/MCprod/lyon/wphact21/v99e/195.5/wphact21_nc4f_195.5_80.4_16507.xsdst ! RUN = 16507 ! NEVT = 1000
FILE = /castor/cern.ch/delphi/MCprod/lyon/wphact21/v99e/195.5/wphact21_nc4f_195.5_80.4_16508.xsdst ! RUN = 16508 ! NEVT = 999
FILE = /castor/cern.ch/delphi/MCprod/lyon/wphact21/v99e/195.5/wphact21_nc4f_195.5_80.4_16509.xsdst ! RUN = 16509 ! NEVT = 1000
FILE = /castor/cern.ch/delphi/MCprod/lyon/wphact21/v99e/195.5/wphact21_nc4f_195.5_80.4_16510.xsdst ! RUN = 16510 ! NEVT = 999
FILE = /castor/cern.ch/delphi/MCprod/lyon/wphact21/v99e/195.5/wphact21_nc4f_195.5_80.4_16511.xsdst ! RUN = 16511 ! NEVT = 999
FILE = /castor/cern.ch/delphi/MCprod/lyon/wphact21/v99e/195.5/wphact21_nc4f_195.5_80.4_16512.xsdst ! RUN = 16512 ! NEVT = 1000
FILE = /castor/cern.ch/delphi/MCprod/lyon/wphact21/v99e/195.5/wphact21_nc4f_195.5_80.4_16513.xsdst ! RUN = 16513 ! NEVT = 1000
FILE = /castor/cern.ch/delphi/MCprod/lyon/wphact21/v99e/195.5/wphact21_nc4f_195.5_80.4_16514.xsdst ! RUN = 16514 ! NEVT = 1000
FILE = /castor/cern.ch/delphi/MCprod/lyon/wphact21/v99e/195.5/wphact21_nc4f_195.5_80.4_16515.xsdst ! RUN = 16515 ! NEVT = 998
FILE = /castor/cern.ch/delphi/MCprod/lyon/wphact21/v99e/195.5/wphact21_nc4f_195.5_80.4_16516.xsdst ! RUN = 16516 ! NEVT = 1000
FILE = /castor/cern.ch/delphi/MCprod/lyon/wphact21/v99e/195.5/wphact21_nc4f_195.5_80.4_16517.xsdst ! RUN = 16517 ! NEVT = 1000
FILE = /castor/cern.ch/delphi/MCprod/lyon/wphact21/v99e/195.5/wphact21_nc4f_195.5_80.4_16518.xsdst ! RUN = 16518 ! NEVT = 1000
FILE = /castor/cern.ch/delphi/MCprod/lyon/wphact21/v99e/195.5/wphact21_nc4f_195.5_80.4_16519.xsdst ! RUN = 16519 ! NEVT = 1000
FILE = /castor/cern.ch/delphi/MCprod/lyon/wphact21/v99e/195.5/wphact21_nc4f_195.5_80.4_16520.xsdst ! RUN = 16520 ! NEVT = 1000
FILE = /castor/cern.ch/delphi/MCprod/lyon/wphact21/v99e/195.5/wphact21_nc4f_195.5_80.4_16521.xsdst ! RUN = 16521 ! NEVT = 1000
FILE = /castor/cern.ch/delphi/MCprod/lyon/wphact21/v99e/195.5/wphact21_nc4f_195.5_80.4_16522.xsdst ! RUN = 16522 ! NEVT = 1000
FILE = /castor/cern.ch/delphi/MCprod/lyon/wphact21/v99e/195.5/wphact21_nc4f_195.5_80.4_16523.xsdst ! RUN = 16523 ! NEVT = 1000
FILE = /castor/cern.ch/delphi/MCprod/lyon/wphact21/v99e/195.5/wphact21_nc4f_195.5_80.4_16524.xsdst ! RUN = 16524 ! NEVT = 999
FILE = /castor/cern.ch/delphi/MCprod/lyon/wphact21/v99e/195.5/wphact21_nc4f_195.5_80.4_16525.xsdst ! RUN = 16525 ! NEVT = 999
FILE = /castor/cern.ch/delphi/MCprod/lyon/wphact21/v99e/195.5/wphact21_nc4f_195.5_80.4_16526.xsdst ! RUN = 16526 ! NEVT = 999
FILE = /castor/cern.ch/delphi/MCprod/lyon/wphact21/v99e/195.5/wphact21_nc4f_195.5_80.4_16527.xsdst ! RUN = 16527 ! NEVT = 1000
FILE = /castor/cern.ch/delphi/MCprod/lyon/wphact21/v99e/195.5/wphact21_nc4f_195.5_80.4_16528.xsdst ! RUN = 16528 ! NEVT = 1000
FILE = /castor/cern.ch/delphi/MCprod/lyon/wphact21/v99e/195.5/wphact21_nc4f_195.5_80.4_16529.xsdst ! RUN = 16529 ! NEVT = 999
FILE = /castor/cern.ch/delphi/MCprod/lyon/wphact21/v99e/195.5/wphact21_nc4f_195.5_80.4_16530.xsdst ! RUN = 16530 ! NEVT = 1000
FILE = /castor/cern.ch/delphi/MCprod/lyon/wphact21/v99e/195.5/wphact21_nc4f_195.5_80.4_16531.xsdst ! RUN = 16531 ! NEVT = 1000
FILE = /castor/cern.ch/delphi/MCprod/lyon/wphact21/v99e/195.5/wphact21_nc4f_195.5_80.4_16532.xsdst ! RUN = 16532 ! NEVT = 999
FILE = /castor/cern.ch/delphi/MCprod/lyon/wphact21/v99e/195.5/wphact21_nc4f_195.5_80.4_16533.xsdst ! RUN = 16533 ! NEVT = 1000
FILE = /castor/cern.ch/delphi/MCprod/lyon/wphact21/v99e/195.5/wphact21_nc4f_195.5_80.4_16534.xsdst ! RUN = 16534 ! NEVT = 999
FILE = /castor/cern.ch/delphi/MCprod/lyon/wphact21/v99e/195.5/wphact21_nc4f_195.5_80.4_16535.xsdst ! RUN = 16535 ! NEVT = 1000
FILE = /castor/cern.ch/delphi/MCprod/lyon/wphact21/v99e/195.5/wphact21_nc4f_195.5_80.4_16536.xsdst ! RUN = 16536 ! NEVT = 1000
FILE = /castor/cern.ch/delphi/MCprod/lyon/wphact21/v99e/195.5/wphact21_nc4f_195.5_80.4_16537.xsdst ! RUN = 16537 ! NEVT = 1000
FILE = /castor/cern.ch/delphi/MCprod/lyon/wphact21/v99e/195.5/wphact21_nc4f_195.5_80.4_16538.xsdst ! RUN = 16538 ! NEVT = 1000
FILE = /castor/cern.ch/delphi/MCprod/lyon/wphact21/v99e/195.5/wphact21_nc4f_195.5_80.4_16539.xsdst ! RUN = 16539 ! NEVT = 1000
FILE = /castor/cern.ch/delphi/MCprod/lyon/wphact21/v99e/195.5/wphact21_nc4f_195.5_80.4_16540.xsdst ! RUN = 16540 ! NEVT = 1000
FILE = /castor/cern.ch/delphi/MCprod/lyon/wphact21/v99e/195.5/wphact21_nc4f_195.5_80.4_16541.xsdst ! RUN = 16541 ! NEVT = 999
FILE = /castor/cern.ch/delphi/MCprod/lyon/wphact21/v99e/195.5/wphact21_nc4f_195.5_80.4_16542.xsdst ! RUN = 16542 ! NEVT = 1000
FILE = /castor/cern.ch/delphi/MCprod/lyon/wphact21/v99e/195.5/wphact21_nc4f_195.5_80.4_16543.xsdst ! RUN = 16543 ! NEVT = 1000
FILE = /castor/cern.ch/delphi/MCprod/lyon/wphact21/v99e/195.5/wphact21_nc4f_195.5_80.4_16544.xsdst ! RUN = 16544 ! NEVT = 1000
FILE = /castor/cern.ch/delphi/MCprod/lyon/wphact21/v99e/195.5/wphact21_nc4f_195.5_80.4_16545.xsdst ! RUN = 16545 ! NEVT = 1000
FILE = /castor/cern.ch/delphi/MCprod/lyon/wphact21/v99e/195.5/wphact21_nc4f_195.5_80.4_16546.xsdst ! RUN = 16546 ! NEVT = 1000
FILE = /castor/cern.ch/delphi/MCprod/lyon/wphact21/v99e/195.5/wphact21_nc4f_195.5_80.4_16547.xsdst ! RUN = 16547 ! NEVT = 1000
FILE = /castor/cern.ch/delphi/MCprod/lyon/wphact21/v99e/195.5/wphact21_nc4f_195.5_80.4_16548.xsdst ! RUN = 16548 ! NEVT = 1000
FILE = /castor/cern.ch/delphi/MCprod/lyon/wphact21/v99e/195.5/wphact21_nc4f_195.5_80.4_16549.xsdst ! RUN = 16549 ! NEVT = 750
FILE = /castor/cern.ch/delphi/MCprod/lyon/wphact21/v99e/195.5/wphact21_nc4f_195.5_80.4_16550.xsdst ! RUN = 16550 ! NEVT = 1000
FILE = /castor/cern.ch/delphi/MCprod/lyon/wphact21/v99e/195.5/wphact21_nc4f_195.5_80.4_16551.xsdst ! RUN = 16551 ! NEVT = 999
FILE = /castor/cern.ch/delphi/MCprod/lyon/wphact21/v99e/195.5/wphact21_nc4f_195.5_80.4_16552.xsdst ! RUN = 16552 ! NEVT = 1000
FILE = /castor/cern.ch/delphi/MCprod/lyon/wphact21/v99e/195.5/wphact21_nc4f_195.5_80.4_16553.xsdst ! RUN = 16553 ! NEVT = 1000
FILE = /castor/cern.ch/delphi/MCprod/lyon/wphact21/v99e/195.5/wphact21_nc4f_195.5_80.4_16554.xsdst ! RUN = 16554 ! NEVT = 1000
FILE = /castor/cern.ch/delphi/MCprod/lyon/wphact21/v99e/195.5/wphact21_nc4f_195.5_80.4_16555.xsdst ! RUN = 16555 ! NEVT = 1000
FILE = /castor/cern.ch/delphi/MCprod/lyon/wphact21/v99e/195.5/wphact21_nc4f_195.5_80.4_16556.xsdst ! RUN = 16556 ! NEVT = 999
FILE = /castor/cern.ch/delphi/MCprod/lyon/wphact21/v99e/195.5/wphact21_nc4f_195.5_80.4_16557.xsdst ! RUN = 16557 ! NEVT = 999
FILE = /castor/cern.ch/delphi/MCprod/lyon/wphact21/v99e/195.5/wphact21_nc4f_195.5_80.4_16558.xsdst ! RUN = 16558 ! NEVT = 1000
FILE = /castor/cern.ch/delphi/MCprod/lyon/wphact21/v99e/195.5/wphact21_nc4f_195.5_80.4_16559.xsdst ! RUN = 16559 ! NEVT = 999
FILE = /castor/cern.ch/delphi/MCprod/lyon/wphact21/v99e/195.5/wphact21_nc4f_195.5_80.4_16560.xsdst ! RUN = 16560 ! NEVT = 1000
FILE = /castor/cern.ch/delphi/MCprod/lyon/wphact21/v99e/195.5/wphact21_nc4f_195.5_80.4_16561.xsdst ! RUN = 16561 ! NEVT = 1000
FILE = /castor/cern.ch/delphi/MCprod/lyon/wphact21/v99e/195.5/wphact21_nc4f_195.5_80.4_16562.xsdst ! RUN = 16562 ! NEVT = 1000
FILE = /castor/cern.ch/delphi/MCprod/lyon/wphact21/v99e/195.5/wphact21_nc4f_195.5_80.4_16563.xsdst ! RUN = 16563 ! NEVT = 1000
FILE = /castor/cern.ch/delphi/MCprod/lyon/wphact21/v99e/195.5/wphact21_nc4f_195.5_80.4_16564.xsdst ! RUN = 16564 ! NEVT = 1000
FILE = /castor/cern.ch/delphi/MCprod/lyon/wphact21/v99e/195.5/wphact21_nc4f_195.5_80.4_16565.xsdst ! RUN = 16565 ! NEVT = 1000
FILE = /castor/cern.ch/delphi/MCprod/lyon/wphact21/v99e/195.5/wphact21_nc4f_195.5_80.4_16566.xsdst ! RUN = 16566 ! NEVT = 1000
FILE = /castor/cern.ch/delphi/MCprod/lyon/wphact21/v99e/195.5/wphact21_nc4f_195.5_80.4_16567.xsdst ! RUN = 16567 ! NEVT = 1000
FILE = /castor/cern.ch/delphi/MCprod/lyon/wphact21/v99e/195.5/wphact21_nc4f_195.5_80.4_16568.xsdst ! RUN = 16568 ! NEVT = 1000
FILE = /castor/cern.ch/delphi/MCprod/lyon/wphact21/v99e/195.5/wphact21_nc4f_195.5_80.4_16569.xsdst ! RUN = 16569 ! NEVT = 1000
FILE = /castor/cern.ch/delphi/MCprod/lyon/wphact21/v99e/195.5/wphact21_nc4f_195.5_80.4_16570.xsdst ! RUN = 16570 ! NEVT = 1000
FILE = /castor/cern.ch/delphi/MCprod/lyon/wphact21/v99e/195.5/wphact21_nc4f_195.5_80.4_16571.xsdst ! RUN = 16571 ! NEVT = 1000
FILE = /castor/cern.ch/delphi/MCprod/lyon/wphact21/v99e/195.5/wphact21_nc4f_195.5_80.4_16572.xsdst ! RUN = 16572 ! NEVT = 1000
FILE = /castor/cern.ch/delphi/MCprod/lyon/wphact21/v99e/195.5/wphact21_nc4f_195.5_80.4_16573.xsdst ! RUN = 16573 ! NEVT = 1000
FILE = /castor/cern.ch/delphi/MCprod/lyon/wphact21/v99e/195.5/wphact21_nc4f_195.5_80.4_16574.xsdst ! RUN = 16574 ! NEVT = 1000
FILE = /castor/cern.ch/delphi/MCprod/lyon/wphact21/v99e/195.5/wphact21_nc4f_195.5_80.4_16575.xsdst ! RUN = 16575 ! NEVT = 1000
FILE = /castor/cern.ch/delphi/MCprod/lyon/wphact21/v99e/195.5/wphact21_nc4f_195.5_80.4_16576.xsdst ! RUN = 16576 ! NEVT = 999
FILE = /castor/cern.ch/delphi/MCprod/lyon/wphact21/v99e/195.5/wphact21_nc4f_195.5_80.4_16577.xsdst ! RUN = 16577 ! NEVT = 1000
FILE = /castor/cern.ch/delphi/MCprod/lyon/wphact21/v99e/195.5/wphact21_nc4f_195.5_80.4_16578.xsdst ! RUN = 16578 ! NEVT = 999
FILE = /castor/cern.ch/delphi/MCprod/lyon/wphact21/v99e/195.5/wphact21_nc4f_195.5_80.4_16579.xsdst ! RUN = 16579 ! NEVT = 1000
FILE = /castor/cern.ch/delphi/MCprod/lyon/wphact21/v99e/195.5/wphact21_nc4f_195.5_80.4_16580.xsdst ! RUN = 16580 ! NEVT = 1000
FILE = /castor/cern.ch/delphi/MCprod/lyon/wphact21/v99e/195.5/wphact21_nc4f_195.5_80.4_16581.xsdst ! RUN = 16581 ! NEVT = 999
FILE = /castor/cern.ch/delphi/MCprod/lyon/wphact21/v99e/195.5/wphact21_nc4f_195.5_80.4_16582.xsdst ! RUN = 16582 ! NEVT = 1000
FILE = /castor/cern.ch/delphi/MCprod/lyon/wphact21/v99e/195.5/wphact21_nc4f_195.5_80.4_16583.xsdst ! RUN = 16583 ! NEVT = 1000
FILE = /castor/cern.ch/delphi/MCprod/lyon/wphact21/v99e/195.5/wphact21_nc4f_195.5_80.4_16584.xsdst ! RUN = 16584 ! NEVT = 1000
FILE = /castor/cern.ch/delphi/MCprod/lyon/wphact21/v99e/195.5/wphact21_nc4f_195.5_80.4_16585.xsdst ! RUN = 16585 ! NEVT = 1000
FILE = /castor/cern.ch/delphi/MCprod/lyon/wphact21/v99e/195.5/wphact21_nc4f_195.5_80.4_16586.xsdst ! RUN = 16586 ! NEVT = 1000
FILE = /castor/cern.ch/delphi/MCprod/lyon/wphact21/v99e/195.5/wphact21_nc4f_195.5_80.4_16587.xsdst ! RUN = 16587 ! NEVT = 1000
FILE = /castor/cern.ch/delphi/MCprod/lyon/wphact21/v99e/195.5/wphact21_nc4f_195.5_80.4_16588.xsdst ! RUN = 16588 ! NEVT = 1000
FILE = /castor/cern.ch/delphi/MCprod/lyon/wphact21/v99e/195.5/wphact21_nc4f_195.5_80.4_16589.xsdst ! RUN = 16589 ! NEVT = 1000
FILE = /castor/cern.ch/delphi/MCprod/lyon/wphact21/v99e/195.5/wphact21_nc4f_195.5_80.4_16590.xsdst ! RUN = 16590 ! NEVT = 999
FILE = /castor/cern.ch/delphi/MCprod/lyon/wphact21/v99e/195.5/wphact21_nc4f_195.5_80.4_16591.xsdst ! RUN = 16591 ! NEVT = 1000
FILE = /castor/cern.ch/delphi/MCprod/lyon/wphact21/v99e/195.5/wphact21_nc4f_195.5_80.4_16592.xsdst ! RUN = 16592 ! NEVT = 1000
FILE = /castor/cern.ch/delphi/MCprod/lyon/wphact21/v99e/195.5/wphact21_nc4f_195.5_80.4_16593.xsdst ! RUN = 16593 ! NEVT = 999
FILE = /castor/cern.ch/delphi/MCprod/lyon/wphact21/v99e/195.5/wphact21_nc4f_195.5_80.4_16594.xsdst ! RUN = 16594 ! NEVT = 1000
FILE = /castor/cern.ch/delphi/MCprod/lyon/wphact21/v99e/195.5/wphact21_nc4f_195.5_80.4_16595.xsdst ! RUN = 16595 ! NEVT = 999
FILE = /castor/cern.ch/delphi/MCprod/lyon/wphact21/v99e/195.5/wphact21_nc4f_195.5_80.4_16596.xsdst ! RUN = 16596 ! NEVT = 998
FILE = /castor/cern.ch/delphi/MCprod/lyon/wphact21/v99e/195.5/wphact21_nc4f_195.5_80.4_16597.xsdst ! RUN = 16597 ! NEVT = 999
FILE = /castor/cern.ch/delphi/MCprod/lyon/wphact21/v99e/195.5/wphact21_nc4f_195.5_80.4_16598.xsdst ! RUN = 16598 ! NEVT = 1000
FILE = /castor/cern.ch/delphi/MCprod/lyon/wphact21/v99e/195.5/wphact21_nc4f_195.5_80.4_16599.xsdst ! RUN = 16599 ! NEVT = 1000
FILE = /castor/cern.ch/delphi/MCprod/lyon/wphact21/v99e/195.5/wphact21_nc4f_195.5_80.4_16600.xsdst ! RUN = 16600 ! NEVT = 1000
FILE = /castor/cern.ch/delphi/MCprod/lyon/wphact21/v99e/195.5/wphact21_nc4f_195.5_80.4_16601.xsdst ! RUN = 16601 ! NEVT = 1000
FILE = /castor/cern.ch/delphi/MCprod/lyon/wphact21/v99e/195.5/wphact21_nc4f_195.5_80.4_16602.xsdst ! RUN = 16602 ! NEVT = 999
FILE = /castor/cern.ch/delphi/MCprod/lyon/wphact21/v99e/195.5/wphact21_nc4f_195.5_80.4_16603.xsdst ! RUN = 16603 ! NEVT = 999
FILE = /castor/cern.ch/delphi/MCprod/lyon/wphact21/v99e/195.5/wphact21_nc4f_195.5_80.4_16604.xsdst ! RUN = 16604 ! NEVT = 1000
FILE = /castor/cern.ch/delphi/MCprod/lyon/wphact21/v99e/195.5/wphact21_nc4f_195.5_80.4_16605.xsdst ! RUN = 16605 ! NEVT = 999
FILE = /castor/cern.ch/delphi/MCprod/lyon/wphact21/v99e/195.5/wphact21_nc4f_195.5_80.4_16606.xsdst ! RUN = 16606 ! NEVT = 1000
FILE = /castor/cern.ch/delphi/MCprod/lyon/wphact21/v99e/195.5/wphact21_nc4f_195.5_80.4_16607.xsdst ! RUN = 16607 ! NEVT = 1000
FILE = /castor/cern.ch/delphi/MCprod/lyon/wphact21/v99e/195.5/wphact21_nc4f_195.5_80.4_16608.xsdst ! RUN = 16608 ! NEVT = 1000
FILE = /castor/cern.ch/delphi/MCprod/lyon/wphact21/v99e/195.5/wphact21_nc4f_195.5_80.4_16609.xsdst ! RUN = 16609 ! NEVT = 998
FILE = /castor/cern.ch/delphi/MCprod/lyon/wphact21/v99e/195.5/wphact21_nc4f_195.5_80.4_16610.xsdst ! RUN = 16610 ! NEVT = 999
FILE = /castor/cern.ch/delphi/MCprod/lyon/wphact21/v99e/195.5/wphact21_nc4f_195.5_80.4_16611.xsdst ! RUN = 16611 ! NEVT = 999
FILE = /castor/cern.ch/delphi/MCprod/lyon/wphact21/v99e/195.5/wphact21_nc4f_195.5_80.4_16612.xsdst ! RUN = 16612 ! NEVT = 1000
FILE = /castor/cern.ch/delphi/MCprod/lyon/wphact21/v99e/195.5/wphact21_nc4f_195.5_80.4_16613.xsdst ! RUN = 16613 ! NEVT = 1000
FILE = /castor/cern.ch/delphi/MCprod/lyon/wphact21/v99e/195.5/wphact21_nc4f_195.5_80.4_16614.xsdst ! RUN = 16614 ! NEVT = 1000
FILE = /castor/cern.ch/delphi/MCprod/lyon/wphact21/v99e/195.5/wphact21_nc4f_195.5_80.4_16615.xsdst ! RUN = 16615 ! NEVT = 1000
FILE = /castor/cern.ch/delphi/MCprod/lyon/wphact21/v99e/195.5/wphact21_nc4f_195.5_80.4_16616.xsdst ! RUN = 16616 ! NEVT = 999
FILE = /castor/cern.ch/delphi/MCprod/lyon/wphact21/v99e/195.5/wphact21_nc4f_195.5_80.4_16617.xsdst ! RUN = 16617 ! NEVT = 1000
FILE = /castor/cern.ch/delphi/MCprod/lyon/wphact21/v99e/195.5/wphact21_nc4f_195.5_80.4_16618.xsdst ! RUN = 16618 ! NEVT = 1000
FILE = /castor/cern.ch/delphi/MCprod/lyon/wphact21/v99e/195.5/wphact21_nc4f_195.5_80.4_16619.xsdst ! RUN = 16619 ! NEVT = 1000
FILE = /castor/cern.ch/delphi/MCprod/lyon/wphact21/v99e/195.5/wphact21_nc4f_195.5_80.4_16620.xsdst ! RUN = 16620 ! NEVT = 1000
FILE = /castor/cern.ch/delphi/MCprod/lyon/wphact21/v99e/195.5/wphact21_nc4f_195.5_80.4_16621.xsdst ! RUN = 16621 ! NEVT = 1000
FILE = /castor/cern.ch/delphi/MCprod/lyon/wphact21/v99e/195.5/wphact21_nc4f_195.5_80.4_16622.xsdst ! RUN = 16622 ! NEVT = 999
FILE = /castor/cern.ch/delphi/MCprod/lyon/wphact21/v99e/195.5/wphact21_nc4f_195.5_80.4_16623.xsdst ! RUN = 16623 ! NEVT = 1000
FILE = /castor/cern.ch/delphi/MCprod/lyon/wphact21/v99e/195.5/wphact21_nc4f_195.5_80.4_16624.xsdst ! RUN = 16624 ! NEVT = 1000
FILE = /castor/cern.ch/delphi/MCprod/lyon/wphact21/v99e/195.5/wphact21_nc4f_195.5_80.4_16625.xsdst ! RUN = 16625 ! NEVT = 999
FILE = /castor/cern.ch/delphi/MCprod/lyon/wphact21/v99e/195.5/wphact21_nc4f_195.5_80.4_16626.xsdst ! RUN = 16626 ! NEVT = 1000
FILE = /castor/cern.ch/delphi/MCprod/lyon/wphact21/v99e/195.5/wphact21_nc4f_195.5_80.4_16627.xsdst ! RUN = 16627 ! NEVT = 1000
FILE = /castor/cern.ch/delphi/MCprod/lyon/wphact21/v99e/195.5/wphact21_nc4f_195.5_80.4_16628.xsdst ! RUN = 16628 ! NEVT = 1000
FILE = /castor/cern.ch/delphi/MCprod/lyon/wphact21/v99e/195.5/wphact21_nc4f_195.5_80.4_16629.xsdst ! RUN = 16629 ! NEVT = 1000
FILE = /castor/cern.ch/delphi/MCprod/lyon/wphact21/v99e/195.5/wphact21_nc4f_195.5_80.4_16630.xsdst ! RUN = 16630 ! NEVT = 1000
FILE = /castor/cern.ch/delphi/MCprod/lyon/wphact21/v99e/195.5/wphact21_nc4f_195.5_80.4_16631.xsdst ! RUN = 16631 ! NEVT = 999
FILE = /castor/cern.ch/delphi/MCprod/lyon/wphact21/v99e/195.5/wphact21_nc4f_195.5_80.4_16632.xsdst ! RUN = 16632 ! NEVT = 1000
FILE = /castor/cern.ch/delphi/MCprod/lyon/wphact21/v99e/195.5/wphact21_nc4f_195.5_80.4_16633.xsdst ! RUN = 16633 ! NEVT = 1000
FILE = /castor/cern.ch/delphi/MCprod/lyon/wphact21/v99e/195.5/wphact21_nc4f_195.5_80.4_16634.xsdst ! RUN = 16634 ! NEVT = 1000
FILE = /castor/cern.ch/delphi/MCprod/lyon/wphact21/v99e/195.5/wphact21_nc4f_195.5_80.4_16635.xsdst ! RUN = 16635 ! NEVT = 1000
FILE = /castor/cern.ch/delphi/MCprod/lyon/wphact21/v99e/195.5/wphact21_nc4f_195.5_80.4_16636.xsdst ! RUN = 16636 ! NEVT = 1000
FILE = /castor/cern.ch/delphi/MCprod/lyon/wphact21/v99e/195.5/wphact21_nc4f_195.5_80.4_16637.xsdst ! RUN = 16637 ! NEVT = 1000
FILE = /castor/cern.ch/delphi/MCprod/lyon/wphact21/v99e/195.5/wphact21_nc4f_195.5_80.4_16638.xsdst ! RUN = 16638 ! NEVT = 1000
FILE = /castor/cern.ch/delphi/MCprod/lyon/wphact21/v99e/195.5/wphact21_nc4f_195.5_80.4_16639.xsdst ! RUN = 16639 ! NEVT = 1000
FILE = /castor/cern.ch/delphi/MCprod/lyon/wphact21/v99e/195.5/wphact21_nc4f_195.5_80.4_16640.xsdst ! RUN = 16640 ! NEVT = 1000
FILE = /castor/cern.ch/delphi/MCprod/lyon/wphact21/v99e/195.5/wphact21_nc4f_195.5_80.4_16641.xsdst ! RUN = 16641 ! NEVT = 999
FILE = /castor/cern.ch/delphi/MCprod/lyon/wphact21/v99e/195.5/wphact21_nc4f_195.5_80.4_16642.xsdst ! RUN = 16642 ! NEVT = 1000
FILE = /castor/cern.ch/delphi/MCprod/lyon/wphact21/v99e/195.5/wphact21_nc4f_195.5_80.4_16643.xsdst ! RUN = 16643 ! NEVT = 999
FILE = /castor/cern.ch/delphi/MCprod/lyon/wphact21/v99e/195.5/wphact21_nc4f_195.5_80.4_16644.xsdst ! RUN = 16644 ! NEVT = 1000
FILE = /castor/cern.ch/delphi/MCprod/lyon/wphact21/v99e/195.5/wphact21_nc4f_195.5_80.4_16645.xsdst ! RUN = 16645 ! NEVT = 1000
FILE = /castor/cern.ch/delphi/MCprod/lyon/wphact21/v99e/195.5/wphact21_nc4f_195.5_80.4_16646.xsdst ! RUN = 16646 ! NEVT = 1000
FILE = /castor/cern.ch/delphi/MCprod/lyon/wphact21/v99e/195.5/wphact21_nc4f_195.5_80.4_16647.xsdst ! RUN = 16647 ! NEVT = 998
FILE = /castor/cern.ch/delphi/MCprod/lyon/wphact21/v99e/195.5/wphact21_nc4f_195.5_80.4_16648.xsdst ! RUN = 16648 ! NEVT = 1000
FILE = /castor/cern.ch/delphi/MCprod/lyon/wphact21/v99e/195.5/wphact21_nc4f_195.5_80.4_16649.xsdst ! RUN = 16649 ! NEVT = 1000
FILE = /castor/cern.ch/delphi/MCprod/lyon/wphact21/v99e/195.5/wphact21_nc4f_195.5_80.4_16650.xsdst ! RUN = 16650 ! NEVT = 1000
FILE = /castor/cern.ch/delphi/MCprod/lyon/wphact21/v99e/195.5/wphact21_nc4f_195.5_80.4_16651.xsdst ! RUN = 16651 ! NEVT = 1000
FILE = /castor/cern.ch/delphi/MCprod/lyon/wphact21/v99e/195.5/wphact21_nc4f_195.5_80.4_16652.xsdst ! RUN = 16652 ! NEVT = 1000
FILE = /castor/cern.ch/delphi/MCprod/lyon/wphact21/v99e/195.5/wphact21_nc4f_195.5_80.4_16653.xsdst ! RUN = 16653 ! NEVT = 1000
FILE = /castor/cern.ch/delphi/MCprod/lyon/wphact21/v99e/195.5/wphact21_nc4f_195.5_80.4_16654.xsdst ! RUN = 16654 ! NEVT = 999
FILE = /castor/cern.ch/delphi/MCprod/lyon/wphact21/v99e/195.5/wphact21_nc4f_195.5_80.4_16655.xsdst ! RUN = 16655 ! NEVT = 997
FILE = /castor/cern.ch/delphi/MCprod/lyon/wphact21/v99e/195.5/wphact21_nc4f_195.5_80.4_16656.xsdst ! RUN = 16656 ! NEVT = 998
FILE = /castor/cern.ch/delphi/MCprod/lyon/wphact21/v99e/195.5/wphact21_nc4f_195.5_80.4_16657.xsdst ! RUN = 16657 ! NEVT = 1000
FILE = /castor/cern.ch/delphi/MCprod/lyon/wphact21/v99e/195.5/wphact21_nc4f_195.5_80.4_16658.xsdst ! RUN = 16658 ! NEVT = 998
FILE = /castor/cern.ch/delphi/MCprod/lyon/wphact21/v99e/195.5/wphact21_nc4f_195.5_80.4_16659.xsdst ! RUN = 16659 ! NEVT = 1000
FILE = /castor/cern.ch/delphi/MCprod/lyon/wphact21/v99e/195.5/wphact21_nc4f_195.5_80.4_16660.xsdst ! RUN = 16660 ! NEVT = 1000
FILE = /castor/cern.ch/delphi/MCprod/lyon/wphact21/v99e/195.5/wphact21_nc4f_195.5_80.4_16661.xsdst ! RUN = 16661 ! NEVT = 998
FILE = /castor/cern.ch/delphi/MCprod/lyon/wphact21/v99e/195.5/wphact21_nc4f_195.5_80.4_16662.xsdst ! RUN = 16662 ! NEVT = 1000
FILE = /castor/cern.ch/delphi/MCprod/lyon/wphact21/v99e/195.5/wphact21_nc4f_195.5_80.4_16663.xsdst ! RUN = 16663 ! NEVT = 1000
FILE = /castor/cern.ch/delphi/MCprod/lyon/wphact21/v99e/195.5/wphact21_nc4f_195.5_80.4_16664.xsdst ! RUN = 16664 ! NEVT = 999
FILE = /castor/cern.ch/delphi/MCprod/lyon/wphact21/v99e/195.5/wphact21_nc4f_195.5_80.4_16665.xsdst ! RUN = 16665 ! NEVT = 1000
FILE = /castor/cern.ch/delphi/MCprod/lyon/wphact21/v99e/195.5/wphact21_nc4f_195.5_80.4_16666.xsdst ! RUN = 16666 ! NEVT = 1000
FILE = /castor/cern.ch/delphi/MCprod/lyon/wphact21/v99e/195.5/wphact21_nc4f_195.5_80.4_16667.xsdst ! RUN = 16667 ! NEVT = 1000
FILE = /castor/cern.ch/delphi/MCprod/lyon/wphact21/v99e/195.5/wphact21_nc4f_195.5_80.4_16668.xsdst ! RUN = 16668 ! NEVT = 1000
FILE = /castor/cern.ch/delphi/MCprod/lyon/wphact21/v99e/195.5/wphact21_nc4f_195.5_80.4_16669.xsdst ! RUN = 16669 ! NEVT = 1000
FILE = /castor/cern.ch/delphi/MCprod/lyon/wphact21/v99e/195.5/wphact21_nc4f_195.5_80.4_16670.xsdst ! RUN = 16670 ! NEVT = 1000
FILE = /castor/cern.ch/delphi/MCprod/lyon/wphact21/v99e/195.5/wphact21_nc4f_195.5_80.4_16671.xsdst ! RUN = 16671 ! NEVT = 998
FILE = /castor/cern.ch/delphi/MCprod/lyon/wphact21/v99e/195.5/wphact21_nc4f_195.5_80.4_16672.xsdst ! RUN = 16672 ! NEVT = 1000
FILE = /castor/cern.ch/delphi/MCprod/lyon/wphact21/v99e/195.5/wphact21_nc4f_195.5_80.4_16673.xsdst ! RUN = 16673 ! NEVT = 1000
FILE = /castor/cern.ch/delphi/MCprod/lyon/wphact21/v99e/195.5/wphact21_nc4f_195.5_80.4_16674.xsdst ! RUN = 16674 ! NEVT = 1000
FILE = /castor/cern.ch/delphi/MCprod/lyon/wphact21/v99e/195.5/wphact21_nc4f_195.5_80.4_16675.xsdst ! RUN = 16675 ! NEVT = 999
FILE = /castor/cern.ch/delphi/MCprod/lyon/wphact21/v99e/195.5/wphact21_nc4f_195.5_80.4_16676.xsdst ! RUN = 16676 ! NEVT = 1000
FILE = /castor/cern.ch/delphi/MCprod/lyon/wphact21/v99e/195.5/wphact21_nc4f_195.5_80.4_16677.xsdst ! RUN = 16677 ! NEVT = 998
FILE = /castor/cern.ch/delphi/MCprod/lyon/wphact21/v99e/195.5/wphact21_nc4f_195.5_80.4_16678.xsdst ! RUN = 16678 ! NEVT = 1000
FILE = /castor/cern.ch/delphi/MCprod/lyon/wphact21/v99e/195.5/wphact21_nc4f_195.5_80.4_16679.xsdst ! RUN = 16679 ! NEVT = 1000
FILE = /castor/cern.ch/delphi/MCprod/lyon/wphact21/v99e/195.5/wphact21_nc4f_195.5_80.4_16680.xsdst ! RUN = 16680 ! NEVT = 998
FILE = /castor/cern.ch/delphi/MCprod/lyon/wphact21/v99e/195.5/wphact21_nc4f_195.5_80.4_16681.xsdst ! RUN = 16681 ! NEVT = 999
FILE = /castor/cern.ch/delphi/MCprod/lyon/wphact21/v99e/195.5/wphact21_nc4f_195.5_80.4_16682.xsdst ! RUN = 16682 ! NEVT = 1000
FILE = /castor/cern.ch/delphi/MCprod/lyon/wphact21/v99e/195.5/wphact21_nc4f_195.5_80.4_16683.xsdst ! RUN = 16683 ! NEVT = 999
FILE = /castor/cern.ch/delphi/MCprod/lyon/wphact21/v99e/195.5/wphact21_nc4f_195.5_80.4_16684.xsdst ! RUN = 16684 ! NEVT = 1000
FILE = /castor/cern.ch/delphi/MCprod/lyon/wphact21/v99e/195.5/wphact21_nc4f_195.5_80.4_16685.xsdst ! RUN = 16685 ! NEVT = 1000
FILE = /castor/cern.ch/delphi/MCprod/lyon/wphact21/v99e/195.5/wphact21_nc4f_195.5_80.4_16686.xsdst ! RUN = 16686 ! NEVT = 999
FILE = /castor/cern.ch/delphi/MCprod/lyon/wphact21/v99e/195.5/wphact21_nc4f_195.5_80.4_16687.xsdst ! RUN = 16687 ! NEVT = 999
FILE = /castor/cern.ch/delphi/MCprod/lyon/wphact21/v99e/195.5/wphact21_nc4f_195.5_80.4_16688.xsdst ! RUN = 16688 ! NEVT = 1000
FILE = /castor/cern.ch/delphi/MCprod/lyon/wphact21/v99e/195.5/wphact21_nc4f_195.5_80.4_16689.xsdst ! RUN = 16689 ! NEVT = 1000
FILE = /castor/cern.ch/delphi/MCprod/lyon/wphact21/v99e/195.5/wphact21_nc4f_195.5_80.4_16690.xsdst ! RUN = 16690 ! NEVT = 999
FILE = /castor/cern.ch/delphi/MCprod/lyon/wphact21/v99e/195.5/wphact21_nc4f_195.5_80.4_16691.xsdst ! RUN = 16691 ! NEVT = 1000
FILE = /castor/cern.ch/delphi/MCprod/lyon/wphact21/v99e/195.5/wphact21_nc4f_195.5_80.4_16692.xsdst ! RUN = 16692 ! NEVT = 1000
FILE = /castor/cern.ch/delphi/MCprod/lyon/wphact21/v99e/195.5/wphact21_nc4f_195.5_80.4_16693.xsdst ! RUN = 16693 ! NEVT = 1000
FILE = /castor/cern.ch/delphi/MCprod/lyon/wphact21/v99e/195.5/wphact21_nc4f_195.5_80.4_16694.xsdst ! RUN = 16694 ! NEVT = 1000
FILE = /castor/cern.ch/delphi/MCprod/lyon/wphact21/v99e/195.5/wphact21_nc4f_195.5_80.4_16695.xsdst ! RUN = 16695 ! NEVT = 999
FILE = /castor/cern.ch/delphi/MCprod/lyon/wphact21/v99e/195.5/wphact21_nc4f_195.5_80.4_16696.xsdst ! RUN = 16696 ! NEVT = 1000
FILE = /castor/cern.ch/delphi/MCprod/lyon/wphact21/v99e/195.5/wphact21_nc4f_195.5_80.4_16697.xsdst ! RUN = 16697 ! NEVT = 1000
FILE = /castor/cern.ch/delphi/MCprod/lyon/wphact21/v99e/195.5/wphact21_nc4f_195.5_80.4_16698.xsdst ! RUN = 16698 ! NEVT = 1000
FILE = /castor/cern.ch/delphi/MCprod/lyon/wphact21/v99e/195.5/wphact21_nc4f_195.5_80.4_16699.xsdst ! RUN = 16699 ! NEVT = 999
FILE = /castor/cern.ch/delphi/MCprod/lyon/wphact21/v99e/195.5/wphact21_nc4f_195.5_80.4_16700.xsdst ! RUN = 16700 ! NEVT = 1000
FILE = /castor/cern.ch/delphi/MCprod/lyon/wphact21/v99e/195.5/wphact21_nc4f_195.5_80.4_16701.xsdst ! RUN = 16701 ! NEVT = 999
FILE = /castor/cern.ch/delphi/MCprod/lyon/wphact21/v99e/195.5/wphact21_nc4f_195.5_80.4_16702.xsdst ! RUN = 16702 ! NEVT = 1000
FILE = /castor/cern.ch/delphi/MCprod/lyon/wphact21/v99e/195.5/wphact21_nc4f_195.5_80.4_16703.xsdst ! RUN = 16703 ! NEVT = 1000
FILE = /castor/cern.ch/delphi/MCprod/lyon/wphact21/v99e/195.5/wphact21_nc4f_195.5_80.4_16704.xsdst ! RUN = 16704 ! NEVT = 1000
FILE = /castor/cern.ch/delphi/MCprod/lyon/wphact21/v99e/195.5/wphact21_nc4f_195.5_80.4_16705.xsdst ! RUN = 16705 ! NEVT = 1000
FILE = /castor/cern.ch/delphi/MCprod/lyon/wphact21/v99e/195.5/wphact21_nc4f_195.5_80.4_16706.xsdst ! RUN = 16706 ! NEVT = 1000
FILE = /castor/cern.ch/delphi/MCprod/lyon/wphact21/v99e/195.5/wphact21_nc4f_195.5_80.4_16707.xsdst ! RUN = 16707 ! NEVT = 1000
FILE = /castor/cern.ch/delphi/MCprod/lyon/wphact21/v99e/195.5/wphact21_nc4f_195.5_80.4_16708.xsdst ! RUN = 16708 ! NEVT = 1000
FILE = /castor/cern.ch/delphi/MCprod/lyon/wphact21/v99e/195.5/wphact21_nc4f_195.5_80.4_16709.xsdst ! RUN = 16709 ! NEVT = 1000
FILE = /castor/cern.ch/delphi/MCprod/lyon/wphact21/v99e/195.5/wphact21_nc4f_195.5_80.4_16710.xsdst ! RUN = 16710 ! NEVT = 1000
FILE = /castor/cern.ch/delphi/MCprod/lyon/wphact21/v99e/195.5/wphact21_nc4f_195.5_80.4_16711.xsdst ! RUN = 16711 ! NEVT = 999
FILE = /castor/cern.ch/delphi/MCprod/lyon/wphact21/v99e/195.5/wphact21_nc4f_195.5_80.4_16712.xsdst ! RUN = 16712 ! NEVT = 1000
FILE = /castor/cern.ch/delphi/MCprod/lyon/wphact21/v99e/195.5/wphact21_nc4f_195.5_80.4_16713.xsdst ! RUN = 16713 ! NEVT = 1000
FILE = /castor/cern.ch/delphi/MCprod/lyon/wphact21/v99e/195.5/wphact21_nc4f_195.5_80.4_16714.xsdst ! RUN = 16714 ! NEVT = 1000
FILE = /castor/cern.ch/delphi/MCprod/lyon/wphact21/v99e/195.5/wphact21_nc4f_195.5_80.4_16715.xsdst ! RUN = 16715 ! NEVT = 1000
FILE = /castor/cern.ch/delphi/MCprod/lyon/wphact21/v99e/195.5/wphact21_nc4f_195.5_80.4_16716.xsdst ! RUN = 16716 ! NEVT = 1000
FILE = /castor/cern.ch/delphi/MCprod/lyon/wphact21/v99e/195.5/wphact21_nc4f_195.5_80.4_16717.xsdst ! RUN = 16717 ! NEVT = 1000
FILE = /castor/cern.ch/delphi/MCprod/lyon/wphact21/v99e/195.5/wphact21_nc4f_195.5_80.4_16718.xsdst ! RUN = 16718 ! NEVT = 1000
FILE = /castor/cern.ch/delphi/MCprod/lyon/wphact21/v99e/195.5/wphact21_nc4f_195.5_80.4_16719.xsdst ! RUN = 16719 ! NEVT = 1000
FILE = /castor/cern.ch/delphi/MCprod/lyon/wphact21/v99e/195.5/wphact21_nc4f_195.5_80.4_16720.xsdst ! RUN = 16720 ! NEVT = 1000
FILE = /castor/cern.ch/delphi/MCprod/lyon/wphact21/v99e/195.5/wphact21_nc4f_195.5_80.4_16721.xsdst ! RUN = 16721 ! NEVT = 1000
FILE = /castor/cern.ch/delphi/MCprod/lyon/wphact21/v99e/195.5/wphact21_nc4f_195.5_80.4_16722.xsdst ! RUN = 16722 ! NEVT = 1000
FILE = /castor/cern.ch/delphi/MCprod/lyon/wphact21/v99e/195.5/wphact21_nc4f_195.5_80.4_16723.xsdst ! RUN = 16723 ! NEVT = 1000
FILE = /castor/cern.ch/delphi/MCprod/lyon/wphact21/v99e/195.5/wphact21_nc4f_195.5_80.4_16724.xsdst ! RUN = 16724 ! NEVT = 1000
FILE = /castor/cern.ch/delphi/MCprod/lyon/wphact21/v99e/195.5/wphact21_nc4f_195.5_80.4_16725.xsdst ! RUN = 16725 ! NEVT = 1000
FILE = /castor/cern.ch/delphi/MCprod/lyon/wphact21/v99e/195.5/wphact21_nc4f_195.5_80.4_16726.xsdst ! RUN = 16726 ! NEVT = 1000
FILE = /castor/cern.ch/delphi/MCprod/lyon/wphact21/v99e/195.5/wphact21_nc4f_195.5_80.4_16727.xsdst ! RUN = 16727 ! NEVT = 998
FILE = /castor/cern.ch/delphi/MCprod/lyon/wphact21/v99e/195.5/wphact21_nc4f_195.5_80.4_16728.xsdst ! RUN = 16728 ! NEVT = 1000
FILE = /castor/cern.ch/delphi/MCprod/lyon/wphact21/v99e/195.5/wphact21_nc4f_195.5_80.4_16729.xsdst ! RUN = 16729 ! NEVT = 1000
FILE = /castor/cern.ch/delphi/MCprod/lyon/wphact21/v99e/195.5/wphact21_nc4f_195.5_80.4_16730.xsdst ! RUN = 16730 ! NEVT = 1000
FILE = /castor/cern.ch/delphi/MCprod/lyon/wphact21/v99e/195.5/wphact21_nc4f_195.5_80.4_16731.xsdst ! RUN = 16731 ! NEVT = 1000
FILE = /castor/cern.ch/delphi/MCprod/lyon/wphact21/v99e/195.5/wphact21_nc4f_195.5_80.4_16732.xsdst ! RUN = 16732 ! NEVT = 1000
FILE = /castor/cern.ch/delphi/MCprod/lyon/wphact21/v99e/195.5/wphact21_nc4f_195.5_80.4_16733.xsdst ! RUN = 16733 ! NEVT = 1000
FILE = /castor/cern.ch/delphi/MCprod/lyon/wphact21/v99e/195.5/wphact21_nc4f_195.5_80.4_16734.xsdst ! RUN = 16734 ! NEVT = 1000
FILE = /castor/cern.ch/delphi/MCprod/lyon/wphact21/v99e/195.5/wphact21_nc4f_195.5_80.4_16735.xsdst ! RUN = 16735 ! NEVT = 1000
FILE = /castor/cern.ch/delphi/MCprod/lyon/wphact21/v99e/195.5/wphact21_nc4f_195.5_80.4_16736.xsdst ! RUN = 16736 ! NEVT = 1000
FILE = /castor/cern.ch/delphi/MCprod/lyon/wphact21/v99e/195.5/wphact21_nc4f_195.5_80.4_16737.xsdst ! RUN = 16737 ! NEVT = 1000
FILE = /castor/cern.ch/delphi/MCprod/lyon/wphact21/v99e/195.5/wphact21_nc4f_195.5_80.4_16738.xsdst ! RUN = 16738 ! NEVT = 1000
FILE = /castor/cern.ch/delphi/MCprod/lyon/wphact21/v99e/195.5/wphact21_nc4f_195.5_80.4_16739.xsdst ! RUN = 16739 ! NEVT = 1000
FILE = /castor/cern.ch/delphi/MCprod/lyon/wphact21/v99e/195.5/wphact21_nc4f_195.5_80.4_16740.xsdst ! RUN = 16740 ! NEVT = 1000
FILE = /castor/cern.ch/delphi/MCprod/lyon/wphact21/v99e/195.5/wphact21_nc4f_195.5_80.4_16741.xsdst ! RUN = 16741 ! NEVT = 1000
FILE = /castor/cern.ch/delphi/MCprod/lyon/wphact21/v99e/195.5/wphact21_nc4f_195.5_80.4_16742.xsdst ! RUN = 16742 ! NEVT = 1000
FILE = /castor/cern.ch/delphi/MCprod/lyon/wphact21/v99e/195.5/wphact21_nc4f_195.5_80.4_16743.xsdst ! RUN = 16743 ! NEVT = 1000
FILE = /castor/cern.ch/delphi/MCprod/lyon/wphact21/v99e/195.5/wphact21_nc4f_195.5_80.4_16744.xsdst ! RUN = 16744 ! NEVT = 1000
FILE = /castor/cern.ch/delphi/MCprod/lyon/wphact21/v99e/195.5/wphact21_nc4f_195.5_80.4_16745.xsdst ! RUN = 16745 ! NEVT = 1000
FILE = /castor/cern.ch/delphi/MCprod/lyon/wphact21/v99e/195.5/wphact21_nc4f_195.5_80.4_16746.xsdst ! RUN = 16746 ! NEVT = 1000
FILE = /castor/cern.ch/delphi/MCprod/lyon/wphact21/v99e/195.5/wphact21_nc4f_195.5_80.4_16747.xsdst ! RUN = 16747 ! NEVT = 1000
FILE = /castor/cern.ch/delphi/MCprod/lyon/wphact21/v99e/195.5/wphact21_nc4f_195.5_80.4_16748.xsdst ! RUN = 16748 ! NEVT = 999
FILE = /castor/cern.ch/delphi/MCprod/lyon/wphact21/v99e/195.5/wphact21_nc4f_195.5_80.4_16749.xsdst ! RUN = 16749 ! NEVT = 1000
FILE = /castor/cern.ch/delphi/MCprod/lyon/wphact21/v99e/195.5/wphact21_nc4f_195.5_80.4_16750.xsdst ! RUN = 16750 ! NEVT = 999
FILE = /castor/cern.ch/delphi/MCprod/lyon/wphact21/v99e/195.5/wphact21_nc4f_195.5_80.4_16751.xsdst ! RUN = 16751 ! NEVT = 1000
FILE = /castor/cern.ch/delphi/MCprod/lyon/wphact21/v99e/195.5/wphact21_nc4f_195.5_80.4_16752.xsdst ! RUN = 16752 ! NEVT = 1000
FILE = /castor/cern.ch/delphi/MCprod/lyon/wphact21/v99e/195.5/wphact21_nc4f_195.5_80.4_16753.xsdst ! RUN = 16753 ! NEVT = 1000
FILE = /castor/cern.ch/delphi/MCprod/lyon/wphact21/v99e/195.5/wphact21_nc4f_195.5_80.4_16754.xsdst ! RUN = 16754 ! NEVT = 1000
FILE = /castor/cern.ch/delphi/MCprod/lyon/wphact21/v99e/195.5/wphact21_nc4f_195.5_80.4_16755.xsdst ! RUN = 16755 ! NEVT = 1000
FILE = /castor/cern.ch/delphi/MCprod/lyon/wphact21/v99e/195.5/wphact21_nc4f_195.5_80.4_16756.xsdst ! RUN = 16756 ! NEVT = 999
FILE = /castor/cern.ch/delphi/MCprod/lyon/wphact21/v99e/195.5/wphact21_nc4f_195.5_80.4_16757.xsdst ! RUN = 16757 ! NEVT = 1000
FILE = /castor/cern.ch/delphi/MCprod/lyon/wphact21/v99e/195.5/wphact21_nc4f_195.5_80.4_16758.xsdst ! RUN = 16758 ! NEVT = 999
FILE = /castor/cern.ch/delphi/MCprod/lyon/wphact21/v99e/195.5/wphact21_nc4f_195.5_80.4_16759.xsdst ! RUN = 16759 ! NEVT = 1000
FILE = /castor/cern.ch/delphi/MCprod/lyon/wphact21/v99e/195.5/wphact21_nc4f_195.5_80.4_16760.xsdst ! RUN = 16760 ! NEVT = 1000
FILE = /castor/cern.ch/delphi/MCprod/lyon/wphact21/v99e/195.5/wphact21_nc4f_195.5_80.4_16761.xsdst ! RUN = 16761 ! NEVT = 1000
FILE = /castor/cern.ch/delphi/MCprod/lyon/wphact21/v99e/195.5/wphact21_nc4f_195.5_80.4_16762.xsdst ! RUN = 16762 ! NEVT = 1000
FILE = /castor/cern.ch/delphi/MCprod/lyon/wphact21/v99e/195.5/wphact21_nc4f_195.5_80.4_16763.xsdst ! RUN = 16763 ! NEVT = 1000
FILE = /castor/cern.ch/delphi/MCprod/lyon/wphact21/v99e/195.5/wphact21_nc4f_195.5_80.4_16764.xsdst ! RUN = 16764 ! NEVT = 1000
FILE = /castor/cern.ch/delphi/MCprod/lyon/wphact21/v99e/195.5/wphact21_nc4f_195.5_80.4_16765.xsdst ! RUN = 16765 ! NEVT = 1000
FILE = /castor/cern.ch/delphi/MCprod/lyon/wphact21/v99e/195.5/wphact21_nc4f_195.5_80.4_16766.xsdst ! RUN = 16766 ! NEVT = 826
FILE = /castor/cern.ch/delphi/MCprod/lyon/wphact21/v99e/195.5/wphact21_nc4f_195.5_80.4_16767.xsdst ! RUN = 16767 ! NEVT = 1000
FILE = /castor/cern.ch/delphi/MCprod/lyon/wphact21/v99e/195.5/wphact21_nc4f_195.5_80.4_16768.xsdst ! RUN = 16768 ! NEVT = 999
FILE = /castor/cern.ch/delphi/MCprod/lyon/wphact21/v99e/195.5/wphact21_nc4f_195.5_80.4_16769.xsdst ! RUN = 16769 ! NEVT = 999
FILE = /castor/cern.ch/delphi/MCprod/lyon/wphact21/v99e/195.5/wphact21_nc4f_195.5_80.4_16770.xsdst ! RUN = 16770 ! NEVT = 1000
FILE = /castor/cern.ch/delphi/MCprod/lyon/wphact21/v99e/195.5/wphact21_nc4f_195.5_80.4_16771.xsdst ! RUN = 16771 ! NEVT = 999
FILE = /castor/cern.ch/delphi/MCprod/lyon/wphact21/v99e/195.5/wphact21_nc4f_195.5_80.4_16772.xsdst ! RUN = 16772 ! NEVT = 1000
FILE = /castor/cern.ch/delphi/MCprod/lyon/wphact21/v99e/195.5/wphact21_nc4f_195.5_80.4_16773.xsdst ! RUN = 16773 ! NEVT = 999
FILE = /castor/cern.ch/delphi/MCprod/lyon/wphact21/v99e/195.5/wphact21_nc4f_195.5_80.4_16774.xsdst ! RUN = 16774 ! NEVT = 999
FILE = /castor/cern.ch/delphi/MCprod/lyon/wphact21/v99e/195.5/wphact21_nc4f_195.5_80.4_16775.xsdst ! RUN = 16775 ! NEVT = 1000
FILE = /castor/cern.ch/delphi/MCprod/lyon/wphact21/v99e/195.5/wphact21_nc4f_195.5_80.4_16776.xsdst ! RUN = 16776 ! NEVT = 1000
FILE = /castor/cern.ch/delphi/MCprod/lyon/wphact21/v99e/195.5/wphact21_nc4f_195.5_80.4_16777.xsdst ! RUN = 16777 ! NEVT = 1000
FILE = /castor/cern.ch/delphi/MCprod/lyon/wphact21/v99e/195.5/wphact21_nc4f_195.5_80.4_16778.xsdst ! RUN = 16778 ! NEVT = 1000
FILE = /castor/cern.ch/delphi/MCprod/lyon/wphact21/v99e/195.5/wphact21_nc4f_195.5_80.4_16779.xsdst ! RUN = 16779 ! NEVT = 999
FILE = /castor/cern.ch/delphi/MCprod/lyon/wphact21/v99e/195.5/wphact21_nc4f_195.5_80.4_16780.xsdst ! RUN = 16780 ! NEVT = 1000
FILE = /castor/cern.ch/delphi/MCprod/lyon/wphact21/v99e/195.5/wphact21_nc4f_195.5_80.4_16781.xsdst ! RUN = 16781 ! NEVT = 1000
FILE = /castor/cern.ch/delphi/MCprod/lyon/wphact21/v99e/195.5/wphact21_nc4f_195.5_80.4_16782.xsdst ! RUN = 16782 ! NEVT = 1000
FILE = /castor/cern.ch/delphi/MCprod/lyon/wphact21/v99e/195.5/wphact21_nc4f_195.5_80.4_16783.xsdst ! RUN = 16783 ! NEVT = 1000
FILE = /castor/cern.ch/delphi/MCprod/lyon/wphact21/v99e/195.5/wphact21_nc4f_195.5_80.4_16784.xsdst ! RUN = 16784 ! NEVT = 1000
FILE = /castor/cern.ch/delphi/MCprod/lyon/wphact21/v99e/195.5/wphact21_nc4f_195.5_80.4_16785.xsdst ! RUN = 16785 ! NEVT = 1000
FILE = /castor/cern.ch/delphi/MCprod/lyon/wphact21/v99e/195.5/wphact21_nc4f_195.5_80.4_16786.xsdst ! RUN = 16786 ! NEVT = 1000
FILE = /castor/cern.ch/delphi/MCprod/lyon/wphact21/v99e/195.5/wphact21_nc4f_195.5_80.4_16787.xsdst ! RUN = 16787 ! NEVT = 1000
FILE = /castor/cern.ch/delphi/MCprod/lyon/wphact21/v99e/195.5/wphact21_nc4f_195.5_80.4_16788.xsdst ! RUN = 16788 ! NEVT = 1000
FILE = /castor/cern.ch/delphi/MCprod/lyon/wphact21/v99e/195.5/wphact21_nc4f_195.5_80.4_16789.xsdst ! RUN = 16789 ! NEVT = 1000
FILE = /castor/cern.ch/delphi/MCprod/lyon/wphact21/v99e/195.5/wphact21_nc4f_195.5_80.4_16790.xsdst ! RUN = 16790 ! NEVT = 1000
FILE = /castor/cern.ch/delphi/MCprod/lyon/wphact21/v99e/195.5/wphact21_nc4f_195.5_80.4_16791.xsdst ! RUN = 16791 ! NEVT = 999
FILE = /castor/cern.ch/delphi/MCprod/lyon/wphact21/v99e/195.5/wphact21_nc4f_195.5_80.4_16792.xsdst ! RUN = 16792 ! NEVT = 999
FILE = /castor/cern.ch/delphi/MCprod/lyon/wphact21/v99e/195.5/wphact21_nc4f_195.5_80.4_16793.xsdst ! RUN = 16793 ! NEVT = 999
FILE = /castor/cern.ch/delphi/MCprod/lyon/wphact21/v99e/195.5/wphact21_nc4f_195.5_80.4_16794.xsdst ! RUN = 16794 ! NEVT = 1000
FILE = /castor/cern.ch/delphi/MCprod/lyon/wphact21/v99e/195.5/wphact21_nc4f_195.5_80.4_16795.xsdst ! RUN = 16795 ! NEVT = 1000
FILE = /castor/cern.ch/delphi/MCprod/lyon/wphact21/v99e/195.5/wphact21_nc4f_195.5_80.4_16796.xsdst ! RUN = 16796 ! NEVT = 1000
FILE = /castor/cern.ch/delphi/MCprod/lyon/wphact21/v99e/195.5/wphact21_nc4f_195.5_80.4_16797.xsdst ! RUN = 16797 ! NEVT = 999
FILE = /castor/cern.ch/delphi/MCprod/lyon/wphact21/v99e/195.5/wphact21_nc4f_195.5_80.4_16798.xsdst ! RUN = 16798 ! NEVT = 1000
FILE = /castor/cern.ch/delphi/MCprod/lyon/wphact21/v99e/195.5/wphact21_nc4f_195.5_80.4_16799.xsdst ! RUN = 16799 ! NEVT = 1000
FILE = /castor/cern.ch/delphi/MCprod/lyon/wphact21/v99e/195.5/wphact21_nc4f_195.5_80.4_16800.xsdst ! RUN = 16800 ! NEVT = 999
FILE = /castor/cern.ch/delphi/MCprod/lyon/wphact21/v99e/195.5/wphact21_nc4f_195.5_80.4_16801.xsdst ! RUN = 16801 ! NEVT = 1000
FILE = /castor/cern.ch/delphi/MCprod/lyon/wphact21/v99e/195.5/wphact21_nc4f_195.5_80.4_16802.xsdst ! RUN = 16802 ! NEVT = 1000
FILE = /castor/cern.ch/delphi/MCprod/lyon/wphact21/v99e/195.5/wphact21_nc4f_195.5_80.4_16803.xsdst ! RUN = 16803 ! NEVT = 1000
FILE = /castor/cern.ch/delphi/MCprod/lyon/wphact21/v99e/195.5/wphact21_nc4f_195.5_80.4_16804.xsdst ! RUN = 16804 ! NEVT = 1000
FILE = /castor/cern.ch/delphi/MCprod/lyon/wphact21/v99e/195.5/wphact21_nc4f_195.5_80.4_16805.xsdst ! RUN = 16805 ! NEVT = 1000
FILE = /castor/cern.ch/delphi/MCprod/lyon/wphact21/v99e/195.5/wphact21_nc4f_195.5_80.4_16806.xsdst ! RUN = 16806 ! NEVT = 1000
FILE = /castor/cern.ch/delphi/MCprod/lyon/wphact21/v99e/195.5/wphact21_nc4f_195.5_80.4_16807.xsdst ! RUN = 16807 ! NEVT = 1000
FILE = /castor/cern.ch/delphi/MCprod/lyon/wphact21/v99e/195.5/wphact21_nc4f_195.5_80.4_16808.xsdst ! RUN = 16808 ! NEVT = 1000
FILE = /castor/cern.ch/delphi/MCprod/lyon/wphact21/v99e/195.5/wphact21_nc4f_195.5_80.4_16809.xsdst ! RUN = 16809 ! NEVT = 1000
FILE = /castor/cern.ch/delphi/MCprod/lyon/wphact21/v99e/195.5/wphact21_nc4f_195.5_80.4_16810.xsdst ! RUN = 16810 ! NEVT = 1000
FILE = /castor/cern.ch/delphi/MCprod/lyon/wphact21/v99e/195.5/wphact21_nc4f_195.5_80.4_16811.xsdst ! RUN = 16811 ! NEVT = 1000
FILE = /castor/cern.ch/delphi/MCprod/lyon/wphact21/v99e/195.5/wphact21_nc4f_195.5_80.4_16812.xsdst ! RUN = 16812 ! NEVT = 1000
FILE = /castor/cern.ch/delphi/MCprod/lyon/wphact21/v99e/195.5/wphact21_nc4f_195.5_80.4_16813.xsdst ! RUN = 16813 ! NEVT = 1000
FILE = /castor/cern.ch/delphi/MCprod/lyon/wphact21/v99e/195.5/wphact21_nc4f_195.5_80.4_16814.xsdst ! RUN = 16814 ! NEVT = 1000
FILE = /castor/cern.ch/delphi/MCprod/lyon/wphact21/v99e/195.5/wphact21_nc4f_195.5_80.4_16815.xsdst ! RUN = 16815 ! NEVT = 999
FILE = /castor/cern.ch/delphi/MCprod/lyon/wphact21/v99e/195.5/wphact21_nc4f_195.5_80.4_16816.xsdst ! RUN = 16816 ! NEVT = 1000
FILE = /castor/cern.ch/delphi/MCprod/lyon/wphact21/v99e/195.5/wphact21_nc4f_195.5_80.4_16817.xsdst ! RUN = 16817 ! NEVT = 1000
FILE = /castor/cern.ch/delphi/MCprod/lyon/wphact21/v99e/195.5/wphact21_nc4f_195.5_80.4_16818.xsdst ! RUN = 16818 ! NEVT = 1000
FILE = /castor/cern.ch/delphi/MCprod/lyon/wphact21/v99e/195.5/wphact21_nc4f_195.5_80.4_16819.xsdst ! RUN = 16819 ! NEVT = 1000
FILE = /castor/cern.ch/delphi/MCprod/lyon/wphact21/v99e/195.5/wphact21_nc4f_195.5_80.4_16820.xsdst ! RUN = 16820 ! NEVT = 1000
FILE = /castor/cern.ch/delphi/MCprod/lyon/wphact21/v99e/195.5/wphact21_nc4f_195.5_80.4_16821.xsdst ! RUN = 16821 ! NEVT = 1000
FILE = /castor/cern.ch/delphi/MCprod/lyon/wphact21/v99e/195.5/wphact21_nc4f_195.5_80.4_16822.xsdst ! RUN = 16822 ! NEVT = 1000
FILE = /castor/cern.ch/delphi/MCprod/lyon/wphact21/v99e/195.5/wphact21_nc4f_195.5_80.4_16823.xsdst ! RUN = 16823 ! NEVT = 1000
FILE = /castor/cern.ch/delphi/MCprod/lyon/wphact21/v99e/195.5/wphact21_nc4f_195.5_80.4_16824.xsdst ! RUN = 16824 ! NEVT = 1000
FILE = /castor/cern.ch/delphi/MCprod/lyon/wphact21/v99e/195.5/wphact21_nc4f_195.5_80.4_16825.xsdst ! RUN = 16825 ! NEVT = 1000
FILE = /castor/cern.ch/delphi/MCprod/lyon/wphact21/v99e/195.5/wphact21_nc4f_195.5_80.4_16826.xsdst ! RUN = 16826 ! NEVT = 1000
FILE = /castor/cern.ch/delphi/MCprod/lyon/wphact21/v99e/195.5/wphact21_nc4f_195.5_80.4_16827.xsdst ! RUN = 16827 ! NEVT = 1000
FILE = /castor/cern.ch/delphi/MCprod/lyon/wphact21/v99e/195.5/wphact21_nc4f_195.5_80.4_16828.xsdst ! RUN = 16828 ! NEVT = 1000
FILE = /castor/cern.ch/delphi/MCprod/lyon/wphact21/v99e/195.5/wphact21_nc4f_195.5_80.4_16829.xsdst ! RUN = 16829 ! NEVT = 1000
FILE = /castor/cern.ch/delphi/MCprod/lyon/wphact21/v99e/195.5/wphact21_nc4f_195.5_80.4_16830.xsdst ! RUN = 16830 ! NEVT = 1000
FILE = /castor/cern.ch/delphi/MCprod/lyon/wphact21/v99e/195.5/wphact21_nc4f_195.5_80.4_16831.xsdst ! RUN = 16831 ! NEVT = 999
FILE = /castor/cern.ch/delphi/MCprod/lyon/wphact21/v99e/195.5/wphact21_nc4f_195.5_80.4_16832.xsdst ! RUN = 16832 ! NEVT = 1000
FILE = /castor/cern.ch/delphi/MCprod/lyon/wphact21/v99e/195.5/wphact21_nc4f_195.5_80.4_16833.xsdst ! RUN = 16833 ! NEVT = 1000
FILE = /castor/cern.ch/delphi/MCprod/lyon/wphact21/v99e/195.5/wphact21_nc4f_195.5_80.4_16834.xsdst ! RUN = 16834 ! NEVT = 999
FILE = /castor/cern.ch/delphi/MCprod/lyon/wphact21/v99e/195.5/wphact21_nc4f_195.5_80.4_16835.xsdst ! RUN = 16835 ! NEVT = 1000
FILE = /castor/cern.ch/delphi/MCprod/lyon/wphact21/v99e/195.5/wphact21_nc4f_195.5_80.4_16836.xsdst ! RUN = 16836 ! NEVT = 1000
FILE = /castor/cern.ch/delphi/MCprod/lyon/wphact21/v99e/195.5/wphact21_nc4f_195.5_80.4_16837.xsdst ! RUN = 16837 ! NEVT = 1000
FILE = /castor/cern.ch/delphi/MCprod/lyon/wphact21/v99e/195.5/wphact21_nc4f_195.5_80.4_16838.xsdst ! RUN = 16838 ! NEVT = 1000
FILE = /castor/cern.ch/delphi/MCprod/lyon/wphact21/v99e/195.5/wphact21_nc4f_195.5_80.4_16839.xsdst ! RUN = 16839 ! NEVT = 1000
FILE = /castor/cern.ch/delphi/MCprod/lyon/wphact21/v99e/195.5/wphact21_nc4f_195.5_80.4_16840.xsdst ! RUN = 16840 ! NEVT = 1000
FILE = /castor/cern.ch/delphi/MCprod/lyon/wphact21/v99e/195.5/wphact21_nc4f_195.5_80.4_16841.xsdst ! RUN = 16841 ! NEVT = 999
FILE = /castor/cern.ch/delphi/MCprod/lyon/wphact21/v99e/195.5/wphact21_nc4f_195.5_80.4_16842.xsdst ! RUN = 16842 ! NEVT = 1000
FILE = /castor/cern.ch/delphi/MCprod/lyon/wphact21/v99e/195.5/wphact21_nc4f_195.5_80.4_16843.xsdst ! RUN = 16843 ! NEVT = 1000
FILE = /castor/cern.ch/delphi/MCprod/lyon/wphact21/v99e/195.5/wphact21_nc4f_195.5_80.4_16844.xsdst ! RUN = 16844 ! NEVT = 1000
FILE = /castor/cern.ch/delphi/MCprod/lyon/wphact21/v99e/195.5/wphact21_nc4f_195.5_80.4_16845.xsdst ! RUN = 16845 ! NEVT = 999
FILE = /castor/cern.ch/delphi/MCprod/lyon/wphact21/v99e/195.5/wphact21_nc4f_195.5_80.4_16846.xsdst ! RUN = 16846 ! NEVT = 1000
FILE = /castor/cern.ch/delphi/MCprod/lyon/wphact21/v99e/195.5/wphact21_nc4f_195.5_80.4_16847.xsdst ! RUN = 16847 ! NEVT = 999
FILE = /castor/cern.ch/delphi/MCprod/lyon/wphact21/v99e/195.5/wphact21_nc4f_195.5_80.4_16848.xsdst ! RUN = 16848 ! NEVT = 1000
FILE = /castor/cern.ch/delphi/MCprod/lyon/wphact21/v99e/195.5/wphact21_nc4f_195.5_80.4_16849.xsdst ! RUN = 16849 ! NEVT = 1000
FILE = /castor/cern.ch/delphi/MCprod/lyon/wphact21/v99e/195.5/wphact21_nc4f_195.5_80.4_16850.xsdst ! RUN = 16850 ! NEVT = 1000
FILE = /castor/cern.ch/delphi/MCprod/lyon/wphact21/v99e/195.5/wphact21_nc4f_195.5_80.4_16851.xsdst ! RUN = 16851 ! NEVT = 1000
FILE = /castor/cern.ch/delphi/MCprod/lyon/wphact21/v99e/195.5/wphact21_nc4f_195.5_80.4_16852.xsdst ! RUN = 16852 ! NEVT = 999
FILE = /castor/cern.ch/delphi/MCprod/lyon/wphact21/v99e/195.5/wphact21_nc4f_195.5_80.4_16853.xsdst ! RUN = 16853 ! NEVT = 1000
FILE = /castor/cern.ch/delphi/MCprod/lyon/wphact21/v99e/195.5/wphact21_nc4f_195.5_80.4_16854.xsdst ! RUN = 16854 ! NEVT = 1000
FILE = /castor/cern.ch/delphi/MCprod/lyon/wphact21/v99e/195.5/wphact21_nc4f_195.5_80.4_16855.xsdst ! RUN = 16855 ! NEVT = 1000
FILE = /castor/cern.ch/delphi/MCprod/lyon/wphact21/v99e/195.5/wphact21_nc4f_195.5_80.4_16856.xsdst ! RUN = 16856 ! NEVT = 1000
FILE = /castor/cern.ch/delphi/MCprod/lyon/wphact21/v99e/195.5/wphact21_nc4f_195.5_80.4_16857.xsdst ! RUN = 16857 ! NEVT = 1000
FILE = /castor/cern.ch/delphi/MCprod/lyon/wphact21/v99e/195.5/wphact21_nc4f_195.5_80.4_16858.xsdst ! RUN = 16858 ! NEVT = 1000
FILE = /castor/cern.ch/delphi/MCprod/lyon/wphact21/v99e/195.5/wphact21_nc4f_195.5_80.4_16859.xsdst ! RUN = 16859 ! NEVT = 999
FILE = /castor/cern.ch/delphi/MCprod/lyon/wphact21/v99e/195.5/wphact21_nc4f_195.5_80.4_16860.xsdst ! RUN = 16860 ! NEVT = 1000
