*   Nickname :     dsto_wphact24cc_e182.7_m80.4_c97_1l_g
*   Generic Name : //CERN/DELPHI/P02_SIMD/DSTO/WPHACT24CC/E182.7/CERN/SUMT/C001-498
*   Description :   Full DST/Delana output simulation 97g  done at ecm=182.7 GeV , CERN
*   Comments :     in total 931662 events in 498 files, time stamp: Mon Jun 30 4:12:20 2003
*
*
*
FILE = /castor/cern.ch/delphi/MCprod/cern/wphact24/v97g/182.7/wphact24_cc_182.7_80.4_200001.fadana ! RUN = 200001 ! NEVT = 1305
FILE = /castor/cern.ch/delphi/MCprod/cern/wphact24/v97g/182.7/wphact24_cc_182.7_80.4_200002.fadana ! RUN = 200002 ! NEVT = 2000
FILE = /castor/cern.ch/delphi/MCprod/cern/wphact24/v97g/182.7/wphact24_cc_182.7_80.4_200003.fadana ! RUN = 200003 ! NEVT = 2000
FILE = /castor/cern.ch/delphi/MCprod/cern/wphact24/v97g/182.7/wphact24_cc_182.7_80.4_200004.fadana ! RUN = 200004 ! NEVT = 1011
FILE = /castor/cern.ch/delphi/MCprod/cern/wphact24/v97g/182.7/wphact24_cc_182.7_80.4_200005.fadana ! RUN = 200005 ! NEVT = 1999
FILE = /castor/cern.ch/delphi/MCprod/cern/wphact24/v97g/182.7/wphact24_cc_182.7_80.4_200006.fadana ! RUN = 200006 ! NEVT = 1999
FILE = /castor/cern.ch/delphi/MCprod/cern/wphact24/v97g/182.7/wphact24_cc_182.7_80.4_200007.fadana ! RUN = 200007 ! NEVT = 1999
FILE = /castor/cern.ch/delphi/MCprod/cern/wphact24/v97g/182.7/wphact24_cc_182.7_80.4_200008.fadana ! RUN = 200008 ! NEVT = 2000
FILE = /castor/cern.ch/delphi/MCprod/cern/wphact24/v97g/182.7/wphact24_cc_182.7_80.4_200009.fadana ! RUN = 200009 ! NEVT = 2000
FILE = /castor/cern.ch/delphi/MCprod/cern/wphact24/v97g/182.7/wphact24_cc_182.7_80.4_200010.fadana ! RUN = 200010 ! NEVT = 2000
FILE = /castor/cern.ch/delphi/MCprod/cern/wphact24/v97g/182.7/wphact24_cc_182.7_80.4_200011.fadana ! RUN = 200011 ! NEVT = 1173
FILE = /castor/cern.ch/delphi/MCprod/cern/wphact24/v97g/182.7/wphact24_cc_182.7_80.4_200012.fadana ! RUN = 200012 ! NEVT = 2000
FILE = /castor/cern.ch/delphi/MCprod/cern/wphact24/v97g/182.7/wphact24_cc_182.7_80.4_200013.fadana ! RUN = 200013 ! NEVT = 2000
FILE = /castor/cern.ch/delphi/MCprod/cern/wphact24/v97g/182.7/wphact24_cc_182.7_80.4_200014.fadana ! RUN = 200014 ! NEVT = 433
FILE = /castor/cern.ch/delphi/MCprod/cern/wphact24/v97g/182.7/wphact24_cc_182.7_80.4_200015.fadana ! RUN = 200015 ! NEVT = 867
FILE = /castor/cern.ch/delphi/MCprod/cern/wphact24/v97g/182.7/wphact24_cc_182.7_80.4_200016.fadana ! RUN = 200016 ! NEVT = 1410
FILE = /castor/cern.ch/delphi/MCprod/cern/wphact24/v97g/182.7/wphact24_cc_182.7_80.4_200017.fadana ! RUN = 200017 ! NEVT = 1999
FILE = /castor/cern.ch/delphi/MCprod/cern/wphact24/v97g/182.7/wphact24_cc_182.7_80.4_200018.fadana ! RUN = 200018 ! NEVT = 65
FILE = /castor/cern.ch/delphi/MCprod/cern/wphact24/v97g/182.7/wphact24_cc_182.7_80.4_200019.fadana ! RUN = 200019 ! NEVT = 2000
FILE = /castor/cern.ch/delphi/MCprod/cern/wphact24/v97g/182.7/wphact24_cc_182.7_80.4_200020.fadana ! RUN = 200020 ! NEVT = 1999
FILE = /castor/cern.ch/delphi/MCprod/cern/wphact24/v97g/182.7/wphact24_cc_182.7_80.4_200021.fadana ! RUN = 200021 ! NEVT = 999
FILE = /castor/cern.ch/delphi/MCprod/cern/wphact24/v97g/182.7/wphact24_cc_182.7_80.4_200022.fadana ! RUN = 200022 ! NEVT = 1998
FILE = /castor/cern.ch/delphi/MCprod/cern/wphact24/v97g/182.7/wphact24_cc_182.7_80.4_200023.fadana ! RUN = 200023 ! NEVT = 1999
FILE = /castor/cern.ch/delphi/MCprod/cern/wphact24/v97g/182.7/wphact24_cc_182.7_80.4_200024.fadana ! RUN = 200024 ! NEVT = 1999
FILE = /castor/cern.ch/delphi/MCprod/cern/wphact24/v97g/182.7/wphact24_cc_182.7_80.4_200025.fadana ! RUN = 200025 ! NEVT = 356
FILE = /castor/cern.ch/delphi/MCprod/cern/wphact24/v97g/182.7/wphact24_cc_182.7_80.4_200026.fadana ! RUN = 200026 ! NEVT = 58
FILE = /castor/cern.ch/delphi/MCprod/cern/wphact24/v97g/182.7/wphact24_cc_182.7_80.4_200027.fadana ! RUN = 200027 ! NEVT = 1803
FILE = /castor/cern.ch/delphi/MCprod/cern/wphact24/v97g/182.7/wphact24_cc_182.7_80.4_200028.fadana ! RUN = 200028 ! NEVT = 1504
FILE = /castor/cern.ch/delphi/MCprod/cern/wphact24/v97g/182.7/wphact24_cc_182.7_80.4_200029.fadana ! RUN = 200029 ! NEVT = 1318
FILE = /castor/cern.ch/delphi/MCprod/cern/wphact24/v97g/182.7/wphact24_cc_182.7_80.4_200030.fadana ! RUN = 200030 ! NEVT = 2000
FILE = /castor/cern.ch/delphi/MCprod/cern/wphact24/v97g/182.7/wphact24_cc_182.7_80.4_200031.fadana ! RUN = 200031 ! NEVT = 2000
FILE = /castor/cern.ch/delphi/MCprod/cern/wphact24/v97g/182.7/wphact24_cc_182.7_80.4_200032.fadana ! RUN = 200032 ! NEVT = 1999
FILE = /castor/cern.ch/delphi/MCprod/cern/wphact24/v97g/182.7/wphact24_cc_182.7_80.4_200033.fadana ! RUN = 200033 ! NEVT = 357
FILE = /castor/cern.ch/delphi/MCprod/cern/wphact24/v97g/182.7/wphact24_cc_182.7_80.4_200034.fadana ! RUN = 200034 ! NEVT = 114
FILE = /castor/cern.ch/delphi/MCprod/cern/wphact24/v97g/182.7/wphact24_cc_182.7_80.4_200035.fadana ! RUN = 200035 ! NEVT = 1999
FILE = /castor/cern.ch/delphi/MCprod/cern/wphact24/v97g/182.7/wphact24_cc_182.7_80.4_200036.fadana ! RUN = 200036 ! NEVT = 1999
FILE = /castor/cern.ch/delphi/MCprod/cern/wphact24/v97g/182.7/wphact24_cc_182.7_80.4_200037.fadana ! RUN = 200037 ! NEVT = 862
FILE = /castor/cern.ch/delphi/MCprod/cern/wphact24/v97g/182.7/wphact24_cc_182.7_80.4_200038.fadana ! RUN = 200038 ! NEVT = 2000
FILE = /castor/cern.ch/delphi/MCprod/cern/wphact24/v97g/182.7/wphact24_cc_182.7_80.4_200039.fadana ! RUN = 200039 ! NEVT = 1999
FILE = /castor/cern.ch/delphi/MCprod/cern/wphact24/v97g/182.7/wphact24_cc_182.7_80.4_200040.fadana ! RUN = 200040 ! NEVT = 1999
FILE = /castor/cern.ch/delphi/MCprod/cern/wphact24/v97g/182.7/wphact24_cc_182.7_80.4_200041.fadana ! RUN = 200041 ! NEVT = 223
FILE = /castor/cern.ch/delphi/MCprod/cern/wphact24/v97g/182.7/wphact24_cc_182.7_80.4_200042.fadana ! RUN = 200042 ! NEVT = 2000
FILE = /castor/cern.ch/delphi/MCprod/cern/wphact24/v97g/182.7/wphact24_cc_182.7_80.4_200043.fadana ! RUN = 200043 ! NEVT = 2000
FILE = /castor/cern.ch/delphi/MCprod/cern/wphact24/v97g/182.7/wphact24_cc_182.7_80.4_200044.fadana ! RUN = 200044 ! NEVT = 1295
FILE = /castor/cern.ch/delphi/MCprod/cern/wphact24/v97g/182.7/wphact24_cc_182.7_80.4_200045.fadana ! RUN = 200045 ! NEVT = 992
FILE = /castor/cern.ch/delphi/MCprod/cern/wphact24/v97g/182.7/wphact24_cc_182.7_80.4_200046.fadana ! RUN = 200046 ! NEVT = 2000
FILE = /castor/cern.ch/delphi/MCprod/cern/wphact24/v97g/182.7/wphact24_cc_182.7_80.4_200047.fadana ! RUN = 200047 ! NEVT = 771
FILE = /castor/cern.ch/delphi/MCprod/cern/wphact24/v97g/182.7/wphact24_cc_182.7_80.4_200048.fadana ! RUN = 200048 ! NEVT = 2000
FILE = /castor/cern.ch/delphi/MCprod/cern/wphact24/v97g/182.7/wphact24_cc_182.7_80.4_200049.fadana ! RUN = 200049 ! NEVT = 42
FILE = /castor/cern.ch/delphi/MCprod/cern/wphact24/v97g/182.7/wphact24_cc_182.7_80.4_200050.fadana ! RUN = 200050 ! NEVT = 1187
FILE = /castor/cern.ch/delphi/MCprod/cern/wphact24/v97g/182.7/wphact24_cc_182.7_80.4_200051.fadana ! RUN = 200051 ! NEVT = 536
FILE = /castor/cern.ch/delphi/MCprod/cern/wphact24/v97g/182.7/wphact24_cc_182.7_80.4_200052.fadana ! RUN = 200052 ! NEVT = 2000
FILE = /castor/cern.ch/delphi/MCprod/cern/wphact24/v97g/182.7/wphact24_cc_182.7_80.4_200053.fadana ! RUN = 200053 ! NEVT = 623
FILE = /castor/cern.ch/delphi/MCprod/cern/wphact24/v97g/182.7/wphact24_cc_182.7_80.4_200054.fadana ! RUN = 200054 ! NEVT = 1999
FILE = /castor/cern.ch/delphi/MCprod/cern/wphact24/v97g/182.7/wphact24_cc_182.7_80.4_200055.fadana ! RUN = 200055 ! NEVT = 1999
FILE = /castor/cern.ch/delphi/MCprod/cern/wphact24/v97g/182.7/wphact24_cc_182.7_80.4_200056.fadana ! RUN = 200056 ! NEVT = 1999
FILE = /castor/cern.ch/delphi/MCprod/cern/wphact24/v97g/182.7/wphact24_cc_182.7_80.4_200057.fadana ! RUN = 200057 ! NEVT = 2000
FILE = /castor/cern.ch/delphi/MCprod/cern/wphact24/v97g/182.7/wphact24_cc_182.7_80.4_200058.fadana ! RUN = 200058 ! NEVT = 153
FILE = /castor/cern.ch/delphi/MCprod/cern/wphact24/v97g/182.7/wphact24_cc_182.7_80.4_200059.fadana ! RUN = 200059 ! NEVT = 186
FILE = /castor/cern.ch/delphi/MCprod/cern/wphact24/v97g/182.7/wphact24_cc_182.7_80.4_200060.fadana ! RUN = 200060 ! NEVT = 532
FILE = /castor/cern.ch/delphi/MCprod/cern/wphact24/v97g/182.7/wphact24_cc_182.7_80.4_200061.fadana ! RUN = 200061 ! NEVT = 566
FILE = /castor/cern.ch/delphi/MCprod/cern/wphact24/v97g/182.7/wphact24_cc_182.7_80.4_200062.fadana ! RUN = 200062 ! NEVT = 1672
FILE = /castor/cern.ch/delphi/MCprod/cern/wphact24/v97g/182.7/wphact24_cc_182.7_80.4_200063.fadana ! RUN = 200063 ! NEVT = 2000
FILE = /castor/cern.ch/delphi/MCprod/cern/wphact24/v97g/182.7/wphact24_cc_182.7_80.4_200064.fadana ! RUN = 200064 ! NEVT = 1999
FILE = /castor/cern.ch/delphi/MCprod/cern/wphact24/v97g/182.7/wphact24_cc_182.7_80.4_200065.fadana ! RUN = 200065 ! NEVT = 2000
FILE = /castor/cern.ch/delphi/MCprod/cern/wphact24/v97g/182.7/wphact24_cc_182.7_80.4_200066.fadana ! RUN = 200066 ! NEVT = 2000
FILE = /castor/cern.ch/delphi/MCprod/cern/wphact24/v97g/182.7/wphact24_cc_182.7_80.4_200067.fadana ! RUN = 200067 ! NEVT = 802
FILE = /castor/cern.ch/delphi/MCprod/cern/wphact24/v97g/182.7/wphact24_cc_182.7_80.4_200068.fadana ! RUN = 200068 ! NEVT = 2000
FILE = /castor/cern.ch/delphi/MCprod/cern/wphact24/v97g/182.7/wphact24_cc_182.7_80.4_200069.fadana ! RUN = 200069 ! NEVT = 399
FILE = /castor/cern.ch/delphi/MCprod/cern/wphact24/v97g/182.7/wphact24_cc_182.7_80.4_200070.fadana ! RUN = 200070 ! NEVT = 1033
FILE = /castor/cern.ch/delphi/MCprod/cern/wphact24/v97g/182.7/wphact24_cc_182.7_80.4_200071.fadana ! RUN = 200071 ! NEVT = 60
FILE = /castor/cern.ch/delphi/MCprod/cern/wphact24/v97g/182.7/wphact24_cc_182.7_80.4_200072.fadana ! RUN = 200072 ! NEVT = 2000
FILE = /castor/cern.ch/delphi/MCprod/cern/wphact24/v97g/182.7/wphact24_cc_182.7_80.4_200073.fadana ! RUN = 200073 ! NEVT = 1999
FILE = /castor/cern.ch/delphi/MCprod/cern/wphact24/v97g/182.7/wphact24_cc_182.7_80.4_200074.fadana ! RUN = 200074 ! NEVT = 702
FILE = /castor/cern.ch/delphi/MCprod/cern/wphact24/v97g/182.7/wphact24_cc_182.7_80.4_200075.fadana ! RUN = 200075 ! NEVT = 768
FILE = /castor/cern.ch/delphi/MCprod/cern/wphact24/v97g/182.7/wphact24_cc_182.7_80.4_200076.fadana ! RUN = 200076 ! NEVT = 278
FILE = /castor/cern.ch/delphi/MCprod/cern/wphact24/v97g/182.7/wphact24_cc_182.7_80.4_200077.fadana ! RUN = 200077 ! NEVT = 1052
FILE = /castor/cern.ch/delphi/MCprod/cern/wphact24/v97g/182.7/wphact24_cc_182.7_80.4_200078.fadana ! RUN = 200078 ! NEVT = 1998
FILE = /castor/cern.ch/delphi/MCprod/cern/wphact24/v97g/182.7/wphact24_cc_182.7_80.4_200079.fadana ! RUN = 200079 ! NEVT = 1530
FILE = /castor/cern.ch/delphi/MCprod/cern/wphact24/v97g/182.7/wphact24_cc_182.7_80.4_200080.fadana ! RUN = 200080 ! NEVT = 579
FILE = /castor/cern.ch/delphi/MCprod/cern/wphact24/v97g/182.7/wphact24_cc_182.7_80.4_200081.fadana ! RUN = 200081 ! NEVT = 1998
FILE = /castor/cern.ch/delphi/MCprod/cern/wphact24/v97g/182.7/wphact24_cc_182.7_80.4_200082.fadana ! RUN = 200082 ! NEVT = 1999
FILE = /castor/cern.ch/delphi/MCprod/cern/wphact24/v97g/182.7/wphact24_cc_182.7_80.4_200083.fadana ! RUN = 200083 ! NEVT = 1399
FILE = /castor/cern.ch/delphi/MCprod/cern/wphact24/v97g/182.7/wphact24_cc_182.7_80.4_200084.fadana ! RUN = 200084 ! NEVT = 1999
FILE = /castor/cern.ch/delphi/MCprod/cern/wphact24/v97g/182.7/wphact24_cc_182.7_80.4_200085.fadana ! RUN = 200085 ! NEVT = 741
FILE = /castor/cern.ch/delphi/MCprod/cern/wphact24/v97g/182.7/wphact24_cc_182.7_80.4_200086.fadana ! RUN = 200086 ! NEVT = 2000
FILE = /castor/cern.ch/delphi/MCprod/cern/wphact24/v97g/182.7/wphact24_cc_182.7_80.4_200087.fadana ! RUN = 200087 ! NEVT = 1877
FILE = /castor/cern.ch/delphi/MCprod/cern/wphact24/v97g/182.7/wphact24_cc_182.7_80.4_200088.fadana ! RUN = 200088 ! NEVT = 1171
FILE = /castor/cern.ch/delphi/MCprod/cern/wphact24/v97g/182.7/wphact24_cc_182.7_80.4_200089.fadana ! RUN = 200089 ! NEVT = 2000
FILE = /castor/cern.ch/delphi/MCprod/cern/wphact24/v97g/182.7/wphact24_cc_182.7_80.4_200090.fadana ! RUN = 200090 ! NEVT = 222
FILE = /castor/cern.ch/delphi/MCprod/cern/wphact24/v97g/182.7/wphact24_cc_182.7_80.4_200091.fadana ! RUN = 200091 ! NEVT = 2000
FILE = /castor/cern.ch/delphi/MCprod/cern/wphact24/v97g/182.7/wphact24_cc_182.7_80.4_200092.fadana ! RUN = 200092 ! NEVT = 2000
FILE = /castor/cern.ch/delphi/MCprod/cern/wphact24/v97g/182.7/wphact24_cc_182.7_80.4_200093.fadana ! RUN = 200093 ! NEVT = 954
FILE = /castor/cern.ch/delphi/MCprod/cern/wphact24/v97g/182.7/wphact24_cc_182.7_80.4_200094.fadana ! RUN = 200094 ! NEVT = 2000
FILE = /castor/cern.ch/delphi/MCprod/cern/wphact24/v97g/182.7/wphact24_cc_182.7_80.4_200095.fadana ! RUN = 200095 ! NEVT = 2000
FILE = /castor/cern.ch/delphi/MCprod/cern/wphact24/v97g/182.7/wphact24_cc_182.7_80.4_200096.fadana ! RUN = 200096 ! NEVT = 898
FILE = /castor/cern.ch/delphi/MCprod/cern/wphact24/v97g/182.7/wphact24_cc_182.7_80.4_200098.fadana ! RUN = 200098 ! NEVT = 223
FILE = /castor/cern.ch/delphi/MCprod/cern/wphact24/v97g/182.7/wphact24_cc_182.7_80.4_200099.fadana ! RUN = 200099 ! NEVT = 521
FILE = /castor/cern.ch/delphi/MCprod/cern/wphact24/v97g/182.7/wphact24_cc_182.7_80.4_200100.fadana ! RUN = 200100 ! NEVT = 257
FILE = /castor/cern.ch/delphi/MCprod/cern/wphact24/v97g/182.7/wphact24_cc_182.7_80.4_200101.fadana ! RUN = 200101 ! NEVT = 1998
FILE = /castor/cern.ch/delphi/MCprod/cern/wphact24/v97g/182.7/wphact24_cc_182.7_80.4_200102.fadana ! RUN = 200102 ! NEVT = 1712
FILE = /castor/cern.ch/delphi/MCprod/cern/wphact24/v97g/182.7/wphact24_cc_182.7_80.4_200103.fadana ! RUN = 200103 ! NEVT = 960
FILE = /castor/cern.ch/delphi/MCprod/cern/wphact24/v97g/182.7/wphact24_cc_182.7_80.4_200104.fadana ! RUN = 200104 ! NEVT = 2000
FILE = /castor/cern.ch/delphi/MCprod/cern/wphact24/v97g/182.7/wphact24_cc_182.7_80.4_200105.fadana ! RUN = 200105 ! NEVT = 2000
FILE = /castor/cern.ch/delphi/MCprod/cern/wphact24/v97g/182.7/wphact24_cc_182.7_80.4_200106.fadana ! RUN = 200106 ! NEVT = 1998
FILE = /castor/cern.ch/delphi/MCprod/cern/wphact24/v97g/182.7/wphact24_cc_182.7_80.4_200107.fadana ! RUN = 200107 ! NEVT = 1999
FILE = /castor/cern.ch/delphi/MCprod/cern/wphact24/v97g/182.7/wphact24_cc_182.7_80.4_200108.fadana ! RUN = 200108 ! NEVT = 1998
FILE = /castor/cern.ch/delphi/MCprod/cern/wphact24/v97g/182.7/wphact24_cc_182.7_80.4_200109.fadana ! RUN = 200109 ! NEVT = 2000
FILE = /castor/cern.ch/delphi/MCprod/cern/wphact24/v97g/182.7/wphact24_cc_182.7_80.4_200110.fadana ! RUN = 200110 ! NEVT = 2000
FILE = /castor/cern.ch/delphi/MCprod/cern/wphact24/v97g/182.7/wphact24_cc_182.7_80.4_200111.fadana ! RUN = 200111 ! NEVT = 2000
FILE = /castor/cern.ch/delphi/MCprod/cern/wphact24/v97g/182.7/wphact24_cc_182.7_80.4_200112.fadana ! RUN = 200112 ! NEVT = 1999
FILE = /castor/cern.ch/delphi/MCprod/cern/wphact24/v97g/182.7/wphact24_cc_182.7_80.4_200113.fadana ! RUN = 200113 ! NEVT = 2000
FILE = /castor/cern.ch/delphi/MCprod/cern/wphact24/v97g/182.7/wphact24_cc_182.7_80.4_200114.fadana ! RUN = 200114 ! NEVT = 2000
FILE = /castor/cern.ch/delphi/MCprod/cern/wphact24/v97g/182.7/wphact24_cc_182.7_80.4_200115.fadana ! RUN = 200115 ! NEVT = 2000
FILE = /castor/cern.ch/delphi/MCprod/cern/wphact24/v97g/182.7/wphact24_cc_182.7_80.4_200116.fadana ! RUN = 200116 ! NEVT = 1999
FILE = /castor/cern.ch/delphi/MCprod/cern/wphact24/v97g/182.7/wphact24_cc_182.7_80.4_200117.fadana ! RUN = 200117 ! NEVT = 2000
FILE = /castor/cern.ch/delphi/MCprod/cern/wphact24/v97g/182.7/wphact24_cc_182.7_80.4_200118.fadana ! RUN = 200118 ! NEVT = 1999
FILE = /castor/cern.ch/delphi/MCprod/cern/wphact24/v97g/182.7/wphact24_cc_182.7_80.4_200119.fadana ! RUN = 200119 ! NEVT = 2000
FILE = /castor/cern.ch/delphi/MCprod/cern/wphact24/v97g/182.7/wphact24_cc_182.7_80.4_200120.fadana ! RUN = 200120 ! NEVT = 1999
FILE = /castor/cern.ch/delphi/MCprod/cern/wphact24/v97g/182.7/wphact24_cc_182.7_80.4_200121.fadana ! RUN = 200121 ! NEVT = 2000
FILE = /castor/cern.ch/delphi/MCprod/cern/wphact24/v97g/182.7/wphact24_cc_182.7_80.4_200122.fadana ! RUN = 200122 ! NEVT = 2000
FILE = /castor/cern.ch/delphi/MCprod/cern/wphact24/v97g/182.7/wphact24_cc_182.7_80.4_200123.fadana ! RUN = 200123 ! NEVT = 1998
FILE = /castor/cern.ch/delphi/MCprod/cern/wphact24/v97g/182.7/wphact24_cc_182.7_80.4_200124.fadana ! RUN = 200124 ! NEVT = 2000
FILE = /castor/cern.ch/delphi/MCprod/cern/wphact24/v97g/182.7/wphact24_cc_182.7_80.4_200125.fadana ! RUN = 200125 ! NEVT = 2000
FILE = /castor/cern.ch/delphi/MCprod/cern/wphact24/v97g/182.7/wphact24_cc_182.7_80.4_200126.fadana ! RUN = 200126 ! NEVT = 2000
FILE = /castor/cern.ch/delphi/MCprod/cern/wphact24/v97g/182.7/wphact24_cc_182.7_80.4_200127.fadana ! RUN = 200127 ! NEVT = 2000
FILE = /castor/cern.ch/delphi/MCprod/cern/wphact24/v97g/182.7/wphact24_cc_182.7_80.4_200128.fadana ! RUN = 200128 ! NEVT = 1999
FILE = /castor/cern.ch/delphi/MCprod/cern/wphact24/v97g/182.7/wphact24_cc_182.7_80.4_200129.fadana ! RUN = 200129 ! NEVT = 1999
FILE = /castor/cern.ch/delphi/MCprod/cern/wphact24/v97g/182.7/wphact24_cc_182.7_80.4_200130.fadana ! RUN = 200130 ! NEVT = 2000
FILE = /castor/cern.ch/delphi/MCprod/cern/wphact24/v97g/182.7/wphact24_cc_182.7_80.4_200131.fadana ! RUN = 200131 ! NEVT = 2000
FILE = /castor/cern.ch/delphi/MCprod/cern/wphact24/v97g/182.7/wphact24_cc_182.7_80.4_200132.fadana ! RUN = 200132 ! NEVT = 2000
FILE = /castor/cern.ch/delphi/MCprod/cern/wphact24/v97g/182.7/wphact24_cc_182.7_80.4_200133.fadana ! RUN = 200133 ! NEVT = 2000
FILE = /castor/cern.ch/delphi/MCprod/cern/wphact24/v97g/182.7/wphact24_cc_182.7_80.4_200134.fadana ! RUN = 200134 ! NEVT = 2000
FILE = /castor/cern.ch/delphi/MCprod/cern/wphact24/v97g/182.7/wphact24_cc_182.7_80.4_200135.fadana ! RUN = 200135 ! NEVT = 2000
FILE = /castor/cern.ch/delphi/MCprod/cern/wphact24/v97g/182.7/wphact24_cc_182.7_80.4_200136.fadana ! RUN = 200136 ! NEVT = 2000
FILE = /castor/cern.ch/delphi/MCprod/cern/wphact24/v97g/182.7/wphact24_cc_182.7_80.4_200137.fadana ! RUN = 200137 ! NEVT = 2000
FILE = /castor/cern.ch/delphi/MCprod/cern/wphact24/v97g/182.7/wphact24_cc_182.7_80.4_200138.fadana ! RUN = 200138 ! NEVT = 1999
FILE = /castor/cern.ch/delphi/MCprod/cern/wphact24/v97g/182.7/wphact24_cc_182.7_80.4_200139.fadana ! RUN = 200139 ! NEVT = 1997
FILE = /castor/cern.ch/delphi/MCprod/cern/wphact24/v97g/182.7/wphact24_cc_182.7_80.4_200140.fadana ! RUN = 200140 ! NEVT = 1999
FILE = /castor/cern.ch/delphi/MCprod/cern/wphact24/v97g/182.7/wphact24_cc_182.7_80.4_200141.fadana ! RUN = 200141 ! NEVT = 2000
FILE = /castor/cern.ch/delphi/MCprod/cern/wphact24/v97g/182.7/wphact24_cc_182.7_80.4_200142.fadana ! RUN = 200142 ! NEVT = 2000
FILE = /castor/cern.ch/delphi/MCprod/cern/wphact24/v97g/182.7/wphact24_cc_182.7_80.4_200143.fadana ! RUN = 200143 ! NEVT = 1998
FILE = /castor/cern.ch/delphi/MCprod/cern/wphact24/v97g/182.7/wphact24_cc_182.7_80.4_200144.fadana ! RUN = 200144 ! NEVT = 2000
FILE = /castor/cern.ch/delphi/MCprod/cern/wphact24/v97g/182.7/wphact24_cc_182.7_80.4_200145.fadana ! RUN = 200145 ! NEVT = 2000
FILE = /castor/cern.ch/delphi/MCprod/cern/wphact24/v97g/182.7/wphact24_cc_182.7_80.4_200146.fadana ! RUN = 200146 ! NEVT = 1998
FILE = /castor/cern.ch/delphi/MCprod/cern/wphact24/v97g/182.7/wphact24_cc_182.7_80.4_200147.fadana ! RUN = 200147 ! NEVT = 2000
FILE = /castor/cern.ch/delphi/MCprod/cern/wphact24/v97g/182.7/wphact24_cc_182.7_80.4_200148.fadana ! RUN = 200148 ! NEVT = 1998
FILE = /castor/cern.ch/delphi/MCprod/cern/wphact24/v97g/182.7/wphact24_cc_182.7_80.4_200149.fadana ! RUN = 200149 ! NEVT = 1999
FILE = /castor/cern.ch/delphi/MCprod/cern/wphact24/v97g/182.7/wphact24_cc_182.7_80.4_200150.fadana ! RUN = 200150 ! NEVT = 1998
FILE = /castor/cern.ch/delphi/MCprod/cern/wphact24/v97g/182.7/wphact24_cc_182.7_80.4_200151.fadana ! RUN = 200151 ! NEVT = 2000
FILE = /castor/cern.ch/delphi/MCprod/cern/wphact24/v97g/182.7/wphact24_cc_182.7_80.4_200152.fadana ! RUN = 200152 ! NEVT = 2000
FILE = /castor/cern.ch/delphi/MCprod/cern/wphact24/v97g/182.7/wphact24_cc_182.7_80.4_200153.fadana ! RUN = 200153 ! NEVT = 1999
FILE = /castor/cern.ch/delphi/MCprod/cern/wphact24/v97g/182.7/wphact24_cc_182.7_80.4_200154.fadana ! RUN = 200154 ! NEVT = 1999
FILE = /castor/cern.ch/delphi/MCprod/cern/wphact24/v97g/182.7/wphact24_cc_182.7_80.4_200155.fadana ! RUN = 200155 ! NEVT = 1997
FILE = /castor/cern.ch/delphi/MCprod/cern/wphact24/v97g/182.7/wphact24_cc_182.7_80.4_200156.fadana ! RUN = 200156 ! NEVT = 1999
FILE = /castor/cern.ch/delphi/MCprod/cern/wphact24/v97g/182.7/wphact24_cc_182.7_80.4_200157.fadana ! RUN = 200157 ! NEVT = 1998
FILE = /castor/cern.ch/delphi/MCprod/cern/wphact24/v97g/182.7/wphact24_cc_182.7_80.4_200158.fadana ! RUN = 200158 ! NEVT = 1998
FILE = /castor/cern.ch/delphi/MCprod/cern/wphact24/v97g/182.7/wphact24_cc_182.7_80.4_200159.fadana ! RUN = 200159 ! NEVT = 2000
FILE = /castor/cern.ch/delphi/MCprod/cern/wphact24/v97g/182.7/wphact24_cc_182.7_80.4_200160.fadana ! RUN = 200160 ! NEVT = 2000
FILE = /castor/cern.ch/delphi/MCprod/cern/wphact24/v97g/182.7/wphact24_cc_182.7_80.4_200161.fadana ! RUN = 200161 ! NEVT = 2000
FILE = /castor/cern.ch/delphi/MCprod/cern/wphact24/v97g/182.7/wphact24_cc_182.7_80.4_200162.fadana ! RUN = 200162 ! NEVT = 1998
FILE = /castor/cern.ch/delphi/MCprod/cern/wphact24/v97g/182.7/wphact24_cc_182.7_80.4_200163.fadana ! RUN = 200163 ! NEVT = 1999
FILE = /castor/cern.ch/delphi/MCprod/cern/wphact24/v97g/182.7/wphact24_cc_182.7_80.4_200164.fadana ! RUN = 200164 ! NEVT = 1998
FILE = /castor/cern.ch/delphi/MCprod/cern/wphact24/v97g/182.7/wphact24_cc_182.7_80.4_200165.fadana ! RUN = 200165 ! NEVT = 2000
FILE = /castor/cern.ch/delphi/MCprod/cern/wphact24/v97g/182.7/wphact24_cc_182.7_80.4_200166.fadana ! RUN = 200166 ! NEVT = 2000
FILE = /castor/cern.ch/delphi/MCprod/cern/wphact24/v97g/182.7/wphact24_cc_182.7_80.4_200167.fadana ! RUN = 200167 ! NEVT = 2000
FILE = /castor/cern.ch/delphi/MCprod/cern/wphact24/v97g/182.7/wphact24_cc_182.7_80.4_200168.fadana ! RUN = 200168 ! NEVT = 1997
FILE = /castor/cern.ch/delphi/MCprod/cern/wphact24/v97g/182.7/wphact24_cc_182.7_80.4_200169.fadana ! RUN = 200169 ! NEVT = 2000
FILE = /castor/cern.ch/delphi/MCprod/cern/wphact24/v97g/182.7/wphact24_cc_182.7_80.4_200170.fadana ! RUN = 200170 ! NEVT = 1998
FILE = /castor/cern.ch/delphi/MCprod/cern/wphact24/v97g/182.7/wphact24_cc_182.7_80.4_200171.fadana ! RUN = 200171 ! NEVT = 2000
FILE = /castor/cern.ch/delphi/MCprod/cern/wphact24/v97g/182.7/wphact24_cc_182.7_80.4_200172.fadana ! RUN = 200172 ! NEVT = 2000
FILE = /castor/cern.ch/delphi/MCprod/cern/wphact24/v97g/182.7/wphact24_cc_182.7_80.4_200173.fadana ! RUN = 200173 ! NEVT = 2000
FILE = /castor/cern.ch/delphi/MCprod/cern/wphact24/v97g/182.7/wphact24_cc_182.7_80.4_200174.fadana ! RUN = 200174 ! NEVT = 2000
FILE = /castor/cern.ch/delphi/MCprod/cern/wphact24/v97g/182.7/wphact24_cc_182.7_80.4_200175.fadana ! RUN = 200175 ! NEVT = 1999
FILE = /castor/cern.ch/delphi/MCprod/cern/wphact24/v97g/182.7/wphact24_cc_182.7_80.4_200176.fadana ! RUN = 200176 ! NEVT = 1999
FILE = /castor/cern.ch/delphi/MCprod/cern/wphact24/v97g/182.7/wphact24_cc_182.7_80.4_200177.fadana ! RUN = 200177 ! NEVT = 2000
FILE = /castor/cern.ch/delphi/MCprod/cern/wphact24/v97g/182.7/wphact24_cc_182.7_80.4_200178.fadana ! RUN = 200178 ! NEVT = 2000
FILE = /castor/cern.ch/delphi/MCprod/cern/wphact24/v97g/182.7/wphact24_cc_182.7_80.4_200179.fadana ! RUN = 200179 ! NEVT = 1998
FILE = /castor/cern.ch/delphi/MCprod/cern/wphact24/v97g/182.7/wphact24_cc_182.7_80.4_200180.fadana ! RUN = 200180 ! NEVT = 2000
FILE = /castor/cern.ch/delphi/MCprod/cern/wphact24/v97g/182.7/wphact24_cc_182.7_80.4_200181.fadana ! RUN = 200181 ! NEVT = 1999
FILE = /castor/cern.ch/delphi/MCprod/cern/wphact24/v97g/182.7/wphact24_cc_182.7_80.4_200182.fadana ! RUN = 200182 ! NEVT = 1999
FILE = /castor/cern.ch/delphi/MCprod/cern/wphact24/v97g/182.7/wphact24_cc_182.7_80.4_200183.fadana ! RUN = 200183 ! NEVT = 1998
FILE = /castor/cern.ch/delphi/MCprod/cern/wphact24/v97g/182.7/wphact24_cc_182.7_80.4_200184.fadana ! RUN = 200184 ! NEVT = 2000
FILE = /castor/cern.ch/delphi/MCprod/cern/wphact24/v97g/182.7/wphact24_cc_182.7_80.4_200185.fadana ! RUN = 200185 ! NEVT = 1999
FILE = /castor/cern.ch/delphi/MCprod/cern/wphact24/v97g/182.7/wphact24_cc_182.7_80.4_200186.fadana ! RUN = 200186 ! NEVT = 1999
FILE = /castor/cern.ch/delphi/MCprod/cern/wphact24/v97g/182.7/wphact24_cc_182.7_80.4_200187.fadana ! RUN = 200187 ! NEVT = 2000
FILE = /castor/cern.ch/delphi/MCprod/cern/wphact24/v97g/182.7/wphact24_cc_182.7_80.4_200188.fadana ! RUN = 200188 ! NEVT = 1998
FILE = /castor/cern.ch/delphi/MCprod/cern/wphact24/v97g/182.7/wphact24_cc_182.7_80.4_200189.fadana ! RUN = 200189 ! NEVT = 1999
FILE = /castor/cern.ch/delphi/MCprod/cern/wphact24/v97g/182.7/wphact24_cc_182.7_80.4_200190.fadana ! RUN = 200190 ! NEVT = 2000
FILE = /castor/cern.ch/delphi/MCprod/cern/wphact24/v97g/182.7/wphact24_cc_182.7_80.4_200191.fadana ! RUN = 200191 ! NEVT = 2000
FILE = /castor/cern.ch/delphi/MCprod/cern/wphact24/v97g/182.7/wphact24_cc_182.7_80.4_200192.fadana ! RUN = 200192 ! NEVT = 2000
FILE = /castor/cern.ch/delphi/MCprod/cern/wphact24/v97g/182.7/wphact24_cc_182.7_80.4_200193.fadana ! RUN = 200193 ! NEVT = 1997
FILE = /castor/cern.ch/delphi/MCprod/cern/wphact24/v97g/182.7/wphact24_cc_182.7_80.4_200194.fadana ! RUN = 200194 ! NEVT = 1998
FILE = /castor/cern.ch/delphi/MCprod/cern/wphact24/v97g/182.7/wphact24_cc_182.7_80.4_200195.fadana ! RUN = 200195 ! NEVT = 1999
FILE = /castor/cern.ch/delphi/MCprod/cern/wphact24/v97g/182.7/wphact24_cc_182.7_80.4_200196.fadana ! RUN = 200196 ! NEVT = 2000
FILE = /castor/cern.ch/delphi/MCprod/cern/wphact24/v97g/182.7/wphact24_cc_182.7_80.4_200197.fadana ! RUN = 200197 ! NEVT = 2000
FILE = /castor/cern.ch/delphi/MCprod/cern/wphact24/v97g/182.7/wphact24_cc_182.7_80.4_200198.fadana ! RUN = 200198 ! NEVT = 2000
FILE = /castor/cern.ch/delphi/MCprod/cern/wphact24/v97g/182.7/wphact24_cc_182.7_80.4_200199.fadana ! RUN = 200199 ! NEVT = 2000
FILE = /castor/cern.ch/delphi/MCprod/cern/wphact24/v97g/182.7/wphact24_cc_182.7_80.4_200200.fadana ! RUN = 200200 ! NEVT = 2000
FILE = /castor/cern.ch/delphi/MCprod/cern/wphact24/v97g/182.7/wphact24_cc_182.7_80.4_200201.fadana ! RUN = 200201 ! NEVT = 1999
FILE = /castor/cern.ch/delphi/MCprod/cern/wphact24/v97g/182.7/wphact24_cc_182.7_80.4_200202.fadana ! RUN = 200202 ! NEVT = 1998
FILE = /castor/cern.ch/delphi/MCprod/cern/wphact24/v97g/182.7/wphact24_cc_182.7_80.4_200203.fadana ! RUN = 200203 ! NEVT = 1999
FILE = /castor/cern.ch/delphi/MCprod/cern/wphact24/v97g/182.7/wphact24_cc_182.7_80.4_200204.fadana ! RUN = 200204 ! NEVT = 1999
FILE = /castor/cern.ch/delphi/MCprod/cern/wphact24/v97g/182.7/wphact24_cc_182.7_80.4_200205.fadana ! RUN = 200205 ! NEVT = 2000
FILE = /castor/cern.ch/delphi/MCprod/cern/wphact24/v97g/182.7/wphact24_cc_182.7_80.4_200207.fadana ! RUN = 200207 ! NEVT = 2000
FILE = /castor/cern.ch/delphi/MCprod/cern/wphact24/v97g/182.7/wphact24_cc_182.7_80.4_200208.fadana ! RUN = 200208 ! NEVT = 1999
FILE = /castor/cern.ch/delphi/MCprod/cern/wphact24/v97g/182.7/wphact24_cc_182.7_80.4_200209.fadana ! RUN = 200209 ! NEVT = 1999
FILE = /castor/cern.ch/delphi/MCprod/cern/wphact24/v97g/182.7/wphact24_cc_182.7_80.4_200210.fadana ! RUN = 200210 ! NEVT = 1999
FILE = /castor/cern.ch/delphi/MCprod/cern/wphact24/v97g/182.7/wphact24_cc_182.7_80.4_200211.fadana ! RUN = 200211 ! NEVT = 1999
FILE = /castor/cern.ch/delphi/MCprod/cern/wphact24/v97g/182.7/wphact24_cc_182.7_80.4_200212.fadana ! RUN = 200212 ! NEVT = 1999
FILE = /castor/cern.ch/delphi/MCprod/cern/wphact24/v97g/182.7/wphact24_cc_182.7_80.4_200213.fadana ! RUN = 200213 ! NEVT = 2000
FILE = /castor/cern.ch/delphi/MCprod/cern/wphact24/v97g/182.7/wphact24_cc_182.7_80.4_200214.fadana ! RUN = 200214 ! NEVT = 2000
FILE = /castor/cern.ch/delphi/MCprod/cern/wphact24/v97g/182.7/wphact24_cc_182.7_80.4_200215.fadana ! RUN = 200215 ! NEVT = 1999
FILE = /castor/cern.ch/delphi/MCprod/cern/wphact24/v97g/182.7/wphact24_cc_182.7_80.4_200216.fadana ! RUN = 200216 ! NEVT = 1996
FILE = /castor/cern.ch/delphi/MCprod/cern/wphact24/v97g/182.7/wphact24_cc_182.7_80.4_200217.fadana ! RUN = 200217 ! NEVT = 1999
FILE = /castor/cern.ch/delphi/MCprod/cern/wphact24/v97g/182.7/wphact24_cc_182.7_80.4_200218.fadana ! RUN = 200218 ! NEVT = 2000
FILE = /castor/cern.ch/delphi/MCprod/cern/wphact24/v97g/182.7/wphact24_cc_182.7_80.4_200219.fadana ! RUN = 200219 ! NEVT = 2000
FILE = /castor/cern.ch/delphi/MCprod/cern/wphact24/v97g/182.7/wphact24_cc_182.7_80.4_200220.fadana ! RUN = 200220 ! NEVT = 2000
FILE = /castor/cern.ch/delphi/MCprod/cern/wphact24/v97g/182.7/wphact24_cc_182.7_80.4_200221.fadana ! RUN = 200221 ! NEVT = 1999
FILE = /castor/cern.ch/delphi/MCprod/cern/wphact24/v97g/182.7/wphact24_cc_182.7_80.4_200222.fadana ! RUN = 200222 ! NEVT = 2000
FILE = /castor/cern.ch/delphi/MCprod/cern/wphact24/v97g/182.7/wphact24_cc_182.7_80.4_200223.fadana ! RUN = 200223 ! NEVT = 2000
FILE = /castor/cern.ch/delphi/MCprod/cern/wphact24/v97g/182.7/wphact24_cc_182.7_80.4_200224.fadana ! RUN = 200224 ! NEVT = 2000
FILE = /castor/cern.ch/delphi/MCprod/cern/wphact24/v97g/182.7/wphact24_cc_182.7_80.4_200225.fadana ! RUN = 200225 ! NEVT = 1999
FILE = /castor/cern.ch/delphi/MCprod/cern/wphact24/v97g/182.7/wphact24_cc_182.7_80.4_200226.fadana ! RUN = 200226 ! NEVT = 1999
FILE = /castor/cern.ch/delphi/MCprod/cern/wphact24/v97g/182.7/wphact24_cc_182.7_80.4_200227.fadana ! RUN = 200227 ! NEVT = 2000
FILE = /castor/cern.ch/delphi/MCprod/cern/wphact24/v97g/182.7/wphact24_cc_182.7_80.4_200228.fadana ! RUN = 200228 ! NEVT = 2000
FILE = /castor/cern.ch/delphi/MCprod/cern/wphact24/v97g/182.7/wphact24_cc_182.7_80.4_200229.fadana ! RUN = 200229 ! NEVT = 1999
FILE = /castor/cern.ch/delphi/MCprod/cern/wphact24/v97g/182.7/wphact24_cc_182.7_80.4_200230.fadana ! RUN = 200230 ! NEVT = 2000
FILE = /castor/cern.ch/delphi/MCprod/cern/wphact24/v97g/182.7/wphact24_cc_182.7_80.4_200231.fadana ! RUN = 200231 ! NEVT = 2000
FILE = /castor/cern.ch/delphi/MCprod/cern/wphact24/v97g/182.7/wphact24_cc_182.7_80.4_200232.fadana ! RUN = 200232 ! NEVT = 2000
FILE = /castor/cern.ch/delphi/MCprod/cern/wphact24/v97g/182.7/wphact24_cc_182.7_80.4_200233.fadana ! RUN = 200233 ! NEVT = 2000
FILE = /castor/cern.ch/delphi/MCprod/cern/wphact24/v97g/182.7/wphact24_cc_182.7_80.4_200234.fadana ! RUN = 200234 ! NEVT = 1999
FILE = /castor/cern.ch/delphi/MCprod/cern/wphact24/v97g/182.7/wphact24_cc_182.7_80.4_200235.fadana ! RUN = 200235 ! NEVT = 1998
FILE = /castor/cern.ch/delphi/MCprod/cern/wphact24/v97g/182.7/wphact24_cc_182.7_80.4_200236.fadana ! RUN = 200236 ! NEVT = 1999
FILE = /castor/cern.ch/delphi/MCprod/cern/wphact24/v97g/182.7/wphact24_cc_182.7_80.4_200237.fadana ! RUN = 200237 ! NEVT = 1999
FILE = /castor/cern.ch/delphi/MCprod/cern/wphact24/v97g/182.7/wphact24_cc_182.7_80.4_200238.fadana ! RUN = 200238 ! NEVT = 1996
FILE = /castor/cern.ch/delphi/MCprod/cern/wphact24/v97g/182.7/wphact24_cc_182.7_80.4_200239.fadana ! RUN = 200239 ! NEVT = 1998
FILE = /castor/cern.ch/delphi/MCprod/cern/wphact24/v97g/182.7/wphact24_cc_182.7_80.4_200240.fadana ! RUN = 200240 ! NEVT = 1999
FILE = /castor/cern.ch/delphi/MCprod/cern/wphact24/v97g/182.7/wphact24_cc_182.7_80.4_200241.fadana ! RUN = 200241 ! NEVT = 1999
FILE = /castor/cern.ch/delphi/MCprod/cern/wphact24/v97g/182.7/wphact24_cc_182.7_80.4_200242.fadana ! RUN = 200242 ! NEVT = 1999
FILE = /castor/cern.ch/delphi/MCprod/cern/wphact24/v97g/182.7/wphact24_cc_182.7_80.4_200243.fadana ! RUN = 200243 ! NEVT = 1999
FILE = /castor/cern.ch/delphi/MCprod/cern/wphact24/v97g/182.7/wphact24_cc_182.7_80.4_200244.fadana ! RUN = 200244 ! NEVT = 1999
FILE = /castor/cern.ch/delphi/MCprod/cern/wphact24/v97g/182.7/wphact24_cc_182.7_80.4_200245.fadana ! RUN = 200245 ! NEVT = 1998
FILE = /castor/cern.ch/delphi/MCprod/cern/wphact24/v97g/182.7/wphact24_cc_182.7_80.4_200246.fadana ! RUN = 200246 ! NEVT = 2000
FILE = /castor/cern.ch/delphi/MCprod/cern/wphact24/v97g/182.7/wphact24_cc_182.7_80.4_200247.fadana ! RUN = 200247 ! NEVT = 1998
FILE = /castor/cern.ch/delphi/MCprod/cern/wphact24/v97g/182.7/wphact24_cc_182.7_80.4_200248.fadana ! RUN = 200248 ! NEVT = 1999
FILE = /castor/cern.ch/delphi/MCprod/cern/wphact24/v97g/182.7/wphact24_cc_182.7_80.4_200249.fadana ! RUN = 200249 ! NEVT = 1999
FILE = /castor/cern.ch/delphi/MCprod/cern/wphact24/v97g/182.7/wphact24_cc_182.7_80.4_200250.fadana ! RUN = 200250 ! NEVT = 1999
FILE = /castor/cern.ch/delphi/MCprod/cern/wphact24/v97g/182.7/wphact24_cc_182.7_80.4_200251.fadana ! RUN = 200251 ! NEVT = 1999
FILE = /castor/cern.ch/delphi/MCprod/cern/wphact24/v97g/182.7/wphact24_cc_182.7_80.4_200252.fadana ! RUN = 200252 ! NEVT = 1998
FILE = /castor/cern.ch/delphi/MCprod/cern/wphact24/v97g/182.7/wphact24_cc_182.7_80.4_200253.fadana ! RUN = 200253 ! NEVT = 1998
FILE = /castor/cern.ch/delphi/MCprod/cern/wphact24/v97g/182.7/wphact24_cc_182.7_80.4_200254.fadana ! RUN = 200254 ! NEVT = 2000
FILE = /castor/cern.ch/delphi/MCprod/cern/wphact24/v97g/182.7/wphact24_cc_182.7_80.4_200255.fadana ! RUN = 200255 ! NEVT = 1999
FILE = /castor/cern.ch/delphi/MCprod/cern/wphact24/v97g/182.7/wphact24_cc_182.7_80.4_200256.fadana ! RUN = 200256 ! NEVT = 1999
FILE = /castor/cern.ch/delphi/MCprod/cern/wphact24/v97g/182.7/wphact24_cc_182.7_80.4_200257.fadana ! RUN = 200257 ! NEVT = 2000
FILE = /castor/cern.ch/delphi/MCprod/cern/wphact24/v97g/182.7/wphact24_cc_182.7_80.4_200258.fadana ! RUN = 200258 ! NEVT = 1999
FILE = /castor/cern.ch/delphi/MCprod/cern/wphact24/v97g/182.7/wphact24_cc_182.7_80.4_200259.fadana ! RUN = 200259 ! NEVT = 1999
FILE = /castor/cern.ch/delphi/MCprod/cern/wphact24/v97g/182.7/wphact24_cc_182.7_80.4_200260.fadana ! RUN = 200260 ! NEVT = 1999
FILE = /castor/cern.ch/delphi/MCprod/cern/wphact24/v97g/182.7/wphact24_cc_182.7_80.4_200261.fadana ! RUN = 200261 ! NEVT = 2000
FILE = /castor/cern.ch/delphi/MCprod/cern/wphact24/v97g/182.7/wphact24_cc_182.7_80.4_200262.fadana ! RUN = 200262 ! NEVT = 2000
FILE = /castor/cern.ch/delphi/MCprod/cern/wphact24/v97g/182.7/wphact24_cc_182.7_80.4_200263.fadana ! RUN = 200263 ! NEVT = 2000
FILE = /castor/cern.ch/delphi/MCprod/cern/wphact24/v97g/182.7/wphact24_cc_182.7_80.4_200264.fadana ! RUN = 200264 ! NEVT = 1999
FILE = /castor/cern.ch/delphi/MCprod/cern/wphact24/v97g/182.7/wphact24_cc_182.7_80.4_200265.fadana ! RUN = 200265 ! NEVT = 1997
FILE = /castor/cern.ch/delphi/MCprod/cern/wphact24/v97g/182.7/wphact24_cc_182.7_80.4_200266.fadana ! RUN = 200266 ! NEVT = 2000
FILE = /castor/cern.ch/delphi/MCprod/cern/wphact24/v97g/182.7/wphact24_cc_182.7_80.4_200267.fadana ! RUN = 200267 ! NEVT = 1998
FILE = /castor/cern.ch/delphi/MCprod/cern/wphact24/v97g/182.7/wphact24_cc_182.7_80.4_200268.fadana ! RUN = 200268 ! NEVT = 1999
FILE = /castor/cern.ch/delphi/MCprod/cern/wphact24/v97g/182.7/wphact24_cc_182.7_80.4_200269.fadana ! RUN = 200269 ! NEVT = 2000
FILE = /castor/cern.ch/delphi/MCprod/cern/wphact24/v97g/182.7/wphact24_cc_182.7_80.4_200270.fadana ! RUN = 200270 ! NEVT = 1999
FILE = /castor/cern.ch/delphi/MCprod/cern/wphact24/v97g/182.7/wphact24_cc_182.7_80.4_200271.fadana ! RUN = 200271 ! NEVT = 1999
FILE = /castor/cern.ch/delphi/MCprod/cern/wphact24/v97g/182.7/wphact24_cc_182.7_80.4_200272.fadana ! RUN = 200272 ! NEVT = 1999
FILE = /castor/cern.ch/delphi/MCprod/cern/wphact24/v97g/182.7/wphact24_cc_182.7_80.4_200273.fadana ! RUN = 200273 ! NEVT = 1998
FILE = /castor/cern.ch/delphi/MCprod/cern/wphact24/v97g/182.7/wphact24_cc_182.7_80.4_200274.fadana ! RUN = 200274 ! NEVT = 1997
FILE = /castor/cern.ch/delphi/MCprod/cern/wphact24/v97g/182.7/wphact24_cc_182.7_80.4_200275.fadana ! RUN = 200275 ! NEVT = 1999
FILE = /castor/cern.ch/delphi/MCprod/cern/wphact24/v97g/182.7/wphact24_cc_182.7_80.4_200276.fadana ! RUN = 200276 ! NEVT = 1999
FILE = /castor/cern.ch/delphi/MCprod/cern/wphact24/v97g/182.7/wphact24_cc_182.7_80.4_200277.fadana ! RUN = 200277 ! NEVT = 2000
FILE = /castor/cern.ch/delphi/MCprod/cern/wphact24/v97g/182.7/wphact24_cc_182.7_80.4_200278.fadana ! RUN = 200278 ! NEVT = 1997
FILE = /castor/cern.ch/delphi/MCprod/cern/wphact24/v97g/182.7/wphact24_cc_182.7_80.4_200279.fadana ! RUN = 200279 ! NEVT = 1999
FILE = /castor/cern.ch/delphi/MCprod/cern/wphact24/v97g/182.7/wphact24_cc_182.7_80.4_200280.fadana ! RUN = 200280 ! NEVT = 1999
FILE = /castor/cern.ch/delphi/MCprod/cern/wphact24/v97g/182.7/wphact24_cc_182.7_80.4_200281.fadana ! RUN = 200281 ! NEVT = 2000
FILE = /castor/cern.ch/delphi/MCprod/cern/wphact24/v97g/182.7/wphact24_cc_182.7_80.4_200282.fadana ! RUN = 200282 ! NEVT = 1999
FILE = /castor/cern.ch/delphi/MCprod/cern/wphact24/v97g/182.7/wphact24_cc_182.7_80.4_200283.fadana ! RUN = 200283 ! NEVT = 1998
FILE = /castor/cern.ch/delphi/MCprod/cern/wphact24/v97g/182.7/wphact24_cc_182.7_80.4_200284.fadana ! RUN = 200284 ! NEVT = 2000
FILE = /castor/cern.ch/delphi/MCprod/cern/wphact24/v97g/182.7/wphact24_cc_182.7_80.4_200285.fadana ! RUN = 200285 ! NEVT = 1999
FILE = /castor/cern.ch/delphi/MCprod/cern/wphact24/v97g/182.7/wphact24_cc_182.7_80.4_200286.fadana ! RUN = 200286 ! NEVT = 1999
FILE = /castor/cern.ch/delphi/MCprod/cern/wphact24/v97g/182.7/wphact24_cc_182.7_80.4_200287.fadana ! RUN = 200287 ! NEVT = 1998
FILE = /castor/cern.ch/delphi/MCprod/cern/wphact24/v97g/182.7/wphact24_cc_182.7_80.4_200288.fadana ! RUN = 200288 ! NEVT = 1999
FILE = /castor/cern.ch/delphi/MCprod/cern/wphact24/v97g/182.7/wphact24_cc_182.7_80.4_200289.fadana ! RUN = 200289 ! NEVT = 1999
FILE = /castor/cern.ch/delphi/MCprod/cern/wphact24/v97g/182.7/wphact24_cc_182.7_80.4_200290.fadana ! RUN = 200290 ! NEVT = 1999
FILE = /castor/cern.ch/delphi/MCprod/cern/wphact24/v97g/182.7/wphact24_cc_182.7_80.4_200291.fadana ! RUN = 200291 ! NEVT = 1999
FILE = /castor/cern.ch/delphi/MCprod/cern/wphact24/v97g/182.7/wphact24_cc_182.7_80.4_200292.fadana ! RUN = 200292 ! NEVT = 1999
FILE = /castor/cern.ch/delphi/MCprod/cern/wphact24/v97g/182.7/wphact24_cc_182.7_80.4_200293.fadana ! RUN = 200293 ! NEVT = 2000
FILE = /castor/cern.ch/delphi/MCprod/cern/wphact24/v97g/182.7/wphact24_cc_182.7_80.4_200294.fadana ! RUN = 200294 ! NEVT = 2000
FILE = /castor/cern.ch/delphi/MCprod/cern/wphact24/v97g/182.7/wphact24_cc_182.7_80.4_200295.fadana ! RUN = 200295 ! NEVT = 2000
FILE = /castor/cern.ch/delphi/MCprod/cern/wphact24/v97g/182.7/wphact24_cc_182.7_80.4_200296.fadana ! RUN = 200296 ! NEVT = 2000
FILE = /castor/cern.ch/delphi/MCprod/cern/wphact24/v97g/182.7/wphact24_cc_182.7_80.4_200297.fadana ! RUN = 200297 ! NEVT = 2000
FILE = /castor/cern.ch/delphi/MCprod/cern/wphact24/v97g/182.7/wphact24_cc_182.7_80.4_200298.fadana ! RUN = 200298 ! NEVT = 2000
FILE = /castor/cern.ch/delphi/MCprod/cern/wphact24/v97g/182.7/wphact24_cc_182.7_80.4_200299.fadana ! RUN = 200299 ! NEVT = 1996
FILE = /castor/cern.ch/delphi/MCprod/cern/wphact24/v97g/182.7/wphact24_cc_182.7_80.4_200300.fadana ! RUN = 200300 ! NEVT = 2000
FILE = /castor/cern.ch/delphi/MCprod/cern/wphact24/v97g/182.7/wphact24_cc_182.7_80.4_200301.fadana ! RUN = 200301 ! NEVT = 2000
FILE = /castor/cern.ch/delphi/MCprod/cern/wphact24/v97g/182.7/wphact24_cc_182.7_80.4_200302.fadana ! RUN = 200302 ! NEVT = 1999
FILE = /castor/cern.ch/delphi/MCprod/cern/wphact24/v97g/182.7/wphact24_cc_182.7_80.4_200303.fadana ! RUN = 200303 ! NEVT = 2000
FILE = /castor/cern.ch/delphi/MCprod/cern/wphact24/v97g/182.7/wphact24_cc_182.7_80.4_200304.fadana ! RUN = 200304 ! NEVT = 2000
FILE = /castor/cern.ch/delphi/MCprod/cern/wphact24/v97g/182.7/wphact24_cc_182.7_80.4_200305.fadana ! RUN = 200305 ! NEVT = 1999
FILE = /castor/cern.ch/delphi/MCprod/cern/wphact24/v97g/182.7/wphact24_cc_182.7_80.4_200306.fadana ! RUN = 200306 ! NEVT = 1999
FILE = /castor/cern.ch/delphi/MCprod/cern/wphact24/v97g/182.7/wphact24_cc_182.7_80.4_200307.fadana ! RUN = 200307 ! NEVT = 1999
FILE = /castor/cern.ch/delphi/MCprod/cern/wphact24/v97g/182.7/wphact24_cc_182.7_80.4_200308.fadana ! RUN = 200308 ! NEVT = 1999
FILE = /castor/cern.ch/delphi/MCprod/cern/wphact24/v97g/182.7/wphact24_cc_182.7_80.4_200309.fadana ! RUN = 200309 ! NEVT = 1999
FILE = /castor/cern.ch/delphi/MCprod/cern/wphact24/v97g/182.7/wphact24_cc_182.7_80.4_200310.fadana ! RUN = 200310 ! NEVT = 1998
FILE = /castor/cern.ch/delphi/MCprod/cern/wphact24/v97g/182.7/wphact24_cc_182.7_80.4_200311.fadana ! RUN = 200311 ! NEVT = 1999
FILE = /castor/cern.ch/delphi/MCprod/cern/wphact24/v97g/182.7/wphact24_cc_182.7_80.4_200312.fadana ! RUN = 200312 ! NEVT = 2000
FILE = /castor/cern.ch/delphi/MCprod/cern/wphact24/v97g/182.7/wphact24_cc_182.7_80.4_200313.fadana ! RUN = 200313 ! NEVT = 2000
FILE = /castor/cern.ch/delphi/MCprod/cern/wphact24/v97g/182.7/wphact24_cc_182.7_80.4_200314.fadana ! RUN = 200314 ! NEVT = 1999
FILE = /castor/cern.ch/delphi/MCprod/cern/wphact24/v97g/182.7/wphact24_cc_182.7_80.4_200315.fadana ! RUN = 200315 ! NEVT = 1998
FILE = /castor/cern.ch/delphi/MCprod/cern/wphact24/v97g/182.7/wphact24_cc_182.7_80.4_200316.fadana ! RUN = 200316 ! NEVT = 2000
FILE = /castor/cern.ch/delphi/MCprod/cern/wphact24/v97g/182.7/wphact24_cc_182.7_80.4_200317.fadana ! RUN = 200317 ! NEVT = 2000
FILE = /castor/cern.ch/delphi/MCprod/cern/wphact24/v97g/182.7/wphact24_cc_182.7_80.4_200318.fadana ! RUN = 200318 ! NEVT = 2000
FILE = /castor/cern.ch/delphi/MCprod/cern/wphact24/v97g/182.7/wphact24_cc_182.7_80.4_200319.fadana ! RUN = 200319 ! NEVT = 1997
FILE = /castor/cern.ch/delphi/MCprod/cern/wphact24/v97g/182.7/wphact24_cc_182.7_80.4_200320.fadana ! RUN = 200320 ! NEVT = 2000
FILE = /castor/cern.ch/delphi/MCprod/cern/wphact24/v97g/182.7/wphact24_cc_182.7_80.4_200321.fadana ! RUN = 200321 ! NEVT = 1999
FILE = /castor/cern.ch/delphi/MCprod/cern/wphact24/v97g/182.7/wphact24_cc_182.7_80.4_200322.fadana ! RUN = 200322 ! NEVT = 2000
FILE = /castor/cern.ch/delphi/MCprod/cern/wphact24/v97g/182.7/wphact24_cc_182.7_80.4_200323.fadana ! RUN = 200323 ! NEVT = 2000
FILE = /castor/cern.ch/delphi/MCprod/cern/wphact24/v97g/182.7/wphact24_cc_182.7_80.4_200324.fadana ! RUN = 200324 ! NEVT = 2000
FILE = /castor/cern.ch/delphi/MCprod/cern/wphact24/v97g/182.7/wphact24_cc_182.7_80.4_200325.fadana ! RUN = 200325 ! NEVT = 2000
FILE = /castor/cern.ch/delphi/MCprod/cern/wphact24/v97g/182.7/wphact24_cc_182.7_80.4_200326.fadana ! RUN = 200326 ! NEVT = 2000
FILE = /castor/cern.ch/delphi/MCprod/cern/wphact24/v97g/182.7/wphact24_cc_182.7_80.4_200327.fadana ! RUN = 200327 ! NEVT = 1999
FILE = /castor/cern.ch/delphi/MCprod/cern/wphact24/v97g/182.7/wphact24_cc_182.7_80.4_200328.fadana ! RUN = 200328 ! NEVT = 2000
FILE = /castor/cern.ch/delphi/MCprod/cern/wphact24/v97g/182.7/wphact24_cc_182.7_80.4_200329.fadana ! RUN = 200329 ! NEVT = 2000
FILE = /castor/cern.ch/delphi/MCprod/cern/wphact24/v97g/182.7/wphact24_cc_182.7_80.4_200330.fadana ! RUN = 200330 ! NEVT = 1998
FILE = /castor/cern.ch/delphi/MCprod/cern/wphact24/v97g/182.7/wphact24_cc_182.7_80.4_200331.fadana ! RUN = 200331 ! NEVT = 1998
FILE = /castor/cern.ch/delphi/MCprod/cern/wphact24/v97g/182.7/wphact24_cc_182.7_80.4_200332.fadana ! RUN = 200332 ! NEVT = 2000
FILE = /castor/cern.ch/delphi/MCprod/cern/wphact24/v97g/182.7/wphact24_cc_182.7_80.4_200333.fadana ! RUN = 200333 ! NEVT = 1999
FILE = /castor/cern.ch/delphi/MCprod/cern/wphact24/v97g/182.7/wphact24_cc_182.7_80.4_200334.fadana ! RUN = 200334 ! NEVT = 2000
FILE = /castor/cern.ch/delphi/MCprod/cern/wphact24/v97g/182.7/wphact24_cc_182.7_80.4_200335.fadana ! RUN = 200335 ! NEVT = 1999
FILE = /castor/cern.ch/delphi/MCprod/cern/wphact24/v97g/182.7/wphact24_cc_182.7_80.4_200336.fadana ! RUN = 200336 ! NEVT = 1998
FILE = /castor/cern.ch/delphi/MCprod/cern/wphact24/v97g/182.7/wphact24_cc_182.7_80.4_200337.fadana ! RUN = 200337 ! NEVT = 2000
FILE = /castor/cern.ch/delphi/MCprod/cern/wphact24/v97g/182.7/wphact24_cc_182.7_80.4_200338.fadana ! RUN = 200338 ! NEVT = 1997
FILE = /castor/cern.ch/delphi/MCprod/cern/wphact24/v97g/182.7/wphact24_cc_182.7_80.4_200339.fadana ! RUN = 200339 ! NEVT = 1998
FILE = /castor/cern.ch/delphi/MCprod/cern/wphact24/v97g/182.7/wphact24_cc_182.7_80.4_200340.fadana ! RUN = 200340 ! NEVT = 2000
FILE = /castor/cern.ch/delphi/MCprod/cern/wphact24/v97g/182.7/wphact24_cc_182.7_80.4_200341.fadana ! RUN = 200341 ! NEVT = 2000
FILE = /castor/cern.ch/delphi/MCprod/cern/wphact24/v97g/182.7/wphact24_cc_182.7_80.4_200342.fadana ! RUN = 200342 ! NEVT = 1998
FILE = /castor/cern.ch/delphi/MCprod/cern/wphact24/v97g/182.7/wphact24_cc_182.7_80.4_200343.fadana ! RUN = 200343 ! NEVT = 2000
FILE = /castor/cern.ch/delphi/MCprod/cern/wphact24/v97g/182.7/wphact24_cc_182.7_80.4_200344.fadana ! RUN = 200344 ! NEVT = 1999
FILE = /castor/cern.ch/delphi/MCprod/cern/wphact24/v97g/182.7/wphact24_cc_182.7_80.4_200345.fadana ! RUN = 200345 ! NEVT = 2000
FILE = /castor/cern.ch/delphi/MCprod/cern/wphact24/v97g/182.7/wphact24_cc_182.7_80.4_200346.fadana ! RUN = 200346 ! NEVT = 1998
FILE = /castor/cern.ch/delphi/MCprod/cern/wphact24/v97g/182.7/wphact24_cc_182.7_80.4_200347.fadana ! RUN = 200347 ! NEVT = 282
FILE = /castor/cern.ch/delphi/MCprod/cern/wphact24/v97g/182.7/wphact24_cc_182.7_80.4_200348.fadana ! RUN = 200348 ! NEVT = 1999
FILE = /castor/cern.ch/delphi/MCprod/cern/wphact24/v97g/182.7/wphact24_cc_182.7_80.4_200349.fadana ! RUN = 200349 ! NEVT = 2000
FILE = /castor/cern.ch/delphi/MCprod/cern/wphact24/v97g/182.7/wphact24_cc_182.7_80.4_200350.fadana ! RUN = 200350 ! NEVT = 1998
FILE = /castor/cern.ch/delphi/MCprod/cern/wphact24/v97g/182.7/wphact24_cc_182.7_80.4_200351.fadana ! RUN = 200351 ! NEVT = 1999
FILE = /castor/cern.ch/delphi/MCprod/cern/wphact24/v97g/182.7/wphact24_cc_182.7_80.4_200352.fadana ! RUN = 200352 ! NEVT = 1998
FILE = /castor/cern.ch/delphi/MCprod/cern/wphact24/v97g/182.7/wphact24_cc_182.7_80.4_200353.fadana ! RUN = 200353 ! NEVT = 2000
FILE = /castor/cern.ch/delphi/MCprod/cern/wphact24/v97g/182.7/wphact24_cc_182.7_80.4_200354.fadana ! RUN = 200354 ! NEVT = 2000
FILE = /castor/cern.ch/delphi/MCprod/cern/wphact24/v97g/182.7/wphact24_cc_182.7_80.4_200355.fadana ! RUN = 200355 ! NEVT = 2000
FILE = /castor/cern.ch/delphi/MCprod/cern/wphact24/v97g/182.7/wphact24_cc_182.7_80.4_200356.fadana ! RUN = 200356 ! NEVT = 2000
FILE = /castor/cern.ch/delphi/MCprod/cern/wphact24/v97g/182.7/wphact24_cc_182.7_80.4_200357.fadana ! RUN = 200357 ! NEVT = 1999
FILE = /castor/cern.ch/delphi/MCprod/cern/wphact24/v97g/182.7/wphact24_cc_182.7_80.4_200358.fadana ! RUN = 200358 ! NEVT = 1999
FILE = /castor/cern.ch/delphi/MCprod/cern/wphact24/v97g/182.7/wphact24_cc_182.7_80.4_200359.fadana ! RUN = 200359 ! NEVT = 2000
FILE = /castor/cern.ch/delphi/MCprod/cern/wphact24/v97g/182.7/wphact24_cc_182.7_80.4_200360.fadana ! RUN = 200360 ! NEVT = 2000
FILE = /castor/cern.ch/delphi/MCprod/cern/wphact24/v97g/182.7/wphact24_cc_182.7_80.4_200361.fadana ! RUN = 200361 ! NEVT = 1999
FILE = /castor/cern.ch/delphi/MCprod/cern/wphact24/v97g/182.7/wphact24_cc_182.7_80.4_200362.fadana ! RUN = 200362 ! NEVT = 2000
FILE = /castor/cern.ch/delphi/MCprod/cern/wphact24/v97g/182.7/wphact24_cc_182.7_80.4_200363.fadana ! RUN = 200363 ! NEVT = 1998
FILE = /castor/cern.ch/delphi/MCprod/cern/wphact24/v97g/182.7/wphact24_cc_182.7_80.4_200364.fadana ! RUN = 200364 ! NEVT = 2000
FILE = /castor/cern.ch/delphi/MCprod/cern/wphact24/v97g/182.7/wphact24_cc_182.7_80.4_200365.fadana ! RUN = 200365 ! NEVT = 1999
FILE = /castor/cern.ch/delphi/MCprod/cern/wphact24/v97g/182.7/wphact24_cc_182.7_80.4_200366.fadana ! RUN = 200366 ! NEVT = 2000
FILE = /castor/cern.ch/delphi/MCprod/cern/wphact24/v97g/182.7/wphact24_cc_182.7_80.4_200367.fadana ! RUN = 200367 ! NEVT = 2000
FILE = /castor/cern.ch/delphi/MCprod/cern/wphact24/v97g/182.7/wphact24_cc_182.7_80.4_200368.fadana ! RUN = 200368 ! NEVT = 1999
FILE = /castor/cern.ch/delphi/MCprod/cern/wphact24/v97g/182.7/wphact24_cc_182.7_80.4_200369.fadana ! RUN = 200369 ! NEVT = 2000
FILE = /castor/cern.ch/delphi/MCprod/cern/wphact24/v97g/182.7/wphact24_cc_182.7_80.4_200370.fadana ! RUN = 200370 ! NEVT = 2000
FILE = /castor/cern.ch/delphi/MCprod/cern/wphact24/v97g/182.7/wphact24_cc_182.7_80.4_200371.fadana ! RUN = 200371 ! NEVT = 2000
FILE = /castor/cern.ch/delphi/MCprod/cern/wphact24/v97g/182.7/wphact24_cc_182.7_80.4_200372.fadana ! RUN = 200372 ! NEVT = 1999
FILE = /castor/cern.ch/delphi/MCprod/cern/wphact24/v97g/182.7/wphact24_cc_182.7_80.4_200373.fadana ! RUN = 200373 ! NEVT = 2000
FILE = /castor/cern.ch/delphi/MCprod/cern/wphact24/v97g/182.7/wphact24_cc_182.7_80.4_200374.fadana ! RUN = 200374 ! NEVT = 2000
FILE = /castor/cern.ch/delphi/MCprod/cern/wphact24/v97g/182.7/wphact24_cc_182.7_80.4_200375.fadana ! RUN = 200375 ! NEVT = 2000
FILE = /castor/cern.ch/delphi/MCprod/cern/wphact24/v97g/182.7/wphact24_cc_182.7_80.4_200376.fadana ! RUN = 200376 ! NEVT = 2000
FILE = /castor/cern.ch/delphi/MCprod/cern/wphact24/v97g/182.7/wphact24_cc_182.7_80.4_200377.fadana ! RUN = 200377 ! NEVT = 1998
FILE = /castor/cern.ch/delphi/MCprod/cern/wphact24/v97g/182.7/wphact24_cc_182.7_80.4_200378.fadana ! RUN = 200378 ! NEVT = 2000
FILE = /castor/cern.ch/delphi/MCprod/cern/wphact24/v97g/182.7/wphact24_cc_182.7_80.4_200379.fadana ! RUN = 200379 ! NEVT = 2000
FILE = /castor/cern.ch/delphi/MCprod/cern/wphact24/v97g/182.7/wphact24_cc_182.7_80.4_200380.fadana ! RUN = 200380 ! NEVT = 2000
FILE = /castor/cern.ch/delphi/MCprod/cern/wphact24/v97g/182.7/wphact24_cc_182.7_80.4_200381.fadana ! RUN = 200381 ! NEVT = 2000
FILE = /castor/cern.ch/delphi/MCprod/cern/wphact24/v97g/182.7/wphact24_cc_182.7_80.4_200382.fadana ! RUN = 200382 ! NEVT = 2000
FILE = /castor/cern.ch/delphi/MCprod/cern/wphact24/v97g/182.7/wphact24_cc_182.7_80.4_200383.fadana ! RUN = 200383 ! NEVT = 1998
FILE = /castor/cern.ch/delphi/MCprod/cern/wphact24/v97g/182.7/wphact24_cc_182.7_80.4_200384.fadana ! RUN = 200384 ! NEVT = 1999
FILE = /castor/cern.ch/delphi/MCprod/cern/wphact24/v97g/182.7/wphact24_cc_182.7_80.4_200385.fadana ! RUN = 200385 ! NEVT = 2000
FILE = /castor/cern.ch/delphi/MCprod/cern/wphact24/v97g/182.7/wphact24_cc_182.7_80.4_200386.fadana ! RUN = 200386 ! NEVT = 1999
FILE = /castor/cern.ch/delphi/MCprod/cern/wphact24/v97g/182.7/wphact24_cc_182.7_80.4_200387.fadana ! RUN = 200387 ! NEVT = 2000
FILE = /castor/cern.ch/delphi/MCprod/cern/wphact24/v97g/182.7/wphact24_cc_182.7_80.4_200388.fadana ! RUN = 200388 ! NEVT = 2000
FILE = /castor/cern.ch/delphi/MCprod/cern/wphact24/v97g/182.7/wphact24_cc_182.7_80.4_200389.fadana ! RUN = 200389 ! NEVT = 1999
FILE = /castor/cern.ch/delphi/MCprod/cern/wphact24/v97g/182.7/wphact24_cc_182.7_80.4_200390.fadana ! RUN = 200390 ! NEVT = 2000
FILE = /castor/cern.ch/delphi/MCprod/cern/wphact24/v97g/182.7/wphact24_cc_182.7_80.4_200391.fadana ! RUN = 200391 ! NEVT = 1997
FILE = /castor/cern.ch/delphi/MCprod/cern/wphact24/v97g/182.7/wphact24_cc_182.7_80.4_200392.fadana ! RUN = 200392 ! NEVT = 1999
FILE = /castor/cern.ch/delphi/MCprod/cern/wphact24/v97g/182.7/wphact24_cc_182.7_80.4_200393.fadana ! RUN = 200393 ! NEVT = 1999
FILE = /castor/cern.ch/delphi/MCprod/cern/wphact24/v97g/182.7/wphact24_cc_182.7_80.4_200394.fadana ! RUN = 200394 ! NEVT = 1999
FILE = /castor/cern.ch/delphi/MCprod/cern/wphact24/v97g/182.7/wphact24_cc_182.7_80.4_200395.fadana ! RUN = 200395 ! NEVT = 1999
FILE = /castor/cern.ch/delphi/MCprod/cern/wphact24/v97g/182.7/wphact24_cc_182.7_80.4_200396.fadana ! RUN = 200396 ! NEVT = 2000
FILE = /castor/cern.ch/delphi/MCprod/cern/wphact24/v97g/182.7/wphact24_cc_182.7_80.4_200397.fadana ! RUN = 200397 ! NEVT = 1999
FILE = /castor/cern.ch/delphi/MCprod/cern/wphact24/v97g/182.7/wphact24_cc_182.7_80.4_200398.fadana ! RUN = 200398 ! NEVT = 1998
FILE = /castor/cern.ch/delphi/MCprod/cern/wphact24/v97g/182.7/wphact24_cc_182.7_80.4_200399.fadana ! RUN = 200399 ! NEVT = 1999
FILE = /castor/cern.ch/delphi/MCprod/cern/wphact24/v97g/182.7/wphact24_cc_182.7_80.4_200400.fadana ! RUN = 200400 ! NEVT = 1998
FILE = /castor/cern.ch/delphi/MCprod/cern/wphact24/v97g/182.7/wphact24_cc_182.7_80.4_200401.fadana ! RUN = 200401 ! NEVT = 1998
FILE = /castor/cern.ch/delphi/MCprod/cern/wphact24/v97g/182.7/wphact24_cc_182.7_80.4_200402.fadana ! RUN = 200402 ! NEVT = 1159
FILE = /castor/cern.ch/delphi/MCprod/cern/wphact24/v97g/182.7/wphact24_cc_182.7_80.4_200403.fadana ! RUN = 200403 ! NEVT = 1999
FILE = /castor/cern.ch/delphi/MCprod/cern/wphact24/v97g/182.7/wphact24_cc_182.7_80.4_200404.fadana ! RUN = 200404 ! NEVT = 2000
FILE = /castor/cern.ch/delphi/MCprod/cern/wphact24/v97g/182.7/wphact24_cc_182.7_80.4_200405.fadana ! RUN = 200405 ! NEVT = 2000
FILE = /castor/cern.ch/delphi/MCprod/cern/wphact24/v97g/182.7/wphact24_cc_182.7_80.4_200406.fadana ! RUN = 200406 ! NEVT = 2000
FILE = /castor/cern.ch/delphi/MCprod/cern/wphact24/v97g/182.7/wphact24_cc_182.7_80.4_200407.fadana ! RUN = 200407 ! NEVT = 1999
FILE = /castor/cern.ch/delphi/MCprod/cern/wphact24/v97g/182.7/wphact24_cc_182.7_80.4_200408.fadana ! RUN = 200408 ! NEVT = 2000
FILE = /castor/cern.ch/delphi/MCprod/cern/wphact24/v97g/182.7/wphact24_cc_182.7_80.4_200409.fadana ! RUN = 200409 ! NEVT = 1999
FILE = /castor/cern.ch/delphi/MCprod/cern/wphact24/v97g/182.7/wphact24_cc_182.7_80.4_200410.fadana ! RUN = 200410 ! NEVT = 2000
FILE = /castor/cern.ch/delphi/MCprod/cern/wphact24/v97g/182.7/wphact24_cc_182.7_80.4_200411.fadana ! RUN = 200411 ! NEVT = 2000
FILE = /castor/cern.ch/delphi/MCprod/cern/wphact24/v97g/182.7/wphact24_cc_182.7_80.4_200412.fadana ! RUN = 200412 ! NEVT = 2000
FILE = /castor/cern.ch/delphi/MCprod/cern/wphact24/v97g/182.7/wphact24_cc_182.7_80.4_200413.fadana ! RUN = 200413 ! NEVT = 1998
FILE = /castor/cern.ch/delphi/MCprod/cern/wphact24/v97g/182.7/wphact24_cc_182.7_80.4_200414.fadana ! RUN = 200414 ! NEVT = 2000
FILE = /castor/cern.ch/delphi/MCprod/cern/wphact24/v97g/182.7/wphact24_cc_182.7_80.4_200415.fadana ! RUN = 200415 ! NEVT = 2000
FILE = /castor/cern.ch/delphi/MCprod/cern/wphact24/v97g/182.7/wphact24_cc_182.7_80.4_200416.fadana ! RUN = 200416 ! NEVT = 1999
FILE = /castor/cern.ch/delphi/MCprod/cern/wphact24/v97g/182.7/wphact24_cc_182.7_80.4_200417.fadana ! RUN = 200417 ! NEVT = 2000
FILE = /castor/cern.ch/delphi/MCprod/cern/wphact24/v97g/182.7/wphact24_cc_182.7_80.4_200418.fadana ! RUN = 200418 ! NEVT = 1999
FILE = /castor/cern.ch/delphi/MCprod/cern/wphact24/v97g/182.7/wphact24_cc_182.7_80.4_200419.fadana ! RUN = 200419 ! NEVT = 2000
FILE = /castor/cern.ch/delphi/MCprod/cern/wphact24/v97g/182.7/wphact24_cc_182.7_80.4_200420.fadana ! RUN = 200420 ! NEVT = 1999
FILE = /castor/cern.ch/delphi/MCprod/cern/wphact24/v97g/182.7/wphact24_cc_182.7_80.4_200421.fadana ! RUN = 200421 ! NEVT = 1998
FILE = /castor/cern.ch/delphi/MCprod/cern/wphact24/v97g/182.7/wphact24_cc_182.7_80.4_200422.fadana ! RUN = 200422 ! NEVT = 1999
FILE = /castor/cern.ch/delphi/MCprod/cern/wphact24/v97g/182.7/wphact24_cc_182.7_80.4_200423.fadana ! RUN = 200423 ! NEVT = 1997
FILE = /castor/cern.ch/delphi/MCprod/cern/wphact24/v97g/182.7/wphact24_cc_182.7_80.4_200424.fadana ! RUN = 200424 ! NEVT = 1998
FILE = /castor/cern.ch/delphi/MCprod/cern/wphact24/v97g/182.7/wphact24_cc_182.7_80.4_200425.fadana ! RUN = 200425 ! NEVT = 2000
FILE = /castor/cern.ch/delphi/MCprod/cern/wphact24/v97g/182.7/wphact24_cc_182.7_80.4_200426.fadana ! RUN = 200426 ! NEVT = 1999
FILE = /castor/cern.ch/delphi/MCprod/cern/wphact24/v97g/182.7/wphact24_cc_182.7_80.4_200427.fadana ! RUN = 200427 ! NEVT = 2000
FILE = /castor/cern.ch/delphi/MCprod/cern/wphact24/v97g/182.7/wphact24_cc_182.7_80.4_200428.fadana ! RUN = 200428 ! NEVT = 1999
FILE = /castor/cern.ch/delphi/MCprod/cern/wphact24/v97g/182.7/wphact24_cc_182.7_80.4_200429.fadana ! RUN = 200429 ! NEVT = 1999
FILE = /castor/cern.ch/delphi/MCprod/cern/wphact24/v97g/182.7/wphact24_cc_182.7_80.4_200430.fadana ! RUN = 200430 ! NEVT = 1998
FILE = /castor/cern.ch/delphi/MCprod/cern/wphact24/v97g/182.7/wphact24_cc_182.7_80.4_200431.fadana ! RUN = 200431 ! NEVT = 1999
FILE = /castor/cern.ch/delphi/MCprod/cern/wphact24/v97g/182.7/wphact24_cc_182.7_80.4_200432.fadana ! RUN = 200432 ! NEVT = 1998
FILE = /castor/cern.ch/delphi/MCprod/cern/wphact24/v97g/182.7/wphact24_cc_182.7_80.4_200433.fadana ! RUN = 200433 ! NEVT = 2000
FILE = /castor/cern.ch/delphi/MCprod/cern/wphact24/v97g/182.7/wphact24_cc_182.7_80.4_200434.fadana ! RUN = 200434 ! NEVT = 2000
FILE = /castor/cern.ch/delphi/MCprod/cern/wphact24/v97g/182.7/wphact24_cc_182.7_80.4_200435.fadana ! RUN = 200435 ! NEVT = 2000
FILE = /castor/cern.ch/delphi/MCprod/cern/wphact24/v97g/182.7/wphact24_cc_182.7_80.4_200436.fadana ! RUN = 200436 ! NEVT = 2000
FILE = /castor/cern.ch/delphi/MCprod/cern/wphact24/v97g/182.7/wphact24_cc_182.7_80.4_200437.fadana ! RUN = 200437 ! NEVT = 2000
FILE = /castor/cern.ch/delphi/MCprod/cern/wphact24/v97g/182.7/wphact24_cc_182.7_80.4_200438.fadana ! RUN = 200438 ! NEVT = 2000
FILE = /castor/cern.ch/delphi/MCprod/cern/wphact24/v97g/182.7/wphact24_cc_182.7_80.4_200439.fadana ! RUN = 200439 ! NEVT = 1998
FILE = /castor/cern.ch/delphi/MCprod/cern/wphact24/v97g/182.7/wphact24_cc_182.7_80.4_200440.fadana ! RUN = 200440 ! NEVT = 1999
FILE = /castor/cern.ch/delphi/MCprod/cern/wphact24/v97g/182.7/wphact24_cc_182.7_80.4_200441.fadana ! RUN = 200441 ! NEVT = 2000
FILE = /castor/cern.ch/delphi/MCprod/cern/wphact24/v97g/182.7/wphact24_cc_182.7_80.4_200442.fadana ! RUN = 200442 ! NEVT = 1998
FILE = /castor/cern.ch/delphi/MCprod/cern/wphact24/v97g/182.7/wphact24_cc_182.7_80.4_200443.fadana ! RUN = 200443 ! NEVT = 2000
FILE = /castor/cern.ch/delphi/MCprod/cern/wphact24/v97g/182.7/wphact24_cc_182.7_80.4_200444.fadana ! RUN = 200444 ! NEVT = 1999
FILE = /castor/cern.ch/delphi/MCprod/cern/wphact24/v97g/182.7/wphact24_cc_182.7_80.4_200445.fadana ! RUN = 200445 ! NEVT = 2000
FILE = /castor/cern.ch/delphi/MCprod/cern/wphact24/v97g/182.7/wphact24_cc_182.7_80.4_200446.fadana ! RUN = 200446 ! NEVT = 2000
FILE = /castor/cern.ch/delphi/MCprod/cern/wphact24/v97g/182.7/wphact24_cc_182.7_80.4_200447.fadana ! RUN = 200447 ! NEVT = 1999
FILE = /castor/cern.ch/delphi/MCprod/cern/wphact24/v97g/182.7/wphact24_cc_182.7_80.4_200448.fadana ! RUN = 200448 ! NEVT = 1997
FILE = /castor/cern.ch/delphi/MCprod/cern/wphact24/v97g/182.7/wphact24_cc_182.7_80.4_200449.fadana ! RUN = 200449 ! NEVT = 1999
FILE = /castor/cern.ch/delphi/MCprod/cern/wphact24/v97g/182.7/wphact24_cc_182.7_80.4_200450.fadana ! RUN = 200450 ! NEVT = 2000
FILE = /castor/cern.ch/delphi/MCprod/cern/wphact24/v97g/182.7/wphact24_cc_182.7_80.4_200451.fadana ! RUN = 200451 ! NEVT = 2000
FILE = /castor/cern.ch/delphi/MCprod/cern/wphact24/v97g/182.7/wphact24_cc_182.7_80.4_200452.fadana ! RUN = 200452 ! NEVT = 2000
FILE = /castor/cern.ch/delphi/MCprod/cern/wphact24/v97g/182.7/wphact24_cc_182.7_80.4_200453.fadana ! RUN = 200453 ! NEVT = 1999
FILE = /castor/cern.ch/delphi/MCprod/cern/wphact24/v97g/182.7/wphact24_cc_182.7_80.4_200454.fadana ! RUN = 200454 ! NEVT = 1998
FILE = /castor/cern.ch/delphi/MCprod/cern/wphact24/v97g/182.7/wphact24_cc_182.7_80.4_200455.fadana ! RUN = 200455 ! NEVT = 2000
FILE = /castor/cern.ch/delphi/MCprod/cern/wphact24/v97g/182.7/wphact24_cc_182.7_80.4_200456.fadana ! RUN = 200456 ! NEVT = 1999
FILE = /castor/cern.ch/delphi/MCprod/cern/wphact24/v97g/182.7/wphact24_cc_182.7_80.4_200457.fadana ! RUN = 200457 ! NEVT = 2000
FILE = /castor/cern.ch/delphi/MCprod/cern/wphact24/v97g/182.7/wphact24_cc_182.7_80.4_200458.fadana ! RUN = 200458 ! NEVT = 2000
FILE = /castor/cern.ch/delphi/MCprod/cern/wphact24/v97g/182.7/wphact24_cc_182.7_80.4_200459.fadana ! RUN = 200459 ! NEVT = 2000
FILE = /castor/cern.ch/delphi/MCprod/cern/wphact24/v97g/182.7/wphact24_cc_182.7_80.4_200460.fadana ! RUN = 200460 ! NEVT = 1997
FILE = /castor/cern.ch/delphi/MCprod/cern/wphact24/v97g/182.7/wphact24_cc_182.7_80.4_200461.fadana ! RUN = 200461 ! NEVT = 2000
FILE = /castor/cern.ch/delphi/MCprod/cern/wphact24/v97g/182.7/wphact24_cc_182.7_80.4_200462.fadana ! RUN = 200462 ! NEVT = 2000
FILE = /castor/cern.ch/delphi/MCprod/cern/wphact24/v97g/182.7/wphact24_cc_182.7_80.4_200463.fadana ! RUN = 200463 ! NEVT = 2000
FILE = /castor/cern.ch/delphi/MCprod/cern/wphact24/v97g/182.7/wphact24_cc_182.7_80.4_200464.fadana ! RUN = 200464 ! NEVT = 2000
FILE = /castor/cern.ch/delphi/MCprod/cern/wphact24/v97g/182.7/wphact24_cc_182.7_80.4_200465.fadana ! RUN = 200465 ! NEVT = 1998
FILE = /castor/cern.ch/delphi/MCprod/cern/wphact24/v97g/182.7/wphact24_cc_182.7_80.4_200466.fadana ! RUN = 200466 ! NEVT = 2000
FILE = /castor/cern.ch/delphi/MCprod/cern/wphact24/v97g/182.7/wphact24_cc_182.7_80.4_200467.fadana ! RUN = 200467 ! NEVT = 2000
FILE = /castor/cern.ch/delphi/MCprod/cern/wphact24/v97g/182.7/wphact24_cc_182.7_80.4_200468.fadana ! RUN = 200468 ! NEVT = 1998
FILE = /castor/cern.ch/delphi/MCprod/cern/wphact24/v97g/182.7/wphact24_cc_182.7_80.4_200469.fadana ! RUN = 200469 ! NEVT = 1998
FILE = /castor/cern.ch/delphi/MCprod/cern/wphact24/v97g/182.7/wphact24_cc_182.7_80.4_200470.fadana ! RUN = 200470 ! NEVT = 1999
FILE = /castor/cern.ch/delphi/MCprod/cern/wphact24/v97g/182.7/wphact24_cc_182.7_80.4_200471.fadana ! RUN = 200471 ! NEVT = 2000
FILE = /castor/cern.ch/delphi/MCprod/cern/wphact24/v97g/182.7/wphact24_cc_182.7_80.4_200472.fadana ! RUN = 200472 ! NEVT = 1997
FILE = /castor/cern.ch/delphi/MCprod/cern/wphact24/v97g/182.7/wphact24_cc_182.7_80.4_200473.fadana ! RUN = 200473 ! NEVT = 2000
FILE = /castor/cern.ch/delphi/MCprod/cern/wphact24/v97g/182.7/wphact24_cc_182.7_80.4_200474.fadana ! RUN = 200474 ! NEVT = 2000
FILE = /castor/cern.ch/delphi/MCprod/cern/wphact24/v97g/182.7/wphact24_cc_182.7_80.4_200475.fadana ! RUN = 200475 ! NEVT = 2000
FILE = /castor/cern.ch/delphi/MCprod/cern/wphact24/v97g/182.7/wphact24_cc_182.7_80.4_200476.fadana ! RUN = 200476 ! NEVT = 1998
FILE = /castor/cern.ch/delphi/MCprod/cern/wphact24/v97g/182.7/wphact24_cc_182.7_80.4_200477.fadana ! RUN = 200477 ! NEVT = 1999
FILE = /castor/cern.ch/delphi/MCprod/cern/wphact24/v97g/182.7/wphact24_cc_182.7_80.4_200478.fadana ! RUN = 200478 ! NEVT = 1998
FILE = /castor/cern.ch/delphi/MCprod/cern/wphact24/v97g/182.7/wphact24_cc_182.7_80.4_200479.fadana ! RUN = 200479 ! NEVT = 1999
FILE = /castor/cern.ch/delphi/MCprod/cern/wphact24/v97g/182.7/wphact24_cc_182.7_80.4_200480.fadana ! RUN = 200480 ! NEVT = 1999
FILE = /castor/cern.ch/delphi/MCprod/cern/wphact24/v97g/182.7/wphact24_cc_182.7_80.4_200481.fadana ! RUN = 200481 ! NEVT = 2000
FILE = /castor/cern.ch/delphi/MCprod/cern/wphact24/v97g/182.7/wphact24_cc_182.7_80.4_200482.fadana ! RUN = 200482 ! NEVT = 1997
FILE = /castor/cern.ch/delphi/MCprod/cern/wphact24/v97g/182.7/wphact24_cc_182.7_80.4_200483.fadana ! RUN = 200483 ! NEVT = 1999
FILE = /castor/cern.ch/delphi/MCprod/cern/wphact24/v97g/182.7/wphact24_cc_182.7_80.4_200484.fadana ! RUN = 200484 ! NEVT = 1999
FILE = /castor/cern.ch/delphi/MCprod/cern/wphact24/v97g/182.7/wphact24_cc_182.7_80.4_200485.fadana ! RUN = 200485 ! NEVT = 1998
FILE = /castor/cern.ch/delphi/MCprod/cern/wphact24/v97g/182.7/wphact24_cc_182.7_80.4_200486.fadana ! RUN = 200486 ! NEVT = 2000
FILE = /castor/cern.ch/delphi/MCprod/cern/wphact24/v97g/182.7/wphact24_cc_182.7_80.4_200487.fadana ! RUN = 200487 ! NEVT = 1999
FILE = /castor/cern.ch/delphi/MCprod/cern/wphact24/v97g/182.7/wphact24_cc_182.7_80.4_200488.fadana ! RUN = 200488 ! NEVT = 2000
FILE = /castor/cern.ch/delphi/MCprod/cern/wphact24/v97g/182.7/wphact24_cc_182.7_80.4_200489.fadana ! RUN = 200489 ! NEVT = 1999
FILE = /castor/cern.ch/delphi/MCprod/cern/wphact24/v97g/182.7/wphact24_cc_182.7_80.4_200490.fadana ! RUN = 200490 ! NEVT = 2000
FILE = /castor/cern.ch/delphi/MCprod/cern/wphact24/v97g/182.7/wphact24_cc_182.7_80.4_200491.fadana ! RUN = 200491 ! NEVT = 1998
FILE = /castor/cern.ch/delphi/MCprod/cern/wphact24/v97g/182.7/wphact24_cc_182.7_80.4_200492.fadana ! RUN = 200492 ! NEVT = 2000
FILE = /castor/cern.ch/delphi/MCprod/cern/wphact24/v97g/182.7/wphact24_cc_182.7_80.4_200493.fadana ! RUN = 200493 ! NEVT = 2000
FILE = /castor/cern.ch/delphi/MCprod/cern/wphact24/v97g/182.7/wphact24_cc_182.7_80.4_200494.fadana ! RUN = 200494 ! NEVT = 1998
FILE = /castor/cern.ch/delphi/MCprod/cern/wphact24/v97g/182.7/wphact24_cc_182.7_80.4_200495.fadana ! RUN = 200495 ! NEVT = 2000
FILE = /castor/cern.ch/delphi/MCprod/cern/wphact24/v97g/182.7/wphact24_cc_182.7_80.4_200496.fadana ! RUN = 200496 ! NEVT = 1999
FILE = /castor/cern.ch/delphi/MCprod/cern/wphact24/v97g/182.7/wphact24_cc_182.7_80.4_200497.fadana ! RUN = 200497 ! NEVT = 2000
FILE = /castor/cern.ch/delphi/MCprod/cern/wphact24/v97g/182.7/wphact24_cc_182.7_80.4_200498.fadana ! RUN = 200498 ! NEVT = 1999
FILE = /castor/cern.ch/delphi/MCprod/cern/wphact24/v97g/182.7/wphact24_cc_182.7_80.4_200499.fadana ! RUN = 200499 ! NEVT = 2000
FILE = /castor/cern.ch/delphi/MCprod/cern/wphact24/v97g/182.7/wphact24_cc_182.7_80.4_200500.fadana ! RUN = 200500 ! NEVT = 1999
