*
*   Nickname     : xs_bdk01eeee_e182.7_r97_1l_g1
*   Generic Name : //CERN/DELPHI/P02_SIMD/XSDST/BDK01EEEE/E182.7/RAL/SUMT/C001-250
*   Description  :  Extended Short DST simulation 97_g1 done at ecms=182.7 , RAL
*---
*   Comments     : in total 499278 events in 250 files time stamp: Fri Dec 14 22:50:40 2001
*---
*
*
*
*
*
FILE = /castor/cern.ch/delphi/MCprod/ral/bdk01/v97g/182.7/bdk01_eeee_182.7_51001.xsdst ! RUN = 51001 ! NEVT = 2000
FILE = /castor/cern.ch/delphi/MCprod/ral/bdk01/v97g/182.7/bdk01_eeee_182.7_51002.xsdst ! RUN = 51002 ! NEVT = 2000
FILE = /castor/cern.ch/delphi/MCprod/ral/bdk01/v97g/182.7/bdk01_eeee_182.7_51003.xsdst ! RUN = 51003 ! NEVT = 2000
FILE = /castor/cern.ch/delphi/MCprod/ral/bdk01/v97g/182.7/bdk01_eeee_182.7_51004.xsdst ! RUN = 51004 ! NEVT = 2000
FILE = /castor/cern.ch/delphi/MCprod/ral/bdk01/v97g/182.7/bdk01_eeee_182.7_51005.xsdst ! RUN = 51005 ! NEVT = 2000
FILE = /castor/cern.ch/delphi/MCprod/ral/bdk01/v97g/182.7/bdk01_eeee_182.7_51006.xsdst ! RUN = 51006 ! NEVT = 2000
FILE = /castor/cern.ch/delphi/MCprod/ral/bdk01/v97g/182.7/bdk01_eeee_182.7_51007.xsdst ! RUN = 51007 ! NEVT = 2000
FILE = /castor/cern.ch/delphi/MCprod/ral/bdk01/v97g/182.7/bdk01_eeee_182.7_51008.xsdst ! RUN = 51008 ! NEVT = 2000
FILE = /castor/cern.ch/delphi/MCprod/ral/bdk01/v97g/182.7/bdk01_eeee_182.7_51009.xsdst ! RUN = 51009 ! NEVT = 2000
FILE = /castor/cern.ch/delphi/MCprod/ral/bdk01/v97g/182.7/bdk01_eeee_182.7_51010.xsdst ! RUN = 51010 ! NEVT = 2000
FILE = /castor/cern.ch/delphi/MCprod/ral/bdk01/v97g/182.7/bdk01_eeee_182.7_51011.xsdst ! RUN = 51011 ! NEVT = 2000
FILE = /castor/cern.ch/delphi/MCprod/ral/bdk01/v97g/182.7/bdk01_eeee_182.7_51012.xsdst ! RUN = 51012 ! NEVT = 2000
FILE = /castor/cern.ch/delphi/MCprod/ral/bdk01/v97g/182.7/bdk01_eeee_182.7_51013.xsdst ! RUN = 51013 ! NEVT = 2000
FILE = /castor/cern.ch/delphi/MCprod/ral/bdk01/v97g/182.7/bdk01_eeee_182.7_51014.xsdst ! RUN = 51014 ! NEVT = 2000
FILE = /castor/cern.ch/delphi/MCprod/ral/bdk01/v97g/182.7/bdk01_eeee_182.7_51015.xsdst ! RUN = 51015 ! NEVT = 2000
FILE = /castor/cern.ch/delphi/MCprod/ral/bdk01/v97g/182.7/bdk01_eeee_182.7_51016.xsdst ! RUN = 51016 ! NEVT = 2000
FILE = /castor/cern.ch/delphi/MCprod/ral/bdk01/v97g/182.7/bdk01_eeee_182.7_51017.xsdst ! RUN = 51017 ! NEVT = 2000
FILE = /castor/cern.ch/delphi/MCprod/ral/bdk01/v97g/182.7/bdk01_eeee_182.7_51018.xsdst ! RUN = 51018 ! NEVT = 2000
FILE = /castor/cern.ch/delphi/MCprod/ral/bdk01/v97g/182.7/bdk01_eeee_182.7_51019.xsdst ! RUN = 51019 ! NEVT = 2000
FILE = /castor/cern.ch/delphi/MCprod/ral/bdk01/v97g/182.7/bdk01_eeee_182.7_51020.xsdst ! RUN = 51020 ! NEVT = 2000
FILE = /castor/cern.ch/delphi/MCprod/ral/bdk01/v97g/182.7/bdk01_eeee_182.7_51021.xsdst ! RUN = 51021 ! NEVT = 2000
FILE = /castor/cern.ch/delphi/MCprod/ral/bdk01/v97g/182.7/bdk01_eeee_182.7_51022.xsdst ! RUN = 51022 ! NEVT = 2000
FILE = /castor/cern.ch/delphi/MCprod/ral/bdk01/v97g/182.7/bdk01_eeee_182.7_51023.xsdst ! RUN = 51023 ! NEVT = 2000
FILE = /castor/cern.ch/delphi/MCprod/ral/bdk01/v97g/182.7/bdk01_eeee_182.7_51024.xsdst ! RUN = 51024 ! NEVT = 2000
FILE = /castor/cern.ch/delphi/MCprod/ral/bdk01/v97g/182.7/bdk01_eeee_182.7_51025.xsdst ! RUN = 51025 ! NEVT = 2000
FILE = /castor/cern.ch/delphi/MCprod/ral/bdk01/v97g/182.7/bdk01_eeee_182.7_51026.xsdst ! RUN = 51026 ! NEVT = 2000
FILE = /castor/cern.ch/delphi/MCprod/ral/bdk01/v97g/182.7/bdk01_eeee_182.7_51027.xsdst ! RUN = 51027 ! NEVT = 2000
FILE = /castor/cern.ch/delphi/MCprod/ral/bdk01/v97g/182.7/bdk01_eeee_182.7_51028.xsdst ! RUN = 51028 ! NEVT = 2000
FILE = /castor/cern.ch/delphi/MCprod/ral/bdk01/v97g/182.7/bdk01_eeee_182.7_51029.xsdst ! RUN = 51029 ! NEVT = 2000
FILE = /castor/cern.ch/delphi/MCprod/ral/bdk01/v97g/182.7/bdk01_eeee_182.7_51030.xsdst ! RUN = 51030 ! NEVT = 2000
FILE = /castor/cern.ch/delphi/MCprod/ral/bdk01/v97g/182.7/bdk01_eeee_182.7_51031.xsdst ! RUN = 51031 ! NEVT = 2000
FILE = /castor/cern.ch/delphi/MCprod/ral/bdk01/v97g/182.7/bdk01_eeee_182.7_51032.xsdst ! RUN = 51032 ! NEVT = 2000
FILE = /castor/cern.ch/delphi/MCprod/ral/bdk01/v97g/182.7/bdk01_eeee_182.7_51033.xsdst ! RUN = 51033 ! NEVT = 2000
FILE = /castor/cern.ch/delphi/MCprod/ral/bdk01/v97g/182.7/bdk01_eeee_182.7_51034.xsdst ! RUN = 51034 ! NEVT = 2000
FILE = /castor/cern.ch/delphi/MCprod/ral/bdk01/v97g/182.7/bdk01_eeee_182.7_51035.xsdst ! RUN = 51035 ! NEVT = 2000
FILE = /castor/cern.ch/delphi/MCprod/ral/bdk01/v97g/182.7/bdk01_eeee_182.7_51036.xsdst ! RUN = 51036 ! NEVT = 2000
FILE = /castor/cern.ch/delphi/MCprod/ral/bdk01/v97g/182.7/bdk01_eeee_182.7_51037.xsdst ! RUN = 51037 ! NEVT = 2000
FILE = /castor/cern.ch/delphi/MCprod/ral/bdk01/v97g/182.7/bdk01_eeee_182.7_51038.xsdst ! RUN = 51038 ! NEVT = 2000
FILE = /castor/cern.ch/delphi/MCprod/ral/bdk01/v97g/182.7/bdk01_eeee_182.7_51039.xsdst ! RUN = 51039 ! NEVT = 2000
FILE = /castor/cern.ch/delphi/MCprod/ral/bdk01/v97g/182.7/bdk01_eeee_182.7_51040.xsdst ! RUN = 51040 ! NEVT = 2000
FILE = /castor/cern.ch/delphi/MCprod/ral/bdk01/v97g/182.7/bdk01_eeee_182.7_51041.xsdst ! RUN = 51041 ! NEVT = 2000
FILE = /castor/cern.ch/delphi/MCprod/ral/bdk01/v97g/182.7/bdk01_eeee_182.7_51042.xsdst ! RUN = 51042 ! NEVT = 2000
FILE = /castor/cern.ch/delphi/MCprod/ral/bdk01/v97g/182.7/bdk01_eeee_182.7_51043.xsdst ! RUN = 51043 ! NEVT = 2000
FILE = /castor/cern.ch/delphi/MCprod/ral/bdk01/v97g/182.7/bdk01_eeee_182.7_51044.xsdst ! RUN = 51044 ! NEVT = 2000
FILE = /castor/cern.ch/delphi/MCprod/ral/bdk01/v97g/182.7/bdk01_eeee_182.7_51045.xsdst ! RUN = 51045 ! NEVT = 2000
FILE = /castor/cern.ch/delphi/MCprod/ral/bdk01/v97g/182.7/bdk01_eeee_182.7_51046.xsdst ! RUN = 51046 ! NEVT = 2000
FILE = /castor/cern.ch/delphi/MCprod/ral/bdk01/v97g/182.7/bdk01_eeee_182.7_51047.xsdst ! RUN = 51047 ! NEVT = 2000
FILE = /castor/cern.ch/delphi/MCprod/ral/bdk01/v97g/182.7/bdk01_eeee_182.7_51048.xsdst ! RUN = 51048 ! NEVT = 2000
FILE = /castor/cern.ch/delphi/MCprod/ral/bdk01/v97g/182.7/bdk01_eeee_182.7_51049.xsdst ! RUN = 51049 ! NEVT = 2000
FILE = /castor/cern.ch/delphi/MCprod/ral/bdk01/v97g/182.7/bdk01_eeee_182.7_51050.xsdst ! RUN = 51050 ! NEVT = 2000
FILE = /castor/cern.ch/delphi/MCprod/ral/bdk01/v97g/182.7/bdk01_eeee_182.7_51051.xsdst ! RUN = 51051 ! NEVT = 2000
FILE = /castor/cern.ch/delphi/MCprod/ral/bdk01/v97g/182.7/bdk01_eeee_182.7_51052.xsdst ! RUN = 51052 ! NEVT = 2000
FILE = /castor/cern.ch/delphi/MCprod/ral/bdk01/v97g/182.7/bdk01_eeee_182.7_51053.xsdst ! RUN = 51053 ! NEVT = 2000
FILE = /castor/cern.ch/delphi/MCprod/ral/bdk01/v97g/182.7/bdk01_eeee_182.7_51054.xsdst ! RUN = 51054 ! NEVT = 2000
FILE = /castor/cern.ch/delphi/MCprod/ral/bdk01/v97g/182.7/bdk01_eeee_182.7_51055.xsdst ! RUN = 51055 ! NEVT = 2000
FILE = /castor/cern.ch/delphi/MCprod/ral/bdk01/v97g/182.7/bdk01_eeee_182.7_51056.xsdst ! RUN = 51056 ! NEVT = 2000
FILE = /castor/cern.ch/delphi/MCprod/ral/bdk01/v97g/182.7/bdk01_eeee_182.7_51057.xsdst ! RUN = 51057 ! NEVT = 2000
FILE = /castor/cern.ch/delphi/MCprod/ral/bdk01/v97g/182.7/bdk01_eeee_182.7_51058.xsdst ! RUN = 51058 ! NEVT = 2000
FILE = /castor/cern.ch/delphi/MCprod/ral/bdk01/v97g/182.7/bdk01_eeee_182.7_51059.xsdst ! RUN = 51059 ! NEVT = 2000
FILE = /castor/cern.ch/delphi/MCprod/ral/bdk01/v97g/182.7/bdk01_eeee_182.7_51060.xsdst ! RUN = 51060 ! NEVT = 2000
FILE = /castor/cern.ch/delphi/MCprod/ral/bdk01/v97g/182.7/bdk01_eeee_182.7_51061.xsdst ! RUN = 51061 ! NEVT = 2000
FILE = /castor/cern.ch/delphi/MCprod/ral/bdk01/v97g/182.7/bdk01_eeee_182.7_51062.xsdst ! RUN = 51062 ! NEVT = 2000
FILE = /castor/cern.ch/delphi/MCprod/ral/bdk01/v97g/182.7/bdk01_eeee_182.7_51063.xsdst ! RUN = 51063 ! NEVT = 2000
FILE = /castor/cern.ch/delphi/MCprod/ral/bdk01/v97g/182.7/bdk01_eeee_182.7_51064.xsdst ! RUN = 51064 ! NEVT = 2000
FILE = /castor/cern.ch/delphi/MCprod/ral/bdk01/v97g/182.7/bdk01_eeee_182.7_51065.xsdst ! RUN = 51065 ! NEVT = 2000
FILE = /castor/cern.ch/delphi/MCprod/ral/bdk01/v97g/182.7/bdk01_eeee_182.7_51066.xsdst ! RUN = 51066 ! NEVT = 2000
FILE = /castor/cern.ch/delphi/MCprod/ral/bdk01/v97g/182.7/bdk01_eeee_182.7_51067.xsdst ! RUN = 51067 ! NEVT = 2000
FILE = /castor/cern.ch/delphi/MCprod/ral/bdk01/v97g/182.7/bdk01_eeee_182.7_51068.xsdst ! RUN = 51068 ! NEVT = 2000
FILE = /castor/cern.ch/delphi/MCprod/ral/bdk01/v97g/182.7/bdk01_eeee_182.7_51069.xsdst ! RUN = 51069 ! NEVT = 2000
FILE = /castor/cern.ch/delphi/MCprod/ral/bdk01/v97g/182.7/bdk01_eeee_182.7_51070.xsdst ! RUN = 51070 ! NEVT = 2000
FILE = /castor/cern.ch/delphi/MCprod/ral/bdk01/v97g/182.7/bdk01_eeee_182.7_51071.xsdst ! RUN = 51071 ! NEVT = 2000
FILE = /castor/cern.ch/delphi/MCprod/ral/bdk01/v97g/182.7/bdk01_eeee_182.7_51072.xsdst ! RUN = 51072 ! NEVT = 2000
FILE = /castor/cern.ch/delphi/MCprod/ral/bdk01/v97g/182.7/bdk01_eeee_182.7_51073.xsdst ! RUN = 51073 ! NEVT = 2000
FILE = /castor/cern.ch/delphi/MCprod/ral/bdk01/v97g/182.7/bdk01_eeee_182.7_51074.xsdst ! RUN = 51074 ! NEVT = 2000
FILE = /castor/cern.ch/delphi/MCprod/ral/bdk01/v97g/182.7/bdk01_eeee_182.7_51075.xsdst ! RUN = 51075 ! NEVT = 2000
FILE = /castor/cern.ch/delphi/MCprod/ral/bdk01/v97g/182.7/bdk01_eeee_182.7_51076.xsdst ! RUN = 51076 ! NEVT = 2000
FILE = /castor/cern.ch/delphi/MCprod/ral/bdk01/v97g/182.7/bdk01_eeee_182.7_51077.xsdst ! RUN = 51077 ! NEVT = 2000
FILE = /castor/cern.ch/delphi/MCprod/ral/bdk01/v97g/182.7/bdk01_eeee_182.7_51078.xsdst ! RUN = 51078 ! NEVT = 2000
FILE = /castor/cern.ch/delphi/MCprod/ral/bdk01/v97g/182.7/bdk01_eeee_182.7_51079.xsdst ! RUN = 51079 ! NEVT = 2000
FILE = /castor/cern.ch/delphi/MCprod/ral/bdk01/v97g/182.7/bdk01_eeee_182.7_51080.xsdst ! RUN = 51080 ! NEVT = 2000
FILE = /castor/cern.ch/delphi/MCprod/ral/bdk01/v97g/182.7/bdk01_eeee_182.7_51081.xsdst ! RUN = 51081 ! NEVT = 2000
FILE = /castor/cern.ch/delphi/MCprod/ral/bdk01/v97g/182.7/bdk01_eeee_182.7_51082.xsdst ! RUN = 51082 ! NEVT = 2000
FILE = /castor/cern.ch/delphi/MCprod/ral/bdk01/v97g/182.7/bdk01_eeee_182.7_51083.xsdst ! RUN = 51083 ! NEVT = 2000
FILE = /castor/cern.ch/delphi/MCprod/ral/bdk01/v97g/182.7/bdk01_eeee_182.7_51084.xsdst ! RUN = 51084 ! NEVT = 2000
FILE = /castor/cern.ch/delphi/MCprod/ral/bdk01/v97g/182.7/bdk01_eeee_182.7_51085.xsdst ! RUN = 51085 ! NEVT = 2000
FILE = /castor/cern.ch/delphi/MCprod/ral/bdk01/v97g/182.7/bdk01_eeee_182.7_51086.xsdst ! RUN = 51086 ! NEVT = 2000
FILE = /castor/cern.ch/delphi/MCprod/ral/bdk01/v97g/182.7/bdk01_eeee_182.7_51087.xsdst ! RUN = 51087 ! NEVT = 2000
FILE = /castor/cern.ch/delphi/MCprod/ral/bdk01/v97g/182.7/bdk01_eeee_182.7_51088.xsdst ! RUN = 51088 ! NEVT = 2000
FILE = /castor/cern.ch/delphi/MCprod/ral/bdk01/v97g/182.7/bdk01_eeee_182.7_51089.xsdst ! RUN = 51089 ! NEVT = 2000
FILE = /castor/cern.ch/delphi/MCprod/ral/bdk01/v97g/182.7/bdk01_eeee_182.7_51090.xsdst ! RUN = 51090 ! NEVT = 2000
FILE = /castor/cern.ch/delphi/MCprod/ral/bdk01/v97g/182.7/bdk01_eeee_182.7_51091.xsdst ! RUN = 51091 ! NEVT = 2000
FILE = /castor/cern.ch/delphi/MCprod/ral/bdk01/v97g/182.7/bdk01_eeee_182.7_51092.xsdst ! RUN = 51092 ! NEVT = 2000
FILE = /castor/cern.ch/delphi/MCprod/ral/bdk01/v97g/182.7/bdk01_eeee_182.7_51093.xsdst ! RUN = 51093 ! NEVT = 2000
FILE = /castor/cern.ch/delphi/MCprod/ral/bdk01/v97g/182.7/bdk01_eeee_182.7_51094.xsdst ! RUN = 51094 ! NEVT = 2000
FILE = /castor/cern.ch/delphi/MCprod/ral/bdk01/v97g/182.7/bdk01_eeee_182.7_51095.xsdst ! RUN = 51095 ! NEVT = 2000
FILE = /castor/cern.ch/delphi/MCprod/ral/bdk01/v97g/182.7/bdk01_eeee_182.7_51096.xsdst ! RUN = 51096 ! NEVT = 2000
FILE = /castor/cern.ch/delphi/MCprod/ral/bdk01/v97g/182.7/bdk01_eeee_182.7_51097.xsdst ! RUN = 51097 ! NEVT = 2000
FILE = /castor/cern.ch/delphi/MCprod/ral/bdk01/v97g/182.7/bdk01_eeee_182.7_51098.xsdst ! RUN = 51098 ! NEVT = 2000
FILE = /castor/cern.ch/delphi/MCprod/ral/bdk01/v97g/182.7/bdk01_eeee_182.7_51099.xsdst ! RUN = 51099 ! NEVT = 2000
FILE = /castor/cern.ch/delphi/MCprod/ral/bdk01/v97g/182.7/bdk01_eeee_182.7_51100.xsdst ! RUN = 51100 ! NEVT = 2000
FILE = /castor/cern.ch/delphi/MCprod/ral/bdk01/v97g/182.7/bdk01_eeee_182.7_51101.xsdst ! RUN = 51101 ! NEVT = 2000
FILE = /castor/cern.ch/delphi/MCprod/ral/bdk01/v97g/182.7/bdk01_eeee_182.7_51102.xsdst ! RUN = 51102 ! NEVT = 2000
FILE = /castor/cern.ch/delphi/MCprod/ral/bdk01/v97g/182.7/bdk01_eeee_182.7_51103.xsdst ! RUN = 51103 ! NEVT = 2000
FILE = /castor/cern.ch/delphi/MCprod/ral/bdk01/v97g/182.7/bdk01_eeee_182.7_51104.xsdst ! RUN = 51104 ! NEVT = 2000
FILE = /castor/cern.ch/delphi/MCprod/ral/bdk01/v97g/182.7/bdk01_eeee_182.7_51105.xsdst ! RUN = 51105 ! NEVT = 2000
FILE = /castor/cern.ch/delphi/MCprod/ral/bdk01/v97g/182.7/bdk01_eeee_182.7_51106.xsdst ! RUN = 51106 ! NEVT = 2000
FILE = /castor/cern.ch/delphi/MCprod/ral/bdk01/v97g/182.7/bdk01_eeee_182.7_51107.xsdst ! RUN = 51107 ! NEVT = 2000
FILE = /castor/cern.ch/delphi/MCprod/ral/bdk01/v97g/182.7/bdk01_eeee_182.7_51108.xsdst ! RUN = 51108 ! NEVT = 2000
FILE = /castor/cern.ch/delphi/MCprod/ral/bdk01/v97g/182.7/bdk01_eeee_182.7_51109.xsdst ! RUN = 51109 ! NEVT = 2000
FILE = /castor/cern.ch/delphi/MCprod/ral/bdk01/v97g/182.7/bdk01_eeee_182.7_51110.xsdst ! RUN = 51110 ! NEVT = 2000
FILE = /castor/cern.ch/delphi/MCprod/ral/bdk01/v97g/182.7/bdk01_eeee_182.7_51111.xsdst ! RUN = 51111 ! NEVT = 2000
FILE = /castor/cern.ch/delphi/MCprod/ral/bdk01/v97g/182.7/bdk01_eeee_182.7_51112.xsdst ! RUN = 51112 ! NEVT = 2000
FILE = /castor/cern.ch/delphi/MCprod/ral/bdk01/v97g/182.7/bdk01_eeee_182.7_51113.xsdst ! RUN = 51113 ! NEVT = 2000
FILE = /castor/cern.ch/delphi/MCprod/ral/bdk01/v97g/182.7/bdk01_eeee_182.7_51114.xsdst ! RUN = 51114 ! NEVT = 1999
FILE = /castor/cern.ch/delphi/MCprod/ral/bdk01/v97g/182.7/bdk01_eeee_182.7_51115.xsdst ! RUN = 51115 ! NEVT = 2000
FILE = /castor/cern.ch/delphi/MCprod/ral/bdk01/v97g/182.7/bdk01_eeee_182.7_51116.xsdst ! RUN = 51116 ! NEVT = 2000
FILE = /castor/cern.ch/delphi/MCprod/ral/bdk01/v97g/182.7/bdk01_eeee_182.7_51117.xsdst ! RUN = 51117 ! NEVT = 2000
FILE = /castor/cern.ch/delphi/MCprod/ral/bdk01/v97g/182.7/bdk01_eeee_182.7_51118.xsdst ! RUN = 51118 ! NEVT = 2000
FILE = /castor/cern.ch/delphi/MCprod/ral/bdk01/v97g/182.7/bdk01_eeee_182.7_51119.xsdst ! RUN = 51119 ! NEVT = 1281
FILE = /castor/cern.ch/delphi/MCprod/ral/bdk01/v97g/182.7/bdk01_eeee_182.7_51120.xsdst ! RUN = 51120 ! NEVT = 2000
FILE = /castor/cern.ch/delphi/MCprod/ral/bdk01/v97g/182.7/bdk01_eeee_182.7_51121.xsdst ! RUN = 51121 ! NEVT = 2000
FILE = /castor/cern.ch/delphi/MCprod/ral/bdk01/v97g/182.7/bdk01_eeee_182.7_51122.xsdst ! RUN = 51122 ! NEVT = 2000
FILE = /castor/cern.ch/delphi/MCprod/ral/bdk01/v97g/182.7/bdk01_eeee_182.7_51123.xsdst ! RUN = 51123 ! NEVT = 2000
FILE = /castor/cern.ch/delphi/MCprod/ral/bdk01/v97g/182.7/bdk01_eeee_182.7_51124.xsdst ! RUN = 51124 ! NEVT = 2000
FILE = /castor/cern.ch/delphi/MCprod/ral/bdk01/v97g/182.7/bdk01_eeee_182.7_51125.xsdst ! RUN = 51125 ! NEVT = 2000
FILE = /castor/cern.ch/delphi/MCprod/ral/bdk01/v97g/182.7/bdk01_eeee_182.7_51126.xsdst ! RUN = 51126 ! NEVT = 2000
FILE = /castor/cern.ch/delphi/MCprod/ral/bdk01/v97g/182.7/bdk01_eeee_182.7_51127.xsdst ! RUN = 51127 ! NEVT = 2000
FILE = /castor/cern.ch/delphi/MCprod/ral/bdk01/v97g/182.7/bdk01_eeee_182.7_51128.xsdst ! RUN = 51128 ! NEVT = 2000
FILE = /castor/cern.ch/delphi/MCprod/ral/bdk01/v97g/182.7/bdk01_eeee_182.7_51129.xsdst ! RUN = 51129 ! NEVT = 2000
FILE = /castor/cern.ch/delphi/MCprod/ral/bdk01/v97g/182.7/bdk01_eeee_182.7_51130.xsdst ! RUN = 51130 ! NEVT = 2000
FILE = /castor/cern.ch/delphi/MCprod/ral/bdk01/v97g/182.7/bdk01_eeee_182.7_51131.xsdst ! RUN = 51131 ! NEVT = 2000
FILE = /castor/cern.ch/delphi/MCprod/ral/bdk01/v97g/182.7/bdk01_eeee_182.7_51132.xsdst ! RUN = 51132 ! NEVT = 2000
FILE = /castor/cern.ch/delphi/MCprod/ral/bdk01/v97g/182.7/bdk01_eeee_182.7_51133.xsdst ! RUN = 51133 ! NEVT = 2000
FILE = /castor/cern.ch/delphi/MCprod/ral/bdk01/v97g/182.7/bdk01_eeee_182.7_51134.xsdst ! RUN = 51134 ! NEVT = 2000
FILE = /castor/cern.ch/delphi/MCprod/ral/bdk01/v97g/182.7/bdk01_eeee_182.7_51135.xsdst ! RUN = 51135 ! NEVT = 2000
FILE = /castor/cern.ch/delphi/MCprod/ral/bdk01/v97g/182.7/bdk01_eeee_182.7_51136.xsdst ! RUN = 51136 ! NEVT = 2000
FILE = /castor/cern.ch/delphi/MCprod/ral/bdk01/v97g/182.7/bdk01_eeee_182.7_51137.xsdst ! RUN = 51137 ! NEVT = 2000
FILE = /castor/cern.ch/delphi/MCprod/ral/bdk01/v97g/182.7/bdk01_eeee_182.7_51138.xsdst ! RUN = 51138 ! NEVT = 2000
FILE = /castor/cern.ch/delphi/MCprod/ral/bdk01/v97g/182.7/bdk01_eeee_182.7_51139.xsdst ! RUN = 51139 ! NEVT = 2000
FILE = /castor/cern.ch/delphi/MCprod/ral/bdk01/v97g/182.7/bdk01_eeee_182.7_51140.xsdst ! RUN = 51140 ! NEVT = 2000
FILE = /castor/cern.ch/delphi/MCprod/ral/bdk01/v97g/182.7/bdk01_eeee_182.7_51141.xsdst ! RUN = 51141 ! NEVT = 2000
FILE = /castor/cern.ch/delphi/MCprod/ral/bdk01/v97g/182.7/bdk01_eeee_182.7_51142.xsdst ! RUN = 51142 ! NEVT = 2000
FILE = /castor/cern.ch/delphi/MCprod/ral/bdk01/v97g/182.7/bdk01_eeee_182.7_51143.xsdst ! RUN = 51143 ! NEVT = 2000
FILE = /castor/cern.ch/delphi/MCprod/ral/bdk01/v97g/182.7/bdk01_eeee_182.7_51144.xsdst ! RUN = 51144 ! NEVT = 2000
FILE = /castor/cern.ch/delphi/MCprod/ral/bdk01/v97g/182.7/bdk01_eeee_182.7_51145.xsdst ! RUN = 51145 ! NEVT = 2000
FILE = /castor/cern.ch/delphi/MCprod/ral/bdk01/v97g/182.7/bdk01_eeee_182.7_51146.xsdst ! RUN = 51146 ! NEVT = 2000
FILE = /castor/cern.ch/delphi/MCprod/ral/bdk01/v97g/182.7/bdk01_eeee_182.7_51147.xsdst ! RUN = 51147 ! NEVT = 2000
FILE = /castor/cern.ch/delphi/MCprod/ral/bdk01/v97g/182.7/bdk01_eeee_182.7_51148.xsdst ! RUN = 51148 ! NEVT = 2000
FILE = /castor/cern.ch/delphi/MCprod/ral/bdk01/v97g/182.7/bdk01_eeee_182.7_51149.xsdst ! RUN = 51149 ! NEVT = 2000
FILE = /castor/cern.ch/delphi/MCprod/ral/bdk01/v97g/182.7/bdk01_eeee_182.7_51150.xsdst ! RUN = 51150 ! NEVT = 1999
FILE = /castor/cern.ch/delphi/MCprod/ral/bdk01/v97g/182.7/bdk01_eeee_182.7_51151.xsdst ! RUN = 51151 ! NEVT = 2000
FILE = /castor/cern.ch/delphi/MCprod/ral/bdk01/v97g/182.7/bdk01_eeee_182.7_51152.xsdst ! RUN = 51152 ! NEVT = 2000
FILE = /castor/cern.ch/delphi/MCprod/ral/bdk01/v97g/182.7/bdk01_eeee_182.7_51153.xsdst ! RUN = 51153 ! NEVT = 2000
FILE = /castor/cern.ch/delphi/MCprod/ral/bdk01/v97g/182.7/bdk01_eeee_182.7_51154.xsdst ! RUN = 51154 ! NEVT = 2000
FILE = /castor/cern.ch/delphi/MCprod/ral/bdk01/v97g/182.7/bdk01_eeee_182.7_51155.xsdst ! RUN = 51155 ! NEVT = 2000
FILE = /castor/cern.ch/delphi/MCprod/ral/bdk01/v97g/182.7/bdk01_eeee_182.7_51156.xsdst ! RUN = 51156 ! NEVT = 2000
FILE = /castor/cern.ch/delphi/MCprod/ral/bdk01/v97g/182.7/bdk01_eeee_182.7_51157.xsdst ! RUN = 51157 ! NEVT = 2000
FILE = /castor/cern.ch/delphi/MCprod/ral/bdk01/v97g/182.7/bdk01_eeee_182.7_51158.xsdst ! RUN = 51158 ! NEVT = 2000
FILE = /castor/cern.ch/delphi/MCprod/ral/bdk01/v97g/182.7/bdk01_eeee_182.7_51159.xsdst ! RUN = 51159 ! NEVT = 2000
FILE = /castor/cern.ch/delphi/MCprod/ral/bdk01/v97g/182.7/bdk01_eeee_182.7_51160.xsdst ! RUN = 51160 ! NEVT = 2000
FILE = /castor/cern.ch/delphi/MCprod/ral/bdk01/v97g/182.7/bdk01_eeee_182.7_51161.xsdst ! RUN = 51161 ! NEVT = 2000
FILE = /castor/cern.ch/delphi/MCprod/ral/bdk01/v97g/182.7/bdk01_eeee_182.7_51162.xsdst ! RUN = 51162 ! NEVT = 2000
FILE = /castor/cern.ch/delphi/MCprod/ral/bdk01/v97g/182.7/bdk01_eeee_182.7_51163.xsdst ! RUN = 51163 ! NEVT = 1999
FILE = /castor/cern.ch/delphi/MCprod/ral/bdk01/v97g/182.7/bdk01_eeee_182.7_51164.xsdst ! RUN = 51164 ! NEVT = 2000
FILE = /castor/cern.ch/delphi/MCprod/ral/bdk01/v97g/182.7/bdk01_eeee_182.7_51165.xsdst ! RUN = 51165 ! NEVT = 2000
FILE = /castor/cern.ch/delphi/MCprod/ral/bdk01/v97g/182.7/bdk01_eeee_182.7_51166.xsdst ! RUN = 51166 ! NEVT = 2000
FILE = /castor/cern.ch/delphi/MCprod/ral/bdk01/v97g/182.7/bdk01_eeee_182.7_51167.xsdst ! RUN = 51167 ! NEVT = 2000
FILE = /castor/cern.ch/delphi/MCprod/ral/bdk01/v97g/182.7/bdk01_eeee_182.7_51168.xsdst ! RUN = 51168 ! NEVT = 2000
FILE = /castor/cern.ch/delphi/MCprod/ral/bdk01/v97g/182.7/bdk01_eeee_182.7_51169.xsdst ! RUN = 51169 ! NEVT = 2000
FILE = /castor/cern.ch/delphi/MCprod/ral/bdk01/v97g/182.7/bdk01_eeee_182.7_51170.xsdst ! RUN = 51170 ! NEVT = 2000
FILE = /castor/cern.ch/delphi/MCprod/ral/bdk01/v97g/182.7/bdk01_eeee_182.7_51171.xsdst ! RUN = 51171 ! NEVT = 2000
FILE = /castor/cern.ch/delphi/MCprod/ral/bdk01/v97g/182.7/bdk01_eeee_182.7_51172.xsdst ! RUN = 51172 ! NEVT = 2000
FILE = /castor/cern.ch/delphi/MCprod/ral/bdk01/v97g/182.7/bdk01_eeee_182.7_51173.xsdst ! RUN = 51173 ! NEVT = 2000
FILE = /castor/cern.ch/delphi/MCprod/ral/bdk01/v97g/182.7/bdk01_eeee_182.7_51174.xsdst ! RUN = 51174 ! NEVT = 2000
FILE = /castor/cern.ch/delphi/MCprod/ral/bdk01/v97g/182.7/bdk01_eeee_182.7_51175.xsdst ! RUN = 51175 ! NEVT = 2000
FILE = /castor/cern.ch/delphi/MCprod/ral/bdk01/v97g/182.7/bdk01_eeee_182.7_51176.xsdst ! RUN = 51176 ! NEVT = 2000
FILE = /castor/cern.ch/delphi/MCprod/ral/bdk01/v97g/182.7/bdk01_eeee_182.7_51177.xsdst ! RUN = 51177 ! NEVT = 2000
FILE = /castor/cern.ch/delphi/MCprod/ral/bdk01/v97g/182.7/bdk01_eeee_182.7_51178.xsdst ! RUN = 51178 ! NEVT = 2000
FILE = /castor/cern.ch/delphi/MCprod/ral/bdk01/v97g/182.7/bdk01_eeee_182.7_51179.xsdst ! RUN = 51179 ! NEVT = 2000
FILE = /castor/cern.ch/delphi/MCprod/ral/bdk01/v97g/182.7/bdk01_eeee_182.7_51180.xsdst ! RUN = 51180 ! NEVT = 2000
FILE = /castor/cern.ch/delphi/MCprod/ral/bdk01/v97g/182.7/bdk01_eeee_182.7_51181.xsdst ! RUN = 51181 ! NEVT = 2000
FILE = /castor/cern.ch/delphi/MCprod/ral/bdk01/v97g/182.7/bdk01_eeee_182.7_51182.xsdst ! RUN = 51182 ! NEVT = 2000
FILE = /castor/cern.ch/delphi/MCprod/ral/bdk01/v97g/182.7/bdk01_eeee_182.7_51183.xsdst ! RUN = 51183 ! NEVT = 2000
FILE = /castor/cern.ch/delphi/MCprod/ral/bdk01/v97g/182.7/bdk01_eeee_182.7_51184.xsdst ! RUN = 51184 ! NEVT = 2000
FILE = /castor/cern.ch/delphi/MCprod/ral/bdk01/v97g/182.7/bdk01_eeee_182.7_51185.xsdst ! RUN = 51185 ! NEVT = 2000
FILE = /castor/cern.ch/delphi/MCprod/ral/bdk01/v97g/182.7/bdk01_eeee_182.7_51186.xsdst ! RUN = 51186 ! NEVT = 2000
FILE = /castor/cern.ch/delphi/MCprod/ral/bdk01/v97g/182.7/bdk01_eeee_182.7_51187.xsdst ! RUN = 51187 ! NEVT = 2000
FILE = /castor/cern.ch/delphi/MCprod/ral/bdk01/v97g/182.7/bdk01_eeee_182.7_51188.xsdst ! RUN = 51188 ! NEVT = 2000
FILE = /castor/cern.ch/delphi/MCprod/ral/bdk01/v97g/182.7/bdk01_eeee_182.7_51189.xsdst ! RUN = 51189 ! NEVT = 2000
FILE = /castor/cern.ch/delphi/MCprod/ral/bdk01/v97g/182.7/bdk01_eeee_182.7_51190.xsdst ! RUN = 51190 ! NEVT = 2000
FILE = /castor/cern.ch/delphi/MCprod/ral/bdk01/v97g/182.7/bdk01_eeee_182.7_51191.xsdst ! RUN = 51191 ! NEVT = 2000
FILE = /castor/cern.ch/delphi/MCprod/ral/bdk01/v97g/182.7/bdk01_eeee_182.7_51192.xsdst ! RUN = 51192 ! NEVT = 2000
FILE = /castor/cern.ch/delphi/MCprod/ral/bdk01/v97g/182.7/bdk01_eeee_182.7_51193.xsdst ! RUN = 51193 ! NEVT = 2000
FILE = /castor/cern.ch/delphi/MCprod/ral/bdk01/v97g/182.7/bdk01_eeee_182.7_51194.xsdst ! RUN = 51194 ! NEVT = 2000
FILE = /castor/cern.ch/delphi/MCprod/ral/bdk01/v97g/182.7/bdk01_eeee_182.7_51195.xsdst ! RUN = 51195 ! NEVT = 2000
FILE = /castor/cern.ch/delphi/MCprod/ral/bdk01/v97g/182.7/bdk01_eeee_182.7_51196.xsdst ! RUN = 51196 ! NEVT = 2000
FILE = /castor/cern.ch/delphi/MCprod/ral/bdk01/v97g/182.7/bdk01_eeee_182.7_51197.xsdst ! RUN = 51197 ! NEVT = 2000
FILE = /castor/cern.ch/delphi/MCprod/ral/bdk01/v97g/182.7/bdk01_eeee_182.7_51198.xsdst ! RUN = 51198 ! NEVT = 2000
FILE = /castor/cern.ch/delphi/MCprod/ral/bdk01/v97g/182.7/bdk01_eeee_182.7_51199.xsdst ! RUN = 51199 ! NEVT = 2000
FILE = /castor/cern.ch/delphi/MCprod/ral/bdk01/v97g/182.7/bdk01_eeee_182.7_51200.xsdst ! RUN = 51200 ! NEVT = 2000
FILE = /castor/cern.ch/delphi/MCprod/ral/bdk01/v97g/182.7/bdk01_eeee_182.7_51201.xsdst ! RUN = 51201 ! NEVT = 2000
FILE = /castor/cern.ch/delphi/MCprod/ral/bdk01/v97g/182.7/bdk01_eeee_182.7_51202.xsdst ! RUN = 51202 ! NEVT = 2000
FILE = /castor/cern.ch/delphi/MCprod/ral/bdk01/v97g/182.7/bdk01_eeee_182.7_51203.xsdst ! RUN = 51203 ! NEVT = 2000
FILE = /castor/cern.ch/delphi/MCprod/ral/bdk01/v97g/182.7/bdk01_eeee_182.7_51204.xsdst ! RUN = 51204 ! NEVT = 2000
FILE = /castor/cern.ch/delphi/MCprod/ral/bdk01/v97g/182.7/bdk01_eeee_182.7_51205.xsdst ! RUN = 51205 ! NEVT = 2000
FILE = /castor/cern.ch/delphi/MCprod/ral/bdk01/v97g/182.7/bdk01_eeee_182.7_51206.xsdst ! RUN = 51206 ! NEVT = 2000
FILE = /castor/cern.ch/delphi/MCprod/ral/bdk01/v97g/182.7/bdk01_eeee_182.7_51207.xsdst ! RUN = 51207 ! NEVT = 2000
FILE = /castor/cern.ch/delphi/MCprod/ral/bdk01/v97g/182.7/bdk01_eeee_182.7_51208.xsdst ! RUN = 51208 ! NEVT = 2000
FILE = /castor/cern.ch/delphi/MCprod/ral/bdk01/v97g/182.7/bdk01_eeee_182.7_51209.xsdst ! RUN = 51209 ! NEVT = 2000
FILE = /castor/cern.ch/delphi/MCprod/ral/bdk01/v97g/182.7/bdk01_eeee_182.7_51210.xsdst ! RUN = 51210 ! NEVT = 2000
FILE = /castor/cern.ch/delphi/MCprod/ral/bdk01/v97g/182.7/bdk01_eeee_182.7_51211.xsdst ! RUN = 51211 ! NEVT = 2000
FILE = /castor/cern.ch/delphi/MCprod/ral/bdk01/v97g/182.7/bdk01_eeee_182.7_51212.xsdst ! RUN = 51212 ! NEVT = 2000
FILE = /castor/cern.ch/delphi/MCprod/ral/bdk01/v97g/182.7/bdk01_eeee_182.7_51213.xsdst ! RUN = 51213 ! NEVT = 2000
FILE = /castor/cern.ch/delphi/MCprod/ral/bdk01/v97g/182.7/bdk01_eeee_182.7_51214.xsdst ! RUN = 51214 ! NEVT = 2000
FILE = /castor/cern.ch/delphi/MCprod/ral/bdk01/v97g/182.7/bdk01_eeee_182.7_51215.xsdst ! RUN = 51215 ! NEVT = 2000
FILE = /castor/cern.ch/delphi/MCprod/ral/bdk01/v97g/182.7/bdk01_eeee_182.7_51216.xsdst ! RUN = 51216 ! NEVT = 2000
FILE = /castor/cern.ch/delphi/MCprod/ral/bdk01/v97g/182.7/bdk01_eeee_182.7_51217.xsdst ! RUN = 51217 ! NEVT = 2000
FILE = /castor/cern.ch/delphi/MCprod/ral/bdk01/v97g/182.7/bdk01_eeee_182.7_51218.xsdst ! RUN = 51218 ! NEVT = 2000
FILE = /castor/cern.ch/delphi/MCprod/ral/bdk01/v97g/182.7/bdk01_eeee_182.7_51219.xsdst ! RUN = 51219 ! NEVT = 2000
FILE = /castor/cern.ch/delphi/MCprod/ral/bdk01/v97g/182.7/bdk01_eeee_182.7_51220.xsdst ! RUN = 51220 ! NEVT = 2000
FILE = /castor/cern.ch/delphi/MCprod/ral/bdk01/v97g/182.7/bdk01_eeee_182.7_51221.xsdst ! RUN = 51221 ! NEVT = 2000
FILE = /castor/cern.ch/delphi/MCprod/ral/bdk01/v97g/182.7/bdk01_eeee_182.7_51222.xsdst ! RUN = 51222 ! NEVT = 2000
FILE = /castor/cern.ch/delphi/MCprod/ral/bdk01/v97g/182.7/bdk01_eeee_182.7_51223.xsdst ! RUN = 51223 ! NEVT = 2000
FILE = /castor/cern.ch/delphi/MCprod/ral/bdk01/v97g/182.7/bdk01_eeee_182.7_51224.xsdst ! RUN = 51224 ! NEVT = 2000
FILE = /castor/cern.ch/delphi/MCprod/ral/bdk01/v97g/182.7/bdk01_eeee_182.7_51225.xsdst ! RUN = 51225 ! NEVT = 2000
FILE = /castor/cern.ch/delphi/MCprod/ral/bdk01/v97g/182.7/bdk01_eeee_182.7_51226.xsdst ! RUN = 51226 ! NEVT = 2000
FILE = /castor/cern.ch/delphi/MCprod/ral/bdk01/v97g/182.7/bdk01_eeee_182.7_51227.xsdst ! RUN = 51227 ! NEVT = 2000
FILE = /castor/cern.ch/delphi/MCprod/ral/bdk01/v97g/182.7/bdk01_eeee_182.7_51228.xsdst ! RUN = 51228 ! NEVT = 2000
FILE = /castor/cern.ch/delphi/MCprod/ral/bdk01/v97g/182.7/bdk01_eeee_182.7_51229.xsdst ! RUN = 51229 ! NEVT = 2000
FILE = /castor/cern.ch/delphi/MCprod/ral/bdk01/v97g/182.7/bdk01_eeee_182.7_51230.xsdst ! RUN = 51230 ! NEVT = 2000
FILE = /castor/cern.ch/delphi/MCprod/ral/bdk01/v97g/182.7/bdk01_eeee_182.7_51231.xsdst ! RUN = 51231 ! NEVT = 2000
FILE = /castor/cern.ch/delphi/MCprod/ral/bdk01/v97g/182.7/bdk01_eeee_182.7_51232.xsdst ! RUN = 51232 ! NEVT = 2000
FILE = /castor/cern.ch/delphi/MCprod/ral/bdk01/v97g/182.7/bdk01_eeee_182.7_51233.xsdst ! RUN = 51233 ! NEVT = 2000
FILE = /castor/cern.ch/delphi/MCprod/ral/bdk01/v97g/182.7/bdk01_eeee_182.7_51234.xsdst ! RUN = 51234 ! NEVT = 2000
FILE = /castor/cern.ch/delphi/MCprod/ral/bdk01/v97g/182.7/bdk01_eeee_182.7_51235.xsdst ! RUN = 51235 ! NEVT = 2000
FILE = /castor/cern.ch/delphi/MCprod/ral/bdk01/v97g/182.7/bdk01_eeee_182.7_51236.xsdst ! RUN = 51236 ! NEVT = 2000
FILE = /castor/cern.ch/delphi/MCprod/ral/bdk01/v97g/182.7/bdk01_eeee_182.7_51237.xsdst ! RUN = 51237 ! NEVT = 2000
FILE = /castor/cern.ch/delphi/MCprod/ral/bdk01/v97g/182.7/bdk01_eeee_182.7_51238.xsdst ! RUN = 51238 ! NEVT = 2000
FILE = /castor/cern.ch/delphi/MCprod/ral/bdk01/v97g/182.7/bdk01_eeee_182.7_51239.xsdst ! RUN = 51239 ! NEVT = 2000
FILE = /castor/cern.ch/delphi/MCprod/ral/bdk01/v97g/182.7/bdk01_eeee_182.7_51240.xsdst ! RUN = 51240 ! NEVT = 2000
FILE = /castor/cern.ch/delphi/MCprod/ral/bdk01/v97g/182.7/bdk01_eeee_182.7_51241.xsdst ! RUN = 51241 ! NEVT = 2000
FILE = /castor/cern.ch/delphi/MCprod/ral/bdk01/v97g/182.7/bdk01_eeee_182.7_51242.xsdst ! RUN = 51242 ! NEVT = 2000
FILE = /castor/cern.ch/delphi/MCprod/ral/bdk01/v97g/182.7/bdk01_eeee_182.7_51243.xsdst ! RUN = 51243 ! NEVT = 2000
FILE = /castor/cern.ch/delphi/MCprod/ral/bdk01/v97g/182.7/bdk01_eeee_182.7_51244.xsdst ! RUN = 51244 ! NEVT = 2000
FILE = /castor/cern.ch/delphi/MCprod/ral/bdk01/v97g/182.7/bdk01_eeee_182.7_51245.xsdst ! RUN = 51245 ! NEVT = 2000
FILE = /castor/cern.ch/delphi/MCprod/ral/bdk01/v97g/182.7/bdk01_eeee_182.7_51246.xsdst ! RUN = 51246 ! NEVT = 2000
FILE = /castor/cern.ch/delphi/MCprod/ral/bdk01/v97g/182.7/bdk01_eeee_182.7_51247.xsdst ! RUN = 51247 ! NEVT = 2000
FILE = /castor/cern.ch/delphi/MCprod/ral/bdk01/v97g/182.7/bdk01_eeee_182.7_51248.xsdst ! RUN = 51248 ! NEVT = 2000
FILE = /castor/cern.ch/delphi/MCprod/ral/bdk01/v97g/182.7/bdk01_eeee_182.7_51249.xsdst ! RUN = 51249 ! NEVT = 2000
FILE = /castor/cern.ch/delphi/MCprod/ral/bdk01/v97g/182.7/bdk01_eeee_182.7_51250.xsdst ! RUN = 51250 ! NEVT = 2000
