*
*   Nickname     : xs_bdkrc02eemm_e182.7_r97_1l_g1
*   Generic Name : //CERN/DELPHI/P02_SIMD/XSDST/BDKRC02EEMM/E182.7/RAL/SUMT/C001-250
*   Description  :  Extended Short DST simulation 97_g1 done at ecms=182.7 , RAL
*---
*   Comments     : in total 1796877 events in 250 files time stamp: Thu Dec 20 06:46:39 2001
*---
*
*
*
*
*
FILE = /castor/cern.ch/delphi/MCprod/ral/bdkrc02/v97g/182.7/bdkrc02_eemm_182.7_52001.xsdst ! RUN = 52001 ! NEVT = 10000
FILE = /castor/cern.ch/delphi/MCprod/ral/bdkrc02/v97g/182.7/bdkrc02_eemm_182.7_52002.xsdst ! RUN = 52002 ! NEVT = 10000
FILE = /castor/cern.ch/delphi/MCprod/ral/bdkrc02/v97g/182.7/bdkrc02_eemm_182.7_52003.xsdst ! RUN = 52003 ! NEVT = 10000
FILE = /castor/cern.ch/delphi/MCprod/ral/bdkrc02/v97g/182.7/bdkrc02_eemm_182.7_52004.xsdst ! RUN = 52004 ! NEVT = 10000
FILE = /castor/cern.ch/delphi/MCprod/ral/bdkrc02/v97g/182.7/bdkrc02_eemm_182.7_52005.xsdst ! RUN = 52005 ! NEVT = 10000
FILE = /castor/cern.ch/delphi/MCprod/ral/bdkrc02/v97g/182.7/bdkrc02_eemm_182.7_52006.xsdst ! RUN = 52006 ! NEVT = 10000
FILE = /castor/cern.ch/delphi/MCprod/ral/bdkrc02/v97g/182.7/bdkrc02_eemm_182.7_52007.xsdst ! RUN = 52007 ! NEVT = 10000
FILE = /castor/cern.ch/delphi/MCprod/ral/bdkrc02/v97g/182.7/bdkrc02_eemm_182.7_52008.xsdst ! RUN = 52008 ! NEVT = 10000
FILE = /castor/cern.ch/delphi/MCprod/ral/bdkrc02/v97g/182.7/bdkrc02_eemm_182.7_52009.xsdst ! RUN = 52009 ! NEVT = 10000
FILE = /castor/cern.ch/delphi/MCprod/ral/bdkrc02/v97g/182.7/bdkrc02_eemm_182.7_52010.xsdst ! RUN = 52010 ! NEVT = 10000
FILE = /castor/cern.ch/delphi/MCprod/ral/bdkrc02/v97g/182.7/bdkrc02_eemm_182.7_52011.xsdst ! RUN = 52011 ! NEVT = 10000
FILE = /castor/cern.ch/delphi/MCprod/ral/bdkrc02/v97g/182.7/bdkrc02_eemm_182.7_52012.xsdst ! RUN = 52012 ! NEVT = 10000
FILE = /castor/cern.ch/delphi/MCprod/ral/bdkrc02/v97g/182.7/bdkrc02_eemm_182.7_52013.xsdst ! RUN = 52013 ! NEVT = 10000
FILE = /castor/cern.ch/delphi/MCprod/ral/bdkrc02/v97g/182.7/bdkrc02_eemm_182.7_52014.xsdst ! RUN = 52014 ! NEVT = 10000
FILE = /castor/cern.ch/delphi/MCprod/ral/bdkrc02/v97g/182.7/bdkrc02_eemm_182.7_52015.xsdst ! RUN = 52015 ! NEVT = 10000
FILE = /castor/cern.ch/delphi/MCprod/ral/bdkrc02/v97g/182.7/bdkrc02_eemm_182.7_52016.xsdst ! RUN = 52016 ! NEVT = 10000
FILE = /castor/cern.ch/delphi/MCprod/ral/bdkrc02/v97g/182.7/bdkrc02_eemm_182.7_52017.xsdst ! RUN = 52017 ! NEVT = 10000
FILE = /castor/cern.ch/delphi/MCprod/ral/bdkrc02/v97g/182.7/bdkrc02_eemm_182.7_52018.xsdst ! RUN = 52018 ! NEVT = 10000
FILE = /castor/cern.ch/delphi/MCprod/ral/bdkrc02/v97g/182.7/bdkrc02_eemm_182.7_52019.xsdst ! RUN = 52019 ! NEVT = 7000
FILE = /castor/cern.ch/delphi/MCprod/ral/bdkrc02/v97g/182.7/bdkrc02_eemm_182.7_52020.xsdst ! RUN = 52020 ! NEVT = 7000
FILE = /castor/cern.ch/delphi/MCprod/ral/bdkrc02/v97g/182.7/bdkrc02_eemm_182.7_52021.xsdst ! RUN = 52021 ! NEVT = 7000
FILE = /castor/cern.ch/delphi/MCprod/ral/bdkrc02/v97g/182.7/bdkrc02_eemm_182.7_52022.xsdst ! RUN = 52022 ! NEVT = 7000
FILE = /castor/cern.ch/delphi/MCprod/ral/bdkrc02/v97g/182.7/bdkrc02_eemm_182.7_52023.xsdst ! RUN = 52023 ! NEVT = 7000
FILE = /castor/cern.ch/delphi/MCprod/ral/bdkrc02/v97g/182.7/bdkrc02_eemm_182.7_52024.xsdst ! RUN = 52024 ! NEVT = 7000
FILE = /castor/cern.ch/delphi/MCprod/ral/bdkrc02/v97g/182.7/bdkrc02_eemm_182.7_52025.xsdst ! RUN = 52025 ! NEVT = 7000
FILE = /castor/cern.ch/delphi/MCprod/ral/bdkrc02/v97g/182.7/bdkrc02_eemm_182.7_52026.xsdst ! RUN = 52026 ! NEVT = 7000
FILE = /castor/cern.ch/delphi/MCprod/ral/bdkrc02/v97g/182.7/bdkrc02_eemm_182.7_52027.xsdst ! RUN = 52027 ! NEVT = 7000
FILE = /castor/cern.ch/delphi/MCprod/ral/bdkrc02/v97g/182.7/bdkrc02_eemm_182.7_52028.xsdst ! RUN = 52028 ! NEVT = 7000
FILE = /castor/cern.ch/delphi/MCprod/ral/bdkrc02/v97g/182.7/bdkrc02_eemm_182.7_52029.xsdst ! RUN = 52029 ! NEVT = 7000
FILE = /castor/cern.ch/delphi/MCprod/ral/bdkrc02/v97g/182.7/bdkrc02_eemm_182.7_52030.xsdst ! RUN = 52030 ! NEVT = 7000
FILE = /castor/cern.ch/delphi/MCprod/ral/bdkrc02/v97g/182.7/bdkrc02_eemm_182.7_52031.xsdst ! RUN = 52031 ! NEVT = 7000
FILE = /castor/cern.ch/delphi/MCprod/ral/bdkrc02/v97g/182.7/bdkrc02_eemm_182.7_52032.xsdst ! RUN = 52032 ! NEVT = 7000
FILE = /castor/cern.ch/delphi/MCprod/ral/bdkrc02/v97g/182.7/bdkrc02_eemm_182.7_52033.xsdst ! RUN = 52033 ! NEVT = 7000
FILE = /castor/cern.ch/delphi/MCprod/ral/bdkrc02/v97g/182.7/bdkrc02_eemm_182.7_52034.xsdst ! RUN = 52034 ! NEVT = 7000
FILE = /castor/cern.ch/delphi/MCprod/ral/bdkrc02/v97g/182.7/bdkrc02_eemm_182.7_52035.xsdst ! RUN = 52035 ! NEVT = 7000
FILE = /castor/cern.ch/delphi/MCprod/ral/bdkrc02/v97g/182.7/bdkrc02_eemm_182.7_52036.xsdst ! RUN = 52036 ! NEVT = 7000
FILE = /castor/cern.ch/delphi/MCprod/ral/bdkrc02/v97g/182.7/bdkrc02_eemm_182.7_52037.xsdst ! RUN = 52037 ! NEVT = 7000
FILE = /castor/cern.ch/delphi/MCprod/ral/bdkrc02/v97g/182.7/bdkrc02_eemm_182.7_52038.xsdst ! RUN = 52038 ! NEVT = 7000
FILE = /castor/cern.ch/delphi/MCprod/ral/bdkrc02/v97g/182.7/bdkrc02_eemm_182.7_52039.xsdst ! RUN = 52039 ! NEVT = 7000
FILE = /castor/cern.ch/delphi/MCprod/ral/bdkrc02/v97g/182.7/bdkrc02_eemm_182.7_52040.xsdst ! RUN = 52040 ! NEVT = 7000
FILE = /castor/cern.ch/delphi/MCprod/ral/bdkrc02/v97g/182.7/bdkrc02_eemm_182.7_52041.xsdst ! RUN = 52041 ! NEVT = 7000
FILE = /castor/cern.ch/delphi/MCprod/ral/bdkrc02/v97g/182.7/bdkrc02_eemm_182.7_52042.xsdst ! RUN = 52042 ! NEVT = 7000
FILE = /castor/cern.ch/delphi/MCprod/ral/bdkrc02/v97g/182.7/bdkrc02_eemm_182.7_52043.xsdst ! RUN = 52043 ! NEVT = 7000
FILE = /castor/cern.ch/delphi/MCprod/ral/bdkrc02/v97g/182.7/bdkrc02_eemm_182.7_52044.xsdst ! RUN = 52044 ! NEVT = 7000
FILE = /castor/cern.ch/delphi/MCprod/ral/bdkrc02/v97g/182.7/bdkrc02_eemm_182.7_52045.xsdst ! RUN = 52045 ! NEVT = 7000
FILE = /castor/cern.ch/delphi/MCprod/ral/bdkrc02/v97g/182.7/bdkrc02_eemm_182.7_52046.xsdst ! RUN = 52046 ! NEVT = 7000
FILE = /castor/cern.ch/delphi/MCprod/ral/bdkrc02/v97g/182.7/bdkrc02_eemm_182.7_52047.xsdst ! RUN = 52047 ! NEVT = 7000
FILE = /castor/cern.ch/delphi/MCprod/ral/bdkrc02/v97g/182.7/bdkrc02_eemm_182.7_52048.xsdst ! RUN = 52048 ! NEVT = 7000
FILE = /castor/cern.ch/delphi/MCprod/ral/bdkrc02/v97g/182.7/bdkrc02_eemm_182.7_52049.xsdst ! RUN = 52049 ! NEVT = 7000
FILE = /castor/cern.ch/delphi/MCprod/ral/bdkrc02/v97g/182.7/bdkrc02_eemm_182.7_52050.xsdst ! RUN = 52050 ! NEVT = 7000
FILE = /castor/cern.ch/delphi/MCprod/ral/bdkrc02/v97g/182.7/bdkrc02_eemm_182.7_52051.xsdst ! RUN = 52051 ! NEVT = 7000
FILE = /castor/cern.ch/delphi/MCprod/ral/bdkrc02/v97g/182.7/bdkrc02_eemm_182.7_52052.xsdst ! RUN = 52052 ! NEVT = 7000
FILE = /castor/cern.ch/delphi/MCprod/ral/bdkrc02/v97g/182.7/bdkrc02_eemm_182.7_52053.xsdst ! RUN = 52053 ! NEVT = 7000
FILE = /castor/cern.ch/delphi/MCprod/ral/bdkrc02/v97g/182.7/bdkrc02_eemm_182.7_52054.xsdst ! RUN = 52054 ! NEVT = 7000
FILE = /castor/cern.ch/delphi/MCprod/ral/bdkrc02/v97g/182.7/bdkrc02_eemm_182.7_52055.xsdst ! RUN = 52055 ! NEVT = 7000
FILE = /castor/cern.ch/delphi/MCprod/ral/bdkrc02/v97g/182.7/bdkrc02_eemm_182.7_52056.xsdst ! RUN = 52056 ! NEVT = 7000
FILE = /castor/cern.ch/delphi/MCprod/ral/bdkrc02/v97g/182.7/bdkrc02_eemm_182.7_52057.xsdst ! RUN = 52057 ! NEVT = 7000
FILE = /castor/cern.ch/delphi/MCprod/ral/bdkrc02/v97g/182.7/bdkrc02_eemm_182.7_52058.xsdst ! RUN = 52058 ! NEVT = 7000
FILE = /castor/cern.ch/delphi/MCprod/ral/bdkrc02/v97g/182.7/bdkrc02_eemm_182.7_52059.xsdst ! RUN = 52059 ! NEVT = 7000
FILE = /castor/cern.ch/delphi/MCprod/ral/bdkrc02/v97g/182.7/bdkrc02_eemm_182.7_52060.xsdst ! RUN = 52060 ! NEVT = 7000
FILE = /castor/cern.ch/delphi/MCprod/ral/bdkrc02/v97g/182.7/bdkrc02_eemm_182.7_52061.xsdst ! RUN = 52061 ! NEVT = 7000
FILE = /castor/cern.ch/delphi/MCprod/ral/bdkrc02/v97g/182.7/bdkrc02_eemm_182.7_52062.xsdst ! RUN = 52062 ! NEVT = 7000
FILE = /castor/cern.ch/delphi/MCprod/ral/bdkrc02/v97g/182.7/bdkrc02_eemm_182.7_52063.xsdst ! RUN = 52063 ! NEVT = 7000
FILE = /castor/cern.ch/delphi/MCprod/ral/bdkrc02/v97g/182.7/bdkrc02_eemm_182.7_52064.xsdst ! RUN = 52064 ! NEVT = 7000
FILE = /castor/cern.ch/delphi/MCprod/ral/bdkrc02/v97g/182.7/bdkrc02_eemm_182.7_52065.xsdst ! RUN = 52065 ! NEVT = 7000
FILE = /castor/cern.ch/delphi/MCprod/ral/bdkrc02/v97g/182.7/bdkrc02_eemm_182.7_52066.xsdst ! RUN = 52066 ! NEVT = 7000
FILE = /castor/cern.ch/delphi/MCprod/ral/bdkrc02/v97g/182.7/bdkrc02_eemm_182.7_52067.xsdst ! RUN = 52067 ! NEVT = 7000
FILE = /castor/cern.ch/delphi/MCprod/ral/bdkrc02/v97g/182.7/bdkrc02_eemm_182.7_52068.xsdst ! RUN = 52068 ! NEVT = 7000
FILE = /castor/cern.ch/delphi/MCprod/ral/bdkrc02/v97g/182.7/bdkrc02_eemm_182.7_52069.xsdst ! RUN = 52069 ! NEVT = 7000
FILE = /castor/cern.ch/delphi/MCprod/ral/bdkrc02/v97g/182.7/bdkrc02_eemm_182.7_52070.xsdst ! RUN = 52070 ! NEVT = 7000
FILE = /castor/cern.ch/delphi/MCprod/ral/bdkrc02/v97g/182.7/bdkrc02_eemm_182.7_52071.xsdst ! RUN = 52071 ! NEVT = 7000
FILE = /castor/cern.ch/delphi/MCprod/ral/bdkrc02/v97g/182.7/bdkrc02_eemm_182.7_52072.xsdst ! RUN = 52072 ! NEVT = 7000
FILE = /castor/cern.ch/delphi/MCprod/ral/bdkrc02/v97g/182.7/bdkrc02_eemm_182.7_52073.xsdst ! RUN = 52073 ! NEVT = 7000
FILE = /castor/cern.ch/delphi/MCprod/ral/bdkrc02/v97g/182.7/bdkrc02_eemm_182.7_52074.xsdst ! RUN = 52074 ! NEVT = 7000
FILE = /castor/cern.ch/delphi/MCprod/ral/bdkrc02/v97g/182.7/bdkrc02_eemm_182.7_52075.xsdst ! RUN = 52075 ! NEVT = 7000
FILE = /castor/cern.ch/delphi/MCprod/ral/bdkrc02/v97g/182.7/bdkrc02_eemm_182.7_52076.xsdst ! RUN = 52076 ! NEVT = 7000
FILE = /castor/cern.ch/delphi/MCprod/ral/bdkrc02/v97g/182.7/bdkrc02_eemm_182.7_52077.xsdst ! RUN = 52077 ! NEVT = 7000
FILE = /castor/cern.ch/delphi/MCprod/ral/bdkrc02/v97g/182.7/bdkrc02_eemm_182.7_52078.xsdst ! RUN = 52078 ! NEVT = 7000
FILE = /castor/cern.ch/delphi/MCprod/ral/bdkrc02/v97g/182.7/bdkrc02_eemm_182.7_52079.xsdst ! RUN = 52079 ! NEVT = 7000
FILE = /castor/cern.ch/delphi/MCprod/ral/bdkrc02/v97g/182.7/bdkrc02_eemm_182.7_52080.xsdst ! RUN = 52080 ! NEVT = 7000
FILE = /castor/cern.ch/delphi/MCprod/ral/bdkrc02/v97g/182.7/bdkrc02_eemm_182.7_52081.xsdst ! RUN = 52081 ! NEVT = 7000
FILE = /castor/cern.ch/delphi/MCprod/ral/bdkrc02/v97g/182.7/bdkrc02_eemm_182.7_52082.xsdst ! RUN = 52082 ! NEVT = 7000
FILE = /castor/cern.ch/delphi/MCprod/ral/bdkrc02/v97g/182.7/bdkrc02_eemm_182.7_52083.xsdst ! RUN = 52083 ! NEVT = 7000
FILE = /castor/cern.ch/delphi/MCprod/ral/bdkrc02/v97g/182.7/bdkrc02_eemm_182.7_52084.xsdst ! RUN = 52084 ! NEVT = 7000
FILE = /castor/cern.ch/delphi/MCprod/ral/bdkrc02/v97g/182.7/bdkrc02_eemm_182.7_52085.xsdst ! RUN = 52085 ! NEVT = 7000
FILE = /castor/cern.ch/delphi/MCprod/ral/bdkrc02/v97g/182.7/bdkrc02_eemm_182.7_52086.xsdst ! RUN = 52086 ! NEVT = 7000
FILE = /castor/cern.ch/delphi/MCprod/ral/bdkrc02/v97g/182.7/bdkrc02_eemm_182.7_52087.xsdst ! RUN = 52087 ! NEVT = 7000
FILE = /castor/cern.ch/delphi/MCprod/ral/bdkrc02/v97g/182.7/bdkrc02_eemm_182.7_52088.xsdst ! RUN = 52088 ! NEVT = 7000
FILE = /castor/cern.ch/delphi/MCprod/ral/bdkrc02/v97g/182.7/bdkrc02_eemm_182.7_52089.xsdst ! RUN = 52089 ! NEVT = 7000
FILE = /castor/cern.ch/delphi/MCprod/ral/bdkrc02/v97g/182.7/bdkrc02_eemm_182.7_52090.xsdst ! RUN = 52090 ! NEVT = 7000
FILE = /castor/cern.ch/delphi/MCprod/ral/bdkrc02/v97g/182.7/bdkrc02_eemm_182.7_52091.xsdst ! RUN = 52091 ! NEVT = 7000
FILE = /castor/cern.ch/delphi/MCprod/ral/bdkrc02/v97g/182.7/bdkrc02_eemm_182.7_52092.xsdst ! RUN = 52092 ! NEVT = 7000
FILE = /castor/cern.ch/delphi/MCprod/ral/bdkrc02/v97g/182.7/bdkrc02_eemm_182.7_52093.xsdst ! RUN = 52093 ! NEVT = 7000
FILE = /castor/cern.ch/delphi/MCprod/ral/bdkrc02/v97g/182.7/bdkrc02_eemm_182.7_52094.xsdst ! RUN = 52094 ! NEVT = 7000
FILE = /castor/cern.ch/delphi/MCprod/ral/bdkrc02/v97g/182.7/bdkrc02_eemm_182.7_52095.xsdst ! RUN = 52095 ! NEVT = 7000
FILE = /castor/cern.ch/delphi/MCprod/ral/bdkrc02/v97g/182.7/bdkrc02_eemm_182.7_52096.xsdst ! RUN = 52096 ! NEVT = 7000
FILE = /castor/cern.ch/delphi/MCprod/ral/bdkrc02/v97g/182.7/bdkrc02_eemm_182.7_52097.xsdst ! RUN = 52097 ! NEVT = 7000
FILE = /castor/cern.ch/delphi/MCprod/ral/bdkrc02/v97g/182.7/bdkrc02_eemm_182.7_52098.xsdst ! RUN = 52098 ! NEVT = 7000
FILE = /castor/cern.ch/delphi/MCprod/ral/bdkrc02/v97g/182.7/bdkrc02_eemm_182.7_52099.xsdst ! RUN = 52099 ! NEVT = 7000
FILE = /castor/cern.ch/delphi/MCprod/ral/bdkrc02/v97g/182.7/bdkrc02_eemm_182.7_52100.xsdst ! RUN = 52100 ! NEVT = 7000
FILE = /castor/cern.ch/delphi/MCprod/ral/bdkrc02/v97g/182.7/bdkrc02_eemm_182.7_52101.xsdst ! RUN = 52101 ! NEVT = 7000
FILE = /castor/cern.ch/delphi/MCprod/ral/bdkrc02/v97g/182.7/bdkrc02_eemm_182.7_52102.xsdst ! RUN = 52102 ! NEVT = 7000
FILE = /castor/cern.ch/delphi/MCprod/ral/bdkrc02/v97g/182.7/bdkrc02_eemm_182.7_52103.xsdst ! RUN = 52103 ! NEVT = 7000
FILE = /castor/cern.ch/delphi/MCprod/ral/bdkrc02/v97g/182.7/bdkrc02_eemm_182.7_52104.xsdst ! RUN = 52104 ! NEVT = 7000
FILE = /castor/cern.ch/delphi/MCprod/ral/bdkrc02/v97g/182.7/bdkrc02_eemm_182.7_52105.xsdst ! RUN = 52105 ! NEVT = 7000
FILE = /castor/cern.ch/delphi/MCprod/ral/bdkrc02/v97g/182.7/bdkrc02_eemm_182.7_52106.xsdst ! RUN = 52106 ! NEVT = 7000
FILE = /castor/cern.ch/delphi/MCprod/ral/bdkrc02/v97g/182.7/bdkrc02_eemm_182.7_52107.xsdst ! RUN = 52107 ! NEVT = 7000
FILE = /castor/cern.ch/delphi/MCprod/ral/bdkrc02/v97g/182.7/bdkrc02_eemm_182.7_52108.xsdst ! RUN = 52108 ! NEVT = 7000
FILE = /castor/cern.ch/delphi/MCprod/ral/bdkrc02/v97g/182.7/bdkrc02_eemm_182.7_52109.xsdst ! RUN = 52109 ! NEVT = 7000
FILE = /castor/cern.ch/delphi/MCprod/ral/bdkrc02/v97g/182.7/bdkrc02_eemm_182.7_52110.xsdst ! RUN = 52110 ! NEVT = 7000
FILE = /castor/cern.ch/delphi/MCprod/ral/bdkrc02/v97g/182.7/bdkrc02_eemm_182.7_52111.xsdst ! RUN = 52111 ! NEVT = 7000
FILE = /castor/cern.ch/delphi/MCprod/ral/bdkrc02/v97g/182.7/bdkrc02_eemm_182.7_52112.xsdst ! RUN = 52112 ! NEVT = 7000
FILE = /castor/cern.ch/delphi/MCprod/ral/bdkrc02/v97g/182.7/bdkrc02_eemm_182.7_52113.xsdst ! RUN = 52113 ! NEVT = 7000
FILE = /castor/cern.ch/delphi/MCprod/ral/bdkrc02/v97g/182.7/bdkrc02_eemm_182.7_52114.xsdst ! RUN = 52114 ! NEVT = 7000
FILE = /castor/cern.ch/delphi/MCprod/ral/bdkrc02/v97g/182.7/bdkrc02_eemm_182.7_52115.xsdst ! RUN = 52115 ! NEVT = 7000
FILE = /castor/cern.ch/delphi/MCprod/ral/bdkrc02/v97g/182.7/bdkrc02_eemm_182.7_52116.xsdst ! RUN = 52116 ! NEVT = 7000
FILE = /castor/cern.ch/delphi/MCprod/ral/bdkrc02/v97g/182.7/bdkrc02_eemm_182.7_52117.xsdst ! RUN = 52117 ! NEVT = 7000
FILE = /castor/cern.ch/delphi/MCprod/ral/bdkrc02/v97g/182.7/bdkrc02_eemm_182.7_52118.xsdst ! RUN = 52118 ! NEVT = 7000
FILE = /castor/cern.ch/delphi/MCprod/ral/bdkrc02/v97g/182.7/bdkrc02_eemm_182.7_52119.xsdst ! RUN = 52119 ! NEVT = 7000
FILE = /castor/cern.ch/delphi/MCprod/ral/bdkrc02/v97g/182.7/bdkrc02_eemm_182.7_52120.xsdst ! RUN = 52120 ! NEVT = 7000
FILE = /castor/cern.ch/delphi/MCprod/ral/bdkrc02/v97g/182.7/bdkrc02_eemm_182.7_52121.xsdst ! RUN = 52121 ! NEVT = 7000
FILE = /castor/cern.ch/delphi/MCprod/ral/bdkrc02/v97g/182.7/bdkrc02_eemm_182.7_52122.xsdst ! RUN = 52122 ! NEVT = 7000
FILE = /castor/cern.ch/delphi/MCprod/ral/bdkrc02/v97g/182.7/bdkrc02_eemm_182.7_52123.xsdst ! RUN = 52123 ! NEVT = 7000
FILE = /castor/cern.ch/delphi/MCprod/ral/bdkrc02/v97g/182.7/bdkrc02_eemm_182.7_52124.xsdst ! RUN = 52124 ! NEVT = 7000
FILE = /castor/cern.ch/delphi/MCprod/ral/bdkrc02/v97g/182.7/bdkrc02_eemm_182.7_52125.xsdst ! RUN = 52125 ! NEVT = 7000
FILE = /castor/cern.ch/delphi/MCprod/ral/bdkrc02/v97g/182.7/bdkrc02_eemm_182.7_52126.xsdst ! RUN = 52126 ! NEVT = 7000
FILE = /castor/cern.ch/delphi/MCprod/ral/bdkrc02/v97g/182.7/bdkrc02_eemm_182.7_52127.xsdst ! RUN = 52127 ! NEVT = 7000
FILE = /castor/cern.ch/delphi/MCprod/ral/bdkrc02/v97g/182.7/bdkrc02_eemm_182.7_52128.xsdst ! RUN = 52128 ! NEVT = 7000
FILE = /castor/cern.ch/delphi/MCprod/ral/bdkrc02/v97g/182.7/bdkrc02_eemm_182.7_52129.xsdst ! RUN = 52129 ! NEVT = 7000
FILE = /castor/cern.ch/delphi/MCprod/ral/bdkrc02/v97g/182.7/bdkrc02_eemm_182.7_52130.xsdst ! RUN = 52130 ! NEVT = 7000
FILE = /castor/cern.ch/delphi/MCprod/ral/bdkrc02/v97g/182.7/bdkrc02_eemm_182.7_52131.xsdst ! RUN = 52131 ! NEVT = 7000
FILE = /castor/cern.ch/delphi/MCprod/ral/bdkrc02/v97g/182.7/bdkrc02_eemm_182.7_52132.xsdst ! RUN = 52132 ! NEVT = 7000
FILE = /castor/cern.ch/delphi/MCprod/ral/bdkrc02/v97g/182.7/bdkrc02_eemm_182.7_52133.xsdst ! RUN = 52133 ! NEVT = 7000
FILE = /castor/cern.ch/delphi/MCprod/ral/bdkrc02/v97g/182.7/bdkrc02_eemm_182.7_52134.xsdst ! RUN = 52134 ! NEVT = 7000
FILE = /castor/cern.ch/delphi/MCprod/ral/bdkrc02/v97g/182.7/bdkrc02_eemm_182.7_52135.xsdst ! RUN = 52135 ! NEVT = 7000
FILE = /castor/cern.ch/delphi/MCprod/ral/bdkrc02/v97g/182.7/bdkrc02_eemm_182.7_52136.xsdst ! RUN = 52136 ! NEVT = 7000
FILE = /castor/cern.ch/delphi/MCprod/ral/bdkrc02/v97g/182.7/bdkrc02_eemm_182.7_52137.xsdst ! RUN = 52137 ! NEVT = 7000
FILE = /castor/cern.ch/delphi/MCprod/ral/bdkrc02/v97g/182.7/bdkrc02_eemm_182.7_52138.xsdst ! RUN = 52138 ! NEVT = 6999
FILE = /castor/cern.ch/delphi/MCprod/ral/bdkrc02/v97g/182.7/bdkrc02_eemm_182.7_52139.xsdst ! RUN = 52139 ! NEVT = 7000
FILE = /castor/cern.ch/delphi/MCprod/ral/bdkrc02/v97g/182.7/bdkrc02_eemm_182.7_52140.xsdst ! RUN = 52140 ! NEVT = 7000
FILE = /castor/cern.ch/delphi/MCprod/ral/bdkrc02/v97g/182.7/bdkrc02_eemm_182.7_52141.xsdst ! RUN = 52141 ! NEVT = 7000
FILE = /castor/cern.ch/delphi/MCprod/ral/bdkrc02/v97g/182.7/bdkrc02_eemm_182.7_52142.xsdst ! RUN = 52142 ! NEVT = 7000
FILE = /castor/cern.ch/delphi/MCprod/ral/bdkrc02/v97g/182.7/bdkrc02_eemm_182.7_52143.xsdst ! RUN = 52143 ! NEVT = 7000
FILE = /castor/cern.ch/delphi/MCprod/ral/bdkrc02/v97g/182.7/bdkrc02_eemm_182.7_52144.xsdst ! RUN = 52144 ! NEVT = 7000
FILE = /castor/cern.ch/delphi/MCprod/ral/bdkrc02/v97g/182.7/bdkrc02_eemm_182.7_52145.xsdst ! RUN = 52145 ! NEVT = 7000
FILE = /castor/cern.ch/delphi/MCprod/ral/bdkrc02/v97g/182.7/bdkrc02_eemm_182.7_52146.xsdst ! RUN = 52146 ! NEVT = 7000
FILE = /castor/cern.ch/delphi/MCprod/ral/bdkrc02/v97g/182.7/bdkrc02_eemm_182.7_52147.xsdst ! RUN = 52147 ! NEVT = 7000
FILE = /castor/cern.ch/delphi/MCprod/ral/bdkrc02/v97g/182.7/bdkrc02_eemm_182.7_52148.xsdst ! RUN = 52148 ! NEVT = 7000
FILE = /castor/cern.ch/delphi/MCprod/ral/bdkrc02/v97g/182.7/bdkrc02_eemm_182.7_52149.xsdst ! RUN = 52149 ! NEVT = 7000
FILE = /castor/cern.ch/delphi/MCprod/ral/bdkrc02/v97g/182.7/bdkrc02_eemm_182.7_52150.xsdst ! RUN = 52150 ! NEVT = 7000
FILE = /castor/cern.ch/delphi/MCprod/ral/bdkrc02/v97g/182.7/bdkrc02_eemm_182.7_52151.xsdst ! RUN = 52151 ! NEVT = 7000
FILE = /castor/cern.ch/delphi/MCprod/ral/bdkrc02/v97g/182.7/bdkrc02_eemm_182.7_52152.xsdst ! RUN = 52152 ! NEVT = 7000
FILE = /castor/cern.ch/delphi/MCprod/ral/bdkrc02/v97g/182.7/bdkrc02_eemm_182.7_52153.xsdst ! RUN = 52153 ! NEVT = 7000
FILE = /castor/cern.ch/delphi/MCprod/ral/bdkrc02/v97g/182.7/bdkrc02_eemm_182.7_52154.xsdst ! RUN = 52154 ! NEVT = 7000
FILE = /castor/cern.ch/delphi/MCprod/ral/bdkrc02/v97g/182.7/bdkrc02_eemm_182.7_52155.xsdst ! RUN = 52155 ! NEVT = 7000
FILE = /castor/cern.ch/delphi/MCprod/ral/bdkrc02/v97g/182.7/bdkrc02_eemm_182.7_52156.xsdst ! RUN = 52156 ! NEVT = 7000
FILE = /castor/cern.ch/delphi/MCprod/ral/bdkrc02/v97g/182.7/bdkrc02_eemm_182.7_52157.xsdst ! RUN = 52157 ! NEVT = 7000
FILE = /castor/cern.ch/delphi/MCprod/ral/bdkrc02/v97g/182.7/bdkrc02_eemm_182.7_52158.xsdst ! RUN = 52158 ! NEVT = 7000
FILE = /castor/cern.ch/delphi/MCprod/ral/bdkrc02/v97g/182.7/bdkrc02_eemm_182.7_52159.xsdst ! RUN = 52159 ! NEVT = 7000
FILE = /castor/cern.ch/delphi/MCprod/ral/bdkrc02/v97g/182.7/bdkrc02_eemm_182.7_52160.xsdst ! RUN = 52160 ! NEVT = 7000
FILE = /castor/cern.ch/delphi/MCprod/ral/bdkrc02/v97g/182.7/bdkrc02_eemm_182.7_52161.xsdst ! RUN = 52161 ! NEVT = 7000
FILE = /castor/cern.ch/delphi/MCprod/ral/bdkrc02/v97g/182.7/bdkrc02_eemm_182.7_52162.xsdst ! RUN = 52162 ! NEVT = 7000
FILE = /castor/cern.ch/delphi/MCprod/ral/bdkrc02/v97g/182.7/bdkrc02_eemm_182.7_52163.xsdst ! RUN = 52163 ! NEVT = 7000
FILE = /castor/cern.ch/delphi/MCprod/ral/bdkrc02/v97g/182.7/bdkrc02_eemm_182.7_52164.xsdst ! RUN = 52164 ! NEVT = 7000
FILE = /castor/cern.ch/delphi/MCprod/ral/bdkrc02/v97g/182.7/bdkrc02_eemm_182.7_52165.xsdst ! RUN = 52165 ! NEVT = 7000
FILE = /castor/cern.ch/delphi/MCprod/ral/bdkrc02/v97g/182.7/bdkrc02_eemm_182.7_52166.xsdst ! RUN = 52166 ! NEVT = 7000
FILE = /castor/cern.ch/delphi/MCprod/ral/bdkrc02/v97g/182.7/bdkrc02_eemm_182.7_52167.xsdst ! RUN = 52167 ! NEVT = 7000
FILE = /castor/cern.ch/delphi/MCprod/ral/bdkrc02/v97g/182.7/bdkrc02_eemm_182.7_52168.xsdst ! RUN = 52168 ! NEVT = 7000
FILE = /castor/cern.ch/delphi/MCprod/ral/bdkrc02/v97g/182.7/bdkrc02_eemm_182.7_52169.xsdst ! RUN = 52169 ! NEVT = 7000
FILE = /castor/cern.ch/delphi/MCprod/ral/bdkrc02/v97g/182.7/bdkrc02_eemm_182.7_52170.xsdst ! RUN = 52170 ! NEVT = 7000
FILE = /castor/cern.ch/delphi/MCprod/ral/bdkrc02/v97g/182.7/bdkrc02_eemm_182.7_52171.xsdst ! RUN = 52171 ! NEVT = 7000
FILE = /castor/cern.ch/delphi/MCprod/ral/bdkrc02/v97g/182.7/bdkrc02_eemm_182.7_52172.xsdst ! RUN = 52172 ! NEVT = 7000
FILE = /castor/cern.ch/delphi/MCprod/ral/bdkrc02/v97g/182.7/bdkrc02_eemm_182.7_52173.xsdst ! RUN = 52173 ! NEVT = 7000
FILE = /castor/cern.ch/delphi/MCprod/ral/bdkrc02/v97g/182.7/bdkrc02_eemm_182.7_52174.xsdst ! RUN = 52174 ! NEVT = 7000
FILE = /castor/cern.ch/delphi/MCprod/ral/bdkrc02/v97g/182.7/bdkrc02_eemm_182.7_52175.xsdst ! RUN = 52175 ! NEVT = 7000
FILE = /castor/cern.ch/delphi/MCprod/ral/bdkrc02/v97g/182.7/bdkrc02_eemm_182.7_52176.xsdst ! RUN = 52176 ! NEVT = 7000
FILE = /castor/cern.ch/delphi/MCprod/ral/bdkrc02/v97g/182.7/bdkrc02_eemm_182.7_52177.xsdst ! RUN = 52177 ! NEVT = 5359
FILE = /castor/cern.ch/delphi/MCprod/ral/bdkrc02/v97g/182.7/bdkrc02_eemm_182.7_52178.xsdst ! RUN = 52178 ! NEVT = 7000
FILE = /castor/cern.ch/delphi/MCprod/ral/bdkrc02/v97g/182.7/bdkrc02_eemm_182.7_52179.xsdst ! RUN = 52179 ! NEVT = 7000
FILE = /castor/cern.ch/delphi/MCprod/ral/bdkrc02/v97g/182.7/bdkrc02_eemm_182.7_52180.xsdst ! RUN = 52180 ! NEVT = 1519
FILE = /castor/cern.ch/delphi/MCprod/ral/bdkrc02/v97g/182.7/bdkrc02_eemm_182.7_52181.xsdst ! RUN = 52181 ! NEVT = 7000
FILE = /castor/cern.ch/delphi/MCprod/ral/bdkrc02/v97g/182.7/bdkrc02_eemm_182.7_52182.xsdst ! RUN = 52182 ! NEVT = 7000
FILE = /castor/cern.ch/delphi/MCprod/ral/bdkrc02/v97g/182.7/bdkrc02_eemm_182.7_52183.xsdst ! RUN = 52183 ! NEVT = 7000
FILE = /castor/cern.ch/delphi/MCprod/ral/bdkrc02/v97g/182.7/bdkrc02_eemm_182.7_52184.xsdst ! RUN = 52184 ! NEVT = 7000
FILE = /castor/cern.ch/delphi/MCprod/ral/bdkrc02/v97g/182.7/bdkrc02_eemm_182.7_52185.xsdst ! RUN = 52185 ! NEVT = 7000
FILE = /castor/cern.ch/delphi/MCprod/ral/bdkrc02/v97g/182.7/bdkrc02_eemm_182.7_52186.xsdst ! RUN = 52186 ! NEVT = 7000
FILE = /castor/cern.ch/delphi/MCprod/ral/bdkrc02/v97g/182.7/bdkrc02_eemm_182.7_52187.xsdst ! RUN = 52187 ! NEVT = 7000
FILE = /castor/cern.ch/delphi/MCprod/ral/bdkrc02/v97g/182.7/bdkrc02_eemm_182.7_52188.xsdst ! RUN = 52188 ! NEVT = 7000
FILE = /castor/cern.ch/delphi/MCprod/ral/bdkrc02/v97g/182.7/bdkrc02_eemm_182.7_52189.xsdst ! RUN = 52189 ! NEVT = 7000
FILE = /castor/cern.ch/delphi/MCprod/ral/bdkrc02/v97g/182.7/bdkrc02_eemm_182.7_52190.xsdst ! RUN = 52190 ! NEVT = 7000
FILE = /castor/cern.ch/delphi/MCprod/ral/bdkrc02/v97g/182.7/bdkrc02_eemm_182.7_52191.xsdst ! RUN = 52191 ! NEVT = 7000
FILE = /castor/cern.ch/delphi/MCprod/ral/bdkrc02/v97g/182.7/bdkrc02_eemm_182.7_52192.xsdst ! RUN = 52192 ! NEVT = 7000
FILE = /castor/cern.ch/delphi/MCprod/ral/bdkrc02/v97g/182.7/bdkrc02_eemm_182.7_52193.xsdst ! RUN = 52193 ! NEVT = 7000
FILE = /castor/cern.ch/delphi/MCprod/ral/bdkrc02/v97g/182.7/bdkrc02_eemm_182.7_52194.xsdst ! RUN = 52194 ! NEVT = 7000
FILE = /castor/cern.ch/delphi/MCprod/ral/bdkrc02/v97g/182.7/bdkrc02_eemm_182.7_52195.xsdst ! RUN = 52195 ! NEVT = 7000
FILE = /castor/cern.ch/delphi/MCprod/ral/bdkrc02/v97g/182.7/bdkrc02_eemm_182.7_52196.xsdst ! RUN = 52196 ! NEVT = 7000
FILE = /castor/cern.ch/delphi/MCprod/ral/bdkrc02/v97g/182.7/bdkrc02_eemm_182.7_52197.xsdst ! RUN = 52197 ! NEVT = 7000
FILE = /castor/cern.ch/delphi/MCprod/ral/bdkrc02/v97g/182.7/bdkrc02_eemm_182.7_52198.xsdst ! RUN = 52198 ! NEVT = 7000
FILE = /castor/cern.ch/delphi/MCprod/ral/bdkrc02/v97g/182.7/bdkrc02_eemm_182.7_52199.xsdst ! RUN = 52199 ! NEVT = 7000
FILE = /castor/cern.ch/delphi/MCprod/ral/bdkrc02/v97g/182.7/bdkrc02_eemm_182.7_52200.xsdst ! RUN = 52200 ! NEVT = 7000
FILE = /castor/cern.ch/delphi/MCprod/ral/bdkrc02/v97g/182.7/bdkrc02_eemm_182.7_52201.xsdst ! RUN = 52201 ! NEVT = 7000
FILE = /castor/cern.ch/delphi/MCprod/ral/bdkrc02/v97g/182.7/bdkrc02_eemm_182.7_52202.xsdst ! RUN = 52202 ! NEVT = 7000
FILE = /castor/cern.ch/delphi/MCprod/ral/bdkrc02/v97g/182.7/bdkrc02_eemm_182.7_52203.xsdst ! RUN = 52203 ! NEVT = 7000
FILE = /castor/cern.ch/delphi/MCprod/ral/bdkrc02/v97g/182.7/bdkrc02_eemm_182.7_52204.xsdst ! RUN = 52204 ! NEVT = 7000
FILE = /castor/cern.ch/delphi/MCprod/ral/bdkrc02/v97g/182.7/bdkrc02_eemm_182.7_52205.xsdst ! RUN = 52205 ! NEVT = 7000
FILE = /castor/cern.ch/delphi/MCprod/ral/bdkrc02/v97g/182.7/bdkrc02_eemm_182.7_52206.xsdst ! RUN = 52206 ! NEVT = 7000
FILE = /castor/cern.ch/delphi/MCprod/ral/bdkrc02/v97g/182.7/bdkrc02_eemm_182.7_52207.xsdst ! RUN = 52207 ! NEVT = 7000
FILE = /castor/cern.ch/delphi/MCprod/ral/bdkrc02/v97g/182.7/bdkrc02_eemm_182.7_52208.xsdst ! RUN = 52208 ! NEVT = 7000
FILE = /castor/cern.ch/delphi/MCprod/ral/bdkrc02/v97g/182.7/bdkrc02_eemm_182.7_52209.xsdst ! RUN = 52209 ! NEVT = 7000
FILE = /castor/cern.ch/delphi/MCprod/ral/bdkrc02/v97g/182.7/bdkrc02_eemm_182.7_52210.xsdst ! RUN = 52210 ! NEVT = 7000
FILE = /castor/cern.ch/delphi/MCprod/ral/bdkrc02/v97g/182.7/bdkrc02_eemm_182.7_52211.xsdst ! RUN = 52211 ! NEVT = 7000
FILE = /castor/cern.ch/delphi/MCprod/ral/bdkrc02/v97g/182.7/bdkrc02_eemm_182.7_52212.xsdst ! RUN = 52212 ! NEVT = 7000
FILE = /castor/cern.ch/delphi/MCprod/ral/bdkrc02/v97g/182.7/bdkrc02_eemm_182.7_52213.xsdst ! RUN = 52213 ! NEVT = 7000
FILE = /castor/cern.ch/delphi/MCprod/ral/bdkrc02/v97g/182.7/bdkrc02_eemm_182.7_52214.xsdst ! RUN = 52214 ! NEVT = 7000
FILE = /castor/cern.ch/delphi/MCprod/ral/bdkrc02/v97g/182.7/bdkrc02_eemm_182.7_52215.xsdst ! RUN = 52215 ! NEVT = 7000
FILE = /castor/cern.ch/delphi/MCprod/ral/bdkrc02/v97g/182.7/bdkrc02_eemm_182.7_52216.xsdst ! RUN = 52216 ! NEVT = 7000
FILE = /castor/cern.ch/delphi/MCprod/ral/bdkrc02/v97g/182.7/bdkrc02_eemm_182.7_52217.xsdst ! RUN = 52217 ! NEVT = 7000
FILE = /castor/cern.ch/delphi/MCprod/ral/bdkrc02/v97g/182.7/bdkrc02_eemm_182.7_52218.xsdst ! RUN = 52218 ! NEVT = 7000
FILE = /castor/cern.ch/delphi/MCprod/ral/bdkrc02/v97g/182.7/bdkrc02_eemm_182.7_52219.xsdst ! RUN = 52219 ! NEVT = 7000
FILE = /castor/cern.ch/delphi/MCprod/ral/bdkrc02/v97g/182.7/bdkrc02_eemm_182.7_52220.xsdst ! RUN = 52220 ! NEVT = 7000
FILE = /castor/cern.ch/delphi/MCprod/ral/bdkrc02/v97g/182.7/bdkrc02_eemm_182.7_52221.xsdst ! RUN = 52221 ! NEVT = 7000
FILE = /castor/cern.ch/delphi/MCprod/ral/bdkrc02/v97g/182.7/bdkrc02_eemm_182.7_52222.xsdst ! RUN = 52222 ! NEVT = 7000
FILE = /castor/cern.ch/delphi/MCprod/ral/bdkrc02/v97g/182.7/bdkrc02_eemm_182.7_52223.xsdst ! RUN = 52223 ! NEVT = 7000
FILE = /castor/cern.ch/delphi/MCprod/ral/bdkrc02/v97g/182.7/bdkrc02_eemm_182.7_52224.xsdst ! RUN = 52224 ! NEVT = 7000
FILE = /castor/cern.ch/delphi/MCprod/ral/bdkrc02/v97g/182.7/bdkrc02_eemm_182.7_52225.xsdst ! RUN = 52225 ! NEVT = 7000
FILE = /castor/cern.ch/delphi/MCprod/ral/bdkrc02/v97g/182.7/bdkrc02_eemm_182.7_52226.xsdst ! RUN = 52226 ! NEVT = 7000
FILE = /castor/cern.ch/delphi/MCprod/ral/bdkrc02/v97g/182.7/bdkrc02_eemm_182.7_52227.xsdst ! RUN = 52227 ! NEVT = 7000
FILE = /castor/cern.ch/delphi/MCprod/ral/bdkrc02/v97g/182.7/bdkrc02_eemm_182.7_52228.xsdst ! RUN = 52228 ! NEVT = 7000
FILE = /castor/cern.ch/delphi/MCprod/ral/bdkrc02/v97g/182.7/bdkrc02_eemm_182.7_52229.xsdst ! RUN = 52229 ! NEVT = 7000
FILE = /castor/cern.ch/delphi/MCprod/ral/bdkrc02/v97g/182.7/bdkrc02_eemm_182.7_52230.xsdst ! RUN = 52230 ! NEVT = 7000
FILE = /castor/cern.ch/delphi/MCprod/ral/bdkrc02/v97g/182.7/bdkrc02_eemm_182.7_52231.xsdst ! RUN = 52231 ! NEVT = 7000
FILE = /castor/cern.ch/delphi/MCprod/ral/bdkrc02/v97g/182.7/bdkrc02_eemm_182.7_52232.xsdst ! RUN = 52232 ! NEVT = 7000
FILE = /castor/cern.ch/delphi/MCprod/ral/bdkrc02/v97g/182.7/bdkrc02_eemm_182.7_52233.xsdst ! RUN = 52233 ! NEVT = 7000
FILE = /castor/cern.ch/delphi/MCprod/ral/bdkrc02/v97g/182.7/bdkrc02_eemm_182.7_52234.xsdst ! RUN = 52234 ! NEVT = 7000
FILE = /castor/cern.ch/delphi/MCprod/ral/bdkrc02/v97g/182.7/bdkrc02_eemm_182.7_52235.xsdst ! RUN = 52235 ! NEVT = 7000
FILE = /castor/cern.ch/delphi/MCprod/ral/bdkrc02/v97g/182.7/bdkrc02_eemm_182.7_52236.xsdst ! RUN = 52236 ! NEVT = 7000
FILE = /castor/cern.ch/delphi/MCprod/ral/bdkrc02/v97g/182.7/bdkrc02_eemm_182.7_52237.xsdst ! RUN = 52237 ! NEVT = 7000
FILE = /castor/cern.ch/delphi/MCprod/ral/bdkrc02/v97g/182.7/bdkrc02_eemm_182.7_52238.xsdst ! RUN = 52238 ! NEVT = 7000
FILE = /castor/cern.ch/delphi/MCprod/ral/bdkrc02/v97g/182.7/bdkrc02_eemm_182.7_52239.xsdst ! RUN = 52239 ! NEVT = 7000
FILE = /castor/cern.ch/delphi/MCprod/ral/bdkrc02/v97g/182.7/bdkrc02_eemm_182.7_52240.xsdst ! RUN = 52240 ! NEVT = 7000
FILE = /castor/cern.ch/delphi/MCprod/ral/bdkrc02/v97g/182.7/bdkrc02_eemm_182.7_52241.xsdst ! RUN = 52241 ! NEVT = 7000
FILE = /castor/cern.ch/delphi/MCprod/ral/bdkrc02/v97g/182.7/bdkrc02_eemm_182.7_52242.xsdst ! RUN = 52242 ! NEVT = 7000
FILE = /castor/cern.ch/delphi/MCprod/ral/bdkrc02/v97g/182.7/bdkrc02_eemm_182.7_52243.xsdst ! RUN = 52243 ! NEVT = 7000
FILE = /castor/cern.ch/delphi/MCprod/ral/bdkrc02/v97g/182.7/bdkrc02_eemm_182.7_52244.xsdst ! RUN = 52244 ! NEVT = 7000
FILE = /castor/cern.ch/delphi/MCprod/ral/bdkrc02/v97g/182.7/bdkrc02_eemm_182.7_52245.xsdst ! RUN = 52245 ! NEVT = 7000
FILE = /castor/cern.ch/delphi/MCprod/ral/bdkrc02/v97g/182.7/bdkrc02_eemm_182.7_52246.xsdst ! RUN = 52246 ! NEVT = 7000
FILE = /castor/cern.ch/delphi/MCprod/ral/bdkrc02/v97g/182.7/bdkrc02_eemm_182.7_52247.xsdst ! RUN = 52247 ! NEVT = 7000
FILE = /castor/cern.ch/delphi/MCprod/ral/bdkrc02/v97g/182.7/bdkrc02_eemm_182.7_52248.xsdst ! RUN = 52248 ! NEVT = 7000
FILE = /castor/cern.ch/delphi/MCprod/ral/bdkrc02/v97g/182.7/bdkrc02_eemm_182.7_52249.xsdst ! RUN = 52249 ! NEVT = 7000
FILE = /castor/cern.ch/delphi/MCprod/ral/bdkrc02/v97g/182.7/bdkrc02_eemm_182.7_52250.xsdst ! RUN = 52250 ! NEVT = 7000
