*   Nickname :     xs_wphact24cc_e182.7_m80.4_c97_1l_g1
*   Generic Name : //CERN/DELPHI/P02_SIMD/XSDST/WPHACT24CC/E182.7/CERN/SUMT/C001-493
*   Description :   Extended Short DST simulation 97g  done at ecm=182.7 GeV , CERN
*   Comments :     in total 920121 events in 493 files, time stamp: Mon Jun 30 4:12:20 2003
*
*
*
FILE = /castor/cern.ch/delphi/MCprod/cern/wphact24/v97g/182.7/wphact24_cc_182.7_80.4_200001.xsdst ! RUN = 200001 ! NEVT = 1305
FILE = /castor/cern.ch/delphi/MCprod/cern/wphact24/v97g/182.7/wphact24_cc_182.7_80.4_200002.xsdst ! RUN = 200002 ! NEVT = 2000
FILE = /castor/cern.ch/delphi/MCprod/cern/wphact24/v97g/182.7/wphact24_cc_182.7_80.4_200003.xsdst ! RUN = 200003 ! NEVT = 2000
FILE = /castor/cern.ch/delphi/MCprod/cern/wphact24/v97g/182.7/wphact24_cc_182.7_80.4_200004.xsdst ! RUN = 200004 ! NEVT = 1011
FILE = /castor/cern.ch/delphi/MCprod/cern/wphact24/v97g/182.7/wphact24_cc_182.7_80.4_200005.xsdst ! RUN = 200005 ! NEVT = 1999
FILE = /castor/cern.ch/delphi/MCprod/cern/wphact24/v97g/182.7/wphact24_cc_182.7_80.4_200006.xsdst ! RUN = 200006 ! NEVT = 1999
FILE = /castor/cern.ch/delphi/MCprod/cern/wphact24/v97g/182.7/wphact24_cc_182.7_80.4_200007.xsdst ! RUN = 200007 ! NEVT = 1999
FILE = /castor/cern.ch/delphi/MCprod/cern/wphact24/v97g/182.7/wphact24_cc_182.7_80.4_200008.xsdst ! RUN = 200008 ! NEVT = 2000
FILE = /castor/cern.ch/delphi/MCprod/cern/wphact24/v97g/182.7/wphact24_cc_182.7_80.4_200009.xsdst ! RUN = 200009 ! NEVT = 2000
FILE = /castor/cern.ch/delphi/MCprod/cern/wphact24/v97g/182.7/wphact24_cc_182.7_80.4_200010.xsdst ! RUN = 200010 ! NEVT = 2000
FILE = /castor/cern.ch/delphi/MCprod/cern/wphact24/v97g/182.7/wphact24_cc_182.7_80.4_200011.xsdst ! RUN = 200011 ! NEVT = 1173
FILE = /castor/cern.ch/delphi/MCprod/cern/wphact24/v97g/182.7/wphact24_cc_182.7_80.4_200012.xsdst ! RUN = 200012 ! NEVT = 2000
FILE = /castor/cern.ch/delphi/MCprod/cern/wphact24/v97g/182.7/wphact24_cc_182.7_80.4_200013.xsdst ! RUN = 200013 ! NEVT = 2000
FILE = /castor/cern.ch/delphi/MCprod/cern/wphact24/v97g/182.7/wphact24_cc_182.7_80.4_200014.xsdst ! RUN = 200014 ! NEVT = 433
FILE = /castor/cern.ch/delphi/MCprod/cern/wphact24/v97g/182.7/wphact24_cc_182.7_80.4_200015.xsdst ! RUN = 200015 ! NEVT = 867
FILE = /castor/cern.ch/delphi/MCprod/cern/wphact24/v97g/182.7/wphact24_cc_182.7_80.4_200016.xsdst ! RUN = 200016 ! NEVT = 1410
FILE = /castor/cern.ch/delphi/MCprod/cern/wphact24/v97g/182.7/wphact24_cc_182.7_80.4_200017.xsdst ! RUN = 200017 ! NEVT = 1999
FILE = /castor/cern.ch/delphi/MCprod/cern/wphact24/v97g/182.7/wphact24_cc_182.7_80.4_200018.xsdst ! RUN = 200018 ! NEVT = 65
FILE = /castor/cern.ch/delphi/MCprod/cern/wphact24/v97g/182.7/wphact24_cc_182.7_80.4_200019.xsdst ! RUN = 200019 ! NEVT = 2000
FILE = /castor/cern.ch/delphi/MCprod/cern/wphact24/v97g/182.7/wphact24_cc_182.7_80.4_200020.xsdst ! RUN = 200020 ! NEVT = 1999
FILE = /castor/cern.ch/delphi/MCprod/cern/wphact24/v97g/182.7/wphact24_cc_182.7_80.4_200021.xsdst ! RUN = 200021 ! NEVT = 999
FILE = /castor/cern.ch/delphi/MCprod/cern/wphact24/v97g/182.7/wphact24_cc_182.7_80.4_200022.xsdst ! RUN = 200022 ! NEVT = 1998
FILE = /castor/cern.ch/delphi/MCprod/cern/wphact24/v97g/182.7/wphact24_cc_182.7_80.4_200023.xsdst ! RUN = 200023 ! NEVT = 1999
FILE = /castor/cern.ch/delphi/MCprod/cern/wphact24/v97g/182.7/wphact24_cc_182.7_80.4_200024.xsdst ! RUN = 200024 ! NEVT = 1999
FILE = /castor/cern.ch/delphi/MCprod/cern/wphact24/v97g/182.7/wphact24_cc_182.7_80.4_200025.xsdst ! RUN = 200025 ! NEVT = 356
FILE = /castor/cern.ch/delphi/MCprod/cern/wphact24/v97g/182.7/wphact24_cc_182.7_80.4_200026.xsdst ! RUN = 200026 ! NEVT = 58
FILE = /castor/cern.ch/delphi/MCprod/cern/wphact24/v97g/182.7/wphact24_cc_182.7_80.4_200027.xsdst ! RUN = 200027 ! NEVT = 1803
FILE = /castor/cern.ch/delphi/MCprod/cern/wphact24/v97g/182.7/wphact24_cc_182.7_80.4_200028.xsdst ! RUN = 200028 ! NEVT = 1504
FILE = /castor/cern.ch/delphi/MCprod/cern/wphact24/v97g/182.7/wphact24_cc_182.7_80.4_200029.xsdst ! RUN = 200029 ! NEVT = 1318
FILE = /castor/cern.ch/delphi/MCprod/cern/wphact24/v97g/182.7/wphact24_cc_182.7_80.4_200030.xsdst ! RUN = 200030 ! NEVT = 2000
FILE = /castor/cern.ch/delphi/MCprod/cern/wphact24/v97g/182.7/wphact24_cc_182.7_80.4_200031.xsdst ! RUN = 200031 ! NEVT = 2000
FILE = /castor/cern.ch/delphi/MCprod/cern/wphact24/v97g/182.7/wphact24_cc_182.7_80.4_200032.xsdst ! RUN = 200032 ! NEVT = 1999
FILE = /castor/cern.ch/delphi/MCprod/cern/wphact24/v97g/182.7/wphact24_cc_182.7_80.4_200033.xsdst ! RUN = 200033 ! NEVT = 357
FILE = /castor/cern.ch/delphi/MCprod/cern/wphact24/v97g/182.7/wphact24_cc_182.7_80.4_200034.xsdst ! RUN = 200034 ! NEVT = 114
FILE = /castor/cern.ch/delphi/MCprod/cern/wphact24/v97g/182.7/wphact24_cc_182.7_80.4_200035.xsdst ! RUN = 200035 ! NEVT = 1999
FILE = /castor/cern.ch/delphi/MCprod/cern/wphact24/v97g/182.7/wphact24_cc_182.7_80.4_200036.xsdst ! RUN = 200036 ! NEVT = 1999
FILE = /castor/cern.ch/delphi/MCprod/cern/wphact24/v97g/182.7/wphact24_cc_182.7_80.4_200037.xsdst ! RUN = 200037 ! NEVT = 862
FILE = /castor/cern.ch/delphi/MCprod/cern/wphact24/v97g/182.7/wphact24_cc_182.7_80.4_200038.xsdst ! RUN = 200038 ! NEVT = 2000
FILE = /castor/cern.ch/delphi/MCprod/cern/wphact24/v97g/182.7/wphact24_cc_182.7_80.4_200039.xsdst ! RUN = 200039 ! NEVT = 1999
FILE = /castor/cern.ch/delphi/MCprod/cern/wphact24/v97g/182.7/wphact24_cc_182.7_80.4_200040.xsdst ! RUN = 200040 ! NEVT = 1999
FILE = /castor/cern.ch/delphi/MCprod/cern/wphact24/v97g/182.7/wphact24_cc_182.7_80.4_200041.xsdst ! RUN = 200041 ! NEVT = 223
FILE = /castor/cern.ch/delphi/MCprod/cern/wphact24/v97g/182.7/wphact24_cc_182.7_80.4_200042.xsdst ! RUN = 200042 ! NEVT = 2000
FILE = /castor/cern.ch/delphi/MCprod/cern/wphact24/v97g/182.7/wphact24_cc_182.7_80.4_200043.xsdst ! RUN = 200043 ! NEVT = 2000
FILE = /castor/cern.ch/delphi/MCprod/cern/wphact24/v97g/182.7/wphact24_cc_182.7_80.4_200044.xsdst ! RUN = 200044 ! NEVT = 1295
FILE = /castor/cern.ch/delphi/MCprod/cern/wphact24/v97g/182.7/wphact24_cc_182.7_80.4_200045.xsdst ! RUN = 200045 ! NEVT = 992
FILE = /castor/cern.ch/delphi/MCprod/cern/wphact24/v97g/182.7/wphact24_cc_182.7_80.4_200046.xsdst ! RUN = 200046 ! NEVT = 2000
FILE = /castor/cern.ch/delphi/MCprod/cern/wphact24/v97g/182.7/wphact24_cc_182.7_80.4_200047.xsdst ! RUN = 200047 ! NEVT = 771
FILE = /castor/cern.ch/delphi/MCprod/cern/wphact24/v97g/182.7/wphact24_cc_182.7_80.4_200048.xsdst ! RUN = 200048 ! NEVT = 2000
FILE = /castor/cern.ch/delphi/MCprod/cern/wphact24/v97g/182.7/wphact24_cc_182.7_80.4_200049.xsdst ! RUN = 200049 ! NEVT = 42
FILE = /castor/cern.ch/delphi/MCprod/cern/wphact24/v97g/182.7/wphact24_cc_182.7_80.4_200050.xsdst ! RUN = 200050 ! NEVT = 1187
FILE = /castor/cern.ch/delphi/MCprod/cern/wphact24/v97g/182.7/wphact24_cc_182.7_80.4_200051.xsdst ! RUN = 200051 ! NEVT = 536
FILE = /castor/cern.ch/delphi/MCprod/cern/wphact24/v97g/182.7/wphact24_cc_182.7_80.4_200052.xsdst ! RUN = 200052 ! NEVT = 2000
FILE = /castor/cern.ch/delphi/MCprod/cern/wphact24/v97g/182.7/wphact24_cc_182.7_80.4_200053.xsdst ! RUN = 200053 ! NEVT = 623
FILE = /castor/cern.ch/delphi/MCprod/cern/wphact24/v97g/182.7/wphact24_cc_182.7_80.4_200054.xsdst ! RUN = 200054 ! NEVT = 1999
FILE = /castor/cern.ch/delphi/MCprod/cern/wphact24/v97g/182.7/wphact24_cc_182.7_80.4_200055.xsdst ! RUN = 200055 ! NEVT = 1999
FILE = /castor/cern.ch/delphi/MCprod/cern/wphact24/v97g/182.7/wphact24_cc_182.7_80.4_200056.xsdst ! RUN = 200056 ! NEVT = 1999
FILE = /castor/cern.ch/delphi/MCprod/cern/wphact24/v97g/182.7/wphact24_cc_182.7_80.4_200057.xsdst ! RUN = 200057 ! NEVT = 2000
FILE = /castor/cern.ch/delphi/MCprod/cern/wphact24/v97g/182.7/wphact24_cc_182.7_80.4_200058.xsdst ! RUN = 200058 ! NEVT = 153
FILE = /castor/cern.ch/delphi/MCprod/cern/wphact24/v97g/182.7/wphact24_cc_182.7_80.4_200059.xsdst ! RUN = 200059 ! NEVT = 186
FILE = /castor/cern.ch/delphi/MCprod/cern/wphact24/v97g/182.7/wphact24_cc_182.7_80.4_200060.xsdst ! RUN = 200060 ! NEVT = 532
FILE = /castor/cern.ch/delphi/MCprod/cern/wphact24/v97g/182.7/wphact24_cc_182.7_80.4_200061.xsdst ! RUN = 200061 ! NEVT = 566
FILE = /castor/cern.ch/delphi/MCprod/cern/wphact24/v97g/182.7/wphact24_cc_182.7_80.4_200062.xsdst ! RUN = 200062 ! NEVT = 1672
FILE = /castor/cern.ch/delphi/MCprod/cern/wphact24/v97g/182.7/wphact24_cc_182.7_80.4_200063.xsdst ! RUN = 200063 ! NEVT = 2000
FILE = /castor/cern.ch/delphi/MCprod/cern/wphact24/v97g/182.7/wphact24_cc_182.7_80.4_200064.xsdst ! RUN = 200064 ! NEVT = 1999
FILE = /castor/cern.ch/delphi/MCprod/cern/wphact24/v97g/182.7/wphact24_cc_182.7_80.4_200065.xsdst ! RUN = 200065 ! NEVT = 2000
FILE = /castor/cern.ch/delphi/MCprod/cern/wphact24/v97g/182.7/wphact24_cc_182.7_80.4_200066.xsdst ! RUN = 200066 ! NEVT = 2000
FILE = /castor/cern.ch/delphi/MCprod/cern/wphact24/v97g/182.7/wphact24_cc_182.7_80.4_200067.xsdst ! RUN = 200067 ! NEVT = 802
FILE = /castor/cern.ch/delphi/MCprod/cern/wphact24/v97g/182.7/wphact24_cc_182.7_80.4_200068.xsdst ! RUN = 200068 ! NEVT = 2000
FILE = /castor/cern.ch/delphi/MCprod/cern/wphact24/v97g/182.7/wphact24_cc_182.7_80.4_200069.xsdst ! RUN = 200069 ! NEVT = 399
FILE = /castor/cern.ch/delphi/MCprod/cern/wphact24/v97g/182.7/wphact24_cc_182.7_80.4_200070.xsdst ! RUN = 200070 ! NEVT = 1033
FILE = /castor/cern.ch/delphi/MCprod/cern/wphact24/v97g/182.7/wphact24_cc_182.7_80.4_200071.xsdst ! RUN = 200071 ! NEVT = 60
FILE = /castor/cern.ch/delphi/MCprod/cern/wphact24/v97g/182.7/wphact24_cc_182.7_80.4_200072.xsdst ! RUN = 200072 ! NEVT = 2000
FILE = /castor/cern.ch/delphi/MCprod/cern/wphact24/v97g/182.7/wphact24_cc_182.7_80.4_200073.xsdst ! RUN = 200073 ! NEVT = 1999
FILE = /castor/cern.ch/delphi/MCprod/cern/wphact24/v97g/182.7/wphact24_cc_182.7_80.4_200074.xsdst ! RUN = 200074 ! NEVT = 702
FILE = /castor/cern.ch/delphi/MCprod/cern/wphact24/v97g/182.7/wphact24_cc_182.7_80.4_200075.xsdst ! RUN = 200075 ! NEVT = 768
FILE = /castor/cern.ch/delphi/MCprod/cern/wphact24/v97g/182.7/wphact24_cc_182.7_80.4_200076.xsdst ! RUN = 200076 ! NEVT = 278
FILE = /castor/cern.ch/delphi/MCprod/cern/wphact24/v97g/182.7/wphact24_cc_182.7_80.4_200077.xsdst ! RUN = 200077 ! NEVT = 1052
FILE = /castor/cern.ch/delphi/MCprod/cern/wphact24/v97g/182.7/wphact24_cc_182.7_80.4_200078.xsdst ! RUN = 200078 ! NEVT = 1998
FILE = /castor/cern.ch/delphi/MCprod/cern/wphact24/v97g/182.7/wphact24_cc_182.7_80.4_200079.xsdst ! RUN = 200079 ! NEVT = 1530
FILE = /castor/cern.ch/delphi/MCprod/cern/wphact24/v97g/182.7/wphact24_cc_182.7_80.4_200080.xsdst ! RUN = 200080 ! NEVT = 579
FILE = /castor/cern.ch/delphi/MCprod/cern/wphact24/v97g/182.7/wphact24_cc_182.7_80.4_200081.xsdst ! RUN = 200081 ! NEVT = 1998
FILE = /castor/cern.ch/delphi/MCprod/cern/wphact24/v97g/182.7/wphact24_cc_182.7_80.4_200082.xsdst ! RUN = 200082 ! NEVT = 1999
FILE = /castor/cern.ch/delphi/MCprod/cern/wphact24/v97g/182.7/wphact24_cc_182.7_80.4_200083.xsdst ! RUN = 200083 ! NEVT = 1399
FILE = /castor/cern.ch/delphi/MCprod/cern/wphact24/v97g/182.7/wphact24_cc_182.7_80.4_200084.xsdst ! RUN = 200084 ! NEVT = 1999
FILE = /castor/cern.ch/delphi/MCprod/cern/wphact24/v97g/182.7/wphact24_cc_182.7_80.4_200085.xsdst ! RUN = 200085 ! NEVT = 741
FILE = /castor/cern.ch/delphi/MCprod/cern/wphact24/v97g/182.7/wphact24_cc_182.7_80.4_200086.xsdst ! RUN = 200086 ! NEVT = 2000
FILE = /castor/cern.ch/delphi/MCprod/cern/wphact24/v97g/182.7/wphact24_cc_182.7_80.4_200087.xsdst ! RUN = 200087 ! NEVT = 1877
FILE = /castor/cern.ch/delphi/MCprod/cern/wphact24/v97g/182.7/wphact24_cc_182.7_80.4_200088.xsdst ! RUN = 200088 ! NEVT = 1171
FILE = /castor/cern.ch/delphi/MCprod/cern/wphact24/v97g/182.7/wphact24_cc_182.7_80.4_200089.xsdst ! RUN = 200089 ! NEVT = 2000
FILE = /castor/cern.ch/delphi/MCprod/cern/wphact24/v97g/182.7/wphact24_cc_182.7_80.4_200090.xsdst ! RUN = 200090 ! NEVT = 222
FILE = /castor/cern.ch/delphi/MCprod/cern/wphact24/v97g/182.7/wphact24_cc_182.7_80.4_200091.xsdst ! RUN = 200091 ! NEVT = 2000
FILE = /castor/cern.ch/delphi/MCprod/cern/wphact24/v97g/182.7/wphact24_cc_182.7_80.4_200092.xsdst ! RUN = 200092 ! NEVT = 2000
FILE = /castor/cern.ch/delphi/MCprod/cern/wphact24/v97g/182.7/wphact24_cc_182.7_80.4_200093.xsdst ! RUN = 200093 ! NEVT = 954
FILE = /castor/cern.ch/delphi/MCprod/cern/wphact24/v97g/182.7/wphact24_cc_182.7_80.4_200094.xsdst ! RUN = 200094 ! NEVT = 2000
FILE = /castor/cern.ch/delphi/MCprod/cern/wphact24/v97g/182.7/wphact24_cc_182.7_80.4_200095.xsdst ! RUN = 200095 ! NEVT = 2000
FILE = /castor/cern.ch/delphi/MCprod/cern/wphact24/v97g/182.7/wphact24_cc_182.7_80.4_200096.xsdst ! RUN = 200096 ! NEVT = 898
FILE = /castor/cern.ch/delphi/MCprod/cern/wphact24/v97g/182.7/wphact24_cc_182.7_80.4_200097.xsdst ! RUN = 200097 ! NEVT = 1242
FILE = /castor/cern.ch/delphi/MCprod/cern/wphact24/v97g/182.7/wphact24_cc_182.7_80.4_200098.xsdst ! RUN = 200098 ! NEVT = 223
FILE = /castor/cern.ch/delphi/MCprod/cern/wphact24/v97g/182.7/wphact24_cc_182.7_80.4_200099.xsdst ! RUN = 200099 ! NEVT = 521
FILE = /castor/cern.ch/delphi/MCprod/cern/wphact24/v97g/182.7/wphact24_cc_182.7_80.4_200100.xsdst ! RUN = 200100 ! NEVT = 257
FILE = /castor/cern.ch/delphi/MCprod/cern/wphact24/v97g/182.7/wphact24_cc_182.7_80.4_200101.xsdst ! RUN = 200101 ! NEVT = 1998
FILE = /castor/cern.ch/delphi/MCprod/cern/wphact24/v97g/182.7/wphact24_cc_182.7_80.4_200102.xsdst ! RUN = 200102 ! NEVT = 1712
FILE = /castor/cern.ch/delphi/MCprod/cern/wphact24/v97g/182.7/wphact24_cc_182.7_80.4_200104.xsdst ! RUN = 200104 ! NEVT = 2000
FILE = /castor/cern.ch/delphi/MCprod/cern/wphact24/v97g/182.7/wphact24_cc_182.7_80.4_200105.xsdst ! RUN = 200105 ! NEVT = 2000
FILE = /castor/cern.ch/delphi/MCprod/cern/wphact24/v97g/182.7/wphact24_cc_182.7_80.4_200106.xsdst ! RUN = 200106 ! NEVT = 1998
FILE = /castor/cern.ch/delphi/MCprod/cern/wphact24/v97g/182.7/wphact24_cc_182.7_80.4_200107.xsdst ! RUN = 200107 ! NEVT = 1999
FILE = /castor/cern.ch/delphi/MCprod/cern/wphact24/v97g/182.7/wphact24_cc_182.7_80.4_200108.xsdst ! RUN = 200108 ! NEVT = 1998
FILE = /castor/cern.ch/delphi/MCprod/cern/wphact24/v97g/182.7/wphact24_cc_182.7_80.4_200109.xsdst ! RUN = 200109 ! NEVT = 2000
FILE = /castor/cern.ch/delphi/MCprod/cern/wphact24/v97g/182.7/wphact24_cc_182.7_80.4_200110.xsdst ! RUN = 200110 ! NEVT = 2000
FILE = /castor/cern.ch/delphi/MCprod/cern/wphact24/v97g/182.7/wphact24_cc_182.7_80.4_200111.xsdst ! RUN = 200111 ! NEVT = 2000
FILE = /castor/cern.ch/delphi/MCprod/cern/wphact24/v97g/182.7/wphact24_cc_182.7_80.4_200112.xsdst ! RUN = 200112 ! NEVT = 1999
FILE = /castor/cern.ch/delphi/MCprod/cern/wphact24/v97g/182.7/wphact24_cc_182.7_80.4_200113.xsdst ! RUN = 200113 ! NEVT = 2000
FILE = /castor/cern.ch/delphi/MCprod/cern/wphact24/v97g/182.7/wphact24_cc_182.7_80.4_200114.xsdst ! RUN = 200114 ! NEVT = 2000
FILE = /castor/cern.ch/delphi/MCprod/cern/wphact24/v97g/182.7/wphact24_cc_182.7_80.4_200115.xsdst ! RUN = 200115 ! NEVT = 2000
FILE = /castor/cern.ch/delphi/MCprod/cern/wphact24/v97g/182.7/wphact24_cc_182.7_80.4_200116.xsdst ! RUN = 200116 ! NEVT = 1999
FILE = /castor/cern.ch/delphi/MCprod/cern/wphact24/v97g/182.7/wphact24_cc_182.7_80.4_200117.xsdst ! RUN = 200117 ! NEVT = 2000
FILE = /castor/cern.ch/delphi/MCprod/cern/wphact24/v97g/182.7/wphact24_cc_182.7_80.4_200118.xsdst ! RUN = 200118 ! NEVT = 1999
FILE = /castor/cern.ch/delphi/MCprod/cern/wphact24/v97g/182.7/wphact24_cc_182.7_80.4_200119.xsdst ! RUN = 200119 ! NEVT = 2000
FILE = /castor/cern.ch/delphi/MCprod/cern/wphact24/v97g/182.7/wphact24_cc_182.7_80.4_200120.xsdst ! RUN = 200120 ! NEVT = 1999
FILE = /castor/cern.ch/delphi/MCprod/cern/wphact24/v97g/182.7/wphact24_cc_182.7_80.4_200121.xsdst ! RUN = 200121 ! NEVT = 2000
FILE = /castor/cern.ch/delphi/MCprod/cern/wphact24/v97g/182.7/wphact24_cc_182.7_80.4_200122.xsdst ! RUN = 200122 ! NEVT = 2000
FILE = /castor/cern.ch/delphi/MCprod/cern/wphact24/v97g/182.7/wphact24_cc_182.7_80.4_200123.xsdst ! RUN = 200123 ! NEVT = 1998
FILE = /castor/cern.ch/delphi/MCprod/cern/wphact24/v97g/182.7/wphact24_cc_182.7_80.4_200124.xsdst ! RUN = 200124 ! NEVT = 2000
FILE = /castor/cern.ch/delphi/MCprod/cern/wphact24/v97g/182.7/wphact24_cc_182.7_80.4_200125.xsdst ! RUN = 200125 ! NEVT = 2000
FILE = /castor/cern.ch/delphi/MCprod/cern/wphact24/v97g/182.7/wphact24_cc_182.7_80.4_200126.xsdst ! RUN = 200126 ! NEVT = 2000
FILE = /castor/cern.ch/delphi/MCprod/cern/wphact24/v97g/182.7/wphact24_cc_182.7_80.4_200127.xsdst ! RUN = 200127 ! NEVT = 2000
FILE = /castor/cern.ch/delphi/MCprod/cern/wphact24/v97g/182.7/wphact24_cc_182.7_80.4_200128.xsdst ! RUN = 200128 ! NEVT = 1999
FILE = /castor/cern.ch/delphi/MCprod/cern/wphact24/v97g/182.7/wphact24_cc_182.7_80.4_200129.xsdst ! RUN = 200129 ! NEVT = 1999
FILE = /castor/cern.ch/delphi/MCprod/cern/wphact24/v97g/182.7/wphact24_cc_182.7_80.4_200130.xsdst ! RUN = 200130 ! NEVT = 2000
FILE = /castor/cern.ch/delphi/MCprod/cern/wphact24/v97g/182.7/wphact24_cc_182.7_80.4_200131.xsdst ! RUN = 200131 ! NEVT = 2000
FILE = /castor/cern.ch/delphi/MCprod/cern/wphact24/v97g/182.7/wphact24_cc_182.7_80.4_200132.xsdst ! RUN = 200132 ! NEVT = 2000
FILE = /castor/cern.ch/delphi/MCprod/cern/wphact24/v97g/182.7/wphact24_cc_182.7_80.4_200133.xsdst ! RUN = 200133 ! NEVT = 2000
FILE = /castor/cern.ch/delphi/MCprod/cern/wphact24/v97g/182.7/wphact24_cc_182.7_80.4_200134.xsdst ! RUN = 200134 ! NEVT = 2000
FILE = /castor/cern.ch/delphi/MCprod/cern/wphact24/v97g/182.7/wphact24_cc_182.7_80.4_200135.xsdst ! RUN = 200135 ! NEVT = 2000
FILE = /castor/cern.ch/delphi/MCprod/cern/wphact24/v97g/182.7/wphact24_cc_182.7_80.4_200136.xsdst ! RUN = 200136 ! NEVT = 2000
FILE = /castor/cern.ch/delphi/MCprod/cern/wphact24/v97g/182.7/wphact24_cc_182.7_80.4_200137.xsdst ! RUN = 200137 ! NEVT = 2000
FILE = /castor/cern.ch/delphi/MCprod/cern/wphact24/v97g/182.7/wphact24_cc_182.7_80.4_200138.xsdst ! RUN = 200138 ! NEVT = 1999
FILE = /castor/cern.ch/delphi/MCprod/cern/wphact24/v97g/182.7/wphact24_cc_182.7_80.4_200139.xsdst ! RUN = 200139 ! NEVT = 1997
FILE = /castor/cern.ch/delphi/MCprod/cern/wphact24/v97g/182.7/wphact24_cc_182.7_80.4_200140.xsdst ! RUN = 200140 ! NEVT = 1999
FILE = /castor/cern.ch/delphi/MCprod/cern/wphact24/v97g/182.7/wphact24_cc_182.7_80.4_200141.xsdst ! RUN = 200141 ! NEVT = 2000
FILE = /castor/cern.ch/delphi/MCprod/cern/wphact24/v97g/182.7/wphact24_cc_182.7_80.4_200142.xsdst ! RUN = 200142 ! NEVT = 2000
FILE = /castor/cern.ch/delphi/MCprod/cern/wphact24/v97g/182.7/wphact24_cc_182.7_80.4_200143.xsdst ! RUN = 200143 ! NEVT = 1998
FILE = /castor/cern.ch/delphi/MCprod/cern/wphact24/v97g/182.7/wphact24_cc_182.7_80.4_200144.xsdst ! RUN = 200144 ! NEVT = 2000
FILE = /castor/cern.ch/delphi/MCprod/cern/wphact24/v97g/182.7/wphact24_cc_182.7_80.4_200145.xsdst ! RUN = 200145 ! NEVT = 2000
FILE = /castor/cern.ch/delphi/MCprod/cern/wphact24/v97g/182.7/wphact24_cc_182.7_80.4_200146.xsdst ! RUN = 200146 ! NEVT = 1998
FILE = /castor/cern.ch/delphi/MCprod/cern/wphact24/v97g/182.7/wphact24_cc_182.7_80.4_200147.xsdst ! RUN = 200147 ! NEVT = 2000
FILE = /castor/cern.ch/delphi/MCprod/cern/wphact24/v97g/182.7/wphact24_cc_182.7_80.4_200148.xsdst ! RUN = 200148 ! NEVT = 1998
FILE = /castor/cern.ch/delphi/MCprod/cern/wphact24/v97g/182.7/wphact24_cc_182.7_80.4_200149.xsdst ! RUN = 200149 ! NEVT = 1999
FILE = /castor/cern.ch/delphi/MCprod/cern/wphact24/v97g/182.7/wphact24_cc_182.7_80.4_200150.xsdst ! RUN = 200150 ! NEVT = 1998
FILE = /castor/cern.ch/delphi/MCprod/cern/wphact24/v97g/182.7/wphact24_cc_182.7_80.4_200151.xsdst ! RUN = 200151 ! NEVT = 2000
FILE = /castor/cern.ch/delphi/MCprod/cern/wphact24/v97g/182.7/wphact24_cc_182.7_80.4_200152.xsdst ! RUN = 200152 ! NEVT = 2000
FILE = /castor/cern.ch/delphi/MCprod/cern/wphact24/v97g/182.7/wphact24_cc_182.7_80.4_200153.xsdst ! RUN = 200153 ! NEVT = 1999
FILE = /castor/cern.ch/delphi/MCprod/cern/wphact24/v97g/182.7/wphact24_cc_182.7_80.4_200154.xsdst ! RUN = 200154 ! NEVT = 1999
FILE = /castor/cern.ch/delphi/MCprod/cern/wphact24/v97g/182.7/wphact24_cc_182.7_80.4_200155.xsdst ! RUN = 200155 ! NEVT = 1997
FILE = /castor/cern.ch/delphi/MCprod/cern/wphact24/v97g/182.7/wphact24_cc_182.7_80.4_200156.xsdst ! RUN = 200156 ! NEVT = 1999
FILE = /castor/cern.ch/delphi/MCprod/cern/wphact24/v97g/182.7/wphact24_cc_182.7_80.4_200157.xsdst ! RUN = 200157 ! NEVT = 1998
FILE = /castor/cern.ch/delphi/MCprod/cern/wphact24/v97g/182.7/wphact24_cc_182.7_80.4_200158.xsdst ! RUN = 200158 ! NEVT = 1998
FILE = /castor/cern.ch/delphi/MCprod/cern/wphact24/v97g/182.7/wphact24_cc_182.7_80.4_200159.xsdst ! RUN = 200159 ! NEVT = 2000
FILE = /castor/cern.ch/delphi/MCprod/cern/wphact24/v97g/182.7/wphact24_cc_182.7_80.4_200160.xsdst ! RUN = 200160 ! NEVT = 2000
FILE = /castor/cern.ch/delphi/MCprod/cern/wphact24/v97g/182.7/wphact24_cc_182.7_80.4_200161.xsdst ! RUN = 200161 ! NEVT = 2000
FILE = /castor/cern.ch/delphi/MCprod/cern/wphact24/v97g/182.7/wphact24_cc_182.7_80.4_200162.xsdst ! RUN = 200162 ! NEVT = 1998
FILE = /castor/cern.ch/delphi/MCprod/cern/wphact24/v97g/182.7/wphact24_cc_182.7_80.4_200163.xsdst ! RUN = 200163 ! NEVT = 1999
FILE = /castor/cern.ch/delphi/MCprod/cern/wphact24/v97g/182.7/wphact24_cc_182.7_80.4_200164.xsdst ! RUN = 200164 ! NEVT = 1998
FILE = /castor/cern.ch/delphi/MCprod/cern/wphact24/v97g/182.7/wphact24_cc_182.7_80.4_200165.xsdst ! RUN = 200165 ! NEVT = 2000
FILE = /castor/cern.ch/delphi/MCprod/cern/wphact24/v97g/182.7/wphact24_cc_182.7_80.4_200166.xsdst ! RUN = 200166 ! NEVT = 2000
FILE = /castor/cern.ch/delphi/MCprod/cern/wphact24/v97g/182.7/wphact24_cc_182.7_80.4_200167.xsdst ! RUN = 200167 ! NEVT = 2000
FILE = /castor/cern.ch/delphi/MCprod/cern/wphact24/v97g/182.7/wphact24_cc_182.7_80.4_200168.xsdst ! RUN = 200168 ! NEVT = 1997
FILE = /castor/cern.ch/delphi/MCprod/cern/wphact24/v97g/182.7/wphact24_cc_182.7_80.4_200169.xsdst ! RUN = 200169 ! NEVT = 2000
FILE = /castor/cern.ch/delphi/MCprod/cern/wphact24/v97g/182.7/wphact24_cc_182.7_80.4_200170.xsdst ! RUN = 200170 ! NEVT = 1998
FILE = /castor/cern.ch/delphi/MCprod/cern/wphact24/v97g/182.7/wphact24_cc_182.7_80.4_200171.xsdst ! RUN = 200171 ! NEVT = 2000
FILE = /castor/cern.ch/delphi/MCprod/cern/wphact24/v97g/182.7/wphact24_cc_182.7_80.4_200172.xsdst ! RUN = 200172 ! NEVT = 2000
FILE = /castor/cern.ch/delphi/MCprod/cern/wphact24/v97g/182.7/wphact24_cc_182.7_80.4_200173.xsdst ! RUN = 200173 ! NEVT = 2000
FILE = /castor/cern.ch/delphi/MCprod/cern/wphact24/v97g/182.7/wphact24_cc_182.7_80.4_200174.xsdst ! RUN = 200174 ! NEVT = 2000
FILE = /castor/cern.ch/delphi/MCprod/cern/wphact24/v97g/182.7/wphact24_cc_182.7_80.4_200175.xsdst ! RUN = 200175 ! NEVT = 1999
FILE = /castor/cern.ch/delphi/MCprod/cern/wphact24/v97g/182.7/wphact24_cc_182.7_80.4_200176.xsdst ! RUN = 200176 ! NEVT = 1999
FILE = /castor/cern.ch/delphi/MCprod/cern/wphact24/v97g/182.7/wphact24_cc_182.7_80.4_200177.xsdst ! RUN = 200177 ! NEVT = 2000
FILE = /castor/cern.ch/delphi/MCprod/cern/wphact24/v97g/182.7/wphact24_cc_182.7_80.4_200178.xsdst ! RUN = 200178 ! NEVT = 2000
FILE = /castor/cern.ch/delphi/MCprod/cern/wphact24/v97g/182.7/wphact24_cc_182.7_80.4_200179.xsdst ! RUN = 200179 ! NEVT = 1998
FILE = /castor/cern.ch/delphi/MCprod/cern/wphact24/v97g/182.7/wphact24_cc_182.7_80.4_200180.xsdst ! RUN = 200180 ! NEVT = 2000
FILE = /castor/cern.ch/delphi/MCprod/cern/wphact24/v97g/182.7/wphact24_cc_182.7_80.4_200181.xsdst ! RUN = 200181 ! NEVT = 1999
FILE = /castor/cern.ch/delphi/MCprod/cern/wphact24/v97g/182.7/wphact24_cc_182.7_80.4_200182.xsdst ! RUN = 200182 ! NEVT = 1999
FILE = /castor/cern.ch/delphi/MCprod/cern/wphact24/v97g/182.7/wphact24_cc_182.7_80.4_200183.xsdst ! RUN = 200183 ! NEVT = 1998
FILE = /castor/cern.ch/delphi/MCprod/cern/wphact24/v97g/182.7/wphact24_cc_182.7_80.4_200184.xsdst ! RUN = 200184 ! NEVT = 2000
FILE = /castor/cern.ch/delphi/MCprod/cern/wphact24/v97g/182.7/wphact24_cc_182.7_80.4_200185.xsdst ! RUN = 200185 ! NEVT = 1999
FILE = /castor/cern.ch/delphi/MCprod/cern/wphact24/v97g/182.7/wphact24_cc_182.7_80.4_200186.xsdst ! RUN = 200186 ! NEVT = 1999
FILE = /castor/cern.ch/delphi/MCprod/cern/wphact24/v97g/182.7/wphact24_cc_182.7_80.4_200187.xsdst ! RUN = 200187 ! NEVT = 2000
FILE = /castor/cern.ch/delphi/MCprod/cern/wphact24/v97g/182.7/wphact24_cc_182.7_80.4_200188.xsdst ! RUN = 200188 ! NEVT = 1998
FILE = /castor/cern.ch/delphi/MCprod/cern/wphact24/v97g/182.7/wphact24_cc_182.7_80.4_200189.xsdst ! RUN = 200189 ! NEVT = 1999
FILE = /castor/cern.ch/delphi/MCprod/cern/wphact24/v97g/182.7/wphact24_cc_182.7_80.4_200190.xsdst ! RUN = 200190 ! NEVT = 2000
FILE = /castor/cern.ch/delphi/MCprod/cern/wphact24/v97g/182.7/wphact24_cc_182.7_80.4_200191.xsdst ! RUN = 200191 ! NEVT = 2000
FILE = /castor/cern.ch/delphi/MCprod/cern/wphact24/v97g/182.7/wphact24_cc_182.7_80.4_200192.xsdst ! RUN = 200192 ! NEVT = 2000
FILE = /castor/cern.ch/delphi/MCprod/cern/wphact24/v97g/182.7/wphact24_cc_182.7_80.4_200193.xsdst ! RUN = 200193 ! NEVT = 1997
FILE = /castor/cern.ch/delphi/MCprod/cern/wphact24/v97g/182.7/wphact24_cc_182.7_80.4_200194.xsdst ! RUN = 200194 ! NEVT = 1998
FILE = /castor/cern.ch/delphi/MCprod/cern/wphact24/v97g/182.7/wphact24_cc_182.7_80.4_200195.xsdst ! RUN = 200195 ! NEVT = 1999
FILE = /castor/cern.ch/delphi/MCprod/cern/wphact24/v97g/182.7/wphact24_cc_182.7_80.4_200196.xsdst ! RUN = 200196 ! NEVT = 2000
FILE = /castor/cern.ch/delphi/MCprod/cern/wphact24/v97g/182.7/wphact24_cc_182.7_80.4_200197.xsdst ! RUN = 200197 ! NEVT = 2000
FILE = /castor/cern.ch/delphi/MCprod/cern/wphact24/v97g/182.7/wphact24_cc_182.7_80.4_200199.xsdst ! RUN = 200199 ! NEVT = 2000
FILE = /castor/cern.ch/delphi/MCprod/cern/wphact24/v97g/182.7/wphact24_cc_182.7_80.4_200200.xsdst ! RUN = 200200 ! NEVT = 2000
FILE = /castor/cern.ch/delphi/MCprod/cern/wphact24/v97g/182.7/wphact24_cc_182.7_80.4_200201.xsdst ! RUN = 200201 ! NEVT = 1999
FILE = /castor/cern.ch/delphi/MCprod/cern/wphact24/v97g/182.7/wphact24_cc_182.7_80.4_200202.xsdst ! RUN = 200202 ! NEVT = 1998
FILE = /castor/cern.ch/delphi/MCprod/cern/wphact24/v97g/182.7/wphact24_cc_182.7_80.4_200203.xsdst ! RUN = 200203 ! NEVT = 1999
FILE = /castor/cern.ch/delphi/MCprod/cern/wphact24/v97g/182.7/wphact24_cc_182.7_80.4_200204.xsdst ! RUN = 200204 ! NEVT = 1999
FILE = /castor/cern.ch/delphi/MCprod/cern/wphact24/v97g/182.7/wphact24_cc_182.7_80.4_200205.xsdst ! RUN = 200205 ! NEVT = 2000
FILE = /castor/cern.ch/delphi/MCprod/cern/wphact24/v97g/182.7/wphact24_cc_182.7_80.4_200206.xsdst ! RUN = 200206 ! NEVT = 174
FILE = /castor/cern.ch/delphi/MCprod/cern/wphact24/v97g/182.7/wphact24_cc_182.7_80.4_200207.xsdst ! RUN = 200207 ! NEVT = 2000
FILE = /castor/cern.ch/delphi/MCprod/cern/wphact24/v97g/182.7/wphact24_cc_182.7_80.4_200208.xsdst ! RUN = 200208 ! NEVT = 1999
FILE = /castor/cern.ch/delphi/MCprod/cern/wphact24/v97g/182.7/wphact24_cc_182.7_80.4_200209.xsdst ! RUN = 200209 ! NEVT = 1999
FILE = /castor/cern.ch/delphi/MCprod/cern/wphact24/v97g/182.7/wphact24_cc_182.7_80.4_200210.xsdst ! RUN = 200210 ! NEVT = 1999
FILE = /castor/cern.ch/delphi/MCprod/cern/wphact24/v97g/182.7/wphact24_cc_182.7_80.4_200211.xsdst ! RUN = 200211 ! NEVT = 1999
FILE = /castor/cern.ch/delphi/MCprod/cern/wphact24/v97g/182.7/wphact24_cc_182.7_80.4_200212.xsdst ! RUN = 200212 ! NEVT = 1999
FILE = /castor/cern.ch/delphi/MCprod/cern/wphact24/v97g/182.7/wphact24_cc_182.7_80.4_200213.xsdst ! RUN = 200213 ! NEVT = 2000
FILE = /castor/cern.ch/delphi/MCprod/cern/wphact24/v97g/182.7/wphact24_cc_182.7_80.4_200214.xsdst ! RUN = 200214 ! NEVT = 2000
FILE = /castor/cern.ch/delphi/MCprod/cern/wphact24/v97g/182.7/wphact24_cc_182.7_80.4_200215.xsdst ! RUN = 200215 ! NEVT = 1999
FILE = /castor/cern.ch/delphi/MCprod/cern/wphact24/v97g/182.7/wphact24_cc_182.7_80.4_200216.xsdst ! RUN = 200216 ! NEVT = 1996
FILE = /castor/cern.ch/delphi/MCprod/cern/wphact24/v97g/182.7/wphact24_cc_182.7_80.4_200217.xsdst ! RUN = 200217 ! NEVT = 1999
FILE = /castor/cern.ch/delphi/MCprod/cern/wphact24/v97g/182.7/wphact24_cc_182.7_80.4_200218.xsdst ! RUN = 200218 ! NEVT = 2000
FILE = /castor/cern.ch/delphi/MCprod/cern/wphact24/v97g/182.7/wphact24_cc_182.7_80.4_200219.xsdst ! RUN = 200219 ! NEVT = 2000
FILE = /castor/cern.ch/delphi/MCprod/cern/wphact24/v97g/182.7/wphact24_cc_182.7_80.4_200220.xsdst ! RUN = 200220 ! NEVT = 2000
FILE = /castor/cern.ch/delphi/MCprod/cern/wphact24/v97g/182.7/wphact24_cc_182.7_80.4_200221.xsdst ! RUN = 200221 ! NEVT = 1999
FILE = /castor/cern.ch/delphi/MCprod/cern/wphact24/v97g/182.7/wphact24_cc_182.7_80.4_200222.xsdst ! RUN = 200222 ! NEVT = 2000
FILE = /castor/cern.ch/delphi/MCprod/cern/wphact24/v97g/182.7/wphact24_cc_182.7_80.4_200223.xsdst ! RUN = 200223 ! NEVT = 2000
FILE = /castor/cern.ch/delphi/MCprod/cern/wphact24/v97g/182.7/wphact24_cc_182.7_80.4_200224.xsdst ! RUN = 200224 ! NEVT = 2000
FILE = /castor/cern.ch/delphi/MCprod/cern/wphact24/v97g/182.7/wphact24_cc_182.7_80.4_200225.xsdst ! RUN = 200225 ! NEVT = 1999
FILE = /castor/cern.ch/delphi/MCprod/cern/wphact24/v97g/182.7/wphact24_cc_182.7_80.4_200226.xsdst ! RUN = 200226 ! NEVT = 1999
FILE = /castor/cern.ch/delphi/MCprod/cern/wphact24/v97g/182.7/wphact24_cc_182.7_80.4_200227.xsdst ! RUN = 200227 ! NEVT = 2000
FILE = /castor/cern.ch/delphi/MCprod/cern/wphact24/v97g/182.7/wphact24_cc_182.7_80.4_200228.xsdst ! RUN = 200228 ! NEVT = 2000
FILE = /castor/cern.ch/delphi/MCprod/cern/wphact24/v97g/182.7/wphact24_cc_182.7_80.4_200229.xsdst ! RUN = 200229 ! NEVT = 1999
FILE = /castor/cern.ch/delphi/MCprod/cern/wphact24/v97g/182.7/wphact24_cc_182.7_80.4_200230.xsdst ! RUN = 200230 ! NEVT = 2000
FILE = /castor/cern.ch/delphi/MCprod/cern/wphact24/v97g/182.7/wphact24_cc_182.7_80.4_200231.xsdst ! RUN = 200231 ! NEVT = 2000
FILE = /castor/cern.ch/delphi/MCprod/cern/wphact24/v97g/182.7/wphact24_cc_182.7_80.4_200232.xsdst ! RUN = 200232 ! NEVT = 2000
FILE = /castor/cern.ch/delphi/MCprod/cern/wphact24/v97g/182.7/wphact24_cc_182.7_80.4_200234.xsdst ! RUN = 200234 ! NEVT = 1999
FILE = /castor/cern.ch/delphi/MCprod/cern/wphact24/v97g/182.7/wphact24_cc_182.7_80.4_200235.xsdst ! RUN = 200235 ! NEVT = 1998
FILE = /castor/cern.ch/delphi/MCprod/cern/wphact24/v97g/182.7/wphact24_cc_182.7_80.4_200236.xsdst ! RUN = 200236 ! NEVT = 1999
FILE = /castor/cern.ch/delphi/MCprod/cern/wphact24/v97g/182.7/wphact24_cc_182.7_80.4_200237.xsdst ! RUN = 200237 ! NEVT = 1999
FILE = /castor/cern.ch/delphi/MCprod/cern/wphact24/v97g/182.7/wphact24_cc_182.7_80.4_200238.xsdst ! RUN = 200238 ! NEVT = 1996
FILE = /castor/cern.ch/delphi/MCprod/cern/wphact24/v97g/182.7/wphact24_cc_182.7_80.4_200239.xsdst ! RUN = 200239 ! NEVT = 1998
FILE = /castor/cern.ch/delphi/MCprod/cern/wphact24/v97g/182.7/wphact24_cc_182.7_80.4_200240.xsdst ! RUN = 200240 ! NEVT = 1999
FILE = /castor/cern.ch/delphi/MCprod/cern/wphact24/v97g/182.7/wphact24_cc_182.7_80.4_200242.xsdst ! RUN = 200242 ! NEVT = 1999
FILE = /castor/cern.ch/delphi/MCprod/cern/wphact24/v97g/182.7/wphact24_cc_182.7_80.4_200243.xsdst ! RUN = 200243 ! NEVT = 1999
FILE = /castor/cern.ch/delphi/MCprod/cern/wphact24/v97g/182.7/wphact24_cc_182.7_80.4_200244.xsdst ! RUN = 200244 ! NEVT = 1999
FILE = /castor/cern.ch/delphi/MCprod/cern/wphact24/v97g/182.7/wphact24_cc_182.7_80.4_200245.xsdst ! RUN = 200245 ! NEVT = 1998
FILE = /castor/cern.ch/delphi/MCprod/cern/wphact24/v97g/182.7/wphact24_cc_182.7_80.4_200246.xsdst ! RUN = 200246 ! NEVT = 2000
FILE = /castor/cern.ch/delphi/MCprod/cern/wphact24/v97g/182.7/wphact24_cc_182.7_80.4_200247.xsdst ! RUN = 200247 ! NEVT = 1998
FILE = /castor/cern.ch/delphi/MCprod/cern/wphact24/v97g/182.7/wphact24_cc_182.7_80.4_200248.xsdst ! RUN = 200248 ! NEVT = 1999
FILE = /castor/cern.ch/delphi/MCprod/cern/wphact24/v97g/182.7/wphact24_cc_182.7_80.4_200249.xsdst ! RUN = 200249 ! NEVT = 1999
FILE = /castor/cern.ch/delphi/MCprod/cern/wphact24/v97g/182.7/wphact24_cc_182.7_80.4_200250.xsdst ! RUN = 200250 ! NEVT = 1999
FILE = /castor/cern.ch/delphi/MCprod/cern/wphact24/v97g/182.7/wphact24_cc_182.7_80.4_200251.xsdst ! RUN = 200251 ! NEVT = 1999
FILE = /castor/cern.ch/delphi/MCprod/cern/wphact24/v97g/182.7/wphact24_cc_182.7_80.4_200252.xsdst ! RUN = 200252 ! NEVT = 1998
FILE = /castor/cern.ch/delphi/MCprod/cern/wphact24/v97g/182.7/wphact24_cc_182.7_80.4_200253.xsdst ! RUN = 200253 ! NEVT = 1998
FILE = /castor/cern.ch/delphi/MCprod/cern/wphact24/v97g/182.7/wphact24_cc_182.7_80.4_200254.xsdst ! RUN = 200254 ! NEVT = 2000
FILE = /castor/cern.ch/delphi/MCprod/cern/wphact24/v97g/182.7/wphact24_cc_182.7_80.4_200255.xsdst ! RUN = 200255 ! NEVT = 1999
FILE = /castor/cern.ch/delphi/MCprod/cern/wphact24/v97g/182.7/wphact24_cc_182.7_80.4_200256.xsdst ! RUN = 200256 ! NEVT = 1999
FILE = /castor/cern.ch/delphi/MCprod/cern/wphact24/v97g/182.7/wphact24_cc_182.7_80.4_200257.xsdst ! RUN = 200257 ! NEVT = 2000
FILE = /castor/cern.ch/delphi/MCprod/cern/wphact24/v97g/182.7/wphact24_cc_182.7_80.4_200258.xsdst ! RUN = 200258 ! NEVT = 1999
FILE = /castor/cern.ch/delphi/MCprod/cern/wphact24/v97g/182.7/wphact24_cc_182.7_80.4_200259.xsdst ! RUN = 200259 ! NEVT = 1999
FILE = /castor/cern.ch/delphi/MCprod/cern/wphact24/v97g/182.7/wphact24_cc_182.7_80.4_200260.xsdst ! RUN = 200260 ! NEVT = 1999
FILE = /castor/cern.ch/delphi/MCprod/cern/wphact24/v97g/182.7/wphact24_cc_182.7_80.4_200261.xsdst ! RUN = 200261 ! NEVT = 2000
FILE = /castor/cern.ch/delphi/MCprod/cern/wphact24/v97g/182.7/wphact24_cc_182.7_80.4_200262.xsdst ! RUN = 200262 ! NEVT = 2000
FILE = /castor/cern.ch/delphi/MCprod/cern/wphact24/v97g/182.7/wphact24_cc_182.7_80.4_200263.xsdst ! RUN = 200263 ! NEVT = 2000
FILE = /castor/cern.ch/delphi/MCprod/cern/wphact24/v97g/182.7/wphact24_cc_182.7_80.4_200264.xsdst ! RUN = 200264 ! NEVT = 1999
FILE = /castor/cern.ch/delphi/MCprod/cern/wphact24/v97g/182.7/wphact24_cc_182.7_80.4_200265.xsdst ! RUN = 200265 ! NEVT = 1997
FILE = /castor/cern.ch/delphi/MCprod/cern/wphact24/v97g/182.7/wphact24_cc_182.7_80.4_200267.xsdst ! RUN = 200267 ! NEVT = 1998
FILE = /castor/cern.ch/delphi/MCprod/cern/wphact24/v97g/182.7/wphact24_cc_182.7_80.4_200268.xsdst ! RUN = 200268 ! NEVT = 1999
FILE = /castor/cern.ch/delphi/MCprod/cern/wphact24/v97g/182.7/wphact24_cc_182.7_80.4_200269.xsdst ! RUN = 200269 ! NEVT = 2000
FILE = /castor/cern.ch/delphi/MCprod/cern/wphact24/v97g/182.7/wphact24_cc_182.7_80.4_200271.xsdst ! RUN = 200271 ! NEVT = 1999
FILE = /castor/cern.ch/delphi/MCprod/cern/wphact24/v97g/182.7/wphact24_cc_182.7_80.4_200272.xsdst ! RUN = 200272 ! NEVT = 1999
FILE = /castor/cern.ch/delphi/MCprod/cern/wphact24/v97g/182.7/wphact24_cc_182.7_80.4_200273.xsdst ! RUN = 200273 ! NEVT = 1998
FILE = /castor/cern.ch/delphi/MCprod/cern/wphact24/v97g/182.7/wphact24_cc_182.7_80.4_200274.xsdst ! RUN = 200274 ! NEVT = 1997
FILE = /castor/cern.ch/delphi/MCprod/cern/wphact24/v97g/182.7/wphact24_cc_182.7_80.4_200275.xsdst ! RUN = 200275 ! NEVT = 1999
FILE = /castor/cern.ch/delphi/MCprod/cern/wphact24/v97g/182.7/wphact24_cc_182.7_80.4_200276.xsdst ! RUN = 200276 ! NEVT = 1999
FILE = /castor/cern.ch/delphi/MCprod/cern/wphact24/v97g/182.7/wphact24_cc_182.7_80.4_200277.xsdst ! RUN = 200277 ! NEVT = 2000
FILE = /castor/cern.ch/delphi/MCprod/cern/wphact24/v97g/182.7/wphact24_cc_182.7_80.4_200278.xsdst ! RUN = 200278 ! NEVT = 1997
FILE = /castor/cern.ch/delphi/MCprod/cern/wphact24/v97g/182.7/wphact24_cc_182.7_80.4_200279.xsdst ! RUN = 200279 ! NEVT = 1999
FILE = /castor/cern.ch/delphi/MCprod/cern/wphact24/v97g/182.7/wphact24_cc_182.7_80.4_200280.xsdst ! RUN = 200280 ! NEVT = 1999
FILE = /castor/cern.ch/delphi/MCprod/cern/wphact24/v97g/182.7/wphact24_cc_182.7_80.4_200281.xsdst ! RUN = 200281 ! NEVT = 2000
FILE = /castor/cern.ch/delphi/MCprod/cern/wphact24/v97g/182.7/wphact24_cc_182.7_80.4_200282.xsdst ! RUN = 200282 ! NEVT = 1999
FILE = /castor/cern.ch/delphi/MCprod/cern/wphact24/v97g/182.7/wphact24_cc_182.7_80.4_200283.xsdst ! RUN = 200283 ! NEVT = 1998
FILE = /castor/cern.ch/delphi/MCprod/cern/wphact24/v97g/182.7/wphact24_cc_182.7_80.4_200284.xsdst ! RUN = 200284 ! NEVT = 2000
FILE = /castor/cern.ch/delphi/MCprod/cern/wphact24/v97g/182.7/wphact24_cc_182.7_80.4_200285.xsdst ! RUN = 200285 ! NEVT = 1999
FILE = /castor/cern.ch/delphi/MCprod/cern/wphact24/v97g/182.7/wphact24_cc_182.7_80.4_200286.xsdst ! RUN = 200286 ! NEVT = 1999
FILE = /castor/cern.ch/delphi/MCprod/cern/wphact24/v97g/182.7/wphact24_cc_182.7_80.4_200287.xsdst ! RUN = 200287 ! NEVT = 1998
FILE = /castor/cern.ch/delphi/MCprod/cern/wphact24/v97g/182.7/wphact24_cc_182.7_80.4_200288.xsdst ! RUN = 200288 ! NEVT = 1999
FILE = /castor/cern.ch/delphi/MCprod/cern/wphact24/v97g/182.7/wphact24_cc_182.7_80.4_200289.xsdst ! RUN = 200289 ! NEVT = 1999
FILE = /castor/cern.ch/delphi/MCprod/cern/wphact24/v97g/182.7/wphact24_cc_182.7_80.4_200290.xsdst ! RUN = 200290 ! NEVT = 1999
FILE = /castor/cern.ch/delphi/MCprod/cern/wphact24/v97g/182.7/wphact24_cc_182.7_80.4_200291.xsdst ! RUN = 200291 ! NEVT = 1999
FILE = /castor/cern.ch/delphi/MCprod/cern/wphact24/v97g/182.7/wphact24_cc_182.7_80.4_200292.xsdst ! RUN = 200292 ! NEVT = 1999
FILE = /castor/cern.ch/delphi/MCprod/cern/wphact24/v97g/182.7/wphact24_cc_182.7_80.4_200293.xsdst ! RUN = 200293 ! NEVT = 2000
FILE = /castor/cern.ch/delphi/MCprod/cern/wphact24/v97g/182.7/wphact24_cc_182.7_80.4_200294.xsdst ! RUN = 200294 ! NEVT = 2000
FILE = /castor/cern.ch/delphi/MCprod/cern/wphact24/v97g/182.7/wphact24_cc_182.7_80.4_200295.xsdst ! RUN = 200295 ! NEVT = 2000
FILE = /castor/cern.ch/delphi/MCprod/cern/wphact24/v97g/182.7/wphact24_cc_182.7_80.4_200296.xsdst ! RUN = 200296 ! NEVT = 2000
FILE = /castor/cern.ch/delphi/MCprod/cern/wphact24/v97g/182.7/wphact24_cc_182.7_80.4_200297.xsdst ! RUN = 200297 ! NEVT = 2000
FILE = /castor/cern.ch/delphi/MCprod/cern/wphact24/v97g/182.7/wphact24_cc_182.7_80.4_200298.xsdst ! RUN = 200298 ! NEVT = 2000
FILE = /castor/cern.ch/delphi/MCprod/cern/wphact24/v97g/182.7/wphact24_cc_182.7_80.4_200299.xsdst ! RUN = 200299 ! NEVT = 1996
FILE = /castor/cern.ch/delphi/MCprod/cern/wphact24/v97g/182.7/wphact24_cc_182.7_80.4_200300.xsdst ! RUN = 200300 ! NEVT = 2000
FILE = /castor/cern.ch/delphi/MCprod/cern/wphact24/v97g/182.7/wphact24_cc_182.7_80.4_200301.xsdst ! RUN = 200301 ! NEVT = 2000
FILE = /castor/cern.ch/delphi/MCprod/cern/wphact24/v97g/182.7/wphact24_cc_182.7_80.4_200302.xsdst ! RUN = 200302 ! NEVT = 1999
FILE = /castor/cern.ch/delphi/MCprod/cern/wphact24/v97g/182.7/wphact24_cc_182.7_80.4_200303.xsdst ! RUN = 200303 ! NEVT = 2000
FILE = /castor/cern.ch/delphi/MCprod/cern/wphact24/v97g/182.7/wphact24_cc_182.7_80.4_200304.xsdst ! RUN = 200304 ! NEVT = 2000
FILE = /castor/cern.ch/delphi/MCprod/cern/wphact24/v97g/182.7/wphact24_cc_182.7_80.4_200305.xsdst ! RUN = 200305 ! NEVT = 1999
FILE = /castor/cern.ch/delphi/MCprod/cern/wphact24/v97g/182.7/wphact24_cc_182.7_80.4_200306.xsdst ! RUN = 200306 ! NEVT = 1999
FILE = /castor/cern.ch/delphi/MCprod/cern/wphact24/v97g/182.7/wphact24_cc_182.7_80.4_200307.xsdst ! RUN = 200307 ! NEVT = 1999
FILE = /castor/cern.ch/delphi/MCprod/cern/wphact24/v97g/182.7/wphact24_cc_182.7_80.4_200308.xsdst ! RUN = 200308 ! NEVT = 1999
FILE = /castor/cern.ch/delphi/MCprod/cern/wphact24/v97g/182.7/wphact24_cc_182.7_80.4_200309.xsdst ! RUN = 200309 ! NEVT = 1999
FILE = /castor/cern.ch/delphi/MCprod/cern/wphact24/v97g/182.7/wphact24_cc_182.7_80.4_200310.xsdst ! RUN = 200310 ! NEVT = 1998
FILE = /castor/cern.ch/delphi/MCprod/cern/wphact24/v97g/182.7/wphact24_cc_182.7_80.4_200311.xsdst ! RUN = 200311 ! NEVT = 1999
FILE = /castor/cern.ch/delphi/MCprod/cern/wphact24/v97g/182.7/wphact24_cc_182.7_80.4_200312.xsdst ! RUN = 200312 ! NEVT = 2000
FILE = /castor/cern.ch/delphi/MCprod/cern/wphact24/v97g/182.7/wphact24_cc_182.7_80.4_200313.xsdst ! RUN = 200313 ! NEVT = 2000
FILE = /castor/cern.ch/delphi/MCprod/cern/wphact24/v97g/182.7/wphact24_cc_182.7_80.4_200314.xsdst ! RUN = 200314 ! NEVT = 1999
FILE = /castor/cern.ch/delphi/MCprod/cern/wphact24/v97g/182.7/wphact24_cc_182.7_80.4_200315.xsdst ! RUN = 200315 ! NEVT = 1998
FILE = /castor/cern.ch/delphi/MCprod/cern/wphact24/v97g/182.7/wphact24_cc_182.7_80.4_200316.xsdst ! RUN = 200316 ! NEVT = 2000
FILE = /castor/cern.ch/delphi/MCprod/cern/wphact24/v97g/182.7/wphact24_cc_182.7_80.4_200317.xsdst ! RUN = 200317 ! NEVT = 2000
FILE = /castor/cern.ch/delphi/MCprod/cern/wphact24/v97g/182.7/wphact24_cc_182.7_80.4_200318.xsdst ! RUN = 200318 ! NEVT = 2000
FILE = /castor/cern.ch/delphi/MCprod/cern/wphact24/v97g/182.7/wphact24_cc_182.7_80.4_200319.xsdst ! RUN = 200319 ! NEVT = 1997
FILE = /castor/cern.ch/delphi/MCprod/cern/wphact24/v97g/182.7/wphact24_cc_182.7_80.4_200320.xsdst ! RUN = 200320 ! NEVT = 2000
FILE = /castor/cern.ch/delphi/MCprod/cern/wphact24/v97g/182.7/wphact24_cc_182.7_80.4_200321.xsdst ! RUN = 200321 ! NEVT = 1999
FILE = /castor/cern.ch/delphi/MCprod/cern/wphact24/v97g/182.7/wphact24_cc_182.7_80.4_200322.xsdst ! RUN = 200322 ! NEVT = 2000
FILE = /castor/cern.ch/delphi/MCprod/cern/wphact24/v97g/182.7/wphact24_cc_182.7_80.4_200323.xsdst ! RUN = 200323 ! NEVT = 2000
FILE = /castor/cern.ch/delphi/MCprod/cern/wphact24/v97g/182.7/wphact24_cc_182.7_80.4_200324.xsdst ! RUN = 200324 ! NEVT = 2000
FILE = /castor/cern.ch/delphi/MCprod/cern/wphact24/v97g/182.7/wphact24_cc_182.7_80.4_200325.xsdst ! RUN = 200325 ! NEVT = 2000
FILE = /castor/cern.ch/delphi/MCprod/cern/wphact24/v97g/182.7/wphact24_cc_182.7_80.4_200326.xsdst ! RUN = 200326 ! NEVT = 2000
FILE = /castor/cern.ch/delphi/MCprod/cern/wphact24/v97g/182.7/wphact24_cc_182.7_80.4_200327.xsdst ! RUN = 200327 ! NEVT = 1999
FILE = /castor/cern.ch/delphi/MCprod/cern/wphact24/v97g/182.7/wphact24_cc_182.7_80.4_200328.xsdst ! RUN = 200328 ! NEVT = 2000
FILE = /castor/cern.ch/delphi/MCprod/cern/wphact24/v97g/182.7/wphact24_cc_182.7_80.4_200329.xsdst ! RUN = 200329 ! NEVT = 2000
FILE = /castor/cern.ch/delphi/MCprod/cern/wphact24/v97g/182.7/wphact24_cc_182.7_80.4_200330.xsdst ! RUN = 200330 ! NEVT = 1998
FILE = /castor/cern.ch/delphi/MCprod/cern/wphact24/v97g/182.7/wphact24_cc_182.7_80.4_200331.xsdst ! RUN = 200331 ! NEVT = 1998
FILE = /castor/cern.ch/delphi/MCprod/cern/wphact24/v97g/182.7/wphact24_cc_182.7_80.4_200332.xsdst ! RUN = 200332 ! NEVT = 2000
FILE = /castor/cern.ch/delphi/MCprod/cern/wphact24/v97g/182.7/wphact24_cc_182.7_80.4_200333.xsdst ! RUN = 200333 ! NEVT = 1999
FILE = /castor/cern.ch/delphi/MCprod/cern/wphact24/v97g/182.7/wphact24_cc_182.7_80.4_200334.xsdst ! RUN = 200334 ! NEVT = 2000
FILE = /castor/cern.ch/delphi/MCprod/cern/wphact24/v97g/182.7/wphact24_cc_182.7_80.4_200335.xsdst ! RUN = 200335 ! NEVT = 1999
FILE = /castor/cern.ch/delphi/MCprod/cern/wphact24/v97g/182.7/wphact24_cc_182.7_80.4_200336.xsdst ! RUN = 200336 ! NEVT = 1998
FILE = /castor/cern.ch/delphi/MCprod/cern/wphact24/v97g/182.7/wphact24_cc_182.7_80.4_200337.xsdst ! RUN = 200337 ! NEVT = 2000
FILE = /castor/cern.ch/delphi/MCprod/cern/wphact24/v97g/182.7/wphact24_cc_182.7_80.4_200338.xsdst ! RUN = 200338 ! NEVT = 1997
FILE = /castor/cern.ch/delphi/MCprod/cern/wphact24/v97g/182.7/wphact24_cc_182.7_80.4_200339.xsdst ! RUN = 200339 ! NEVT = 1998
FILE = /castor/cern.ch/delphi/MCprod/cern/wphact24/v97g/182.7/wphact24_cc_182.7_80.4_200340.xsdst ! RUN = 200340 ! NEVT = 2000
FILE = /castor/cern.ch/delphi/MCprod/cern/wphact24/v97g/182.7/wphact24_cc_182.7_80.4_200341.xsdst ! RUN = 200341 ! NEVT = 2000
FILE = /castor/cern.ch/delphi/MCprod/cern/wphact24/v97g/182.7/wphact24_cc_182.7_80.4_200342.xsdst ! RUN = 200342 ! NEVT = 1998
FILE = /castor/cern.ch/delphi/MCprod/cern/wphact24/v97g/182.7/wphact24_cc_182.7_80.4_200343.xsdst ! RUN = 200343 ! NEVT = 2000
FILE = /castor/cern.ch/delphi/MCprod/cern/wphact24/v97g/182.7/wphact24_cc_182.7_80.4_200344.xsdst ! RUN = 200344 ! NEVT = 1999
FILE = /castor/cern.ch/delphi/MCprod/cern/wphact24/v97g/182.7/wphact24_cc_182.7_80.4_200345.xsdst ! RUN = 200345 ! NEVT = 2000
FILE = /castor/cern.ch/delphi/MCprod/cern/wphact24/v97g/182.7/wphact24_cc_182.7_80.4_200346.xsdst ! RUN = 200346 ! NEVT = 1998
FILE = /castor/cern.ch/delphi/MCprod/cern/wphact24/v97g/182.7/wphact24_cc_182.7_80.4_200347.xsdst ! RUN = 200347 ! NEVT = 282
FILE = /castor/cern.ch/delphi/MCprod/cern/wphact24/v97g/182.7/wphact24_cc_182.7_80.4_200348.xsdst ! RUN = 200348 ! NEVT = 1999
FILE = /castor/cern.ch/delphi/MCprod/cern/wphact24/v97g/182.7/wphact24_cc_182.7_80.4_200349.xsdst ! RUN = 200349 ! NEVT = 2000
FILE = /castor/cern.ch/delphi/MCprod/cern/wphact24/v97g/182.7/wphact24_cc_182.7_80.4_200350.xsdst ! RUN = 200350 ! NEVT = 1998
FILE = /castor/cern.ch/delphi/MCprod/cern/wphact24/v97g/182.7/wphact24_cc_182.7_80.4_200351.xsdst ! RUN = 200351 ! NEVT = 1999
FILE = /castor/cern.ch/delphi/MCprod/cern/wphact24/v97g/182.7/wphact24_cc_182.7_80.4_200352.xsdst ! RUN = 200352 ! NEVT = 1998
FILE = /castor/cern.ch/delphi/MCprod/cern/wphact24/v97g/182.7/wphact24_cc_182.7_80.4_200353.xsdst ! RUN = 200353 ! NEVT = 2000
FILE = /castor/cern.ch/delphi/MCprod/cern/wphact24/v97g/182.7/wphact24_cc_182.7_80.4_200354.xsdst ! RUN = 200354 ! NEVT = 2000
FILE = /castor/cern.ch/delphi/MCprod/cern/wphact24/v97g/182.7/wphact24_cc_182.7_80.4_200355.xsdst ! RUN = 200355 ! NEVT = 2000
FILE = /castor/cern.ch/delphi/MCprod/cern/wphact24/v97g/182.7/wphact24_cc_182.7_80.4_200356.xsdst ! RUN = 200356 ! NEVT = 2000
FILE = /castor/cern.ch/delphi/MCprod/cern/wphact24/v97g/182.7/wphact24_cc_182.7_80.4_200357.xsdst ! RUN = 200357 ! NEVT = 1999
FILE = /castor/cern.ch/delphi/MCprod/cern/wphact24/v97g/182.7/wphact24_cc_182.7_80.4_200358.xsdst ! RUN = 200358 ! NEVT = 1999
FILE = /castor/cern.ch/delphi/MCprod/cern/wphact24/v97g/182.7/wphact24_cc_182.7_80.4_200359.xsdst ! RUN = 200359 ! NEVT = 2000
FILE = /castor/cern.ch/delphi/MCprod/cern/wphact24/v97g/182.7/wphact24_cc_182.7_80.4_200360.xsdst ! RUN = 200360 ! NEVT = 2000
FILE = /castor/cern.ch/delphi/MCprod/cern/wphact24/v97g/182.7/wphact24_cc_182.7_80.4_200361.xsdst ! RUN = 200361 ! NEVT = 1999
FILE = /castor/cern.ch/delphi/MCprod/cern/wphact24/v97g/182.7/wphact24_cc_182.7_80.4_200362.xsdst ! RUN = 200362 ! NEVT = 2000
FILE = /castor/cern.ch/delphi/MCprod/cern/wphact24/v97g/182.7/wphact24_cc_182.7_80.4_200363.xsdst ! RUN = 200363 ! NEVT = 1998
FILE = /castor/cern.ch/delphi/MCprod/cern/wphact24/v97g/182.7/wphact24_cc_182.7_80.4_200364.xsdst ! RUN = 200364 ! NEVT = 2000
FILE = /castor/cern.ch/delphi/MCprod/cern/wphact24/v97g/182.7/wphact24_cc_182.7_80.4_200365.xsdst ! RUN = 200365 ! NEVT = 1999
FILE = /castor/cern.ch/delphi/MCprod/cern/wphact24/v97g/182.7/wphact24_cc_182.7_80.4_200366.xsdst ! RUN = 200366 ! NEVT = 2000
FILE = /castor/cern.ch/delphi/MCprod/cern/wphact24/v97g/182.7/wphact24_cc_182.7_80.4_200367.xsdst ! RUN = 200367 ! NEVT = 2000
FILE = /castor/cern.ch/delphi/MCprod/cern/wphact24/v97g/182.7/wphact24_cc_182.7_80.4_200368.xsdst ! RUN = 200368 ! NEVT = 1999
FILE = /castor/cern.ch/delphi/MCprod/cern/wphact24/v97g/182.7/wphact24_cc_182.7_80.4_200369.xsdst ! RUN = 200369 ! NEVT = 2000
FILE = /castor/cern.ch/delphi/MCprod/cern/wphact24/v97g/182.7/wphact24_cc_182.7_80.4_200370.xsdst ! RUN = 200370 ! NEVT = 2000
FILE = /castor/cern.ch/delphi/MCprod/cern/wphact24/v97g/182.7/wphact24_cc_182.7_80.4_200371.xsdst ! RUN = 200371 ! NEVT = 2000
FILE = /castor/cern.ch/delphi/MCprod/cern/wphact24/v97g/182.7/wphact24_cc_182.7_80.4_200372.xsdst ! RUN = 200372 ! NEVT = 1999
FILE = /castor/cern.ch/delphi/MCprod/cern/wphact24/v97g/182.7/wphact24_cc_182.7_80.4_200373.xsdst ! RUN = 200373 ! NEVT = 2000
FILE = /castor/cern.ch/delphi/MCprod/cern/wphact24/v97g/182.7/wphact24_cc_182.7_80.4_200374.xsdst ! RUN = 200374 ! NEVT = 2000
FILE = /castor/cern.ch/delphi/MCprod/cern/wphact24/v97g/182.7/wphact24_cc_182.7_80.4_200375.xsdst ! RUN = 200375 ! NEVT = 2000
FILE = /castor/cern.ch/delphi/MCprod/cern/wphact24/v97g/182.7/wphact24_cc_182.7_80.4_200376.xsdst ! RUN = 200376 ! NEVT = 2000
FILE = /castor/cern.ch/delphi/MCprod/cern/wphact24/v97g/182.7/wphact24_cc_182.7_80.4_200377.xsdst ! RUN = 200377 ! NEVT = 1998
FILE = /castor/cern.ch/delphi/MCprod/cern/wphact24/v97g/182.7/wphact24_cc_182.7_80.4_200378.xsdst ! RUN = 200378 ! NEVT = 2000
FILE = /castor/cern.ch/delphi/MCprod/cern/wphact24/v97g/182.7/wphact24_cc_182.7_80.4_200379.xsdst ! RUN = 200379 ! NEVT = 2000
FILE = /castor/cern.ch/delphi/MCprod/cern/wphact24/v97g/182.7/wphact24_cc_182.7_80.4_200380.xsdst ! RUN = 200380 ! NEVT = 2000
FILE = /castor/cern.ch/delphi/MCprod/cern/wphact24/v97g/182.7/wphact24_cc_182.7_80.4_200381.xsdst ! RUN = 200381 ! NEVT = 2000
FILE = /castor/cern.ch/delphi/MCprod/cern/wphact24/v97g/182.7/wphact24_cc_182.7_80.4_200382.xsdst ! RUN = 200382 ! NEVT = 2000
FILE = /castor/cern.ch/delphi/MCprod/cern/wphact24/v97g/182.7/wphact24_cc_182.7_80.4_200383.xsdst ! RUN = 200383 ! NEVT = 1998
FILE = /castor/cern.ch/delphi/MCprod/cern/wphact24/v97g/182.7/wphact24_cc_182.7_80.4_200384.xsdst ! RUN = 200384 ! NEVT = 1999
FILE = /castor/cern.ch/delphi/MCprod/cern/wphact24/v97g/182.7/wphact24_cc_182.7_80.4_200385.xsdst ! RUN = 200385 ! NEVT = 2000
FILE = /castor/cern.ch/delphi/MCprod/cern/wphact24/v97g/182.7/wphact24_cc_182.7_80.4_200386.xsdst ! RUN = 200386 ! NEVT = 1999
FILE = /castor/cern.ch/delphi/MCprod/cern/wphact24/v97g/182.7/wphact24_cc_182.7_80.4_200387.xsdst ! RUN = 200387 ! NEVT = 2000
FILE = /castor/cern.ch/delphi/MCprod/cern/wphact24/v97g/182.7/wphact24_cc_182.7_80.4_200388.xsdst ! RUN = 200388 ! NEVT = 2000
FILE = /castor/cern.ch/delphi/MCprod/cern/wphact24/v97g/182.7/wphact24_cc_182.7_80.4_200389.xsdst ! RUN = 200389 ! NEVT = 1999
FILE = /castor/cern.ch/delphi/MCprod/cern/wphact24/v97g/182.7/wphact24_cc_182.7_80.4_200390.xsdst ! RUN = 200390 ! NEVT = 2000
FILE = /castor/cern.ch/delphi/MCprod/cern/wphact24/v97g/182.7/wphact24_cc_182.7_80.4_200391.xsdst ! RUN = 200391 ! NEVT = 1997
FILE = /castor/cern.ch/delphi/MCprod/cern/wphact24/v97g/182.7/wphact24_cc_182.7_80.4_200392.xsdst ! RUN = 200392 ! NEVT = 1999
FILE = /castor/cern.ch/delphi/MCprod/cern/wphact24/v97g/182.7/wphact24_cc_182.7_80.4_200393.xsdst ! RUN = 200393 ! NEVT = 1999
FILE = /castor/cern.ch/delphi/MCprod/cern/wphact24/v97g/182.7/wphact24_cc_182.7_80.4_200394.xsdst ! RUN = 200394 ! NEVT = 1999
FILE = /castor/cern.ch/delphi/MCprod/cern/wphact24/v97g/182.7/wphact24_cc_182.7_80.4_200395.xsdst ! RUN = 200395 ! NEVT = 1999
FILE = /castor/cern.ch/delphi/MCprod/cern/wphact24/v97g/182.7/wphact24_cc_182.7_80.4_200396.xsdst ! RUN = 200396 ! NEVT = 2000
FILE = /castor/cern.ch/delphi/MCprod/cern/wphact24/v97g/182.7/wphact24_cc_182.7_80.4_200397.xsdst ! RUN = 200397 ! NEVT = 1999
FILE = /castor/cern.ch/delphi/MCprod/cern/wphact24/v97g/182.7/wphact24_cc_182.7_80.4_200398.xsdst ! RUN = 200398 ! NEVT = 1998
FILE = /castor/cern.ch/delphi/MCprod/cern/wphact24/v97g/182.7/wphact24_cc_182.7_80.4_200399.xsdst ! RUN = 200399 ! NEVT = 1999
FILE = /castor/cern.ch/delphi/MCprod/cern/wphact24/v97g/182.7/wphact24_cc_182.7_80.4_200400.xsdst ! RUN = 200400 ! NEVT = 1998
FILE = /castor/cern.ch/delphi/MCprod/cern/wphact24/v97g/182.7/wphact24_cc_182.7_80.4_200401.xsdst ! RUN = 200401 ! NEVT = 1998
FILE = /castor/cern.ch/delphi/MCprod/cern/wphact24/v97g/182.7/wphact24_cc_182.7_80.4_200402.xsdst ! RUN = 200402 ! NEVT = 1159
FILE = /castor/cern.ch/delphi/MCprod/cern/wphact24/v97g/182.7/wphact24_cc_182.7_80.4_200403.xsdst ! RUN = 200403 ! NEVT = 1999
FILE = /castor/cern.ch/delphi/MCprod/cern/wphact24/v97g/182.7/wphact24_cc_182.7_80.4_200404.xsdst ! RUN = 200404 ! NEVT = 2000
FILE = /castor/cern.ch/delphi/MCprod/cern/wphact24/v97g/182.7/wphact24_cc_182.7_80.4_200405.xsdst ! RUN = 200405 ! NEVT = 2000
FILE = /castor/cern.ch/delphi/MCprod/cern/wphact24/v97g/182.7/wphact24_cc_182.7_80.4_200406.xsdst ! RUN = 200406 ! NEVT = 2000
FILE = /castor/cern.ch/delphi/MCprod/cern/wphact24/v97g/182.7/wphact24_cc_182.7_80.4_200407.xsdst ! RUN = 200407 ! NEVT = 1999
FILE = /castor/cern.ch/delphi/MCprod/cern/wphact24/v97g/182.7/wphact24_cc_182.7_80.4_200408.xsdst ! RUN = 200408 ! NEVT = 2000
FILE = /castor/cern.ch/delphi/MCprod/cern/wphact24/v97g/182.7/wphact24_cc_182.7_80.4_200410.xsdst ! RUN = 200410 ! NEVT = 2000
FILE = /castor/cern.ch/delphi/MCprod/cern/wphact24/v97g/182.7/wphact24_cc_182.7_80.4_200411.xsdst ! RUN = 200411 ! NEVT = 2000
FILE = /castor/cern.ch/delphi/MCprod/cern/wphact24/v97g/182.7/wphact24_cc_182.7_80.4_200412.xsdst ! RUN = 200412 ! NEVT = 2000
FILE = /castor/cern.ch/delphi/MCprod/cern/wphact24/v97g/182.7/wphact24_cc_182.7_80.4_200413.xsdst ! RUN = 200413 ! NEVT = 1998
FILE = /castor/cern.ch/delphi/MCprod/cern/wphact24/v97g/182.7/wphact24_cc_182.7_80.4_200414.xsdst ! RUN = 200414 ! NEVT = 2000
FILE = /castor/cern.ch/delphi/MCprod/cern/wphact24/v97g/182.7/wphact24_cc_182.7_80.4_200415.xsdst ! RUN = 200415 ! NEVT = 2000
FILE = /castor/cern.ch/delphi/MCprod/cern/wphact24/v97g/182.7/wphact24_cc_182.7_80.4_200416.xsdst ! RUN = 200416 ! NEVT = 1999
FILE = /castor/cern.ch/delphi/MCprod/cern/wphact24/v97g/182.7/wphact24_cc_182.7_80.4_200417.xsdst ! RUN = 200417 ! NEVT = 2000
FILE = /castor/cern.ch/delphi/MCprod/cern/wphact24/v97g/182.7/wphact24_cc_182.7_80.4_200418.xsdst ! RUN = 200418 ! NEVT = 1999
FILE = /castor/cern.ch/delphi/MCprod/cern/wphact24/v97g/182.7/wphact24_cc_182.7_80.4_200419.xsdst ! RUN = 200419 ! NEVT = 2000
FILE = /castor/cern.ch/delphi/MCprod/cern/wphact24/v97g/182.7/wphact24_cc_182.7_80.4_200420.xsdst ! RUN = 200420 ! NEVT = 1999
FILE = /castor/cern.ch/delphi/MCprod/cern/wphact24/v97g/182.7/wphact24_cc_182.7_80.4_200421.xsdst ! RUN = 200421 ! NEVT = 1998
FILE = /castor/cern.ch/delphi/MCprod/cern/wphact24/v97g/182.7/wphact24_cc_182.7_80.4_200422.xsdst ! RUN = 200422 ! NEVT = 1999
FILE = /castor/cern.ch/delphi/MCprod/cern/wphact24/v97g/182.7/wphact24_cc_182.7_80.4_200423.xsdst ! RUN = 200423 ! NEVT = 1997
FILE = /castor/cern.ch/delphi/MCprod/cern/wphact24/v97g/182.7/wphact24_cc_182.7_80.4_200424.xsdst ! RUN = 200424 ! NEVT = 1998
FILE = /castor/cern.ch/delphi/MCprod/cern/wphact24/v97g/182.7/wphact24_cc_182.7_80.4_200425.xsdst ! RUN = 200425 ! NEVT = 2000
FILE = /castor/cern.ch/delphi/MCprod/cern/wphact24/v97g/182.7/wphact24_cc_182.7_80.4_200426.xsdst ! RUN = 200426 ! NEVT = 1999
FILE = /castor/cern.ch/delphi/MCprod/cern/wphact24/v97g/182.7/wphact24_cc_182.7_80.4_200427.xsdst ! RUN = 200427 ! NEVT = 2000
FILE = /castor/cern.ch/delphi/MCprod/cern/wphact24/v97g/182.7/wphact24_cc_182.7_80.4_200428.xsdst ! RUN = 200428 ! NEVT = 1999
FILE = /castor/cern.ch/delphi/MCprod/cern/wphact24/v97g/182.7/wphact24_cc_182.7_80.4_200429.xsdst ! RUN = 200429 ! NEVT = 1999
FILE = /castor/cern.ch/delphi/MCprod/cern/wphact24/v97g/182.7/wphact24_cc_182.7_80.4_200430.xsdst ! RUN = 200430 ! NEVT = 1998
FILE = /castor/cern.ch/delphi/MCprod/cern/wphact24/v97g/182.7/wphact24_cc_182.7_80.4_200431.xsdst ! RUN = 200431 ! NEVT = 1999
FILE = /castor/cern.ch/delphi/MCprod/cern/wphact24/v97g/182.7/wphact24_cc_182.7_80.4_200432.xsdst ! RUN = 200432 ! NEVT = 1998
FILE = /castor/cern.ch/delphi/MCprod/cern/wphact24/v97g/182.7/wphact24_cc_182.7_80.4_200433.xsdst ! RUN = 200433 ! NEVT = 2000
FILE = /castor/cern.ch/delphi/MCprod/cern/wphact24/v97g/182.7/wphact24_cc_182.7_80.4_200434.xsdst ! RUN = 200434 ! NEVT = 2000
FILE = /castor/cern.ch/delphi/MCprod/cern/wphact24/v97g/182.7/wphact24_cc_182.7_80.4_200435.xsdst ! RUN = 200435 ! NEVT = 2000
FILE = /castor/cern.ch/delphi/MCprod/cern/wphact24/v97g/182.7/wphact24_cc_182.7_80.4_200436.xsdst ! RUN = 200436 ! NEVT = 2000
FILE = /castor/cern.ch/delphi/MCprod/cern/wphact24/v97g/182.7/wphact24_cc_182.7_80.4_200437.xsdst ! RUN = 200437 ! NEVT = 2000
FILE = /castor/cern.ch/delphi/MCprod/cern/wphact24/v97g/182.7/wphact24_cc_182.7_80.4_200438.xsdst ! RUN = 200438 ! NEVT = 2000
FILE = /castor/cern.ch/delphi/MCprod/cern/wphact24/v97g/182.7/wphact24_cc_182.7_80.4_200439.xsdst ! RUN = 200439 ! NEVT = 1998
FILE = /castor/cern.ch/delphi/MCprod/cern/wphact24/v97g/182.7/wphact24_cc_182.7_80.4_200440.xsdst ! RUN = 200440 ! NEVT = 1999
FILE = /castor/cern.ch/delphi/MCprod/cern/wphact24/v97g/182.7/wphact24_cc_182.7_80.4_200441.xsdst ! RUN = 200441 ! NEVT = 2000
FILE = /castor/cern.ch/delphi/MCprod/cern/wphact24/v97g/182.7/wphact24_cc_182.7_80.4_200442.xsdst ! RUN = 200442 ! NEVT = 1998
FILE = /castor/cern.ch/delphi/MCprod/cern/wphact24/v97g/182.7/wphact24_cc_182.7_80.4_200443.xsdst ! RUN = 200443 ! NEVT = 2000
FILE = /castor/cern.ch/delphi/MCprod/cern/wphact24/v97g/182.7/wphact24_cc_182.7_80.4_200444.xsdst ! RUN = 200444 ! NEVT = 1999
FILE = /castor/cern.ch/delphi/MCprod/cern/wphact24/v97g/182.7/wphact24_cc_182.7_80.4_200445.xsdst ! RUN = 200445 ! NEVT = 2000
FILE = /castor/cern.ch/delphi/MCprod/cern/wphact24/v97g/182.7/wphact24_cc_182.7_80.4_200446.xsdst ! RUN = 200446 ! NEVT = 2000
FILE = /castor/cern.ch/delphi/MCprod/cern/wphact24/v97g/182.7/wphact24_cc_182.7_80.4_200447.xsdst ! RUN = 200447 ! NEVT = 1999
FILE = /castor/cern.ch/delphi/MCprod/cern/wphact24/v97g/182.7/wphact24_cc_182.7_80.4_200448.xsdst ! RUN = 200448 ! NEVT = 1997
FILE = /castor/cern.ch/delphi/MCprod/cern/wphact24/v97g/182.7/wphact24_cc_182.7_80.4_200449.xsdst ! RUN = 200449 ! NEVT = 1999
FILE = /castor/cern.ch/delphi/MCprod/cern/wphact24/v97g/182.7/wphact24_cc_182.7_80.4_200450.xsdst ! RUN = 200450 ! NEVT = 2000
FILE = /castor/cern.ch/delphi/MCprod/cern/wphact24/v97g/182.7/wphact24_cc_182.7_80.4_200451.xsdst ! RUN = 200451 ! NEVT = 2000
FILE = /castor/cern.ch/delphi/MCprod/cern/wphact24/v97g/182.7/wphact24_cc_182.7_80.4_200452.xsdst ! RUN = 200452 ! NEVT = 2000
FILE = /castor/cern.ch/delphi/MCprod/cern/wphact24/v97g/182.7/wphact24_cc_182.7_80.4_200453.xsdst ! RUN = 200453 ! NEVT = 1999
FILE = /castor/cern.ch/delphi/MCprod/cern/wphact24/v97g/182.7/wphact24_cc_182.7_80.4_200454.xsdst ! RUN = 200454 ! NEVT = 1998
FILE = /castor/cern.ch/delphi/MCprod/cern/wphact24/v97g/182.7/wphact24_cc_182.7_80.4_200455.xsdst ! RUN = 200455 ! NEVT = 2000
FILE = /castor/cern.ch/delphi/MCprod/cern/wphact24/v97g/182.7/wphact24_cc_182.7_80.4_200456.xsdst ! RUN = 200456 ! NEVT = 1999
FILE = /castor/cern.ch/delphi/MCprod/cern/wphact24/v97g/182.7/wphact24_cc_182.7_80.4_200457.xsdst ! RUN = 200457 ! NEVT = 2000
FILE = /castor/cern.ch/delphi/MCprod/cern/wphact24/v97g/182.7/wphact24_cc_182.7_80.4_200458.xsdst ! RUN = 200458 ! NEVT = 2000
FILE = /castor/cern.ch/delphi/MCprod/cern/wphact24/v97g/182.7/wphact24_cc_182.7_80.4_200459.xsdst ! RUN = 200459 ! NEVT = 2000
FILE = /castor/cern.ch/delphi/MCprod/cern/wphact24/v97g/182.7/wphact24_cc_182.7_80.4_200460.xsdst ! RUN = 200460 ! NEVT = 1997
FILE = /castor/cern.ch/delphi/MCprod/cern/wphact24/v97g/182.7/wphact24_cc_182.7_80.4_200461.xsdst ! RUN = 200461 ! NEVT = 2000
FILE = /castor/cern.ch/delphi/MCprod/cern/wphact24/v97g/182.7/wphact24_cc_182.7_80.4_200462.xsdst ! RUN = 200462 ! NEVT = 2000
FILE = /castor/cern.ch/delphi/MCprod/cern/wphact24/v97g/182.7/wphact24_cc_182.7_80.4_200463.xsdst ! RUN = 200463 ! NEVT = 2000
FILE = /castor/cern.ch/delphi/MCprod/cern/wphact24/v97g/182.7/wphact24_cc_182.7_80.4_200464.xsdst ! RUN = 200464 ! NEVT = 2000
FILE = /castor/cern.ch/delphi/MCprod/cern/wphact24/v97g/182.7/wphact24_cc_182.7_80.4_200465.xsdst ! RUN = 200465 ! NEVT = 1998
FILE = /castor/cern.ch/delphi/MCprod/cern/wphact24/v97g/182.7/wphact24_cc_182.7_80.4_200466.xsdst ! RUN = 200466 ! NEVT = 2000
FILE = /castor/cern.ch/delphi/MCprod/cern/wphact24/v97g/182.7/wphact24_cc_182.7_80.4_200467.xsdst ! RUN = 200467 ! NEVT = 2000
FILE = /castor/cern.ch/delphi/MCprod/cern/wphact24/v97g/182.7/wphact24_cc_182.7_80.4_200468.xsdst ! RUN = 200468 ! NEVT = 1998
FILE = /castor/cern.ch/delphi/MCprod/cern/wphact24/v97g/182.7/wphact24_cc_182.7_80.4_200469.xsdst ! RUN = 200469 ! NEVT = 1998
FILE = /castor/cern.ch/delphi/MCprod/cern/wphact24/v97g/182.7/wphact24_cc_182.7_80.4_200470.xsdst ! RUN = 200470 ! NEVT = 1999
FILE = /castor/cern.ch/delphi/MCprod/cern/wphact24/v97g/182.7/wphact24_cc_182.7_80.4_200471.xsdst ! RUN = 200471 ! NEVT = 2000
FILE = /castor/cern.ch/delphi/MCprod/cern/wphact24/v97g/182.7/wphact24_cc_182.7_80.4_200472.xsdst ! RUN = 200472 ! NEVT = 1997
FILE = /castor/cern.ch/delphi/MCprod/cern/wphact24/v97g/182.7/wphact24_cc_182.7_80.4_200473.xsdst ! RUN = 200473 ! NEVT = 2000
FILE = /castor/cern.ch/delphi/MCprod/cern/wphact24/v97g/182.7/wphact24_cc_182.7_80.4_200474.xsdst ! RUN = 200474 ! NEVT = 2000
FILE = /castor/cern.ch/delphi/MCprod/cern/wphact24/v97g/182.7/wphact24_cc_182.7_80.4_200475.xsdst ! RUN = 200475 ! NEVT = 2000
FILE = /castor/cern.ch/delphi/MCprod/cern/wphact24/v97g/182.7/wphact24_cc_182.7_80.4_200476.xsdst ! RUN = 200476 ! NEVT = 1998
FILE = /castor/cern.ch/delphi/MCprod/cern/wphact24/v97g/182.7/wphact24_cc_182.7_80.4_200477.xsdst ! RUN = 200477 ! NEVT = 1999
FILE = /castor/cern.ch/delphi/MCprod/cern/wphact24/v97g/182.7/wphact24_cc_182.7_80.4_200478.xsdst ! RUN = 200478 ! NEVT = 1998
FILE = /castor/cern.ch/delphi/MCprod/cern/wphact24/v97g/182.7/wphact24_cc_182.7_80.4_200479.xsdst ! RUN = 200479 ! NEVT = 1999
FILE = /castor/cern.ch/delphi/MCprod/cern/wphact24/v97g/182.7/wphact24_cc_182.7_80.4_200480.xsdst ! RUN = 200480 ! NEVT = 1999
FILE = /castor/cern.ch/delphi/MCprod/cern/wphact24/v97g/182.7/wphact24_cc_182.7_80.4_200481.xsdst ! RUN = 200481 ! NEVT = 2000
FILE = /castor/cern.ch/delphi/MCprod/cern/wphact24/v97g/182.7/wphact24_cc_182.7_80.4_200482.xsdst ! RUN = 200482 ! NEVT = 1997
FILE = /castor/cern.ch/delphi/MCprod/cern/wphact24/v97g/182.7/wphact24_cc_182.7_80.4_200483.xsdst ! RUN = 200483 ! NEVT = 1999
FILE = /castor/cern.ch/delphi/MCprod/cern/wphact24/v97g/182.7/wphact24_cc_182.7_80.4_200484.xsdst ! RUN = 200484 ! NEVT = 1999
FILE = /castor/cern.ch/delphi/MCprod/cern/wphact24/v97g/182.7/wphact24_cc_182.7_80.4_200485.xsdst ! RUN = 200485 ! NEVT = 1998
FILE = /castor/cern.ch/delphi/MCprod/cern/wphact24/v97g/182.7/wphact24_cc_182.7_80.4_200486.xsdst ! RUN = 200486 ! NEVT = 2000
FILE = /castor/cern.ch/delphi/MCprod/cern/wphact24/v97g/182.7/wphact24_cc_182.7_80.4_200487.xsdst ! RUN = 200487 ! NEVT = 1999
FILE = /castor/cern.ch/delphi/MCprod/cern/wphact24/v97g/182.7/wphact24_cc_182.7_80.4_200488.xsdst ! RUN = 200488 ! NEVT = 2000
FILE = /castor/cern.ch/delphi/MCprod/cern/wphact24/v97g/182.7/wphact24_cc_182.7_80.4_200489.xsdst ! RUN = 200489 ! NEVT = 1999
FILE = /castor/cern.ch/delphi/MCprod/cern/wphact24/v97g/182.7/wphact24_cc_182.7_80.4_200490.xsdst ! RUN = 200490 ! NEVT = 2000
FILE = /castor/cern.ch/delphi/MCprod/cern/wphact24/v97g/182.7/wphact24_cc_182.7_80.4_200491.xsdst ! RUN = 200491 ! NEVT = 1998
FILE = /castor/cern.ch/delphi/MCprod/cern/wphact24/v97g/182.7/wphact24_cc_182.7_80.4_200492.xsdst ! RUN = 200492 ! NEVT = 2000
FILE = /castor/cern.ch/delphi/MCprod/cern/wphact24/v97g/182.7/wphact24_cc_182.7_80.4_200493.xsdst ! RUN = 200493 ! NEVT = 2000
FILE = /castor/cern.ch/delphi/MCprod/cern/wphact24/v97g/182.7/wphact24_cc_182.7_80.4_200494.xsdst ! RUN = 200494 ! NEVT = 1998
FILE = /castor/cern.ch/delphi/MCprod/cern/wphact24/v97g/182.7/wphact24_cc_182.7_80.4_200495.xsdst ! RUN = 200495 ! NEVT = 2000
FILE = /castor/cern.ch/delphi/MCprod/cern/wphact24/v97g/182.7/wphact24_cc_182.7_80.4_200496.xsdst ! RUN = 200496 ! NEVT = 1999
FILE = /castor/cern.ch/delphi/MCprod/cern/wphact24/v97g/182.7/wphact24_cc_182.7_80.4_200497.xsdst ! RUN = 200497 ! NEVT = 2000
FILE = /castor/cern.ch/delphi/MCprod/cern/wphact24/v97g/182.7/wphact24_cc_182.7_80.4_200498.xsdst ! RUN = 200498 ! NEVT = 1999
FILE = /castor/cern.ch/delphi/MCprod/cern/wphact24/v97g/182.7/wphact24_cc_182.7_80.4_200499.xsdst ! RUN = 200499 ! NEVT = 2000
FILE = /castor/cern.ch/delphi/MCprod/cern/wphact24/v97g/182.7/wphact24_cc_182.7_80.4_200500.xsdst ! RUN = 200500 ! NEVT = 1999
