*
*   Nickname     : xs_wphact211ncgg_e182.7_m80.4_c97_1l_g1
*   Generic Name : //CERN/DELPHI/P02_SIMD/XSDST/WPHACT211NCGG/E182.7/CERN/SUMT/C001-124
*   Description  :  Extended Short DST simulation 97_g1 done at ecms=182.7 , CERN
*---
*   Comments     : in total 1010684 events in 124 files time stamp: Wed Jan 23 12:16:35 2002
*---
*
*
*
*
*
FILE = /castor/cern.ch/delphi/MCprod/cern/wphact211/v97g/182.7/wphact211_ncgg_182.7_80.4_19001.xsdst ! RUN = 19001 ! NEVT = 8200
FILE = /castor/cern.ch/delphi/MCprod/cern/wphact211/v97g/182.7/wphact211_ncgg_182.7_80.4_19002.xsdst ! RUN = 19002 ! NEVT = 8200
FILE = /castor/cern.ch/delphi/MCprod/cern/wphact211/v97g/182.7/wphact211_ncgg_182.7_80.4_19003.xsdst ! RUN = 19003 ! NEVT = 8200
FILE = /castor/cern.ch/delphi/MCprod/cern/wphact211/v97g/182.7/wphact211_ncgg_182.7_80.4_19004.xsdst ! RUN = 19004 ! NEVT = 8200
FILE = /castor/cern.ch/delphi/MCprod/cern/wphact211/v97g/182.7/wphact211_ncgg_182.7_80.4_19005.xsdst ! RUN = 19005 ! NEVT = 8200
FILE = /castor/cern.ch/delphi/MCprod/cern/wphact211/v97g/182.7/wphact211_ncgg_182.7_80.4_19006.xsdst ! RUN = 19006 ! NEVT = 8200
FILE = /castor/cern.ch/delphi/MCprod/cern/wphact211/v97g/182.7/wphact211_ncgg_182.7_80.4_19007.xsdst ! RUN = 19007 ! NEVT = 8199
FILE = /castor/cern.ch/delphi/MCprod/cern/wphact211/v97g/182.7/wphact211_ncgg_182.7_80.4_19008.xsdst ! RUN = 19008 ! NEVT = 8200
FILE = /castor/cern.ch/delphi/MCprod/cern/wphact211/v97g/182.7/wphact211_ncgg_182.7_80.4_19009.xsdst ! RUN = 19009 ! NEVT = 8200
FILE = /castor/cern.ch/delphi/MCprod/cern/wphact211/v97g/182.7/wphact211_ncgg_182.7_80.4_19010.xsdst ! RUN = 19010 ! NEVT = 8200
FILE = /castor/cern.ch/delphi/MCprod/cern/wphact211/v97g/182.7/wphact211_ncgg_182.7_80.4_19011.xsdst ! RUN = 19011 ! NEVT = 8200
FILE = /castor/cern.ch/delphi/MCprod/cern/wphact211/v97g/182.7/wphact211_ncgg_182.7_80.4_19012.xsdst ! RUN = 19012 ! NEVT = 8200
FILE = /castor/cern.ch/delphi/MCprod/cern/wphact211/v97g/182.7/wphact211_ncgg_182.7_80.4_19013.xsdst ! RUN = 19013 ! NEVT = 8200
FILE = /castor/cern.ch/delphi/MCprod/cern/wphact211/v97g/182.7/wphact211_ncgg_182.7_80.4_19014.xsdst ! RUN = 19014 ! NEVT = 8199
FILE = /castor/cern.ch/delphi/MCprod/cern/wphact211/v97g/182.7/wphact211_ncgg_182.7_80.4_19015.xsdst ! RUN = 19015 ! NEVT = 8200
FILE = /castor/cern.ch/delphi/MCprod/cern/wphact211/v97g/182.7/wphact211_ncgg_182.7_80.4_19016.xsdst ! RUN = 19016 ! NEVT = 8200
FILE = /castor/cern.ch/delphi/MCprod/cern/wphact211/v97g/182.7/wphact211_ncgg_182.7_80.4_19017.xsdst ! RUN = 19017 ! NEVT = 8200
FILE = /castor/cern.ch/delphi/MCprod/cern/wphact211/v97g/182.7/wphact211_ncgg_182.7_80.4_19018.xsdst ! RUN = 19018 ! NEVT = 8200
FILE = /castor/cern.ch/delphi/MCprod/cern/wphact211/v97g/182.7/wphact211_ncgg_182.7_80.4_19019.xsdst ! RUN = 19019 ! NEVT = 8200
FILE = /castor/cern.ch/delphi/MCprod/cern/wphact211/v97g/182.7/wphact211_ncgg_182.7_80.4_19020.xsdst ! RUN = 19020 ! NEVT = 8200
FILE = /castor/cern.ch/delphi/MCprod/cern/wphact211/v97g/182.7/wphact211_ncgg_182.7_80.4_19021.xsdst ! RUN = 19021 ! NEVT = 8200
FILE = /castor/cern.ch/delphi/MCprod/cern/wphact211/v97g/182.7/wphact211_ncgg_182.7_80.4_19022.xsdst ! RUN = 19022 ! NEVT = 8200
FILE = /castor/cern.ch/delphi/MCprod/cern/wphact211/v97g/182.7/wphact211_ncgg_182.7_80.4_19023.xsdst ! RUN = 19023 ! NEVT = 8200
FILE = /castor/cern.ch/delphi/MCprod/cern/wphact211/v97g/182.7/wphact211_ncgg_182.7_80.4_19024.xsdst ! RUN = 19024 ! NEVT = 8200
FILE = /castor/cern.ch/delphi/MCprod/cern/wphact211/v97g/182.7/wphact211_ncgg_182.7_80.4_19025.xsdst ! RUN = 19025 ! NEVT = 8200
FILE = /castor/cern.ch/delphi/MCprod/cern/wphact211/v97g/182.7/wphact211_ncgg_182.7_80.4_19026.xsdst ! RUN = 19026 ! NEVT = 8200
FILE = /castor/cern.ch/delphi/MCprod/cern/wphact211/v97g/182.7/wphact211_ncgg_182.7_80.4_19027.xsdst ! RUN = 19027 ! NEVT = 8200
FILE = /castor/cern.ch/delphi/MCprod/cern/wphact211/v97g/182.7/wphact211_ncgg_182.7_80.4_19028.xsdst ! RUN = 19028 ! NEVT = 8200
FILE = /castor/cern.ch/delphi/MCprod/cern/wphact211/v97g/182.7/wphact211_ncgg_182.7_80.4_19030.xsdst ! RUN = 19030 ! NEVT = 8200
FILE = /castor/cern.ch/delphi/MCprod/cern/wphact211/v97g/182.7/wphact211_ncgg_182.7_80.4_19031.xsdst ! RUN = 19031 ! NEVT = 8200
FILE = /castor/cern.ch/delphi/MCprod/cern/wphact211/v97g/182.7/wphact211_ncgg_182.7_80.4_19032.xsdst ! RUN = 19032 ! NEVT = 8200
FILE = /castor/cern.ch/delphi/MCprod/cern/wphact211/v97g/182.7/wphact211_ncgg_182.7_80.4_19033.xsdst ! RUN = 19033 ! NEVT = 8200
FILE = /castor/cern.ch/delphi/MCprod/cern/wphact211/v97g/182.7/wphact211_ncgg_182.7_80.4_19034.xsdst ! RUN = 19034 ! NEVT = 8200
FILE = /castor/cern.ch/delphi/MCprod/cern/wphact211/v97g/182.7/wphact211_ncgg_182.7_80.4_19035.xsdst ! RUN = 19035 ! NEVT = 8200
FILE = /castor/cern.ch/delphi/MCprod/cern/wphact211/v97g/182.7/wphact211_ncgg_182.7_80.4_19036.xsdst ! RUN = 19036 ! NEVT = 8199
FILE = /castor/cern.ch/delphi/MCprod/cern/wphact211/v97g/182.7/wphact211_ncgg_182.7_80.4_19037.xsdst ! RUN = 19037 ! NEVT = 8200
FILE = /castor/cern.ch/delphi/MCprod/cern/wphact211/v97g/182.7/wphact211_ncgg_182.7_80.4_19038.xsdst ! RUN = 19038 ! NEVT = 8200
FILE = /castor/cern.ch/delphi/MCprod/cern/wphact211/v97g/182.7/wphact211_ncgg_182.7_80.4_19039.xsdst ! RUN = 19039 ! NEVT = 8200
FILE = /castor/cern.ch/delphi/MCprod/cern/wphact211/v97g/182.7/wphact211_ncgg_182.7_80.4_19040.xsdst ! RUN = 19040 ! NEVT = 8200
FILE = /castor/cern.ch/delphi/MCprod/cern/wphact211/v97g/182.7/wphact211_ncgg_182.7_80.4_19041.xsdst ! RUN = 19041 ! NEVT = 8200
FILE = /castor/cern.ch/delphi/MCprod/cern/wphact211/v97g/182.7/wphact211_ncgg_182.7_80.4_19042.xsdst ! RUN = 19042 ! NEVT = 8200
FILE = /castor/cern.ch/delphi/MCprod/cern/wphact211/v97g/182.7/wphact211_ncgg_182.7_80.4_19043.xsdst ! RUN = 19043 ! NEVT = 8200
FILE = /castor/cern.ch/delphi/MCprod/cern/wphact211/v97g/182.7/wphact211_ncgg_182.7_80.4_19044.xsdst ! RUN = 19044 ! NEVT = 8200
FILE = /castor/cern.ch/delphi/MCprod/cern/wphact211/v97g/182.7/wphact211_ncgg_182.7_80.4_19045.xsdst ! RUN = 19045 ! NEVT = 8199
FILE = /castor/cern.ch/delphi/MCprod/cern/wphact211/v97g/182.7/wphact211_ncgg_182.7_80.4_19046.xsdst ! RUN = 19046 ! NEVT = 8200
FILE = /castor/cern.ch/delphi/MCprod/cern/wphact211/v97g/182.7/wphact211_ncgg_182.7_80.4_19047.xsdst ! RUN = 19047 ! NEVT = 8200
FILE = /castor/cern.ch/delphi/MCprod/cern/wphact211/v97g/182.7/wphact211_ncgg_182.7_80.4_19048.xsdst ! RUN = 19048 ! NEVT = 8200
FILE = /castor/cern.ch/delphi/MCprod/cern/wphact211/v97g/182.7/wphact211_ncgg_182.7_80.4_19049.xsdst ! RUN = 19049 ! NEVT = 8200
FILE = /castor/cern.ch/delphi/MCprod/cern/wphact211/v97g/182.7/wphact211_ncgg_182.7_80.4_19050.xsdst ! RUN = 19050 ! NEVT = 8200
FILE = /castor/cern.ch/delphi/MCprod/cern/wphact211/v97g/182.7/wphact211_ncgg_182.7_80.4_19051.xsdst ! RUN = 19051 ! NEVT = 8200
FILE = /castor/cern.ch/delphi/MCprod/cern/wphact211/v97g/182.7/wphact211_ncgg_182.7_80.4_19052.xsdst ! RUN = 19052 ! NEVT = 8199
FILE = /castor/cern.ch/delphi/MCprod/cern/wphact211/v97g/182.7/wphact211_ncgg_182.7_80.4_19053.xsdst ! RUN = 19053 ! NEVT = 8200
FILE = /castor/cern.ch/delphi/MCprod/cern/wphact211/v97g/182.7/wphact211_ncgg_182.7_80.4_19054.xsdst ! RUN = 19054 ! NEVT = 8200
FILE = /castor/cern.ch/delphi/MCprod/cern/wphact211/v97g/182.7/wphact211_ncgg_182.7_80.4_19055.xsdst ! RUN = 19055 ! NEVT = 8200
FILE = /castor/cern.ch/delphi/MCprod/cern/wphact211/v97g/182.7/wphact211_ncgg_182.7_80.4_19056.xsdst ! RUN = 19056 ! NEVT = 8200
FILE = /castor/cern.ch/delphi/MCprod/cern/wphact211/v97g/182.7/wphact211_ncgg_182.7_80.4_19057.xsdst ! RUN = 19057 ! NEVT = 8200
FILE = /castor/cern.ch/delphi/MCprod/cern/wphact211/v97g/182.7/wphact211_ncgg_182.7_80.4_19058.xsdst ! RUN = 19058 ! NEVT = 2096
FILE = /castor/cern.ch/delphi/MCprod/cern/wphact211/v97g/182.7/wphact211_ncgg_182.7_80.4_19059.xsdst ! RUN = 19059 ! NEVT = 8200
FILE = /castor/cern.ch/delphi/MCprod/cern/wphact211/v97g/182.7/wphact211_ncgg_182.7_80.4_19060.xsdst ! RUN = 19060 ! NEVT = 8200
FILE = /castor/cern.ch/delphi/MCprod/cern/wphact211/v97g/182.7/wphact211_ncgg_182.7_80.4_19061.xsdst ! RUN = 19061 ! NEVT = 8200
FILE = /castor/cern.ch/delphi/MCprod/cern/wphact211/v97g/182.7/wphact211_ncgg_182.7_80.4_19062.xsdst ! RUN = 19062 ! NEVT = 8200
FILE = /castor/cern.ch/delphi/MCprod/cern/wphact211/v97g/182.7/wphact211_ncgg_182.7_80.4_19063.xsdst ! RUN = 19063 ! NEVT = 8200
FILE = /castor/cern.ch/delphi/MCprod/cern/wphact211/v97g/182.7/wphact211_ncgg_182.7_80.4_19064.xsdst ! RUN = 19064 ! NEVT = 8200
FILE = /castor/cern.ch/delphi/MCprod/cern/wphact211/v97g/182.7/wphact211_ncgg_182.7_80.4_19065.xsdst ! RUN = 19065 ! NEVT = 8200
FILE = /castor/cern.ch/delphi/MCprod/cern/wphact211/v97g/182.7/wphact211_ncgg_182.7_80.4_19066.xsdst ! RUN = 19066 ! NEVT = 8200
FILE = /castor/cern.ch/delphi/MCprod/cern/wphact211/v97g/182.7/wphact211_ncgg_182.7_80.4_19067.xsdst ! RUN = 19067 ! NEVT = 8200
FILE = /castor/cern.ch/delphi/MCprod/cern/wphact211/v97g/182.7/wphact211_ncgg_182.7_80.4_19068.xsdst ! RUN = 19068 ! NEVT = 8200
FILE = /castor/cern.ch/delphi/MCprod/cern/wphact211/v97g/182.7/wphact211_ncgg_182.7_80.4_19069.xsdst ! RUN = 19069 ! NEVT = 8200
FILE = /castor/cern.ch/delphi/MCprod/cern/wphact211/v97g/182.7/wphact211_ncgg_182.7_80.4_19070.xsdst ! RUN = 19070 ! NEVT = 8200
FILE = /castor/cern.ch/delphi/MCprod/cern/wphact211/v97g/182.7/wphact211_ncgg_182.7_80.4_19071.xsdst ! RUN = 19071 ! NEVT = 8200
FILE = /castor/cern.ch/delphi/MCprod/cern/wphact211/v97g/182.7/wphact211_ncgg_182.7_80.4_19072.xsdst ! RUN = 19072 ! NEVT = 8200
FILE = /castor/cern.ch/delphi/MCprod/cern/wphact211/v97g/182.7/wphact211_ncgg_182.7_80.4_19073.xsdst ! RUN = 19073 ! NEVT = 8200
FILE = /castor/cern.ch/delphi/MCprod/cern/wphact211/v97g/182.7/wphact211_ncgg_182.7_80.4_19074.xsdst ! RUN = 19074 ! NEVT = 8200
FILE = /castor/cern.ch/delphi/MCprod/cern/wphact211/v97g/182.7/wphact211_ncgg_182.7_80.4_19075.xsdst ! RUN = 19075 ! NEVT = 8200
FILE = /castor/cern.ch/delphi/MCprod/cern/wphact211/v97g/182.7/wphact211_ncgg_182.7_80.4_19076.xsdst ! RUN = 19076 ! NEVT = 8200
FILE = /castor/cern.ch/delphi/MCprod/cern/wphact211/v97g/182.7/wphact211_ncgg_182.7_80.4_19077.xsdst ! RUN = 19077 ! NEVT = 8200
FILE = /castor/cern.ch/delphi/MCprod/cern/wphact211/v97g/182.7/wphact211_ncgg_182.7_80.4_19078.xsdst ! RUN = 19078 ! NEVT = 8200
FILE = /castor/cern.ch/delphi/MCprod/cern/wphact211/v97g/182.7/wphact211_ncgg_182.7_80.4_19079.xsdst ! RUN = 19079 ! NEVT = 8200
FILE = /castor/cern.ch/delphi/MCprod/cern/wphact211/v97g/182.7/wphact211_ncgg_182.7_80.4_19080.xsdst ! RUN = 19080 ! NEVT = 8200
FILE = /castor/cern.ch/delphi/MCprod/cern/wphact211/v97g/182.7/wphact211_ncgg_182.7_80.4_19081.xsdst ! RUN = 19081 ! NEVT = 8200
FILE = /castor/cern.ch/delphi/MCprod/cern/wphact211/v97g/182.7/wphact211_ncgg_182.7_80.4_19082.xsdst ! RUN = 19082 ! NEVT = 8200
FILE = /castor/cern.ch/delphi/MCprod/cern/wphact211/v97g/182.7/wphact211_ncgg_182.7_80.4_19083.xsdst ! RUN = 19083 ! NEVT = 8198
FILE = /castor/cern.ch/delphi/MCprod/cern/wphact211/v97g/182.7/wphact211_ncgg_182.7_80.4_19084.xsdst ! RUN = 19084 ! NEVT = 8200
FILE = /castor/cern.ch/delphi/MCprod/cern/wphact211/v97g/182.7/wphact211_ncgg_182.7_80.4_19085.xsdst ! RUN = 19085 ! NEVT = 8200
FILE = /castor/cern.ch/delphi/MCprod/cern/wphact211/v97g/182.7/wphact211_ncgg_182.7_80.4_19086.xsdst ! RUN = 19086 ! NEVT = 8200
FILE = /castor/cern.ch/delphi/MCprod/cern/wphact211/v97g/182.7/wphact211_ncgg_182.7_80.4_19087.xsdst ! RUN = 19087 ! NEVT = 8199
FILE = /castor/cern.ch/delphi/MCprod/cern/wphact211/v97g/182.7/wphact211_ncgg_182.7_80.4_19088.xsdst ! RUN = 19088 ! NEVT = 8200
FILE = /castor/cern.ch/delphi/MCprod/cern/wphact211/v97g/182.7/wphact211_ncgg_182.7_80.4_19089.xsdst ! RUN = 19089 ! NEVT = 8200
FILE = /castor/cern.ch/delphi/MCprod/cern/wphact211/v97g/182.7/wphact211_ncgg_182.7_80.4_19090.xsdst ! RUN = 19090 ! NEVT = 8200
FILE = /castor/cern.ch/delphi/MCprod/cern/wphact211/v97g/182.7/wphact211_ncgg_182.7_80.4_19091.xsdst ! RUN = 19091 ! NEVT = 8200
FILE = /castor/cern.ch/delphi/MCprod/cern/wphact211/v97g/182.7/wphact211_ncgg_182.7_80.4_19092.xsdst ! RUN = 19092 ! NEVT = 8200
FILE = /castor/cern.ch/delphi/MCprod/cern/wphact211/v97g/182.7/wphact211_ncgg_182.7_80.4_19093.xsdst ! RUN = 19093 ! NEVT = 8200
FILE = /castor/cern.ch/delphi/MCprod/cern/wphact211/v97g/182.7/wphact211_ncgg_182.7_80.4_19094.xsdst ! RUN = 19094 ! NEVT = 8199
FILE = /castor/cern.ch/delphi/MCprod/cern/wphact211/v97g/182.7/wphact211_ncgg_182.7_80.4_19095.xsdst ! RUN = 19095 ! NEVT = 8200
FILE = /castor/cern.ch/delphi/MCprod/cern/wphact211/v97g/182.7/wphact211_ncgg_182.7_80.4_19096.xsdst ! RUN = 19096 ! NEVT = 8200
FILE = /castor/cern.ch/delphi/MCprod/cern/wphact211/v97g/182.7/wphact211_ncgg_182.7_80.4_19097.xsdst ! RUN = 19097 ! NEVT = 8199
FILE = /castor/cern.ch/delphi/MCprod/cern/wphact211/v97g/182.7/wphact211_ncgg_182.7_80.4_19098.xsdst ! RUN = 19098 ! NEVT = 8200
FILE = /castor/cern.ch/delphi/MCprod/cern/wphact211/v97g/182.7/wphact211_ncgg_182.7_80.4_19099.xsdst ! RUN = 19099 ! NEVT = 8200
FILE = /castor/cern.ch/delphi/MCprod/cern/wphact211/v97g/182.7/wphact211_ncgg_182.7_80.4_19100.xsdst ! RUN = 19100 ! NEVT = 8199
FILE = /castor/cern.ch/delphi/MCprod/cern/wphact211/v97g/182.7/wphact211_ncgg_182.7_80.4_19101.xsdst ! RUN = 19101 ! NEVT = 8200
FILE = /castor/cern.ch/delphi/MCprod/cern/wphact211/v97g/182.7/wphact211_ncgg_182.7_80.4_19102.xsdst ! RUN = 19102 ! NEVT = 8200
FILE = /castor/cern.ch/delphi/MCprod/cern/wphact211/v97g/182.7/wphact211_ncgg_182.7_80.4_19103.xsdst ! RUN = 19103 ! NEVT = 8200
FILE = /castor/cern.ch/delphi/MCprod/cern/wphact211/v97g/182.7/wphact211_ncgg_182.7_80.4_19104.xsdst ! RUN = 19104 ! NEVT = 8200
FILE = /castor/cern.ch/delphi/MCprod/cern/wphact211/v97g/182.7/wphact211_ncgg_182.7_80.4_19105.xsdst ! RUN = 19105 ! NEVT = 8200
FILE = /castor/cern.ch/delphi/MCprod/cern/wphact211/v97g/182.7/wphact211_ncgg_182.7_80.4_19106.xsdst ! RUN = 19106 ! NEVT = 8200
FILE = /castor/cern.ch/delphi/MCprod/cern/wphact211/v97g/182.7/wphact211_ncgg_182.7_80.4_19107.xsdst ! RUN = 19107 ! NEVT = 8199
FILE = /castor/cern.ch/delphi/MCprod/cern/wphact211/v97g/182.7/wphact211_ncgg_182.7_80.4_19108.xsdst ! RUN = 19108 ! NEVT = 8200
FILE = /castor/cern.ch/delphi/MCprod/cern/wphact211/v97g/182.7/wphact211_ncgg_182.7_80.4_19109.xsdst ! RUN = 19109 ! NEVT = 8200
FILE = /castor/cern.ch/delphi/MCprod/cern/wphact211/v97g/182.7/wphact211_ncgg_182.7_80.4_19110.xsdst ! RUN = 19110 ! NEVT = 8200
FILE = /castor/cern.ch/delphi/MCprod/cern/wphact211/v97g/182.7/wphact211_ncgg_182.7_80.4_19111.xsdst ! RUN = 19111 ! NEVT = 8200
FILE = /castor/cern.ch/delphi/MCprod/cern/wphact211/v97g/182.7/wphact211_ncgg_182.7_80.4_19112.xsdst ! RUN = 19112 ! NEVT = 8200
FILE = /castor/cern.ch/delphi/MCprod/cern/wphact211/v97g/182.7/wphact211_ncgg_182.7_80.4_19113.xsdst ! RUN = 19113 ! NEVT = 8200
FILE = /castor/cern.ch/delphi/MCprod/cern/wphact211/v97g/182.7/wphact211_ncgg_182.7_80.4_19114.xsdst ! RUN = 19114 ! NEVT = 8200
FILE = /castor/cern.ch/delphi/MCprod/cern/wphact211/v97g/182.7/wphact211_ncgg_182.7_80.4_19115.xsdst ! RUN = 19115 ! NEVT = 8200
FILE = /castor/cern.ch/delphi/MCprod/cern/wphact211/v97g/182.7/wphact211_ncgg_182.7_80.4_19116.xsdst ! RUN = 19116 ! NEVT = 8200
FILE = /castor/cern.ch/delphi/MCprod/cern/wphact211/v97g/182.7/wphact211_ncgg_182.7_80.4_19117.xsdst ! RUN = 19117 ! NEVT = 8200
FILE = /castor/cern.ch/delphi/MCprod/cern/wphact211/v97g/182.7/wphact211_ncgg_182.7_80.4_19118.xsdst ! RUN = 19118 ! NEVT = 8200
FILE = /castor/cern.ch/delphi/MCprod/cern/wphact211/v97g/182.7/wphact211_ncgg_182.7_80.4_19119.xsdst ! RUN = 19119 ! NEVT = 8200
FILE = /castor/cern.ch/delphi/MCprod/cern/wphact211/v97g/182.7/wphact211_ncgg_182.7_80.4_19120.xsdst ! RUN = 19120 ! NEVT = 8200
FILE = /castor/cern.ch/delphi/MCprod/cern/wphact211/v97g/182.7/wphact211_ncgg_182.7_80.4_19121.xsdst ! RUN = 19121 ! NEVT = 8200
FILE = /castor/cern.ch/delphi/MCprod/cern/wphact211/v97g/182.7/wphact211_ncgg_182.7_80.4_19122.xsdst ! RUN = 19122 ! NEVT = 8200
FILE = /castor/cern.ch/delphi/MCprod/cern/wphact211/v97g/182.7/wphact211_ncgg_182.7_80.4_19123.xsdst ! RUN = 19123 ! NEVT = 8200
FILE = /castor/cern.ch/delphi/MCprod/cern/wphact211/v97g/182.7/wphact211_ncgg_182.7_80.4_19124.xsdst ! RUN = 19124 ! NEVT = 8200
FILE = /castor/cern.ch/delphi/MCprod/cern/wphact211/v97g/182.7/wphact211_ncgg_182.7_80.4_19125.xsdst ! RUN = 19125 ! NEVT = 8200
