# index of html fragments. Provides additional information for sorting files. DO NOT REMOVE.
#File Name                                       year processing   category      files          events     energy       mass      mass2       labo
xs_zgpy_e91_li99_lambda100_a1                   1999      v99a1      2FERM        296               0         91          -          -       live
xs_zgpy_e91_li99_lambda500_a1                   1999      v99a1      2FERM        295               0         91          -          -       live
