*
*   Nickname     : xs_hzha03pyth6156hzbq_e199.5_m50_m20_c99_1l_e1
*   Generic Name : //CERN/DELPHI/P02_SIMD/XSDST/HZHA03PYTH6156HZBQ/E199.5/CERN/SUMT/C001-40
*   Description  :  Extended Short DST simulation 99e1 done at ecms=199.5 , CERN
*---
*   Comments     : in total 9363 events in 40 files time stamp: Mon Apr 22 10:10:28 2002
*---
*
*
*
*
*
FILE = /castor/cern.ch/delphi/MCprod/cern/hzha03pyth6156/v99e/199.5/hzha03pyth6156_hzbq_199.5_50_20_5207.xsdst ! RUN = 5207 ! NEVT = 250
FILE = /castor/cern.ch/delphi/MCprod/cern/hzha03pyth6156/v99e/199.5/hzha03pyth6156_hzbq_199.5_50_20_5208.xsdst ! RUN = 5208 ! NEVT = 249
FILE = /castor/cern.ch/delphi/MCprod/cern/hzha03pyth6156/v99e/199.5/hzha03pyth6156_hzbq_199.5_50_20_5209.xsdst ! RUN = 5209 ! NEVT = 250
FILE = /castor/cern.ch/delphi/MCprod/cern/hzha03pyth6156/v99e/199.5/hzha03pyth6156_hzbq_199.5_50_20_5210.xsdst ! RUN = 5210 ! NEVT = 250
FILE = /castor/cern.ch/delphi/MCprod/cern/hzha03pyth6156/v99e/199.5/hzha03pyth6156_hzbq_199.5_50_20_5211.xsdst ! RUN = 5211 ! NEVT = 44
FILE = /castor/cern.ch/delphi/MCprod/cern/hzha03pyth6156/v99e/199.5/hzha03pyth6156_hzbq_199.5_50_20_5212.xsdst ! RUN = 5212 ! NEVT = 250
FILE = /castor/cern.ch/delphi/MCprod/cern/hzha03pyth6156/v99e/199.5/hzha03pyth6156_hzbq_199.5_50_20_5213.xsdst ! RUN = 5213 ! NEVT = 250
FILE = /castor/cern.ch/delphi/MCprod/cern/hzha03pyth6156/v99e/199.5/hzha03pyth6156_hzbq_199.5_50_20_5214.xsdst ! RUN = 5214 ! NEVT = 250
FILE = /castor/cern.ch/delphi/MCprod/cern/hzha03pyth6156/v99e/199.5/hzha03pyth6156_hzbq_199.5_50_20_5215.xsdst ! RUN = 5215 ! NEVT = 250
FILE = /castor/cern.ch/delphi/MCprod/cern/hzha03pyth6156/v99e/199.5/hzha03pyth6156_hzbq_199.5_50_20_5216.xsdst ! RUN = 5216 ! NEVT = 250
FILE = /castor/cern.ch/delphi/MCprod/cern/hzha03pyth6156/v99e/199.5/hzha03pyth6156_hzbq_199.5_50_20_5217.xsdst ! RUN = 5217 ! NEVT = 250
FILE = /castor/cern.ch/delphi/MCprod/cern/hzha03pyth6156/v99e/199.5/hzha03pyth6156_hzbq_199.5_50_20_5218.xsdst ! RUN = 5218 ! NEVT = 249
FILE = /castor/cern.ch/delphi/MCprod/cern/hzha03pyth6156/v99e/199.5/hzha03pyth6156_hzbq_199.5_50_20_5219.xsdst ! RUN = 5219 ! NEVT = 250
FILE = /castor/cern.ch/delphi/MCprod/cern/hzha03pyth6156/v99e/199.5/hzha03pyth6156_hzbq_199.5_50_20_5220.xsdst ! RUN = 5220 ! NEVT = 250
FILE = /castor/cern.ch/delphi/MCprod/cern/hzha03pyth6156/v99e/199.5/hzha03pyth6156_hzbq_199.5_50_20_5221.xsdst ! RUN = 5221 ! NEVT = 248
FILE = /castor/cern.ch/delphi/MCprod/cern/hzha03pyth6156/v99e/199.5/hzha03pyth6156_hzbq_199.5_50_20_5222.xsdst ! RUN = 5222 ! NEVT = 250
FILE = /castor/cern.ch/delphi/MCprod/cern/hzha03pyth6156/v99e/199.5/hzha03pyth6156_hzbq_199.5_50_20_5223.xsdst ! RUN = 5223 ! NEVT = 250
FILE = /castor/cern.ch/delphi/MCprod/cern/hzha03pyth6156/v99e/199.5/hzha03pyth6156_hzbq_199.5_50_20_5224.xsdst ! RUN = 5224 ! NEVT = 250
FILE = /castor/cern.ch/delphi/MCprod/cern/hzha03pyth6156/v99e/199.5/hzha03pyth6156_hzbq_199.5_50_20_5225.xsdst ! RUN = 5225 ! NEVT = 250
FILE = /castor/cern.ch/delphi/MCprod/cern/hzha03pyth6156/v99e/199.5/hzha03pyth6156_hzbq_199.5_50_20_5226.xsdst ! RUN = 5226 ! NEVT = 250
FILE = /castor/cern.ch/delphi/MCprod/cern/hzha03pyth6156/v99e/199.5/hzha03pyth6156_hzbq_199.5_50_20_5227.xsdst ! RUN = 5227 ! NEVT = 249
FILE = /castor/cern.ch/delphi/MCprod/cern/hzha03pyth6156/v99e/199.5/hzha03pyth6156_hzbq_199.5_50_20_5228.xsdst ! RUN = 5228 ! NEVT = 247
FILE = /castor/cern.ch/delphi/MCprod/cern/hzha03pyth6156/v99e/199.5/hzha03pyth6156_hzbq_199.5_50_20_5229.xsdst ! RUN = 5229 ! NEVT = 250
FILE = /castor/cern.ch/delphi/MCprod/cern/hzha03pyth6156/v99e/199.5/hzha03pyth6156_hzbq_199.5_50_20_5230.xsdst ! RUN = 5230 ! NEVT = 250
FILE = /castor/cern.ch/delphi/MCprod/cern/hzha03pyth6156/v99e/199.5/hzha03pyth6156_hzbq_199.5_50_20_5231.xsdst ! RUN = 5231 ! NEVT = 250
FILE = /castor/cern.ch/delphi/MCprod/cern/hzha03pyth6156/v99e/199.5/hzha03pyth6156_hzbq_199.5_50_20_5232.xsdst ! RUN = 5232 ! NEVT = 250
FILE = /castor/cern.ch/delphi/MCprod/cern/hzha03pyth6156/v99e/199.5/hzha03pyth6156_hzbq_199.5_50_20_5233.xsdst ! RUN = 5233 ! NEVT = 250
FILE = /castor/cern.ch/delphi/MCprod/cern/hzha03pyth6156/v99e/199.5/hzha03pyth6156_hzbq_199.5_50_20_5234.xsdst ! RUN = 5234 ! NEVT = 249
FILE = /castor/cern.ch/delphi/MCprod/cern/hzha03pyth6156/v99e/199.5/hzha03pyth6156_hzbq_199.5_50_20_5235.xsdst ! RUN = 5235 ! NEVT = 250
FILE = /castor/cern.ch/delphi/MCprod/cern/hzha03pyth6156/v99e/199.5/hzha03pyth6156_hzbq_199.5_50_20_5236.xsdst ! RUN = 5236 ! NEVT = 250
FILE = /castor/cern.ch/delphi/MCprod/cern/hzha03pyth6156/v99e/199.5/hzha03pyth6156_hzbq_199.5_50_20_5237.xsdst ! RUN = 5237 ! NEVT = 7
FILE = /castor/cern.ch/delphi/MCprod/cern/hzha03pyth6156/v99e/199.5/hzha03pyth6156_hzbq_199.5_50_20_5238.xsdst ! RUN = 5238 ! NEVT = 250
FILE = /castor/cern.ch/delphi/MCprod/cern/hzha03pyth6156/v99e/199.5/hzha03pyth6156_hzbq_199.5_50_20_5239.xsdst ! RUN = 5239 ! NEVT = 250
FILE = /castor/cern.ch/delphi/MCprod/cern/hzha03pyth6156/v99e/199.5/hzha03pyth6156_hzbq_199.5_50_20_5240.xsdst ! RUN = 5240 ! NEVT = 250
FILE = /castor/cern.ch/delphi/MCprod/cern/hzha03pyth6156/v99e/199.5/hzha03pyth6156_hzbq_199.5_50_20_5241.xsdst ! RUN = 5241 ! NEVT = 250
FILE = /castor/cern.ch/delphi/MCprod/cern/hzha03pyth6156/v99e/199.5/hzha03pyth6156_hzbq_199.5_50_20_5242.xsdst ! RUN = 5242 ! NEVT = 250
FILE = /castor/cern.ch/delphi/MCprod/cern/hzha03pyth6156/v99e/199.5/hzha03pyth6156_hzbq_199.5_50_20_5243.xsdst ! RUN = 5243 ! NEVT = 250
FILE = /castor/cern.ch/delphi/MCprod/cern/hzha03pyth6156/v99e/199.5/hzha03pyth6156_hzbq_199.5_50_20_5244.xsdst ! RUN = 5244 ! NEVT = 250
FILE = /castor/cern.ch/delphi/MCprod/cern/hzha03pyth6156/v99e/199.5/hzha03pyth6156_hzbq_199.5_50_20_5245.xsdst ! RUN = 5245 ! NEVT = 71
FILE = /castor/cern.ch/delphi/MCprod/cern/hzha03pyth6156/v99e/199.5/hzha03pyth6156_hzbq_199.5_50_20_5246.xsdst ! RUN = 5246 ! NEVT = 250
