*
*   Nickname     : xs_hzha03pyth6156hzbq_e199.5_m105_m12_c99_1l_e1
*   Generic Name : //CERN/DELPHI/P02_SIMD/XSDST/HZHA03PYTH6156HZBQ/E199.5/CERN/SUMT/C001-40
*   Description  :  Extended Short DST simulation 99e1 done at ecms=199.5 , CERN
*---
*   Comments     : in total 9996 events in 40 files time stamp: Mon Apr 15 12:11:30 2002
*---
*
*
*
*
*
FILE = /castor/cern.ch/delphi/MCprod/cern/hzha03pyth6156/v99e/199.5/hzha03pyth6156_hzbq_199.5_105_12_10627.xsdst ! RUN = 10627 ! NEVT = 250
FILE = /castor/cern.ch/delphi/MCprod/cern/hzha03pyth6156/v99e/199.5/hzha03pyth6156_hzbq_199.5_105_12_10628.xsdst ! RUN = 10628 ! NEVT = 249
FILE = /castor/cern.ch/delphi/MCprod/cern/hzha03pyth6156/v99e/199.5/hzha03pyth6156_hzbq_199.5_105_12_10629.xsdst ! RUN = 10629 ! NEVT = 250
FILE = /castor/cern.ch/delphi/MCprod/cern/hzha03pyth6156/v99e/199.5/hzha03pyth6156_hzbq_199.5_105_12_10630.xsdst ! RUN = 10630 ! NEVT = 250
FILE = /castor/cern.ch/delphi/MCprod/cern/hzha03pyth6156/v99e/199.5/hzha03pyth6156_hzbq_199.5_105_12_10631.xsdst ! RUN = 10631 ! NEVT = 250
FILE = /castor/cern.ch/delphi/MCprod/cern/hzha03pyth6156/v99e/199.5/hzha03pyth6156_hzbq_199.5_105_12_10632.xsdst ! RUN = 10632 ! NEVT = 250
FILE = /castor/cern.ch/delphi/MCprod/cern/hzha03pyth6156/v99e/199.5/hzha03pyth6156_hzbq_199.5_105_12_10633.xsdst ! RUN = 10633 ! NEVT = 250
FILE = /castor/cern.ch/delphi/MCprod/cern/hzha03pyth6156/v99e/199.5/hzha03pyth6156_hzbq_199.5_105_12_10634.xsdst ! RUN = 10634 ! NEVT = 250
FILE = /castor/cern.ch/delphi/MCprod/cern/hzha03pyth6156/v99e/199.5/hzha03pyth6156_hzbq_199.5_105_12_10635.xsdst ! RUN = 10635 ! NEVT = 250
FILE = /castor/cern.ch/delphi/MCprod/cern/hzha03pyth6156/v99e/199.5/hzha03pyth6156_hzbq_199.5_105_12_10636.xsdst ! RUN = 10636 ! NEVT = 250
FILE = /castor/cern.ch/delphi/MCprod/cern/hzha03pyth6156/v99e/199.5/hzha03pyth6156_hzbq_199.5_105_12_10637.xsdst ! RUN = 10637 ! NEVT = 250
FILE = /castor/cern.ch/delphi/MCprod/cern/hzha03pyth6156/v99e/199.5/hzha03pyth6156_hzbq_199.5_105_12_10638.xsdst ! RUN = 10638 ! NEVT = 250
FILE = /castor/cern.ch/delphi/MCprod/cern/hzha03pyth6156/v99e/199.5/hzha03pyth6156_hzbq_199.5_105_12_10639.xsdst ! RUN = 10639 ! NEVT = 250
FILE = /castor/cern.ch/delphi/MCprod/cern/hzha03pyth6156/v99e/199.5/hzha03pyth6156_hzbq_199.5_105_12_10640.xsdst ! RUN = 10640 ! NEVT = 250
FILE = /castor/cern.ch/delphi/MCprod/cern/hzha03pyth6156/v99e/199.5/hzha03pyth6156_hzbq_199.5_105_12_10641.xsdst ! RUN = 10641 ! NEVT = 249
FILE = /castor/cern.ch/delphi/MCprod/cern/hzha03pyth6156/v99e/199.5/hzha03pyth6156_hzbq_199.5_105_12_10642.xsdst ! RUN = 10642 ! NEVT = 250
FILE = /castor/cern.ch/delphi/MCprod/cern/hzha03pyth6156/v99e/199.5/hzha03pyth6156_hzbq_199.5_105_12_10643.xsdst ! RUN = 10643 ! NEVT = 250
FILE = /castor/cern.ch/delphi/MCprod/cern/hzha03pyth6156/v99e/199.5/hzha03pyth6156_hzbq_199.5_105_12_10644.xsdst ! RUN = 10644 ! NEVT = 250
FILE = /castor/cern.ch/delphi/MCprod/cern/hzha03pyth6156/v99e/199.5/hzha03pyth6156_hzbq_199.5_105_12_10645.xsdst ! RUN = 10645 ! NEVT = 250
FILE = /castor/cern.ch/delphi/MCprod/cern/hzha03pyth6156/v99e/199.5/hzha03pyth6156_hzbq_199.5_105_12_10646.xsdst ! RUN = 10646 ! NEVT = 250
FILE = /castor/cern.ch/delphi/MCprod/cern/hzha03pyth6156/v99e/199.5/hzha03pyth6156_hzbq_199.5_105_12_10647.xsdst ! RUN = 10647 ! NEVT = 250
FILE = /castor/cern.ch/delphi/MCprod/cern/hzha03pyth6156/v99e/199.5/hzha03pyth6156_hzbq_199.5_105_12_10648.xsdst ! RUN = 10648 ! NEVT = 250
FILE = /castor/cern.ch/delphi/MCprod/cern/hzha03pyth6156/v99e/199.5/hzha03pyth6156_hzbq_199.5_105_12_10649.xsdst ! RUN = 10649 ! NEVT = 250
FILE = /castor/cern.ch/delphi/MCprod/cern/hzha03pyth6156/v99e/199.5/hzha03pyth6156_hzbq_199.5_105_12_10650.xsdst ! RUN = 10650 ! NEVT = 250
FILE = /castor/cern.ch/delphi/MCprod/cern/hzha03pyth6156/v99e/199.5/hzha03pyth6156_hzbq_199.5_105_12_10651.xsdst ! RUN = 10651 ! NEVT = 249
FILE = /castor/cern.ch/delphi/MCprod/cern/hzha03pyth6156/v99e/199.5/hzha03pyth6156_hzbq_199.5_105_12_10652.xsdst ! RUN = 10652 ! NEVT = 250
FILE = /castor/cern.ch/delphi/MCprod/cern/hzha03pyth6156/v99e/199.5/hzha03pyth6156_hzbq_199.5_105_12_10653.xsdst ! RUN = 10653 ! NEVT = 250
FILE = /castor/cern.ch/delphi/MCprod/cern/hzha03pyth6156/v99e/199.5/hzha03pyth6156_hzbq_199.5_105_12_10654.xsdst ! RUN = 10654 ! NEVT = 250
FILE = /castor/cern.ch/delphi/MCprod/cern/hzha03pyth6156/v99e/199.5/hzha03pyth6156_hzbq_199.5_105_12_10655.xsdst ! RUN = 10655 ! NEVT = 250
FILE = /castor/cern.ch/delphi/MCprod/cern/hzha03pyth6156/v99e/199.5/hzha03pyth6156_hzbq_199.5_105_12_10656.xsdst ! RUN = 10656 ! NEVT = 250
FILE = /castor/cern.ch/delphi/MCprod/cern/hzha03pyth6156/v99e/199.5/hzha03pyth6156_hzbq_199.5_105_12_10657.xsdst ! RUN = 10657 ! NEVT = 250
FILE = /castor/cern.ch/delphi/MCprod/cern/hzha03pyth6156/v99e/199.5/hzha03pyth6156_hzbq_199.5_105_12_10658.xsdst ! RUN = 10658 ! NEVT = 250
FILE = /castor/cern.ch/delphi/MCprod/cern/hzha03pyth6156/v99e/199.5/hzha03pyth6156_hzbq_199.5_105_12_10659.xsdst ! RUN = 10659 ! NEVT = 250
FILE = /castor/cern.ch/delphi/MCprod/cern/hzha03pyth6156/v99e/199.5/hzha03pyth6156_hzbq_199.5_105_12_10660.xsdst ! RUN = 10660 ! NEVT = 250
FILE = /castor/cern.ch/delphi/MCprod/cern/hzha03pyth6156/v99e/199.5/hzha03pyth6156_hzbq_199.5_105_12_10661.xsdst ! RUN = 10661 ! NEVT = 250
FILE = /castor/cern.ch/delphi/MCprod/cern/hzha03pyth6156/v99e/199.5/hzha03pyth6156_hzbq_199.5_105_12_10662.xsdst ! RUN = 10662 ! NEVT = 250
FILE = /castor/cern.ch/delphi/MCprod/cern/hzha03pyth6156/v99e/199.5/hzha03pyth6156_hzbq_199.5_105_12_10663.xsdst ! RUN = 10663 ! NEVT = 250
FILE = /castor/cern.ch/delphi/MCprod/cern/hzha03pyth6156/v99e/199.5/hzha03pyth6156_hzbq_199.5_105_12_10664.xsdst ! RUN = 10664 ! NEVT = 250
FILE = /castor/cern.ch/delphi/MCprod/cern/hzha03pyth6156/v99e/199.5/hzha03pyth6156_hzbq_199.5_105_12_10665.xsdst ! RUN = 10665 ! NEVT = 249
FILE = /castor/cern.ch/delphi/MCprod/cern/hzha03pyth6156/v99e/199.5/hzha03pyth6156_hzbq_199.5_105_12_10666.xsdst ! RUN = 10666 ! NEVT = 250
