*
*   Nickname     : xs_hzha03pyth6156hzbq_e199.5_m105_m30_c99_1l_e1
*   Generic Name : //CERN/DELPHI/P02_SIMD/XSDST/HZHA03PYTH6156HZBQ/E199.5/CERN/SUMT/C001-40
*   Description  :  Extended Short DST simulation 99e1 done at ecms=199.5 , CERN
*---
*   Comments     : in total 9993 events in 40 files time stamp: Mon Apr 15 18:12:45 2002
*---
*
*
*
*
*
FILE = /castor/cern.ch/delphi/MCprod/cern/hzha03pyth6156/v99e/199.5/hzha03pyth6156_hzbq_199.5_105_30_10807.xsdst ! RUN = 10807 ! NEVT = 250
FILE = /castor/cern.ch/delphi/MCprod/cern/hzha03pyth6156/v99e/199.5/hzha03pyth6156_hzbq_199.5_105_30_10808.xsdst ! RUN = 10808 ! NEVT = 249
FILE = /castor/cern.ch/delphi/MCprod/cern/hzha03pyth6156/v99e/199.5/hzha03pyth6156_hzbq_199.5_105_30_10809.xsdst ! RUN = 10809 ! NEVT = 250
FILE = /castor/cern.ch/delphi/MCprod/cern/hzha03pyth6156/v99e/199.5/hzha03pyth6156_hzbq_199.5_105_30_10810.xsdst ! RUN = 10810 ! NEVT = 249
FILE = /castor/cern.ch/delphi/MCprod/cern/hzha03pyth6156/v99e/199.5/hzha03pyth6156_hzbq_199.5_105_30_10811.xsdst ! RUN = 10811 ! NEVT = 250
FILE = /castor/cern.ch/delphi/MCprod/cern/hzha03pyth6156/v99e/199.5/hzha03pyth6156_hzbq_199.5_105_30_10812.xsdst ! RUN = 10812 ! NEVT = 248
FILE = /castor/cern.ch/delphi/MCprod/cern/hzha03pyth6156/v99e/199.5/hzha03pyth6156_hzbq_199.5_105_30_10813.xsdst ! RUN = 10813 ! NEVT = 250
FILE = /castor/cern.ch/delphi/MCprod/cern/hzha03pyth6156/v99e/199.5/hzha03pyth6156_hzbq_199.5_105_30_10814.xsdst ! RUN = 10814 ! NEVT = 250
FILE = /castor/cern.ch/delphi/MCprod/cern/hzha03pyth6156/v99e/199.5/hzha03pyth6156_hzbq_199.5_105_30_10815.xsdst ! RUN = 10815 ! NEVT = 250
FILE = /castor/cern.ch/delphi/MCprod/cern/hzha03pyth6156/v99e/199.5/hzha03pyth6156_hzbq_199.5_105_30_10816.xsdst ! RUN = 10816 ! NEVT = 250
FILE = /castor/cern.ch/delphi/MCprod/cern/hzha03pyth6156/v99e/199.5/hzha03pyth6156_hzbq_199.5_105_30_10817.xsdst ! RUN = 10817 ! NEVT = 250
FILE = /castor/cern.ch/delphi/MCprod/cern/hzha03pyth6156/v99e/199.5/hzha03pyth6156_hzbq_199.5_105_30_10818.xsdst ! RUN = 10818 ! NEVT = 250
FILE = /castor/cern.ch/delphi/MCprod/cern/hzha03pyth6156/v99e/199.5/hzha03pyth6156_hzbq_199.5_105_30_10819.xsdst ! RUN = 10819 ! NEVT = 250
FILE = /castor/cern.ch/delphi/MCprod/cern/hzha03pyth6156/v99e/199.5/hzha03pyth6156_hzbq_199.5_105_30_10820.xsdst ! RUN = 10820 ! NEVT = 250
FILE = /castor/cern.ch/delphi/MCprod/cern/hzha03pyth6156/v99e/199.5/hzha03pyth6156_hzbq_199.5_105_30_10821.xsdst ! RUN = 10821 ! NEVT = 250
FILE = /castor/cern.ch/delphi/MCprod/cern/hzha03pyth6156/v99e/199.5/hzha03pyth6156_hzbq_199.5_105_30_10822.xsdst ! RUN = 10822 ! NEVT = 250
FILE = /castor/cern.ch/delphi/MCprod/cern/hzha03pyth6156/v99e/199.5/hzha03pyth6156_hzbq_199.5_105_30_10823.xsdst ! RUN = 10823 ! NEVT = 250
FILE = /castor/cern.ch/delphi/MCprod/cern/hzha03pyth6156/v99e/199.5/hzha03pyth6156_hzbq_199.5_105_30_10824.xsdst ! RUN = 10824 ! NEVT = 250
FILE = /castor/cern.ch/delphi/MCprod/cern/hzha03pyth6156/v99e/199.5/hzha03pyth6156_hzbq_199.5_105_30_10825.xsdst ! RUN = 10825 ! NEVT = 249
FILE = /castor/cern.ch/delphi/MCprod/cern/hzha03pyth6156/v99e/199.5/hzha03pyth6156_hzbq_199.5_105_30_10826.xsdst ! RUN = 10826 ! NEVT = 250
FILE = /castor/cern.ch/delphi/MCprod/cern/hzha03pyth6156/v99e/199.5/hzha03pyth6156_hzbq_199.5_105_30_10827.xsdst ! RUN = 10827 ! NEVT = 250
FILE = /castor/cern.ch/delphi/MCprod/cern/hzha03pyth6156/v99e/199.5/hzha03pyth6156_hzbq_199.5_105_30_10828.xsdst ! RUN = 10828 ! NEVT = 250
FILE = /castor/cern.ch/delphi/MCprod/cern/hzha03pyth6156/v99e/199.5/hzha03pyth6156_hzbq_199.5_105_30_10829.xsdst ! RUN = 10829 ! NEVT = 250
FILE = /castor/cern.ch/delphi/MCprod/cern/hzha03pyth6156/v99e/199.5/hzha03pyth6156_hzbq_199.5_105_30_10830.xsdst ! RUN = 10830 ! NEVT = 250
FILE = /castor/cern.ch/delphi/MCprod/cern/hzha03pyth6156/v99e/199.5/hzha03pyth6156_hzbq_199.5_105_30_10831.xsdst ! RUN = 10831 ! NEVT = 250
FILE = /castor/cern.ch/delphi/MCprod/cern/hzha03pyth6156/v99e/199.5/hzha03pyth6156_hzbq_199.5_105_30_10832.xsdst ! RUN = 10832 ! NEVT = 250
FILE = /castor/cern.ch/delphi/MCprod/cern/hzha03pyth6156/v99e/199.5/hzha03pyth6156_hzbq_199.5_105_30_10833.xsdst ! RUN = 10833 ! NEVT = 250
FILE = /castor/cern.ch/delphi/MCprod/cern/hzha03pyth6156/v99e/199.5/hzha03pyth6156_hzbq_199.5_105_30_10834.xsdst ! RUN = 10834 ! NEVT = 250
FILE = /castor/cern.ch/delphi/MCprod/cern/hzha03pyth6156/v99e/199.5/hzha03pyth6156_hzbq_199.5_105_30_10835.xsdst ! RUN = 10835 ! NEVT = 249
FILE = /castor/cern.ch/delphi/MCprod/cern/hzha03pyth6156/v99e/199.5/hzha03pyth6156_hzbq_199.5_105_30_10836.xsdst ! RUN = 10836 ! NEVT = 250
FILE = /castor/cern.ch/delphi/MCprod/cern/hzha03pyth6156/v99e/199.5/hzha03pyth6156_hzbq_199.5_105_30_10837.xsdst ! RUN = 10837 ! NEVT = 250
FILE = /castor/cern.ch/delphi/MCprod/cern/hzha03pyth6156/v99e/199.5/hzha03pyth6156_hzbq_199.5_105_30_10838.xsdst ! RUN = 10838 ! NEVT = 250
FILE = /castor/cern.ch/delphi/MCprod/cern/hzha03pyth6156/v99e/199.5/hzha03pyth6156_hzbq_199.5_105_30_10839.xsdst ! RUN = 10839 ! NEVT = 249
FILE = /castor/cern.ch/delphi/MCprod/cern/hzha03pyth6156/v99e/199.5/hzha03pyth6156_hzbq_199.5_105_30_10840.xsdst ! RUN = 10840 ! NEVT = 250
FILE = /castor/cern.ch/delphi/MCprod/cern/hzha03pyth6156/v99e/199.5/hzha03pyth6156_hzbq_199.5_105_30_10841.xsdst ! RUN = 10841 ! NEVT = 250
FILE = /castor/cern.ch/delphi/MCprod/cern/hzha03pyth6156/v99e/199.5/hzha03pyth6156_hzbq_199.5_105_30_10842.xsdst ! RUN = 10842 ! NEVT = 250
FILE = /castor/cern.ch/delphi/MCprod/cern/hzha03pyth6156/v99e/199.5/hzha03pyth6156_hzbq_199.5_105_30_10843.xsdst ! RUN = 10843 ! NEVT = 250
FILE = /castor/cern.ch/delphi/MCprod/cern/hzha03pyth6156/v99e/199.5/hzha03pyth6156_hzbq_199.5_105_30_10844.xsdst ! RUN = 10844 ! NEVT = 250
FILE = /castor/cern.ch/delphi/MCprod/cern/hzha03pyth6156/v99e/199.5/hzha03pyth6156_hzbq_199.5_105_30_10845.xsdst ! RUN = 10845 ! NEVT = 250
FILE = /castor/cern.ch/delphi/MCprod/cern/hzha03pyth6156/v99e/199.5/hzha03pyth6156_hzbq_199.5_105_30_10846.xsdst ! RUN = 10846 ! NEVT = 250
