*
*   Nickname     : xs_hzha03pyth6156hzbq_e199.5_m30_m12_c99_1l_e1
*   Generic Name : //CERN/DELPHI/P02_SIMD/XSDST/HZHA03PYTH6156HZBQ/E199.5/CERN/SUMT/C001-40
*   Description  :  Extended Short DST simulation 99e1 done at ecms=199.5 , CERN
*---
*   Comments     : in total 9990 events in 40 files time stamp: Mon Apr 15 22:13:43 2002
*---
*
*
*
*
*
FILE = /castor/cern.ch/delphi/MCprod/cern/hzha03pyth6156/v99e/199.5/hzha03pyth6156_hzbq_199.5_30_12_3127.xsdst ! RUN = 3127 ! NEVT = 250
FILE = /castor/cern.ch/delphi/MCprod/cern/hzha03pyth6156/v99e/199.5/hzha03pyth6156_hzbq_199.5_30_12_3128.xsdst ! RUN = 3128 ! NEVT = 250
FILE = /castor/cern.ch/delphi/MCprod/cern/hzha03pyth6156/v99e/199.5/hzha03pyth6156_hzbq_199.5_30_12_3129.xsdst ! RUN = 3129 ! NEVT = 249
FILE = /castor/cern.ch/delphi/MCprod/cern/hzha03pyth6156/v99e/199.5/hzha03pyth6156_hzbq_199.5_30_12_3130.xsdst ! RUN = 3130 ! NEVT = 250
FILE = /castor/cern.ch/delphi/MCprod/cern/hzha03pyth6156/v99e/199.5/hzha03pyth6156_hzbq_199.5_30_12_3131.xsdst ! RUN = 3131 ! NEVT = 250
FILE = /castor/cern.ch/delphi/MCprod/cern/hzha03pyth6156/v99e/199.5/hzha03pyth6156_hzbq_199.5_30_12_3132.xsdst ! RUN = 3132 ! NEVT = 250
FILE = /castor/cern.ch/delphi/MCprod/cern/hzha03pyth6156/v99e/199.5/hzha03pyth6156_hzbq_199.5_30_12_3133.xsdst ! RUN = 3133 ! NEVT = 250
FILE = /castor/cern.ch/delphi/MCprod/cern/hzha03pyth6156/v99e/199.5/hzha03pyth6156_hzbq_199.5_30_12_3134.xsdst ! RUN = 3134 ! NEVT = 250
FILE = /castor/cern.ch/delphi/MCprod/cern/hzha03pyth6156/v99e/199.5/hzha03pyth6156_hzbq_199.5_30_12_3135.xsdst ! RUN = 3135 ! NEVT = 249
FILE = /castor/cern.ch/delphi/MCprod/cern/hzha03pyth6156/v99e/199.5/hzha03pyth6156_hzbq_199.5_30_12_3136.xsdst ! RUN = 3136 ! NEVT = 250
FILE = /castor/cern.ch/delphi/MCprod/cern/hzha03pyth6156/v99e/199.5/hzha03pyth6156_hzbq_199.5_30_12_3137.xsdst ! RUN = 3137 ! NEVT = 249
FILE = /castor/cern.ch/delphi/MCprod/cern/hzha03pyth6156/v99e/199.5/hzha03pyth6156_hzbq_199.5_30_12_3138.xsdst ! RUN = 3138 ! NEVT = 250
FILE = /castor/cern.ch/delphi/MCprod/cern/hzha03pyth6156/v99e/199.5/hzha03pyth6156_hzbq_199.5_30_12_3139.xsdst ! RUN = 3139 ! NEVT = 250
FILE = /castor/cern.ch/delphi/MCprod/cern/hzha03pyth6156/v99e/199.5/hzha03pyth6156_hzbq_199.5_30_12_3140.xsdst ! RUN = 3140 ! NEVT = 249
FILE = /castor/cern.ch/delphi/MCprod/cern/hzha03pyth6156/v99e/199.5/hzha03pyth6156_hzbq_199.5_30_12_3141.xsdst ! RUN = 3141 ! NEVT = 249
FILE = /castor/cern.ch/delphi/MCprod/cern/hzha03pyth6156/v99e/199.5/hzha03pyth6156_hzbq_199.5_30_12_3142.xsdst ! RUN = 3142 ! NEVT = 250
FILE = /castor/cern.ch/delphi/MCprod/cern/hzha03pyth6156/v99e/199.5/hzha03pyth6156_hzbq_199.5_30_12_3143.xsdst ! RUN = 3143 ! NEVT = 250
FILE = /castor/cern.ch/delphi/MCprod/cern/hzha03pyth6156/v99e/199.5/hzha03pyth6156_hzbq_199.5_30_12_3144.xsdst ! RUN = 3144 ! NEVT = 248
FILE = /castor/cern.ch/delphi/MCprod/cern/hzha03pyth6156/v99e/199.5/hzha03pyth6156_hzbq_199.5_30_12_3145.xsdst ! RUN = 3145 ! NEVT = 249
FILE = /castor/cern.ch/delphi/MCprod/cern/hzha03pyth6156/v99e/199.5/hzha03pyth6156_hzbq_199.5_30_12_3146.xsdst ! RUN = 3146 ! NEVT = 250
FILE = /castor/cern.ch/delphi/MCprod/cern/hzha03pyth6156/v99e/199.5/hzha03pyth6156_hzbq_199.5_30_12_3147.xsdst ! RUN = 3147 ! NEVT = 250
FILE = /castor/cern.ch/delphi/MCprod/cern/hzha03pyth6156/v99e/199.5/hzha03pyth6156_hzbq_199.5_30_12_3148.xsdst ! RUN = 3148 ! NEVT = 250
FILE = /castor/cern.ch/delphi/MCprod/cern/hzha03pyth6156/v99e/199.5/hzha03pyth6156_hzbq_199.5_30_12_3149.xsdst ! RUN = 3149 ! NEVT = 250
FILE = /castor/cern.ch/delphi/MCprod/cern/hzha03pyth6156/v99e/199.5/hzha03pyth6156_hzbq_199.5_30_12_3150.xsdst ! RUN = 3150 ! NEVT = 250
FILE = /castor/cern.ch/delphi/MCprod/cern/hzha03pyth6156/v99e/199.5/hzha03pyth6156_hzbq_199.5_30_12_3151.xsdst ! RUN = 3151 ! NEVT = 250
FILE = /castor/cern.ch/delphi/MCprod/cern/hzha03pyth6156/v99e/199.5/hzha03pyth6156_hzbq_199.5_30_12_3152.xsdst ! RUN = 3152 ! NEVT = 250
FILE = /castor/cern.ch/delphi/MCprod/cern/hzha03pyth6156/v99e/199.5/hzha03pyth6156_hzbq_199.5_30_12_3153.xsdst ! RUN = 3153 ! NEVT = 250
FILE = /castor/cern.ch/delphi/MCprod/cern/hzha03pyth6156/v99e/199.5/hzha03pyth6156_hzbq_199.5_30_12_3154.xsdst ! RUN = 3154 ! NEVT = 250
FILE = /castor/cern.ch/delphi/MCprod/cern/hzha03pyth6156/v99e/199.5/hzha03pyth6156_hzbq_199.5_30_12_3155.xsdst ! RUN = 3155 ! NEVT = 250
FILE = /castor/cern.ch/delphi/MCprod/cern/hzha03pyth6156/v99e/199.5/hzha03pyth6156_hzbq_199.5_30_12_3156.xsdst ! RUN = 3156 ! NEVT = 250
FILE = /castor/cern.ch/delphi/MCprod/cern/hzha03pyth6156/v99e/199.5/hzha03pyth6156_hzbq_199.5_30_12_3157.xsdst ! RUN = 3157 ! NEVT = 250
FILE = /castor/cern.ch/delphi/MCprod/cern/hzha03pyth6156/v99e/199.5/hzha03pyth6156_hzbq_199.5_30_12_3158.xsdst ! RUN = 3158 ! NEVT = 249
FILE = /castor/cern.ch/delphi/MCprod/cern/hzha03pyth6156/v99e/199.5/hzha03pyth6156_hzbq_199.5_30_12_3159.xsdst ! RUN = 3159 ! NEVT = 250
FILE = /castor/cern.ch/delphi/MCprod/cern/hzha03pyth6156/v99e/199.5/hzha03pyth6156_hzbq_199.5_30_12_3160.xsdst ! RUN = 3160 ! NEVT = 250
FILE = /castor/cern.ch/delphi/MCprod/cern/hzha03pyth6156/v99e/199.5/hzha03pyth6156_hzbq_199.5_30_12_3161.xsdst ! RUN = 3161 ! NEVT = 250
FILE = /castor/cern.ch/delphi/MCprod/cern/hzha03pyth6156/v99e/199.5/hzha03pyth6156_hzbq_199.5_30_12_3162.xsdst ! RUN = 3162 ! NEVT = 250
FILE = /castor/cern.ch/delphi/MCprod/cern/hzha03pyth6156/v99e/199.5/hzha03pyth6156_hzbq_199.5_30_12_3163.xsdst ! RUN = 3163 ! NEVT = 249
FILE = /castor/cern.ch/delphi/MCprod/cern/hzha03pyth6156/v99e/199.5/hzha03pyth6156_hzbq_199.5_30_12_3164.xsdst ! RUN = 3164 ! NEVT = 250
FILE = /castor/cern.ch/delphi/MCprod/cern/hzha03pyth6156/v99e/199.5/hzha03pyth6156_hzbq_199.5_30_12_3165.xsdst ! RUN = 3165 ! NEVT = 250
FILE = /castor/cern.ch/delphi/MCprod/cern/hzha03pyth6156/v99e/199.5/hzha03pyth6156_hzbq_199.5_30_12_3166.xsdst ! RUN = 3166 ! NEVT = 250
