*
*   Nickname     : xs_hzhahphmwatn_e195.5_m60_c99_1l_e1
*   Generic Name : //CERN/DELPHI/P02_SIMD/XSDST/HZHAHPHMWATN/E195.5/CERN/SUMT/C001-1
*   Description  :  Extended Short DST simulation 99e1 done at ecms=195.5 , CERN
*---
*   Comments     : in total 2000 events in 1 files time stamp: Sat May  4 06:10:23 2002
*---
*
*
*
*
*
FILE = /castor/cern.ch/delphi/MCprod/cern/hzha/v99e/195.5/hzha_hphm_watn_e195.5_60_50.xsdst ! RUN = 50 ! NEVT = 2000
