*   Nickname :     xs_hzha03pyth6156hzvs_e195.5_m4_c99_1l_e1
*   Generic Name : //CERN/DELPHI/P02_SIMD/XSDST/HZHA03PYTH6156HZVS/E195.5/CERN/SUMT/C001-2
*   Description :  HZHA03  e+e- --> hZ -> nu nu s s Extended Short DST simulation 99e  done at ecm=195.5 GeV , CERN
*---
*   Comments :     in total 1999 events in 2 files, time stamp: Sat Aug 31 12:31:9 2002
*---
*
*
*
FILE = /castor/cern.ch/delphi/MCprod/cern/hzha03pyth6156/v99e/195.5/hzha03pyth6156_hzvs_195.5_4_702.xsdst ! RUN = 702 ! NEVT = 999
FILE = /castor/cern.ch/delphi/MCprod/cern/hzha03pyth6156/v99e/195.5/hzha03pyth6156_hzvs_195.5_4_703.xsdst ! RUN = 703 ! NEVT = 1000
