*   Nickname :     xs_hzha03pyth6156ha4g_e199.5_m100_m4_c99_1l_e1
*   Generic Name : //CERN/DELPHI/P02_SIMD/XSDST/HZHA03PYTH6156HA4G/E199.5/CERN/SUMT/C001-2
*   Description :   Extended Short DST simulation 99e  done at ecm=199.5 GeV , CERN
*   Comments :     in total 1998 events in 2 files, time stamp: Tue Sep 17 12:52:18 2002
*
*
*
FILE = /castor/cern.ch/delphi/MCprod/cern/hzha03pyth6156/v99e/199.5/hzha03pyth6156_hA4g_199.5_100_4_10041.xsdst ! RUN = 10041 ! NEVT = 999
FILE = /castor/cern.ch/delphi/MCprod/cern/hzha03pyth6156/v99e/199.5/hzha03pyth6156_hA4g_199.5_100_4_10042.xsdst ! RUN = 10042 ! NEVT = 999
