*   Nickname :     xs_hzha03pyth6156hzvg_e195.5_m45_c99_1l_e1
*   Generic Name : //CERN/DELPHI/P02_SIMD/XSDST/HZHA03PYTH6156HZVG/E195.5/CERN/SUMT/C001-2
*   Description :  HZHA03  e+e- --> hZ -> nu nu gluon gluon Extended Short DST simulation 99e  done at ecm=195.5 GeV , CERN
*---
*   Comments :     in total 1999 events in 2 files, time stamp: Sat Aug 31 1:12:11 2002
*---
*
*
*
FILE = /castor/cern.ch/delphi/MCprod/cern/hzha03pyth6156/v99e/195.5/hzha03pyth6156_hzvg_195.5_45_4801.xsdst ! RUN = 4801 ! NEVT = 999
FILE = /castor/cern.ch/delphi/MCprod/cern/hzha03pyth6156/v99e/195.5/hzha03pyth6156_hzvg_195.5_45_4802.xsdst ! RUN = 4802 ! NEVT = 1000
