*   Nickname :     xs_hzha03pyth6156hzvg_e201.6_m35_c99_1l_e1
*   Generic Name : //CERN/DELPHI/P02_SIMD/XSDST/HZHA03PYTH6156HZVG/E201.6/CERN/SUMT/C001-2
*   Description :  HZHA03  e+e- --> hZ -> nu nu gluon gluon Extended Short DST simulation 99e  done at ecm=201.6 GeV , CERN
*---
*   Comments :     in total 2000 events in 2 files, time stamp: Sat Aug 31 1:12:10 2002
*---
*
*
*
FILE = /castor/cern.ch/delphi/MCprod/cern/hzha03pyth6156/v99e/201.6/hzha03pyth6156_hzvg_201.6_35_3801.xsdst ! RUN = 3801 ! NEVT = 1000
FILE = /castor/cern.ch/delphi/MCprod/cern/hzha03pyth6156/v99e/201.6/hzha03pyth6156_hzvg_201.6_35_3802.xsdst ! RUN = 3802 ! NEVT = 1000
