*   Nickname :     xs_hzha03pyth6156hzvc_e199.5_m10_c99_1l_e1
*   Generic Name : //CERN/DELPHI/P02_SIMD/XSDST/HZHA03PYTH6156HZVC/E199.5/CERN/SUMT/C001-2
*   Description :  HZHA03  e+e- --> hZ -> nu nu c c Extended Short DST simulation 99e  done at ecm=199.5 GeV , CERN
*---
*   Comments :     in total 1999 events in 2 files, time stamp: Sat Aug 31 18:12:22 2002
*---
*
*
*
FILE = /castor/cern.ch/delphi/MCprod/cern/hzha03pyth6156/v99e/199.5/hzha03pyth6156_hzvc_199.5_10_1303.xsdst ! RUN = 1303 ! NEVT = 1000
FILE = /castor/cern.ch/delphi/MCprod/cern/hzha03pyth6156/v99e/199.5/hzha03pyth6156_hzvc_199.5_10_1304.xsdst ! RUN = 1304 ! NEVT = 999
