*   Nickname :     xs_hzha03pyth6156ha4g_e199.5_m60_m4_c99_1l_e1
*   Generic Name : //CERN/DELPHI/P02_SIMD/XSDST/HZHA03PYTH6156HA4G/E199.5/CERN/SUMT/C001-2
*   Description :   Extended Short DST simulation 99e  done at ecm=199.5 GeV , CERN
*   Comments :     in total 2000 events in 2 files, time stamp: Tue Sep 17 12:52:19 2002
*
*
*
FILE = /castor/cern.ch/delphi/MCprod/cern/hzha03pyth6156/v99e/199.5/hzha03pyth6156_hA4g_199.5_60_4_6041.xsdst ! RUN = 6041 ! NEVT = 1000
FILE = /castor/cern.ch/delphi/MCprod/cern/hzha03pyth6156/v99e/199.5/hzha03pyth6156_hA4g_199.5_60_4_6042.xsdst ! RUN = 6042 ! NEVT = 1000
