*   Nickname :     xs_hzha03pyth6156hzvs_e191.6_m15_c99_1l_e1
*   Generic Name : //CERN/DELPHI/P02_SIMD/XSDST/HZHA03PYTH6156HZVS/E191.6/CERN/SUMT/C001-2
*   Description :  HZHA03  e+e- --> hZ -> nu nu s s Extended Short DST simulation 99e  done at ecm=191.6 GeV , CERN
*---
*   Comments :     in total 1999 events in 2 files, time stamp: Sat Aug 31 12:31:29 2002
*---
*
*
*
FILE = /castor/cern.ch/delphi/MCprod/cern/hzha03pyth6156/v99e/191.6/hzha03pyth6156_hzvs_191.6_15_1802.xsdst ! RUN = 1802 ! NEVT = 1000
FILE = /castor/cern.ch/delphi/MCprod/cern/hzha03pyth6156/v99e/191.6/hzha03pyth6156_hzvs_191.6_15_1803.xsdst ! RUN = 1803 ! NEVT = 999
