*   Nickname :     xs_hzha03pyth6156ha4g_e195.5_m4_m4_c99_1l_e1
*   Generic Name : //CERN/DELPHI/P02_SIMD/XSDST/HZHA03PYTH6156HA4G/E195.5/CERN/SUMT/C001-2
*   Description :   Extended Short DST simulation 99e  done at ecm=195.5 GeV , CERN
*   Comments :     in total 2000 events in 2 files, time stamp: Tue Sep 17 12:52:18 2002
*
*
*
FILE = /castor/cern.ch/delphi/MCprod/cern/hzha03pyth6156/v99e/195.5/hzha03pyth6156_hA4g_195.5_4_4_441.xsdst ! RUN = 441 ! NEVT = 1000
FILE = /castor/cern.ch/delphi/MCprod/cern/hzha03pyth6156/v99e/195.5/hzha03pyth6156_hA4g_195.5_4_4_442.xsdst ! RUN = 442 ! NEVT = 1000
