*
*   Nickname     : xs_bhwide101_e91.25_la0_1l_u1
*   Generic Name : //CERN/DELPHI/P01_SIMD/XSDST/BHWIDE101/E91.25/LYON/SUMT/C001-100
*   Description  :  Extended Short DST simulation a0_u1 done at ecms=91.25 , Lyon
*---
*   Comments     : in total 99986 events in 100 files time stamp: Mon Aug  6 22:10:39 2001
*---
*
*
*
*
*
FILE = /castor/cern.ch/delphi/MCprod/lyon/bhwide101/va0u/91.25/bhwide101_91.25_1101.xsdst ! RUN = 1101 ! NEVT = 999
FILE = /castor/cern.ch/delphi/MCprod/lyon/bhwide101/va0u/91.25/bhwide101_91.25_1102.xsdst ! RUN = 1102 ! NEVT = 1000
FILE = /castor/cern.ch/delphi/MCprod/lyon/bhwide101/va0u/91.25/bhwide101_91.25_1103.xsdst ! RUN = 1103 ! NEVT = 1000
FILE = /castor/cern.ch/delphi/MCprod/lyon/bhwide101/va0u/91.25/bhwide101_91.25_1104.xsdst ! RUN = 1104 ! NEVT = 1000
FILE = /castor/cern.ch/delphi/MCprod/lyon/bhwide101/va0u/91.25/bhwide101_91.25_1105.xsdst ! RUN = 1105 ! NEVT = 1000
FILE = /castor/cern.ch/delphi/MCprod/lyon/bhwide101/va0u/91.25/bhwide101_91.25_1106.xsdst ! RUN = 1106 ! NEVT = 1000
FILE = /castor/cern.ch/delphi/MCprod/lyon/bhwide101/va0u/91.25/bhwide101_91.25_1107.xsdst ! RUN = 1107 ! NEVT = 1000
FILE = /castor/cern.ch/delphi/MCprod/lyon/bhwide101/va0u/91.25/bhwide101_91.25_1108.xsdst ! RUN = 1108 ! NEVT = 1000
FILE = /castor/cern.ch/delphi/MCprod/lyon/bhwide101/va0u/91.25/bhwide101_91.25_1109.xsdst ! RUN = 1109 ! NEVT = 1000
FILE = /castor/cern.ch/delphi/MCprod/lyon/bhwide101/va0u/91.25/bhwide101_91.25_1110.xsdst ! RUN = 1110 ! NEVT = 1000
FILE = /castor/cern.ch/delphi/MCprod/lyon/bhwide101/va0u/91.25/bhwide101_91.25_1111.xsdst ! RUN = 1111 ! NEVT = 1000
FILE = /castor/cern.ch/delphi/MCprod/lyon/bhwide101/va0u/91.25/bhwide101_91.25_1112.xsdst ! RUN = 1112 ! NEVT = 1000
FILE = /castor/cern.ch/delphi/MCprod/lyon/bhwide101/va0u/91.25/bhwide101_91.25_1113.xsdst ! RUN = 1113 ! NEVT = 1000
FILE = /castor/cern.ch/delphi/MCprod/lyon/bhwide101/va0u/91.25/bhwide101_91.25_1114.xsdst ! RUN = 1114 ! NEVT = 1000
FILE = /castor/cern.ch/delphi/MCprod/lyon/bhwide101/va0u/91.25/bhwide101_91.25_1115.xsdst ! RUN = 1115 ! NEVT = 999
FILE = /castor/cern.ch/delphi/MCprod/lyon/bhwide101/va0u/91.25/bhwide101_91.25_1116.xsdst ! RUN = 1116 ! NEVT = 1000
FILE = /castor/cern.ch/delphi/MCprod/lyon/bhwide101/va0u/91.25/bhwide101_91.25_1117.xsdst ! RUN = 1117 ! NEVT = 999
FILE = /castor/cern.ch/delphi/MCprod/lyon/bhwide101/va0u/91.25/bhwide101_91.25_1118.xsdst ! RUN = 1118 ! NEVT = 1000
FILE = /castor/cern.ch/delphi/MCprod/lyon/bhwide101/va0u/91.25/bhwide101_91.25_1119.xsdst ! RUN = 1119 ! NEVT = 999
FILE = /castor/cern.ch/delphi/MCprod/lyon/bhwide101/va0u/91.25/bhwide101_91.25_1120.xsdst ! RUN = 1120 ! NEVT = 1000
FILE = /castor/cern.ch/delphi/MCprod/lyon/bhwide101/va0u/91.25/bhwide101_91.25_1121.xsdst ! RUN = 1121 ! NEVT = 1000
FILE = /castor/cern.ch/delphi/MCprod/lyon/bhwide101/va0u/91.25/bhwide101_91.25_1122.xsdst ! RUN = 1122 ! NEVT = 1000
FILE = /castor/cern.ch/delphi/MCprod/lyon/bhwide101/va0u/91.25/bhwide101_91.25_1123.xsdst ! RUN = 1123 ! NEVT = 1000
FILE = /castor/cern.ch/delphi/MCprod/lyon/bhwide101/va0u/91.25/bhwide101_91.25_1124.xsdst ! RUN = 1124 ! NEVT = 1000
FILE = /castor/cern.ch/delphi/MCprod/lyon/bhwide101/va0u/91.25/bhwide101_91.25_1125.xsdst ! RUN = 1125 ! NEVT = 1000
FILE = /castor/cern.ch/delphi/MCprod/lyon/bhwide101/va0u/91.25/bhwide101_91.25_1126.xsdst ! RUN = 1126 ! NEVT = 1000
FILE = /castor/cern.ch/delphi/MCprod/lyon/bhwide101/va0u/91.25/bhwide101_91.25_1127.xsdst ! RUN = 1127 ! NEVT = 1000
FILE = /castor/cern.ch/delphi/MCprod/lyon/bhwide101/va0u/91.25/bhwide101_91.25_1128.xsdst ! RUN = 1128 ! NEVT = 1000
FILE = /castor/cern.ch/delphi/MCprod/lyon/bhwide101/va0u/91.25/bhwide101_91.25_1129.xsdst ! RUN = 1129 ! NEVT = 1000
FILE = /castor/cern.ch/delphi/MCprod/lyon/bhwide101/va0u/91.25/bhwide101_91.25_1130.xsdst ! RUN = 1130 ! NEVT = 1000
FILE = /castor/cern.ch/delphi/MCprod/lyon/bhwide101/va0u/91.25/bhwide101_91.25_1131.xsdst ! RUN = 1131 ! NEVT = 1000
FILE = /castor/cern.ch/delphi/MCprod/lyon/bhwide101/va0u/91.25/bhwide101_91.25_1132.xsdst ! RUN = 1132 ! NEVT = 999
FILE = /castor/cern.ch/delphi/MCprod/lyon/bhwide101/va0u/91.25/bhwide101_91.25_1133.xsdst ! RUN = 1133 ! NEVT = 1000
FILE = /castor/cern.ch/delphi/MCprod/lyon/bhwide101/va0u/91.25/bhwide101_91.25_1134.xsdst ! RUN = 1134 ! NEVT = 999
FILE = /castor/cern.ch/delphi/MCprod/lyon/bhwide101/va0u/91.25/bhwide101_91.25_1135.xsdst ! RUN = 1135 ! NEVT = 1000
FILE = /castor/cern.ch/delphi/MCprod/lyon/bhwide101/va0u/91.25/bhwide101_91.25_1136.xsdst ! RUN = 1136 ! NEVT = 1000
FILE = /castor/cern.ch/delphi/MCprod/lyon/bhwide101/va0u/91.25/bhwide101_91.25_1137.xsdst ! RUN = 1137 ! NEVT = 998
FILE = /castor/cern.ch/delphi/MCprod/lyon/bhwide101/va0u/91.25/bhwide101_91.25_1138.xsdst ! RUN = 1138 ! NEVT = 1000
FILE = /castor/cern.ch/delphi/MCprod/lyon/bhwide101/va0u/91.25/bhwide101_91.25_1139.xsdst ! RUN = 1139 ! NEVT = 1000
FILE = /castor/cern.ch/delphi/MCprod/lyon/bhwide101/va0u/91.25/bhwide101_91.25_1140.xsdst ! RUN = 1140 ! NEVT = 1000
FILE = /castor/cern.ch/delphi/MCprod/lyon/bhwide101/va0u/91.25/bhwide101_91.25_1141.xsdst ! RUN = 1141 ! NEVT = 999
FILE = /castor/cern.ch/delphi/MCprod/lyon/bhwide101/va0u/91.25/bhwide101_91.25_1142.xsdst ! RUN = 1142 ! NEVT = 1000
FILE = /castor/cern.ch/delphi/MCprod/lyon/bhwide101/va0u/91.25/bhwide101_91.25_1143.xsdst ! RUN = 1143 ! NEVT = 1000
FILE = /castor/cern.ch/delphi/MCprod/lyon/bhwide101/va0u/91.25/bhwide101_91.25_1144.xsdst ! RUN = 1144 ! NEVT = 999
FILE = /castor/cern.ch/delphi/MCprod/lyon/bhwide101/va0u/91.25/bhwide101_91.25_1145.xsdst ! RUN = 1145 ! NEVT = 999
FILE = /castor/cern.ch/delphi/MCprod/lyon/bhwide101/va0u/91.25/bhwide101_91.25_1146.xsdst ! RUN = 1146 ! NEVT = 1000
FILE = /castor/cern.ch/delphi/MCprod/lyon/bhwide101/va0u/91.25/bhwide101_91.25_1147.xsdst ! RUN = 1147 ! NEVT = 1000
FILE = /castor/cern.ch/delphi/MCprod/lyon/bhwide101/va0u/91.25/bhwide101_91.25_1148.xsdst ! RUN = 1148 ! NEVT = 1000
FILE = /castor/cern.ch/delphi/MCprod/lyon/bhwide101/va0u/91.25/bhwide101_91.25_1149.xsdst ! RUN = 1149 ! NEVT = 1000
FILE = /castor/cern.ch/delphi/MCprod/lyon/bhwide101/va0u/91.25/bhwide101_91.25_1150.xsdst ! RUN = 1150 ! NEVT = 1000
FILE = /castor/cern.ch/delphi/MCprod/lyon/bhwide101/va0u/91.25/bhwide101_91.25_1151.xsdst ! RUN = 1151 ! NEVT = 1000
FILE = /castor/cern.ch/delphi/MCprod/lyon/bhwide101/va0u/91.25/bhwide101_91.25_1152.xsdst ! RUN = 1152 ! NEVT = 1000
FILE = /castor/cern.ch/delphi/MCprod/lyon/bhwide101/va0u/91.25/bhwide101_91.25_1153.xsdst ! RUN = 1153 ! NEVT = 1000
FILE = /castor/cern.ch/delphi/MCprod/lyon/bhwide101/va0u/91.25/bhwide101_91.25_1154.xsdst ! RUN = 1154 ! NEVT = 1000
FILE = /castor/cern.ch/delphi/MCprod/lyon/bhwide101/va0u/91.25/bhwide101_91.25_1155.xsdst ! RUN = 1155 ! NEVT = 1000
FILE = /castor/cern.ch/delphi/MCprod/lyon/bhwide101/va0u/91.25/bhwide101_91.25_1156.xsdst ! RUN = 1156 ! NEVT = 1000
FILE = /castor/cern.ch/delphi/MCprod/lyon/bhwide101/va0u/91.25/bhwide101_91.25_1157.xsdst ! RUN = 1157 ! NEVT = 1000
FILE = /castor/cern.ch/delphi/MCprod/lyon/bhwide101/va0u/91.25/bhwide101_91.25_1158.xsdst ! RUN = 1158 ! NEVT = 1000
FILE = /castor/cern.ch/delphi/MCprod/lyon/bhwide101/va0u/91.25/bhwide101_91.25_1159.xsdst ! RUN = 1159 ! NEVT = 1000
FILE = /castor/cern.ch/delphi/MCprod/lyon/bhwide101/va0u/91.25/bhwide101_91.25_1160.xsdst ! RUN = 1160 ! NEVT = 1000
FILE = /castor/cern.ch/delphi/MCprod/lyon/bhwide101/va0u/91.25/bhwide101_91.25_1161.xsdst ! RUN = 1161 ! NEVT = 1000
FILE = /castor/cern.ch/delphi/MCprod/lyon/bhwide101/va0u/91.25/bhwide101_91.25_1162.xsdst ! RUN = 1162 ! NEVT = 1000
FILE = /castor/cern.ch/delphi/MCprod/lyon/bhwide101/va0u/91.25/bhwide101_91.25_1163.xsdst ! RUN = 1163 ! NEVT = 1000
FILE = /castor/cern.ch/delphi/MCprod/lyon/bhwide101/va0u/91.25/bhwide101_91.25_1164.xsdst ! RUN = 1164 ! NEVT = 999
FILE = /castor/cern.ch/delphi/MCprod/lyon/bhwide101/va0u/91.25/bhwide101_91.25_1165.xsdst ! RUN = 1165 ! NEVT = 1000
FILE = /castor/cern.ch/delphi/MCprod/lyon/bhwide101/va0u/91.25/bhwide101_91.25_1166.xsdst ! RUN = 1166 ! NEVT = 1000
FILE = /castor/cern.ch/delphi/MCprod/lyon/bhwide101/va0u/91.25/bhwide101_91.25_1167.xsdst ! RUN = 1167 ! NEVT = 1000
FILE = /castor/cern.ch/delphi/MCprod/lyon/bhwide101/va0u/91.25/bhwide101_91.25_1168.xsdst ! RUN = 1168 ! NEVT = 1000
FILE = /castor/cern.ch/delphi/MCprod/lyon/bhwide101/va0u/91.25/bhwide101_91.25_1169.xsdst ! RUN = 1169 ! NEVT = 1000
FILE = /castor/cern.ch/delphi/MCprod/lyon/bhwide101/va0u/91.25/bhwide101_91.25_1170.xsdst ! RUN = 1170 ! NEVT = 1000
FILE = /castor/cern.ch/delphi/MCprod/lyon/bhwide101/va0u/91.25/bhwide101_91.25_1171.xsdst ! RUN = 1171 ! NEVT = 1000
FILE = /castor/cern.ch/delphi/MCprod/lyon/bhwide101/va0u/91.25/bhwide101_91.25_1172.xsdst ! RUN = 1172 ! NEVT = 1000
FILE = /castor/cern.ch/delphi/MCprod/lyon/bhwide101/va0u/91.25/bhwide101_91.25_1173.xsdst ! RUN = 1173 ! NEVT = 1000
FILE = /castor/cern.ch/delphi/MCprod/lyon/bhwide101/va0u/91.25/bhwide101_91.25_1174.xsdst ! RUN = 1174 ! NEVT = 1000
FILE = /castor/cern.ch/delphi/MCprod/lyon/bhwide101/va0u/91.25/bhwide101_91.25_1175.xsdst ! RUN = 1175 ! NEVT = 1000
FILE = /castor/cern.ch/delphi/MCprod/lyon/bhwide101/va0u/91.25/bhwide101_91.25_1176.xsdst ! RUN = 1176 ! NEVT = 1000
FILE = /castor/cern.ch/delphi/MCprod/lyon/bhwide101/va0u/91.25/bhwide101_91.25_1177.xsdst ! RUN = 1177 ! NEVT = 1000
FILE = /castor/cern.ch/delphi/MCprod/lyon/bhwide101/va0u/91.25/bhwide101_91.25_1178.xsdst ! RUN = 1178 ! NEVT = 1000
FILE = /castor/cern.ch/delphi/MCprod/lyon/bhwide101/va0u/91.25/bhwide101_91.25_1179.xsdst ! RUN = 1179 ! NEVT = 999
FILE = /castor/cern.ch/delphi/MCprod/lyon/bhwide101/va0u/91.25/bhwide101_91.25_1180.xsdst ! RUN = 1180 ! NEVT = 1000
FILE = /castor/cern.ch/delphi/MCprod/lyon/bhwide101/va0u/91.25/bhwide101_91.25_1181.xsdst ! RUN = 1181 ! NEVT = 1000
FILE = /castor/cern.ch/delphi/MCprod/lyon/bhwide101/va0u/91.25/bhwide101_91.25_1182.xsdst ! RUN = 1182 ! NEVT = 1000
FILE = /castor/cern.ch/delphi/MCprod/lyon/bhwide101/va0u/91.25/bhwide101_91.25_1183.xsdst ! RUN = 1183 ! NEVT = 1000
FILE = /castor/cern.ch/delphi/MCprod/lyon/bhwide101/va0u/91.25/bhwide101_91.25_1184.xsdst ! RUN = 1184 ! NEVT = 1000
FILE = /castor/cern.ch/delphi/MCprod/lyon/bhwide101/va0u/91.25/bhwide101_91.25_1185.xsdst ! RUN = 1185 ! NEVT = 1000
FILE = /castor/cern.ch/delphi/MCprod/lyon/bhwide101/va0u/91.25/bhwide101_91.25_1186.xsdst ! RUN = 1186 ! NEVT = 1000
FILE = /castor/cern.ch/delphi/MCprod/lyon/bhwide101/va0u/91.25/bhwide101_91.25_1187.xsdst ! RUN = 1187 ! NEVT = 1000
FILE = /castor/cern.ch/delphi/MCprod/lyon/bhwide101/va0u/91.25/bhwide101_91.25_1188.xsdst ! RUN = 1188 ! NEVT = 999
FILE = /castor/cern.ch/delphi/MCprod/lyon/bhwide101/va0u/91.25/bhwide101_91.25_1189.xsdst ! RUN = 1189 ! NEVT = 1000
FILE = /castor/cern.ch/delphi/MCprod/lyon/bhwide101/va0u/91.25/bhwide101_91.25_1190.xsdst ! RUN = 1190 ! NEVT = 1000
FILE = /castor/cern.ch/delphi/MCprod/lyon/bhwide101/va0u/91.25/bhwide101_91.25_1191.xsdst ! RUN = 1191 ! NEVT = 1000
FILE = /castor/cern.ch/delphi/MCprod/lyon/bhwide101/va0u/91.25/bhwide101_91.25_1192.xsdst ! RUN = 1192 ! NEVT = 1000
FILE = /castor/cern.ch/delphi/MCprod/lyon/bhwide101/va0u/91.25/bhwide101_91.25_1193.xsdst ! RUN = 1193 ! NEVT = 1000
FILE = /castor/cern.ch/delphi/MCprod/lyon/bhwide101/va0u/91.25/bhwide101_91.25_1194.xsdst ! RUN = 1194 ! NEVT = 1000
FILE = /castor/cern.ch/delphi/MCprod/lyon/bhwide101/va0u/91.25/bhwide101_91.25_1195.xsdst ! RUN = 1195 ! NEVT = 1000
FILE = /castor/cern.ch/delphi/MCprod/lyon/bhwide101/va0u/91.25/bhwide101_91.25_1196.xsdst ! RUN = 1196 ! NEVT = 1000
FILE = /castor/cern.ch/delphi/MCprod/lyon/bhwide101/va0u/91.25/bhwide101_91.25_1197.xsdst ! RUN = 1197 ! NEVT = 1000
FILE = /castor/cern.ch/delphi/MCprod/lyon/bhwide101/va0u/91.25/bhwide101_91.25_1198.xsdst ! RUN = 1198 ! NEVT = 1000
FILE = /castor/cern.ch/delphi/MCprod/lyon/bhwide101/va0u/91.25/bhwide101_91.25_1199.xsdst ! RUN = 1199 ! NEVT = 1000
FILE = /castor/cern.ch/delphi/MCprod/lyon/bhwide101/va0u/91.25/bhwide101_91.25_1200.xsdst ! RUN = 1200 ! NEVT = 1000
