*
*   Nickname     : xs_kk2f4144qqar_e206.5_ca0_1l_u1
*   Generic Name : //CERN/DELPHI/P02_SIMD/XSDST/KK2F4144QQAR/E206.5/CERN/SUMT/C001-493
*   Description  :  Extended Short DST simulation a0u1 done at ecms=206.5 , CERN
*---
*   Comments     : in total 490695 events in 493 files time stamp: Mon Apr 29 10:10:55 2002
*---
*
*
*
*
*
FILE = /castor/cern.ch/delphi/MCprod/cern/kk2f4144/va0u/206.5/kk2f4144_qqar_206.5_13001.xsdst ! RUN = 13001 ! NEVT = 1000
FILE = /castor/cern.ch/delphi/MCprod/cern/kk2f4144/va0u/206.5/kk2f4144_qqar_206.5_13002.xsdst ! RUN = 13002 ! NEVT = 999
FILE = /castor/cern.ch/delphi/MCprod/cern/kk2f4144/va0u/206.5/kk2f4144_qqar_206.5_13003.xsdst ! RUN = 13003 ! NEVT = 999
FILE = /castor/cern.ch/delphi/MCprod/cern/kk2f4144/va0u/206.5/kk2f4144_qqar_206.5_13004.xsdst ! RUN = 13004 ! NEVT = 999
FILE = /castor/cern.ch/delphi/MCprod/cern/kk2f4144/va0u/206.5/kk2f4144_qqar_206.5_13005.xsdst ! RUN = 13005 ! NEVT = 999
FILE = /castor/cern.ch/delphi/MCprod/cern/kk2f4144/va0u/206.5/kk2f4144_qqar_206.5_13006.xsdst ! RUN = 13006 ! NEVT = 1000
FILE = /castor/cern.ch/delphi/MCprod/cern/kk2f4144/va0u/206.5/kk2f4144_qqar_206.5_13007.xsdst ! RUN = 13007 ! NEVT = 1000
FILE = /castor/cern.ch/delphi/MCprod/cern/kk2f4144/va0u/206.5/kk2f4144_qqar_206.5_13008.xsdst ! RUN = 13008 ! NEVT = 1000
FILE = /castor/cern.ch/delphi/MCprod/cern/kk2f4144/va0u/206.5/kk2f4144_qqar_206.5_13009.xsdst ! RUN = 13009 ! NEVT = 1000
FILE = /castor/cern.ch/delphi/MCprod/cern/kk2f4144/va0u/206.5/kk2f4144_qqar_206.5_13010.xsdst ! RUN = 13010 ! NEVT = 1000
FILE = /castor/cern.ch/delphi/MCprod/cern/kk2f4144/va0u/206.5/kk2f4144_qqar_206.5_13011.xsdst ! RUN = 13011 ! NEVT = 999
FILE = /castor/cern.ch/delphi/MCprod/cern/kk2f4144/va0u/206.5/kk2f4144_qqar_206.5_13012.xsdst ! RUN = 13012 ! NEVT = 1000
FILE = /castor/cern.ch/delphi/MCprod/cern/kk2f4144/va0u/206.5/kk2f4144_qqar_206.5_13013.xsdst ! RUN = 13013 ! NEVT = 1000
FILE = /castor/cern.ch/delphi/MCprod/cern/kk2f4144/va0u/206.5/kk2f4144_qqar_206.5_13014.xsdst ! RUN = 13014 ! NEVT = 1000
FILE = /castor/cern.ch/delphi/MCprod/cern/kk2f4144/va0u/206.5/kk2f4144_qqar_206.5_13015.xsdst ! RUN = 13015 ! NEVT = 999
FILE = /castor/cern.ch/delphi/MCprod/cern/kk2f4144/va0u/206.5/kk2f4144_qqar_206.5_13016.xsdst ! RUN = 13016 ! NEVT = 999
FILE = /castor/cern.ch/delphi/MCprod/cern/kk2f4144/va0u/206.5/kk2f4144_qqar_206.5_13017.xsdst ! RUN = 13017 ! NEVT = 999
FILE = /castor/cern.ch/delphi/MCprod/cern/kk2f4144/va0u/206.5/kk2f4144_qqar_206.5_13018.xsdst ! RUN = 13018 ! NEVT = 1000
FILE = /castor/cern.ch/delphi/MCprod/cern/kk2f4144/va0u/206.5/kk2f4144_qqar_206.5_13019.xsdst ! RUN = 13019 ! NEVT = 821
FILE = /castor/cern.ch/delphi/MCprod/cern/kk2f4144/va0u/206.5/kk2f4144_qqar_206.5_13020.xsdst ! RUN = 13020 ! NEVT = 998
FILE = /castor/cern.ch/delphi/MCprod/cern/kk2f4144/va0u/206.5/kk2f4144_qqar_206.5_13021.xsdst ! RUN = 13021 ! NEVT = 1000
FILE = /castor/cern.ch/delphi/MCprod/cern/kk2f4144/va0u/206.5/kk2f4144_qqar_206.5_13022.xsdst ! RUN = 13022 ! NEVT = 1000
FILE = /castor/cern.ch/delphi/MCprod/cern/kk2f4144/va0u/206.5/kk2f4144_qqar_206.5_13023.xsdst ! RUN = 13023 ! NEVT = 1000
FILE = /castor/cern.ch/delphi/MCprod/cern/kk2f4144/va0u/206.5/kk2f4144_qqar_206.5_13024.xsdst ! RUN = 13024 ! NEVT = 999
FILE = /castor/cern.ch/delphi/MCprod/cern/kk2f4144/va0u/206.5/kk2f4144_qqar_206.5_13025.xsdst ! RUN = 13025 ! NEVT = 1000
FILE = /castor/cern.ch/delphi/MCprod/cern/kk2f4144/va0u/206.5/kk2f4144_qqar_206.5_13026.xsdst ! RUN = 13026 ! NEVT = 1000
FILE = /castor/cern.ch/delphi/MCprod/cern/kk2f4144/va0u/206.5/kk2f4144_qqar_206.5_13027.xsdst ! RUN = 13027 ! NEVT = 1000
FILE = /castor/cern.ch/delphi/MCprod/cern/kk2f4144/va0u/206.5/kk2f4144_qqar_206.5_13028.xsdst ! RUN = 13028 ! NEVT = 998
FILE = /castor/cern.ch/delphi/MCprod/cern/kk2f4144/va0u/206.5/kk2f4144_qqar_206.5_13029.xsdst ! RUN = 13029 ! NEVT = 999
FILE = /castor/cern.ch/delphi/MCprod/cern/kk2f4144/va0u/206.5/kk2f4144_qqar_206.5_13030.xsdst ! RUN = 13030 ! NEVT = 997
FILE = /castor/cern.ch/delphi/MCprod/cern/kk2f4144/va0u/206.5/kk2f4144_qqar_206.5_13031.xsdst ! RUN = 13031 ! NEVT = 1000
FILE = /castor/cern.ch/delphi/MCprod/cern/kk2f4144/va0u/206.5/kk2f4144_qqar_206.5_13032.xsdst ! RUN = 13032 ! NEVT = 1000
FILE = /castor/cern.ch/delphi/MCprod/cern/kk2f4144/va0u/206.5/kk2f4144_qqar_206.5_13033.xsdst ! RUN = 13033 ! NEVT = 997
FILE = /castor/cern.ch/delphi/MCprod/cern/kk2f4144/va0u/206.5/kk2f4144_qqar_206.5_13034.xsdst ! RUN = 13034 ! NEVT = 1000
FILE = /castor/cern.ch/delphi/MCprod/cern/kk2f4144/va0u/206.5/kk2f4144_qqar_206.5_13035.xsdst ! RUN = 13035 ! NEVT = 999
FILE = /castor/cern.ch/delphi/MCprod/cern/kk2f4144/va0u/206.5/kk2f4144_qqar_206.5_13036.xsdst ! RUN = 13036 ! NEVT = 1000
FILE = /castor/cern.ch/delphi/MCprod/cern/kk2f4144/va0u/206.5/kk2f4144_qqar_206.5_13037.xsdst ! RUN = 13037 ! NEVT = 1000
FILE = /castor/cern.ch/delphi/MCprod/cern/kk2f4144/va0u/206.5/kk2f4144_qqar_206.5_13038.xsdst ! RUN = 13038 ! NEVT = 999
FILE = /castor/cern.ch/delphi/MCprod/cern/kk2f4144/va0u/206.5/kk2f4144_qqar_206.5_13039.xsdst ! RUN = 13039 ! NEVT = 1000
FILE = /castor/cern.ch/delphi/MCprod/cern/kk2f4144/va0u/206.5/kk2f4144_qqar_206.5_13040.xsdst ! RUN = 13040 ! NEVT = 1000
FILE = /castor/cern.ch/delphi/MCprod/cern/kk2f4144/va0u/206.5/kk2f4144_qqar_206.5_13041.xsdst ! RUN = 13041 ! NEVT = 998
FILE = /castor/cern.ch/delphi/MCprod/cern/kk2f4144/va0u/206.5/kk2f4144_qqar_206.5_13042.xsdst ! RUN = 13042 ! NEVT = 1000
FILE = /castor/cern.ch/delphi/MCprod/cern/kk2f4144/va0u/206.5/kk2f4144_qqar_206.5_13043.xsdst ! RUN = 13043 ! NEVT = 1000
FILE = /castor/cern.ch/delphi/MCprod/cern/kk2f4144/va0u/206.5/kk2f4144_qqar_206.5_13044.xsdst ! RUN = 13044 ! NEVT = 998
FILE = /castor/cern.ch/delphi/MCprod/cern/kk2f4144/va0u/206.5/kk2f4144_qqar_206.5_13045.xsdst ! RUN = 13045 ! NEVT = 999
FILE = /castor/cern.ch/delphi/MCprod/cern/kk2f4144/va0u/206.5/kk2f4144_qqar_206.5_13046.xsdst ! RUN = 13046 ! NEVT = 999
FILE = /castor/cern.ch/delphi/MCprod/cern/kk2f4144/va0u/206.5/kk2f4144_qqar_206.5_13047.xsdst ! RUN = 13047 ! NEVT = 995
FILE = /castor/cern.ch/delphi/MCprod/cern/kk2f4144/va0u/206.5/kk2f4144_qqar_206.5_13048.xsdst ! RUN = 13048 ! NEVT = 1000
FILE = /castor/cern.ch/delphi/MCprod/cern/kk2f4144/va0u/206.5/kk2f4144_qqar_206.5_13049.xsdst ! RUN = 13049 ! NEVT = 1000
FILE = /castor/cern.ch/delphi/MCprod/cern/kk2f4144/va0u/206.5/kk2f4144_qqar_206.5_13050.xsdst ! RUN = 13050 ! NEVT = 1000
FILE = /castor/cern.ch/delphi/MCprod/cern/kk2f4144/va0u/206.5/kk2f4144_qqar_206.5_13051.xsdst ! RUN = 13051 ! NEVT = 1000
FILE = /castor/cern.ch/delphi/MCprod/cern/kk2f4144/va0u/206.5/kk2f4144_qqar_206.5_13052.xsdst ! RUN = 13052 ! NEVT = 999
FILE = /castor/cern.ch/delphi/MCprod/cern/kk2f4144/va0u/206.5/kk2f4144_qqar_206.5_13053.xsdst ! RUN = 13053 ! NEVT = 999
FILE = /castor/cern.ch/delphi/MCprod/cern/kk2f4144/va0u/206.5/kk2f4144_qqar_206.5_13054.xsdst ! RUN = 13054 ! NEVT = 998
FILE = /castor/cern.ch/delphi/MCprod/cern/kk2f4144/va0u/206.5/kk2f4144_qqar_206.5_13055.xsdst ! RUN = 13055 ! NEVT = 999
FILE = /castor/cern.ch/delphi/MCprod/cern/kk2f4144/va0u/206.5/kk2f4144_qqar_206.5_13056.xsdst ! RUN = 13056 ! NEVT = 1000
FILE = /castor/cern.ch/delphi/MCprod/cern/kk2f4144/va0u/206.5/kk2f4144_qqar_206.5_13057.xsdst ! RUN = 13057 ! NEVT = 999
FILE = /castor/cern.ch/delphi/MCprod/cern/kk2f4144/va0u/206.5/kk2f4144_qqar_206.5_13058.xsdst ! RUN = 13058 ! NEVT = 1000
FILE = /castor/cern.ch/delphi/MCprod/cern/kk2f4144/va0u/206.5/kk2f4144_qqar_206.5_13059.xsdst ! RUN = 13059 ! NEVT = 1000
FILE = /castor/cern.ch/delphi/MCprod/cern/kk2f4144/va0u/206.5/kk2f4144_qqar_206.5_13060.xsdst ! RUN = 13060 ! NEVT = 1000
FILE = /castor/cern.ch/delphi/MCprod/cern/kk2f4144/va0u/206.5/kk2f4144_qqar_206.5_13061.xsdst ! RUN = 13061 ! NEVT = 1000
FILE = /castor/cern.ch/delphi/MCprod/cern/kk2f4144/va0u/206.5/kk2f4144_qqar_206.5_13062.xsdst ! RUN = 13062 ! NEVT = 999
FILE = /castor/cern.ch/delphi/MCprod/cern/kk2f4144/va0u/206.5/kk2f4144_qqar_206.5_13063.xsdst ! RUN = 13063 ! NEVT = 999
FILE = /castor/cern.ch/delphi/MCprod/cern/kk2f4144/va0u/206.5/kk2f4144_qqar_206.5_13064.xsdst ! RUN = 13064 ! NEVT = 1000
FILE = /castor/cern.ch/delphi/MCprod/cern/kk2f4144/va0u/206.5/kk2f4144_qqar_206.5_13065.xsdst ! RUN = 13065 ! NEVT = 1000
FILE = /castor/cern.ch/delphi/MCprod/cern/kk2f4144/va0u/206.5/kk2f4144_qqar_206.5_13066.xsdst ! RUN = 13066 ! NEVT = 1000
FILE = /castor/cern.ch/delphi/MCprod/cern/kk2f4144/va0u/206.5/kk2f4144_qqar_206.5_13067.xsdst ! RUN = 13067 ! NEVT = 1000
FILE = /castor/cern.ch/delphi/MCprod/cern/kk2f4144/va0u/206.5/kk2f4144_qqar_206.5_13068.xsdst ! RUN = 13068 ! NEVT = 1000
FILE = /castor/cern.ch/delphi/MCprod/cern/kk2f4144/va0u/206.5/kk2f4144_qqar_206.5_13069.xsdst ! RUN = 13069 ! NEVT = 1000
FILE = /castor/cern.ch/delphi/MCprod/cern/kk2f4144/va0u/206.5/kk2f4144_qqar_206.5_13070.xsdst ! RUN = 13070 ! NEVT = 1000
FILE = /castor/cern.ch/delphi/MCprod/cern/kk2f4144/va0u/206.5/kk2f4144_qqar_206.5_13071.xsdst ! RUN = 13071 ! NEVT = 999
FILE = /castor/cern.ch/delphi/MCprod/cern/kk2f4144/va0u/206.5/kk2f4144_qqar_206.5_13072.xsdst ! RUN = 13072 ! NEVT = 1000
FILE = /castor/cern.ch/delphi/MCprod/cern/kk2f4144/va0u/206.5/kk2f4144_qqar_206.5_13073.xsdst ! RUN = 13073 ! NEVT = 1000
FILE = /castor/cern.ch/delphi/MCprod/cern/kk2f4144/va0u/206.5/kk2f4144_qqar_206.5_13074.xsdst ! RUN = 13074 ! NEVT = 1000
FILE = /castor/cern.ch/delphi/MCprod/cern/kk2f4144/va0u/206.5/kk2f4144_qqar_206.5_13075.xsdst ! RUN = 13075 ! NEVT = 1000
FILE = /castor/cern.ch/delphi/MCprod/cern/kk2f4144/va0u/206.5/kk2f4144_qqar_206.5_13076.xsdst ! RUN = 13076 ! NEVT = 1000
FILE = /castor/cern.ch/delphi/MCprod/cern/kk2f4144/va0u/206.5/kk2f4144_qqar_206.5_13077.xsdst ! RUN = 13077 ! NEVT = 1000
FILE = /castor/cern.ch/delphi/MCprod/cern/kk2f4144/va0u/206.5/kk2f4144_qqar_206.5_13078.xsdst ! RUN = 13078 ! NEVT = 1000
FILE = /castor/cern.ch/delphi/MCprod/cern/kk2f4144/va0u/206.5/kk2f4144_qqar_206.5_13079.xsdst ! RUN = 13079 ! NEVT = 998
FILE = /castor/cern.ch/delphi/MCprod/cern/kk2f4144/va0u/206.5/kk2f4144_qqar_206.5_13080.xsdst ! RUN = 13080 ! NEVT = 999
FILE = /castor/cern.ch/delphi/MCprod/cern/kk2f4144/va0u/206.5/kk2f4144_qqar_206.5_13081.xsdst ! RUN = 13081 ! NEVT = 1000
FILE = /castor/cern.ch/delphi/MCprod/cern/kk2f4144/va0u/206.5/kk2f4144_qqar_206.5_13083.xsdst ! RUN = 13083 ! NEVT = 1000
FILE = /castor/cern.ch/delphi/MCprod/cern/kk2f4144/va0u/206.5/kk2f4144_qqar_206.5_13084.xsdst ! RUN = 13084 ! NEVT = 999
FILE = /castor/cern.ch/delphi/MCprod/cern/kk2f4144/va0u/206.5/kk2f4144_qqar_206.5_13085.xsdst ! RUN = 13085 ! NEVT = 999
FILE = /castor/cern.ch/delphi/MCprod/cern/kk2f4144/va0u/206.5/kk2f4144_qqar_206.5_13086.xsdst ! RUN = 13086 ! NEVT = 1000
FILE = /castor/cern.ch/delphi/MCprod/cern/kk2f4144/va0u/206.5/kk2f4144_qqar_206.5_13087.xsdst ! RUN = 13087 ! NEVT = 1000
FILE = /castor/cern.ch/delphi/MCprod/cern/kk2f4144/va0u/206.5/kk2f4144_qqar_206.5_13088.xsdst ! RUN = 13088 ! NEVT = 999
FILE = /castor/cern.ch/delphi/MCprod/cern/kk2f4144/va0u/206.5/kk2f4144_qqar_206.5_13089.xsdst ! RUN = 13089 ! NEVT = 1000
FILE = /castor/cern.ch/delphi/MCprod/cern/kk2f4144/va0u/206.5/kk2f4144_qqar_206.5_13090.xsdst ! RUN = 13090 ! NEVT = 999
FILE = /castor/cern.ch/delphi/MCprod/cern/kk2f4144/va0u/206.5/kk2f4144_qqar_206.5_13091.xsdst ! RUN = 13091 ! NEVT = 999
FILE = /castor/cern.ch/delphi/MCprod/cern/kk2f4144/va0u/206.5/kk2f4144_qqar_206.5_13092.xsdst ! RUN = 13092 ! NEVT = 999
FILE = /castor/cern.ch/delphi/MCprod/cern/kk2f4144/va0u/206.5/kk2f4144_qqar_206.5_13093.xsdst ! RUN = 13093 ! NEVT = 1000
FILE = /castor/cern.ch/delphi/MCprod/cern/kk2f4144/va0u/206.5/kk2f4144_qqar_206.5_13094.xsdst ! RUN = 13094 ! NEVT = 999
FILE = /castor/cern.ch/delphi/MCprod/cern/kk2f4144/va0u/206.5/kk2f4144_qqar_206.5_13095.xsdst ! RUN = 13095 ! NEVT = 1000
FILE = /castor/cern.ch/delphi/MCprod/cern/kk2f4144/va0u/206.5/kk2f4144_qqar_206.5_13096.xsdst ! RUN = 13096 ! NEVT = 1000
FILE = /castor/cern.ch/delphi/MCprod/cern/kk2f4144/va0u/206.5/kk2f4144_qqar_206.5_13097.xsdst ! RUN = 13097 ! NEVT = 1000
FILE = /castor/cern.ch/delphi/MCprod/cern/kk2f4144/va0u/206.5/kk2f4144_qqar_206.5_13098.xsdst ! RUN = 13098 ! NEVT = 999
FILE = /castor/cern.ch/delphi/MCprod/cern/kk2f4144/va0u/206.5/kk2f4144_qqar_206.5_13099.xsdst ! RUN = 13099 ! NEVT = 1000
FILE = /castor/cern.ch/delphi/MCprod/cern/kk2f4144/va0u/206.5/kk2f4144_qqar_206.5_13100.xsdst ! RUN = 13100 ! NEVT = 999
FILE = /castor/cern.ch/delphi/MCprod/cern/kk2f4144/va0u/206.5/kk2f4144_qqar_206.5_13101.xsdst ! RUN = 13101 ! NEVT = 1000
FILE = /castor/cern.ch/delphi/MCprod/cern/kk2f4144/va0u/206.5/kk2f4144_qqar_206.5_13102.xsdst ! RUN = 13102 ! NEVT = 999
FILE = /castor/cern.ch/delphi/MCprod/cern/kk2f4144/va0u/206.5/kk2f4144_qqar_206.5_13103.xsdst ! RUN = 13103 ! NEVT = 999
FILE = /castor/cern.ch/delphi/MCprod/cern/kk2f4144/va0u/206.5/kk2f4144_qqar_206.5_13104.xsdst ! RUN = 13104 ! NEVT = 1000
FILE = /castor/cern.ch/delphi/MCprod/cern/kk2f4144/va0u/206.5/kk2f4144_qqar_206.5_13105.xsdst ! RUN = 13105 ! NEVT = 1000
FILE = /castor/cern.ch/delphi/MCprod/cern/kk2f4144/va0u/206.5/kk2f4144_qqar_206.5_13106.xsdst ! RUN = 13106 ! NEVT = 998
FILE = /castor/cern.ch/delphi/MCprod/cern/kk2f4144/va0u/206.5/kk2f4144_qqar_206.5_13107.xsdst ! RUN = 13107 ! NEVT = 998
FILE = /castor/cern.ch/delphi/MCprod/cern/kk2f4144/va0u/206.5/kk2f4144_qqar_206.5_13108.xsdst ! RUN = 13108 ! NEVT = 1000
FILE = /castor/cern.ch/delphi/MCprod/cern/kk2f4144/va0u/206.5/kk2f4144_qqar_206.5_13109.xsdst ! RUN = 13109 ! NEVT = 999
FILE = /castor/cern.ch/delphi/MCprod/cern/kk2f4144/va0u/206.5/kk2f4144_qqar_206.5_13110.xsdst ! RUN = 13110 ! NEVT = 999
FILE = /castor/cern.ch/delphi/MCprod/cern/kk2f4144/va0u/206.5/kk2f4144_qqar_206.5_13111.xsdst ! RUN = 13111 ! NEVT = 999
FILE = /castor/cern.ch/delphi/MCprod/cern/kk2f4144/va0u/206.5/kk2f4144_qqar_206.5_13112.xsdst ! RUN = 13112 ! NEVT = 999
FILE = /castor/cern.ch/delphi/MCprod/cern/kk2f4144/va0u/206.5/kk2f4144_qqar_206.5_13113.xsdst ! RUN = 13113 ! NEVT = 1000
FILE = /castor/cern.ch/delphi/MCprod/cern/kk2f4144/va0u/206.5/kk2f4144_qqar_206.5_13114.xsdst ! RUN = 13114 ! NEVT = 998
FILE = /castor/cern.ch/delphi/MCprod/cern/kk2f4144/va0u/206.5/kk2f4144_qqar_206.5_13115.xsdst ! RUN = 13115 ! NEVT = 1000
FILE = /castor/cern.ch/delphi/MCprod/cern/kk2f4144/va0u/206.5/kk2f4144_qqar_206.5_13116.xsdst ! RUN = 13116 ! NEVT = 1000
FILE = /castor/cern.ch/delphi/MCprod/cern/kk2f4144/va0u/206.5/kk2f4144_qqar_206.5_13117.xsdst ! RUN = 13117 ! NEVT = 1000
FILE = /castor/cern.ch/delphi/MCprod/cern/kk2f4144/va0u/206.5/kk2f4144_qqar_206.5_13118.xsdst ! RUN = 13118 ! NEVT = 1000
FILE = /castor/cern.ch/delphi/MCprod/cern/kk2f4144/va0u/206.5/kk2f4144_qqar_206.5_13119.xsdst ! RUN = 13119 ! NEVT = 1000
FILE = /castor/cern.ch/delphi/MCprod/cern/kk2f4144/va0u/206.5/kk2f4144_qqar_206.5_13120.xsdst ! RUN = 13120 ! NEVT = 996
FILE = /castor/cern.ch/delphi/MCprod/cern/kk2f4144/va0u/206.5/kk2f4144_qqar_206.5_13121.xsdst ! RUN = 13121 ! NEVT = 999
FILE = /castor/cern.ch/delphi/MCprod/cern/kk2f4144/va0u/206.5/kk2f4144_qqar_206.5_13122.xsdst ! RUN = 13122 ! NEVT = 997
FILE = /castor/cern.ch/delphi/MCprod/cern/kk2f4144/va0u/206.5/kk2f4144_qqar_206.5_13123.xsdst ! RUN = 13123 ! NEVT = 624
FILE = /castor/cern.ch/delphi/MCprod/cern/kk2f4144/va0u/206.5/kk2f4144_qqar_206.5_13124.xsdst ! RUN = 13124 ! NEVT = 999
FILE = /castor/cern.ch/delphi/MCprod/cern/kk2f4144/va0u/206.5/kk2f4144_qqar_206.5_13125.xsdst ! RUN = 13125 ! NEVT = 1000
FILE = /castor/cern.ch/delphi/MCprod/cern/kk2f4144/va0u/206.5/kk2f4144_qqar_206.5_13126.xsdst ! RUN = 13126 ! NEVT = 1000
FILE = /castor/cern.ch/delphi/MCprod/cern/kk2f4144/va0u/206.5/kk2f4144_qqar_206.5_13127.xsdst ! RUN = 13127 ! NEVT = 998
FILE = /castor/cern.ch/delphi/MCprod/cern/kk2f4144/va0u/206.5/kk2f4144_qqar_206.5_13129.xsdst ! RUN = 13129 ! NEVT = 1000
FILE = /castor/cern.ch/delphi/MCprod/cern/kk2f4144/va0u/206.5/kk2f4144_qqar_206.5_13130.xsdst ! RUN = 13130 ! NEVT = 1000
FILE = /castor/cern.ch/delphi/MCprod/cern/kk2f4144/va0u/206.5/kk2f4144_qqar_206.5_13131.xsdst ! RUN = 13131 ! NEVT = 999
FILE = /castor/cern.ch/delphi/MCprod/cern/kk2f4144/va0u/206.5/kk2f4144_qqar_206.5_13132.xsdst ! RUN = 13132 ! NEVT = 999
FILE = /castor/cern.ch/delphi/MCprod/cern/kk2f4144/va0u/206.5/kk2f4144_qqar_206.5_13133.xsdst ! RUN = 13133 ! NEVT = 999
FILE = /castor/cern.ch/delphi/MCprod/cern/kk2f4144/va0u/206.5/kk2f4144_qqar_206.5_13134.xsdst ! RUN = 13134 ! NEVT = 1000
FILE = /castor/cern.ch/delphi/MCprod/cern/kk2f4144/va0u/206.5/kk2f4144_qqar_206.5_13135.xsdst ! RUN = 13135 ! NEVT = 999
FILE = /castor/cern.ch/delphi/MCprod/cern/kk2f4144/va0u/206.5/kk2f4144_qqar_206.5_13136.xsdst ! RUN = 13136 ! NEVT = 996
FILE = /castor/cern.ch/delphi/MCprod/cern/kk2f4144/va0u/206.5/kk2f4144_qqar_206.5_13137.xsdst ! RUN = 13137 ! NEVT = 998
FILE = /castor/cern.ch/delphi/MCprod/cern/kk2f4144/va0u/206.5/kk2f4144_qqar_206.5_13138.xsdst ! RUN = 13138 ! NEVT = 1000
FILE = /castor/cern.ch/delphi/MCprod/cern/kk2f4144/va0u/206.5/kk2f4144_qqar_206.5_13139.xsdst ! RUN = 13139 ! NEVT = 998
FILE = /castor/cern.ch/delphi/MCprod/cern/kk2f4144/va0u/206.5/kk2f4144_qqar_206.5_13140.xsdst ! RUN = 13140 ! NEVT = 999
FILE = /castor/cern.ch/delphi/MCprod/cern/kk2f4144/va0u/206.5/kk2f4144_qqar_206.5_13141.xsdst ! RUN = 13141 ! NEVT = 998
FILE = /castor/cern.ch/delphi/MCprod/cern/kk2f4144/va0u/206.5/kk2f4144_qqar_206.5_13142.xsdst ! RUN = 13142 ! NEVT = 999
FILE = /castor/cern.ch/delphi/MCprod/cern/kk2f4144/va0u/206.5/kk2f4144_qqar_206.5_13143.xsdst ! RUN = 13143 ! NEVT = 1000
FILE = /castor/cern.ch/delphi/MCprod/cern/kk2f4144/va0u/206.5/kk2f4144_qqar_206.5_13144.xsdst ! RUN = 13144 ! NEVT = 1000
FILE = /castor/cern.ch/delphi/MCprod/cern/kk2f4144/va0u/206.5/kk2f4144_qqar_206.5_13145.xsdst ! RUN = 13145 ! NEVT = 998
FILE = /castor/cern.ch/delphi/MCprod/cern/kk2f4144/va0u/206.5/kk2f4144_qqar_206.5_13146.xsdst ! RUN = 13146 ! NEVT = 1000
FILE = /castor/cern.ch/delphi/MCprod/cern/kk2f4144/va0u/206.5/kk2f4144_qqar_206.5_13147.xsdst ! RUN = 13147 ! NEVT = 1000
FILE = /castor/cern.ch/delphi/MCprod/cern/kk2f4144/va0u/206.5/kk2f4144_qqar_206.5_13148.xsdst ! RUN = 13148 ! NEVT = 999
FILE = /castor/cern.ch/delphi/MCprod/cern/kk2f4144/va0u/206.5/kk2f4144_qqar_206.5_13149.xsdst ! RUN = 13149 ! NEVT = 999
FILE = /castor/cern.ch/delphi/MCprod/cern/kk2f4144/va0u/206.5/kk2f4144_qqar_206.5_13150.xsdst ! RUN = 13150 ! NEVT = 999
FILE = /castor/cern.ch/delphi/MCprod/cern/kk2f4144/va0u/206.5/kk2f4144_qqar_206.5_13151.xsdst ! RUN = 13151 ! NEVT = 998
FILE = /castor/cern.ch/delphi/MCprod/cern/kk2f4144/va0u/206.5/kk2f4144_qqar_206.5_13152.xsdst ! RUN = 13152 ! NEVT = 1000
FILE = /castor/cern.ch/delphi/MCprod/cern/kk2f4144/va0u/206.5/kk2f4144_qqar_206.5_13153.xsdst ! RUN = 13153 ! NEVT = 1000
FILE = /castor/cern.ch/delphi/MCprod/cern/kk2f4144/va0u/206.5/kk2f4144_qqar_206.5_13154.xsdst ! RUN = 13154 ! NEVT = 998
FILE = /castor/cern.ch/delphi/MCprod/cern/kk2f4144/va0u/206.5/kk2f4144_qqar_206.5_13155.xsdst ! RUN = 13155 ! NEVT = 999
FILE = /castor/cern.ch/delphi/MCprod/cern/kk2f4144/va0u/206.5/kk2f4144_qqar_206.5_13156.xsdst ! RUN = 13156 ! NEVT = 1000
FILE = /castor/cern.ch/delphi/MCprod/cern/kk2f4144/va0u/206.5/kk2f4144_qqar_206.5_13157.xsdst ! RUN = 13157 ! NEVT = 1000
FILE = /castor/cern.ch/delphi/MCprod/cern/kk2f4144/va0u/206.5/kk2f4144_qqar_206.5_13158.xsdst ! RUN = 13158 ! NEVT = 1000
FILE = /castor/cern.ch/delphi/MCprod/cern/kk2f4144/va0u/206.5/kk2f4144_qqar_206.5_13159.xsdst ! RUN = 13159 ! NEVT = 1000
FILE = /castor/cern.ch/delphi/MCprod/cern/kk2f4144/va0u/206.5/kk2f4144_qqar_206.5_13160.xsdst ! RUN = 13160 ! NEVT = 998
FILE = /castor/cern.ch/delphi/MCprod/cern/kk2f4144/va0u/206.5/kk2f4144_qqar_206.5_13161.xsdst ! RUN = 13161 ! NEVT = 1000
FILE = /castor/cern.ch/delphi/MCprod/cern/kk2f4144/va0u/206.5/kk2f4144_qqar_206.5_13162.xsdst ! RUN = 13162 ! NEVT = 1000
FILE = /castor/cern.ch/delphi/MCprod/cern/kk2f4144/va0u/206.5/kk2f4144_qqar_206.5_13163.xsdst ! RUN = 13163 ! NEVT = 1000
FILE = /castor/cern.ch/delphi/MCprod/cern/kk2f4144/va0u/206.5/kk2f4144_qqar_206.5_13164.xsdst ! RUN = 13164 ! NEVT = 400
FILE = /castor/cern.ch/delphi/MCprod/cern/kk2f4144/va0u/206.5/kk2f4144_qqar_206.5_13165.xsdst ! RUN = 13165 ! NEVT = 1000
FILE = /castor/cern.ch/delphi/MCprod/cern/kk2f4144/va0u/206.5/kk2f4144_qqar_206.5_13166.xsdst ! RUN = 13166 ! NEVT = 999
FILE = /castor/cern.ch/delphi/MCprod/cern/kk2f4144/va0u/206.5/kk2f4144_qqar_206.5_13167.xsdst ! RUN = 13167 ! NEVT = 1000
FILE = /castor/cern.ch/delphi/MCprod/cern/kk2f4144/va0u/206.5/kk2f4144_qqar_206.5_13168.xsdst ! RUN = 13168 ! NEVT = 1000
FILE = /castor/cern.ch/delphi/MCprod/cern/kk2f4144/va0u/206.5/kk2f4144_qqar_206.5_13169.xsdst ! RUN = 13169 ! NEVT = 1000
FILE = /castor/cern.ch/delphi/MCprod/cern/kk2f4144/va0u/206.5/kk2f4144_qqar_206.5_13170.xsdst ! RUN = 13170 ! NEVT = 1000
FILE = /castor/cern.ch/delphi/MCprod/cern/kk2f4144/va0u/206.5/kk2f4144_qqar_206.5_13171.xsdst ! RUN = 13171 ! NEVT = 1000
FILE = /castor/cern.ch/delphi/MCprod/cern/kk2f4144/va0u/206.5/kk2f4144_qqar_206.5_13172.xsdst ! RUN = 13172 ! NEVT = 1000
FILE = /castor/cern.ch/delphi/MCprod/cern/kk2f4144/va0u/206.5/kk2f4144_qqar_206.5_13173.xsdst ! RUN = 13173 ! NEVT = 999
FILE = /castor/cern.ch/delphi/MCprod/cern/kk2f4144/va0u/206.5/kk2f4144_qqar_206.5_13174.xsdst ! RUN = 13174 ! NEVT = 1000
FILE = /castor/cern.ch/delphi/MCprod/cern/kk2f4144/va0u/206.5/kk2f4144_qqar_206.5_13175.xsdst ! RUN = 13175 ! NEVT = 1000
FILE = /castor/cern.ch/delphi/MCprod/cern/kk2f4144/va0u/206.5/kk2f4144_qqar_206.5_13176.xsdst ! RUN = 13176 ! NEVT = 999
FILE = /castor/cern.ch/delphi/MCprod/cern/kk2f4144/va0u/206.5/kk2f4144_qqar_206.5_13177.xsdst ! RUN = 13177 ! NEVT = 997
FILE = /castor/cern.ch/delphi/MCprod/cern/kk2f4144/va0u/206.5/kk2f4144_qqar_206.5_13178.xsdst ! RUN = 13178 ! NEVT = 1000
FILE = /castor/cern.ch/delphi/MCprod/cern/kk2f4144/va0u/206.5/kk2f4144_qqar_206.5_13179.xsdst ! RUN = 13179 ! NEVT = 1000
FILE = /castor/cern.ch/delphi/MCprod/cern/kk2f4144/va0u/206.5/kk2f4144_qqar_206.5_13180.xsdst ! RUN = 13180 ! NEVT = 999
FILE = /castor/cern.ch/delphi/MCprod/cern/kk2f4144/va0u/206.5/kk2f4144_qqar_206.5_13181.xsdst ! RUN = 13181 ! NEVT = 1000
FILE = /castor/cern.ch/delphi/MCprod/cern/kk2f4144/va0u/206.5/kk2f4144_qqar_206.5_13182.xsdst ! RUN = 13182 ! NEVT = 1000
FILE = /castor/cern.ch/delphi/MCprod/cern/kk2f4144/va0u/206.5/kk2f4144_qqar_206.5_13183.xsdst ! RUN = 13183 ! NEVT = 999
FILE = /castor/cern.ch/delphi/MCprod/cern/kk2f4144/va0u/206.5/kk2f4144_qqar_206.5_13184.xsdst ! RUN = 13184 ! NEVT = 1000
FILE = /castor/cern.ch/delphi/MCprod/cern/kk2f4144/va0u/206.5/kk2f4144_qqar_206.5_13185.xsdst ! RUN = 13185 ! NEVT = 999
FILE = /castor/cern.ch/delphi/MCprod/cern/kk2f4144/va0u/206.5/kk2f4144_qqar_206.5_13186.xsdst ! RUN = 13186 ! NEVT = 1000
FILE = /castor/cern.ch/delphi/MCprod/cern/kk2f4144/va0u/206.5/kk2f4144_qqar_206.5_13187.xsdst ! RUN = 13187 ! NEVT = 998
FILE = /castor/cern.ch/delphi/MCprod/cern/kk2f4144/va0u/206.5/kk2f4144_qqar_206.5_13188.xsdst ! RUN = 13188 ! NEVT = 999
FILE = /castor/cern.ch/delphi/MCprod/cern/kk2f4144/va0u/206.5/kk2f4144_qqar_206.5_13189.xsdst ! RUN = 13189 ! NEVT = 999
FILE = /castor/cern.ch/delphi/MCprod/cern/kk2f4144/va0u/206.5/kk2f4144_qqar_206.5_13190.xsdst ! RUN = 13190 ! NEVT = 999
FILE = /castor/cern.ch/delphi/MCprod/cern/kk2f4144/va0u/206.5/kk2f4144_qqar_206.5_13191.xsdst ! RUN = 13191 ! NEVT = 1000
FILE = /castor/cern.ch/delphi/MCprod/cern/kk2f4144/va0u/206.5/kk2f4144_qqar_206.5_13192.xsdst ! RUN = 13192 ! NEVT = 998
FILE = /castor/cern.ch/delphi/MCprod/cern/kk2f4144/va0u/206.5/kk2f4144_qqar_206.5_13193.xsdst ! RUN = 13193 ! NEVT = 998
FILE = /castor/cern.ch/delphi/MCprod/cern/kk2f4144/va0u/206.5/kk2f4144_qqar_206.5_13194.xsdst ! RUN = 13194 ! NEVT = 999
FILE = /castor/cern.ch/delphi/MCprod/cern/kk2f4144/va0u/206.5/kk2f4144_qqar_206.5_13195.xsdst ! RUN = 13195 ! NEVT = 1000
FILE = /castor/cern.ch/delphi/MCprod/cern/kk2f4144/va0u/206.5/kk2f4144_qqar_206.5_13196.xsdst ! RUN = 13196 ! NEVT = 999
FILE = /castor/cern.ch/delphi/MCprod/cern/kk2f4144/va0u/206.5/kk2f4144_qqar_206.5_13197.xsdst ! RUN = 13197 ! NEVT = 999
FILE = /castor/cern.ch/delphi/MCprod/cern/kk2f4144/va0u/206.5/kk2f4144_qqar_206.5_13198.xsdst ! RUN = 13198 ! NEVT = 1000
FILE = /castor/cern.ch/delphi/MCprod/cern/kk2f4144/va0u/206.5/kk2f4144_qqar_206.5_13199.xsdst ! RUN = 13199 ! NEVT = 999
FILE = /castor/cern.ch/delphi/MCprod/cern/kk2f4144/va0u/206.5/kk2f4144_qqar_206.5_13200.xsdst ! RUN = 13200 ! NEVT = 1000
FILE = /castor/cern.ch/delphi/MCprod/cern/kk2f4144/va0u/206.5/kk2f4144_qqar_206.5_13201.xsdst ! RUN = 13201 ! NEVT = 998
FILE = /castor/cern.ch/delphi/MCprod/cern/kk2f4144/va0u/206.5/kk2f4144_qqar_206.5_13202.xsdst ! RUN = 13202 ! NEVT = 999
FILE = /castor/cern.ch/delphi/MCprod/cern/kk2f4144/va0u/206.5/kk2f4144_qqar_206.5_13203.xsdst ! RUN = 13203 ! NEVT = 1000
FILE = /castor/cern.ch/delphi/MCprod/cern/kk2f4144/va0u/206.5/kk2f4144_qqar_206.5_13204.xsdst ! RUN = 13204 ! NEVT = 998
FILE = /castor/cern.ch/delphi/MCprod/cern/kk2f4144/va0u/206.5/kk2f4144_qqar_206.5_13205.xsdst ! RUN = 13205 ! NEVT = 999
FILE = /castor/cern.ch/delphi/MCprod/cern/kk2f4144/va0u/206.5/kk2f4144_qqar_206.5_13206.xsdst ! RUN = 13206 ! NEVT = 999
FILE = /castor/cern.ch/delphi/MCprod/cern/kk2f4144/va0u/206.5/kk2f4144_qqar_206.5_13207.xsdst ! RUN = 13207 ! NEVT = 1000
FILE = /castor/cern.ch/delphi/MCprod/cern/kk2f4144/va0u/206.5/kk2f4144_qqar_206.5_13208.xsdst ! RUN = 13208 ! NEVT = 999
FILE = /castor/cern.ch/delphi/MCprod/cern/kk2f4144/va0u/206.5/kk2f4144_qqar_206.5_13209.xsdst ! RUN = 13209 ! NEVT = 1000
FILE = /castor/cern.ch/delphi/MCprod/cern/kk2f4144/va0u/206.5/kk2f4144_qqar_206.5_13210.xsdst ! RUN = 13210 ! NEVT = 999
FILE = /castor/cern.ch/delphi/MCprod/cern/kk2f4144/va0u/206.5/kk2f4144_qqar_206.5_13212.xsdst ! RUN = 13212 ! NEVT = 1000
FILE = /castor/cern.ch/delphi/MCprod/cern/kk2f4144/va0u/206.5/kk2f4144_qqar_206.5_13213.xsdst ! RUN = 13213 ! NEVT = 999
FILE = /castor/cern.ch/delphi/MCprod/cern/kk2f4144/va0u/206.5/kk2f4144_qqar_206.5_13214.xsdst ! RUN = 13214 ! NEVT = 1000
FILE = /castor/cern.ch/delphi/MCprod/cern/kk2f4144/va0u/206.5/kk2f4144_qqar_206.5_13215.xsdst ! RUN = 13215 ! NEVT = 1000
FILE = /castor/cern.ch/delphi/MCprod/cern/kk2f4144/va0u/206.5/kk2f4144_qqar_206.5_13216.xsdst ! RUN = 13216 ! NEVT = 999
FILE = /castor/cern.ch/delphi/MCprod/cern/kk2f4144/va0u/206.5/kk2f4144_qqar_206.5_13217.xsdst ! RUN = 13217 ! NEVT = 999
FILE = /castor/cern.ch/delphi/MCprod/cern/kk2f4144/va0u/206.5/kk2f4144_qqar_206.5_13218.xsdst ! RUN = 13218 ! NEVT = 1000
FILE = /castor/cern.ch/delphi/MCprod/cern/kk2f4144/va0u/206.5/kk2f4144_qqar_206.5_13219.xsdst ! RUN = 13219 ! NEVT = 999
FILE = /castor/cern.ch/delphi/MCprod/cern/kk2f4144/va0u/206.5/kk2f4144_qqar_206.5_13220.xsdst ! RUN = 13220 ! NEVT = 1000
FILE = /castor/cern.ch/delphi/MCprod/cern/kk2f4144/va0u/206.5/kk2f4144_qqar_206.5_13221.xsdst ! RUN = 13221 ! NEVT = 1000
FILE = /castor/cern.ch/delphi/MCprod/cern/kk2f4144/va0u/206.5/kk2f4144_qqar_206.5_13222.xsdst ! RUN = 13222 ! NEVT = 998
FILE = /castor/cern.ch/delphi/MCprod/cern/kk2f4144/va0u/206.5/kk2f4144_qqar_206.5_13223.xsdst ! RUN = 13223 ! NEVT = 998
FILE = /castor/cern.ch/delphi/MCprod/cern/kk2f4144/va0u/206.5/kk2f4144_qqar_206.5_13225.xsdst ! RUN = 13225 ! NEVT = 1000
FILE = /castor/cern.ch/delphi/MCprod/cern/kk2f4144/va0u/206.5/kk2f4144_qqar_206.5_13226.xsdst ! RUN = 13226 ! NEVT = 1000
FILE = /castor/cern.ch/delphi/MCprod/cern/kk2f4144/va0u/206.5/kk2f4144_qqar_206.5_13227.xsdst ! RUN = 13227 ! NEVT = 999
FILE = /castor/cern.ch/delphi/MCprod/cern/kk2f4144/va0u/206.5/kk2f4144_qqar_206.5_13228.xsdst ! RUN = 13228 ! NEVT = 1000
FILE = /castor/cern.ch/delphi/MCprod/cern/kk2f4144/va0u/206.5/kk2f4144_qqar_206.5_13229.xsdst ! RUN = 13229 ! NEVT = 1000
FILE = /castor/cern.ch/delphi/MCprod/cern/kk2f4144/va0u/206.5/kk2f4144_qqar_206.5_13230.xsdst ! RUN = 13230 ! NEVT = 1000
FILE = /castor/cern.ch/delphi/MCprod/cern/kk2f4144/va0u/206.5/kk2f4144_qqar_206.5_13231.xsdst ! RUN = 13231 ! NEVT = 998
FILE = /castor/cern.ch/delphi/MCprod/cern/kk2f4144/va0u/206.5/kk2f4144_qqar_206.5_13232.xsdst ! RUN = 13232 ! NEVT = 999
FILE = /castor/cern.ch/delphi/MCprod/cern/kk2f4144/va0u/206.5/kk2f4144_qqar_206.5_13233.xsdst ! RUN = 13233 ! NEVT = 999
FILE = /castor/cern.ch/delphi/MCprod/cern/kk2f4144/va0u/206.5/kk2f4144_qqar_206.5_13234.xsdst ! RUN = 13234 ! NEVT = 1000
FILE = /castor/cern.ch/delphi/MCprod/cern/kk2f4144/va0u/206.5/kk2f4144_qqar_206.5_13235.xsdst ! RUN = 13235 ! NEVT = 1000
FILE = /castor/cern.ch/delphi/MCprod/cern/kk2f4144/va0u/206.5/kk2f4144_qqar_206.5_13236.xsdst ! RUN = 13236 ! NEVT = 1000
FILE = /castor/cern.ch/delphi/MCprod/cern/kk2f4144/va0u/206.5/kk2f4144_qqar_206.5_13237.xsdst ! RUN = 13237 ! NEVT = 999
FILE = /castor/cern.ch/delphi/MCprod/cern/kk2f4144/va0u/206.5/kk2f4144_qqar_206.5_13238.xsdst ! RUN = 13238 ! NEVT = 998
FILE = /castor/cern.ch/delphi/MCprod/cern/kk2f4144/va0u/206.5/kk2f4144_qqar_206.5_13239.xsdst ! RUN = 13239 ! NEVT = 998
FILE = /castor/cern.ch/delphi/MCprod/cern/kk2f4144/va0u/206.5/kk2f4144_qqar_206.5_13240.xsdst ! RUN = 13240 ! NEVT = 998
FILE = /castor/cern.ch/delphi/MCprod/cern/kk2f4144/va0u/206.5/kk2f4144_qqar_206.5_13241.xsdst ! RUN = 13241 ! NEVT = 997
FILE = /castor/cern.ch/delphi/MCprod/cern/kk2f4144/va0u/206.5/kk2f4144_qqar_206.5_13242.xsdst ! RUN = 13242 ! NEVT = 1000
FILE = /castor/cern.ch/delphi/MCprod/cern/kk2f4144/va0u/206.5/kk2f4144_qqar_206.5_13243.xsdst ! RUN = 13243 ! NEVT = 998
FILE = /castor/cern.ch/delphi/MCprod/cern/kk2f4144/va0u/206.5/kk2f4144_qqar_206.5_13244.xsdst ! RUN = 13244 ! NEVT = 999
FILE = /castor/cern.ch/delphi/MCprod/cern/kk2f4144/va0u/206.5/kk2f4144_qqar_206.5_13245.xsdst ! RUN = 13245 ! NEVT = 1000
FILE = /castor/cern.ch/delphi/MCprod/cern/kk2f4144/va0u/206.5/kk2f4144_qqar_206.5_13246.xsdst ! RUN = 13246 ! NEVT = 1000
FILE = /castor/cern.ch/delphi/MCprod/cern/kk2f4144/va0u/206.5/kk2f4144_qqar_206.5_13247.xsdst ! RUN = 13247 ! NEVT = 1000
FILE = /castor/cern.ch/delphi/MCprod/cern/kk2f4144/va0u/206.5/kk2f4144_qqar_206.5_13248.xsdst ! RUN = 13248 ! NEVT = 1000
FILE = /castor/cern.ch/delphi/MCprod/cern/kk2f4144/va0u/206.5/kk2f4144_qqar_206.5_13249.xsdst ! RUN = 13249 ! NEVT = 1000
FILE = /castor/cern.ch/delphi/MCprod/cern/kk2f4144/va0u/206.5/kk2f4144_qqar_206.5_13250.xsdst ! RUN = 13250 ! NEVT = 1000
FILE = /castor/cern.ch/delphi/MCprod/cern/kk2f4144/va0u/206.5/kk2f4144_qqar_206.5_13251.xsdst ! RUN = 13251 ! NEVT = 1000
FILE = /castor/cern.ch/delphi/MCprod/cern/kk2f4144/va0u/206.5/kk2f4144_qqar_206.5_13252.xsdst ! RUN = 13252 ! NEVT = 1000
FILE = /castor/cern.ch/delphi/MCprod/cern/kk2f4144/va0u/206.5/kk2f4144_qqar_206.5_13253.xsdst ! RUN = 13253 ! NEVT = 1000
FILE = /castor/cern.ch/delphi/MCprod/cern/kk2f4144/va0u/206.5/kk2f4144_qqar_206.5_13254.xsdst ! RUN = 13254 ! NEVT = 1000
FILE = /castor/cern.ch/delphi/MCprod/cern/kk2f4144/va0u/206.5/kk2f4144_qqar_206.5_13255.xsdst ! RUN = 13255 ! NEVT = 999
FILE = /castor/cern.ch/delphi/MCprod/cern/kk2f4144/va0u/206.5/kk2f4144_qqar_206.5_13256.xsdst ! RUN = 13256 ! NEVT = 999
FILE = /castor/cern.ch/delphi/MCprod/cern/kk2f4144/va0u/206.5/kk2f4144_qqar_206.5_13257.xsdst ! RUN = 13257 ! NEVT = 998
FILE = /castor/cern.ch/delphi/MCprod/cern/kk2f4144/va0u/206.5/kk2f4144_qqar_206.5_13258.xsdst ! RUN = 13258 ! NEVT = 999
FILE = /castor/cern.ch/delphi/MCprod/cern/kk2f4144/va0u/206.5/kk2f4144_qqar_206.5_13259.xsdst ! RUN = 13259 ! NEVT = 1000
FILE = /castor/cern.ch/delphi/MCprod/cern/kk2f4144/va0u/206.5/kk2f4144_qqar_206.5_13260.xsdst ! RUN = 13260 ! NEVT = 1000
FILE = /castor/cern.ch/delphi/MCprod/cern/kk2f4144/va0u/206.5/kk2f4144_qqar_206.5_13261.xsdst ! RUN = 13261 ! NEVT = 998
FILE = /castor/cern.ch/delphi/MCprod/cern/kk2f4144/va0u/206.5/kk2f4144_qqar_206.5_13262.xsdst ! RUN = 13262 ! NEVT = 999
FILE = /castor/cern.ch/delphi/MCprod/cern/kk2f4144/va0u/206.5/kk2f4144_qqar_206.5_13263.xsdst ! RUN = 13263 ! NEVT = 999
FILE = /castor/cern.ch/delphi/MCprod/cern/kk2f4144/va0u/206.5/kk2f4144_qqar_206.5_13264.xsdst ! RUN = 13264 ! NEVT = 1000
FILE = /castor/cern.ch/delphi/MCprod/cern/kk2f4144/va0u/206.5/kk2f4144_qqar_206.5_13265.xsdst ! RUN = 13265 ! NEVT = 999
FILE = /castor/cern.ch/delphi/MCprod/cern/kk2f4144/va0u/206.5/kk2f4144_qqar_206.5_13266.xsdst ! RUN = 13266 ! NEVT = 999
FILE = /castor/cern.ch/delphi/MCprod/cern/kk2f4144/va0u/206.5/kk2f4144_qqar_206.5_13267.xsdst ! RUN = 13267 ! NEVT = 1000
FILE = /castor/cern.ch/delphi/MCprod/cern/kk2f4144/va0u/206.5/kk2f4144_qqar_206.5_13268.xsdst ! RUN = 13268 ! NEVT = 1000
FILE = /castor/cern.ch/delphi/MCprod/cern/kk2f4144/va0u/206.5/kk2f4144_qqar_206.5_13269.xsdst ! RUN = 13269 ! NEVT = 998
FILE = /castor/cern.ch/delphi/MCprod/cern/kk2f4144/va0u/206.5/kk2f4144_qqar_206.5_13270.xsdst ! RUN = 13270 ! NEVT = 1000
FILE = /castor/cern.ch/delphi/MCprod/cern/kk2f4144/va0u/206.5/kk2f4144_qqar_206.5_13271.xsdst ! RUN = 13271 ! NEVT = 1000
FILE = /castor/cern.ch/delphi/MCprod/cern/kk2f4144/va0u/206.5/kk2f4144_qqar_206.5_13272.xsdst ! RUN = 13272 ! NEVT = 999
FILE = /castor/cern.ch/delphi/MCprod/cern/kk2f4144/va0u/206.5/kk2f4144_qqar_206.5_13273.xsdst ! RUN = 13273 ! NEVT = 999
FILE = /castor/cern.ch/delphi/MCprod/cern/kk2f4144/va0u/206.5/kk2f4144_qqar_206.5_13274.xsdst ! RUN = 13274 ! NEVT = 1000
FILE = /castor/cern.ch/delphi/MCprod/cern/kk2f4144/va0u/206.5/kk2f4144_qqar_206.5_13275.xsdst ! RUN = 13275 ! NEVT = 1000
FILE = /castor/cern.ch/delphi/MCprod/cern/kk2f4144/va0u/206.5/kk2f4144_qqar_206.5_13276.xsdst ! RUN = 13276 ! NEVT = 999
FILE = /castor/cern.ch/delphi/MCprod/cern/kk2f4144/va0u/206.5/kk2f4144_qqar_206.5_13277.xsdst ! RUN = 13277 ! NEVT = 1000
FILE = /castor/cern.ch/delphi/MCprod/cern/kk2f4144/va0u/206.5/kk2f4144_qqar_206.5_13278.xsdst ! RUN = 13278 ! NEVT = 1000
FILE = /castor/cern.ch/delphi/MCprod/cern/kk2f4144/va0u/206.5/kk2f4144_qqar_206.5_13279.xsdst ! RUN = 13279 ! NEVT = 1000
FILE = /castor/cern.ch/delphi/MCprod/cern/kk2f4144/va0u/206.5/kk2f4144_qqar_206.5_13280.xsdst ! RUN = 13280 ! NEVT = 999
FILE = /castor/cern.ch/delphi/MCprod/cern/kk2f4144/va0u/206.5/kk2f4144_qqar_206.5_13281.xsdst ! RUN = 13281 ! NEVT = 1000
FILE = /castor/cern.ch/delphi/MCprod/cern/kk2f4144/va0u/206.5/kk2f4144_qqar_206.5_13282.xsdst ! RUN = 13282 ! NEVT = 1000
FILE = /castor/cern.ch/delphi/MCprod/cern/kk2f4144/va0u/206.5/kk2f4144_qqar_206.5_13283.xsdst ! RUN = 13283 ! NEVT = 1000
FILE = /castor/cern.ch/delphi/MCprod/cern/kk2f4144/va0u/206.5/kk2f4144_qqar_206.5_13284.xsdst ! RUN = 13284 ! NEVT = 999
FILE = /castor/cern.ch/delphi/MCprod/cern/kk2f4144/va0u/206.5/kk2f4144_qqar_206.5_13285.xsdst ! RUN = 13285 ! NEVT = 1000
FILE = /castor/cern.ch/delphi/MCprod/cern/kk2f4144/va0u/206.5/kk2f4144_qqar_206.5_13286.xsdst ! RUN = 13286 ! NEVT = 1000
FILE = /castor/cern.ch/delphi/MCprod/cern/kk2f4144/va0u/206.5/kk2f4144_qqar_206.5_13287.xsdst ! RUN = 13287 ! NEVT = 1000
FILE = /castor/cern.ch/delphi/MCprod/cern/kk2f4144/va0u/206.5/kk2f4144_qqar_206.5_13288.xsdst ! RUN = 13288 ! NEVT = 998
FILE = /castor/cern.ch/delphi/MCprod/cern/kk2f4144/va0u/206.5/kk2f4144_qqar_206.5_13289.xsdst ! RUN = 13289 ! NEVT = 999
FILE = /castor/cern.ch/delphi/MCprod/cern/kk2f4144/va0u/206.5/kk2f4144_qqar_206.5_13290.xsdst ! RUN = 13290 ! NEVT = 998
FILE = /castor/cern.ch/delphi/MCprod/cern/kk2f4144/va0u/206.5/kk2f4144_qqar_206.5_13291.xsdst ! RUN = 13291 ! NEVT = 999
FILE = /castor/cern.ch/delphi/MCprod/cern/kk2f4144/va0u/206.5/kk2f4144_qqar_206.5_13292.xsdst ! RUN = 13292 ! NEVT = 448
FILE = /castor/cern.ch/delphi/MCprod/cern/kk2f4144/va0u/206.5/kk2f4144_qqar_206.5_13293.xsdst ! RUN = 13293 ! NEVT = 999
FILE = /castor/cern.ch/delphi/MCprod/cern/kk2f4144/va0u/206.5/kk2f4144_qqar_206.5_13294.xsdst ! RUN = 13294 ! NEVT = 1000
FILE = /castor/cern.ch/delphi/MCprod/cern/kk2f4144/va0u/206.5/kk2f4144_qqar_206.5_13295.xsdst ! RUN = 13295 ! NEVT = 999
FILE = /castor/cern.ch/delphi/MCprod/cern/kk2f4144/va0u/206.5/kk2f4144_qqar_206.5_13296.xsdst ! RUN = 13296 ! NEVT = 1000
FILE = /castor/cern.ch/delphi/MCprod/cern/kk2f4144/va0u/206.5/kk2f4144_qqar_206.5_13297.xsdst ! RUN = 13297 ! NEVT = 999
FILE = /castor/cern.ch/delphi/MCprod/cern/kk2f4144/va0u/206.5/kk2f4144_qqar_206.5_13298.xsdst ! RUN = 13298 ! NEVT = 1000
FILE = /castor/cern.ch/delphi/MCprod/cern/kk2f4144/va0u/206.5/kk2f4144_qqar_206.5_13299.xsdst ! RUN = 13299 ! NEVT = 999
FILE = /castor/cern.ch/delphi/MCprod/cern/kk2f4144/va0u/206.5/kk2f4144_qqar_206.5_13300.xsdst ! RUN = 13300 ! NEVT = 1000
FILE = /castor/cern.ch/delphi/MCprod/cern/kk2f4144/va0u/206.5/kk2f4144_qqar_206.5_13301.xsdst ! RUN = 13301 ! NEVT = 998
FILE = /castor/cern.ch/delphi/MCprod/cern/kk2f4144/va0u/206.5/kk2f4144_qqar_206.5_13302.xsdst ! RUN = 13302 ! NEVT = 1000
FILE = /castor/cern.ch/delphi/MCprod/cern/kk2f4144/va0u/206.5/kk2f4144_qqar_206.5_13303.xsdst ! RUN = 13303 ! NEVT = 1000
FILE = /castor/cern.ch/delphi/MCprod/cern/kk2f4144/va0u/206.5/kk2f4144_qqar_206.5_13304.xsdst ! RUN = 13304 ! NEVT = 999
FILE = /castor/cern.ch/delphi/MCprod/cern/kk2f4144/va0u/206.5/kk2f4144_qqar_206.5_13305.xsdst ! RUN = 13305 ! NEVT = 999
FILE = /castor/cern.ch/delphi/MCprod/cern/kk2f4144/va0u/206.5/kk2f4144_qqar_206.5_13306.xsdst ! RUN = 13306 ! NEVT = 999
FILE = /castor/cern.ch/delphi/MCprod/cern/kk2f4144/va0u/206.5/kk2f4144_qqar_206.5_13307.xsdst ! RUN = 13307 ! NEVT = 1000
FILE = /castor/cern.ch/delphi/MCprod/cern/kk2f4144/va0u/206.5/kk2f4144_qqar_206.5_13308.xsdst ! RUN = 13308 ! NEVT = 1000
FILE = /castor/cern.ch/delphi/MCprod/cern/kk2f4144/va0u/206.5/kk2f4144_qqar_206.5_13309.xsdst ! RUN = 13309 ! NEVT = 999
FILE = /castor/cern.ch/delphi/MCprod/cern/kk2f4144/va0u/206.5/kk2f4144_qqar_206.5_13310.xsdst ! RUN = 13310 ! NEVT = 999
FILE = /castor/cern.ch/delphi/MCprod/cern/kk2f4144/va0u/206.5/kk2f4144_qqar_206.5_13311.xsdst ! RUN = 13311 ! NEVT = 1000
FILE = /castor/cern.ch/delphi/MCprod/cern/kk2f4144/va0u/206.5/kk2f4144_qqar_206.5_13313.xsdst ! RUN = 13313 ! NEVT = 1000
FILE = /castor/cern.ch/delphi/MCprod/cern/kk2f4144/va0u/206.5/kk2f4144_qqar_206.5_13314.xsdst ! RUN = 13314 ! NEVT = 999
FILE = /castor/cern.ch/delphi/MCprod/cern/kk2f4144/va0u/206.5/kk2f4144_qqar_206.5_13315.xsdst ! RUN = 13315 ! NEVT = 999
FILE = /castor/cern.ch/delphi/MCprod/cern/kk2f4144/va0u/206.5/kk2f4144_qqar_206.5_13316.xsdst ! RUN = 13316 ! NEVT = 999
FILE = /castor/cern.ch/delphi/MCprod/cern/kk2f4144/va0u/206.5/kk2f4144_qqar_206.5_13317.xsdst ! RUN = 13317 ! NEVT = 1000
FILE = /castor/cern.ch/delphi/MCprod/cern/kk2f4144/va0u/206.5/kk2f4144_qqar_206.5_13318.xsdst ! RUN = 13318 ! NEVT = 998
FILE = /castor/cern.ch/delphi/MCprod/cern/kk2f4144/va0u/206.5/kk2f4144_qqar_206.5_13319.xsdst ! RUN = 13319 ! NEVT = 1000
FILE = /castor/cern.ch/delphi/MCprod/cern/kk2f4144/va0u/206.5/kk2f4144_qqar_206.5_13320.xsdst ! RUN = 13320 ! NEVT = 999
FILE = /castor/cern.ch/delphi/MCprod/cern/kk2f4144/va0u/206.5/kk2f4144_qqar_206.5_13321.xsdst ! RUN = 13321 ! NEVT = 1000
FILE = /castor/cern.ch/delphi/MCprod/cern/kk2f4144/va0u/206.5/kk2f4144_qqar_206.5_13322.xsdst ! RUN = 13322 ! NEVT = 999
FILE = /castor/cern.ch/delphi/MCprod/cern/kk2f4144/va0u/206.5/kk2f4144_qqar_206.5_13323.xsdst ! RUN = 13323 ! NEVT = 999
FILE = /castor/cern.ch/delphi/MCprod/cern/kk2f4144/va0u/206.5/kk2f4144_qqar_206.5_13324.xsdst ! RUN = 13324 ! NEVT = 1000
FILE = /castor/cern.ch/delphi/MCprod/cern/kk2f4144/va0u/206.5/kk2f4144_qqar_206.5_13325.xsdst ! RUN = 13325 ! NEVT = 1000
FILE = /castor/cern.ch/delphi/MCprod/cern/kk2f4144/va0u/206.5/kk2f4144_qqar_206.5_13326.xsdst ! RUN = 13326 ! NEVT = 999
FILE = /castor/cern.ch/delphi/MCprod/cern/kk2f4144/va0u/206.5/kk2f4144_qqar_206.5_13327.xsdst ! RUN = 13327 ! NEVT = 1000
FILE = /castor/cern.ch/delphi/MCprod/cern/kk2f4144/va0u/206.5/kk2f4144_qqar_206.5_13328.xsdst ! RUN = 13328 ! NEVT = 999
FILE = /castor/cern.ch/delphi/MCprod/cern/kk2f4144/va0u/206.5/kk2f4144_qqar_206.5_13329.xsdst ! RUN = 13329 ! NEVT = 998
FILE = /castor/cern.ch/delphi/MCprod/cern/kk2f4144/va0u/206.5/kk2f4144_qqar_206.5_13330.xsdst ! RUN = 13330 ! NEVT = 999
FILE = /castor/cern.ch/delphi/MCprod/cern/kk2f4144/va0u/206.5/kk2f4144_qqar_206.5_13331.xsdst ! RUN = 13331 ! NEVT = 1000
FILE = /castor/cern.ch/delphi/MCprod/cern/kk2f4144/va0u/206.5/kk2f4144_qqar_206.5_13332.xsdst ! RUN = 13332 ! NEVT = 999
FILE = /castor/cern.ch/delphi/MCprod/cern/kk2f4144/va0u/206.5/kk2f4144_qqar_206.5_13333.xsdst ! RUN = 13333 ! NEVT = 999
FILE = /castor/cern.ch/delphi/MCprod/cern/kk2f4144/va0u/206.5/kk2f4144_qqar_206.5_13334.xsdst ! RUN = 13334 ! NEVT = 1000
FILE = /castor/cern.ch/delphi/MCprod/cern/kk2f4144/va0u/206.5/kk2f4144_qqar_206.5_13335.xsdst ! RUN = 13335 ! NEVT = 998
FILE = /castor/cern.ch/delphi/MCprod/cern/kk2f4144/va0u/206.5/kk2f4144_qqar_206.5_13336.xsdst ! RUN = 13336 ! NEVT = 1000
FILE = /castor/cern.ch/delphi/MCprod/cern/kk2f4144/va0u/206.5/kk2f4144_qqar_206.5_13337.xsdst ! RUN = 13337 ! NEVT = 997
FILE = /castor/cern.ch/delphi/MCprod/cern/kk2f4144/va0u/206.5/kk2f4144_qqar_206.5_13338.xsdst ! RUN = 13338 ! NEVT = 1000
FILE = /castor/cern.ch/delphi/MCprod/cern/kk2f4144/va0u/206.5/kk2f4144_qqar_206.5_13339.xsdst ! RUN = 13339 ! NEVT = 998
FILE = /castor/cern.ch/delphi/MCprod/cern/kk2f4144/va0u/206.5/kk2f4144_qqar_206.5_13340.xsdst ! RUN = 13340 ! NEVT = 998
FILE = /castor/cern.ch/delphi/MCprod/cern/kk2f4144/va0u/206.5/kk2f4144_qqar_206.5_13341.xsdst ! RUN = 13341 ! NEVT = 998
FILE = /castor/cern.ch/delphi/MCprod/cern/kk2f4144/va0u/206.5/kk2f4144_qqar_206.5_13342.xsdst ! RUN = 13342 ! NEVT = 999
FILE = /castor/cern.ch/delphi/MCprod/cern/kk2f4144/va0u/206.5/kk2f4144_qqar_206.5_13343.xsdst ! RUN = 13343 ! NEVT = 1000
FILE = /castor/cern.ch/delphi/MCprod/cern/kk2f4144/va0u/206.5/kk2f4144_qqar_206.5_13344.xsdst ! RUN = 13344 ! NEVT = 1000
FILE = /castor/cern.ch/delphi/MCprod/cern/kk2f4144/va0u/206.5/kk2f4144_qqar_206.5_13345.xsdst ! RUN = 13345 ! NEVT = 1000
FILE = /castor/cern.ch/delphi/MCprod/cern/kk2f4144/va0u/206.5/kk2f4144_qqar_206.5_13346.xsdst ! RUN = 13346 ! NEVT = 1000
FILE = /castor/cern.ch/delphi/MCprod/cern/kk2f4144/va0u/206.5/kk2f4144_qqar_206.5_13347.xsdst ! RUN = 13347 ! NEVT = 1000
FILE = /castor/cern.ch/delphi/MCprod/cern/kk2f4144/va0u/206.5/kk2f4144_qqar_206.5_13348.xsdst ! RUN = 13348 ! NEVT = 1000
FILE = /castor/cern.ch/delphi/MCprod/cern/kk2f4144/va0u/206.5/kk2f4144_qqar_206.5_13349.xsdst ! RUN = 13349 ! NEVT = 999
FILE = /castor/cern.ch/delphi/MCprod/cern/kk2f4144/va0u/206.5/kk2f4144_qqar_206.5_13350.xsdst ! RUN = 13350 ! NEVT = 1000
FILE = /castor/cern.ch/delphi/MCprod/cern/kk2f4144/va0u/206.5/kk2f4144_qqar_206.5_13351.xsdst ! RUN = 13351 ! NEVT = 1000
FILE = /castor/cern.ch/delphi/MCprod/cern/kk2f4144/va0u/206.5/kk2f4144_qqar_206.5_13353.xsdst ! RUN = 13353 ! NEVT = 999
FILE = /castor/cern.ch/delphi/MCprod/cern/kk2f4144/va0u/206.5/kk2f4144_qqar_206.5_13354.xsdst ! RUN = 13354 ! NEVT = 999
FILE = /castor/cern.ch/delphi/MCprod/cern/kk2f4144/va0u/206.5/kk2f4144_qqar_206.5_13355.xsdst ! RUN = 13355 ! NEVT = 997
FILE = /castor/cern.ch/delphi/MCprod/cern/kk2f4144/va0u/206.5/kk2f4144_qqar_206.5_13356.xsdst ! RUN = 13356 ! NEVT = 999
FILE = /castor/cern.ch/delphi/MCprod/cern/kk2f4144/va0u/206.5/kk2f4144_qqar_206.5_13357.xsdst ! RUN = 13357 ! NEVT = 999
FILE = /castor/cern.ch/delphi/MCprod/cern/kk2f4144/va0u/206.5/kk2f4144_qqar_206.5_13358.xsdst ! RUN = 13358 ! NEVT = 998
FILE = /castor/cern.ch/delphi/MCprod/cern/kk2f4144/va0u/206.5/kk2f4144_qqar_206.5_13359.xsdst ! RUN = 13359 ! NEVT = 1000
FILE = /castor/cern.ch/delphi/MCprod/cern/kk2f4144/va0u/206.5/kk2f4144_qqar_206.5_13360.xsdst ! RUN = 13360 ! NEVT = 999
FILE = /castor/cern.ch/delphi/MCprod/cern/kk2f4144/va0u/206.5/kk2f4144_qqar_206.5_13361.xsdst ! RUN = 13361 ! NEVT = 1000
FILE = /castor/cern.ch/delphi/MCprod/cern/kk2f4144/va0u/206.5/kk2f4144_qqar_206.5_13362.xsdst ! RUN = 13362 ! NEVT = 999
FILE = /castor/cern.ch/delphi/MCprod/cern/kk2f4144/va0u/206.5/kk2f4144_qqar_206.5_13363.xsdst ! RUN = 13363 ! NEVT = 999
FILE = /castor/cern.ch/delphi/MCprod/cern/kk2f4144/va0u/206.5/kk2f4144_qqar_206.5_13364.xsdst ! RUN = 13364 ! NEVT = 1000
FILE = /castor/cern.ch/delphi/MCprod/cern/kk2f4144/va0u/206.5/kk2f4144_qqar_206.5_13365.xsdst ! RUN = 13365 ! NEVT = 998
FILE = /castor/cern.ch/delphi/MCprod/cern/kk2f4144/va0u/206.5/kk2f4144_qqar_206.5_13366.xsdst ! RUN = 13366 ! NEVT = 999
FILE = /castor/cern.ch/delphi/MCprod/cern/kk2f4144/va0u/206.5/kk2f4144_qqar_206.5_13367.xsdst ! RUN = 13367 ! NEVT = 999
FILE = /castor/cern.ch/delphi/MCprod/cern/kk2f4144/va0u/206.5/kk2f4144_qqar_206.5_13368.xsdst ! RUN = 13368 ! NEVT = 997
FILE = /castor/cern.ch/delphi/MCprod/cern/kk2f4144/va0u/206.5/kk2f4144_qqar_206.5_13369.xsdst ! RUN = 13369 ! NEVT = 1000
FILE = /castor/cern.ch/delphi/MCprod/cern/kk2f4144/va0u/206.5/kk2f4144_qqar_206.5_13370.xsdst ! RUN = 13370 ! NEVT = 1000
FILE = /castor/cern.ch/delphi/MCprod/cern/kk2f4144/va0u/206.5/kk2f4144_qqar_206.5_13371.xsdst ! RUN = 13371 ! NEVT = 1000
FILE = /castor/cern.ch/delphi/MCprod/cern/kk2f4144/va0u/206.5/kk2f4144_qqar_206.5_13372.xsdst ! RUN = 13372 ! NEVT = 999
FILE = /castor/cern.ch/delphi/MCprod/cern/kk2f4144/va0u/206.5/kk2f4144_qqar_206.5_13373.xsdst ! RUN = 13373 ! NEVT = 1000
FILE = /castor/cern.ch/delphi/MCprod/cern/kk2f4144/va0u/206.5/kk2f4144_qqar_206.5_13374.xsdst ! RUN = 13374 ! NEVT = 1000
FILE = /castor/cern.ch/delphi/MCprod/cern/kk2f4144/va0u/206.5/kk2f4144_qqar_206.5_13375.xsdst ! RUN = 13375 ! NEVT = 886
FILE = /castor/cern.ch/delphi/MCprod/cern/kk2f4144/va0u/206.5/kk2f4144_qqar_206.5_13376.xsdst ! RUN = 13376 ! NEVT = 999
FILE = /castor/cern.ch/delphi/MCprod/cern/kk2f4144/va0u/206.5/kk2f4144_qqar_206.5_13377.xsdst ! RUN = 13377 ! NEVT = 1000
FILE = /castor/cern.ch/delphi/MCprod/cern/kk2f4144/va0u/206.5/kk2f4144_qqar_206.5_13378.xsdst ! RUN = 13378 ! NEVT = 1000
FILE = /castor/cern.ch/delphi/MCprod/cern/kk2f4144/va0u/206.5/kk2f4144_qqar_206.5_13379.xsdst ! RUN = 13379 ! NEVT = 1000
FILE = /castor/cern.ch/delphi/MCprod/cern/kk2f4144/va0u/206.5/kk2f4144_qqar_206.5_13380.xsdst ! RUN = 13380 ! NEVT = 1000
FILE = /castor/cern.ch/delphi/MCprod/cern/kk2f4144/va0u/206.5/kk2f4144_qqar_206.5_13381.xsdst ! RUN = 13381 ! NEVT = 999
FILE = /castor/cern.ch/delphi/MCprod/cern/kk2f4144/va0u/206.5/kk2f4144_qqar_206.5_13382.xsdst ! RUN = 13382 ! NEVT = 1000
FILE = /castor/cern.ch/delphi/MCprod/cern/kk2f4144/va0u/206.5/kk2f4144_qqar_206.5_13383.xsdst ! RUN = 13383 ! NEVT = 1000
FILE = /castor/cern.ch/delphi/MCprod/cern/kk2f4144/va0u/206.5/kk2f4144_qqar_206.5_13384.xsdst ! RUN = 13384 ! NEVT = 1000
FILE = /castor/cern.ch/delphi/MCprod/cern/kk2f4144/va0u/206.5/kk2f4144_qqar_206.5_13385.xsdst ! RUN = 13385 ! NEVT = 998
FILE = /castor/cern.ch/delphi/MCprod/cern/kk2f4144/va0u/206.5/kk2f4144_qqar_206.5_13386.xsdst ! RUN = 13386 ! NEVT = 998
FILE = /castor/cern.ch/delphi/MCprod/cern/kk2f4144/va0u/206.5/kk2f4144_qqar_206.5_13387.xsdst ! RUN = 13387 ! NEVT = 998
FILE = /castor/cern.ch/delphi/MCprod/cern/kk2f4144/va0u/206.5/kk2f4144_qqar_206.5_13388.xsdst ! RUN = 13388 ! NEVT = 1000
FILE = /castor/cern.ch/delphi/MCprod/cern/kk2f4144/va0u/206.5/kk2f4144_qqar_206.5_13389.xsdst ! RUN = 13389 ! NEVT = 1000
FILE = /castor/cern.ch/delphi/MCprod/cern/kk2f4144/va0u/206.5/kk2f4144_qqar_206.5_13390.xsdst ! RUN = 13390 ! NEVT = 999
FILE = /castor/cern.ch/delphi/MCprod/cern/kk2f4144/va0u/206.5/kk2f4144_qqar_206.5_13391.xsdst ! RUN = 13391 ! NEVT = 1000
FILE = /castor/cern.ch/delphi/MCprod/cern/kk2f4144/va0u/206.5/kk2f4144_qqar_206.5_13392.xsdst ! RUN = 13392 ! NEVT = 1000
FILE = /castor/cern.ch/delphi/MCprod/cern/kk2f4144/va0u/206.5/kk2f4144_qqar_206.5_13393.xsdst ! RUN = 13393 ! NEVT = 999
FILE = /castor/cern.ch/delphi/MCprod/cern/kk2f4144/va0u/206.5/kk2f4144_qqar_206.5_13394.xsdst ! RUN = 13394 ! NEVT = 1000
FILE = /castor/cern.ch/delphi/MCprod/cern/kk2f4144/va0u/206.5/kk2f4144_qqar_206.5_13395.xsdst ! RUN = 13395 ! NEVT = 998
FILE = /castor/cern.ch/delphi/MCprod/cern/kk2f4144/va0u/206.5/kk2f4144_qqar_206.5_13396.xsdst ! RUN = 13396 ! NEVT = 999
FILE = /castor/cern.ch/delphi/MCprod/cern/kk2f4144/va0u/206.5/kk2f4144_qqar_206.5_13397.xsdst ! RUN = 13397 ! NEVT = 1000
FILE = /castor/cern.ch/delphi/MCprod/cern/kk2f4144/va0u/206.5/kk2f4144_qqar_206.5_13398.xsdst ! RUN = 13398 ! NEVT = 1000
FILE = /castor/cern.ch/delphi/MCprod/cern/kk2f4144/va0u/206.5/kk2f4144_qqar_206.5_13399.xsdst ! RUN = 13399 ! NEVT = 1000
FILE = /castor/cern.ch/delphi/MCprod/cern/kk2f4144/va0u/206.5/kk2f4144_qqar_206.5_13400.xsdst ! RUN = 13400 ! NEVT = 1000
FILE = /castor/cern.ch/delphi/MCprod/cern/kk2f4144/va0u/206.5/kk2f4144_qqar_206.5_13401.xsdst ! RUN = 13401 ! NEVT = 999
FILE = /castor/cern.ch/delphi/MCprod/cern/kk2f4144/va0u/206.5/kk2f4144_qqar_206.5_13402.xsdst ! RUN = 13402 ! NEVT = 1000
FILE = /castor/cern.ch/delphi/MCprod/cern/kk2f4144/va0u/206.5/kk2f4144_qqar_206.5_13403.xsdst ! RUN = 13403 ! NEVT = 999
FILE = /castor/cern.ch/delphi/MCprod/cern/kk2f4144/va0u/206.5/kk2f4144_qqar_206.5_13404.xsdst ! RUN = 13404 ! NEVT = 999
FILE = /castor/cern.ch/delphi/MCprod/cern/kk2f4144/va0u/206.5/kk2f4144_qqar_206.5_13405.xsdst ! RUN = 13405 ! NEVT = 1000
FILE = /castor/cern.ch/delphi/MCprod/cern/kk2f4144/va0u/206.5/kk2f4144_qqar_206.5_13406.xsdst ! RUN = 13406 ! NEVT = 998
FILE = /castor/cern.ch/delphi/MCprod/cern/kk2f4144/va0u/206.5/kk2f4144_qqar_206.5_13407.xsdst ! RUN = 13407 ! NEVT = 1000
FILE = /castor/cern.ch/delphi/MCprod/cern/kk2f4144/va0u/206.5/kk2f4144_qqar_206.5_13408.xsdst ! RUN = 13408 ! NEVT = 1000
FILE = /castor/cern.ch/delphi/MCprod/cern/kk2f4144/va0u/206.5/kk2f4144_qqar_206.5_13409.xsdst ! RUN = 13409 ! NEVT = 1000
FILE = /castor/cern.ch/delphi/MCprod/cern/kk2f4144/va0u/206.5/kk2f4144_qqar_206.5_13410.xsdst ! RUN = 13410 ! NEVT = 1000
FILE = /castor/cern.ch/delphi/MCprod/cern/kk2f4144/va0u/206.5/kk2f4144_qqar_206.5_13411.xsdst ! RUN = 13411 ! NEVT = 1000
FILE = /castor/cern.ch/delphi/MCprod/cern/kk2f4144/va0u/206.5/kk2f4144_qqar_206.5_13412.xsdst ! RUN = 13412 ! NEVT = 1000
FILE = /castor/cern.ch/delphi/MCprod/cern/kk2f4144/va0u/206.5/kk2f4144_qqar_206.5_13413.xsdst ! RUN = 13413 ! NEVT = 1000
FILE = /castor/cern.ch/delphi/MCprod/cern/kk2f4144/va0u/206.5/kk2f4144_qqar_206.5_13414.xsdst ! RUN = 13414 ! NEVT = 1000
FILE = /castor/cern.ch/delphi/MCprod/cern/kk2f4144/va0u/206.5/kk2f4144_qqar_206.5_13415.xsdst ! RUN = 13415 ! NEVT = 1000
FILE = /castor/cern.ch/delphi/MCprod/cern/kk2f4144/va0u/206.5/kk2f4144_qqar_206.5_13416.xsdst ! RUN = 13416 ! NEVT = 999
FILE = /castor/cern.ch/delphi/MCprod/cern/kk2f4144/va0u/206.5/kk2f4144_qqar_206.5_13417.xsdst ! RUN = 13417 ! NEVT = 998
FILE = /castor/cern.ch/delphi/MCprod/cern/kk2f4144/va0u/206.5/kk2f4144_qqar_206.5_13418.xsdst ! RUN = 13418 ! NEVT = 999
FILE = /castor/cern.ch/delphi/MCprod/cern/kk2f4144/va0u/206.5/kk2f4144_qqar_206.5_13419.xsdst ! RUN = 13419 ! NEVT = 999
FILE = /castor/cern.ch/delphi/MCprod/cern/kk2f4144/va0u/206.5/kk2f4144_qqar_206.5_13420.xsdst ! RUN = 13420 ! NEVT = 998
FILE = /castor/cern.ch/delphi/MCprod/cern/kk2f4144/va0u/206.5/kk2f4144_qqar_206.5_13421.xsdst ! RUN = 13421 ! NEVT = 1000
FILE = /castor/cern.ch/delphi/MCprod/cern/kk2f4144/va0u/206.5/kk2f4144_qqar_206.5_13422.xsdst ! RUN = 13422 ! NEVT = 1000
FILE = /castor/cern.ch/delphi/MCprod/cern/kk2f4144/va0u/206.5/kk2f4144_qqar_206.5_13423.xsdst ! RUN = 13423 ! NEVT = 1000
FILE = /castor/cern.ch/delphi/MCprod/cern/kk2f4144/va0u/206.5/kk2f4144_qqar_206.5_13424.xsdst ! RUN = 13424 ! NEVT = 1000
FILE = /castor/cern.ch/delphi/MCprod/cern/kk2f4144/va0u/206.5/kk2f4144_qqar_206.5_13425.xsdst ! RUN = 13425 ! NEVT = 999
FILE = /castor/cern.ch/delphi/MCprod/cern/kk2f4144/va0u/206.5/kk2f4144_qqar_206.5_13426.xsdst ! RUN = 13426 ! NEVT = 998
FILE = /castor/cern.ch/delphi/MCprod/cern/kk2f4144/va0u/206.5/kk2f4144_qqar_206.5_13427.xsdst ! RUN = 13427 ! NEVT = 844
FILE = /castor/cern.ch/delphi/MCprod/cern/kk2f4144/va0u/206.5/kk2f4144_qqar_206.5_13428.xsdst ! RUN = 13428 ! NEVT = 999
FILE = /castor/cern.ch/delphi/MCprod/cern/kk2f4144/va0u/206.5/kk2f4144_qqar_206.5_13429.xsdst ! RUN = 13429 ! NEVT = 999
FILE = /castor/cern.ch/delphi/MCprod/cern/kk2f4144/va0u/206.5/kk2f4144_qqar_206.5_13430.xsdst ! RUN = 13430 ! NEVT = 1000
FILE = /castor/cern.ch/delphi/MCprod/cern/kk2f4144/va0u/206.5/kk2f4144_qqar_206.5_13431.xsdst ! RUN = 13431 ! NEVT = 1000
FILE = /castor/cern.ch/delphi/MCprod/cern/kk2f4144/va0u/206.5/kk2f4144_qqar_206.5_13432.xsdst ! RUN = 13432 ! NEVT = 999
FILE = /castor/cern.ch/delphi/MCprod/cern/kk2f4144/va0u/206.5/kk2f4144_qqar_206.5_13433.xsdst ! RUN = 13433 ! NEVT = 1000
FILE = /castor/cern.ch/delphi/MCprod/cern/kk2f4144/va0u/206.5/kk2f4144_qqar_206.5_13434.xsdst ! RUN = 13434 ! NEVT = 999
FILE = /castor/cern.ch/delphi/MCprod/cern/kk2f4144/va0u/206.5/kk2f4144_qqar_206.5_13435.xsdst ! RUN = 13435 ! NEVT = 999
FILE = /castor/cern.ch/delphi/MCprod/cern/kk2f4144/va0u/206.5/kk2f4144_qqar_206.5_13436.xsdst ! RUN = 13436 ! NEVT = 999
FILE = /castor/cern.ch/delphi/MCprod/cern/kk2f4144/va0u/206.5/kk2f4144_qqar_206.5_13437.xsdst ! RUN = 13437 ! NEVT = 999
FILE = /castor/cern.ch/delphi/MCprod/cern/kk2f4144/va0u/206.5/kk2f4144_qqar_206.5_13438.xsdst ! RUN = 13438 ! NEVT = 999
FILE = /castor/cern.ch/delphi/MCprod/cern/kk2f4144/va0u/206.5/kk2f4144_qqar_206.5_13439.xsdst ! RUN = 13439 ! NEVT = 1000
FILE = /castor/cern.ch/delphi/MCprod/cern/kk2f4144/va0u/206.5/kk2f4144_qqar_206.5_13440.xsdst ! RUN = 13440 ! NEVT = 1000
FILE = /castor/cern.ch/delphi/MCprod/cern/kk2f4144/va0u/206.5/kk2f4144_qqar_206.5_13441.xsdst ! RUN = 13441 ! NEVT = 999
FILE = /castor/cern.ch/delphi/MCprod/cern/kk2f4144/va0u/206.5/kk2f4144_qqar_206.5_13442.xsdst ! RUN = 13442 ! NEVT = 1000
FILE = /castor/cern.ch/delphi/MCprod/cern/kk2f4144/va0u/206.5/kk2f4144_qqar_206.5_13443.xsdst ! RUN = 13443 ! NEVT = 999
FILE = /castor/cern.ch/delphi/MCprod/cern/kk2f4144/va0u/206.5/kk2f4144_qqar_206.5_13444.xsdst ! RUN = 13444 ! NEVT = 1000
FILE = /castor/cern.ch/delphi/MCprod/cern/kk2f4144/va0u/206.5/kk2f4144_qqar_206.5_13445.xsdst ! RUN = 13445 ! NEVT = 1000
FILE = /castor/cern.ch/delphi/MCprod/cern/kk2f4144/va0u/206.5/kk2f4144_qqar_206.5_13446.xsdst ! RUN = 13446 ! NEVT = 999
FILE = /castor/cern.ch/delphi/MCprod/cern/kk2f4144/va0u/206.5/kk2f4144_qqar_206.5_13447.xsdst ! RUN = 13447 ! NEVT = 1000
FILE = /castor/cern.ch/delphi/MCprod/cern/kk2f4144/va0u/206.5/kk2f4144_qqar_206.5_13448.xsdst ! RUN = 13448 ! NEVT = 1000
FILE = /castor/cern.ch/delphi/MCprod/cern/kk2f4144/va0u/206.5/kk2f4144_qqar_206.5_13449.xsdst ! RUN = 13449 ! NEVT = 999
FILE = /castor/cern.ch/delphi/MCprod/cern/kk2f4144/va0u/206.5/kk2f4144_qqar_206.5_13450.xsdst ! RUN = 13450 ! NEVT = 998
FILE = /castor/cern.ch/delphi/MCprod/cern/kk2f4144/va0u/206.5/kk2f4144_qqar_206.5_13451.xsdst ! RUN = 13451 ! NEVT = 1000
FILE = /castor/cern.ch/delphi/MCprod/cern/kk2f4144/va0u/206.5/kk2f4144_qqar_206.5_13452.xsdst ! RUN = 13452 ! NEVT = 999
FILE = /castor/cern.ch/delphi/MCprod/cern/kk2f4144/va0u/206.5/kk2f4144_qqar_206.5_13453.xsdst ! RUN = 13453 ! NEVT = 999
FILE = /castor/cern.ch/delphi/MCprod/cern/kk2f4144/va0u/206.5/kk2f4144_qqar_206.5_13454.xsdst ! RUN = 13454 ! NEVT = 1000
FILE = /castor/cern.ch/delphi/MCprod/cern/kk2f4144/va0u/206.5/kk2f4144_qqar_206.5_13455.xsdst ! RUN = 13455 ! NEVT = 998
FILE = /castor/cern.ch/delphi/MCprod/cern/kk2f4144/va0u/206.5/kk2f4144_qqar_206.5_13456.xsdst ! RUN = 13456 ! NEVT = 1000
FILE = /castor/cern.ch/delphi/MCprod/cern/kk2f4144/va0u/206.5/kk2f4144_qqar_206.5_13457.xsdst ! RUN = 13457 ! NEVT = 999
FILE = /castor/cern.ch/delphi/MCprod/cern/kk2f4144/va0u/206.5/kk2f4144_qqar_206.5_13458.xsdst ! RUN = 13458 ! NEVT = 999
FILE = /castor/cern.ch/delphi/MCprod/cern/kk2f4144/va0u/206.5/kk2f4144_qqar_206.5_13459.xsdst ! RUN = 13459 ! NEVT = 1000
FILE = /castor/cern.ch/delphi/MCprod/cern/kk2f4144/va0u/206.5/kk2f4144_qqar_206.5_13460.xsdst ! RUN = 13460 ! NEVT = 1000
FILE = /castor/cern.ch/delphi/MCprod/cern/kk2f4144/va0u/206.5/kk2f4144_qqar_206.5_13461.xsdst ! RUN = 13461 ! NEVT = 998
FILE = /castor/cern.ch/delphi/MCprod/cern/kk2f4144/va0u/206.5/kk2f4144_qqar_206.5_13462.xsdst ! RUN = 13462 ! NEVT = 1000
FILE = /castor/cern.ch/delphi/MCprod/cern/kk2f4144/va0u/206.5/kk2f4144_qqar_206.5_13463.xsdst ! RUN = 13463 ! NEVT = 997
FILE = /castor/cern.ch/delphi/MCprod/cern/kk2f4144/va0u/206.5/kk2f4144_qqar_206.5_13464.xsdst ! RUN = 13464 ! NEVT = 1000
FILE = /castor/cern.ch/delphi/MCprod/cern/kk2f4144/va0u/206.5/kk2f4144_qqar_206.5_13465.xsdst ! RUN = 13465 ! NEVT = 998
FILE = /castor/cern.ch/delphi/MCprod/cern/kk2f4144/va0u/206.5/kk2f4144_qqar_206.5_13466.xsdst ! RUN = 13466 ! NEVT = 999
FILE = /castor/cern.ch/delphi/MCprod/cern/kk2f4144/va0u/206.5/kk2f4144_qqar_206.5_13467.xsdst ! RUN = 13467 ! NEVT = 1000
FILE = /castor/cern.ch/delphi/MCprod/cern/kk2f4144/va0u/206.5/kk2f4144_qqar_206.5_13468.xsdst ! RUN = 13468 ! NEVT = 999
FILE = /castor/cern.ch/delphi/MCprod/cern/kk2f4144/va0u/206.5/kk2f4144_qqar_206.5_13469.xsdst ! RUN = 13469 ! NEVT = 1000
FILE = /castor/cern.ch/delphi/MCprod/cern/kk2f4144/va0u/206.5/kk2f4144_qqar_206.5_13470.xsdst ! RUN = 13470 ! NEVT = 1000
FILE = /castor/cern.ch/delphi/MCprod/cern/kk2f4144/va0u/206.5/kk2f4144_qqar_206.5_13471.xsdst ! RUN = 13471 ! NEVT = 1000
FILE = /castor/cern.ch/delphi/MCprod/cern/kk2f4144/va0u/206.5/kk2f4144_qqar_206.5_13472.xsdst ! RUN = 13472 ! NEVT = 1000
FILE = /castor/cern.ch/delphi/MCprod/cern/kk2f4144/va0u/206.5/kk2f4144_qqar_206.5_13473.xsdst ! RUN = 13473 ! NEVT = 999
FILE = /castor/cern.ch/delphi/MCprod/cern/kk2f4144/va0u/206.5/kk2f4144_qqar_206.5_13474.xsdst ! RUN = 13474 ! NEVT = 999
FILE = /castor/cern.ch/delphi/MCprod/cern/kk2f4144/va0u/206.5/kk2f4144_qqar_206.5_13475.xsdst ! RUN = 13475 ! NEVT = 1000
FILE = /castor/cern.ch/delphi/MCprod/cern/kk2f4144/va0u/206.5/kk2f4144_qqar_206.5_13476.xsdst ! RUN = 13476 ! NEVT = 996
FILE = /castor/cern.ch/delphi/MCprod/cern/kk2f4144/va0u/206.5/kk2f4144_qqar_206.5_13477.xsdst ! RUN = 13477 ! NEVT = 1000
FILE = /castor/cern.ch/delphi/MCprod/cern/kk2f4144/va0u/206.5/kk2f4144_qqar_206.5_13478.xsdst ! RUN = 13478 ! NEVT = 1000
FILE = /castor/cern.ch/delphi/MCprod/cern/kk2f4144/va0u/206.5/kk2f4144_qqar_206.5_13479.xsdst ! RUN = 13479 ! NEVT = 1000
FILE = /castor/cern.ch/delphi/MCprod/cern/kk2f4144/va0u/206.5/kk2f4144_qqar_206.5_13480.xsdst ! RUN = 13480 ! NEVT = 999
FILE = /castor/cern.ch/delphi/MCprod/cern/kk2f4144/va0u/206.5/kk2f4144_qqar_206.5_13481.xsdst ! RUN = 13481 ! NEVT = 1000
FILE = /castor/cern.ch/delphi/MCprod/cern/kk2f4144/va0u/206.5/kk2f4144_qqar_206.5_13482.xsdst ! RUN = 13482 ! NEVT = 1000
FILE = /castor/cern.ch/delphi/MCprod/cern/kk2f4144/va0u/206.5/kk2f4144_qqar_206.5_13483.xsdst ! RUN = 13483 ! NEVT = 999
FILE = /castor/cern.ch/delphi/MCprod/cern/kk2f4144/va0u/206.5/kk2f4144_qqar_206.5_13484.xsdst ! RUN = 13484 ! NEVT = 998
FILE = /castor/cern.ch/delphi/MCprod/cern/kk2f4144/va0u/206.5/kk2f4144_qqar_206.5_13485.xsdst ! RUN = 13485 ! NEVT = 1000
FILE = /castor/cern.ch/delphi/MCprod/cern/kk2f4144/va0u/206.5/kk2f4144_qqar_206.5_13486.xsdst ! RUN = 13486 ! NEVT = 1000
FILE = /castor/cern.ch/delphi/MCprod/cern/kk2f4144/va0u/206.5/kk2f4144_qqar_206.5_13487.xsdst ! RUN = 13487 ! NEVT = 998
FILE = /castor/cern.ch/delphi/MCprod/cern/kk2f4144/va0u/206.5/kk2f4144_qqar_206.5_13488.xsdst ! RUN = 13488 ! NEVT = 1000
FILE = /castor/cern.ch/delphi/MCprod/cern/kk2f4144/va0u/206.5/kk2f4144_qqar_206.5_13489.xsdst ! RUN = 13489 ! NEVT = 999
FILE = /castor/cern.ch/delphi/MCprod/cern/kk2f4144/va0u/206.5/kk2f4144_qqar_206.5_13490.xsdst ! RUN = 13490 ! NEVT = 999
FILE = /castor/cern.ch/delphi/MCprod/cern/kk2f4144/va0u/206.5/kk2f4144_qqar_206.5_13491.xsdst ! RUN = 13491 ! NEVT = 999
FILE = /castor/cern.ch/delphi/MCprod/cern/kk2f4144/va0u/206.5/kk2f4144_qqar_206.5_13492.xsdst ! RUN = 13492 ! NEVT = 1000
FILE = /castor/cern.ch/delphi/MCprod/cern/kk2f4144/va0u/206.5/kk2f4144_qqar_206.5_13493.xsdst ! RUN = 13493 ! NEVT = 999
FILE = /castor/cern.ch/delphi/MCprod/cern/kk2f4144/va0u/206.5/kk2f4144_qqar_206.5_13494.xsdst ! RUN = 13494 ! NEVT = 999
FILE = /castor/cern.ch/delphi/MCprod/cern/kk2f4144/va0u/206.5/kk2f4144_qqar_206.5_13495.xsdst ! RUN = 13495 ! NEVT = 999
FILE = /castor/cern.ch/delphi/MCprod/cern/kk2f4144/va0u/206.5/kk2f4144_qqar_206.5_13496.xsdst ! RUN = 13496 ! NEVT = 997
FILE = /castor/cern.ch/delphi/MCprod/cern/kk2f4144/va0u/206.5/kk2f4144_qqar_206.5_13497.xsdst ! RUN = 13497 ! NEVT = 999
FILE = /castor/cern.ch/delphi/MCprod/cern/kk2f4144/va0u/206.5/kk2f4144_qqar_206.5_13498.xsdst ! RUN = 13498 ! NEVT = 997
FILE = /castor/cern.ch/delphi/MCprod/cern/kk2f4144/va0u/206.5/kk2f4144_qqar_206.5_13499.xsdst ! RUN = 13499 ! NEVT = 999
