*
*   Nickname     : xs_hzha03pyth6156habbtt_e188.6_m70_m100_c98_1l_e1
*   Generic Name : //CERN/DELPHI/P02_SIMD/XSDST/HZHA03PYTH6156HABBTT/E188.6/CERN/SUMT/C001-5
*   Description  :  Extended Short DST simulation 98_e1 done at ecms=188.6 , CERN
*---
*   Comments     : in total 2498 events in 5 files time stamp: Tue Nov 13 08:14:42 2001
*---
*
*
*
*
*
FILE = /castor/cern.ch/delphi/MCprod/cern/hzha03pyth6156/v98e/188.6/hzha03pyth6156_habbtt_188.6_70_100_38381.xsdst ! RUN = 38381 ! NEVT = 500
FILE = /castor/cern.ch/delphi/MCprod/cern/hzha03pyth6156/v98e/188.6/hzha03pyth6156_habbtt_188.6_70_100_38382.xsdst ! RUN = 38382 ! NEVT = 499
FILE = /castor/cern.ch/delphi/MCprod/cern/hzha03pyth6156/v98e/188.6/hzha03pyth6156_habbtt_188.6_70_100_38383.xsdst ! RUN = 38383 ! NEVT = 499
FILE = /castor/cern.ch/delphi/MCprod/cern/hzha03pyth6156/v98e/188.6/hzha03pyth6156_habbtt_188.6_70_100_38384.xsdst ! RUN = 38384 ! NEVT = 500
FILE = /castor/cern.ch/delphi/MCprod/cern/hzha03pyth6156/v98e/188.6/hzha03pyth6156_habbtt_188.6_70_100_38385.xsdst ! RUN = 38385 ! NEVT = 500
