*
*   Nickname     : xs_hzha03pyth6156ha50bbtt_e188.6_m24_c98_1l_e1
*   Generic Name : //CERN/DELPHI/P02_SIMD/XSDST/HZHA03PYTH6156HA50BBTT/E188.6/CERN/SUMT/C001-10
*   Description  :  Extended Short DST simulation 98_e1 done at ecms=188.6 , CERN
*---
*   Comments     : in total 5000 events in 10 files time stamp: Sun Nov 11 20:13:42 2001
*---
*
*
*
*
*
FILE = /castor/cern.ch/delphi/MCprod/cern/hzha03pyth6156/v98e/188.6/hzha03pyth6156_ha50bbtt_188.6_24_112441.xsdst ! RUN = 112441 ! NEVT = 500
FILE = /castor/cern.ch/delphi/MCprod/cern/hzha03pyth6156/v98e/188.6/hzha03pyth6156_ha50bbtt_188.6_24_112442.xsdst ! RUN = 112442 ! NEVT = 500
FILE = /castor/cern.ch/delphi/MCprod/cern/hzha03pyth6156/v98e/188.6/hzha03pyth6156_ha50bbtt_188.6_24_112443.xsdst ! RUN = 112443 ! NEVT = 500
FILE = /castor/cern.ch/delphi/MCprod/cern/hzha03pyth6156/v98e/188.6/hzha03pyth6156_ha50bbtt_188.6_24_112444.xsdst ! RUN = 112444 ! NEVT = 500
FILE = /castor/cern.ch/delphi/MCprod/cern/hzha03pyth6156/v98e/188.6/hzha03pyth6156_ha50bbtt_188.6_24_112445.xsdst ! RUN = 112445 ! NEVT = 500
FILE = /castor/cern.ch/delphi/MCprod/cern/hzha03pyth6156/v98e/188.6/hzha03pyth6156_ha50bbtt_188.6_24_112446.xsdst ! RUN = 112446 ! NEVT = 500
FILE = /castor/cern.ch/delphi/MCprod/cern/hzha03pyth6156/v98e/188.6/hzha03pyth6156_ha50bbtt_188.6_24_112447.xsdst ! RUN = 112447 ! NEVT = 500
FILE = /castor/cern.ch/delphi/MCprod/cern/hzha03pyth6156/v98e/188.6/hzha03pyth6156_ha50bbtt_188.6_24_112448.xsdst ! RUN = 112448 ! NEVT = 500
FILE = /castor/cern.ch/delphi/MCprod/cern/hzha03pyth6156/v98e/188.6/hzha03pyth6156_ha50bbtt_188.6_24_112449.xsdst ! RUN = 112449 ! NEVT = 500
FILE = /castor/cern.ch/delphi/MCprod/cern/hzha03pyth6156/v98e/188.6/hzha03pyth6156_ha50bbtt_188.6_24_112450.xsdst ! RUN = 112450 ! NEVT = 500
