*   Nickname :     xs_hzha03pyth6156ha4t_e188.6_m90_m90_c98_1l_e1
*   Generic Name : //CERN/DELPHI/P02_SIMD/XSDST/HZHA03PYTH6156HA4T/E188.6/CERN/SUMT/C001-2
*   Description :   Extended Short DST simulation 98e  done at ecm=188.6 GeV , CERN
*   Comments :     in total 2000 events in 2 files, time stamp: Mon Nov 11 4:12:1 2002
*
*
*
FILE = /castor/cern.ch/delphi/MCprod/cern/hzha03pyth6156/v98e/188.6/hzha03pyth6156_ha4t_188.6_90_90_9905.xsdst ! RUN = 9905 ! NEVT = 1000
FILE = /castor/cern.ch/delphi/MCprod/cern/hzha03pyth6156/v98e/188.6/hzha03pyth6156_ha4t_188.6_90_90_9906.xsdst ! RUN = 9906 ! NEVT = 1000
