*
*   Nickname     : xs_hzha03pyth6156ha50bbtt_e188.6_m30_c98_1l_e1
*   Generic Name : //CERN/DELPHI/P02_SIMD/XSDST/HZHA03PYTH6156HA50BBTT/E188.6/CERN/SUMT/C001-10
*   Description  :  Extended Short DST simulation 98_e1 done at ecms=188.6 , CERN
*---
*   Comments     : in total 5000 events in 10 files time stamp: Sun Nov 11 20:13:50 2001
*---
*
*
*
*
*
FILE = /castor/cern.ch/delphi/MCprod/cern/hzha03pyth6156/v98e/188.6/hzha03pyth6156_ha50bbtt_188.6_30_113041.xsdst ! RUN = 113041 ! NEVT = 500
FILE = /castor/cern.ch/delphi/MCprod/cern/hzha03pyth6156/v98e/188.6/hzha03pyth6156_ha50bbtt_188.6_30_113042.xsdst ! RUN = 113042 ! NEVT = 500
FILE = /castor/cern.ch/delphi/MCprod/cern/hzha03pyth6156/v98e/188.6/hzha03pyth6156_ha50bbtt_188.6_30_113043.xsdst ! RUN = 113043 ! NEVT = 500
FILE = /castor/cern.ch/delphi/MCprod/cern/hzha03pyth6156/v98e/188.6/hzha03pyth6156_ha50bbtt_188.6_30_113044.xsdst ! RUN = 113044 ! NEVT = 500
FILE = /castor/cern.ch/delphi/MCprod/cern/hzha03pyth6156/v98e/188.6/hzha03pyth6156_ha50bbtt_188.6_30_113045.xsdst ! RUN = 113045 ! NEVT = 500
FILE = /castor/cern.ch/delphi/MCprod/cern/hzha03pyth6156/v98e/188.6/hzha03pyth6156_ha50bbtt_188.6_30_113046.xsdst ! RUN = 113046 ! NEVT = 500
FILE = /castor/cern.ch/delphi/MCprod/cern/hzha03pyth6156/v98e/188.6/hzha03pyth6156_ha50bbtt_188.6_30_113047.xsdst ! RUN = 113047 ! NEVT = 500
FILE = /castor/cern.ch/delphi/MCprod/cern/hzha03pyth6156/v98e/188.6/hzha03pyth6156_ha50bbtt_188.6_30_113048.xsdst ! RUN = 113048 ! NEVT = 500
FILE = /castor/cern.ch/delphi/MCprod/cern/hzha03pyth6156/v98e/188.6/hzha03pyth6156_ha50bbtt_188.6_30_113049.xsdst ! RUN = 113049 ! NEVT = 500
FILE = /castor/cern.ch/delphi/MCprod/cern/hzha03pyth6156/v98e/188.6/hzha03pyth6156_ha50bbtt_188.6_30_113050.xsdst ! RUN = 113050 ! NEVT = 500
