*   Nickname :     xs_hzha03pyth6156hzvs_e205.0_m4_ca0_1l_e1
*   Generic Name : //CERN/DELPHI/P02_SIMD/XSDST/HZHA03PYTH6156HZVS/E205.0/CERN/SUMT/C001-2
*   Description :  HZHA03  e+e- --> hZ -> nu nu s s Extended Short DST simulation a0e  done at ecm=205.0 GeV , CERN
*---
*   Comments :     in total 2000 events in 2 files, time stamp: Sat Aug 31 15:11:13 2002
*---
*
*
*
FILE = /castor/cern.ch/delphi/MCprod/cern/hzha03pyth6156/va0e/205.0/hzha03pyth6156_hzvs_205.0_4_702.xsdst ! RUN = 702 ! NEVT = 1000
FILE = /castor/cern.ch/delphi/MCprod/cern/hzha03pyth6156/va0e/205.0/hzha03pyth6156_hzvs_205.0_4_703.xsdst ! RUN = 703 ! NEVT = 1000
