*   Nickname :     xs_hzha03pyth6156hzvg_e205.0_m15_ca0_1l_e1
*   Generic Name : //CERN/DELPHI/P02_SIMD/XSDST/HZHA03PYTH6156HZVG/E205.0/CERN/SUMT/C001-2
*   Description :  HZHA03  e+e- --> hZ -> nu nu gluon gluon Extended Short DST simulation a0e  done at ecm=205.0 GeV , CERN
*---
*   Comments :     in total 2000 events in 2 files, time stamp: Sat Aug 31 10:11:39 2002
*---
*
*
*
FILE = /castor/cern.ch/delphi/MCprod/cern/hzha03pyth6156/va0e/205.0/hzha03pyth6156_hzvg_205.0_15_1801.xsdst ! RUN = 1801 ! NEVT = 1000
FILE = /castor/cern.ch/delphi/MCprod/cern/hzha03pyth6156/va0e/205.0/hzha03pyth6156_hzvg_205.0_15_1802.xsdst ! RUN = 1802 ! NEVT = 1000
