*
*   Nickname     : xs_hzha03pyth6156hinvee_e201.6_m115_r99_1l_e1
*   Generic Name : //CERN/DELPHI/P02_SIMD/XSDST/HZHA03PYTH6156HINVEE/E201.6/RAL/SUMT/C001-4
*   Description  :  Extended Short DST simulation 99_e1 done at ecms=201.6 , RAL
*---
*   Comments     : in total 1997 events in 4 files time stamp: Wed Sep 26 17:08:56 2001
*---
*
*
*
*
*
FILE = /castor/cern.ch/delphi/MCprod/ral/hzha03pyth6156/v99e/201.6/hzha03pyth6156_hinvee_201.6_115_42220.xsdst ! RUN = 42220 ! NEVT = 500
FILE = /castor/cern.ch/delphi/MCprod/ral/hzha03pyth6156/v99e/201.6/hzha03pyth6156_hinvee_201.6_115_42221.xsdst ! RUN = 42221 ! NEVT = 500
FILE = /castor/cern.ch/delphi/MCprod/ral/hzha03pyth6156/v99e/201.6/hzha03pyth6156_hinvee_201.6_115_42222.xsdst ! RUN = 42222 ! NEVT = 500
FILE = /castor/cern.ch/delphi/MCprod/ral/hzha03pyth6156/v99e/201.6/hzha03pyth6156_hinvee_201.6_115_42223.xsdst ! RUN = 42223 ! NEVT = 497
