*
*   Nickname     : xs_hzha03pyth6156hinvqq_e199.5_m107.5_c99_1l_e1
*   Generic Name : //CERN/DELPHI/P02_SIMD/XSDST/HZHA03PYTH6156HINVQQ/E199.5/CERN/SUMT/C001-11
*   Description  :  Extended Short DST simulation 99_e1 done at ecms=199.5 , CERN
*---
*   Comments     : in total 5500 events in 11 files time stamp: Thu Oct 11 13:41:03 2001
*---
*
*
*
*
*
FILE = /castor/cern.ch/delphi/MCprod/cern/hzha03pyth6156/v99e/199.5/hzha03pyth6156_hinvqq_199.5_107.5_41450.xsdst ! RUN = 41450 ! NEVT = 500
FILE = /castor/cern.ch/delphi/MCprod/cern/hzha03pyth6156/v99e/199.5/hzha03pyth6156_hinvqq_199.5_107.5_41451.xsdst ! RUN = 41451 ! NEVT = 500
FILE = /castor/cern.ch/delphi/MCprod/cern/hzha03pyth6156/v99e/199.5/hzha03pyth6156_hinvqq_199.5_107.5_41452.xsdst ! RUN = 41452 ! NEVT = 500
FILE = /castor/cern.ch/delphi/MCprod/cern/hzha03pyth6156/v99e/199.5/hzha03pyth6156_hinvqq_199.5_107.5_41453.xsdst ! RUN = 41453 ! NEVT = 500
FILE = /castor/cern.ch/delphi/MCprod/cern/hzha03pyth6156/v99e/199.5/hzha03pyth6156_hinvqq_199.5_107.5_41454.xsdst ! RUN = 41454 ! NEVT = 500
FILE = /castor/cern.ch/delphi/MCprod/cern/hzha03pyth6156/v99e/199.5/hzha03pyth6156_hinvqq_199.5_107.5_41455.xsdst ! RUN = 41455 ! NEVT = 500
FILE = /castor/cern.ch/delphi/MCprod/cern/hzha03pyth6156/v99e/199.5/hzha03pyth6156_hinvqq_199.5_107.5_41456.xsdst ! RUN = 41456 ! NEVT = 500
FILE = /castor/cern.ch/delphi/MCprod/cern/hzha03pyth6156/v99e/199.5/hzha03pyth6156_hinvqq_199.5_107.5_41457.xsdst ! RUN = 41457 ! NEVT = 500
FILE = /castor/cern.ch/delphi/MCprod/cern/hzha03pyth6156/v99e/199.5/hzha03pyth6156_hinvqq_199.5_107.5_41458.xsdst ! RUN = 41458 ! NEVT = 500
FILE = /castor/cern.ch/delphi/MCprod/cern/hzha03pyth6156/v99e/199.5/hzha03pyth6156_hinvqq_199.5_107.5_41459.xsdst ! RUN = 41459 ! NEVT = 500
FILE = /castor/cern.ch/delphi/MCprod/cern/hzha03pyth6156/v99e/199.5/hzha03pyth6156_hinvqq_199.5_107.5_41460.xsdst ! RUN = 41460 ! NEVT = 500
