*
*   Nickname     : xs_hzha03pyth6156hinvqq_e199.5_m70_c99_1l_e1
*   Generic Name : //CERN/DELPHI/P02_SIMD/XSDST/HZHA03PYTH6156HINVQQ/E199.5/CERN/SUMT/C001-11
*   Description  :  Extended Short DST simulation 99_e1 done at ecms=199.5 , CERN
*---
*   Comments     : in total 5498 events in 11 files time stamp: Wed Oct 10 22:13:02 2001
*---
*
*
*
*
*
FILE = /castor/cern.ch/delphi/MCprod/cern/hzha03pyth6156/v99e/199.5/hzha03pyth6156_hinvqq_199.5_70_37700.xsdst ! RUN = 37700 ! NEVT = 500
FILE = /castor/cern.ch/delphi/MCprod/cern/hzha03pyth6156/v99e/199.5/hzha03pyth6156_hinvqq_199.5_70_37701.xsdst ! RUN = 37701 ! NEVT = 500
FILE = /castor/cern.ch/delphi/MCprod/cern/hzha03pyth6156/v99e/199.5/hzha03pyth6156_hinvqq_199.5_70_37702.xsdst ! RUN = 37702 ! NEVT = 499
FILE = /castor/cern.ch/delphi/MCprod/cern/hzha03pyth6156/v99e/199.5/hzha03pyth6156_hinvqq_199.5_70_37703.xsdst ! RUN = 37703 ! NEVT = 500
FILE = /castor/cern.ch/delphi/MCprod/cern/hzha03pyth6156/v99e/199.5/hzha03pyth6156_hinvqq_199.5_70_37704.xsdst ! RUN = 37704 ! NEVT = 499
FILE = /castor/cern.ch/delphi/MCprod/cern/hzha03pyth6156/v99e/199.5/hzha03pyth6156_hinvqq_199.5_70_37705.xsdst ! RUN = 37705 ! NEVT = 500
FILE = /castor/cern.ch/delphi/MCprod/cern/hzha03pyth6156/v99e/199.5/hzha03pyth6156_hinvqq_199.5_70_37706.xsdst ! RUN = 37706 ! NEVT = 500
FILE = /castor/cern.ch/delphi/MCprod/cern/hzha03pyth6156/v99e/199.5/hzha03pyth6156_hinvqq_199.5_70_37707.xsdst ! RUN = 37707 ! NEVT = 500
FILE = /castor/cern.ch/delphi/MCprod/cern/hzha03pyth6156/v99e/199.5/hzha03pyth6156_hinvqq_199.5_70_37708.xsdst ! RUN = 37708 ! NEVT = 500
FILE = /castor/cern.ch/delphi/MCprod/cern/hzha03pyth6156/v99e/199.5/hzha03pyth6156_hinvqq_199.5_70_37709.xsdst ! RUN = 37709 ! NEVT = 500
FILE = /castor/cern.ch/delphi/MCprod/cern/hzha03pyth6156/v99e/199.5/hzha03pyth6156_hinvqq_199.5_70_37710.xsdst ! RUN = 37710 ! NEVT = 500
