*
*   Nickname     : xs_hzha03pyth6156hinvee_e201.6_m75_r99_1l_e1
*   Generic Name : //CERN/DELPHI/P02_SIMD/XSDST/HZHA03PYTH6156HINVEE/E201.6/RAL/SUMT/C001-4
*   Description  :  Extended Short DST simulation 99_e1 done at ecms=201.6 , RAL
*---
*   Comments     : in total 1996 events in 4 files time stamp: Wed Sep 19 02:41:13 2001
*---
*
*
*
*
*
FILE = /castor/cern.ch/delphi/MCprod/ral/hzha03pyth6156/v99e/201.6/hzha03pyth6156_hinvee_201.6_75_38220.xsdst ! RUN = 38220 ! NEVT = 499
FILE = /castor/cern.ch/delphi/MCprod/ral/hzha03pyth6156/v99e/201.6/hzha03pyth6156_hinvee_201.6_75_38221.xsdst ! RUN = 38221 ! NEVT = 498
FILE = /castor/cern.ch/delphi/MCprod/ral/hzha03pyth6156/v99e/201.6/hzha03pyth6156_hinvee_201.6_75_38222.xsdst ! RUN = 38222 ! NEVT = 500
FILE = /castor/cern.ch/delphi/MCprod/ral/hzha03pyth6156/v99e/201.6/hzha03pyth6156_hinvee_201.6_75_38223.xsdst ! RUN = 38223 ! NEVT = 499
