*
*   Nickname     : xs_hzha03pyth6156hinvee_e201.6_m70_r99_1l_e1
*   Generic Name : //CERN/DELPHI/P02_SIMD/XSDST/HZHA03PYTH6156HINVEE/E201.6/RAL/SUMT/C001-4
*   Description  :  Extended Short DST simulation 99_e1 done at ecms=201.6 , RAL
*---
*   Comments     : in total 1996 events in 4 files time stamp: Wed Sep 19 02:40:59 2001
*---
*
*
*
*
*
FILE = /castor/cern.ch/delphi/MCprod/ral/hzha03pyth6156/v99e/201.6/hzha03pyth6156_hinvee_201.6_70_37720.xsdst ! RUN = 37720 ! NEVT = 499
FILE = /castor/cern.ch/delphi/MCprod/ral/hzha03pyth6156/v99e/201.6/hzha03pyth6156_hinvee_201.6_70_37721.xsdst ! RUN = 37721 ! NEVT = 499
FILE = /castor/cern.ch/delphi/MCprod/ral/hzha03pyth6156/v99e/201.6/hzha03pyth6156_hinvee_201.6_70_37722.xsdst ! RUN = 37722 ! NEVT = 498
FILE = /castor/cern.ch/delphi/MCprod/ral/hzha03pyth6156/v99e/201.6/hzha03pyth6156_hinvee_201.6_70_37723.xsdst ! RUN = 37723 ! NEVT = 500
