*
*   Nickname     : xs_hzha03pyth6156hinvee_e191.6_m115_r99_1l_e1
*   Generic Name : //CERN/DELPHI/P02_SIMD/XSDST/HZHA03PYTH6156HINVEE/E191.6/RAL/SUMT/C001-4
*   Description  :  Extended Short DST simulation 99_e1 done at ecms=191.6 , RAL
*---
*   Comments     : in total 1996 events in 4 files time stamp: Sat Sep 15 00:52:36 2001
*---
*
*
*
*
*
FILE = /castor/cern.ch/delphi/MCprod/ral/hzha03pyth6156/v99e/191.6/hzha03pyth6156_hinvee_191.6_115_42020.xsdst ! RUN = 42020 ! NEVT = 499
FILE = /castor/cern.ch/delphi/MCprod/ral/hzha03pyth6156/v99e/191.6/hzha03pyth6156_hinvee_191.6_115_42021.xsdst ! RUN = 42021 ! NEVT = 499
FILE = /castor/cern.ch/delphi/MCprod/ral/hzha03pyth6156/v99e/191.6/hzha03pyth6156_hinvee_191.6_115_42022.xsdst ! RUN = 42022 ! NEVT = 500
FILE = /castor/cern.ch/delphi/MCprod/ral/hzha03pyth6156/v99e/191.6/hzha03pyth6156_hinvee_191.6_115_42023.xsdst ! RUN = 42023 ! NEVT = 498
