*
*   Nickname     : xs_hzha03pyth6156hinvqq_e199.5_m110_c99_1l_e1
*   Generic Name : //CERN/DELPHI/P02_SIMD/XSDST/HZHA03PYTH6156HINVQQ/E199.5/CERN/SUMT/C001-11
*   Description  :  Extended Short DST simulation 99_e1 done at ecms=199.5 , CERN
*---
*   Comments     : in total 5500 events in 11 files time stamp: Thu Oct 11 13:38:44 2001
*---
*
*
*
*
*
FILE = /castor/cern.ch/delphi/MCprod/cern/hzha03pyth6156/v99e/199.5/hzha03pyth6156_hinvqq_199.5_110_41700.xsdst ! RUN = 41700 ! NEVT = 500
FILE = /castor/cern.ch/delphi/MCprod/cern/hzha03pyth6156/v99e/199.5/hzha03pyth6156_hinvqq_199.5_110_41701.xsdst ! RUN = 41701 ! NEVT = 500
FILE = /castor/cern.ch/delphi/MCprod/cern/hzha03pyth6156/v99e/199.5/hzha03pyth6156_hinvqq_199.5_110_41702.xsdst ! RUN = 41702 ! NEVT = 500
FILE = /castor/cern.ch/delphi/MCprod/cern/hzha03pyth6156/v99e/199.5/hzha03pyth6156_hinvqq_199.5_110_41703.xsdst ! RUN = 41703 ! NEVT = 500
FILE = /castor/cern.ch/delphi/MCprod/cern/hzha03pyth6156/v99e/199.5/hzha03pyth6156_hinvqq_199.5_110_41704.xsdst ! RUN = 41704 ! NEVT = 500
FILE = /castor/cern.ch/delphi/MCprod/cern/hzha03pyth6156/v99e/199.5/hzha03pyth6156_hinvqq_199.5_110_41705.xsdst ! RUN = 41705 ! NEVT = 500
FILE = /castor/cern.ch/delphi/MCprod/cern/hzha03pyth6156/v99e/199.5/hzha03pyth6156_hinvqq_199.5_110_41706.xsdst ! RUN = 41706 ! NEVT = 500
FILE = /castor/cern.ch/delphi/MCprod/cern/hzha03pyth6156/v99e/199.5/hzha03pyth6156_hinvqq_199.5_110_41707.xsdst ! RUN = 41707 ! NEVT = 500
FILE = /castor/cern.ch/delphi/MCprod/cern/hzha03pyth6156/v99e/199.5/hzha03pyth6156_hinvqq_199.5_110_41708.xsdst ! RUN = 41708 ! NEVT = 500
FILE = /castor/cern.ch/delphi/MCprod/cern/hzha03pyth6156/v99e/199.5/hzha03pyth6156_hinvqq_199.5_110_41709.xsdst ! RUN = 41709 ! NEVT = 500
FILE = /castor/cern.ch/delphi/MCprod/cern/hzha03pyth6156/v99e/199.5/hzha03pyth6156_hinvqq_199.5_110_41710.xsdst ! RUN = 41710 ! NEVT = 500
