*
*   Nickname     : xs_hzha03pyth6156hinvee_e201.6_m100_r99_1l_e1
*   Generic Name : //CERN/DELPHI/P02_SIMD/XSDST/HZHA03PYTH6156HINVEE/E201.6/RAL/SUMT/C001-4
*   Description  :  Extended Short DST simulation 99_e1 done at ecms=201.6 , RAL
*---
*   Comments     : in total 1998 events in 4 files time stamp: Wed Sep 19 14:43:39 2001
*---
*
*
*
*
*
FILE = /castor/cern.ch/delphi/MCprod/ral/hzha03pyth6156/v99e/201.6/hzha03pyth6156_hinvee_201.6_100_40720.xsdst ! RUN = 40720 ! NEVT = 500
FILE = /castor/cern.ch/delphi/MCprod/ral/hzha03pyth6156/v99e/201.6/hzha03pyth6156_hinvee_201.6_100_40721.xsdst ! RUN = 40721 ! NEVT = 500
FILE = /castor/cern.ch/delphi/MCprod/ral/hzha03pyth6156/v99e/201.6/hzha03pyth6156_hinvee_201.6_100_40722.xsdst ! RUN = 40722 ! NEVT = 499
FILE = /castor/cern.ch/delphi/MCprod/ral/hzha03pyth6156/v99e/201.6/hzha03pyth6156_hinvee_201.6_100_40723.xsdst ! RUN = 40723 ! NEVT = 499
