*
*   Nickname     : xs_hzha03pyth6156hinvee_e199.5_m75_r99_1l_e1
*   Generic Name : //CERN/DELPHI/P02_SIMD/XSDST/HZHA03PYTH6156HINVEE/E199.5/RAL/SUMT/C001-4
*   Description  :  Extended Short DST simulation 99_e1 done at ecms=199.5 , RAL
*---
*   Comments     : in total 1999 events in 4 files time stamp: Tue Sep 18 09:56:54 2001
*---
*
*
*
*
*
FILE = /castor/cern.ch/delphi/MCprod/ral/hzha03pyth6156/v99e/199.5/hzha03pyth6156_hinvee_199.5_75_38120.xsdst ! RUN = 38120 ! NEVT = 499
FILE = /castor/cern.ch/delphi/MCprod/ral/hzha03pyth6156/v99e/199.5/hzha03pyth6156_hinvee_199.5_75_38121.xsdst ! RUN = 38121 ! NEVT = 500
FILE = /castor/cern.ch/delphi/MCprod/ral/hzha03pyth6156/v99e/199.5/hzha03pyth6156_hinvee_199.5_75_38122.xsdst ! RUN = 38122 ! NEVT = 500
FILE = /castor/cern.ch/delphi/MCprod/ral/hzha03pyth6156/v99e/199.5/hzha03pyth6156_hinvee_199.5_75_38123.xsdst ! RUN = 38123 ! NEVT = 500
