# index of html fragments. Provides additional information for sorting files. DO NOT REMOVE.
#File Name                                       year processing   category      files          events     energy       mass      mass2       labo
dsto_wphact24cc_e206.5_mxxx_ca0_1l_u            2000       va0u      4FERM        498          991928      206.5       80.4          -       CERN
xs_bdk01eeee_e206.5_la0_1l_u1                   2000      va0u1      4FERM        148          294664      206.5          -          -       lyon
xs_bdk02eeee_e205_ra0_1l_u1                     2000      va0u1      4FERM         15           75000        205          -          -       ruth
xs_bdk02eeee_e206.5_la0_1l_u1                   2000      va0u1      4FERM        499          995760      206.5          -          -       lyon
xs_bdkeeeelt1gev_e206.5_ca0_1l_u1               2000      va0u1      4FERM         10           49606      206.5          -          -       cern
xs_bdkrc01eemm_e206.5_la0_1l_u1                 2000      va0u1      4FERM        146          291240      206.5          -          -       lyon
xs_bdkrc01eett_e206.5_la0_1l_u1                 2000      va0u1      4FERM        146          290899      206.5          -          -       lyon
xs_bdkrc02eemm_e205_ra0_1l_u1                   2000      va0u1      4FERM          9           90000        205          -          -       ruth
xs_bdkrc02eemm_e206.5_la0_1l_u1                 2000      va0u1      4FERM        501         1000401      206.5          -          -       lyon
xs_bdkrc02eett_e205_ra0_1l_u1                   2000      va0u1      4FERM          9           90000        205          -          -       ruth
xs_bdkrc02eett_e206.5_la0_1l_u1                 2000      va0u1      4FERM        501         1001999      206.5          -          -       lyon
xs_bdkrceemmlt1gev_e206.5_ca0_1l_u1             2000      va0u1      4FERM          9           45000      206.5          -          -       cern
xs_gpym6143wc0eeqq_e205_ra0_1l_u1               2000      va0u1      4FERM          2           20000        205          -          -       ruth
xs_gpym6143wc0eeqq_e206.5_ca0_1l_u1             2000      va0u1      4FERM        144         1080000      206.5          -          -       cern
xs_wphact211ncgg_e206.5_mxxx_ca0_1l_u1          2000      va0u1      4FERM        191         1541008      206.5       80.4          -       cern
xs_wphact21cc_e206.5_mxxx_la0_1l_u1             2000      va0u1      4FERM        987          981957      206.5       80.4          -       lyon
xs_wphact21nc4f_e206.5_mxxx_ca0_1l_u1           2000      va0u1      4FERM        403          401997      206.5       80.4          -       cern
xs_wphact21ncgg_e206.5_mxxx_ca0_1l_u1           2000      va0u1      4FERM        200          976774      206.5       80.4          -       cern
xs_wphact22cc_e205_mxxx_la0_1l_u1               2000      va0u1      4FERM         22           22384        205       80.4          -       lyon
xs_wphact22nc4f_e205_mxxx_la0_1l_u1             2000      va0u1      4FERM         50           49991        205       80.4          -       lyon
xs_wphact24cc_e206.5_mxxx_ca0_1l_u1             2000      va0u1      4FERM        494          981745      206.5       80.4          -       CERN
