*
*   Nickname     : xs_bdkrc01eett_e206.5_la0_1l_u1
*   Generic Name : //CERN/DELPHI/P02_SIMD/XSDST/BDKRC01EETT/E206.5/LYON/SUMT/C001-146
*   Description  :  Extended Short DST simulation a0_u1 done at ecms=206.5 , Lyon
*---
*   Comments     : in total 290899 events in 146 files time stamp: Tue Oct  2 19:09:34 2001
*---
*
*
*
*
*
FILE = /castor/cern.ch/delphi/MCprod/lyon/bdkrc01/va0u/206.5/bdkrc01_eett_206.5_12001.xsdst ! RUN = 12001 ! NEVT = 2000
FILE = /castor/cern.ch/delphi/MCprod/lyon/bdkrc01/va0u/206.5/bdkrc01_eett_206.5_12002.xsdst ! RUN = 12002 ! NEVT = 2000
FILE = /castor/cern.ch/delphi/MCprod/lyon/bdkrc01/va0u/206.5/bdkrc01_eett_206.5_12003.xsdst ! RUN = 12003 ! NEVT = 2000
FILE = /castor/cern.ch/delphi/MCprod/lyon/bdkrc01/va0u/206.5/bdkrc01_eett_206.5_12004.xsdst ! RUN = 12004 ! NEVT = 2000
FILE = /castor/cern.ch/delphi/MCprod/lyon/bdkrc01/va0u/206.5/bdkrc01_eett_206.5_12005.xsdst ! RUN = 12005 ! NEVT = 2000
FILE = /castor/cern.ch/delphi/MCprod/lyon/bdkrc01/va0u/206.5/bdkrc01_eett_206.5_12006.xsdst ! RUN = 12006 ! NEVT = 2000
FILE = /castor/cern.ch/delphi/MCprod/lyon/bdkrc01/va0u/206.5/bdkrc01_eett_206.5_12007.xsdst ! RUN = 12007 ! NEVT = 2000
FILE = /castor/cern.ch/delphi/MCprod/lyon/bdkrc01/va0u/206.5/bdkrc01_eett_206.5_12008.xsdst ! RUN = 12008 ! NEVT = 2000
FILE = /castor/cern.ch/delphi/MCprod/lyon/bdkrc01/va0u/206.5/bdkrc01_eett_206.5_12009.xsdst ! RUN = 12009 ! NEVT = 2000
FILE = /castor/cern.ch/delphi/MCprod/lyon/bdkrc01/va0u/206.5/bdkrc01_eett_206.5_12010.xsdst ! RUN = 12010 ! NEVT = 2000
FILE = /castor/cern.ch/delphi/MCprod/lyon/bdkrc01/va0u/206.5/bdkrc01_eett_206.5_12011.xsdst ! RUN = 12011 ! NEVT = 2000
FILE = /castor/cern.ch/delphi/MCprod/lyon/bdkrc01/va0u/206.5/bdkrc01_eett_206.5_12012.xsdst ! RUN = 12012 ! NEVT = 2000
FILE = /castor/cern.ch/delphi/MCprod/lyon/bdkrc01/va0u/206.5/bdkrc01_eett_206.5_12013.xsdst ! RUN = 12013 ! NEVT = 2000
FILE = /castor/cern.ch/delphi/MCprod/lyon/bdkrc01/va0u/206.5/bdkrc01_eett_206.5_12014.xsdst ! RUN = 12014 ! NEVT = 2000
FILE = /castor/cern.ch/delphi/MCprod/lyon/bdkrc01/va0u/206.5/bdkrc01_eett_206.5_12015.xsdst ! RUN = 12015 ! NEVT = 2000
FILE = /castor/cern.ch/delphi/MCprod/lyon/bdkrc01/va0u/206.5/bdkrc01_eett_206.5_12016.xsdst ! RUN = 12016 ! NEVT = 2000
FILE = /castor/cern.ch/delphi/MCprod/lyon/bdkrc01/va0u/206.5/bdkrc01_eett_206.5_12017.xsdst ! RUN = 12017 ! NEVT = 2000
FILE = /castor/cern.ch/delphi/MCprod/lyon/bdkrc01/va0u/206.5/bdkrc01_eett_206.5_12018.xsdst ! RUN = 12018 ! NEVT = 2000
FILE = /castor/cern.ch/delphi/MCprod/lyon/bdkrc01/va0u/206.5/bdkrc01_eett_206.5_12019.xsdst ! RUN = 12019 ! NEVT = 899
FILE = /castor/cern.ch/delphi/MCprod/lyon/bdkrc01/va0u/206.5/bdkrc01_eett_206.5_12020.xsdst ! RUN = 12020 ! NEVT = 2000
FILE = /castor/cern.ch/delphi/MCprod/lyon/bdkrc01/va0u/206.5/bdkrc01_eett_206.5_12021.xsdst ! RUN = 12021 ! NEVT = 2000
FILE = /castor/cern.ch/delphi/MCprod/lyon/bdkrc01/va0u/206.5/bdkrc01_eett_206.5_12022.xsdst ! RUN = 12022 ! NEVT = 2000
FILE = /castor/cern.ch/delphi/MCprod/lyon/bdkrc01/va0u/206.5/bdkrc01_eett_206.5_12023.xsdst ! RUN = 12023 ! NEVT = 2000
FILE = /castor/cern.ch/delphi/MCprod/lyon/bdkrc01/va0u/206.5/bdkrc01_eett_206.5_12024.xsdst ! RUN = 12024 ! NEVT = 2000
FILE = /castor/cern.ch/delphi/MCprod/lyon/bdkrc01/va0u/206.5/bdkrc01_eett_206.5_12025.xsdst ! RUN = 12025 ! NEVT = 2000
FILE = /castor/cern.ch/delphi/MCprod/lyon/bdkrc01/va0u/206.5/bdkrc01_eett_206.5_12026.xsdst ! RUN = 12026 ! NEVT = 2000
FILE = /castor/cern.ch/delphi/MCprod/lyon/bdkrc01/va0u/206.5/bdkrc01_eett_206.5_12027.xsdst ! RUN = 12027 ! NEVT = 2000
FILE = /castor/cern.ch/delphi/MCprod/lyon/bdkrc01/va0u/206.5/bdkrc01_eett_206.5_12028.xsdst ! RUN = 12028 ! NEVT = 2000
FILE = /castor/cern.ch/delphi/MCprod/lyon/bdkrc01/va0u/206.5/bdkrc01_eett_206.5_12029.xsdst ! RUN = 12029 ! NEVT = 2000
FILE = /castor/cern.ch/delphi/MCprod/lyon/bdkrc01/va0u/206.5/bdkrc01_eett_206.5_12030.xsdst ! RUN = 12030 ! NEVT = 2000
FILE = /castor/cern.ch/delphi/MCprod/lyon/bdkrc01/va0u/206.5/bdkrc01_eett_206.5_12031.xsdst ! RUN = 12031 ! NEVT = 2000
FILE = /castor/cern.ch/delphi/MCprod/lyon/bdkrc01/va0u/206.5/bdkrc01_eett_206.5_12032.xsdst ! RUN = 12032 ! NEVT = 2000
FILE = /castor/cern.ch/delphi/MCprod/lyon/bdkrc01/va0u/206.5/bdkrc01_eett_206.5_12033.xsdst ! RUN = 12033 ! NEVT = 2000
FILE = /castor/cern.ch/delphi/MCprod/lyon/bdkrc01/va0u/206.5/bdkrc01_eett_206.5_12034.xsdst ! RUN = 12034 ! NEVT = 2000
FILE = /castor/cern.ch/delphi/MCprod/lyon/bdkrc01/va0u/206.5/bdkrc01_eett_206.5_12035.xsdst ! RUN = 12035 ! NEVT = 2000
FILE = /castor/cern.ch/delphi/MCprod/lyon/bdkrc01/va0u/206.5/bdkrc01_eett_206.5_12036.xsdst ! RUN = 12036 ! NEVT = 2000
FILE = /castor/cern.ch/delphi/MCprod/lyon/bdkrc01/va0u/206.5/bdkrc01_eett_206.5_12037.xsdst ! RUN = 12037 ! NEVT = 2000
FILE = /castor/cern.ch/delphi/MCprod/lyon/bdkrc01/va0u/206.5/bdkrc01_eett_206.5_12038.xsdst ! RUN = 12038 ! NEVT = 2000
FILE = /castor/cern.ch/delphi/MCprod/lyon/bdkrc01/va0u/206.5/bdkrc01_eett_206.5_12039.xsdst ! RUN = 12039 ! NEVT = 2000
FILE = /castor/cern.ch/delphi/MCprod/lyon/bdkrc01/va0u/206.5/bdkrc01_eett_206.5_12040.xsdst ! RUN = 12040 ! NEVT = 2000
FILE = /castor/cern.ch/delphi/MCprod/lyon/bdkrc01/va0u/206.5/bdkrc01_eett_206.5_12041.xsdst ! RUN = 12041 ! NEVT = 2000
FILE = /castor/cern.ch/delphi/MCprod/lyon/bdkrc01/va0u/206.5/bdkrc01_eett_206.5_12042.xsdst ! RUN = 12042 ! NEVT = 2000
FILE = /castor/cern.ch/delphi/MCprod/lyon/bdkrc01/va0u/206.5/bdkrc01_eett_206.5_12043.xsdst ! RUN = 12043 ! NEVT = 2000
FILE = /castor/cern.ch/delphi/MCprod/lyon/bdkrc01/va0u/206.5/bdkrc01_eett_206.5_12044.xsdst ! RUN = 12044 ! NEVT = 2000
FILE = /castor/cern.ch/delphi/MCprod/lyon/bdkrc01/va0u/206.5/bdkrc01_eett_206.5_12045.xsdst ! RUN = 12045 ! NEVT = 2000
FILE = /castor/cern.ch/delphi/MCprod/lyon/bdkrc01/va0u/206.5/bdkrc01_eett_206.5_12046.xsdst ! RUN = 12046 ! NEVT = 2000
FILE = /castor/cern.ch/delphi/MCprod/lyon/bdkrc01/va0u/206.5/bdkrc01_eett_206.5_12047.xsdst ! RUN = 12047 ! NEVT = 2000
FILE = /castor/cern.ch/delphi/MCprod/lyon/bdkrc01/va0u/206.5/bdkrc01_eett_206.5_12048.xsdst ! RUN = 12048 ! NEVT = 2000
FILE = /castor/cern.ch/delphi/MCprod/lyon/bdkrc01/va0u/206.5/bdkrc01_eett_206.5_12049.xsdst ! RUN = 12049 ! NEVT = 2000
FILE = /castor/cern.ch/delphi/MCprod/lyon/bdkrc01/va0u/206.5/bdkrc01_eett_206.5_12050.xsdst ! RUN = 12050 ! NEVT = 2000
FILE = /castor/cern.ch/delphi/MCprod/lyon/bdkrc01/va0u/206.5/bdkrc01_eett_206.5_12051.xsdst ! RUN = 12051 ! NEVT = 2000
FILE = /castor/cern.ch/delphi/MCprod/lyon/bdkrc01/va0u/206.5/bdkrc01_eett_206.5_12052.xsdst ! RUN = 12052 ! NEVT = 2000
FILE = /castor/cern.ch/delphi/MCprod/lyon/bdkrc01/va0u/206.5/bdkrc01_eett_206.5_12053.xsdst ! RUN = 12053 ! NEVT = 2000
FILE = /castor/cern.ch/delphi/MCprod/lyon/bdkrc01/va0u/206.5/bdkrc01_eett_206.5_12054.xsdst ! RUN = 12054 ! NEVT = 2000
FILE = /castor/cern.ch/delphi/MCprod/lyon/bdkrc01/va0u/206.5/bdkrc01_eett_206.5_12055.xsdst ! RUN = 12055 ! NEVT = 2000
FILE = /castor/cern.ch/delphi/MCprod/lyon/bdkrc01/va0u/206.5/bdkrc01_eett_206.5_12056.xsdst ! RUN = 12056 ! NEVT = 2000
FILE = /castor/cern.ch/delphi/MCprod/lyon/bdkrc01/va0u/206.5/bdkrc01_eett_206.5_12057.xsdst ! RUN = 12057 ! NEVT = 2000
FILE = /castor/cern.ch/delphi/MCprod/lyon/bdkrc01/va0u/206.5/bdkrc01_eett_206.5_12058.xsdst ! RUN = 12058 ! NEVT = 2000
FILE = /castor/cern.ch/delphi/MCprod/lyon/bdkrc01/va0u/206.5/bdkrc01_eett_206.5_12059.xsdst ! RUN = 12059 ! NEVT = 2000
FILE = /castor/cern.ch/delphi/MCprod/lyon/bdkrc01/va0u/206.5/bdkrc01_eett_206.5_12060.xsdst ! RUN = 12060 ! NEVT = 2000
FILE = /castor/cern.ch/delphi/MCprod/lyon/bdkrc01/va0u/206.5/bdkrc01_eett_206.5_12061.xsdst ! RUN = 12061 ! NEVT = 2000
FILE = /castor/cern.ch/delphi/MCprod/lyon/bdkrc01/va0u/206.5/bdkrc01_eett_206.5_12062.xsdst ! RUN = 12062 ! NEVT = 2000
FILE = /castor/cern.ch/delphi/MCprod/lyon/bdkrc01/va0u/206.5/bdkrc01_eett_206.5_12063.xsdst ! RUN = 12063 ! NEVT = 2000
FILE = /castor/cern.ch/delphi/MCprod/lyon/bdkrc01/va0u/206.5/bdkrc01_eett_206.5_12064.xsdst ! RUN = 12064 ! NEVT = 2000
FILE = /castor/cern.ch/delphi/MCprod/lyon/bdkrc01/va0u/206.5/bdkrc01_eett_206.5_12065.xsdst ! RUN = 12065 ! NEVT = 2000
FILE = /castor/cern.ch/delphi/MCprod/lyon/bdkrc01/va0u/206.5/bdkrc01_eett_206.5_12066.xsdst ! RUN = 12066 ! NEVT = 2000
FILE = /castor/cern.ch/delphi/MCprod/lyon/bdkrc01/va0u/206.5/bdkrc01_eett_206.5_12067.xsdst ! RUN = 12067 ! NEVT = 2000
FILE = /castor/cern.ch/delphi/MCprod/lyon/bdkrc01/va0u/206.5/bdkrc01_eett_206.5_12068.xsdst ! RUN = 12068 ! NEVT = 2000
FILE = /castor/cern.ch/delphi/MCprod/lyon/bdkrc01/va0u/206.5/bdkrc01_eett_206.5_12069.xsdst ! RUN = 12069 ! NEVT = 2000
FILE = /castor/cern.ch/delphi/MCprod/lyon/bdkrc01/va0u/206.5/bdkrc01_eett_206.5_12070.xsdst ! RUN = 12070 ! NEVT = 2000
FILE = /castor/cern.ch/delphi/MCprod/lyon/bdkrc01/va0u/206.5/bdkrc01_eett_206.5_12072.xsdst ! RUN = 12072 ! NEVT = 2000
FILE = /castor/cern.ch/delphi/MCprod/lyon/bdkrc01/va0u/206.5/bdkrc01_eett_206.5_12073.xsdst ! RUN = 12073 ! NEVT = 2000
FILE = /castor/cern.ch/delphi/MCprod/lyon/bdkrc01/va0u/206.5/bdkrc01_eett_206.5_12074.xsdst ! RUN = 12074 ! NEVT = 2000
FILE = /castor/cern.ch/delphi/MCprod/lyon/bdkrc01/va0u/206.5/bdkrc01_eett_206.5_12075.xsdst ! RUN = 12075 ! NEVT = 2000
FILE = /castor/cern.ch/delphi/MCprod/lyon/bdkrc01/va0u/206.5/bdkrc01_eett_206.5_12076.xsdst ! RUN = 12076 ! NEVT = 2000
FILE = /castor/cern.ch/delphi/MCprod/lyon/bdkrc01/va0u/206.5/bdkrc01_eett_206.5_12077.xsdst ! RUN = 12077 ! NEVT = 2000
FILE = /castor/cern.ch/delphi/MCprod/lyon/bdkrc01/va0u/206.5/bdkrc01_eett_206.5_12078.xsdst ! RUN = 12078 ! NEVT = 2000
FILE = /castor/cern.ch/delphi/MCprod/lyon/bdkrc01/va0u/206.5/bdkrc01_eett_206.5_12079.xsdst ! RUN = 12079 ! NEVT = 2000
FILE = /castor/cern.ch/delphi/MCprod/lyon/bdkrc01/va0u/206.5/bdkrc01_eett_206.5_12080.xsdst ! RUN = 12080 ! NEVT = 2000
FILE = /castor/cern.ch/delphi/MCprod/lyon/bdkrc01/va0u/206.5/bdkrc01_eett_206.5_12081.xsdst ! RUN = 12081 ! NEVT = 2000
FILE = /castor/cern.ch/delphi/MCprod/lyon/bdkrc01/va0u/206.5/bdkrc01_eett_206.5_12082.xsdst ! RUN = 12082 ! NEVT = 2000
FILE = /castor/cern.ch/delphi/MCprod/lyon/bdkrc01/va0u/206.5/bdkrc01_eett_206.5_12083.xsdst ! RUN = 12083 ! NEVT = 2000
FILE = /castor/cern.ch/delphi/MCprod/lyon/bdkrc01/va0u/206.5/bdkrc01_eett_206.5_12084.xsdst ! RUN = 12084 ! NEVT = 2000
FILE = /castor/cern.ch/delphi/MCprod/lyon/bdkrc01/va0u/206.5/bdkrc01_eett_206.5_12085.xsdst ! RUN = 12085 ! NEVT = 2000
FILE = /castor/cern.ch/delphi/MCprod/lyon/bdkrc01/va0u/206.5/bdkrc01_eett_206.5_12086.xsdst ! RUN = 12086 ! NEVT = 2000
FILE = /castor/cern.ch/delphi/MCprod/lyon/bdkrc01/va0u/206.5/bdkrc01_eett_206.5_12087.xsdst ! RUN = 12087 ! NEVT = 2000
FILE = /castor/cern.ch/delphi/MCprod/lyon/bdkrc01/va0u/206.5/bdkrc01_eett_206.5_12088.xsdst ! RUN = 12088 ! NEVT = 2000
FILE = /castor/cern.ch/delphi/MCprod/lyon/bdkrc01/va0u/206.5/bdkrc01_eett_206.5_12089.xsdst ! RUN = 12089 ! NEVT = 2000
FILE = /castor/cern.ch/delphi/MCprod/lyon/bdkrc01/va0u/206.5/bdkrc01_eett_206.5_12090.xsdst ! RUN = 12090 ! NEVT = 2000
FILE = /castor/cern.ch/delphi/MCprod/lyon/bdkrc01/va0u/206.5/bdkrc01_eett_206.5_12091.xsdst ! RUN = 12091 ! NEVT = 2000
FILE = /castor/cern.ch/delphi/MCprod/lyon/bdkrc01/va0u/206.5/bdkrc01_eett_206.5_12092.xsdst ! RUN = 12092 ! NEVT = 2000
FILE = /castor/cern.ch/delphi/MCprod/lyon/bdkrc01/va0u/206.5/bdkrc01_eett_206.5_12093.xsdst ! RUN = 12093 ! NEVT = 2000
FILE = /castor/cern.ch/delphi/MCprod/lyon/bdkrc01/va0u/206.5/bdkrc01_eett_206.5_12094.xsdst ! RUN = 12094 ! NEVT = 2000
FILE = /castor/cern.ch/delphi/MCprod/lyon/bdkrc01/va0u/206.5/bdkrc01_eett_206.5_12095.xsdst ! RUN = 12095 ! NEVT = 2000
FILE = /castor/cern.ch/delphi/MCprod/lyon/bdkrc01/va0u/206.5/bdkrc01_eett_206.5_12096.xsdst ! RUN = 12096 ! NEVT = 2000
FILE = /castor/cern.ch/delphi/MCprod/lyon/bdkrc01/va0u/206.5/bdkrc01_eett_206.5_12097.xsdst ! RUN = 12097 ! NEVT = 2000
FILE = /castor/cern.ch/delphi/MCprod/lyon/bdkrc01/va0u/206.5/bdkrc01_eett_206.5_12098.xsdst ! RUN = 12098 ! NEVT = 2000
FILE = /castor/cern.ch/delphi/MCprod/lyon/bdkrc01/va0u/206.5/bdkrc01_eett_206.5_12099.xsdst ! RUN = 12099 ! NEVT = 2000
FILE = /castor/cern.ch/delphi/MCprod/lyon/bdkrc01/va0u/206.5/bdkrc01_eett_206.5_12100.xsdst ! RUN = 12100 ! NEVT = 2000
FILE = /castor/cern.ch/delphi/MCprod/lyon/bdkrc01/va0u/206.5/bdkrc01_eett_206.5_12103.xsdst ! RUN = 12103 ! NEVT = 2000
FILE = /castor/cern.ch/delphi/MCprod/lyon/bdkrc01/va0u/206.5/bdkrc01_eett_206.5_12104.xsdst ! RUN = 12104 ! NEVT = 2000
FILE = /castor/cern.ch/delphi/MCprod/lyon/bdkrc01/va0u/206.5/bdkrc01_eett_206.5_12105.xsdst ! RUN = 12105 ! NEVT = 2000
FILE = /castor/cern.ch/delphi/MCprod/lyon/bdkrc01/va0u/206.5/bdkrc01_eett_206.5_12106.xsdst ! RUN = 12106 ! NEVT = 2000
FILE = /castor/cern.ch/delphi/MCprod/lyon/bdkrc01/va0u/206.5/bdkrc01_eett_206.5_12107.xsdst ! RUN = 12107 ! NEVT = 2000
FILE = /castor/cern.ch/delphi/MCprod/lyon/bdkrc01/va0u/206.5/bdkrc01_eett_206.5_12108.xsdst ! RUN = 12108 ! NEVT = 2000
FILE = /castor/cern.ch/delphi/MCprod/lyon/bdkrc01/va0u/206.5/bdkrc01_eett_206.5_12109.xsdst ! RUN = 12109 ! NEVT = 2000
FILE = /castor/cern.ch/delphi/MCprod/lyon/bdkrc01/va0u/206.5/bdkrc01_eett_206.5_12110.xsdst ! RUN = 12110 ! NEVT = 2000
FILE = /castor/cern.ch/delphi/MCprod/lyon/bdkrc01/va0u/206.5/bdkrc01_eett_206.5_12111.xsdst ! RUN = 12111 ! NEVT = 2000
FILE = /castor/cern.ch/delphi/MCprod/lyon/bdkrc01/va0u/206.5/bdkrc01_eett_206.5_12113.xsdst ! RUN = 12113 ! NEVT = 2000
FILE = /castor/cern.ch/delphi/MCprod/lyon/bdkrc01/va0u/206.5/bdkrc01_eett_206.5_12114.xsdst ! RUN = 12114 ! NEVT = 2000
FILE = /castor/cern.ch/delphi/MCprod/lyon/bdkrc01/va0u/206.5/bdkrc01_eett_206.5_12115.xsdst ! RUN = 12115 ! NEVT = 2000
FILE = /castor/cern.ch/delphi/MCprod/lyon/bdkrc01/va0u/206.5/bdkrc01_eett_206.5_12116.xsdst ! RUN = 12116 ! NEVT = 2000
FILE = /castor/cern.ch/delphi/MCprod/lyon/bdkrc01/va0u/206.5/bdkrc01_eett_206.5_12117.xsdst ! RUN = 12117 ! NEVT = 2000
FILE = /castor/cern.ch/delphi/MCprod/lyon/bdkrc01/va0u/206.5/bdkrc01_eett_206.5_12118.xsdst ! RUN = 12118 ! NEVT = 2000
FILE = /castor/cern.ch/delphi/MCprod/lyon/bdkrc01/va0u/206.5/bdkrc01_eett_206.5_12119.xsdst ! RUN = 12119 ! NEVT = 2000
FILE = /castor/cern.ch/delphi/MCprod/lyon/bdkrc01/va0u/206.5/bdkrc01_eett_206.5_12120.xsdst ! RUN = 12120 ! NEVT = 2000
FILE = /castor/cern.ch/delphi/MCprod/lyon/bdkrc01/va0u/206.5/bdkrc01_eett_206.5_12121.xsdst ! RUN = 12121 ! NEVT = 2000
FILE = /castor/cern.ch/delphi/MCprod/lyon/bdkrc01/va0u/206.5/bdkrc01_eett_206.5_12122.xsdst ! RUN = 12122 ! NEVT = 2000
FILE = /castor/cern.ch/delphi/MCprod/lyon/bdkrc01/va0u/206.5/bdkrc01_eett_206.5_12123.xsdst ! RUN = 12123 ! NEVT = 2000
FILE = /castor/cern.ch/delphi/MCprod/lyon/bdkrc01/va0u/206.5/bdkrc01_eett_206.5_12124.xsdst ! RUN = 12124 ! NEVT = 2000
FILE = /castor/cern.ch/delphi/MCprod/lyon/bdkrc01/va0u/206.5/bdkrc01_eett_206.5_12125.xsdst ! RUN = 12125 ! NEVT = 2000
FILE = /castor/cern.ch/delphi/MCprod/lyon/bdkrc01/va0u/206.5/bdkrc01_eett_206.5_12126.xsdst ! RUN = 12126 ! NEVT = 2000
FILE = /castor/cern.ch/delphi/MCprod/lyon/bdkrc01/va0u/206.5/bdkrc01_eett_206.5_12127.xsdst ! RUN = 12127 ! NEVT = 2000
FILE = /castor/cern.ch/delphi/MCprod/lyon/bdkrc01/va0u/206.5/bdkrc01_eett_206.5_12128.xsdst ! RUN = 12128 ! NEVT = 2000
FILE = /castor/cern.ch/delphi/MCprod/lyon/bdkrc01/va0u/206.5/bdkrc01_eett_206.5_12129.xsdst ! RUN = 12129 ! NEVT = 2000
FILE = /castor/cern.ch/delphi/MCprod/lyon/bdkrc01/va0u/206.5/bdkrc01_eett_206.5_12130.xsdst ! RUN = 12130 ! NEVT = 2000
FILE = /castor/cern.ch/delphi/MCprod/lyon/bdkrc01/va0u/206.5/bdkrc01_eett_206.5_12131.xsdst ! RUN = 12131 ! NEVT = 2000
FILE = /castor/cern.ch/delphi/MCprod/lyon/bdkrc01/va0u/206.5/bdkrc01_eett_206.5_12132.xsdst ! RUN = 12132 ! NEVT = 2000
FILE = /castor/cern.ch/delphi/MCprod/lyon/bdkrc01/va0u/206.5/bdkrc01_eett_206.5_12133.xsdst ! RUN = 12133 ! NEVT = 2000
FILE = /castor/cern.ch/delphi/MCprod/lyon/bdkrc01/va0u/206.5/bdkrc01_eett_206.5_12134.xsdst ! RUN = 12134 ! NEVT = 2000
FILE = /castor/cern.ch/delphi/MCprod/lyon/bdkrc01/va0u/206.5/bdkrc01_eett_206.5_12135.xsdst ! RUN = 12135 ! NEVT = 2000
FILE = /castor/cern.ch/delphi/MCprod/lyon/bdkrc01/va0u/206.5/bdkrc01_eett_206.5_12136.xsdst ! RUN = 12136 ! NEVT = 2000
FILE = /castor/cern.ch/delphi/MCprod/lyon/bdkrc01/va0u/206.5/bdkrc01_eett_206.5_12137.xsdst ! RUN = 12137 ! NEVT = 2000
FILE = /castor/cern.ch/delphi/MCprod/lyon/bdkrc01/va0u/206.5/bdkrc01_eett_206.5_12138.xsdst ! RUN = 12138 ! NEVT = 2000
FILE = /castor/cern.ch/delphi/MCprod/lyon/bdkrc01/va0u/206.5/bdkrc01_eett_206.5_12139.xsdst ! RUN = 12139 ! NEVT = 2000
FILE = /castor/cern.ch/delphi/MCprod/lyon/bdkrc01/va0u/206.5/bdkrc01_eett_206.5_12140.xsdst ! RUN = 12140 ! NEVT = 2000
FILE = /castor/cern.ch/delphi/MCprod/lyon/bdkrc01/va0u/206.5/bdkrc01_eett_206.5_12141.xsdst ! RUN = 12141 ! NEVT = 2000
FILE = /castor/cern.ch/delphi/MCprod/lyon/bdkrc01/va0u/206.5/bdkrc01_eett_206.5_12142.xsdst ! RUN = 12142 ! NEVT = 2000
FILE = /castor/cern.ch/delphi/MCprod/lyon/bdkrc01/va0u/206.5/bdkrc01_eett_206.5_12143.xsdst ! RUN = 12143 ! NEVT = 2000
FILE = /castor/cern.ch/delphi/MCprod/lyon/bdkrc01/va0u/206.5/bdkrc01_eett_206.5_12144.xsdst ! RUN = 12144 ! NEVT = 2000
FILE = /castor/cern.ch/delphi/MCprod/lyon/bdkrc01/va0u/206.5/bdkrc01_eett_206.5_12145.xsdst ! RUN = 12145 ! NEVT = 2000
FILE = /castor/cern.ch/delphi/MCprod/lyon/bdkrc01/va0u/206.5/bdkrc01_eett_206.5_12146.xsdst ! RUN = 12146 ! NEVT = 2000
FILE = /castor/cern.ch/delphi/MCprod/lyon/bdkrc01/va0u/206.5/bdkrc01_eett_206.5_12147.xsdst ! RUN = 12147 ! NEVT = 2000
FILE = /castor/cern.ch/delphi/MCprod/lyon/bdkrc01/va0u/206.5/bdkrc01_eett_206.5_12148.xsdst ! RUN = 12148 ! NEVT = 2000
FILE = /castor/cern.ch/delphi/MCprod/lyon/bdkrc01/va0u/206.5/bdkrc01_eett_206.5_12149.xsdst ! RUN = 12149 ! NEVT = 2000
FILE = /castor/cern.ch/delphi/MCprod/lyon/bdkrc01/va0u/206.5/bdkrc01_eett_206.5_12150.xsdst ! RUN = 12150 ! NEVT = 2000
