*
*   Nickname     : xs_gpym6143wc0eeqq_e206.5_ca0_1l_u1
*   Generic Name : //CERN/DELPHI/P02_SIMD/XSDST/GPYM6143WC0EEQQ/E206.5/CERN/SUMT/C001-144
*   Description  :  Extended Short DST simulation a0_u1 done at ecms=206.5 , CERN
*---
*   Comments     : in total 1080000 events in 144 files time stamp: Mon Nov 26 14:17:32 2001
*---
*
*
*
*
*
FILE = /castor/cern.ch/delphi/MCprod/cern/gpym6143wc0/va0u/206.5/gpym6143wc0_eeqq_206.5_31002.xsdst ! RUN = 31002 ! NEVT = 7500
FILE = /castor/cern.ch/delphi/MCprod/cern/gpym6143wc0/va0u/206.5/gpym6143wc0_eeqq_206.5_31003.xsdst ! RUN = 31003 ! NEVT = 7500
FILE = /castor/cern.ch/delphi/MCprod/cern/gpym6143wc0/va0u/206.5/gpym6143wc0_eeqq_206.5_31004.xsdst ! RUN = 31004 ! NEVT = 7500
FILE = /castor/cern.ch/delphi/MCprod/cern/gpym6143wc0/va0u/206.5/gpym6143wc0_eeqq_206.5_31005.xsdst ! RUN = 31005 ! NEVT = 7500
FILE = /castor/cern.ch/delphi/MCprod/cern/gpym6143wc0/va0u/206.5/gpym6143wc0_eeqq_206.5_31006.xsdst ! RUN = 31006 ! NEVT = 7500
FILE = /castor/cern.ch/delphi/MCprod/cern/gpym6143wc0/va0u/206.5/gpym6143wc0_eeqq_206.5_31007.xsdst ! RUN = 31007 ! NEVT = 7500
FILE = /castor/cern.ch/delphi/MCprod/cern/gpym6143wc0/va0u/206.5/gpym6143wc0_eeqq_206.5_31008.xsdst ! RUN = 31008 ! NEVT = 7500
FILE = /castor/cern.ch/delphi/MCprod/cern/gpym6143wc0/va0u/206.5/gpym6143wc0_eeqq_206.5_31009.xsdst ! RUN = 31009 ! NEVT = 7500
FILE = /castor/cern.ch/delphi/MCprod/cern/gpym6143wc0/va0u/206.5/gpym6143wc0_eeqq_206.5_31011.xsdst ! RUN = 31011 ! NEVT = 7500
FILE = /castor/cern.ch/delphi/MCprod/cern/gpym6143wc0/va0u/206.5/gpym6143wc0_eeqq_206.5_31012.xsdst ! RUN = 31012 ! NEVT = 7500
FILE = /castor/cern.ch/delphi/MCprod/cern/gpym6143wc0/va0u/206.5/gpym6143wc0_eeqq_206.5_31013.xsdst ! RUN = 31013 ! NEVT = 7500
FILE = /castor/cern.ch/delphi/MCprod/cern/gpym6143wc0/va0u/206.5/gpym6143wc0_eeqq_206.5_31014.xsdst ! RUN = 31014 ! NEVT = 7500
FILE = /castor/cern.ch/delphi/MCprod/cern/gpym6143wc0/va0u/206.5/gpym6143wc0_eeqq_206.5_31015.xsdst ! RUN = 31015 ! NEVT = 7500
FILE = /castor/cern.ch/delphi/MCprod/cern/gpym6143wc0/va0u/206.5/gpym6143wc0_eeqq_206.5_31016.xsdst ! RUN = 31016 ! NEVT = 7500
FILE = /castor/cern.ch/delphi/MCprod/cern/gpym6143wc0/va0u/206.5/gpym6143wc0_eeqq_206.5_31017.xsdst ! RUN = 31017 ! NEVT = 7500
FILE = /castor/cern.ch/delphi/MCprod/cern/gpym6143wc0/va0u/206.5/gpym6143wc0_eeqq_206.5_31018.xsdst ! RUN = 31018 ! NEVT = 7500
FILE = /castor/cern.ch/delphi/MCprod/cern/gpym6143wc0/va0u/206.5/gpym6143wc0_eeqq_206.5_31019.xsdst ! RUN = 31019 ! NEVT = 7500
FILE = /castor/cern.ch/delphi/MCprod/cern/gpym6143wc0/va0u/206.5/gpym6143wc0_eeqq_206.5_31020.xsdst ! RUN = 31020 ! NEVT = 7500
FILE = /castor/cern.ch/delphi/MCprod/cern/gpym6143wc0/va0u/206.5/gpym6143wc0_eeqq_206.5_31021.xsdst ! RUN = 31021 ! NEVT = 7500
FILE = /castor/cern.ch/delphi/MCprod/cern/gpym6143wc0/va0u/206.5/gpym6143wc0_eeqq_206.5_31022.xsdst ! RUN = 31022 ! NEVT = 7500
FILE = /castor/cern.ch/delphi/MCprod/cern/gpym6143wc0/va0u/206.5/gpym6143wc0_eeqq_206.5_31023.xsdst ! RUN = 31023 ! NEVT = 7500
FILE = /castor/cern.ch/delphi/MCprod/cern/gpym6143wc0/va0u/206.5/gpym6143wc0_eeqq_206.5_31024.xsdst ! RUN = 31024 ! NEVT = 7500
FILE = /castor/cern.ch/delphi/MCprod/cern/gpym6143wc0/va0u/206.5/gpym6143wc0_eeqq_206.5_31025.xsdst ! RUN = 31025 ! NEVT = 7500
FILE = /castor/cern.ch/delphi/MCprod/cern/gpym6143wc0/va0u/206.5/gpym6143wc0_eeqq_206.5_31026.xsdst ! RUN = 31026 ! NEVT = 7500
FILE = /castor/cern.ch/delphi/MCprod/cern/gpym6143wc0/va0u/206.5/gpym6143wc0_eeqq_206.5_31027.xsdst ! RUN = 31027 ! NEVT = 7500
FILE = /castor/cern.ch/delphi/MCprod/cern/gpym6143wc0/va0u/206.5/gpym6143wc0_eeqq_206.5_31028.xsdst ! RUN = 31028 ! NEVT = 7500
FILE = /castor/cern.ch/delphi/MCprod/cern/gpym6143wc0/va0u/206.5/gpym6143wc0_eeqq_206.5_31029.xsdst ! RUN = 31029 ! NEVT = 7500
FILE = /castor/cern.ch/delphi/MCprod/cern/gpym6143wc0/va0u/206.5/gpym6143wc0_eeqq_206.5_31030.xsdst ! RUN = 31030 ! NEVT = 7500
FILE = /castor/cern.ch/delphi/MCprod/cern/gpym6143wc0/va0u/206.5/gpym6143wc0_eeqq_206.5_31031.xsdst ! RUN = 31031 ! NEVT = 7500
FILE = /castor/cern.ch/delphi/MCprod/cern/gpym6143wc0/va0u/206.5/gpym6143wc0_eeqq_206.5_31032.xsdst ! RUN = 31032 ! NEVT = 7500
FILE = /castor/cern.ch/delphi/MCprod/cern/gpym6143wc0/va0u/206.5/gpym6143wc0_eeqq_206.5_31033.xsdst ! RUN = 31033 ! NEVT = 7500
FILE = /castor/cern.ch/delphi/MCprod/cern/gpym6143wc0/va0u/206.5/gpym6143wc0_eeqq_206.5_31034.xsdst ! RUN = 31034 ! NEVT = 7500
FILE = /castor/cern.ch/delphi/MCprod/cern/gpym6143wc0/va0u/206.5/gpym6143wc0_eeqq_206.5_31035.xsdst ! RUN = 31035 ! NEVT = 7500
FILE = /castor/cern.ch/delphi/MCprod/cern/gpym6143wc0/va0u/206.5/gpym6143wc0_eeqq_206.5_31036.xsdst ! RUN = 31036 ! NEVT = 7500
FILE = /castor/cern.ch/delphi/MCprod/cern/gpym6143wc0/va0u/206.5/gpym6143wc0_eeqq_206.5_31037.xsdst ! RUN = 31037 ! NEVT = 7500
FILE = /castor/cern.ch/delphi/MCprod/cern/gpym6143wc0/va0u/206.5/gpym6143wc0_eeqq_206.5_31038.xsdst ! RUN = 31038 ! NEVT = 7500
FILE = /castor/cern.ch/delphi/MCprod/cern/gpym6143wc0/va0u/206.5/gpym6143wc0_eeqq_206.5_31039.xsdst ! RUN = 31039 ! NEVT = 7500
FILE = /castor/cern.ch/delphi/MCprod/cern/gpym6143wc0/va0u/206.5/gpym6143wc0_eeqq_206.5_31040.xsdst ! RUN = 31040 ! NEVT = 7500
FILE = /castor/cern.ch/delphi/MCprod/cern/gpym6143wc0/va0u/206.5/gpym6143wc0_eeqq_206.5_31041.xsdst ! RUN = 31041 ! NEVT = 7500
FILE = /castor/cern.ch/delphi/MCprod/cern/gpym6143wc0/va0u/206.5/gpym6143wc0_eeqq_206.5_31042.xsdst ! RUN = 31042 ! NEVT = 7500
FILE = /castor/cern.ch/delphi/MCprod/cern/gpym6143wc0/va0u/206.5/gpym6143wc0_eeqq_206.5_31043.xsdst ! RUN = 31043 ! NEVT = 7500
FILE = /castor/cern.ch/delphi/MCprod/cern/gpym6143wc0/va0u/206.5/gpym6143wc0_eeqq_206.5_31044.xsdst ! RUN = 31044 ! NEVT = 7500
FILE = /castor/cern.ch/delphi/MCprod/cern/gpym6143wc0/va0u/206.5/gpym6143wc0_eeqq_206.5_31045.xsdst ! RUN = 31045 ! NEVT = 7500
FILE = /castor/cern.ch/delphi/MCprod/cern/gpym6143wc0/va0u/206.5/gpym6143wc0_eeqq_206.5_31046.xsdst ! RUN = 31046 ! NEVT = 7500
FILE = /castor/cern.ch/delphi/MCprod/cern/gpym6143wc0/va0u/206.5/gpym6143wc0_eeqq_206.5_31048.xsdst ! RUN = 31048 ! NEVT = 7500
FILE = /castor/cern.ch/delphi/MCprod/cern/gpym6143wc0/va0u/206.5/gpym6143wc0_eeqq_206.5_31049.xsdst ! RUN = 31049 ! NEVT = 7500
FILE = /castor/cern.ch/delphi/MCprod/cern/gpym6143wc0/va0u/206.5/gpym6143wc0_eeqq_206.5_31050.xsdst ! RUN = 31050 ! NEVT = 7500
FILE = /castor/cern.ch/delphi/MCprod/cern/gpym6143wc0/va0u/206.5/gpym6143wc0_eeqq_206.5_31051.xsdst ! RUN = 31051 ! NEVT = 7500
FILE = /castor/cern.ch/delphi/MCprod/cern/gpym6143wc0/va0u/206.5/gpym6143wc0_eeqq_206.5_31052.xsdst ! RUN = 31052 ! NEVT = 7500
FILE = /castor/cern.ch/delphi/MCprod/cern/gpym6143wc0/va0u/206.5/gpym6143wc0_eeqq_206.5_31053.xsdst ! RUN = 31053 ! NEVT = 7500
FILE = /castor/cern.ch/delphi/MCprod/cern/gpym6143wc0/va0u/206.5/gpym6143wc0_eeqq_206.5_31054.xsdst ! RUN = 31054 ! NEVT = 7500
FILE = /castor/cern.ch/delphi/MCprod/cern/gpym6143wc0/va0u/206.5/gpym6143wc0_eeqq_206.5_31055.xsdst ! RUN = 31055 ! NEVT = 7500
FILE = /castor/cern.ch/delphi/MCprod/cern/gpym6143wc0/va0u/206.5/gpym6143wc0_eeqq_206.5_31056.xsdst ! RUN = 31056 ! NEVT = 7500
FILE = /castor/cern.ch/delphi/MCprod/cern/gpym6143wc0/va0u/206.5/gpym6143wc0_eeqq_206.5_31057.xsdst ! RUN = 31057 ! NEVT = 7500
FILE = /castor/cern.ch/delphi/MCprod/cern/gpym6143wc0/va0u/206.5/gpym6143wc0_eeqq_206.5_31058.xsdst ! RUN = 31058 ! NEVT = 7500
FILE = /castor/cern.ch/delphi/MCprod/cern/gpym6143wc0/va0u/206.5/gpym6143wc0_eeqq_206.5_31059.xsdst ! RUN = 31059 ! NEVT = 7500
FILE = /castor/cern.ch/delphi/MCprod/cern/gpym6143wc0/va0u/206.5/gpym6143wc0_eeqq_206.5_31060.xsdst ! RUN = 31060 ! NEVT = 7500
FILE = /castor/cern.ch/delphi/MCprod/cern/gpym6143wc0/va0u/206.5/gpym6143wc0_eeqq_206.5_31061.xsdst ! RUN = 31061 ! NEVT = 7500
FILE = /castor/cern.ch/delphi/MCprod/cern/gpym6143wc0/va0u/206.5/gpym6143wc0_eeqq_206.5_31062.xsdst ! RUN = 31062 ! NEVT = 7500
FILE = /castor/cern.ch/delphi/MCprod/cern/gpym6143wc0/va0u/206.5/gpym6143wc0_eeqq_206.5_31063.xsdst ! RUN = 31063 ! NEVT = 7500
FILE = /castor/cern.ch/delphi/MCprod/cern/gpym6143wc0/va0u/206.5/gpym6143wc0_eeqq_206.5_31064.xsdst ! RUN = 31064 ! NEVT = 7500
FILE = /castor/cern.ch/delphi/MCprod/cern/gpym6143wc0/va0u/206.5/gpym6143wc0_eeqq_206.5_31065.xsdst ! RUN = 31065 ! NEVT = 7500
FILE = /castor/cern.ch/delphi/MCprod/cern/gpym6143wc0/va0u/206.5/gpym6143wc0_eeqq_206.5_31067.xsdst ! RUN = 31067 ! NEVT = 7500
FILE = /castor/cern.ch/delphi/MCprod/cern/gpym6143wc0/va0u/206.5/gpym6143wc0_eeqq_206.5_31068.xsdst ! RUN = 31068 ! NEVT = 7500
FILE = /castor/cern.ch/delphi/MCprod/cern/gpym6143wc0/va0u/206.5/gpym6143wc0_eeqq_206.5_31069.xsdst ! RUN = 31069 ! NEVT = 7500
FILE = /castor/cern.ch/delphi/MCprod/cern/gpym6143wc0/va0u/206.5/gpym6143wc0_eeqq_206.5_31070.xsdst ! RUN = 31070 ! NEVT = 7500
FILE = /castor/cern.ch/delphi/MCprod/cern/gpym6143wc0/va0u/206.5/gpym6143wc0_eeqq_206.5_31072.xsdst ! RUN = 31072 ! NEVT = 7500
FILE = /castor/cern.ch/delphi/MCprod/cern/gpym6143wc0/va0u/206.5/gpym6143wc0_eeqq_206.5_31073.xsdst ! RUN = 31073 ! NEVT = 7500
FILE = /castor/cern.ch/delphi/MCprod/cern/gpym6143wc0/va0u/206.5/gpym6143wc0_eeqq_206.5_31074.xsdst ! RUN = 31074 ! NEVT = 7500
FILE = /castor/cern.ch/delphi/MCprod/cern/gpym6143wc0/va0u/206.5/gpym6143wc0_eeqq_206.5_31075.xsdst ! RUN = 31075 ! NEVT = 7500
FILE = /castor/cern.ch/delphi/MCprod/cern/gpym6143wc0/va0u/206.5/gpym6143wc0_eeqq_206.5_31076.xsdst ! RUN = 31076 ! NEVT = 7500
FILE = /castor/cern.ch/delphi/MCprod/cern/gpym6143wc0/va0u/206.5/gpym6143wc0_eeqq_206.5_31077.xsdst ! RUN = 31077 ! NEVT = 7500
FILE = /castor/cern.ch/delphi/MCprod/cern/gpym6143wc0/va0u/206.5/gpym6143wc0_eeqq_206.5_31078.xsdst ! RUN = 31078 ! NEVT = 7500
FILE = /castor/cern.ch/delphi/MCprod/cern/gpym6143wc0/va0u/206.5/gpym6143wc0_eeqq_206.5_31079.xsdst ! RUN = 31079 ! NEVT = 7500
FILE = /castor/cern.ch/delphi/MCprod/cern/gpym6143wc0/va0u/206.5/gpym6143wc0_eeqq_206.5_31080.xsdst ! RUN = 31080 ! NEVT = 7500
FILE = /castor/cern.ch/delphi/MCprod/cern/gpym6143wc0/va0u/206.5/gpym6143wc0_eeqq_206.5_31081.xsdst ! RUN = 31081 ! NEVT = 7500
FILE = /castor/cern.ch/delphi/MCprod/cern/gpym6143wc0/va0u/206.5/gpym6143wc0_eeqq_206.5_31082.xsdst ! RUN = 31082 ! NEVT = 7500
FILE = /castor/cern.ch/delphi/MCprod/cern/gpym6143wc0/va0u/206.5/gpym6143wc0_eeqq_206.5_31083.xsdst ! RUN = 31083 ! NEVT = 7500
FILE = /castor/cern.ch/delphi/MCprod/cern/gpym6143wc0/va0u/206.5/gpym6143wc0_eeqq_206.5_31084.xsdst ! RUN = 31084 ! NEVT = 7500
FILE = /castor/cern.ch/delphi/MCprod/cern/gpym6143wc0/va0u/206.5/gpym6143wc0_eeqq_206.5_31085.xsdst ! RUN = 31085 ! NEVT = 7500
FILE = /castor/cern.ch/delphi/MCprod/cern/gpym6143wc0/va0u/206.5/gpym6143wc0_eeqq_206.5_31086.xsdst ! RUN = 31086 ! NEVT = 7500
FILE = /castor/cern.ch/delphi/MCprod/cern/gpym6143wc0/va0u/206.5/gpym6143wc0_eeqq_206.5_31087.xsdst ! RUN = 31087 ! NEVT = 7500
FILE = /castor/cern.ch/delphi/MCprod/cern/gpym6143wc0/va0u/206.5/gpym6143wc0_eeqq_206.5_31088.xsdst ! RUN = 31088 ! NEVT = 7500
FILE = /castor/cern.ch/delphi/MCprod/cern/gpym6143wc0/va0u/206.5/gpym6143wc0_eeqq_206.5_31089.xsdst ! RUN = 31089 ! NEVT = 7500
FILE = /castor/cern.ch/delphi/MCprod/cern/gpym6143wc0/va0u/206.5/gpym6143wc0_eeqq_206.5_31090.xsdst ! RUN = 31090 ! NEVT = 7500
FILE = /castor/cern.ch/delphi/MCprod/cern/gpym6143wc0/va0u/206.5/gpym6143wc0_eeqq_206.5_31091.xsdst ! RUN = 31091 ! NEVT = 7500
FILE = /castor/cern.ch/delphi/MCprod/cern/gpym6143wc0/va0u/206.5/gpym6143wc0_eeqq_206.5_31092.xsdst ! RUN = 31092 ! NEVT = 7500
FILE = /castor/cern.ch/delphi/MCprod/cern/gpym6143wc0/va0u/206.5/gpym6143wc0_eeqq_206.5_31094.xsdst ! RUN = 31094 ! NEVT = 7500
FILE = /castor/cern.ch/delphi/MCprod/cern/gpym6143wc0/va0u/206.5/gpym6143wc0_eeqq_206.5_31095.xsdst ! RUN = 31095 ! NEVT = 7500
FILE = /castor/cern.ch/delphi/MCprod/cern/gpym6143wc0/va0u/206.5/gpym6143wc0_eeqq_206.5_31096.xsdst ! RUN = 31096 ! NEVT = 7500
FILE = /castor/cern.ch/delphi/MCprod/cern/gpym6143wc0/va0u/206.5/gpym6143wc0_eeqq_206.5_31097.xsdst ! RUN = 31097 ! NEVT = 7500
FILE = /castor/cern.ch/delphi/MCprod/cern/gpym6143wc0/va0u/206.5/gpym6143wc0_eeqq_206.5_31098.xsdst ! RUN = 31098 ! NEVT = 7500
FILE = /castor/cern.ch/delphi/MCprod/cern/gpym6143wc0/va0u/206.5/gpym6143wc0_eeqq_206.5_31099.xsdst ! RUN = 31099 ! NEVT = 7500
FILE = /castor/cern.ch/delphi/MCprod/cern/gpym6143wc0/va0u/206.5/gpym6143wc0_eeqq_206.5_31100.xsdst ! RUN = 31100 ! NEVT = 7500
FILE = /castor/cern.ch/delphi/MCprod/cern/gpym6143wc0/va0u/206.5/gpym6143wc0_eeqq_206.5_31101.xsdst ! RUN = 31101 ! NEVT = 7500
FILE = /castor/cern.ch/delphi/MCprod/cern/gpym6143wc0/va0u/206.5/gpym6143wc0_eeqq_206.5_31102.xsdst ! RUN = 31102 ! NEVT = 7500
FILE = /castor/cern.ch/delphi/MCprod/cern/gpym6143wc0/va0u/206.5/gpym6143wc0_eeqq_206.5_31103.xsdst ! RUN = 31103 ! NEVT = 7500
FILE = /castor/cern.ch/delphi/MCprod/cern/gpym6143wc0/va0u/206.5/gpym6143wc0_eeqq_206.5_31104.xsdst ! RUN = 31104 ! NEVT = 7500
FILE = /castor/cern.ch/delphi/MCprod/cern/gpym6143wc0/va0u/206.5/gpym6143wc0_eeqq_206.5_31105.xsdst ! RUN = 31105 ! NEVT = 7500
FILE = /castor/cern.ch/delphi/MCprod/cern/gpym6143wc0/va0u/206.5/gpym6143wc0_eeqq_206.5_31106.xsdst ! RUN = 31106 ! NEVT = 7500
FILE = /castor/cern.ch/delphi/MCprod/cern/gpym6143wc0/va0u/206.5/gpym6143wc0_eeqq_206.5_31107.xsdst ! RUN = 31107 ! NEVT = 7500
FILE = /castor/cern.ch/delphi/MCprod/cern/gpym6143wc0/va0u/206.5/gpym6143wc0_eeqq_206.5_31108.xsdst ! RUN = 31108 ! NEVT = 7500
FILE = /castor/cern.ch/delphi/MCprod/cern/gpym6143wc0/va0u/206.5/gpym6143wc0_eeqq_206.5_31109.xsdst ! RUN = 31109 ! NEVT = 7500
FILE = /castor/cern.ch/delphi/MCprod/cern/gpym6143wc0/va0u/206.5/gpym6143wc0_eeqq_206.5_31110.xsdst ! RUN = 31110 ! NEVT = 7500
FILE = /castor/cern.ch/delphi/MCprod/cern/gpym6143wc0/va0u/206.5/gpym6143wc0_eeqq_206.5_31111.xsdst ! RUN = 31111 ! NEVT = 7500
FILE = /castor/cern.ch/delphi/MCprod/cern/gpym6143wc0/va0u/206.5/gpym6143wc0_eeqq_206.5_31112.xsdst ! RUN = 31112 ! NEVT = 7500
FILE = /castor/cern.ch/delphi/MCprod/cern/gpym6143wc0/va0u/206.5/gpym6143wc0_eeqq_206.5_31113.xsdst ! RUN = 31113 ! NEVT = 7500
FILE = /castor/cern.ch/delphi/MCprod/cern/gpym6143wc0/va0u/206.5/gpym6143wc0_eeqq_206.5_31114.xsdst ! RUN = 31114 ! NEVT = 7500
FILE = /castor/cern.ch/delphi/MCprod/cern/gpym6143wc0/va0u/206.5/gpym6143wc0_eeqq_206.5_31115.xsdst ! RUN = 31115 ! NEVT = 7500
FILE = /castor/cern.ch/delphi/MCprod/cern/gpym6143wc0/va0u/206.5/gpym6143wc0_eeqq_206.5_31116.xsdst ! RUN = 31116 ! NEVT = 7500
FILE = /castor/cern.ch/delphi/MCprod/cern/gpym6143wc0/va0u/206.5/gpym6143wc0_eeqq_206.5_31117.xsdst ! RUN = 31117 ! NEVT = 7500
FILE = /castor/cern.ch/delphi/MCprod/cern/gpym6143wc0/va0u/206.5/gpym6143wc0_eeqq_206.5_31118.xsdst ! RUN = 31118 ! NEVT = 7500
FILE = /castor/cern.ch/delphi/MCprod/cern/gpym6143wc0/va0u/206.5/gpym6143wc0_eeqq_206.5_31119.xsdst ! RUN = 31119 ! NEVT = 7500
FILE = /castor/cern.ch/delphi/MCprod/cern/gpym6143wc0/va0u/206.5/gpym6143wc0_eeqq_206.5_31120.xsdst ! RUN = 31120 ! NEVT = 7500
FILE = /castor/cern.ch/delphi/MCprod/cern/gpym6143wc0/va0u/206.5/gpym6143wc0_eeqq_206.5_31121.xsdst ! RUN = 31121 ! NEVT = 7500
FILE = /castor/cern.ch/delphi/MCprod/cern/gpym6143wc0/va0u/206.5/gpym6143wc0_eeqq_206.5_31122.xsdst ! RUN = 31122 ! NEVT = 7500
FILE = /castor/cern.ch/delphi/MCprod/cern/gpym6143wc0/va0u/206.5/gpym6143wc0_eeqq_206.5_31123.xsdst ! RUN = 31123 ! NEVT = 7500
FILE = /castor/cern.ch/delphi/MCprod/cern/gpym6143wc0/va0u/206.5/gpym6143wc0_eeqq_206.5_31124.xsdst ! RUN = 31124 ! NEVT = 7500
FILE = /castor/cern.ch/delphi/MCprod/cern/gpym6143wc0/va0u/206.5/gpym6143wc0_eeqq_206.5_31125.xsdst ! RUN = 31125 ! NEVT = 7500
FILE = /castor/cern.ch/delphi/MCprod/cern/gpym6143wc0/va0u/206.5/gpym6143wc0_eeqq_206.5_31126.xsdst ! RUN = 31126 ! NEVT = 7500
FILE = /castor/cern.ch/delphi/MCprod/cern/gpym6143wc0/va0u/206.5/gpym6143wc0_eeqq_206.5_31127.xsdst ! RUN = 31127 ! NEVT = 7500
FILE = /castor/cern.ch/delphi/MCprod/cern/gpym6143wc0/va0u/206.5/gpym6143wc0_eeqq_206.5_31128.xsdst ! RUN = 31128 ! NEVT = 7500
FILE = /castor/cern.ch/delphi/MCprod/cern/gpym6143wc0/va0u/206.5/gpym6143wc0_eeqq_206.5_31129.xsdst ! RUN = 31129 ! NEVT = 7500
FILE = /castor/cern.ch/delphi/MCprod/cern/gpym6143wc0/va0u/206.5/gpym6143wc0_eeqq_206.5_31130.xsdst ! RUN = 31130 ! NEVT = 7500
FILE = /castor/cern.ch/delphi/MCprod/cern/gpym6143wc0/va0u/206.5/gpym6143wc0_eeqq_206.5_31131.xsdst ! RUN = 31131 ! NEVT = 7500
FILE = /castor/cern.ch/delphi/MCprod/cern/gpym6143wc0/va0u/206.5/gpym6143wc0_eeqq_206.5_31132.xsdst ! RUN = 31132 ! NEVT = 7500
FILE = /castor/cern.ch/delphi/MCprod/cern/gpym6143wc0/va0u/206.5/gpym6143wc0_eeqq_206.5_31133.xsdst ! RUN = 31133 ! NEVT = 7500
FILE = /castor/cern.ch/delphi/MCprod/cern/gpym6143wc0/va0u/206.5/gpym6143wc0_eeqq_206.5_31134.xsdst ! RUN = 31134 ! NEVT = 7500
FILE = /castor/cern.ch/delphi/MCprod/cern/gpym6143wc0/va0u/206.5/gpym6143wc0_eeqq_206.5_31135.xsdst ! RUN = 31135 ! NEVT = 7500
FILE = /castor/cern.ch/delphi/MCprod/cern/gpym6143wc0/va0u/206.5/gpym6143wc0_eeqq_206.5_31136.xsdst ! RUN = 31136 ! NEVT = 7500
FILE = /castor/cern.ch/delphi/MCprod/cern/gpym6143wc0/va0u/206.5/gpym6143wc0_eeqq_206.5_31137.xsdst ! RUN = 31137 ! NEVT = 7500
FILE = /castor/cern.ch/delphi/MCprod/cern/gpym6143wc0/va0u/206.5/gpym6143wc0_eeqq_206.5_31138.xsdst ! RUN = 31138 ! NEVT = 7500
FILE = /castor/cern.ch/delphi/MCprod/cern/gpym6143wc0/va0u/206.5/gpym6143wc0_eeqq_206.5_31139.xsdst ! RUN = 31139 ! NEVT = 7500
FILE = /castor/cern.ch/delphi/MCprod/cern/gpym6143wc0/va0u/206.5/gpym6143wc0_eeqq_206.5_31140.xsdst ! RUN = 31140 ! NEVT = 7500
FILE = /castor/cern.ch/delphi/MCprod/cern/gpym6143wc0/va0u/206.5/gpym6143wc0_eeqq_206.5_31141.xsdst ! RUN = 31141 ! NEVT = 7500
FILE = /castor/cern.ch/delphi/MCprod/cern/gpym6143wc0/va0u/206.5/gpym6143wc0_eeqq_206.5_31142.xsdst ! RUN = 31142 ! NEVT = 7500
FILE = /castor/cern.ch/delphi/MCprod/cern/gpym6143wc0/va0u/206.5/gpym6143wc0_eeqq_206.5_31143.xsdst ! RUN = 31143 ! NEVT = 7500
FILE = /castor/cern.ch/delphi/MCprod/cern/gpym6143wc0/va0u/206.5/gpym6143wc0_eeqq_206.5_31144.xsdst ! RUN = 31144 ! NEVT = 7500
FILE = /castor/cern.ch/delphi/MCprod/cern/gpym6143wc0/va0u/206.5/gpym6143wc0_eeqq_206.5_31145.xsdst ! RUN = 31145 ! NEVT = 7500
FILE = /castor/cern.ch/delphi/MCprod/cern/gpym6143wc0/va0u/206.5/gpym6143wc0_eeqq_206.5_31146.xsdst ! RUN = 31146 ! NEVT = 7500
FILE = /castor/cern.ch/delphi/MCprod/cern/gpym6143wc0/va0u/206.5/gpym6143wc0_eeqq_206.5_31147.xsdst ! RUN = 31147 ! NEVT = 7500
FILE = /castor/cern.ch/delphi/MCprod/cern/gpym6143wc0/va0u/206.5/gpym6143wc0_eeqq_206.5_31148.xsdst ! RUN = 31148 ! NEVT = 7500
FILE = /castor/cern.ch/delphi/MCprod/cern/gpym6143wc0/va0u/206.5/gpym6143wc0_eeqq_206.5_31149.xsdst ! RUN = 31149 ! NEVT = 7500
FILE = /castor/cern.ch/delphi/MCprod/cern/gpym6143wc0/va0u/206.5/gpym6143wc0_eeqq_206.5_31150.xsdst ! RUN = 31150 ! NEVT = 7500
