*
*   Nickname     : xs_wphact211ncgg_e206.5_m80.4_ca0_1l_u1
*   Generic Name : //CERN/DELPHI/P02_SIMD/XSDST/WPHACT211NCGG/E206.5/CERN/SUMT/C001-191
*   Description  :  Extended Short DST simulation a0_u1 done at ecms=206.5 , CERN
*---
*   Comments     : in total 1541008 events in 191 files time stamp: Wed Jan 23 18:16:30 2002
*---
*
*
*
*
*
FILE = /castor/cern.ch/delphi/MCprod/cern/wphact211/va0u/206.5/wphact211_ncgg_206.5_80.4_20201.xsdst ! RUN = 20201 ! NEVT = 8200
FILE = /castor/cern.ch/delphi/MCprod/cern/wphact211/va0u/206.5/wphact211_ncgg_206.5_80.4_20202.xsdst ! RUN = 20202 ! NEVT = 8199
FILE = /castor/cern.ch/delphi/MCprod/cern/wphact211/va0u/206.5/wphact211_ncgg_206.5_80.4_20203.xsdst ! RUN = 20203 ! NEVT = 8200
FILE = /castor/cern.ch/delphi/MCprod/cern/wphact211/va0u/206.5/wphact211_ncgg_206.5_80.4_20204.xsdst ! RUN = 20204 ! NEVT = 8200
FILE = /castor/cern.ch/delphi/MCprod/cern/wphact211/va0u/206.5/wphact211_ncgg_206.5_80.4_20205.xsdst ! RUN = 20205 ! NEVT = 8200
FILE = /castor/cern.ch/delphi/MCprod/cern/wphact211/va0u/206.5/wphact211_ncgg_206.5_80.4_20206.xsdst ! RUN = 20206 ! NEVT = 8199
FILE = /castor/cern.ch/delphi/MCprod/cern/wphact211/va0u/206.5/wphact211_ncgg_206.5_80.4_20207.xsdst ! RUN = 20207 ! NEVT = 8198
FILE = /castor/cern.ch/delphi/MCprod/cern/wphact211/va0u/206.5/wphact211_ncgg_206.5_80.4_20208.xsdst ! RUN = 20208 ! NEVT = 8199
FILE = /castor/cern.ch/delphi/MCprod/cern/wphact211/va0u/206.5/wphact211_ncgg_206.5_80.4_20209.xsdst ! RUN = 20209 ! NEVT = 8200
FILE = /castor/cern.ch/delphi/MCprod/cern/wphact211/va0u/206.5/wphact211_ncgg_206.5_80.4_20210.xsdst ! RUN = 20210 ! NEVT = 8200
FILE = /castor/cern.ch/delphi/MCprod/cern/wphact211/va0u/206.5/wphact211_ncgg_206.5_80.4_20211.xsdst ! RUN = 20211 ! NEVT = 8200
FILE = /castor/cern.ch/delphi/MCprod/cern/wphact211/va0u/206.5/wphact211_ncgg_206.5_80.4_20212.xsdst ! RUN = 20212 ! NEVT = 8200
FILE = /castor/cern.ch/delphi/MCprod/cern/wphact211/va0u/206.5/wphact211_ncgg_206.5_80.4_20213.xsdst ! RUN = 20213 ! NEVT = 8200
FILE = /castor/cern.ch/delphi/MCprod/cern/wphact211/va0u/206.5/wphact211_ncgg_206.5_80.4_20214.xsdst ! RUN = 20214 ! NEVT = 8200
FILE = /castor/cern.ch/delphi/MCprod/cern/wphact211/va0u/206.5/wphact211_ncgg_206.5_80.4_20215.xsdst ! RUN = 20215 ! NEVT = 8200
FILE = /castor/cern.ch/delphi/MCprod/cern/wphact211/va0u/206.5/wphact211_ncgg_206.5_80.4_20216.xsdst ! RUN = 20216 ! NEVT = 8200
FILE = /castor/cern.ch/delphi/MCprod/cern/wphact211/va0u/206.5/wphact211_ncgg_206.5_80.4_20217.xsdst ! RUN = 20217 ! NEVT = 8200
FILE = /castor/cern.ch/delphi/MCprod/cern/wphact211/va0u/206.5/wphact211_ncgg_206.5_80.4_20218.xsdst ! RUN = 20218 ! NEVT = 8200
FILE = /castor/cern.ch/delphi/MCprod/cern/wphact211/va0u/206.5/wphact211_ncgg_206.5_80.4_20219.xsdst ! RUN = 20219 ! NEVT = 8200
FILE = /castor/cern.ch/delphi/MCprod/cern/wphact211/va0u/206.5/wphact211_ncgg_206.5_80.4_20221.xsdst ! RUN = 20221 ! NEVT = 8200
FILE = /castor/cern.ch/delphi/MCprod/cern/wphact211/va0u/206.5/wphact211_ncgg_206.5_80.4_20222.xsdst ! RUN = 20222 ! NEVT = 8200
FILE = /castor/cern.ch/delphi/MCprod/cern/wphact211/va0u/206.5/wphact211_ncgg_206.5_80.4_20223.xsdst ! RUN = 20223 ! NEVT = 8200
FILE = /castor/cern.ch/delphi/MCprod/cern/wphact211/va0u/206.5/wphact211_ncgg_206.5_80.4_20225.xsdst ! RUN = 20225 ! NEVT = 8200
FILE = /castor/cern.ch/delphi/MCprod/cern/wphact211/va0u/206.5/wphact211_ncgg_206.5_80.4_20226.xsdst ! RUN = 20226 ! NEVT = 8200
FILE = /castor/cern.ch/delphi/MCprod/cern/wphact211/va0u/206.5/wphact211_ncgg_206.5_80.4_20227.xsdst ! RUN = 20227 ! NEVT = 8155
FILE = /castor/cern.ch/delphi/MCprod/cern/wphact211/va0u/206.5/wphact211_ncgg_206.5_80.4_20228.xsdst ! RUN = 20228 ! NEVT = 8200
FILE = /castor/cern.ch/delphi/MCprod/cern/wphact211/va0u/206.5/wphact211_ncgg_206.5_80.4_20229.xsdst ! RUN = 20229 ! NEVT = 8199
FILE = /castor/cern.ch/delphi/MCprod/cern/wphact211/va0u/206.5/wphact211_ncgg_206.5_80.4_20230.xsdst ! RUN = 20230 ! NEVT = 8200
FILE = /castor/cern.ch/delphi/MCprod/cern/wphact211/va0u/206.5/wphact211_ncgg_206.5_80.4_20231.xsdst ! RUN = 20231 ! NEVT = 8200
FILE = /castor/cern.ch/delphi/MCprod/cern/wphact211/va0u/206.5/wphact211_ncgg_206.5_80.4_20232.xsdst ! RUN = 20232 ! NEVT = 8200
FILE = /castor/cern.ch/delphi/MCprod/cern/wphact211/va0u/206.5/wphact211_ncgg_206.5_80.4_20233.xsdst ! RUN = 20233 ! NEVT = 8200
FILE = /castor/cern.ch/delphi/MCprod/cern/wphact211/va0u/206.5/wphact211_ncgg_206.5_80.4_20234.xsdst ! RUN = 20234 ! NEVT = 8200
FILE = /castor/cern.ch/delphi/MCprod/cern/wphact211/va0u/206.5/wphact211_ncgg_206.5_80.4_20235.xsdst ! RUN = 20235 ! NEVT = 8200
FILE = /castor/cern.ch/delphi/MCprod/cern/wphact211/va0u/206.5/wphact211_ncgg_206.5_80.4_20236.xsdst ! RUN = 20236 ! NEVT = 8196
FILE = /castor/cern.ch/delphi/MCprod/cern/wphact211/va0u/206.5/wphact211_ncgg_206.5_80.4_20238.xsdst ! RUN = 20238 ! NEVT = 8200
FILE = /castor/cern.ch/delphi/MCprod/cern/wphact211/va0u/206.5/wphact211_ncgg_206.5_80.4_20239.xsdst ! RUN = 20239 ! NEVT = 8200
FILE = /castor/cern.ch/delphi/MCprod/cern/wphact211/va0u/206.5/wphact211_ncgg_206.5_80.4_20240.xsdst ! RUN = 20240 ! NEVT = 8200
FILE = /castor/cern.ch/delphi/MCprod/cern/wphact211/va0u/206.5/wphact211_ncgg_206.5_80.4_20241.xsdst ! RUN = 20241 ! NEVT = 8200
FILE = /castor/cern.ch/delphi/MCprod/cern/wphact211/va0u/206.5/wphact211_ncgg_206.5_80.4_20242.xsdst ! RUN = 20242 ! NEVT = 8200
FILE = /castor/cern.ch/delphi/MCprod/cern/wphact211/va0u/206.5/wphact211_ncgg_206.5_80.4_20243.xsdst ! RUN = 20243 ! NEVT = 8200
FILE = /castor/cern.ch/delphi/MCprod/cern/wphact211/va0u/206.5/wphact211_ncgg_206.5_80.4_20244.xsdst ! RUN = 20244 ! NEVT = 8200
FILE = /castor/cern.ch/delphi/MCprod/cern/wphact211/va0u/206.5/wphact211_ncgg_206.5_80.4_20245.xsdst ! RUN = 20245 ! NEVT = 8200
FILE = /castor/cern.ch/delphi/MCprod/cern/wphact211/va0u/206.5/wphact211_ncgg_206.5_80.4_20246.xsdst ! RUN = 20246 ! NEVT = 8200
FILE = /castor/cern.ch/delphi/MCprod/cern/wphact211/va0u/206.5/wphact211_ncgg_206.5_80.4_20247.xsdst ! RUN = 20247 ! NEVT = 8200
FILE = /castor/cern.ch/delphi/MCprod/cern/wphact211/va0u/206.5/wphact211_ncgg_206.5_80.4_20248.xsdst ! RUN = 20248 ! NEVT = 8200
FILE = /castor/cern.ch/delphi/MCprod/cern/wphact211/va0u/206.5/wphact211_ncgg_206.5_80.4_20249.xsdst ! RUN = 20249 ! NEVT = 8200
FILE = /castor/cern.ch/delphi/MCprod/cern/wphact211/va0u/206.5/wphact211_ncgg_206.5_80.4_20250.xsdst ! RUN = 20250 ! NEVT = 8200
FILE = /castor/cern.ch/delphi/MCprod/cern/wphact211/va0u/206.5/wphact211_ncgg_206.5_80.4_20251.xsdst ! RUN = 20251 ! NEVT = 8200
FILE = /castor/cern.ch/delphi/MCprod/cern/wphact211/va0u/206.5/wphact211_ncgg_206.5_80.4_20252.xsdst ! RUN = 20252 ! NEVT = 8199
FILE = /castor/cern.ch/delphi/MCprod/cern/wphact211/va0u/206.5/wphact211_ncgg_206.5_80.4_20253.xsdst ! RUN = 20253 ! NEVT = 8200
FILE = /castor/cern.ch/delphi/MCprod/cern/wphact211/va0u/206.5/wphact211_ncgg_206.5_80.4_20254.xsdst ! RUN = 20254 ! NEVT = 8200
FILE = /castor/cern.ch/delphi/MCprod/cern/wphact211/va0u/206.5/wphact211_ncgg_206.5_80.4_20255.xsdst ! RUN = 20255 ! NEVT = 8118
FILE = /castor/cern.ch/delphi/MCprod/cern/wphact211/va0u/206.5/wphact211_ncgg_206.5_80.4_20256.xsdst ! RUN = 20256 ! NEVT = 8166
FILE = /castor/cern.ch/delphi/MCprod/cern/wphact211/va0u/206.5/wphact211_ncgg_206.5_80.4_20257.xsdst ! RUN = 20257 ! NEVT = 8200
FILE = /castor/cern.ch/delphi/MCprod/cern/wphact211/va0u/206.5/wphact211_ncgg_206.5_80.4_20258.xsdst ! RUN = 20258 ! NEVT = 8200
FILE = /castor/cern.ch/delphi/MCprod/cern/wphact211/va0u/206.5/wphact211_ncgg_206.5_80.4_20259.xsdst ! RUN = 20259 ! NEVT = 8199
FILE = /castor/cern.ch/delphi/MCprod/cern/wphact211/va0u/206.5/wphact211_ncgg_206.5_80.4_20260.xsdst ! RUN = 20260 ! NEVT = 8148
FILE = /castor/cern.ch/delphi/MCprod/cern/wphact211/va0u/206.5/wphact211_ncgg_206.5_80.4_20261.xsdst ! RUN = 20261 ! NEVT = 8200
FILE = /castor/cern.ch/delphi/MCprod/cern/wphact211/va0u/206.5/wphact211_ncgg_206.5_80.4_20262.xsdst ! RUN = 20262 ! NEVT = 8200
FILE = /castor/cern.ch/delphi/MCprod/cern/wphact211/va0u/206.5/wphact211_ncgg_206.5_80.4_20263.xsdst ! RUN = 20263 ! NEVT = 8200
FILE = /castor/cern.ch/delphi/MCprod/cern/wphact211/va0u/206.5/wphact211_ncgg_206.5_80.4_20264.xsdst ! RUN = 20264 ! NEVT = 8200
FILE = /castor/cern.ch/delphi/MCprod/cern/wphact211/va0u/206.5/wphact211_ncgg_206.5_80.4_20265.xsdst ! RUN = 20265 ! NEVT = 8100
FILE = /castor/cern.ch/delphi/MCprod/cern/wphact211/va0u/206.5/wphact211_ncgg_206.5_80.4_20266.xsdst ! RUN = 20266 ! NEVT = 8200
FILE = /castor/cern.ch/delphi/MCprod/cern/wphact211/va0u/206.5/wphact211_ncgg_206.5_80.4_20267.xsdst ! RUN = 20267 ! NEVT = 8200
FILE = /castor/cern.ch/delphi/MCprod/cern/wphact211/va0u/206.5/wphact211_ncgg_206.5_80.4_20268.xsdst ! RUN = 20268 ! NEVT = 8200
FILE = /castor/cern.ch/delphi/MCprod/cern/wphact211/va0u/206.5/wphact211_ncgg_206.5_80.4_20269.xsdst ! RUN = 20269 ! NEVT = 8200
FILE = /castor/cern.ch/delphi/MCprod/cern/wphact211/va0u/206.5/wphact211_ncgg_206.5_80.4_20270.xsdst ! RUN = 20270 ! NEVT = 8200
FILE = /castor/cern.ch/delphi/MCprod/cern/wphact211/va0u/206.5/wphact211_ncgg_206.5_80.4_20271.xsdst ! RUN = 20271 ! NEVT = 8186
FILE = /castor/cern.ch/delphi/MCprod/cern/wphact211/va0u/206.5/wphact211_ncgg_206.5_80.4_20272.xsdst ! RUN = 20272 ! NEVT = 8200
FILE = /castor/cern.ch/delphi/MCprod/cern/wphact211/va0u/206.5/wphact211_ncgg_206.5_80.4_20273.xsdst ! RUN = 20273 ! NEVT = 8200
FILE = /castor/cern.ch/delphi/MCprod/cern/wphact211/va0u/206.5/wphact211_ncgg_206.5_80.4_20274.xsdst ! RUN = 20274 ! NEVT = 8200
FILE = /castor/cern.ch/delphi/MCprod/cern/wphact211/va0u/206.5/wphact211_ncgg_206.5_80.4_20275.xsdst ! RUN = 20275 ! NEVT = 8200
FILE = /castor/cern.ch/delphi/MCprod/cern/wphact211/va0u/206.5/wphact211_ncgg_206.5_80.4_20276.xsdst ! RUN = 20276 ! NEVT = 8200
FILE = /castor/cern.ch/delphi/MCprod/cern/wphact211/va0u/206.5/wphact211_ncgg_206.5_80.4_20277.xsdst ! RUN = 20277 ! NEVT = 8199
FILE = /castor/cern.ch/delphi/MCprod/cern/wphact211/va0u/206.5/wphact211_ncgg_206.5_80.4_20278.xsdst ! RUN = 20278 ! NEVT = 8200
FILE = /castor/cern.ch/delphi/MCprod/cern/wphact211/va0u/206.5/wphact211_ncgg_206.5_80.4_20279.xsdst ! RUN = 20279 ! NEVT = 8200
FILE = /castor/cern.ch/delphi/MCprod/cern/wphact211/va0u/206.5/wphact211_ncgg_206.5_80.4_20280.xsdst ! RUN = 20280 ! NEVT = 8200
FILE = /castor/cern.ch/delphi/MCprod/cern/wphact211/va0u/206.5/wphact211_ncgg_206.5_80.4_20281.xsdst ! RUN = 20281 ! NEVT = 5238
FILE = /castor/cern.ch/delphi/MCprod/cern/wphact211/va0u/206.5/wphact211_ncgg_206.5_80.4_20282.xsdst ! RUN = 20282 ! NEVT = 8200
FILE = /castor/cern.ch/delphi/MCprod/cern/wphact211/va0u/206.5/wphact211_ncgg_206.5_80.4_20283.xsdst ! RUN = 20283 ! NEVT = 8200
FILE = /castor/cern.ch/delphi/MCprod/cern/wphact211/va0u/206.5/wphact211_ncgg_206.5_80.4_20284.xsdst ! RUN = 20284 ! NEVT = 8200
FILE = /castor/cern.ch/delphi/MCprod/cern/wphact211/va0u/206.5/wphact211_ncgg_206.5_80.4_20285.xsdst ! RUN = 20285 ! NEVT = 8200
FILE = /castor/cern.ch/delphi/MCprod/cern/wphact211/va0u/206.5/wphact211_ncgg_206.5_80.4_20286.xsdst ! RUN = 20286 ! NEVT = 8199
FILE = /castor/cern.ch/delphi/MCprod/cern/wphact211/va0u/206.5/wphact211_ncgg_206.5_80.4_20288.xsdst ! RUN = 20288 ! NEVT = 8200
FILE = /castor/cern.ch/delphi/MCprod/cern/wphact211/va0u/206.5/wphact211_ncgg_206.5_80.4_20289.xsdst ! RUN = 20289 ! NEVT = 8200
FILE = /castor/cern.ch/delphi/MCprod/cern/wphact211/va0u/206.5/wphact211_ncgg_206.5_80.4_20290.xsdst ! RUN = 20290 ! NEVT = 5938
FILE = /castor/cern.ch/delphi/MCprod/cern/wphact211/va0u/206.5/wphact211_ncgg_206.5_80.4_20291.xsdst ! RUN = 20291 ! NEVT = 8200
FILE = /castor/cern.ch/delphi/MCprod/cern/wphact211/va0u/206.5/wphact211_ncgg_206.5_80.4_20292.xsdst ! RUN = 20292 ! NEVT = 8200
FILE = /castor/cern.ch/delphi/MCprod/cern/wphact211/va0u/206.5/wphact211_ncgg_206.5_80.4_20293.xsdst ! RUN = 20293 ! NEVT = 8200
FILE = /castor/cern.ch/delphi/MCprod/cern/wphact211/va0u/206.5/wphact211_ncgg_206.5_80.4_20294.xsdst ! RUN = 20294 ! NEVT = 8200
FILE = /castor/cern.ch/delphi/MCprod/cern/wphact211/va0u/206.5/wphact211_ncgg_206.5_80.4_20295.xsdst ! RUN = 20295 ! NEVT = 8200
FILE = /castor/cern.ch/delphi/MCprod/cern/wphact211/va0u/206.5/wphact211_ncgg_206.5_80.4_20296.xsdst ! RUN = 20296 ! NEVT = 8200
FILE = /castor/cern.ch/delphi/MCprod/cern/wphact211/va0u/206.5/wphact211_ncgg_206.5_80.4_20297.xsdst ! RUN = 20297 ! NEVT = 8200
FILE = /castor/cern.ch/delphi/MCprod/cern/wphact211/va0u/206.5/wphact211_ncgg_206.5_80.4_20298.xsdst ! RUN = 20298 ! NEVT = 8200
FILE = /castor/cern.ch/delphi/MCprod/cern/wphact211/va0u/206.5/wphact211_ncgg_206.5_80.4_20299.xsdst ! RUN = 20299 ! NEVT = 8200
FILE = /castor/cern.ch/delphi/MCprod/cern/wphact211/va0u/206.5/wphact211_ncgg_206.5_80.4_20300.xsdst ! RUN = 20300 ! NEVT = 8200
FILE = /castor/cern.ch/delphi/MCprod/cern/wphact211/va0u/206.5/wphact211_ncgg_206.5_80.4_20301.xsdst ! RUN = 20301 ! NEVT = 3582
FILE = /castor/cern.ch/delphi/MCprod/cern/wphact211/va0u/206.5/wphact211_ncgg_206.5_80.4_20302.xsdst ! RUN = 20302 ! NEVT = 8200
FILE = /castor/cern.ch/delphi/MCprod/cern/wphact211/va0u/206.5/wphact211_ncgg_206.5_80.4_20304.xsdst ! RUN = 20304 ! NEVT = 8200
FILE = /castor/cern.ch/delphi/MCprod/cern/wphact211/va0u/206.5/wphact211_ncgg_206.5_80.4_20305.xsdst ! RUN = 20305 ! NEVT = 8200
FILE = /castor/cern.ch/delphi/MCprod/cern/wphact211/va0u/206.5/wphact211_ncgg_206.5_80.4_20306.xsdst ! RUN = 20306 ! NEVT = 8200
FILE = /castor/cern.ch/delphi/MCprod/cern/wphact211/va0u/206.5/wphact211_ncgg_206.5_80.4_20307.xsdst ! RUN = 20307 ! NEVT = 8196
FILE = /castor/cern.ch/delphi/MCprod/cern/wphact211/va0u/206.5/wphact211_ncgg_206.5_80.4_20308.xsdst ! RUN = 20308 ! NEVT = 8200
FILE = /castor/cern.ch/delphi/MCprod/cern/wphact211/va0u/206.5/wphact211_ncgg_206.5_80.4_20309.xsdst ! RUN = 20309 ! NEVT = 8200
FILE = /castor/cern.ch/delphi/MCprod/cern/wphact211/va0u/206.5/wphact211_ncgg_206.5_80.4_20310.xsdst ! RUN = 20310 ! NEVT = 8200
FILE = /castor/cern.ch/delphi/MCprod/cern/wphact211/va0u/206.5/wphact211_ncgg_206.5_80.4_20311.xsdst ! RUN = 20311 ! NEVT = 8199
FILE = /castor/cern.ch/delphi/MCprod/cern/wphact211/va0u/206.5/wphact211_ncgg_206.5_80.4_20312.xsdst ! RUN = 20312 ! NEVT = 8200
FILE = /castor/cern.ch/delphi/MCprod/cern/wphact211/va0u/206.5/wphact211_ncgg_206.5_80.4_20314.xsdst ! RUN = 20314 ! NEVT = 8199
FILE = /castor/cern.ch/delphi/MCprod/cern/wphact211/va0u/206.5/wphact211_ncgg_206.5_80.4_20315.xsdst ! RUN = 20315 ! NEVT = 8200
FILE = /castor/cern.ch/delphi/MCprod/cern/wphact211/va0u/206.5/wphact211_ncgg_206.5_80.4_20316.xsdst ! RUN = 20316 ! NEVT = 8200
FILE = /castor/cern.ch/delphi/MCprod/cern/wphact211/va0u/206.5/wphact211_ncgg_206.5_80.4_20317.xsdst ! RUN = 20317 ! NEVT = 8200
FILE = /castor/cern.ch/delphi/MCprod/cern/wphact211/va0u/206.5/wphact211_ncgg_206.5_80.4_20318.xsdst ! RUN = 20318 ! NEVT = 8200
FILE = /castor/cern.ch/delphi/MCprod/cern/wphact211/va0u/206.5/wphact211_ncgg_206.5_80.4_20319.xsdst ! RUN = 20319 ! NEVT = 8200
FILE = /castor/cern.ch/delphi/MCprod/cern/wphact211/va0u/206.5/wphact211_ncgg_206.5_80.4_20320.xsdst ! RUN = 20320 ! NEVT = 8200
FILE = /castor/cern.ch/delphi/MCprod/cern/wphact211/va0u/206.5/wphact211_ncgg_206.5_80.4_20321.xsdst ! RUN = 20321 ! NEVT = 8200
FILE = /castor/cern.ch/delphi/MCprod/cern/wphact211/va0u/206.5/wphact211_ncgg_206.5_80.4_20322.xsdst ! RUN = 20322 ! NEVT = 8200
FILE = /castor/cern.ch/delphi/MCprod/cern/wphact211/va0u/206.5/wphact211_ncgg_206.5_80.4_20323.xsdst ! RUN = 20323 ! NEVT = 8200
FILE = /castor/cern.ch/delphi/MCprod/cern/wphact211/va0u/206.5/wphact211_ncgg_206.5_80.4_20324.xsdst ! RUN = 20324 ! NEVT = 8200
FILE = /castor/cern.ch/delphi/MCprod/cern/wphact211/va0u/206.5/wphact211_ncgg_206.5_80.4_20325.xsdst ! RUN = 20325 ! NEVT = 3383
FILE = /castor/cern.ch/delphi/MCprod/cern/wphact211/va0u/206.5/wphact211_ncgg_206.5_80.4_20326.xsdst ! RUN = 20326 ! NEVT = 8200
FILE = /castor/cern.ch/delphi/MCprod/cern/wphact211/va0u/206.5/wphact211_ncgg_206.5_80.4_20327.xsdst ! RUN = 20327 ! NEVT = 8200
FILE = /castor/cern.ch/delphi/MCprod/cern/wphact211/va0u/206.5/wphact211_ncgg_206.5_80.4_20328.xsdst ! RUN = 20328 ! NEVT = 8200
FILE = /castor/cern.ch/delphi/MCprod/cern/wphact211/va0u/206.5/wphact211_ncgg_206.5_80.4_20329.xsdst ! RUN = 20329 ! NEVT = 8200
FILE = /castor/cern.ch/delphi/MCprod/cern/wphact211/va0u/206.5/wphact211_ncgg_206.5_80.4_20330.xsdst ! RUN = 20330 ! NEVT = 8200
FILE = /castor/cern.ch/delphi/MCprod/cern/wphact211/va0u/206.5/wphact211_ncgg_206.5_80.4_20331.xsdst ! RUN = 20331 ! NEVT = 8200
FILE = /castor/cern.ch/delphi/MCprod/cern/wphact211/va0u/206.5/wphact211_ncgg_206.5_80.4_20332.xsdst ! RUN = 20332 ! NEVT = 5667
FILE = /castor/cern.ch/delphi/MCprod/cern/wphact211/va0u/206.5/wphact211_ncgg_206.5_80.4_20333.xsdst ! RUN = 20333 ! NEVT = 8199
FILE = /castor/cern.ch/delphi/MCprod/cern/wphact211/va0u/206.5/wphact211_ncgg_206.5_80.4_20334.xsdst ! RUN = 20334 ! NEVT = 8200
FILE = /castor/cern.ch/delphi/MCprod/cern/wphact211/va0u/206.5/wphact211_ncgg_206.5_80.4_20335.xsdst ! RUN = 20335 ! NEVT = 8200
FILE = /castor/cern.ch/delphi/MCprod/cern/wphact211/va0u/206.5/wphact211_ncgg_206.5_80.4_20336.xsdst ! RUN = 20336 ! NEVT = 8200
FILE = /castor/cern.ch/delphi/MCprod/cern/wphact211/va0u/206.5/wphact211_ncgg_206.5_80.4_20337.xsdst ! RUN = 20337 ! NEVT = 8200
FILE = /castor/cern.ch/delphi/MCprod/cern/wphact211/va0u/206.5/wphact211_ncgg_206.5_80.4_20338.xsdst ! RUN = 20338 ! NEVT = 8200
FILE = /castor/cern.ch/delphi/MCprod/cern/wphact211/va0u/206.5/wphact211_ncgg_206.5_80.4_20339.xsdst ! RUN = 20339 ! NEVT = 8200
FILE = /castor/cern.ch/delphi/MCprod/cern/wphact211/va0u/206.5/wphact211_ncgg_206.5_80.4_20340.xsdst ! RUN = 20340 ! NEVT = 8200
FILE = /castor/cern.ch/delphi/MCprod/cern/wphact211/va0u/206.5/wphact211_ncgg_206.5_80.4_20341.xsdst ! RUN = 20341 ! NEVT = 8200
FILE = /castor/cern.ch/delphi/MCprod/cern/wphact211/va0u/206.5/wphact211_ncgg_206.5_80.4_20342.xsdst ! RUN = 20342 ! NEVT = 8200
FILE = /castor/cern.ch/delphi/MCprod/cern/wphact211/va0u/206.5/wphact211_ncgg_206.5_80.4_20343.xsdst ! RUN = 20343 ! NEVT = 8200
FILE = /castor/cern.ch/delphi/MCprod/cern/wphact211/va0u/206.5/wphact211_ncgg_206.5_80.4_20345.xsdst ! RUN = 20345 ! NEVT = 8200
FILE = /castor/cern.ch/delphi/MCprod/cern/wphact211/va0u/206.5/wphact211_ncgg_206.5_80.4_20346.xsdst ! RUN = 20346 ! NEVT = 8200
FILE = /castor/cern.ch/delphi/MCprod/cern/wphact211/va0u/206.5/wphact211_ncgg_206.5_80.4_20347.xsdst ! RUN = 20347 ! NEVT = 8200
FILE = /castor/cern.ch/delphi/MCprod/cern/wphact211/va0u/206.5/wphact211_ncgg_206.5_80.4_20348.xsdst ! RUN = 20348 ! NEVT = 8200
FILE = /castor/cern.ch/delphi/MCprod/cern/wphact211/va0u/206.5/wphact211_ncgg_206.5_80.4_20349.xsdst ! RUN = 20349 ! NEVT = 8200
FILE = /castor/cern.ch/delphi/MCprod/cern/wphact211/va0u/206.5/wphact211_ncgg_206.5_80.4_20350.xsdst ! RUN = 20350 ! NEVT = 585
FILE = /castor/cern.ch/delphi/MCprod/cern/wphact211/va0u/206.5/wphact211_ncgg_206.5_80.4_20351.xsdst ! RUN = 20351 ! NEVT = 8200
FILE = /castor/cern.ch/delphi/MCprod/cern/wphact211/va0u/206.5/wphact211_ncgg_206.5_80.4_20352.xsdst ! RUN = 20352 ! NEVT = 8200
FILE = /castor/cern.ch/delphi/MCprod/cern/wphact211/va0u/206.5/wphact211_ncgg_206.5_80.4_20353.xsdst ! RUN = 20353 ! NEVT = 8200
FILE = /castor/cern.ch/delphi/MCprod/cern/wphact211/va0u/206.5/wphact211_ncgg_206.5_80.4_20354.xsdst ! RUN = 20354 ! NEVT = 8200
FILE = /castor/cern.ch/delphi/MCprod/cern/wphact211/va0u/206.5/wphact211_ncgg_206.5_80.4_20355.xsdst ! RUN = 20355 ! NEVT = 8200
FILE = /castor/cern.ch/delphi/MCprod/cern/wphact211/va0u/206.5/wphact211_ncgg_206.5_80.4_20356.xsdst ! RUN = 20356 ! NEVT = 8200
FILE = /castor/cern.ch/delphi/MCprod/cern/wphact211/va0u/206.5/wphact211_ncgg_206.5_80.4_20357.xsdst ! RUN = 20357 ! NEVT = 8200
FILE = /castor/cern.ch/delphi/MCprod/cern/wphact211/va0u/206.5/wphact211_ncgg_206.5_80.4_20358.xsdst ! RUN = 20358 ! NEVT = 8200
FILE = /castor/cern.ch/delphi/MCprod/cern/wphact211/va0u/206.5/wphact211_ncgg_206.5_80.4_20359.xsdst ! RUN = 20359 ! NEVT = 8200
FILE = /castor/cern.ch/delphi/MCprod/cern/wphact211/va0u/206.5/wphact211_ncgg_206.5_80.4_20360.xsdst ! RUN = 20360 ! NEVT = 8200
FILE = /castor/cern.ch/delphi/MCprod/cern/wphact211/va0u/206.5/wphact211_ncgg_206.5_80.4_20361.xsdst ! RUN = 20361 ! NEVT = 8199
FILE = /castor/cern.ch/delphi/MCprod/cern/wphact211/va0u/206.5/wphact211_ncgg_206.5_80.4_20362.xsdst ! RUN = 20362 ! NEVT = 8200
FILE = /castor/cern.ch/delphi/MCprod/cern/wphact211/va0u/206.5/wphact211_ncgg_206.5_80.4_20363.xsdst ! RUN = 20363 ! NEVT = 8200
FILE = /castor/cern.ch/delphi/MCprod/cern/wphact211/va0u/206.5/wphact211_ncgg_206.5_80.4_20364.xsdst ! RUN = 20364 ! NEVT = 8200
FILE = /castor/cern.ch/delphi/MCprod/cern/wphact211/va0u/206.5/wphact211_ncgg_206.5_80.4_20365.xsdst ! RUN = 20365 ! NEVT = 8200
FILE = /castor/cern.ch/delphi/MCprod/cern/wphact211/va0u/206.5/wphact211_ncgg_206.5_80.4_20366.xsdst ! RUN = 20366 ! NEVT = 8200
FILE = /castor/cern.ch/delphi/MCprod/cern/wphact211/va0u/206.5/wphact211_ncgg_206.5_80.4_20367.xsdst ! RUN = 20367 ! NEVT = 8200
FILE = /castor/cern.ch/delphi/MCprod/cern/wphact211/va0u/206.5/wphact211_ncgg_206.5_80.4_20368.xsdst ! RUN = 20368 ! NEVT = 8200
FILE = /castor/cern.ch/delphi/MCprod/cern/wphact211/va0u/206.5/wphact211_ncgg_206.5_80.4_20370.xsdst ! RUN = 20370 ! NEVT = 8200
FILE = /castor/cern.ch/delphi/MCprod/cern/wphact211/va0u/206.5/wphact211_ncgg_206.5_80.4_20371.xsdst ! RUN = 20371 ! NEVT = 8200
FILE = /castor/cern.ch/delphi/MCprod/cern/wphact211/va0u/206.5/wphact211_ncgg_206.5_80.4_20372.xsdst ! RUN = 20372 ! NEVT = 8199
FILE = /castor/cern.ch/delphi/MCprod/cern/wphact211/va0u/206.5/wphact211_ncgg_206.5_80.4_20373.xsdst ! RUN = 20373 ! NEVT = 8200
FILE = /castor/cern.ch/delphi/MCprod/cern/wphact211/va0u/206.5/wphact211_ncgg_206.5_80.4_20374.xsdst ! RUN = 20374 ! NEVT = 8200
FILE = /castor/cern.ch/delphi/MCprod/cern/wphact211/va0u/206.5/wphact211_ncgg_206.5_80.4_20375.xsdst ! RUN = 20375 ! NEVT = 8199
FILE = /castor/cern.ch/delphi/MCprod/cern/wphact211/va0u/206.5/wphact211_ncgg_206.5_80.4_20376.xsdst ! RUN = 20376 ! NEVT = 8199
FILE = /castor/cern.ch/delphi/MCprod/cern/wphact211/va0u/206.5/wphact211_ncgg_206.5_80.4_20377.xsdst ! RUN = 20377 ! NEVT = 8200
FILE = /castor/cern.ch/delphi/MCprod/cern/wphact211/va0u/206.5/wphact211_ncgg_206.5_80.4_20378.xsdst ! RUN = 20378 ! NEVT = 8200
FILE = /castor/cern.ch/delphi/MCprod/cern/wphact211/va0u/206.5/wphact211_ncgg_206.5_80.4_20379.xsdst ! RUN = 20379 ! NEVT = 8200
FILE = /castor/cern.ch/delphi/MCprod/cern/wphact211/va0u/206.5/wphact211_ncgg_206.5_80.4_20380.xsdst ! RUN = 20380 ! NEVT = 8199
FILE = /castor/cern.ch/delphi/MCprod/cern/wphact211/va0u/206.5/wphact211_ncgg_206.5_80.4_20381.xsdst ! RUN = 20381 ! NEVT = 8200
FILE = /castor/cern.ch/delphi/MCprod/cern/wphact211/va0u/206.5/wphact211_ncgg_206.5_80.4_20382.xsdst ! RUN = 20382 ! NEVT = 8200
FILE = /castor/cern.ch/delphi/MCprod/cern/wphact211/va0u/206.5/wphact211_ncgg_206.5_80.4_20383.xsdst ! RUN = 20383 ! NEVT = 8200
FILE = /castor/cern.ch/delphi/MCprod/cern/wphact211/va0u/206.5/wphact211_ncgg_206.5_80.4_20384.xsdst ! RUN = 20384 ! NEVT = 8200
FILE = /castor/cern.ch/delphi/MCprod/cern/wphact211/va0u/206.5/wphact211_ncgg_206.5_80.4_20385.xsdst ! RUN = 20385 ! NEVT = 8198
FILE = /castor/cern.ch/delphi/MCprod/cern/wphact211/va0u/206.5/wphact211_ncgg_206.5_80.4_20386.xsdst ! RUN = 20386 ! NEVT = 8200
FILE = /castor/cern.ch/delphi/MCprod/cern/wphact211/va0u/206.5/wphact211_ncgg_206.5_80.4_20387.xsdst ! RUN = 20387 ! NEVT = 8200
FILE = /castor/cern.ch/delphi/MCprod/cern/wphact211/va0u/206.5/wphact211_ncgg_206.5_80.4_20388.xsdst ! RUN = 20388 ! NEVT = 8200
FILE = /castor/cern.ch/delphi/MCprod/cern/wphact211/va0u/206.5/wphact211_ncgg_206.5_80.4_20389.xsdst ! RUN = 20389 ! NEVT = 8200
FILE = /castor/cern.ch/delphi/MCprod/cern/wphact211/va0u/206.5/wphact211_ncgg_206.5_80.4_20390.xsdst ! RUN = 20390 ! NEVT = 8200
FILE = /castor/cern.ch/delphi/MCprod/cern/wphact211/va0u/206.5/wphact211_ncgg_206.5_80.4_20391.xsdst ! RUN = 20391 ! NEVT = 8200
FILE = /castor/cern.ch/delphi/MCprod/cern/wphact211/va0u/206.5/wphact211_ncgg_206.5_80.4_20392.xsdst ! RUN = 20392 ! NEVT = 8200
FILE = /castor/cern.ch/delphi/MCprod/cern/wphact211/va0u/206.5/wphact211_ncgg_206.5_80.4_20393.xsdst ! RUN = 20393 ! NEVT = 8200
FILE = /castor/cern.ch/delphi/MCprod/cern/wphact211/va0u/206.5/wphact211_ncgg_206.5_80.4_20395.xsdst ! RUN = 20395 ! NEVT = 8200
FILE = /castor/cern.ch/delphi/MCprod/cern/wphact211/va0u/206.5/wphact211_ncgg_206.5_80.4_20396.xsdst ! RUN = 20396 ! NEVT = 8198
FILE = /castor/cern.ch/delphi/MCprod/cern/wphact211/va0u/206.5/wphact211_ncgg_206.5_80.4_20397.xsdst ! RUN = 20397 ! NEVT = 8200
FILE = /castor/cern.ch/delphi/MCprod/cern/wphact211/va0u/206.5/wphact211_ncgg_206.5_80.4_20398.xsdst ! RUN = 20398 ! NEVT = 8200
FILE = /castor/cern.ch/delphi/MCprod/cern/wphact211/va0u/206.5/wphact211_ncgg_206.5_80.4_20399.xsdst ! RUN = 20399 ! NEVT = 8200
FILE = /castor/cern.ch/delphi/MCprod/cern/wphact211/va0u/206.5/wphact211_ncgg_206.5_80.4_20400.xsdst ! RUN = 20400 ! NEVT = 8172
