# index of html fragments. Provides additional information for sorting files. DO NOT REMOVE.
#File Name                                       year processing   category      files          events     energy       mass      mass2       labo
xs_hzee_e191.6_mxxx_c99_1l_a1                   1999      v99a1      HIGGS        150           29958      191.6          -          -       cern
xs_hzee_e196_mxxx_c99_1l_a1                     1999      v99a1      HIGGS        110           21973        196        115          -       cern
xs_hzee_e199.6_mxxx_c99_1l_a1                   1999      v99a1      HIGGS         90           17978      199.6          -          -       cern
xs_hzee_e201.8_mxxx_c99_1l_a1                   1999      v99a1      HIGGS         90           17972      201.8          -          -       cern
xs_hzha03p6156hznu_e206.70_mxxx_l99_1l_a1        2000      v99a1      HIGGS        100           19992     206.70        105          -       lyon
xs_hzha03p6156hznu_e206.70_mxxx_r99_1l_a1        2000      v99a1      HIGGS         25            5000     206.70        108          -       ruth
xs_hzha03p6156hzqq_e206.7_mxxx_l99_1l_a1        2000      v99a1      HIGGS        100           19992      206.7        114          -       lyon
xs_hzmu_e191.6_mxxx_c99_1l_a1                   1999      v99a1      HIGGS        150           29992      191.6          -          -       cern
xs_hzmu_e196_mxxx_c99_1l_a1                     1999      v99a1      HIGGS        110           21995        196          -          -       cern
xs_hzmu_e200_mxxx_c99_1l_a1                     1999      v99a1      HIGGS         90           17995        200          -          -       cern
xs_hzmu_e202_mxxx_c99_1l_a1                     1999      v99a1      HIGGS         90           17998        202          -          -       cern
xs_hznu_e191.6_mxxx_c99_1l_a1                   1999      v99a1      HIGGS        150           29980      191.6          -          -       cern
xs_hznu_e196_mxxx_c99_1l_a1                     1999      v99a1      HIGGS        110           22000        196          -          -       cern
xs_hznu_e200_mxxx_c99_1l_a1                     1999      v99a1      HIGGS         90           17999        200          -          -       cern
xs_hznu_e202_mxxx_c99_1l_a1                     1999      v99a1      HIGGS         90           18000        202          -          -       cern
xs_hzqq_e191.6_mxxx_c99_1l_a1                   1999      v99a1      HIGGS        150           29996      191.6          -          -       cern
xs_hzqq_e196_mxxx_c99_1l_a1                     1999      v99a1      HIGGS        110           21938        196          -          -       cern
xs_hzqq_e200_mxxx_c99_1l_a1                     1999      v99a1      HIGGS         89           17609        200          -          -       cern
xs_hzqq_e202_mxxx_c99_1l_a1                     1999      v99a1      HIGGS         89           17794        202          -          -       cern
xs_hztt_e191.6_mxxx_c99_1l_a1                   1999      v99a1      HIGGS        150           29986      191.6        105          -       cern
xs_hztt_e196_mxxx_c99_1l_a1                     1999      v99a1      HIGGS        110           21992        196          -          -       cern
xs_hztt_e200_mxxx_c99_1l_a1                     1999      v99a1      HIGGS         90           17879        200          -          -       cern
xs_hztt_e202_mxxx_c99_1l_a1                     1999      v99a1      HIGGS         90           17996        202          -          -       cern
xs_ttz_e191.6_mxxx_c99_1l_a1                    1999      v99a1      HIGGS        150           29986      191.6          -          -       cern
xs_ttz_e196_mxxx_c99_1l_a1                      1999      v99a1      HIGGS        110           21993        196          -          -       cern
xs_ttz_e200_mxxx_c99_1l_a1                      1999      v99a1      HIGGS         90           17991        200          -          -       cern
xs_ttz_e202_mxxx_c99_1l_a1                      1999      v99a1      HIGGS         90           17996        202          -          -       cern
