*
*   Nickname     : xs_hzha03p6156hznu_e206.70_m114_l99_1l_a1
*   Generic Name : //CERN/DELPHI/P02_SIMD/XSDST/HZHA03P6156HZNU/E206.70/LYON/SUMT
*   Description  :  Extended Short DST simulation 99_a1 done at ecms=206.70 , Lyon
*---
*   Comments     :  time stamp: Mon Apr 23 14:06:25 2001
*---
*
*   Comments     : only short dst has been kept           
*
*
*
*
FILE = /castor/cern.ch/delphi/MCprod/lyon/hzha03pyth6156/v99_4/206.7/hznu114_206.7_21425.xsdst ! RUN = 21425 ! NEVT = 200
FILE = /castor/cern.ch/delphi/MCprod/lyon/hzha03pyth6156/v99_4/206.7/hznu114_206.7_21426.xsdst ! RUN = 21426 ! NEVT = 200
FILE = /castor/cern.ch/delphi/MCprod/lyon/hzha03pyth6156/v99_4/206.7/hznu114_206.7_21427.xsdst ! RUN = 21427 ! NEVT = 200
FILE = /castor/cern.ch/delphi/MCprod/lyon/hzha03pyth6156/v99_4/206.7/hznu114_206.7_21428.xsdst ! RUN = 21428 ! NEVT = 200
FILE = /castor/cern.ch/delphi/MCprod/lyon/hzha03pyth6156/v99_4/206.7/hznu114_206.7_21429.xsdst ! RUN = 21429 ! NEVT = 200
FILE = /castor/cern.ch/delphi/MCprod/lyon/hzha03pyth6156/v99_4/206.7/hznu114_206.7_21430.xsdst ! RUN = 21430 ! NEVT = 199
FILE = /castor/cern.ch/delphi/MCprod/lyon/hzha03pyth6156/v99_4/206.7/hznu114_206.7_21431.xsdst ! RUN = 21431 ! NEVT = 200
FILE = /castor/cern.ch/delphi/MCprod/lyon/hzha03pyth6156/v99_4/206.7/hznu114_206.7_21432.xsdst ! RUN = 21432 ! NEVT = 200
FILE = /castor/cern.ch/delphi/MCprod/lyon/hzha03pyth6156/v99_4/206.7/hznu114_206.7_21433.xsdst ! RUN = 21433 ! NEVT = 199
FILE = /castor/cern.ch/delphi/MCprod/lyon/hzha03pyth6156/v99_4/206.7/hznu114_206.7_21434.xsdst ! RUN = 21434 ! NEVT = 200
FILE = /castor/cern.ch/delphi/MCprod/lyon/hzha03pyth6156/v99_4/206.7/hznu114_206.7_21435.xsdst ! RUN = 21435 ! NEVT = 200
FILE = /castor/cern.ch/delphi/MCprod/lyon/hzha03pyth6156/v99_4/206.7/hznu114_206.7_21436.xsdst ! RUN = 21436 ! NEVT = 200
FILE = /castor/cern.ch/delphi/MCprod/lyon/hzha03pyth6156/v99_4/206.7/hznu114_206.7_21437.xsdst ! RUN = 21437 ! NEVT = 200
FILE = /castor/cern.ch/delphi/MCprod/lyon/hzha03pyth6156/v99_4/206.7/hznu114_206.7_21438.xsdst ! RUN = 21438 ! NEVT = 200
FILE = /castor/cern.ch/delphi/MCprod/lyon/hzha03pyth6156/v99_4/206.7/hznu114_206.7_21439.xsdst ! RUN = 21439 ! NEVT = 200
FILE = /castor/cern.ch/delphi/MCprod/lyon/hzha03pyth6156/v99_4/206.7/hznu114_206.7_21440.xsdst ! RUN = 21440 ! NEVT = 200
FILE = /castor/cern.ch/delphi/MCprod/lyon/hzha03pyth6156/v99_4/206.7/hznu114_206.7_21441.xsdst ! RUN = 21441 ! NEVT = 200
FILE = /castor/cern.ch/delphi/MCprod/lyon/hzha03pyth6156/v99_4/206.7/hznu114_206.7_21442.xsdst ! RUN = 21442 ! NEVT = 200
FILE = /castor/cern.ch/delphi/MCprod/lyon/hzha03pyth6156/v99_4/206.7/hznu114_206.7_21443.xsdst ! RUN = 21443 ! NEVT = 200
FILE = /castor/cern.ch/delphi/MCprod/lyon/hzha03pyth6156/v99_4/206.7/hznu114_206.7_21444.xsdst ! RUN = 21444 ! NEVT = 200
FILE = /castor/cern.ch/delphi/MCprod/lyon/hzha03pyth6156/v99_4/206.7/hznu114_206.7_21445.xsdst ! RUN = 21445 ! NEVT = 200
FILE = /castor/cern.ch/delphi/MCprod/lyon/hzha03pyth6156/v99_4/206.7/hznu114_206.7_21446.xsdst ! RUN = 21446 ! NEVT = 200
FILE = /castor/cern.ch/delphi/MCprod/lyon/hzha03pyth6156/v99_4/206.7/hznu114_206.7_21447.xsdst ! RUN = 21447 ! NEVT = 200
FILE = /castor/cern.ch/delphi/MCprod/lyon/hzha03pyth6156/v99_4/206.7/hznu114_206.7_21448.xsdst ! RUN = 21448 ! NEVT = 200
FILE = /castor/cern.ch/delphi/MCprod/lyon/hzha03pyth6156/v99_4/206.7/hznu114_206.7_21449.xsdst ! RUN = 21449 ! NEVT = 200
