*
*   Nickname     : xs_hzha03p6156hznu_e206.70_m108_r99_1l_a1
*   Generic Name : //CERN/DELPHI/P02_SIMD/XSDST/HZHA03P6156HZNU/E206.7/RAL/SUMT
*   Description  : ShortDST HZHA03  e+e- --> HZ (H ->  any Z -> nu nubar) Extended Short DST simulation 99_a1 done at ecms=206.7 , RAL
*---
*   Comments     :  time stamp: Tue May  8 10:07:28 2001
*---
*
*   Comments     : only short dst has been kept           
*
*
*
*
FILE = /castor/cern.ch/delphi/MCprod/ral/hzha03pyth6156/v99_4/206.7/hznu108_206.7_20825.xsdst ! RUN = 20825 ! NEVT = 200
FILE = /castor/cern.ch/delphi/MCprod/ral/hzha03pyth6156/v99_4/206.7/hznu108_206.7_20826.xsdst ! RUN = 20826 ! NEVT = 200
FILE = /castor/cern.ch/delphi/MCprod/ral/hzha03pyth6156/v99_4/206.7/hznu108_206.7_20827.xsdst ! RUN = 20827 ! NEVT = 200
FILE = /castor/cern.ch/delphi/MCprod/ral/hzha03pyth6156/v99_4/206.7/hznu108_206.7_20828.xsdst ! RUN = 20828 ! NEVT = 200
FILE = /castor/cern.ch/delphi/MCprod/ral/hzha03pyth6156/v99_4/206.7/hznu108_206.7_20829.xsdst ! RUN = 20829 ! NEVT = 200
FILE = /castor/cern.ch/delphi/MCprod/ral/hzha03pyth6156/v99_4/206.7/hznu108_206.7_20830.xsdst ! RUN = 20830 ! NEVT = 200
FILE = /castor/cern.ch/delphi/MCprod/ral/hzha03pyth6156/v99_4/206.7/hznu108_206.7_20831.xsdst ! RUN = 20831 ! NEVT = 200
FILE = /castor/cern.ch/delphi/MCprod/ral/hzha03pyth6156/v99_4/206.7/hznu108_206.7_20832.xsdst ! RUN = 20832 ! NEVT = 200
FILE = /castor/cern.ch/delphi/MCprod/ral/hzha03pyth6156/v99_4/206.7/hznu108_206.7_20833.xsdst ! RUN = 20833 ! NEVT = 200
FILE = /castor/cern.ch/delphi/MCprod/ral/hzha03pyth6156/v99_4/206.7/hznu108_206.7_20834.xsdst ! RUN = 20834 ! NEVT = 200
FILE = /castor/cern.ch/delphi/MCprod/ral/hzha03pyth6156/v99_4/206.7/hznu108_206.7_20835.xsdst ! RUN = 20835 ! NEVT = 200
FILE = /castor/cern.ch/delphi/MCprod/ral/hzha03pyth6156/v99_4/206.7/hznu108_206.7_20836.xsdst ! RUN = 20836 ! NEVT = 200
FILE = /castor/cern.ch/delphi/MCprod/ral/hzha03pyth6156/v99_4/206.7/hznu108_206.7_20837.xsdst ! RUN = 20837 ! NEVT = 200
FILE = /castor/cern.ch/delphi/MCprod/ral/hzha03pyth6156/v99_4/206.7/hznu108_206.7_20838.xsdst ! RUN = 20838 ! NEVT = 200
FILE = /castor/cern.ch/delphi/MCprod/ral/hzha03pyth6156/v99_4/206.7/hznu108_206.7_20839.xsdst ! RUN = 20839 ! NEVT = 200
FILE = /castor/cern.ch/delphi/MCprod/ral/hzha03pyth6156/v99_4/206.7/hznu108_206.7_20840.xsdst ! RUN = 20840 ! NEVT = 200
FILE = /castor/cern.ch/delphi/MCprod/ral/hzha03pyth6156/v99_4/206.7/hznu108_206.7_20841.xsdst ! RUN = 20841 ! NEVT = 200
FILE = /castor/cern.ch/delphi/MCprod/ral/hzha03pyth6156/v99_4/206.7/hznu108_206.7_20842.xsdst ! RUN = 20842 ! NEVT = 200
FILE = /castor/cern.ch/delphi/MCprod/ral/hzha03pyth6156/v99_4/206.7/hznu108_206.7_20843.xsdst ! RUN = 20843 ! NEVT = 200
FILE = /castor/cern.ch/delphi/MCprod/ral/hzha03pyth6156/v99_4/206.7/hznu108_206.7_20844.xsdst ! RUN = 20844 ! NEVT = 200
FILE = /castor/cern.ch/delphi/MCprod/ral/hzha03pyth6156/v99_4/206.7/hznu108_206.7_20845.xsdst ! RUN = 20845 ! NEVT = 200
FILE = /castor/cern.ch/delphi/MCprod/ral/hzha03pyth6156/v99_4/206.7/hznu108_206.7_20846.xsdst ! RUN = 20846 ! NEVT = 200
FILE = /castor/cern.ch/delphi/MCprod/ral/hzha03pyth6156/v99_4/206.7/hznu108_206.7_20847.xsdst ! RUN = 20847 ! NEVT = 200
FILE = /castor/cern.ch/delphi/MCprod/ral/hzha03pyth6156/v99_4/206.7/hznu108_206.7_20848.xsdst ! RUN = 20848 ! NEVT = 200
FILE = /castor/cern.ch/delphi/MCprod/ral/hzha03pyth6156/v99_4/206.7/hznu108_206.7_20849.xsdst ! RUN = 20849 ! NEVT = 200
