*
*   Nickname     : xs_hzha03pyth6156hcqq_e206.5_m80.0_ra0_1l_e1
*   Generic Name : //CERN/DELPHI/P02_SIMD/XSDST/HZHA03PYTH6156HCQQ/E206.5/RAL/SUMT/C001-4
*   Description  :  Extended Short DST simulation a0_e1 done at ecms=206.5 , RAL
*---
*   Comments     : in total 2000 events in 4 files time stamp: Wed Nov 21 06:42:24 2001
*---
*
*
*
*
*
FILE = /castor/cern.ch/delphi/MCprod/ral/hzha03pyth6156/va0e/206.5/hzha03pyth6156_hcqq_206.5_80.0_68005.xsdst ! RUN = 68005 ! NEVT = 500
FILE = /castor/cern.ch/delphi/MCprod/ral/hzha03pyth6156/va0e/206.5/hzha03pyth6156_hcqq_206.5_80.0_68006.xsdst ! RUN = 68006 ! NEVT = 500
FILE = /castor/cern.ch/delphi/MCprod/ral/hzha03pyth6156/va0e/206.5/hzha03pyth6156_hcqq_206.5_80.0_68007.xsdst ! RUN = 68007 ! NEVT = 500
FILE = /castor/cern.ch/delphi/MCprod/ral/hzha03pyth6156/va0e/206.5/hzha03pyth6156_hcqq_206.5_80.0_68008.xsdst ! RUN = 68008 ! NEVT = 500
