*
*   Nickname     : xs_hzha03pyth6156hgmm_e205_m97.5_ka0_1l_e1
*   Generic Name : //CERN/DELPHI/P02_SIMD/XSDST/HZHA03PYTH6156HGMM/KARLSRUHE/SUMT/C001-5
*   Description  : XShortDst HZHA03 H->gluglu, Z->mu+mu-  Extended Short DST simulation a0_e1 205 , Karlsruhe
*---
*   Comments     : in total 2000 events in 5 files time stamp: Mon Nov 26 10:40:10 2001
*---
*
*
*
*
*
FILE = /castor/cern.ch/delphi/MCprod/karlsruhe/hzha03pyth6156/va0e/205/hzha03pyth6156_hgmm_205_97.5_2126.xsdst ! RUN = 2126 ! NEVT = 400
FILE = /castor/cern.ch/delphi/MCprod/karlsruhe/hzha03pyth6156/va0e/205/hzha03pyth6156_hgmm_205_97.5_2127.xsdst ! RUN = 2127 ! NEVT = 400
FILE = /castor/cern.ch/delphi/MCprod/karlsruhe/hzha03pyth6156/va0e/205/hzha03pyth6156_hgmm_205_97.5_2128.xsdst ! RUN = 2128 ! NEVT = 400
FILE = /castor/cern.ch/delphi/MCprod/karlsruhe/hzha03pyth6156/va0e/205/hzha03pyth6156_hgmm_205_97.5_2129.xsdst ! RUN = 2129 ! NEVT = 400
FILE = /castor/cern.ch/delphi/MCprod/karlsruhe/hzha03pyth6156/va0e/205/hzha03pyth6156_hgmm_205_97.5_2130.xsdst ! RUN = 2130 ! NEVT = 400
