*
*   Nickname     : xs_hzha03pyth6156hcmm_e206.5_m65.0_ka0_1l_e1
*   Generic Name : //CERN/DELPHI/P02_SIMD/XSDST/HZHA03PYTH6156HCMM/E206.5/KARLSRUHE/SUMT/C001-5
*   Description  :  Extended Short DST simulation a0_e1 done at ecms=206.5 , Karlsruhe
*---
*   Comments     : in total 1999 events in 5 files time stamp: Mon Dec  3 22:18:57 2001
*---
*
*
*
*
*
FILE = /castor/cern.ch/delphi/MCprod/karlsruhe/hzha03pyth6156/va0e/206.5/hzha03pyth6156_hcmm_206.5_65.0_2836.xsdst ! RUN = 2836 ! NEVT = 400
FILE = /castor/cern.ch/delphi/MCprod/karlsruhe/hzha03pyth6156/va0e/206.5/hzha03pyth6156_hcmm_206.5_65.0_2837.xsdst ! RUN = 2837 ! NEVT = 400
FILE = /castor/cern.ch/delphi/MCprod/karlsruhe/hzha03pyth6156/va0e/206.5/hzha03pyth6156_hcmm_206.5_65.0_2838.xsdst ! RUN = 2838 ! NEVT = 400
FILE = /castor/cern.ch/delphi/MCprod/karlsruhe/hzha03pyth6156/va0e/206.5/hzha03pyth6156_hcmm_206.5_65.0_2839.xsdst ! RUN = 2839 ! NEVT = 399
FILE = /castor/cern.ch/delphi/MCprod/karlsruhe/hzha03pyth6156/va0e/206.5/hzha03pyth6156_hcmm_206.5_65.0_2840.xsdst ! RUN = 2840 ! NEVT = 400
