*
*   Nickname     : xs_hzha03pyth6156hgee_e206.5_m90.0_ka0_1l_e1
*   Generic Name : //CERN/DELPHI/P02_SIMD/XSDST/HZHA03PYTH6156HGEE/E206.5/KARLSRUHE/SUMT/C001-5
*   Description  : XShortDst HZHA03 H->gluglu, Z->e+e-  Extended Short DST simulation a0_e1 done at ecms=206.5 , Karlsruhe
*---
*   Comments     : in total 1997 events in 5 files time stamp: Mon Jan  7 16:47:21 2002
*---
*
*
*
*
*
FILE = /castor/cern.ch/delphi/MCprod/karlsruhe/hzha03pyth6156/va0e/206.5/hzha03pyth6156_hgee_206.5_90.0_1276.xsdst ! RUN = 1276 ! NEVT = 400
FILE = /castor/cern.ch/delphi/MCprod/karlsruhe/hzha03pyth6156/va0e/206.5/hzha03pyth6156_hgee_206.5_90.0_1277.xsdst ! RUN = 1277 ! NEVT = 398
FILE = /castor/cern.ch/delphi/MCprod/karlsruhe/hzha03pyth6156/va0e/206.5/hzha03pyth6156_hgee_206.5_90.0_1278.xsdst ! RUN = 1278 ! NEVT = 399
FILE = /castor/cern.ch/delphi/MCprod/karlsruhe/hzha03pyth6156/va0e/206.5/hzha03pyth6156_hgee_206.5_90.0_1279.xsdst ! RUN = 1279 ! NEVT = 400
FILE = /castor/cern.ch/delphi/MCprod/karlsruhe/hzha03pyth6156/va0e/206.5/hzha03pyth6156_hgee_206.5_90.0_1280.xsdst ! RUN = 1280 ! NEVT = 400
