*
*   Nickname     : xs_hzha03pyth6156hsee_e205_m77.5_ka0_1l_e1
*   Generic Name : //CERN/DELPHI/P02_SIMD/XSDST/HZHA03PYTH6156HSEE/KARLSRUHE/SUMT/C001-5
*   Description  : XShortDst HZHA03 H->ssbar, Z->e+e-  Extended Short DST simulation a0_e1 205 , Karlsruhe
*---
*   Comments     : in total 1997 events in 5 files time stamp: Thu Nov 15 10:18:41 2001
*---
*
*
*
*
*
FILE = /castor/cern.ch/delphi/MCprod/karlsruhe/hzha03pyth6156/va0e/205/hzha03pyth6156_hsee_205_77.5_1426.xsdst ! RUN = 1426 ! NEVT = 399
FILE = /castor/cern.ch/delphi/MCprod/karlsruhe/hzha03pyth6156/va0e/205/hzha03pyth6156_hsee_205_77.5_1427.xsdst ! RUN = 1427 ! NEVT = 400
FILE = /castor/cern.ch/delphi/MCprod/karlsruhe/hzha03pyth6156/va0e/205/hzha03pyth6156_hsee_205_77.5_1428.xsdst ! RUN = 1428 ! NEVT = 399
FILE = /castor/cern.ch/delphi/MCprod/karlsruhe/hzha03pyth6156/va0e/205/hzha03pyth6156_hsee_205_77.5_1429.xsdst ! RUN = 1429 ! NEVT = 399
FILE = /castor/cern.ch/delphi/MCprod/karlsruhe/hzha03pyth6156/va0e/205/hzha03pyth6156_hsee_205_77.5_1430.xsdst ! RUN = 1430 ! NEVT = 400
