*
*   Nickname     : xs_hzha03pyth6156hsqq_e206.5_m70.0_ra0_1l_e1
*   Generic Name : //CERN/DELPHI/P02_SIMD/XSDST/HZHA03PYTH6156HSQQ/E206.5/RAL/SUMT/C001-4
*   Description  : XShortDst HZHA03 H->ssbar, Z->qqbar  Extended Short DST simulation a0_e1 done at ecms=206.5 , RAL
*---
*   Comments     : in total 2000 events in 4 files time stamp: Tue Nov 20 06:33:52 2001
*---
*
*
*
*
*
FILE = /castor/cern.ch/delphi/MCprod/ral/hzha03pyth6156/va0e/206.5/hzha03pyth6156_hsqq_206.5_70.0_67001.xsdst ! RUN = 67001 ! NEVT = 500
FILE = /castor/cern.ch/delphi/MCprod/ral/hzha03pyth6156/va0e/206.5/hzha03pyth6156_hsqq_206.5_70.0_67002.xsdst ! RUN = 67002 ! NEVT = 500
FILE = /castor/cern.ch/delphi/MCprod/ral/hzha03pyth6156/va0e/206.5/hzha03pyth6156_hsqq_206.5_70.0_67003.xsdst ! RUN = 67003 ! NEVT = 500
FILE = /castor/cern.ch/delphi/MCprod/ral/hzha03pyth6156/va0e/206.5/hzha03pyth6156_hsqq_206.5_70.0_67004.xsdst ! RUN = 67004 ! NEVT = 500
