*
*   Nickname     : xs_hzha03pyth6156hsnn_e205_m107.5_ka0_1l_e1
*   Generic Name : //CERN/DELPHI/P02_SIMD/XSDST/HZHA03PYTH6156HSNN/KARLSRUHE/SUMT/C001-5
*   Description  : XShortDst HZHA03 H->ssbar, Z->nunubar  Extended Short DST simulation a0_e1 205 , Karlsruhe
*---
*   Comments     : in total 2000 events in 5 files time stamp: Thu Jan  3 07:45:37 2002
*---
*
*
*
*
*
FILE = /castor/cern.ch/delphi/MCprod/karlsruhe/hzha03pyth6156/va0e/205/hzha03pyth6156_hsnn_205_107.5_5866.xsdst ! RUN = 5866 ! NEVT = 400
FILE = /castor/cern.ch/delphi/MCprod/karlsruhe/hzha03pyth6156/va0e/205/hzha03pyth6156_hsnn_205_107.5_5867.xsdst ! RUN = 5867 ! NEVT = 400
FILE = /castor/cern.ch/delphi/MCprod/karlsruhe/hzha03pyth6156/va0e/205/hzha03pyth6156_hsnn_205_107.5_5868.xsdst ! RUN = 5868 ! NEVT = 400
FILE = /castor/cern.ch/delphi/MCprod/karlsruhe/hzha03pyth6156/va0e/205/hzha03pyth6156_hsnn_205_107.5_5869.xsdst ! RUN = 5869 ! NEVT = 400
FILE = /castor/cern.ch/delphi/MCprod/karlsruhe/hzha03pyth6156/va0e/205/hzha03pyth6156_hsnn_205_107.5_5870.xsdst ! RUN = 5870 ! NEVT = 400
