*
*   Nickname     : xs_hzha03pyth6156hcmm_e206.5_m82.5_ka0_1l_e1
*   Generic Name : //CERN/DELPHI/P02_SIMD/XSDST/HZHA03PYTH6156HCMM/E206.5/KARLSRUHE/SUMT/C001-5
*   Description  :  Extended Short DST simulation a0_e1 done at ecms=206.5 , Karlsruhe
*---
*   Comments     : in total 2000 events in 5 files time stamp: Mon Dec  3 22:21:48 2001
*---
*
*
*
*
*
FILE = /castor/cern.ch/delphi/MCprod/karlsruhe/hzha03pyth6156/va0e/206.5/hzha03pyth6156_hcmm_206.5_82.5_2871.xsdst ! RUN = 2871 ! NEVT = 400
FILE = /castor/cern.ch/delphi/MCprod/karlsruhe/hzha03pyth6156/va0e/206.5/hzha03pyth6156_hcmm_206.5_82.5_2872.xsdst ! RUN = 2872 ! NEVT = 400
FILE = /castor/cern.ch/delphi/MCprod/karlsruhe/hzha03pyth6156/va0e/206.5/hzha03pyth6156_hcmm_206.5_82.5_2873.xsdst ! RUN = 2873 ! NEVT = 400
FILE = /castor/cern.ch/delphi/MCprod/karlsruhe/hzha03pyth6156/va0e/206.5/hzha03pyth6156_hcmm_206.5_82.5_2874.xsdst ! RUN = 2874 ! NEVT = 400
FILE = /castor/cern.ch/delphi/MCprod/karlsruhe/hzha03pyth6156/va0e/206.5/hzha03pyth6156_hcmm_206.5_82.5_2875.xsdst ! RUN = 2875 ! NEVT = 400
