*
*   Nickname     : xs_hzha03pyth6156hsqq_e206.5_m65.0_ra0_1l_e1
*   Generic Name : //CERN/DELPHI/P02_SIMD/XSDST/HZHA03PYTH6156HSQQ/E206.5/RAL/SUMT/C001-3
*   Description  : XShortDst HZHA03 H->ssbar, Z->qqbar  Extended Short DST simulation a0_e1 done at ecms=206.5 , RAL
*---
*   Comments     : in total 1500 events in 3 files time stamp: Tue Nov 20 04:40:00 2001
*---
*
*
*
*
*
FILE = /castor/cern.ch/delphi/MCprod/ral/hzha03pyth6156/va0e/206.5/hzha03pyth6156_hsqq_206.5_65.0_66501.xsdst ! RUN = 66501 ! NEVT = 500
FILE = /castor/cern.ch/delphi/MCprod/ral/hzha03pyth6156/va0e/206.5/hzha03pyth6156_hsqq_206.5_65.0_66502.xsdst ! RUN = 66502 ! NEVT = 500
FILE = /castor/cern.ch/delphi/MCprod/ral/hzha03pyth6156/va0e/206.5/hzha03pyth6156_hsqq_206.5_65.0_66504.xsdst ! RUN = 66504 ! NEVT = 500
