*
*   Nickname     : xs_hzha03pyth6156hsqq_e206.5_m60.0_ra0_1l_e1
*   Generic Name : //CERN/DELPHI/P02_SIMD/XSDST/HZHA03PYTH6156HSQQ/E206.5/RAL/SUMT/C001-4
*   Description  : XShortDst HZHA03 H->ssbar, Z->qqbar  Extended Short DST simulation a0_e1 done at ecms=206.5 , RAL
*---
*   Comments     : in total 1996 events in 4 files time stamp: Tue Nov 20 00:23:56 2001
*---
*
*
*
*
*
FILE = /castor/cern.ch/delphi/MCprod/ral/hzha03pyth6156/va0e/206.5/hzha03pyth6156_hsqq_206.5_60.0_66001.xsdst ! RUN = 66001 ! NEVT = 499
FILE = /castor/cern.ch/delphi/MCprod/ral/hzha03pyth6156/va0e/206.5/hzha03pyth6156_hsqq_206.5_60.0_66002.xsdst ! RUN = 66002 ! NEVT = 500
FILE = /castor/cern.ch/delphi/MCprod/ral/hzha03pyth6156/va0e/206.5/hzha03pyth6156_hsqq_206.5_60.0_66003.xsdst ! RUN = 66003 ! NEVT = 500
FILE = /castor/cern.ch/delphi/MCprod/ral/hzha03pyth6156/va0e/206.5/hzha03pyth6156_hsqq_206.5_60.0_66004.xsdst ! RUN = 66004 ! NEVT = 497
