*
*   Nickname     : xs_hzha03pyth6156hsnn_e206.5_m72.5_ka0_1l_e1
*   Generic Name : //CERN/DELPHI/P02_SIMD/XSDST/HZHA03PYTH6156HSNN/E206.5/KARLSRUHE/SUMT/C001-5
*   Description  : XShortDst HZHA03 H->ssbar, Z->nunubar  Extended Short DST simulation a0_e1 done at ecms=206.5 , Karlsruhe
*---
*   Comments     : in total 1999 events in 5 files time stamp: Thu Jan  3 16:52:45 2002
*---
*
*
*
*
*
FILE = /castor/cern.ch/delphi/MCprod/karlsruhe/hzha03pyth6156/va0e/206.5/hzha03pyth6156_hsnn_206.5_72.5_5951.xsdst ! RUN = 5951 ! NEVT = 400
FILE = /castor/cern.ch/delphi/MCprod/karlsruhe/hzha03pyth6156/va0e/206.5/hzha03pyth6156_hsnn_206.5_72.5_5952.xsdst ! RUN = 5952 ! NEVT = 399
FILE = /castor/cern.ch/delphi/MCprod/karlsruhe/hzha03pyth6156/va0e/206.5/hzha03pyth6156_hsnn_206.5_72.5_5953.xsdst ! RUN = 5953 ! NEVT = 400
FILE = /castor/cern.ch/delphi/MCprod/karlsruhe/hzha03pyth6156/va0e/206.5/hzha03pyth6156_hsnn_206.5_72.5_5954.xsdst ! RUN = 5954 ! NEVT = 400
FILE = /castor/cern.ch/delphi/MCprod/karlsruhe/hzha03pyth6156/va0e/206.5/hzha03pyth6156_hsnn_206.5_72.5_5955.xsdst ! RUN = 5955 ! NEVT = 400
