*
*   Nickname     : xs_hzha03pyth6156hcee_e206.5_m60.0_ka0_1l_e1
*   Generic Name : //CERN/DELPHI/P02_SIMD/XSDST/HZHA03PYTH6156HCEE/E206.5/KARLSRUHE/SUMT/C001-5
*   Description  :  Extended Short DST simulation a0_e1 done at ecms=206.5 , Karlsruhe
*---
*   Comments     : in total 1996 events in 5 files time stamp: Wed Nov 21 12:26:49 2001
*---
*
*
*
*
*
FILE = /castor/cern.ch/delphi/MCprod/karlsruhe/hzha03pyth6156/va0e/206.5/hzha03pyth6156_hcee_206.5_60.0_1876.xsdst ! RUN = 1876 ! NEVT = 400
FILE = /castor/cern.ch/delphi/MCprod/karlsruhe/hzha03pyth6156/va0e/206.5/hzha03pyth6156_hcee_206.5_60.0_1877.xsdst ! RUN = 1877 ! NEVT = 399
FILE = /castor/cern.ch/delphi/MCprod/karlsruhe/hzha03pyth6156/va0e/206.5/hzha03pyth6156_hcee_206.5_60.0_1878.xsdst ! RUN = 1878 ! NEVT = 398
FILE = /castor/cern.ch/delphi/MCprod/karlsruhe/hzha03pyth6156/va0e/206.5/hzha03pyth6156_hcee_206.5_60.0_1879.xsdst ! RUN = 1879 ! NEVT = 400
FILE = /castor/cern.ch/delphi/MCprod/karlsruhe/hzha03pyth6156/va0e/206.5/hzha03pyth6156_hcee_206.5_60.0_1880.xsdst ! RUN = 1880 ! NEVT = 399
