*
*   Nickname     : xs_bhwide101_e188.6_c98_1l_e1
*   Generic Name : //CERN/DELPHI/P02_SIMD/XSDST/BHWIDE101/E188.6/CERN/SUMT/C001-335
*   Description  :  Extended Short DST simulation 98_e1 done at ecms=188.6 , CERN
*---
*   Comments     : in total 1004986 events in 335 files time stamp: Thu Sep 27 17:11:31 2001
*---
*
*
*
*
*
FILE = /castor/cern.ch/delphi/MCprod/cern/bhwide101/v98e/188.6/bhwide101_188.6_11545.xsdst ! RUN = 11545 ! NEVT = 3000
FILE = /castor/cern.ch/delphi/MCprod/cern/bhwide101/v98e/188.6/bhwide101_188.6_11546.xsdst ! RUN = 11546 ! NEVT = 3000
FILE = /castor/cern.ch/delphi/MCprod/cern/bhwide101/v98e/188.6/bhwide101_188.6_11547.xsdst ! RUN = 11547 ! NEVT = 3000
FILE = /castor/cern.ch/delphi/MCprod/cern/bhwide101/v98e/188.6/bhwide101_188.6_11548.xsdst ! RUN = 11548 ! NEVT = 3000
FILE = /castor/cern.ch/delphi/MCprod/cern/bhwide101/v98e/188.6/bhwide101_188.6_11549.xsdst ! RUN = 11549 ! NEVT = 3000
FILE = /castor/cern.ch/delphi/MCprod/cern/bhwide101/v98e/188.6/bhwide101_188.6_11550.xsdst ! RUN = 11550 ! NEVT = 3000
FILE = /castor/cern.ch/delphi/MCprod/cern/bhwide101/v98e/188.6/bhwide101_188.6_11551.xsdst ! RUN = 11551 ! NEVT = 3000
FILE = /castor/cern.ch/delphi/MCprod/cern/bhwide101/v98e/188.6/bhwide101_188.6_11552.xsdst ! RUN = 11552 ! NEVT = 3000
FILE = /castor/cern.ch/delphi/MCprod/cern/bhwide101/v98e/188.6/bhwide101_188.6_11553.xsdst ! RUN = 11553 ! NEVT = 3000
FILE = /castor/cern.ch/delphi/MCprod/cern/bhwide101/v98e/188.6/bhwide101_188.6_11554.xsdst ! RUN = 11554 ! NEVT = 3000
FILE = /castor/cern.ch/delphi/MCprod/cern/bhwide101/v98e/188.6/bhwide101_188.6_11555.xsdst ! RUN = 11555 ! NEVT = 3000
FILE = /castor/cern.ch/delphi/MCprod/cern/bhwide101/v98e/188.6/bhwide101_188.6_11556.xsdst ! RUN = 11556 ! NEVT = 3000
FILE = /castor/cern.ch/delphi/MCprod/cern/bhwide101/v98e/188.6/bhwide101_188.6_11557.xsdst ! RUN = 11557 ! NEVT = 3000
FILE = /castor/cern.ch/delphi/MCprod/cern/bhwide101/v98e/188.6/bhwide101_188.6_11558.xsdst ! RUN = 11558 ! NEVT = 3000
FILE = /castor/cern.ch/delphi/MCprod/cern/bhwide101/v98e/188.6/bhwide101_188.6_11559.xsdst ! RUN = 11559 ! NEVT = 3000
FILE = /castor/cern.ch/delphi/MCprod/cern/bhwide101/v98e/188.6/bhwide101_188.6_11560.xsdst ! RUN = 11560 ! NEVT = 3000
FILE = /castor/cern.ch/delphi/MCprod/cern/bhwide101/v98e/188.6/bhwide101_188.6_11561.xsdst ! RUN = 11561 ! NEVT = 3000
FILE = /castor/cern.ch/delphi/MCprod/cern/bhwide101/v98e/188.6/bhwide101_188.6_11562.xsdst ! RUN = 11562 ! NEVT = 3000
FILE = /castor/cern.ch/delphi/MCprod/cern/bhwide101/v98e/188.6/bhwide101_188.6_11563.xsdst ! RUN = 11563 ! NEVT = 3000
FILE = /castor/cern.ch/delphi/MCprod/cern/bhwide101/v98e/188.6/bhwide101_188.6_11564.xsdst ! RUN = 11564 ! NEVT = 3000
FILE = /castor/cern.ch/delphi/MCprod/cern/bhwide101/v98e/188.6/bhwide101_188.6_11565.xsdst ! RUN = 11565 ! NEVT = 3000
FILE = /castor/cern.ch/delphi/MCprod/cern/bhwide101/v98e/188.6/bhwide101_188.6_11566.xsdst ! RUN = 11566 ! NEVT = 3000
FILE = /castor/cern.ch/delphi/MCprod/cern/bhwide101/v98e/188.6/bhwide101_188.6_11567.xsdst ! RUN = 11567 ! NEVT = 3000
FILE = /castor/cern.ch/delphi/MCprod/cern/bhwide101/v98e/188.6/bhwide101_188.6_11568.xsdst ! RUN = 11568 ! NEVT = 2999
FILE = /castor/cern.ch/delphi/MCprod/cern/bhwide101/v98e/188.6/bhwide101_188.6_11569.xsdst ! RUN = 11569 ! NEVT = 3000
FILE = /castor/cern.ch/delphi/MCprod/cern/bhwide101/v98e/188.6/bhwide101_188.6_11570.xsdst ! RUN = 11570 ! NEVT = 3000
FILE = /castor/cern.ch/delphi/MCprod/cern/bhwide101/v98e/188.6/bhwide101_188.6_11571.xsdst ! RUN = 11571 ! NEVT = 3000
FILE = /castor/cern.ch/delphi/MCprod/cern/bhwide101/v98e/188.6/bhwide101_188.6_11572.xsdst ! RUN = 11572 ! NEVT = 3000
FILE = /castor/cern.ch/delphi/MCprod/cern/bhwide101/v98e/188.6/bhwide101_188.6_11573.xsdst ! RUN = 11573 ! NEVT = 3000
FILE = /castor/cern.ch/delphi/MCprod/cern/bhwide101/v98e/188.6/bhwide101_188.6_11574.xsdst ! RUN = 11574 ! NEVT = 3000
FILE = /castor/cern.ch/delphi/MCprod/cern/bhwide101/v98e/188.6/bhwide101_188.6_11575.xsdst ! RUN = 11575 ! NEVT = 3000
FILE = /castor/cern.ch/delphi/MCprod/cern/bhwide101/v98e/188.6/bhwide101_188.6_11576.xsdst ! RUN = 11576 ! NEVT = 3000
FILE = /castor/cern.ch/delphi/MCprod/cern/bhwide101/v98e/188.6/bhwide101_188.6_11577.xsdst ! RUN = 11577 ! NEVT = 3000
FILE = /castor/cern.ch/delphi/MCprod/cern/bhwide101/v98e/188.6/bhwide101_188.6_11578.xsdst ! RUN = 11578 ! NEVT = 3000
FILE = /castor/cern.ch/delphi/MCprod/cern/bhwide101/v98e/188.6/bhwide101_188.6_11579.xsdst ! RUN = 11579 ! NEVT = 3000
FILE = /castor/cern.ch/delphi/MCprod/cern/bhwide101/v98e/188.6/bhwide101_188.6_11580.xsdst ! RUN = 11580 ! NEVT = 3000
FILE = /castor/cern.ch/delphi/MCprod/cern/bhwide101/v98e/188.6/bhwide101_188.6_11581.xsdst ! RUN = 11581 ! NEVT = 3000
FILE = /castor/cern.ch/delphi/MCprod/cern/bhwide101/v98e/188.6/bhwide101_188.6_11582.xsdst ! RUN = 11582 ! NEVT = 3000
FILE = /castor/cern.ch/delphi/MCprod/cern/bhwide101/v98e/188.6/bhwide101_188.6_11583.xsdst ! RUN = 11583 ! NEVT = 3000
FILE = /castor/cern.ch/delphi/MCprod/cern/bhwide101/v98e/188.6/bhwide101_188.6_11584.xsdst ! RUN = 11584 ! NEVT = 3000
FILE = /castor/cern.ch/delphi/MCprod/cern/bhwide101/v98e/188.6/bhwide101_188.6_11585.xsdst ! RUN = 11585 ! NEVT = 3000
FILE = /castor/cern.ch/delphi/MCprod/cern/bhwide101/v98e/188.6/bhwide101_188.6_11586.xsdst ! RUN = 11586 ! NEVT = 3000
FILE = /castor/cern.ch/delphi/MCprod/cern/bhwide101/v98e/188.6/bhwide101_188.6_11587.xsdst ! RUN = 11587 ! NEVT = 2999
FILE = /castor/cern.ch/delphi/MCprod/cern/bhwide101/v98e/188.6/bhwide101_188.6_11588.xsdst ! RUN = 11588 ! NEVT = 3000
FILE = /castor/cern.ch/delphi/MCprod/cern/bhwide101/v98e/188.6/bhwide101_188.6_11589.xsdst ! RUN = 11589 ! NEVT = 3000
FILE = /castor/cern.ch/delphi/MCprod/cern/bhwide101/v98e/188.6/bhwide101_188.6_11590.xsdst ! RUN = 11590 ! NEVT = 3000
FILE = /castor/cern.ch/delphi/MCprod/cern/bhwide101/v98e/188.6/bhwide101_188.6_11591.xsdst ! RUN = 11591 ! NEVT = 3000
FILE = /castor/cern.ch/delphi/MCprod/cern/bhwide101/v98e/188.6/bhwide101_188.6_11592.xsdst ! RUN = 11592 ! NEVT = 3000
FILE = /castor/cern.ch/delphi/MCprod/cern/bhwide101/v98e/188.6/bhwide101_188.6_11593.xsdst ! RUN = 11593 ! NEVT = 3000
FILE = /castor/cern.ch/delphi/MCprod/cern/bhwide101/v98e/188.6/bhwide101_188.6_11594.xsdst ! RUN = 11594 ! NEVT = 3000
FILE = /castor/cern.ch/delphi/MCprod/cern/bhwide101/v98e/188.6/bhwide101_188.6_11595.xsdst ! RUN = 11595 ! NEVT = 3000
FILE = /castor/cern.ch/delphi/MCprod/cern/bhwide101/v98e/188.6/bhwide101_188.6_11596.xsdst ! RUN = 11596 ! NEVT = 3000
FILE = /castor/cern.ch/delphi/MCprod/cern/bhwide101/v98e/188.6/bhwide101_188.6_11597.xsdst ! RUN = 11597 ! NEVT = 3000
FILE = /castor/cern.ch/delphi/MCprod/cern/bhwide101/v98e/188.6/bhwide101_188.6_11598.xsdst ! RUN = 11598 ! NEVT = 3000
FILE = /castor/cern.ch/delphi/MCprod/cern/bhwide101/v98e/188.6/bhwide101_188.6_11599.xsdst ! RUN = 11599 ! NEVT = 2999
FILE = /castor/cern.ch/delphi/MCprod/cern/bhwide101/v98e/188.6/bhwide101_188.6_11600.xsdst ! RUN = 11600 ! NEVT = 3000
FILE = /castor/cern.ch/delphi/MCprod/cern/bhwide101/v98e/188.6/bhwide101_188.6_11601.xsdst ! RUN = 11601 ! NEVT = 3000
FILE = /castor/cern.ch/delphi/MCprod/cern/bhwide101/v98e/188.6/bhwide101_188.6_11602.xsdst ! RUN = 11602 ! NEVT = 3000
FILE = /castor/cern.ch/delphi/MCprod/cern/bhwide101/v98e/188.6/bhwide101_188.6_11603.xsdst ! RUN = 11603 ! NEVT = 3000
FILE = /castor/cern.ch/delphi/MCprod/cern/bhwide101/v98e/188.6/bhwide101_188.6_11604.xsdst ! RUN = 11604 ! NEVT = 3000
FILE = /castor/cern.ch/delphi/MCprod/cern/bhwide101/v98e/188.6/bhwide101_188.6_11605.xsdst ! RUN = 11605 ! NEVT = 3000
FILE = /castor/cern.ch/delphi/MCprod/cern/bhwide101/v98e/188.6/bhwide101_188.6_11606.xsdst ! RUN = 11606 ! NEVT = 3000
FILE = /castor/cern.ch/delphi/MCprod/cern/bhwide101/v98e/188.6/bhwide101_188.6_11607.xsdst ! RUN = 11607 ! NEVT = 3000
FILE = /castor/cern.ch/delphi/MCprod/cern/bhwide101/v98e/188.6/bhwide101_188.6_11608.xsdst ! RUN = 11608 ! NEVT = 3000
FILE = /castor/cern.ch/delphi/MCprod/cern/bhwide101/v98e/188.6/bhwide101_188.6_11609.xsdst ! RUN = 11609 ! NEVT = 3000
FILE = /castor/cern.ch/delphi/MCprod/cern/bhwide101/v98e/188.6/bhwide101_188.6_11610.xsdst ! RUN = 11610 ! NEVT = 3000
FILE = /castor/cern.ch/delphi/MCprod/cern/bhwide101/v98e/188.6/bhwide101_188.6_11611.xsdst ! RUN = 11611 ! NEVT = 3000
FILE = /castor/cern.ch/delphi/MCprod/cern/bhwide101/v98e/188.6/bhwide101_188.6_11612.xsdst ! RUN = 11612 ! NEVT = 3000
FILE = /castor/cern.ch/delphi/MCprod/cern/bhwide101/v98e/188.6/bhwide101_188.6_11613.xsdst ! RUN = 11613 ! NEVT = 3000
FILE = /castor/cern.ch/delphi/MCprod/cern/bhwide101/v98e/188.6/bhwide101_188.6_11614.xsdst ! RUN = 11614 ! NEVT = 3000
FILE = /castor/cern.ch/delphi/MCprod/cern/bhwide101/v98e/188.6/bhwide101_188.6_11615.xsdst ! RUN = 11615 ! NEVT = 3000
FILE = /castor/cern.ch/delphi/MCprod/cern/bhwide101/v98e/188.6/bhwide101_188.6_11616.xsdst ! RUN = 11616 ! NEVT = 3000
FILE = /castor/cern.ch/delphi/MCprod/cern/bhwide101/v98e/188.6/bhwide101_188.6_11617.xsdst ! RUN = 11617 ! NEVT = 3000
FILE = /castor/cern.ch/delphi/MCprod/cern/bhwide101/v98e/188.6/bhwide101_188.6_11618.xsdst ! RUN = 11618 ! NEVT = 3000
FILE = /castor/cern.ch/delphi/MCprod/cern/bhwide101/v98e/188.6/bhwide101_188.6_11619.xsdst ! RUN = 11619 ! NEVT = 3000
FILE = /castor/cern.ch/delphi/MCprod/cern/bhwide101/v98e/188.6/bhwide101_188.6_11620.xsdst ! RUN = 11620 ! NEVT = 3000
FILE = /castor/cern.ch/delphi/MCprod/cern/bhwide101/v98e/188.6/bhwide101_188.6_11621.xsdst ! RUN = 11621 ! NEVT = 3000
FILE = /castor/cern.ch/delphi/MCprod/cern/bhwide101/v98e/188.6/bhwide101_188.6_11622.xsdst ! RUN = 11622 ! NEVT = 3000
FILE = /castor/cern.ch/delphi/MCprod/cern/bhwide101/v98e/188.6/bhwide101_188.6_11623.xsdst ! RUN = 11623 ! NEVT = 3000
FILE = /castor/cern.ch/delphi/MCprod/cern/bhwide101/v98e/188.6/bhwide101_188.6_11624.xsdst ! RUN = 11624 ! NEVT = 3000
FILE = /castor/cern.ch/delphi/MCprod/cern/bhwide101/v98e/188.6/bhwide101_188.6_11625.xsdst ! RUN = 11625 ! NEVT = 3000
FILE = /castor/cern.ch/delphi/MCprod/cern/bhwide101/v98e/188.6/bhwide101_188.6_11626.xsdst ! RUN = 11626 ! NEVT = 3000
FILE = /castor/cern.ch/delphi/MCprod/cern/bhwide101/v98e/188.6/bhwide101_188.6_11627.xsdst ! RUN = 11627 ! NEVT = 3000
FILE = /castor/cern.ch/delphi/MCprod/cern/bhwide101/v98e/188.6/bhwide101_188.6_11628.xsdst ! RUN = 11628 ! NEVT = 3000
FILE = /castor/cern.ch/delphi/MCprod/cern/bhwide101/v98e/188.6/bhwide101_188.6_11629.xsdst ! RUN = 11629 ! NEVT = 3000
FILE = /castor/cern.ch/delphi/MCprod/cern/bhwide101/v98e/188.6/bhwide101_188.6_11630.xsdst ! RUN = 11630 ! NEVT = 3000
FILE = /castor/cern.ch/delphi/MCprod/cern/bhwide101/v98e/188.6/bhwide101_188.6_11631.xsdst ! RUN = 11631 ! NEVT = 3000
FILE = /castor/cern.ch/delphi/MCprod/cern/bhwide101/v98e/188.6/bhwide101_188.6_11632.xsdst ! RUN = 11632 ! NEVT = 3000
FILE = /castor/cern.ch/delphi/MCprod/cern/bhwide101/v98e/188.6/bhwide101_188.6_11633.xsdst ! RUN = 11633 ! NEVT = 3000
FILE = /castor/cern.ch/delphi/MCprod/cern/bhwide101/v98e/188.6/bhwide101_188.6_11634.xsdst ! RUN = 11634 ! NEVT = 3000
FILE = /castor/cern.ch/delphi/MCprod/cern/bhwide101/v98e/188.6/bhwide101_188.6_11635.xsdst ! RUN = 11635 ! NEVT = 3000
FILE = /castor/cern.ch/delphi/MCprod/cern/bhwide101/v98e/188.6/bhwide101_188.6_11636.xsdst ! RUN = 11636 ! NEVT = 3000
FILE = /castor/cern.ch/delphi/MCprod/cern/bhwide101/v98e/188.6/bhwide101_188.6_11637.xsdst ! RUN = 11637 ! NEVT = 2999
FILE = /castor/cern.ch/delphi/MCprod/cern/bhwide101/v98e/188.6/bhwide101_188.6_11638.xsdst ! RUN = 11638 ! NEVT = 3000
FILE = /castor/cern.ch/delphi/MCprod/cern/bhwide101/v98e/188.6/bhwide101_188.6_11639.xsdst ! RUN = 11639 ! NEVT = 3000
FILE = /castor/cern.ch/delphi/MCprod/cern/bhwide101/v98e/188.6/bhwide101_188.6_11640.xsdst ! RUN = 11640 ! NEVT = 3000
FILE = /castor/cern.ch/delphi/MCprod/cern/bhwide101/v98e/188.6/bhwide101_188.6_11641.xsdst ! RUN = 11641 ! NEVT = 3000
FILE = /castor/cern.ch/delphi/MCprod/cern/bhwide101/v98e/188.6/bhwide101_188.6_11642.xsdst ! RUN = 11642 ! NEVT = 2999
FILE = /castor/cern.ch/delphi/MCprod/cern/bhwide101/v98e/188.6/bhwide101_188.6_11643.xsdst ! RUN = 11643 ! NEVT = 3000
FILE = /castor/cern.ch/delphi/MCprod/cern/bhwide101/v98e/188.6/bhwide101_188.6_11644.xsdst ! RUN = 11644 ! NEVT = 3000
FILE = /castor/cern.ch/delphi/MCprod/cern/bhwide101/v98e/188.6/bhwide101_188.6_11645.xsdst ! RUN = 11645 ! NEVT = 3000
FILE = /castor/cern.ch/delphi/MCprod/cern/bhwide101/v98e/188.6/bhwide101_188.6_11646.xsdst ! RUN = 11646 ! NEVT = 3000
FILE = /castor/cern.ch/delphi/MCprod/cern/bhwide101/v98e/188.6/bhwide101_188.6_11647.xsdst ! RUN = 11647 ! NEVT = 3000
FILE = /castor/cern.ch/delphi/MCprod/cern/bhwide101/v98e/188.6/bhwide101_188.6_11648.xsdst ! RUN = 11648 ! NEVT = 3000
FILE = /castor/cern.ch/delphi/MCprod/cern/bhwide101/v98e/188.6/bhwide101_188.6_11649.xsdst ! RUN = 11649 ! NEVT = 3000
FILE = /castor/cern.ch/delphi/MCprod/cern/bhwide101/v98e/188.6/bhwide101_188.6_11650.xsdst ! RUN = 11650 ! NEVT = 3000
FILE = /castor/cern.ch/delphi/MCprod/cern/bhwide101/v98e/188.6/bhwide101_188.6_11651.xsdst ! RUN = 11651 ! NEVT = 3000
FILE = /castor/cern.ch/delphi/MCprod/cern/bhwide101/v98e/188.6/bhwide101_188.6_11652.xsdst ! RUN = 11652 ! NEVT = 3000
FILE = /castor/cern.ch/delphi/MCprod/cern/bhwide101/v98e/188.6/bhwide101_188.6_11653.xsdst ! RUN = 11653 ! NEVT = 3000
FILE = /castor/cern.ch/delphi/MCprod/cern/bhwide101/v98e/188.6/bhwide101_188.6_11654.xsdst ! RUN = 11654 ! NEVT = 3000
FILE = /castor/cern.ch/delphi/MCprod/cern/bhwide101/v98e/188.6/bhwide101_188.6_11655.xsdst ! RUN = 11655 ! NEVT = 3000
FILE = /castor/cern.ch/delphi/MCprod/cern/bhwide101/v98e/188.6/bhwide101_188.6_11656.xsdst ! RUN = 11656 ! NEVT = 3000
FILE = /castor/cern.ch/delphi/MCprod/cern/bhwide101/v98e/188.6/bhwide101_188.6_11657.xsdst ! RUN = 11657 ! NEVT = 3000
FILE = /castor/cern.ch/delphi/MCprod/cern/bhwide101/v98e/188.6/bhwide101_188.6_11658.xsdst ! RUN = 11658 ! NEVT = 3000
FILE = /castor/cern.ch/delphi/MCprod/cern/bhwide101/v98e/188.6/bhwide101_188.6_11659.xsdst ! RUN = 11659 ! NEVT = 3000
FILE = /castor/cern.ch/delphi/MCprod/cern/bhwide101/v98e/188.6/bhwide101_188.6_11660.xsdst ! RUN = 11660 ! NEVT = 3000
FILE = /castor/cern.ch/delphi/MCprod/cern/bhwide101/v98e/188.6/bhwide101_188.6_11661.xsdst ! RUN = 11661 ! NEVT = 3000
FILE = /castor/cern.ch/delphi/MCprod/cern/bhwide101/v98e/188.6/bhwide101_188.6_11662.xsdst ! RUN = 11662 ! NEVT = 3000
FILE = /castor/cern.ch/delphi/MCprod/cern/bhwide101/v98e/188.6/bhwide101_188.6_11663.xsdst ! RUN = 11663 ! NEVT = 3000
FILE = /castor/cern.ch/delphi/MCprod/cern/bhwide101/v98e/188.6/bhwide101_188.6_11664.xsdst ! RUN = 11664 ! NEVT = 3000
FILE = /castor/cern.ch/delphi/MCprod/cern/bhwide101/v98e/188.6/bhwide101_188.6_11665.xsdst ! RUN = 11665 ! NEVT = 2999
FILE = /castor/cern.ch/delphi/MCprod/cern/bhwide101/v98e/188.6/bhwide101_188.6_11666.xsdst ! RUN = 11666 ! NEVT = 3000
FILE = /castor/cern.ch/delphi/MCprod/cern/bhwide101/v98e/188.6/bhwide101_188.6_11667.xsdst ! RUN = 11667 ! NEVT = 3000
FILE = /castor/cern.ch/delphi/MCprod/cern/bhwide101/v98e/188.6/bhwide101_188.6_11668.xsdst ! RUN = 11668 ! NEVT = 3000
FILE = /castor/cern.ch/delphi/MCprod/cern/bhwide101/v98e/188.6/bhwide101_188.6_11669.xsdst ! RUN = 11669 ! NEVT = 3000
FILE = /castor/cern.ch/delphi/MCprod/cern/bhwide101/v98e/188.6/bhwide101_188.6_11670.xsdst ! RUN = 11670 ! NEVT = 3000
FILE = /castor/cern.ch/delphi/MCprod/cern/bhwide101/v98e/188.6/bhwide101_188.6_11671.xsdst ! RUN = 11671 ! NEVT = 3000
FILE = /castor/cern.ch/delphi/MCprod/cern/bhwide101/v98e/188.6/bhwide101_188.6_11672.xsdst ! RUN = 11672 ! NEVT = 3000
FILE = /castor/cern.ch/delphi/MCprod/cern/bhwide101/v98e/188.6/bhwide101_188.6_11673.xsdst ! RUN = 11673 ! NEVT = 3000
FILE = /castor/cern.ch/delphi/MCprod/cern/bhwide101/v98e/188.6/bhwide101_188.6_11674.xsdst ! RUN = 11674 ! NEVT = 3000
FILE = /castor/cern.ch/delphi/MCprod/cern/bhwide101/v98e/188.6/bhwide101_188.6_11675.xsdst ! RUN = 11675 ! NEVT = 3000
FILE = /castor/cern.ch/delphi/MCprod/cern/bhwide101/v98e/188.6/bhwide101_188.6_11676.xsdst ! RUN = 11676 ! NEVT = 3000
FILE = /castor/cern.ch/delphi/MCprod/cern/bhwide101/v98e/188.6/bhwide101_188.6_11677.xsdst ! RUN = 11677 ! NEVT = 3000
FILE = /castor/cern.ch/delphi/MCprod/cern/bhwide101/v98e/188.6/bhwide101_188.6_11678.xsdst ! RUN = 11678 ! NEVT = 3000
FILE = /castor/cern.ch/delphi/MCprod/cern/bhwide101/v98e/188.6/bhwide101_188.6_11679.xsdst ! RUN = 11679 ! NEVT = 3000
FILE = /castor/cern.ch/delphi/MCprod/cern/bhwide101/v98e/188.6/bhwide101_188.6_11680.xsdst ! RUN = 11680 ! NEVT = 3000
FILE = /castor/cern.ch/delphi/MCprod/cern/bhwide101/v98e/188.6/bhwide101_188.6_11681.xsdst ! RUN = 11681 ! NEVT = 3000
FILE = /castor/cern.ch/delphi/MCprod/cern/bhwide101/v98e/188.6/bhwide101_188.6_11682.xsdst ! RUN = 11682 ! NEVT = 3000
FILE = /castor/cern.ch/delphi/MCprod/cern/bhwide101/v98e/188.6/bhwide101_188.6_11683.xsdst ! RUN = 11683 ! NEVT = 3000
FILE = /castor/cern.ch/delphi/MCprod/cern/bhwide101/v98e/188.6/bhwide101_188.6_11684.xsdst ! RUN = 11684 ! NEVT = 3000
FILE = /castor/cern.ch/delphi/MCprod/cern/bhwide101/v98e/188.6/bhwide101_188.6_11685.xsdst ! RUN = 11685 ! NEVT = 3000
FILE = /castor/cern.ch/delphi/MCprod/cern/bhwide101/v98e/188.6/bhwide101_188.6_11686.xsdst ! RUN = 11686 ! NEVT = 3000
FILE = /castor/cern.ch/delphi/MCprod/cern/bhwide101/v98e/188.6/bhwide101_188.6_11687.xsdst ! RUN = 11687 ! NEVT = 2999
FILE = /castor/cern.ch/delphi/MCprod/cern/bhwide101/v98e/188.6/bhwide101_188.6_11688.xsdst ! RUN = 11688 ! NEVT = 3000
FILE = /castor/cern.ch/delphi/MCprod/cern/bhwide101/v98e/188.6/bhwide101_188.6_11689.xsdst ! RUN = 11689 ! NEVT = 3000
FILE = /castor/cern.ch/delphi/MCprod/cern/bhwide101/v98e/188.6/bhwide101_188.6_11690.xsdst ! RUN = 11690 ! NEVT = 3000
FILE = /castor/cern.ch/delphi/MCprod/cern/bhwide101/v98e/188.6/bhwide101_188.6_11691.xsdst ! RUN = 11691 ! NEVT = 3000
FILE = /castor/cern.ch/delphi/MCprod/cern/bhwide101/v98e/188.6/bhwide101_188.6_11692.xsdst ! RUN = 11692 ! NEVT = 3000
FILE = /castor/cern.ch/delphi/MCprod/cern/bhwide101/v98e/188.6/bhwide101_188.6_11693.xsdst ! RUN = 11693 ! NEVT = 3000
FILE = /castor/cern.ch/delphi/MCprod/cern/bhwide101/v98e/188.6/bhwide101_188.6_11694.xsdst ! RUN = 11694 ! NEVT = 3000
FILE = /castor/cern.ch/delphi/MCprod/cern/bhwide101/v98e/188.6/bhwide101_188.6_11695.xsdst ! RUN = 11695 ! NEVT = 3000
FILE = /castor/cern.ch/delphi/MCprod/cern/bhwide101/v98e/188.6/bhwide101_188.6_11696.xsdst ! RUN = 11696 ! NEVT = 3000
FILE = /castor/cern.ch/delphi/MCprod/cern/bhwide101/v98e/188.6/bhwide101_188.6_11697.xsdst ! RUN = 11697 ! NEVT = 3000
FILE = /castor/cern.ch/delphi/MCprod/cern/bhwide101/v98e/188.6/bhwide101_188.6_11698.xsdst ! RUN = 11698 ! NEVT = 3000
FILE = /castor/cern.ch/delphi/MCprod/cern/bhwide101/v98e/188.6/bhwide101_188.6_11699.xsdst ! RUN = 11699 ! NEVT = 3000
FILE = /castor/cern.ch/delphi/MCprod/cern/bhwide101/v98e/188.6/bhwide101_188.6_11700.xsdst ! RUN = 11700 ! NEVT = 3000
FILE = /castor/cern.ch/delphi/MCprod/cern/bhwide101/v98e/188.6/bhwide101_188.6_11701.xsdst ! RUN = 11701 ! NEVT = 3000
FILE = /castor/cern.ch/delphi/MCprod/cern/bhwide101/v98e/188.6/bhwide101_188.6_11702.xsdst ! RUN = 11702 ! NEVT = 3000
FILE = /castor/cern.ch/delphi/MCprod/cern/bhwide101/v98e/188.6/bhwide101_188.6_11703.xsdst ! RUN = 11703 ! NEVT = 3000
FILE = /castor/cern.ch/delphi/MCprod/cern/bhwide101/v98e/188.6/bhwide101_188.6_11704.xsdst ! RUN = 11704 ! NEVT = 3000
FILE = /castor/cern.ch/delphi/MCprod/cern/bhwide101/v98e/188.6/bhwide101_188.6_11705.xsdst ! RUN = 11705 ! NEVT = 3000
FILE = /castor/cern.ch/delphi/MCprod/cern/bhwide101/v98e/188.6/bhwide101_188.6_11706.xsdst ! RUN = 11706 ! NEVT = 2999
FILE = /castor/cern.ch/delphi/MCprod/cern/bhwide101/v98e/188.6/bhwide101_188.6_11707.xsdst ! RUN = 11707 ! NEVT = 3000
FILE = /castor/cern.ch/delphi/MCprod/cern/bhwide101/v98e/188.6/bhwide101_188.6_11708.xsdst ! RUN = 11708 ! NEVT = 3000
FILE = /castor/cern.ch/delphi/MCprod/cern/bhwide101/v98e/188.6/bhwide101_188.6_11709.xsdst ! RUN = 11709 ! NEVT = 3000
FILE = /castor/cern.ch/delphi/MCprod/cern/bhwide101/v98e/188.6/bhwide101_188.6_11710.xsdst ! RUN = 11710 ! NEVT = 3000
FILE = /castor/cern.ch/delphi/MCprod/cern/bhwide101/v98e/188.6/bhwide101_188.6_11711.xsdst ! RUN = 11711 ! NEVT = 3000
FILE = /castor/cern.ch/delphi/MCprod/cern/bhwide101/v98e/188.6/bhwide101_188.6_11712.xsdst ! RUN = 11712 ! NEVT = 3000
FILE = /castor/cern.ch/delphi/MCprod/cern/bhwide101/v98e/188.6/bhwide101_188.6_11713.xsdst ! RUN = 11713 ! NEVT = 3000
FILE = /castor/cern.ch/delphi/MCprod/cern/bhwide101/v98e/188.6/bhwide101_188.6_11714.xsdst ! RUN = 11714 ! NEVT = 3000
FILE = /castor/cern.ch/delphi/MCprod/cern/bhwide101/v98e/188.6/bhwide101_188.6_11715.xsdst ! RUN = 11715 ! NEVT = 3000
FILE = /castor/cern.ch/delphi/MCprod/cern/bhwide101/v98e/188.6/bhwide101_188.6_11716.xsdst ! RUN = 11716 ! NEVT = 3000
FILE = /castor/cern.ch/delphi/MCprod/cern/bhwide101/v98e/188.6/bhwide101_188.6_11717.xsdst ! RUN = 11717 ! NEVT = 3000
FILE = /castor/cern.ch/delphi/MCprod/cern/bhwide101/v98e/188.6/bhwide101_188.6_11718.xsdst ! RUN = 11718 ! NEVT = 3000
FILE = /castor/cern.ch/delphi/MCprod/cern/bhwide101/v98e/188.6/bhwide101_188.6_11719.xsdst ! RUN = 11719 ! NEVT = 3000
FILE = /castor/cern.ch/delphi/MCprod/cern/bhwide101/v98e/188.6/bhwide101_188.6_11720.xsdst ! RUN = 11720 ! NEVT = 3000
FILE = /castor/cern.ch/delphi/MCprod/cern/bhwide101/v98e/188.6/bhwide101_188.6_11721.xsdst ! RUN = 11721 ! NEVT = 3000
FILE = /castor/cern.ch/delphi/MCprod/cern/bhwide101/v98e/188.6/bhwide101_188.6_11722.xsdst ! RUN = 11722 ! NEVT = 3000
FILE = /castor/cern.ch/delphi/MCprod/cern/bhwide101/v98e/188.6/bhwide101_188.6_11723.xsdst ! RUN = 11723 ! NEVT = 3000
FILE = /castor/cern.ch/delphi/MCprod/cern/bhwide101/v98e/188.6/bhwide101_188.6_11724.xsdst ! RUN = 11724 ! NEVT = 3000
FILE = /castor/cern.ch/delphi/MCprod/cern/bhwide101/v98e/188.6/bhwide101_188.6_11725.xsdst ! RUN = 11725 ! NEVT = 3000
FILE = /castor/cern.ch/delphi/MCprod/cern/bhwide101/v98e/188.6/bhwide101_188.6_11726.xsdst ! RUN = 11726 ! NEVT = 3000
FILE = /castor/cern.ch/delphi/MCprod/cern/bhwide101/v98e/188.6/bhwide101_188.6_11727.xsdst ! RUN = 11727 ! NEVT = 3000
FILE = /castor/cern.ch/delphi/MCprod/cern/bhwide101/v98e/188.6/bhwide101_188.6_11728.xsdst ! RUN = 11728 ! NEVT = 2999
FILE = /castor/cern.ch/delphi/MCprod/cern/bhwide101/v98e/188.6/bhwide101_188.6_11729.xsdst ! RUN = 11729 ! NEVT = 3000
FILE = /castor/cern.ch/delphi/MCprod/cern/bhwide101/v98e/188.6/bhwide101_188.6_11730.xsdst ! RUN = 11730 ! NEVT = 3000
FILE = /castor/cern.ch/delphi/MCprod/cern/bhwide101/v98e/188.6/bhwide101_188.6_11731.xsdst ! RUN = 11731 ! NEVT = 3000
FILE = /castor/cern.ch/delphi/MCprod/cern/bhwide101/v98e/188.6/bhwide101_188.6_11732.xsdst ! RUN = 11732 ! NEVT = 3000
FILE = /castor/cern.ch/delphi/MCprod/cern/bhwide101/v98e/188.6/bhwide101_188.6_11733.xsdst ! RUN = 11733 ! NEVT = 3000
FILE = /castor/cern.ch/delphi/MCprod/cern/bhwide101/v98e/188.6/bhwide101_188.6_11734.xsdst ! RUN = 11734 ! NEVT = 3000
FILE = /castor/cern.ch/delphi/MCprod/cern/bhwide101/v98e/188.6/bhwide101_188.6_11735.xsdst ! RUN = 11735 ! NEVT = 3000
FILE = /castor/cern.ch/delphi/MCprod/cern/bhwide101/v98e/188.6/bhwide101_188.6_11736.xsdst ! RUN = 11736 ! NEVT = 3000
FILE = /castor/cern.ch/delphi/MCprod/cern/bhwide101/v98e/188.6/bhwide101_188.6_11737.xsdst ! RUN = 11737 ! NEVT = 3000
FILE = /castor/cern.ch/delphi/MCprod/cern/bhwide101/v98e/188.6/bhwide101_188.6_11738.xsdst ! RUN = 11738 ! NEVT = 3000
FILE = /castor/cern.ch/delphi/MCprod/cern/bhwide101/v98e/188.6/bhwide101_188.6_11739.xsdst ! RUN = 11739 ! NEVT = 3000
FILE = /castor/cern.ch/delphi/MCprod/cern/bhwide101/v98e/188.6/bhwide101_188.6_11740.xsdst ! RUN = 11740 ! NEVT = 2999
FILE = /castor/cern.ch/delphi/MCprod/cern/bhwide101/v98e/188.6/bhwide101_188.6_11741.xsdst ! RUN = 11741 ! NEVT = 3000
FILE = /castor/cern.ch/delphi/MCprod/cern/bhwide101/v98e/188.6/bhwide101_188.6_11742.xsdst ! RUN = 11742 ! NEVT = 3000
FILE = /castor/cern.ch/delphi/MCprod/cern/bhwide101/v98e/188.6/bhwide101_188.6_11743.xsdst ! RUN = 11743 ! NEVT = 3000
FILE = /castor/cern.ch/delphi/MCprod/cern/bhwide101/v98e/188.6/bhwide101_188.6_11744.xsdst ! RUN = 11744 ! NEVT = 3000
FILE = /castor/cern.ch/delphi/MCprod/cern/bhwide101/v98e/188.6/bhwide101_188.6_11745.xsdst ! RUN = 11745 ! NEVT = 3000
FILE = /castor/cern.ch/delphi/MCprod/cern/bhwide101/v98e/188.6/bhwide101_188.6_11746.xsdst ! RUN = 11746 ! NEVT = 3000
FILE = /castor/cern.ch/delphi/MCprod/cern/bhwide101/v98e/188.6/bhwide101_188.6_11747.xsdst ! RUN = 11747 ! NEVT = 3000
FILE = /castor/cern.ch/delphi/MCprod/cern/bhwide101/v98e/188.6/bhwide101_188.6_11748.xsdst ! RUN = 11748 ! NEVT = 2999
FILE = /castor/cern.ch/delphi/MCprod/cern/bhwide101/v98e/188.6/bhwide101_188.6_11749.xsdst ! RUN = 11749 ! NEVT = 3000
FILE = /castor/cern.ch/delphi/MCprod/cern/bhwide101/v98e/188.6/bhwide101_188.6_11750.xsdst ! RUN = 11750 ! NEVT = 3000
FILE = /castor/cern.ch/delphi/MCprod/cern/bhwide101/v98e/188.6/bhwide101_188.6_11751.xsdst ! RUN = 11751 ! NEVT = 3000
FILE = /castor/cern.ch/delphi/MCprod/cern/bhwide101/v98e/188.6/bhwide101_188.6_11752.xsdst ! RUN = 11752 ! NEVT = 3000
FILE = /castor/cern.ch/delphi/MCprod/cern/bhwide101/v98e/188.6/bhwide101_188.6_11753.xsdst ! RUN = 11753 ! NEVT = 3000
FILE = /castor/cern.ch/delphi/MCprod/cern/bhwide101/v98e/188.6/bhwide101_188.6_11754.xsdst ! RUN = 11754 ! NEVT = 3000
FILE = /castor/cern.ch/delphi/MCprod/cern/bhwide101/v98e/188.6/bhwide101_188.6_11755.xsdst ! RUN = 11755 ! NEVT = 3000
FILE = /castor/cern.ch/delphi/MCprod/cern/bhwide101/v98e/188.6/bhwide101_188.6_11756.xsdst ! RUN = 11756 ! NEVT = 3000
FILE = /castor/cern.ch/delphi/MCprod/cern/bhwide101/v98e/188.6/bhwide101_188.6_11757.xsdst ! RUN = 11757 ! NEVT = 3000
FILE = /castor/cern.ch/delphi/MCprod/cern/bhwide101/v98e/188.6/bhwide101_188.6_11758.xsdst ! RUN = 11758 ! NEVT = 3000
FILE = /castor/cern.ch/delphi/MCprod/cern/bhwide101/v98e/188.6/bhwide101_188.6_11759.xsdst ! RUN = 11759 ! NEVT = 3000
FILE = /castor/cern.ch/delphi/MCprod/cern/bhwide101/v98e/188.6/bhwide101_188.6_11760.xsdst ! RUN = 11760 ! NEVT = 3000
FILE = /castor/cern.ch/delphi/MCprod/cern/bhwide101/v98e/188.6/bhwide101_188.6_11761.xsdst ! RUN = 11761 ! NEVT = 3000
FILE = /castor/cern.ch/delphi/MCprod/cern/bhwide101/v98e/188.6/bhwide101_188.6_11762.xsdst ! RUN = 11762 ! NEVT = 3000
FILE = /castor/cern.ch/delphi/MCprod/cern/bhwide101/v98e/188.6/bhwide101_188.6_11763.xsdst ! RUN = 11763 ! NEVT = 3000
FILE = /castor/cern.ch/delphi/MCprod/cern/bhwide101/v98e/188.6/bhwide101_188.6_11764.xsdst ! RUN = 11764 ! NEVT = 3000
FILE = /castor/cern.ch/delphi/MCprod/cern/bhwide101/v98e/188.6/bhwide101_188.6_11765.xsdst ! RUN = 11765 ! NEVT = 3000
FILE = /castor/cern.ch/delphi/MCprod/cern/bhwide101/v98e/188.6/bhwide101_188.6_11766.xsdst ! RUN = 11766 ! NEVT = 3000
FILE = /castor/cern.ch/delphi/MCprod/cern/bhwide101/v98e/188.6/bhwide101_188.6_11767.xsdst ! RUN = 11767 ! NEVT = 3000
FILE = /castor/cern.ch/delphi/MCprod/cern/bhwide101/v98e/188.6/bhwide101_188.6_11768.xsdst ! RUN = 11768 ! NEVT = 3000
FILE = /castor/cern.ch/delphi/MCprod/cern/bhwide101/v98e/188.6/bhwide101_188.6_11769.xsdst ! RUN = 11769 ! NEVT = 3000
FILE = /castor/cern.ch/delphi/MCprod/cern/bhwide101/v98e/188.6/bhwide101_188.6_11770.xsdst ! RUN = 11770 ! NEVT = 3000
FILE = /castor/cern.ch/delphi/MCprod/cern/bhwide101/v98e/188.6/bhwide101_188.6_11771.xsdst ! RUN = 11771 ! NEVT = 2999
FILE = /castor/cern.ch/delphi/MCprod/cern/bhwide101/v98e/188.6/bhwide101_188.6_11772.xsdst ! RUN = 11772 ! NEVT = 3000
FILE = /castor/cern.ch/delphi/MCprod/cern/bhwide101/v98e/188.6/bhwide101_188.6_11773.xsdst ! RUN = 11773 ! NEVT = 3000
FILE = /castor/cern.ch/delphi/MCprod/cern/bhwide101/v98e/188.6/bhwide101_188.6_11774.xsdst ! RUN = 11774 ! NEVT = 3000
FILE = /castor/cern.ch/delphi/MCprod/cern/bhwide101/v98e/188.6/bhwide101_188.6_11775.xsdst ! RUN = 11775 ! NEVT = 3000
FILE = /castor/cern.ch/delphi/MCprod/cern/bhwide101/v98e/188.6/bhwide101_188.6_11776.xsdst ! RUN = 11776 ! NEVT = 3000
FILE = /castor/cern.ch/delphi/MCprod/cern/bhwide101/v98e/188.6/bhwide101_188.6_11777.xsdst ! RUN = 11777 ! NEVT = 3000
FILE = /castor/cern.ch/delphi/MCprod/cern/bhwide101/v98e/188.6/bhwide101_188.6_11778.xsdst ! RUN = 11778 ! NEVT = 3000
FILE = /castor/cern.ch/delphi/MCprod/cern/bhwide101/v98e/188.6/bhwide101_188.6_11779.xsdst ! RUN = 11779 ! NEVT = 3000
FILE = /castor/cern.ch/delphi/MCprod/cern/bhwide101/v98e/188.6/bhwide101_188.6_11780.xsdst ! RUN = 11780 ! NEVT = 3000
FILE = /castor/cern.ch/delphi/MCprod/cern/bhwide101/v98e/188.6/bhwide101_188.6_11781.xsdst ! RUN = 11781 ! NEVT = 3000
FILE = /castor/cern.ch/delphi/MCprod/cern/bhwide101/v98e/188.6/bhwide101_188.6_11782.xsdst ! RUN = 11782 ! NEVT = 3000
FILE = /castor/cern.ch/delphi/MCprod/cern/bhwide101/v98e/188.6/bhwide101_188.6_11783.xsdst ! RUN = 11783 ! NEVT = 3000
FILE = /castor/cern.ch/delphi/MCprod/cern/bhwide101/v98e/188.6/bhwide101_188.6_11784.xsdst ! RUN = 11784 ! NEVT = 3000
FILE = /castor/cern.ch/delphi/MCprod/cern/bhwide101/v98e/188.6/bhwide101_188.6_11785.xsdst ! RUN = 11785 ! NEVT = 3000
FILE = /castor/cern.ch/delphi/MCprod/cern/bhwide101/v98e/188.6/bhwide101_188.6_11786.xsdst ! RUN = 11786 ! NEVT = 3000
FILE = /castor/cern.ch/delphi/MCprod/cern/bhwide101/v98e/188.6/bhwide101_188.6_11787.xsdst ! RUN = 11787 ! NEVT = 3000
FILE = /castor/cern.ch/delphi/MCprod/cern/bhwide101/v98e/188.6/bhwide101_188.6_11788.xsdst ! RUN = 11788 ! NEVT = 3000
FILE = /castor/cern.ch/delphi/MCprod/cern/bhwide101/v98e/188.6/bhwide101_188.6_11789.xsdst ! RUN = 11789 ! NEVT = 3000
FILE = /castor/cern.ch/delphi/MCprod/cern/bhwide101/v98e/188.6/bhwide101_188.6_11790.xsdst ! RUN = 11790 ! NEVT = 3000
FILE = /castor/cern.ch/delphi/MCprod/cern/bhwide101/v98e/188.6/bhwide101_188.6_11791.xsdst ! RUN = 11791 ! NEVT = 3000
FILE = /castor/cern.ch/delphi/MCprod/cern/bhwide101/v98e/188.6/bhwide101_188.6_11792.xsdst ! RUN = 11792 ! NEVT = 3000
FILE = /castor/cern.ch/delphi/MCprod/cern/bhwide101/v98e/188.6/bhwide101_188.6_11793.xsdst ! RUN = 11793 ! NEVT = 3000
FILE = /castor/cern.ch/delphi/MCprod/cern/bhwide101/v98e/188.6/bhwide101_188.6_11794.xsdst ! RUN = 11794 ! NEVT = 3000
FILE = /castor/cern.ch/delphi/MCprod/cern/bhwide101/v98e/188.6/bhwide101_188.6_11795.xsdst ! RUN = 11795 ! NEVT = 3000
FILE = /castor/cern.ch/delphi/MCprod/cern/bhwide101/v98e/188.6/bhwide101_188.6_11796.xsdst ! RUN = 11796 ! NEVT = 3000
FILE = /castor/cern.ch/delphi/MCprod/cern/bhwide101/v98e/188.6/bhwide101_188.6_11797.xsdst ! RUN = 11797 ! NEVT = 3000
FILE = /castor/cern.ch/delphi/MCprod/cern/bhwide101/v98e/188.6/bhwide101_188.6_11798.xsdst ! RUN = 11798 ! NEVT = 3000
FILE = /castor/cern.ch/delphi/MCprod/cern/bhwide101/v98e/188.6/bhwide101_188.6_11799.xsdst ! RUN = 11799 ! NEVT = 3000
FILE = /castor/cern.ch/delphi/MCprod/cern/bhwide101/v98e/188.6/bhwide101_188.6_11800.xsdst ! RUN = 11800 ! NEVT = 3000
FILE = /castor/cern.ch/delphi/MCprod/cern/bhwide101/v98e/188.6/bhwide101_188.6_11801.xsdst ! RUN = 11801 ! NEVT = 3000
FILE = /castor/cern.ch/delphi/MCprod/cern/bhwide101/v98e/188.6/bhwide101_188.6_11802.xsdst ! RUN = 11802 ! NEVT = 3000
FILE = /castor/cern.ch/delphi/MCprod/cern/bhwide101/v98e/188.6/bhwide101_188.6_11803.xsdst ! RUN = 11803 ! NEVT = 3000
FILE = /castor/cern.ch/delphi/MCprod/cern/bhwide101/v98e/188.6/bhwide101_188.6_11804.xsdst ! RUN = 11804 ! NEVT = 3000
FILE = /castor/cern.ch/delphi/MCprod/cern/bhwide101/v98e/188.6/bhwide101_188.6_11805.xsdst ! RUN = 11805 ! NEVT = 3000
FILE = /castor/cern.ch/delphi/MCprod/cern/bhwide101/v98e/188.6/bhwide101_188.6_11806.xsdst ! RUN = 11806 ! NEVT = 3000
FILE = /castor/cern.ch/delphi/MCprod/cern/bhwide101/v98e/188.6/bhwide101_188.6_11807.xsdst ! RUN = 11807 ! NEVT = 3000
FILE = /castor/cern.ch/delphi/MCprod/cern/bhwide101/v98e/188.6/bhwide101_188.6_11808.xsdst ! RUN = 11808 ! NEVT = 3000
FILE = /castor/cern.ch/delphi/MCprod/cern/bhwide101/v98e/188.6/bhwide101_188.6_11809.xsdst ! RUN = 11809 ! NEVT = 3000
FILE = /castor/cern.ch/delphi/MCprod/cern/bhwide101/v98e/188.6/bhwide101_188.6_11810.xsdst ! RUN = 11810 ! NEVT = 3000
FILE = /castor/cern.ch/delphi/MCprod/cern/bhwide101/v98e/188.6/bhwide101_188.6_11811.xsdst ! RUN = 11811 ! NEVT = 3000
FILE = /castor/cern.ch/delphi/MCprod/cern/bhwide101/v98e/188.6/bhwide101_188.6_11812.xsdst ! RUN = 11812 ! NEVT = 3000
FILE = /castor/cern.ch/delphi/MCprod/cern/bhwide101/v98e/188.6/bhwide101_188.6_11813.xsdst ! RUN = 11813 ! NEVT = 3000
FILE = /castor/cern.ch/delphi/MCprod/cern/bhwide101/v98e/188.6/bhwide101_188.6_11814.xsdst ! RUN = 11814 ! NEVT = 3000
FILE = /castor/cern.ch/delphi/MCprod/cern/bhwide101/v98e/188.6/bhwide101_188.6_11815.xsdst ! RUN = 11815 ! NEVT = 3000
FILE = /castor/cern.ch/delphi/MCprod/cern/bhwide101/v98e/188.6/bhwide101_188.6_11816.xsdst ! RUN = 11816 ! NEVT = 3000
FILE = /castor/cern.ch/delphi/MCprod/cern/bhwide101/v98e/188.6/bhwide101_188.6_11817.xsdst ! RUN = 11817 ! NEVT = 3000
FILE = /castor/cern.ch/delphi/MCprod/cern/bhwide101/v98e/188.6/bhwide101_188.6_11818.xsdst ! RUN = 11818 ! NEVT = 3000
FILE = /castor/cern.ch/delphi/MCprod/cern/bhwide101/v98e/188.6/bhwide101_188.6_11819.xsdst ! RUN = 11819 ! NEVT = 3000
FILE = /castor/cern.ch/delphi/MCprod/cern/bhwide101/v98e/188.6/bhwide101_188.6_11820.xsdst ! RUN = 11820 ! NEVT = 3000
FILE = /castor/cern.ch/delphi/MCprod/cern/bhwide101/v98e/188.6/bhwide101_188.6_11821.xsdst ! RUN = 11821 ! NEVT = 3000
FILE = /castor/cern.ch/delphi/MCprod/cern/bhwide101/v98e/188.6/bhwide101_188.6_11822.xsdst ! RUN = 11822 ! NEVT = 3000
FILE = /castor/cern.ch/delphi/MCprod/cern/bhwide101/v98e/188.6/bhwide101_188.6_11823.xsdst ! RUN = 11823 ! NEVT = 3000
FILE = /castor/cern.ch/delphi/MCprod/cern/bhwide101/v98e/188.6/bhwide101_188.6_11824.xsdst ! RUN = 11824 ! NEVT = 3000
FILE = /castor/cern.ch/delphi/MCprod/cern/bhwide101/v98e/188.6/bhwide101_188.6_11825.xsdst ! RUN = 11825 ! NEVT = 3000
FILE = /castor/cern.ch/delphi/MCprod/cern/bhwide101/v98e/188.6/bhwide101_188.6_11826.xsdst ! RUN = 11826 ! NEVT = 3000
FILE = /castor/cern.ch/delphi/MCprod/cern/bhwide101/v98e/188.6/bhwide101_188.6_11827.xsdst ! RUN = 11827 ! NEVT = 3000
FILE = /castor/cern.ch/delphi/MCprod/cern/bhwide101/v98e/188.6/bhwide101_188.6_11828.xsdst ! RUN = 11828 ! NEVT = 3000
FILE = /castor/cern.ch/delphi/MCprod/cern/bhwide101/v98e/188.6/bhwide101_188.6_11829.xsdst ! RUN = 11829 ! NEVT = 3000
FILE = /castor/cern.ch/delphi/MCprod/cern/bhwide101/v98e/188.6/bhwide101_188.6_11830.xsdst ! RUN = 11830 ! NEVT = 3000
FILE = /castor/cern.ch/delphi/MCprod/cern/bhwide101/v98e/188.6/bhwide101_188.6_11831.xsdst ! RUN = 11831 ! NEVT = 3000
FILE = /castor/cern.ch/delphi/MCprod/cern/bhwide101/v98e/188.6/bhwide101_188.6_11832.xsdst ! RUN = 11832 ! NEVT = 3000
FILE = /castor/cern.ch/delphi/MCprod/cern/bhwide101/v98e/188.6/bhwide101_188.6_11833.xsdst ! RUN = 11833 ! NEVT = 3000
FILE = /castor/cern.ch/delphi/MCprod/cern/bhwide101/v98e/188.6/bhwide101_188.6_11834.xsdst ! RUN = 11834 ! NEVT = 3000
FILE = /castor/cern.ch/delphi/MCprod/cern/bhwide101/v98e/188.6/bhwide101_188.6_11835.xsdst ! RUN = 11835 ! NEVT = 3000
FILE = /castor/cern.ch/delphi/MCprod/cern/bhwide101/v98e/188.6/bhwide101_188.6_11836.xsdst ! RUN = 11836 ! NEVT = 3000
FILE = /castor/cern.ch/delphi/MCprod/cern/bhwide101/v98e/188.6/bhwide101_188.6_11837.xsdst ! RUN = 11837 ! NEVT = 3000
FILE = /castor/cern.ch/delphi/MCprod/cern/bhwide101/v98e/188.6/bhwide101_188.6_11838.xsdst ! RUN = 11838 ! NEVT = 3000
FILE = /castor/cern.ch/delphi/MCprod/cern/bhwide101/v98e/188.6/bhwide101_188.6_11839.xsdst ! RUN = 11839 ! NEVT = 3000
FILE = /castor/cern.ch/delphi/MCprod/cern/bhwide101/v98e/188.6/bhwide101_188.6_11840.xsdst ! RUN = 11840 ! NEVT = 3000
FILE = /castor/cern.ch/delphi/MCprod/cern/bhwide101/v98e/188.6/bhwide101_188.6_11841.xsdst ! RUN = 11841 ! NEVT = 3000
FILE = /castor/cern.ch/delphi/MCprod/cern/bhwide101/v98e/188.6/bhwide101_188.6_11842.xsdst ! RUN = 11842 ! NEVT = 3000
FILE = /castor/cern.ch/delphi/MCprod/cern/bhwide101/v98e/188.6/bhwide101_188.6_11843.xsdst ! RUN = 11843 ! NEVT = 3000
FILE = /castor/cern.ch/delphi/MCprod/cern/bhwide101/v98e/188.6/bhwide101_188.6_11844.xsdst ! RUN = 11844 ! NEVT = 3000
FILE = /castor/cern.ch/delphi/MCprod/cern/bhwide101/v98e/188.6/bhwide101_188.6_11845.xsdst ! RUN = 11845 ! NEVT = 3000
FILE = /castor/cern.ch/delphi/MCprod/cern/bhwide101/v98e/188.6/bhwide101_188.6_11846.xsdst ! RUN = 11846 ! NEVT = 3000
FILE = /castor/cern.ch/delphi/MCprod/cern/bhwide101/v98e/188.6/bhwide101_188.6_11847.xsdst ! RUN = 11847 ! NEVT = 3000
FILE = /castor/cern.ch/delphi/MCprod/cern/bhwide101/v98e/188.6/bhwide101_188.6_11848.xsdst ! RUN = 11848 ! NEVT = 3000
FILE = /castor/cern.ch/delphi/MCprod/cern/bhwide101/v98e/188.6/bhwide101_188.6_11849.xsdst ! RUN = 11849 ! NEVT = 3000
FILE = /castor/cern.ch/delphi/MCprod/cern/bhwide101/v98e/188.6/bhwide101_188.6_11850.xsdst ! RUN = 11850 ! NEVT = 2999
FILE = /castor/cern.ch/delphi/MCprod/cern/bhwide101/v98e/188.6/bhwide101_188.6_11851.xsdst ! RUN = 11851 ! NEVT = 3000
FILE = /castor/cern.ch/delphi/MCprod/cern/bhwide101/v98e/188.6/bhwide101_188.6_11852.xsdst ! RUN = 11852 ! NEVT = 3000
FILE = /castor/cern.ch/delphi/MCprod/cern/bhwide101/v98e/188.6/bhwide101_188.6_11853.xsdst ! RUN = 11853 ! NEVT = 3000
FILE = /castor/cern.ch/delphi/MCprod/cern/bhwide101/v98e/188.6/bhwide101_188.6_11854.xsdst ! RUN = 11854 ! NEVT = 3000
FILE = /castor/cern.ch/delphi/MCprod/cern/bhwide101/v98e/188.6/bhwide101_188.6_11855.xsdst ! RUN = 11855 ! NEVT = 3000
FILE = /castor/cern.ch/delphi/MCprod/cern/bhwide101/v98e/188.6/bhwide101_188.6_11856.xsdst ! RUN = 11856 ! NEVT = 3000
FILE = /castor/cern.ch/delphi/MCprod/cern/bhwide101/v98e/188.6/bhwide101_188.6_11857.xsdst ! RUN = 11857 ! NEVT = 3000
FILE = /castor/cern.ch/delphi/MCprod/cern/bhwide101/v98e/188.6/bhwide101_188.6_11858.xsdst ! RUN = 11858 ! NEVT = 3000
FILE = /castor/cern.ch/delphi/MCprod/cern/bhwide101/v98e/188.6/bhwide101_188.6_11859.xsdst ! RUN = 11859 ! NEVT = 3000
FILE = /castor/cern.ch/delphi/MCprod/cern/bhwide101/v98e/188.6/bhwide101_188.6_11860.xsdst ! RUN = 11860 ! NEVT = 3000
FILE = /castor/cern.ch/delphi/MCprod/cern/bhwide101/v98e/188.6/bhwide101_188.6_11861.xsdst ! RUN = 11861 ! NEVT = 3000
FILE = /castor/cern.ch/delphi/MCprod/cern/bhwide101/v98e/188.6/bhwide101_188.6_11862.xsdst ! RUN = 11862 ! NEVT = 3000
FILE = /castor/cern.ch/delphi/MCprod/cern/bhwide101/v98e/188.6/bhwide101_188.6_11863.xsdst ! RUN = 11863 ! NEVT = 3000
FILE = /castor/cern.ch/delphi/MCprod/cern/bhwide101/v98e/188.6/bhwide101_188.6_11864.xsdst ! RUN = 11864 ! NEVT = 3000
FILE = /castor/cern.ch/delphi/MCprod/cern/bhwide101/v98e/188.6/bhwide101_188.6_11865.xsdst ! RUN = 11865 ! NEVT = 3000
FILE = /castor/cern.ch/delphi/MCprod/cern/bhwide101/v98e/188.6/bhwide101_188.6_11866.xsdst ! RUN = 11866 ! NEVT = 3000
FILE = /castor/cern.ch/delphi/MCprod/cern/bhwide101/v98e/188.6/bhwide101_188.6_11867.xsdst ! RUN = 11867 ! NEVT = 3000
FILE = /castor/cern.ch/delphi/MCprod/cern/bhwide101/v98e/188.6/bhwide101_188.6_11868.xsdst ! RUN = 11868 ! NEVT = 3000
FILE = /castor/cern.ch/delphi/MCprod/cern/bhwide101/v98e/188.6/bhwide101_188.6_11869.xsdst ! RUN = 11869 ! NEVT = 3000
FILE = /castor/cern.ch/delphi/MCprod/cern/bhwide101/v98e/188.6/bhwide101_188.6_11870.xsdst ! RUN = 11870 ! NEVT = 2999
FILE = /castor/cern.ch/delphi/MCprod/cern/bhwide101/v98e/188.6/bhwide101_188.6_11871.xsdst ! RUN = 11871 ! NEVT = 3000
FILE = /castor/cern.ch/delphi/MCprod/cern/bhwide101/v98e/188.6/bhwide101_188.6_11872.xsdst ! RUN = 11872 ! NEVT = 3000
FILE = /castor/cern.ch/delphi/MCprod/cern/bhwide101/v98e/188.6/bhwide101_188.6_11873.xsdst ! RUN = 11873 ! NEVT = 3000
FILE = /castor/cern.ch/delphi/MCprod/cern/bhwide101/v98e/188.6/bhwide101_188.6_11874.xsdst ! RUN = 11874 ! NEVT = 3000
FILE = /castor/cern.ch/delphi/MCprod/cern/bhwide101/v98e/188.6/bhwide101_188.6_11875.xsdst ! RUN = 11875 ! NEVT = 3000
FILE = /castor/cern.ch/delphi/MCprod/cern/bhwide101/v98e/188.6/bhwide101_188.6_11876.xsdst ! RUN = 11876 ! NEVT = 3000
FILE = /castor/cern.ch/delphi/MCprod/cern/bhwide101/v98e/188.6/bhwide101_188.6_11877.xsdst ! RUN = 11877 ! NEVT = 3000
FILE = /castor/cern.ch/delphi/MCprod/cern/bhwide101/v98e/188.6/bhwide101_188.6_11878.xsdst ! RUN = 11878 ! NEVT = 3000
FILE = /castor/cern.ch/delphi/MCprod/cern/bhwide101/v98e/188.6/bhwide101_188.6_11879.xsdst ! RUN = 11879 ! NEVT = 3000
