*   Nickname :     raw_bhwide101_e91.25_c97_1l_g
*   Generic Name : //CERN/DELPHI/P01_SIMD/RAW/BHWIDE101/E91.25/CERN/SUMT/C001-50
*   Description :   raw data simulation raw data  done at ecm=91.25 GeV , CERN
*   Comments :     in total 150000 events in 50 files, time stamp: Sun Jul 11 12:41:10 2010
*
*
*
FILE = /castor/cern.ch/delphi/MCprod/cern/bhwide101/v97g/91.25/bhwide101_91.25_50001.fadsim ! RUN = 50001 ! NEVT = 3000
FILE = /castor/cern.ch/delphi/MCprod/cern/bhwide101/v97g/91.25/bhwide101_91.25_50002.fadsim ! RUN = 50002 ! NEVT = 3000
FILE = /castor/cern.ch/delphi/MCprod/cern/bhwide101/v97g/91.25/bhwide101_91.25_50003.fadsim ! RUN = 50003 ! NEVT = 3000
FILE = /castor/cern.ch/delphi/MCprod/cern/bhwide101/v97g/91.25/bhwide101_91.25_50004.fadsim ! RUN = 50004 ! NEVT = 3000
FILE = /castor/cern.ch/delphi/MCprod/cern/bhwide101/v97g/91.25/bhwide101_91.25_50005.fadsim ! RUN = 50005 ! NEVT = 3000
FILE = /castor/cern.ch/delphi/MCprod/cern/bhwide101/v97g/91.25/bhwide101_91.25_50006.fadsim ! RUN = 50006 ! NEVT = 3000
FILE = /castor/cern.ch/delphi/MCprod/cern/bhwide101/v97g/91.25/bhwide101_91.25_50007.fadsim ! RUN = 50007 ! NEVT = 3000
FILE = /castor/cern.ch/delphi/MCprod/cern/bhwide101/v97g/91.25/bhwide101_91.25_50008.fadsim ! RUN = 50008 ! NEVT = 3000
FILE = /castor/cern.ch/delphi/MCprod/cern/bhwide101/v97g/91.25/bhwide101_91.25_50009.fadsim ! RUN = 50009 ! NEVT = 3000
FILE = /castor/cern.ch/delphi/MCprod/cern/bhwide101/v97g/91.25/bhwide101_91.25_50010.fadsim ! RUN = 50010 ! NEVT = 3000
FILE = /castor/cern.ch/delphi/MCprod/cern/bhwide101/v97g/91.25/bhwide101_91.25_50011.fadsim ! RUN = 50011 ! NEVT = 3000
FILE = /castor/cern.ch/delphi/MCprod/cern/bhwide101/v97g/91.25/bhwide101_91.25_50012.fadsim ! RUN = 50012 ! NEVT = 3000
FILE = /castor/cern.ch/delphi/MCprod/cern/bhwide101/v97g/91.25/bhwide101_91.25_50013.fadsim ! RUN = 50013 ! NEVT = 3000
FILE = /castor/cern.ch/delphi/MCprod/cern/bhwide101/v97g/91.25/bhwide101_91.25_50014.fadsim ! RUN = 50014 ! NEVT = 3000
FILE = /castor/cern.ch/delphi/MCprod/cern/bhwide101/v97g/91.25/bhwide101_91.25_50015.fadsim ! RUN = 50015 ! NEVT = 3000
FILE = /castor/cern.ch/delphi/MCprod/cern/bhwide101/v97g/91.25/bhwide101_91.25_50016.fadsim ! RUN = 50016 ! NEVT = 3000
FILE = /castor/cern.ch/delphi/MCprod/cern/bhwide101/v97g/91.25/bhwide101_91.25_50017.fadsim ! RUN = 50017 ! NEVT = 3000
FILE = /castor/cern.ch/delphi/MCprod/cern/bhwide101/v97g/91.25/bhwide101_91.25_50018.fadsim ! RUN = 50018 ! NEVT = 3000
FILE = /castor/cern.ch/delphi/MCprod/cern/bhwide101/v97g/91.25/bhwide101_91.25_50019.fadsim ! RUN = 50019 ! NEVT = 3000
FILE = /castor/cern.ch/delphi/MCprod/cern/bhwide101/v97g/91.25/bhwide101_91.25_50020.fadsim ! RUN = 50020 ! NEVT = 3000
FILE = /castor/cern.ch/delphi/MCprod/cern/bhwide101/v97g/91.25/bhwide101_91.25_50021.fadsim ! RUN = 50021 ! NEVT = 3000
FILE = /castor/cern.ch/delphi/MCprod/cern/bhwide101/v97g/91.25/bhwide101_91.25_50022.fadsim ! RUN = 50022 ! NEVT = 3000
FILE = /castor/cern.ch/delphi/MCprod/cern/bhwide101/v97g/91.25/bhwide101_91.25_50023.fadsim ! RUN = 50023 ! NEVT = 3000
FILE = /castor/cern.ch/delphi/MCprod/cern/bhwide101/v97g/91.25/bhwide101_91.25_50024.fadsim ! RUN = 50024 ! NEVT = 3000
FILE = /castor/cern.ch/delphi/MCprod/cern/bhwide101/v97g/91.25/bhwide101_91.25_50025.fadsim ! RUN = 50025 ! NEVT = 3000
FILE = /castor/cern.ch/delphi/MCprod/cern/bhwide101/v97g/91.25/bhwide101_91.25_50026.fadsim ! RUN = 50026 ! NEVT = 3000
FILE = /castor/cern.ch/delphi/MCprod/cern/bhwide101/v97g/91.25/bhwide101_91.25_50027.fadsim ! RUN = 50027 ! NEVT = 3000
FILE = /castor/cern.ch/delphi/MCprod/cern/bhwide101/v97g/91.25/bhwide101_91.25_50028.fadsim ! RUN = 50028 ! NEVT = 3000
FILE = /castor/cern.ch/delphi/MCprod/cern/bhwide101/v97g/91.25/bhwide101_91.25_50029.fadsim ! RUN = 50029 ! NEVT = 3000
FILE = /castor/cern.ch/delphi/MCprod/cern/bhwide101/v97g/91.25/bhwide101_91.25_50030.fadsim ! RUN = 50030 ! NEVT = 3000
FILE = /castor/cern.ch/delphi/MCprod/cern/bhwide101/v97g/91.25/bhwide101_91.25_50031.fadsim ! RUN = 50031 ! NEVT = 3000
FILE = /castor/cern.ch/delphi/MCprod/cern/bhwide101/v97g/91.25/bhwide101_91.25_50032.fadsim ! RUN = 50032 ! NEVT = 3000
FILE = /castor/cern.ch/delphi/MCprod/cern/bhwide101/v97g/91.25/bhwide101_91.25_50033.fadsim ! RUN = 50033 ! NEVT = 3000
FILE = /castor/cern.ch/delphi/MCprod/cern/bhwide101/v97g/91.25/bhwide101_91.25_50034.fadsim ! RUN = 50034 ! NEVT = 3000
FILE = /castor/cern.ch/delphi/MCprod/cern/bhwide101/v97g/91.25/bhwide101_91.25_50035.fadsim ! RUN = 50035 ! NEVT = 3000
FILE = /castor/cern.ch/delphi/MCprod/cern/bhwide101/v97g/91.25/bhwide101_91.25_50036.fadsim ! RUN = 50036 ! NEVT = 3000
FILE = /castor/cern.ch/delphi/MCprod/cern/bhwide101/v97g/91.25/bhwide101_91.25_50037.fadsim ! RUN = 50037 ! NEVT = 3000
FILE = /castor/cern.ch/delphi/MCprod/cern/bhwide101/v97g/91.25/bhwide101_91.25_50038.fadsim ! RUN = 50038 ! NEVT = 3000
FILE = /castor/cern.ch/delphi/MCprod/cern/bhwide101/v97g/91.25/bhwide101_91.25_50039.fadsim ! RUN = 50039 ! NEVT = 3000
FILE = /castor/cern.ch/delphi/MCprod/cern/bhwide101/v97g/91.25/bhwide101_91.25_50040.fadsim ! RUN = 50040 ! NEVT = 3000
FILE = /castor/cern.ch/delphi/MCprod/cern/bhwide101/v97g/91.25/bhwide101_91.25_50041.fadsim ! RUN = 50041 ! NEVT = 3000
FILE = /castor/cern.ch/delphi/MCprod/cern/bhwide101/v97g/91.25/bhwide101_91.25_50042.fadsim ! RUN = 50042 ! NEVT = 3000
FILE = /castor/cern.ch/delphi/MCprod/cern/bhwide101/v97g/91.25/bhwide101_91.25_50043.fadsim ! RUN = 50043 ! NEVT = 3000
FILE = /castor/cern.ch/delphi/MCprod/cern/bhwide101/v97g/91.25/bhwide101_91.25_50044.fadsim ! RUN = 50044 ! NEVT = 3000
FILE = /castor/cern.ch/delphi/MCprod/cern/bhwide101/v97g/91.25/bhwide101_91.25_50045.fadsim ! RUN = 50045 ! NEVT = 3000
FILE = /castor/cern.ch/delphi/MCprod/cern/bhwide101/v97g/91.25/bhwide101_91.25_50046.fadsim ! RUN = 50046 ! NEVT = 3000
FILE = /castor/cern.ch/delphi/MCprod/cern/bhwide101/v97g/91.25/bhwide101_91.25_50047.fadsim ! RUN = 50047 ! NEVT = 3000
FILE = /castor/cern.ch/delphi/MCprod/cern/bhwide101/v97g/91.25/bhwide101_91.25_50048.fadsim ! RUN = 50048 ! NEVT = 3000
FILE = /castor/cern.ch/delphi/MCprod/cern/bhwide101/v97g/91.25/bhwide101_91.25_50049.fadsim ! RUN = 50049 ! NEVT = 3000
FILE = /castor/cern.ch/delphi/MCprod/cern/bhwide101/v97g/91.25/bhwide101_91.25_50050.fadsim ! RUN = 50050 ! NEVT = 3000
