*
*   Nickname     : xs_bhwide101_e182.7_l97_1l_g1
*   Generic Name : //CERN/DELPHI/P02_SIMD/XSDST/BHWIDE101/E182.7/LYON/SUMT/C001-736
*   Description  :  Extended Short DST simulation 97_g1 done at ecms=182.7 , Lyon
*---
*   Comments     : in total 734472 events in 736 files time stamp: Sun Apr  7 10:18:37 2002
*---
*
*
*
*
*
FILE = /castor/cern.ch/delphi/MCprod/lyon/bhwide101/v97g/182.7/bhwide101_182.7_30001.xsdst ! RUN = 30001 ! NEVT = 1000
FILE = /castor/cern.ch/delphi/MCprod/lyon/bhwide101/v97g/182.7/bhwide101_182.7_30002.xsdst ! RUN = 30002 ! NEVT = 1000
FILE = /castor/cern.ch/delphi/MCprod/lyon/bhwide101/v97g/182.7/bhwide101_182.7_30003.xsdst ! RUN = 30003 ! NEVT = 1000
FILE = /castor/cern.ch/delphi/MCprod/lyon/bhwide101/v97g/182.7/bhwide101_182.7_30004.xsdst ! RUN = 30004 ! NEVT = 1000
FILE = /castor/cern.ch/delphi/MCprod/lyon/bhwide101/v97g/182.7/bhwide101_182.7_30005.xsdst ! RUN = 30005 ! NEVT = 1000
FILE = /castor/cern.ch/delphi/MCprod/lyon/bhwide101/v97g/182.7/bhwide101_182.7_30006.xsdst ! RUN = 30006 ! NEVT = 1000
FILE = /castor/cern.ch/delphi/MCprod/lyon/bhwide101/v97g/182.7/bhwide101_182.7_30007.xsdst ! RUN = 30007 ! NEVT = 1000
FILE = /castor/cern.ch/delphi/MCprod/lyon/bhwide101/v97g/182.7/bhwide101_182.7_30008.xsdst ! RUN = 30008 ! NEVT = 1000
FILE = /castor/cern.ch/delphi/MCprod/lyon/bhwide101/v97g/182.7/bhwide101_182.7_30009.xsdst ! RUN = 30009 ! NEVT = 1000
FILE = /castor/cern.ch/delphi/MCprod/lyon/bhwide101/v97g/182.7/bhwide101_182.7_30010.xsdst ! RUN = 30010 ! NEVT = 1000
FILE = /castor/cern.ch/delphi/MCprod/lyon/bhwide101/v97g/182.7/bhwide101_182.7_30011.xsdst ! RUN = 30011 ! NEVT = 1000
FILE = /castor/cern.ch/delphi/MCprod/lyon/bhwide101/v97g/182.7/bhwide101_182.7_30012.xsdst ! RUN = 30012 ! NEVT = 1000
FILE = /castor/cern.ch/delphi/MCprod/lyon/bhwide101/v97g/182.7/bhwide101_182.7_30013.xsdst ! RUN = 30013 ! NEVT = 1000
FILE = /castor/cern.ch/delphi/MCprod/lyon/bhwide101/v97g/182.7/bhwide101_182.7_30014.xsdst ! RUN = 30014 ! NEVT = 1000
FILE = /castor/cern.ch/delphi/MCprod/lyon/bhwide101/v97g/182.7/bhwide101_182.7_30015.xsdst ! RUN = 30015 ! NEVT = 1000
FILE = /castor/cern.ch/delphi/MCprod/lyon/bhwide101/v97g/182.7/bhwide101_182.7_30016.xsdst ! RUN = 30016 ! NEVT = 1000
FILE = /castor/cern.ch/delphi/MCprod/lyon/bhwide101/v97g/182.7/bhwide101_182.7_30017.xsdst ! RUN = 30017 ! NEVT = 1000
FILE = /castor/cern.ch/delphi/MCprod/lyon/bhwide101/v97g/182.7/bhwide101_182.7_30018.xsdst ! RUN = 30018 ! NEVT = 1000
FILE = /castor/cern.ch/delphi/MCprod/lyon/bhwide101/v97g/182.7/bhwide101_182.7_30019.xsdst ! RUN = 30019 ! NEVT = 1000
FILE = /castor/cern.ch/delphi/MCprod/lyon/bhwide101/v97g/182.7/bhwide101_182.7_30020.xsdst ! RUN = 30020 ! NEVT = 1000
FILE = /castor/cern.ch/delphi/MCprod/lyon/bhwide101/v97g/182.7/bhwide101_182.7_30021.xsdst ! RUN = 30021 ! NEVT = 1000
FILE = /castor/cern.ch/delphi/MCprod/lyon/bhwide101/v97g/182.7/bhwide101_182.7_30022.xsdst ! RUN = 30022 ! NEVT = 1000
FILE = /castor/cern.ch/delphi/MCprod/lyon/bhwide101/v97g/182.7/bhwide101_182.7_30023.xsdst ! RUN = 30023 ! NEVT = 1000
FILE = /castor/cern.ch/delphi/MCprod/lyon/bhwide101/v97g/182.7/bhwide101_182.7_30024.xsdst ! RUN = 30024 ! NEVT = 1000
FILE = /castor/cern.ch/delphi/MCprod/lyon/bhwide101/v97g/182.7/bhwide101_182.7_30025.xsdst ! RUN = 30025 ! NEVT = 1000
FILE = /castor/cern.ch/delphi/MCprod/lyon/bhwide101/v97g/182.7/bhwide101_182.7_30026.xsdst ! RUN = 30026 ! NEVT = 1000
FILE = /castor/cern.ch/delphi/MCprod/lyon/bhwide101/v97g/182.7/bhwide101_182.7_30027.xsdst ! RUN = 30027 ! NEVT = 1000
FILE = /castor/cern.ch/delphi/MCprod/lyon/bhwide101/v97g/182.7/bhwide101_182.7_30028.xsdst ! RUN = 30028 ! NEVT = 1000
FILE = /castor/cern.ch/delphi/MCprod/lyon/bhwide101/v97g/182.7/bhwide101_182.7_30029.xsdst ! RUN = 30029 ! NEVT = 1000
FILE = /castor/cern.ch/delphi/MCprod/lyon/bhwide101/v97g/182.7/bhwide101_182.7_30030.xsdst ! RUN = 30030 ! NEVT = 1000
FILE = /castor/cern.ch/delphi/MCprod/lyon/bhwide101/v97g/182.7/bhwide101_182.7_30031.xsdst ! RUN = 30031 ! NEVT = 1000
FILE = /castor/cern.ch/delphi/MCprod/lyon/bhwide101/v97g/182.7/bhwide101_182.7_30032.xsdst ! RUN = 30032 ! NEVT = 1000
FILE = /castor/cern.ch/delphi/MCprod/lyon/bhwide101/v97g/182.7/bhwide101_182.7_30033.xsdst ! RUN = 30033 ! NEVT = 999
FILE = /castor/cern.ch/delphi/MCprod/lyon/bhwide101/v97g/182.7/bhwide101_182.7_30034.xsdst ! RUN = 30034 ! NEVT = 1000
FILE = /castor/cern.ch/delphi/MCprod/lyon/bhwide101/v97g/182.7/bhwide101_182.7_30035.xsdst ! RUN = 30035 ! NEVT = 1000
FILE = /castor/cern.ch/delphi/MCprod/lyon/bhwide101/v97g/182.7/bhwide101_182.7_30036.xsdst ! RUN = 30036 ! NEVT = 1000
FILE = /castor/cern.ch/delphi/MCprod/lyon/bhwide101/v97g/182.7/bhwide101_182.7_30037.xsdst ! RUN = 30037 ! NEVT = 1000
FILE = /castor/cern.ch/delphi/MCprod/lyon/bhwide101/v97g/182.7/bhwide101_182.7_30038.xsdst ! RUN = 30038 ! NEVT = 1000
FILE = /castor/cern.ch/delphi/MCprod/lyon/bhwide101/v97g/182.7/bhwide101_182.7_30039.xsdst ! RUN = 30039 ! NEVT = 1000
FILE = /castor/cern.ch/delphi/MCprod/lyon/bhwide101/v97g/182.7/bhwide101_182.7_30040.xsdst ! RUN = 30040 ! NEVT = 1000
FILE = /castor/cern.ch/delphi/MCprod/lyon/bhwide101/v97g/182.7/bhwide101_182.7_30041.xsdst ! RUN = 30041 ! NEVT = 1000
FILE = /castor/cern.ch/delphi/MCprod/lyon/bhwide101/v97g/182.7/bhwide101_182.7_30042.xsdst ! RUN = 30042 ! NEVT = 1000
FILE = /castor/cern.ch/delphi/MCprod/lyon/bhwide101/v97g/182.7/bhwide101_182.7_30043.xsdst ! RUN = 30043 ! NEVT = 1000
FILE = /castor/cern.ch/delphi/MCprod/lyon/bhwide101/v97g/182.7/bhwide101_182.7_30044.xsdst ! RUN = 30044 ! NEVT = 1000
FILE = /castor/cern.ch/delphi/MCprod/lyon/bhwide101/v97g/182.7/bhwide101_182.7_30045.xsdst ! RUN = 30045 ! NEVT = 1000
FILE = /castor/cern.ch/delphi/MCprod/lyon/bhwide101/v97g/182.7/bhwide101_182.7_30046.xsdst ! RUN = 30046 ! NEVT = 1000
FILE = /castor/cern.ch/delphi/MCprod/lyon/bhwide101/v97g/182.7/bhwide101_182.7_30047.xsdst ! RUN = 30047 ! NEVT = 1000
FILE = /castor/cern.ch/delphi/MCprod/lyon/bhwide101/v97g/182.7/bhwide101_182.7_30048.xsdst ! RUN = 30048 ! NEVT = 1000
FILE = /castor/cern.ch/delphi/MCprod/lyon/bhwide101/v97g/182.7/bhwide101_182.7_30049.xsdst ! RUN = 30049 ! NEVT = 1000
FILE = /castor/cern.ch/delphi/MCprod/lyon/bhwide101/v97g/182.7/bhwide101_182.7_30050.xsdst ! RUN = 30050 ! NEVT = 1000
FILE = /castor/cern.ch/delphi/MCprod/lyon/bhwide101/v97g/182.7/bhwide101_182.7_30051.xsdst ! RUN = 30051 ! NEVT = 1000
FILE = /castor/cern.ch/delphi/MCprod/lyon/bhwide101/v97g/182.7/bhwide101_182.7_30052.xsdst ! RUN = 30052 ! NEVT = 1000
FILE = /castor/cern.ch/delphi/MCprod/lyon/bhwide101/v97g/182.7/bhwide101_182.7_30053.xsdst ! RUN = 30053 ! NEVT = 1000
FILE = /castor/cern.ch/delphi/MCprod/lyon/bhwide101/v97g/182.7/bhwide101_182.7_30054.xsdst ! RUN = 30054 ! NEVT = 1000
FILE = /castor/cern.ch/delphi/MCprod/lyon/bhwide101/v97g/182.7/bhwide101_182.7_30055.xsdst ! RUN = 30055 ! NEVT = 1000
FILE = /castor/cern.ch/delphi/MCprod/lyon/bhwide101/v97g/182.7/bhwide101_182.7_30057.xsdst ! RUN = 30057 ! NEVT = 1000
FILE = /castor/cern.ch/delphi/MCprod/lyon/bhwide101/v97g/182.7/bhwide101_182.7_30058.xsdst ! RUN = 30058 ! NEVT = 1000
FILE = /castor/cern.ch/delphi/MCprod/lyon/bhwide101/v97g/182.7/bhwide101_182.7_30059.xsdst ! RUN = 30059 ! NEVT = 1000
FILE = /castor/cern.ch/delphi/MCprod/lyon/bhwide101/v97g/182.7/bhwide101_182.7_30060.xsdst ! RUN = 30060 ! NEVT = 1000
FILE = /castor/cern.ch/delphi/MCprod/lyon/bhwide101/v97g/182.7/bhwide101_182.7_30061.xsdst ! RUN = 30061 ! NEVT = 1000
FILE = /castor/cern.ch/delphi/MCprod/lyon/bhwide101/v97g/182.7/bhwide101_182.7_30062.xsdst ! RUN = 30062 ! NEVT = 1000
FILE = /castor/cern.ch/delphi/MCprod/lyon/bhwide101/v97g/182.7/bhwide101_182.7_30063.xsdst ! RUN = 30063 ! NEVT = 1000
FILE = /castor/cern.ch/delphi/MCprod/lyon/bhwide101/v97g/182.7/bhwide101_182.7_30064.xsdst ! RUN = 30064 ! NEVT = 1000
FILE = /castor/cern.ch/delphi/MCprod/lyon/bhwide101/v97g/182.7/bhwide101_182.7_30065.xsdst ! RUN = 30065 ! NEVT = 1000
FILE = /castor/cern.ch/delphi/MCprod/lyon/bhwide101/v97g/182.7/bhwide101_182.7_30066.xsdst ! RUN = 30066 ! NEVT = 1000
FILE = /castor/cern.ch/delphi/MCprod/lyon/bhwide101/v97g/182.7/bhwide101_182.7_30067.xsdst ! RUN = 30067 ! NEVT = 1000
FILE = /castor/cern.ch/delphi/MCprod/lyon/bhwide101/v97g/182.7/bhwide101_182.7_30068.xsdst ! RUN = 30068 ! NEVT = 1000
FILE = /castor/cern.ch/delphi/MCprod/lyon/bhwide101/v97g/182.7/bhwide101_182.7_30069.xsdst ! RUN = 30069 ! NEVT = 1000
FILE = /castor/cern.ch/delphi/MCprod/lyon/bhwide101/v97g/182.7/bhwide101_182.7_30070.xsdst ! RUN = 30070 ! NEVT = 1000
FILE = /castor/cern.ch/delphi/MCprod/lyon/bhwide101/v97g/182.7/bhwide101_182.7_30071.xsdst ! RUN = 30071 ! NEVT = 1000
FILE = /castor/cern.ch/delphi/MCprod/lyon/bhwide101/v97g/182.7/bhwide101_182.7_30072.xsdst ! RUN = 30072 ! NEVT = 1000
FILE = /castor/cern.ch/delphi/MCprod/lyon/bhwide101/v97g/182.7/bhwide101_182.7_30073.xsdst ! RUN = 30073 ! NEVT = 1000
FILE = /castor/cern.ch/delphi/MCprod/lyon/bhwide101/v97g/182.7/bhwide101_182.7_30074.xsdst ! RUN = 30074 ! NEVT = 1000
FILE = /castor/cern.ch/delphi/MCprod/lyon/bhwide101/v97g/182.7/bhwide101_182.7_30075.xsdst ! RUN = 30075 ! NEVT = 1000
FILE = /castor/cern.ch/delphi/MCprod/lyon/bhwide101/v97g/182.7/bhwide101_182.7_30076.xsdst ! RUN = 30076 ! NEVT = 1000
FILE = /castor/cern.ch/delphi/MCprod/lyon/bhwide101/v97g/182.7/bhwide101_182.7_30077.xsdst ! RUN = 30077 ! NEVT = 999
FILE = /castor/cern.ch/delphi/MCprod/lyon/bhwide101/v97g/182.7/bhwide101_182.7_30078.xsdst ! RUN = 30078 ! NEVT = 1000
FILE = /castor/cern.ch/delphi/MCprod/lyon/bhwide101/v97g/182.7/bhwide101_182.7_30079.xsdst ! RUN = 30079 ! NEVT = 1000
FILE = /castor/cern.ch/delphi/MCprod/lyon/bhwide101/v97g/182.7/bhwide101_182.7_30080.xsdst ! RUN = 30080 ! NEVT = 1000
FILE = /castor/cern.ch/delphi/MCprod/lyon/bhwide101/v97g/182.7/bhwide101_182.7_30081.xsdst ! RUN = 30081 ! NEVT = 1000
FILE = /castor/cern.ch/delphi/MCprod/lyon/bhwide101/v97g/182.7/bhwide101_182.7_30082.xsdst ! RUN = 30082 ! NEVT = 1000
FILE = /castor/cern.ch/delphi/MCprod/lyon/bhwide101/v97g/182.7/bhwide101_182.7_30083.xsdst ! RUN = 30083 ! NEVT = 1000
FILE = /castor/cern.ch/delphi/MCprod/lyon/bhwide101/v97g/182.7/bhwide101_182.7_30084.xsdst ! RUN = 30084 ! NEVT = 1000
FILE = /castor/cern.ch/delphi/MCprod/lyon/bhwide101/v97g/182.7/bhwide101_182.7_30085.xsdst ! RUN = 30085 ! NEVT = 1000
FILE = /castor/cern.ch/delphi/MCprod/lyon/bhwide101/v97g/182.7/bhwide101_182.7_30086.xsdst ! RUN = 30086 ! NEVT = 1000
FILE = /castor/cern.ch/delphi/MCprod/lyon/bhwide101/v97g/182.7/bhwide101_182.7_30087.xsdst ! RUN = 30087 ! NEVT = 1000
FILE = /castor/cern.ch/delphi/MCprod/lyon/bhwide101/v97g/182.7/bhwide101_182.7_30088.xsdst ! RUN = 30088 ! NEVT = 1000
FILE = /castor/cern.ch/delphi/MCprod/lyon/bhwide101/v97g/182.7/bhwide101_182.7_30089.xsdst ! RUN = 30089 ! NEVT = 1000
FILE = /castor/cern.ch/delphi/MCprod/lyon/bhwide101/v97g/182.7/bhwide101_182.7_30090.xsdst ! RUN = 30090 ! NEVT = 1000
FILE = /castor/cern.ch/delphi/MCprod/lyon/bhwide101/v97g/182.7/bhwide101_182.7_30091.xsdst ! RUN = 30091 ! NEVT = 1000
FILE = /castor/cern.ch/delphi/MCprod/lyon/bhwide101/v97g/182.7/bhwide101_182.7_30092.xsdst ! RUN = 30092 ! NEVT = 1000
FILE = /castor/cern.ch/delphi/MCprod/lyon/bhwide101/v97g/182.7/bhwide101_182.7_30093.xsdst ! RUN = 30093 ! NEVT = 1000
FILE = /castor/cern.ch/delphi/MCprod/lyon/bhwide101/v97g/182.7/bhwide101_182.7_30094.xsdst ! RUN = 30094 ! NEVT = 1000
FILE = /castor/cern.ch/delphi/MCprod/lyon/bhwide101/v97g/182.7/bhwide101_182.7_30095.xsdst ! RUN = 30095 ! NEVT = 1000
FILE = /castor/cern.ch/delphi/MCprod/lyon/bhwide101/v97g/182.7/bhwide101_182.7_30096.xsdst ! RUN = 30096 ! NEVT = 1000
FILE = /castor/cern.ch/delphi/MCprod/lyon/bhwide101/v97g/182.7/bhwide101_182.7_30097.xsdst ! RUN = 30097 ! NEVT = 1000
FILE = /castor/cern.ch/delphi/MCprod/lyon/bhwide101/v97g/182.7/bhwide101_182.7_30098.xsdst ! RUN = 30098 ! NEVT = 1000
FILE = /castor/cern.ch/delphi/MCprod/lyon/bhwide101/v97g/182.7/bhwide101_182.7_30099.xsdst ! RUN = 30099 ! NEVT = 1000
FILE = /castor/cern.ch/delphi/MCprod/lyon/bhwide101/v97g/182.7/bhwide101_182.7_30100.xsdst ! RUN = 30100 ! NEVT = 1000
FILE = /castor/cern.ch/delphi/MCprod/lyon/bhwide101/v97g/182.7/bhwide101_182.7_30101.xsdst ! RUN = 30101 ! NEVT = 1000
FILE = /castor/cern.ch/delphi/MCprod/lyon/bhwide101/v97g/182.7/bhwide101_182.7_30103.xsdst ! RUN = 30103 ! NEVT = 1000
FILE = /castor/cern.ch/delphi/MCprod/lyon/bhwide101/v97g/182.7/bhwide101_182.7_30104.xsdst ! RUN = 30104 ! NEVT = 1000
FILE = /castor/cern.ch/delphi/MCprod/lyon/bhwide101/v97g/182.7/bhwide101_182.7_30105.xsdst ! RUN = 30105 ! NEVT = 1000
FILE = /castor/cern.ch/delphi/MCprod/lyon/bhwide101/v97g/182.7/bhwide101_182.7_30106.xsdst ! RUN = 30106 ! NEVT = 1000
FILE = /castor/cern.ch/delphi/MCprod/lyon/bhwide101/v97g/182.7/bhwide101_182.7_30107.xsdst ! RUN = 30107 ! NEVT = 1000
FILE = /castor/cern.ch/delphi/MCprod/lyon/bhwide101/v97g/182.7/bhwide101_182.7_30108.xsdst ! RUN = 30108 ! NEVT = 1000
FILE = /castor/cern.ch/delphi/MCprod/lyon/bhwide101/v97g/182.7/bhwide101_182.7_30109.xsdst ! RUN = 30109 ! NEVT = 1000
FILE = /castor/cern.ch/delphi/MCprod/lyon/bhwide101/v97g/182.7/bhwide101_182.7_30110.xsdst ! RUN = 30110 ! NEVT = 1000
FILE = /castor/cern.ch/delphi/MCprod/lyon/bhwide101/v97g/182.7/bhwide101_182.7_30111.xsdst ! RUN = 30111 ! NEVT = 1000
FILE = /castor/cern.ch/delphi/MCprod/lyon/bhwide101/v97g/182.7/bhwide101_182.7_30112.xsdst ! RUN = 30112 ! NEVT = 1000
FILE = /castor/cern.ch/delphi/MCprod/lyon/bhwide101/v97g/182.7/bhwide101_182.7_30113.xsdst ! RUN = 30113 ! NEVT = 1000
FILE = /castor/cern.ch/delphi/MCprod/lyon/bhwide101/v97g/182.7/bhwide101_182.7_30114.xsdst ! RUN = 30114 ! NEVT = 1000
FILE = /castor/cern.ch/delphi/MCprod/lyon/bhwide101/v97g/182.7/bhwide101_182.7_30115.xsdst ! RUN = 30115 ! NEVT = 1000
FILE = /castor/cern.ch/delphi/MCprod/lyon/bhwide101/v97g/182.7/bhwide101_182.7_30116.xsdst ! RUN = 30116 ! NEVT = 1000
FILE = /castor/cern.ch/delphi/MCprod/lyon/bhwide101/v97g/182.7/bhwide101_182.7_30117.xsdst ! RUN = 30117 ! NEVT = 1000
FILE = /castor/cern.ch/delphi/MCprod/lyon/bhwide101/v97g/182.7/bhwide101_182.7_30118.xsdst ! RUN = 30118 ! NEVT = 1000
FILE = /castor/cern.ch/delphi/MCprod/lyon/bhwide101/v97g/182.7/bhwide101_182.7_30119.xsdst ! RUN = 30119 ! NEVT = 1000
FILE = /castor/cern.ch/delphi/MCprod/lyon/bhwide101/v97g/182.7/bhwide101_182.7_30120.xsdst ! RUN = 30120 ! NEVT = 1000
FILE = /castor/cern.ch/delphi/MCprod/lyon/bhwide101/v97g/182.7/bhwide101_182.7_30121.xsdst ! RUN = 30121 ! NEVT = 1000
FILE = /castor/cern.ch/delphi/MCprod/lyon/bhwide101/v97g/182.7/bhwide101_182.7_30122.xsdst ! RUN = 30122 ! NEVT = 1000
FILE = /castor/cern.ch/delphi/MCprod/lyon/bhwide101/v97g/182.7/bhwide101_182.7_30123.xsdst ! RUN = 30123 ! NEVT = 1000
FILE = /castor/cern.ch/delphi/MCprod/lyon/bhwide101/v97g/182.7/bhwide101_182.7_30124.xsdst ! RUN = 30124 ! NEVT = 1000
FILE = /castor/cern.ch/delphi/MCprod/lyon/bhwide101/v97g/182.7/bhwide101_182.7_30125.xsdst ! RUN = 30125 ! NEVT = 1000
FILE = /castor/cern.ch/delphi/MCprod/lyon/bhwide101/v97g/182.7/bhwide101_182.7_30126.xsdst ! RUN = 30126 ! NEVT = 1000
FILE = /castor/cern.ch/delphi/MCprod/lyon/bhwide101/v97g/182.7/bhwide101_182.7_30127.xsdst ! RUN = 30127 ! NEVT = 1000
FILE = /castor/cern.ch/delphi/MCprod/lyon/bhwide101/v97g/182.7/bhwide101_182.7_30128.xsdst ! RUN = 30128 ! NEVT = 1000
FILE = /castor/cern.ch/delphi/MCprod/lyon/bhwide101/v97g/182.7/bhwide101_182.7_30129.xsdst ! RUN = 30129 ! NEVT = 1000
FILE = /castor/cern.ch/delphi/MCprod/lyon/bhwide101/v97g/182.7/bhwide101_182.7_30130.xsdst ! RUN = 30130 ! NEVT = 1000
FILE = /castor/cern.ch/delphi/MCprod/lyon/bhwide101/v97g/182.7/bhwide101_182.7_30131.xsdst ! RUN = 30131 ! NEVT = 999
FILE = /castor/cern.ch/delphi/MCprod/lyon/bhwide101/v97g/182.7/bhwide101_182.7_30132.xsdst ! RUN = 30132 ! NEVT = 1000
FILE = /castor/cern.ch/delphi/MCprod/lyon/bhwide101/v97g/182.7/bhwide101_182.7_30133.xsdst ! RUN = 30133 ! NEVT = 1000
FILE = /castor/cern.ch/delphi/MCprod/lyon/bhwide101/v97g/182.7/bhwide101_182.7_30134.xsdst ! RUN = 30134 ! NEVT = 1000
FILE = /castor/cern.ch/delphi/MCprod/lyon/bhwide101/v97g/182.7/bhwide101_182.7_30135.xsdst ! RUN = 30135 ! NEVT = 1000
FILE = /castor/cern.ch/delphi/MCprod/lyon/bhwide101/v97g/182.7/bhwide101_182.7_30136.xsdst ! RUN = 30136 ! NEVT = 1000
FILE = /castor/cern.ch/delphi/MCprod/lyon/bhwide101/v97g/182.7/bhwide101_182.7_30137.xsdst ! RUN = 30137 ! NEVT = 1000
FILE = /castor/cern.ch/delphi/MCprod/lyon/bhwide101/v97g/182.7/bhwide101_182.7_30138.xsdst ! RUN = 30138 ! NEVT = 1000
FILE = /castor/cern.ch/delphi/MCprod/lyon/bhwide101/v97g/182.7/bhwide101_182.7_30139.xsdst ! RUN = 30139 ! NEVT = 1000
FILE = /castor/cern.ch/delphi/MCprod/lyon/bhwide101/v97g/182.7/bhwide101_182.7_30140.xsdst ! RUN = 30140 ! NEVT = 1000
FILE = /castor/cern.ch/delphi/MCprod/lyon/bhwide101/v97g/182.7/bhwide101_182.7_30141.xsdst ! RUN = 30141 ! NEVT = 1000
FILE = /castor/cern.ch/delphi/MCprod/lyon/bhwide101/v97g/182.7/bhwide101_182.7_30142.xsdst ! RUN = 30142 ! NEVT = 1000
FILE = /castor/cern.ch/delphi/MCprod/lyon/bhwide101/v97g/182.7/bhwide101_182.7_30143.xsdst ! RUN = 30143 ! NEVT = 1000
FILE = /castor/cern.ch/delphi/MCprod/lyon/bhwide101/v97g/182.7/bhwide101_182.7_30144.xsdst ! RUN = 30144 ! NEVT = 1000
FILE = /castor/cern.ch/delphi/MCprod/lyon/bhwide101/v97g/182.7/bhwide101_182.7_30145.xsdst ! RUN = 30145 ! NEVT = 1000
FILE = /castor/cern.ch/delphi/MCprod/lyon/bhwide101/v97g/182.7/bhwide101_182.7_30146.xsdst ! RUN = 30146 ! NEVT = 1000
FILE = /castor/cern.ch/delphi/MCprod/lyon/bhwide101/v97g/182.7/bhwide101_182.7_30148.xsdst ! RUN = 30148 ! NEVT = 1000
FILE = /castor/cern.ch/delphi/MCprod/lyon/bhwide101/v97g/182.7/bhwide101_182.7_30149.xsdst ! RUN = 30149 ! NEVT = 1000
FILE = /castor/cern.ch/delphi/MCprod/lyon/bhwide101/v97g/182.7/bhwide101_182.7_30150.xsdst ! RUN = 30150 ! NEVT = 1000
FILE = /castor/cern.ch/delphi/MCprod/lyon/bhwide101/v97g/182.7/bhwide101_182.7_30151.xsdst ! RUN = 30151 ! NEVT = 1000
FILE = /castor/cern.ch/delphi/MCprod/lyon/bhwide101/v97g/182.7/bhwide101_182.7_30152.xsdst ! RUN = 30152 ! NEVT = 1000
FILE = /castor/cern.ch/delphi/MCprod/lyon/bhwide101/v97g/182.7/bhwide101_182.7_30153.xsdst ! RUN = 30153 ! NEVT = 999
FILE = /castor/cern.ch/delphi/MCprod/lyon/bhwide101/v97g/182.7/bhwide101_182.7_30154.xsdst ! RUN = 30154 ! NEVT = 1000
FILE = /castor/cern.ch/delphi/MCprod/lyon/bhwide101/v97g/182.7/bhwide101_182.7_30155.xsdst ! RUN = 30155 ! NEVT = 1000
FILE = /castor/cern.ch/delphi/MCprod/lyon/bhwide101/v97g/182.7/bhwide101_182.7_30156.xsdst ! RUN = 30156 ! NEVT = 1000
FILE = /castor/cern.ch/delphi/MCprod/lyon/bhwide101/v97g/182.7/bhwide101_182.7_30157.xsdst ! RUN = 30157 ! NEVT = 1000
FILE = /castor/cern.ch/delphi/MCprod/lyon/bhwide101/v97g/182.7/bhwide101_182.7_30158.xsdst ! RUN = 30158 ! NEVT = 1000
FILE = /castor/cern.ch/delphi/MCprod/lyon/bhwide101/v97g/182.7/bhwide101_182.7_30159.xsdst ! RUN = 30159 ! NEVT = 1000
FILE = /castor/cern.ch/delphi/MCprod/lyon/bhwide101/v97g/182.7/bhwide101_182.7_30160.xsdst ! RUN = 30160 ! NEVT = 1000
FILE = /castor/cern.ch/delphi/MCprod/lyon/bhwide101/v97g/182.7/bhwide101_182.7_30161.xsdst ! RUN = 30161 ! NEVT = 1000
FILE = /castor/cern.ch/delphi/MCprod/lyon/bhwide101/v97g/182.7/bhwide101_182.7_30162.xsdst ! RUN = 30162 ! NEVT = 1000
FILE = /castor/cern.ch/delphi/MCprod/lyon/bhwide101/v97g/182.7/bhwide101_182.7_30163.xsdst ! RUN = 30163 ! NEVT = 1000
FILE = /castor/cern.ch/delphi/MCprod/lyon/bhwide101/v97g/182.7/bhwide101_182.7_30164.xsdst ! RUN = 30164 ! NEVT = 1000
FILE = /castor/cern.ch/delphi/MCprod/lyon/bhwide101/v97g/182.7/bhwide101_182.7_30165.xsdst ! RUN = 30165 ! NEVT = 1000
FILE = /castor/cern.ch/delphi/MCprod/lyon/bhwide101/v97g/182.7/bhwide101_182.7_30166.xsdst ! RUN = 30166 ! NEVT = 1000
FILE = /castor/cern.ch/delphi/MCprod/lyon/bhwide101/v97g/182.7/bhwide101_182.7_30167.xsdst ! RUN = 30167 ! NEVT = 1000
FILE = /castor/cern.ch/delphi/MCprod/lyon/bhwide101/v97g/182.7/bhwide101_182.7_30168.xsdst ! RUN = 30168 ! NEVT = 1000
FILE = /castor/cern.ch/delphi/MCprod/lyon/bhwide101/v97g/182.7/bhwide101_182.7_30169.xsdst ! RUN = 30169 ! NEVT = 1000
FILE = /castor/cern.ch/delphi/MCprod/lyon/bhwide101/v97g/182.7/bhwide101_182.7_30170.xsdst ! RUN = 30170 ! NEVT = 1000
FILE = /castor/cern.ch/delphi/MCprod/lyon/bhwide101/v97g/182.7/bhwide101_182.7_30171.xsdst ! RUN = 30171 ! NEVT = 1000
FILE = /castor/cern.ch/delphi/MCprod/lyon/bhwide101/v97g/182.7/bhwide101_182.7_30172.xsdst ! RUN = 30172 ! NEVT = 1000
FILE = /castor/cern.ch/delphi/MCprod/lyon/bhwide101/v97g/182.7/bhwide101_182.7_30173.xsdst ! RUN = 30173 ! NEVT = 1000
FILE = /castor/cern.ch/delphi/MCprod/lyon/bhwide101/v97g/182.7/bhwide101_182.7_30174.xsdst ! RUN = 30174 ! NEVT = 1000
FILE = /castor/cern.ch/delphi/MCprod/lyon/bhwide101/v97g/182.7/bhwide101_182.7_30175.xsdst ! RUN = 30175 ! NEVT = 1000
FILE = /castor/cern.ch/delphi/MCprod/lyon/bhwide101/v97g/182.7/bhwide101_182.7_30176.xsdst ! RUN = 30176 ! NEVT = 1000
FILE = /castor/cern.ch/delphi/MCprod/lyon/bhwide101/v97g/182.7/bhwide101_182.7_30177.xsdst ! RUN = 30177 ! NEVT = 1000
FILE = /castor/cern.ch/delphi/MCprod/lyon/bhwide101/v97g/182.7/bhwide101_182.7_30178.xsdst ! RUN = 30178 ! NEVT = 1000
FILE = /castor/cern.ch/delphi/MCprod/lyon/bhwide101/v97g/182.7/bhwide101_182.7_30179.xsdst ! RUN = 30179 ! NEVT = 1000
FILE = /castor/cern.ch/delphi/MCprod/lyon/bhwide101/v97g/182.7/bhwide101_182.7_30180.xsdst ! RUN = 30180 ! NEVT = 1000
FILE = /castor/cern.ch/delphi/MCprod/lyon/bhwide101/v97g/182.7/bhwide101_182.7_30181.xsdst ! RUN = 30181 ! NEVT = 1000
FILE = /castor/cern.ch/delphi/MCprod/lyon/bhwide101/v97g/182.7/bhwide101_182.7_30182.xsdst ! RUN = 30182 ! NEVT = 1000
FILE = /castor/cern.ch/delphi/MCprod/lyon/bhwide101/v97g/182.7/bhwide101_182.7_30183.xsdst ! RUN = 30183 ! NEVT = 1000
FILE = /castor/cern.ch/delphi/MCprod/lyon/bhwide101/v97g/182.7/bhwide101_182.7_30184.xsdst ! RUN = 30184 ! NEVT = 1000
FILE = /castor/cern.ch/delphi/MCprod/lyon/bhwide101/v97g/182.7/bhwide101_182.7_30185.xsdst ! RUN = 30185 ! NEVT = 1000
FILE = /castor/cern.ch/delphi/MCprod/lyon/bhwide101/v97g/182.7/bhwide101_182.7_30186.xsdst ! RUN = 30186 ! NEVT = 1000
FILE = /castor/cern.ch/delphi/MCprod/lyon/bhwide101/v97g/182.7/bhwide101_182.7_30187.xsdst ! RUN = 30187 ! NEVT = 1000
FILE = /castor/cern.ch/delphi/MCprod/lyon/bhwide101/v97g/182.7/bhwide101_182.7_30188.xsdst ! RUN = 30188 ! NEVT = 1000
FILE = /castor/cern.ch/delphi/MCprod/lyon/bhwide101/v97g/182.7/bhwide101_182.7_30189.xsdst ! RUN = 30189 ! NEVT = 1000
FILE = /castor/cern.ch/delphi/MCprod/lyon/bhwide101/v97g/182.7/bhwide101_182.7_30191.xsdst ! RUN = 30191 ! NEVT = 1000
FILE = /castor/cern.ch/delphi/MCprod/lyon/bhwide101/v97g/182.7/bhwide101_182.7_30192.xsdst ! RUN = 30192 ! NEVT = 1000
FILE = /castor/cern.ch/delphi/MCprod/lyon/bhwide101/v97g/182.7/bhwide101_182.7_30193.xsdst ! RUN = 30193 ! NEVT = 1000
FILE = /castor/cern.ch/delphi/MCprod/lyon/bhwide101/v97g/182.7/bhwide101_182.7_30194.xsdst ! RUN = 30194 ! NEVT = 1000
FILE = /castor/cern.ch/delphi/MCprod/lyon/bhwide101/v97g/182.7/bhwide101_182.7_30195.xsdst ! RUN = 30195 ! NEVT = 1000
FILE = /castor/cern.ch/delphi/MCprod/lyon/bhwide101/v97g/182.7/bhwide101_182.7_30196.xsdst ! RUN = 30196 ! NEVT = 1000
FILE = /castor/cern.ch/delphi/MCprod/lyon/bhwide101/v97g/182.7/bhwide101_182.7_30197.xsdst ! RUN = 30197 ! NEVT = 1000
FILE = /castor/cern.ch/delphi/MCprod/lyon/bhwide101/v97g/182.7/bhwide101_182.7_30198.xsdst ! RUN = 30198 ! NEVT = 999
FILE = /castor/cern.ch/delphi/MCprod/lyon/bhwide101/v97g/182.7/bhwide101_182.7_30199.xsdst ! RUN = 30199 ! NEVT = 1000
FILE = /castor/cern.ch/delphi/MCprod/lyon/bhwide101/v97g/182.7/bhwide101_182.7_30200.xsdst ! RUN = 30200 ! NEVT = 1000
FILE = /castor/cern.ch/delphi/MCprod/lyon/bhwide101/v97g/182.7/bhwide101_182.7_30201.xsdst ! RUN = 30201 ! NEVT = 1000
FILE = /castor/cern.ch/delphi/MCprod/lyon/bhwide101/v97g/182.7/bhwide101_182.7_30202.xsdst ! RUN = 30202 ! NEVT = 1000
FILE = /castor/cern.ch/delphi/MCprod/lyon/bhwide101/v97g/182.7/bhwide101_182.7_30203.xsdst ! RUN = 30203 ! NEVT = 1000
FILE = /castor/cern.ch/delphi/MCprod/lyon/bhwide101/v97g/182.7/bhwide101_182.7_30204.xsdst ! RUN = 30204 ! NEVT = 1000
FILE = /castor/cern.ch/delphi/MCprod/lyon/bhwide101/v97g/182.7/bhwide101_182.7_30205.xsdst ! RUN = 30205 ! NEVT = 1000
FILE = /castor/cern.ch/delphi/MCprod/lyon/bhwide101/v97g/182.7/bhwide101_182.7_30206.xsdst ! RUN = 30206 ! NEVT = 1000
FILE = /castor/cern.ch/delphi/MCprod/lyon/bhwide101/v97g/182.7/bhwide101_182.7_30207.xsdst ! RUN = 30207 ! NEVT = 1000
FILE = /castor/cern.ch/delphi/MCprod/lyon/bhwide101/v97g/182.7/bhwide101_182.7_30208.xsdst ! RUN = 30208 ! NEVT = 1000
FILE = /castor/cern.ch/delphi/MCprod/lyon/bhwide101/v97g/182.7/bhwide101_182.7_30209.xsdst ! RUN = 30209 ! NEVT = 1000
FILE = /castor/cern.ch/delphi/MCprod/lyon/bhwide101/v97g/182.7/bhwide101_182.7_30210.xsdst ! RUN = 30210 ! NEVT = 1000
FILE = /castor/cern.ch/delphi/MCprod/lyon/bhwide101/v97g/182.7/bhwide101_182.7_30211.xsdst ! RUN = 30211 ! NEVT = 1000
FILE = /castor/cern.ch/delphi/MCprod/lyon/bhwide101/v97g/182.7/bhwide101_182.7_30212.xsdst ! RUN = 30212 ! NEVT = 1000
FILE = /castor/cern.ch/delphi/MCprod/lyon/bhwide101/v97g/182.7/bhwide101_182.7_30213.xsdst ! RUN = 30213 ! NEVT = 1000
FILE = /castor/cern.ch/delphi/MCprod/lyon/bhwide101/v97g/182.7/bhwide101_182.7_30214.xsdst ! RUN = 30214 ! NEVT = 1000
FILE = /castor/cern.ch/delphi/MCprod/lyon/bhwide101/v97g/182.7/bhwide101_182.7_30215.xsdst ! RUN = 30215 ! NEVT = 1000
FILE = /castor/cern.ch/delphi/MCprod/lyon/bhwide101/v97g/182.7/bhwide101_182.7_30217.xsdst ! RUN = 30217 ! NEVT = 1000
FILE = /castor/cern.ch/delphi/MCprod/lyon/bhwide101/v97g/182.7/bhwide101_182.7_30218.xsdst ! RUN = 30218 ! NEVT = 1000
FILE = /castor/cern.ch/delphi/MCprod/lyon/bhwide101/v97g/182.7/bhwide101_182.7_30219.xsdst ! RUN = 30219 ! NEVT = 1000
FILE = /castor/cern.ch/delphi/MCprod/lyon/bhwide101/v97g/182.7/bhwide101_182.7_30220.xsdst ! RUN = 30220 ! NEVT = 1000
FILE = /castor/cern.ch/delphi/MCprod/lyon/bhwide101/v97g/182.7/bhwide101_182.7_30221.xsdst ! RUN = 30221 ! NEVT = 1000
FILE = /castor/cern.ch/delphi/MCprod/lyon/bhwide101/v97g/182.7/bhwide101_182.7_30222.xsdst ! RUN = 30222 ! NEVT = 1000
FILE = /castor/cern.ch/delphi/MCprod/lyon/bhwide101/v97g/182.7/bhwide101_182.7_30223.xsdst ! RUN = 30223 ! NEVT = 1000
FILE = /castor/cern.ch/delphi/MCprod/lyon/bhwide101/v97g/182.7/bhwide101_182.7_30224.xsdst ! RUN = 30224 ! NEVT = 1000
FILE = /castor/cern.ch/delphi/MCprod/lyon/bhwide101/v97g/182.7/bhwide101_182.7_30225.xsdst ! RUN = 30225 ! NEVT = 1000
FILE = /castor/cern.ch/delphi/MCprod/lyon/bhwide101/v97g/182.7/bhwide101_182.7_30226.xsdst ! RUN = 30226 ! NEVT = 1000
FILE = /castor/cern.ch/delphi/MCprod/lyon/bhwide101/v97g/182.7/bhwide101_182.7_30227.xsdst ! RUN = 30227 ! NEVT = 1000
FILE = /castor/cern.ch/delphi/MCprod/lyon/bhwide101/v97g/182.7/bhwide101_182.7_30228.xsdst ! RUN = 30228 ! NEVT = 1000
FILE = /castor/cern.ch/delphi/MCprod/lyon/bhwide101/v97g/182.7/bhwide101_182.7_30231.xsdst ! RUN = 30231 ! NEVT = 1000
FILE = /castor/cern.ch/delphi/MCprod/lyon/bhwide101/v97g/182.7/bhwide101_182.7_30232.xsdst ! RUN = 30232 ! NEVT = 1000
FILE = /castor/cern.ch/delphi/MCprod/lyon/bhwide101/v97g/182.7/bhwide101_182.7_30233.xsdst ! RUN = 30233 ! NEVT = 1000
FILE = /castor/cern.ch/delphi/MCprod/lyon/bhwide101/v97g/182.7/bhwide101_182.7_30234.xsdst ! RUN = 30234 ! NEVT = 1000
FILE = /castor/cern.ch/delphi/MCprod/lyon/bhwide101/v97g/182.7/bhwide101_182.7_30235.xsdst ! RUN = 30235 ! NEVT = 1000
FILE = /castor/cern.ch/delphi/MCprod/lyon/bhwide101/v97g/182.7/bhwide101_182.7_30236.xsdst ! RUN = 30236 ! NEVT = 1000
FILE = /castor/cern.ch/delphi/MCprod/lyon/bhwide101/v97g/182.7/bhwide101_182.7_30238.xsdst ! RUN = 30238 ! NEVT = 1000
FILE = /castor/cern.ch/delphi/MCprod/lyon/bhwide101/v97g/182.7/bhwide101_182.7_30239.xsdst ! RUN = 30239 ! NEVT = 1000
FILE = /castor/cern.ch/delphi/MCprod/lyon/bhwide101/v97g/182.7/bhwide101_182.7_30240.xsdst ! RUN = 30240 ! NEVT = 1000
FILE = /castor/cern.ch/delphi/MCprod/lyon/bhwide101/v97g/182.7/bhwide101_182.7_30241.xsdst ! RUN = 30241 ! NEVT = 1000
FILE = /castor/cern.ch/delphi/MCprod/lyon/bhwide101/v97g/182.7/bhwide101_182.7_30242.xsdst ! RUN = 30242 ! NEVT = 1000
FILE = /castor/cern.ch/delphi/MCprod/lyon/bhwide101/v97g/182.7/bhwide101_182.7_30243.xsdst ! RUN = 30243 ! NEVT = 1000
FILE = /castor/cern.ch/delphi/MCprod/lyon/bhwide101/v97g/182.7/bhwide101_182.7_30244.xsdst ! RUN = 30244 ! NEVT = 1000
FILE = /castor/cern.ch/delphi/MCprod/lyon/bhwide101/v97g/182.7/bhwide101_182.7_30245.xsdst ! RUN = 30245 ! NEVT = 1000
FILE = /castor/cern.ch/delphi/MCprod/lyon/bhwide101/v97g/182.7/bhwide101_182.7_30246.xsdst ! RUN = 30246 ! NEVT = 1000
FILE = /castor/cern.ch/delphi/MCprod/lyon/bhwide101/v97g/182.7/bhwide101_182.7_30247.xsdst ! RUN = 30247 ! NEVT = 1000
FILE = /castor/cern.ch/delphi/MCprod/lyon/bhwide101/v97g/182.7/bhwide101_182.7_30248.xsdst ! RUN = 30248 ! NEVT = 1000
FILE = /castor/cern.ch/delphi/MCprod/lyon/bhwide101/v97g/182.7/bhwide101_182.7_30249.xsdst ! RUN = 30249 ! NEVT = 1000
FILE = /castor/cern.ch/delphi/MCprod/lyon/bhwide101/v97g/182.7/bhwide101_182.7_30250.xsdst ! RUN = 30250 ! NEVT = 1000
FILE = /castor/cern.ch/delphi/MCprod/lyon/bhwide101/v97g/182.7/bhwide101_182.7_30252.xsdst ! RUN = 30252 ! NEVT = 1000
FILE = /castor/cern.ch/delphi/MCprod/lyon/bhwide101/v97g/182.7/bhwide101_182.7_30253.xsdst ! RUN = 30253 ! NEVT = 1000
FILE = /castor/cern.ch/delphi/MCprod/lyon/bhwide101/v97g/182.7/bhwide101_182.7_30254.xsdst ! RUN = 30254 ! NEVT = 1000
FILE = /castor/cern.ch/delphi/MCprod/lyon/bhwide101/v97g/182.7/bhwide101_182.7_30255.xsdst ! RUN = 30255 ! NEVT = 1000
FILE = /castor/cern.ch/delphi/MCprod/lyon/bhwide101/v97g/182.7/bhwide101_182.7_30256.xsdst ! RUN = 30256 ! NEVT = 1000
FILE = /castor/cern.ch/delphi/MCprod/lyon/bhwide101/v97g/182.7/bhwide101_182.7_30257.xsdst ! RUN = 30257 ! NEVT = 1000
FILE = /castor/cern.ch/delphi/MCprod/lyon/bhwide101/v97g/182.7/bhwide101_182.7_30258.xsdst ! RUN = 30258 ! NEVT = 1000
FILE = /castor/cern.ch/delphi/MCprod/lyon/bhwide101/v97g/182.7/bhwide101_182.7_30259.xsdst ! RUN = 30259 ! NEVT = 1000
FILE = /castor/cern.ch/delphi/MCprod/lyon/bhwide101/v97g/182.7/bhwide101_182.7_30260.xsdst ! RUN = 30260 ! NEVT = 999
FILE = /castor/cern.ch/delphi/MCprod/lyon/bhwide101/v97g/182.7/bhwide101_182.7_30261.xsdst ! RUN = 30261 ! NEVT = 1000
FILE = /castor/cern.ch/delphi/MCprod/lyon/bhwide101/v97g/182.7/bhwide101_182.7_30262.xsdst ! RUN = 30262 ! NEVT = 1000
FILE = /castor/cern.ch/delphi/MCprod/lyon/bhwide101/v97g/182.7/bhwide101_182.7_30263.xsdst ! RUN = 30263 ! NEVT = 1000
FILE = /castor/cern.ch/delphi/MCprod/lyon/bhwide101/v97g/182.7/bhwide101_182.7_30264.xsdst ! RUN = 30264 ! NEVT = 1000
FILE = /castor/cern.ch/delphi/MCprod/lyon/bhwide101/v97g/182.7/bhwide101_182.7_30265.xsdst ! RUN = 30265 ! NEVT = 1000
FILE = /castor/cern.ch/delphi/MCprod/lyon/bhwide101/v97g/182.7/bhwide101_182.7_30266.xsdst ! RUN = 30266 ! NEVT = 1000
FILE = /castor/cern.ch/delphi/MCprod/lyon/bhwide101/v97g/182.7/bhwide101_182.7_30267.xsdst ! RUN = 30267 ! NEVT = 1000
FILE = /castor/cern.ch/delphi/MCprod/lyon/bhwide101/v97g/182.7/bhwide101_182.7_30268.xsdst ! RUN = 30268 ! NEVT = 1000
FILE = /castor/cern.ch/delphi/MCprod/lyon/bhwide101/v97g/182.7/bhwide101_182.7_30269.xsdst ! RUN = 30269 ! NEVT = 1000
FILE = /castor/cern.ch/delphi/MCprod/lyon/bhwide101/v97g/182.7/bhwide101_182.7_30270.xsdst ! RUN = 30270 ! NEVT = 999
FILE = /castor/cern.ch/delphi/MCprod/lyon/bhwide101/v97g/182.7/bhwide101_182.7_30271.xsdst ! RUN = 30271 ! NEVT = 1000
FILE = /castor/cern.ch/delphi/MCprod/lyon/bhwide101/v97g/182.7/bhwide101_182.7_30272.xsdst ! RUN = 30272 ! NEVT = 1000
FILE = /castor/cern.ch/delphi/MCprod/lyon/bhwide101/v97g/182.7/bhwide101_182.7_30273.xsdst ! RUN = 30273 ! NEVT = 1000
FILE = /castor/cern.ch/delphi/MCprod/lyon/bhwide101/v97g/182.7/bhwide101_182.7_30274.xsdst ! RUN = 30274 ! NEVT = 1000
FILE = /castor/cern.ch/delphi/MCprod/lyon/bhwide101/v97g/182.7/bhwide101_182.7_30275.xsdst ! RUN = 30275 ! NEVT = 1000
FILE = /castor/cern.ch/delphi/MCprod/lyon/bhwide101/v97g/182.7/bhwide101_182.7_30276.xsdst ! RUN = 30276 ! NEVT = 1000
FILE = /castor/cern.ch/delphi/MCprod/lyon/bhwide101/v97g/182.7/bhwide101_182.7_30277.xsdst ! RUN = 30277 ! NEVT = 1000
FILE = /castor/cern.ch/delphi/MCprod/lyon/bhwide101/v97g/182.7/bhwide101_182.7_30278.xsdst ! RUN = 30278 ! NEVT = 1000
FILE = /castor/cern.ch/delphi/MCprod/lyon/bhwide101/v97g/182.7/bhwide101_182.7_30279.xsdst ! RUN = 30279 ! NEVT = 1000
FILE = /castor/cern.ch/delphi/MCprod/lyon/bhwide101/v97g/182.7/bhwide101_182.7_30280.xsdst ! RUN = 30280 ! NEVT = 1000
FILE = /castor/cern.ch/delphi/MCprod/lyon/bhwide101/v97g/182.7/bhwide101_182.7_30281.xsdst ! RUN = 30281 ! NEVT = 1000
FILE = /castor/cern.ch/delphi/MCprod/lyon/bhwide101/v97g/182.7/bhwide101_182.7_30282.xsdst ! RUN = 30282 ! NEVT = 1000
FILE = /castor/cern.ch/delphi/MCprod/lyon/bhwide101/v97g/182.7/bhwide101_182.7_30283.xsdst ! RUN = 30283 ! NEVT = 1000
FILE = /castor/cern.ch/delphi/MCprod/lyon/bhwide101/v97g/182.7/bhwide101_182.7_30284.xsdst ! RUN = 30284 ! NEVT = 1000
FILE = /castor/cern.ch/delphi/MCprod/lyon/bhwide101/v97g/182.7/bhwide101_182.7_30285.xsdst ! RUN = 30285 ! NEVT = 1000
FILE = /castor/cern.ch/delphi/MCprod/lyon/bhwide101/v97g/182.7/bhwide101_182.7_30286.xsdst ! RUN = 30286 ! NEVT = 1000
FILE = /castor/cern.ch/delphi/MCprod/lyon/bhwide101/v97g/182.7/bhwide101_182.7_30287.xsdst ! RUN = 30287 ! NEVT = 1000
FILE = /castor/cern.ch/delphi/MCprod/lyon/bhwide101/v97g/182.7/bhwide101_182.7_30288.xsdst ! RUN = 30288 ! NEVT = 1000
FILE = /castor/cern.ch/delphi/MCprod/lyon/bhwide101/v97g/182.7/bhwide101_182.7_30289.xsdst ! RUN = 30289 ! NEVT = 1000
FILE = /castor/cern.ch/delphi/MCprod/lyon/bhwide101/v97g/182.7/bhwide101_182.7_30290.xsdst ! RUN = 30290 ! NEVT = 999
FILE = /castor/cern.ch/delphi/MCprod/lyon/bhwide101/v97g/182.7/bhwide101_182.7_30291.xsdst ! RUN = 30291 ! NEVT = 999
FILE = /castor/cern.ch/delphi/MCprod/lyon/bhwide101/v97g/182.7/bhwide101_182.7_30292.xsdst ! RUN = 30292 ! NEVT = 1000
FILE = /castor/cern.ch/delphi/MCprod/lyon/bhwide101/v97g/182.7/bhwide101_182.7_30293.xsdst ! RUN = 30293 ! NEVT = 1000
FILE = /castor/cern.ch/delphi/MCprod/lyon/bhwide101/v97g/182.7/bhwide101_182.7_30294.xsdst ! RUN = 30294 ! NEVT = 1000
FILE = /castor/cern.ch/delphi/MCprod/lyon/bhwide101/v97g/182.7/bhwide101_182.7_30295.xsdst ! RUN = 30295 ! NEVT = 1000
FILE = /castor/cern.ch/delphi/MCprod/lyon/bhwide101/v97g/182.7/bhwide101_182.7_30296.xsdst ! RUN = 30296 ! NEVT = 1000
FILE = /castor/cern.ch/delphi/MCprod/lyon/bhwide101/v97g/182.7/bhwide101_182.7_30297.xsdst ! RUN = 30297 ! NEVT = 1000
FILE = /castor/cern.ch/delphi/MCprod/lyon/bhwide101/v97g/182.7/bhwide101_182.7_30298.xsdst ! RUN = 30298 ! NEVT = 1000
FILE = /castor/cern.ch/delphi/MCprod/lyon/bhwide101/v97g/182.7/bhwide101_182.7_30299.xsdst ! RUN = 30299 ! NEVT = 1000
FILE = /castor/cern.ch/delphi/MCprod/lyon/bhwide101/v97g/182.7/bhwide101_182.7_30300.xsdst ! RUN = 30300 ! NEVT = 1000
FILE = /castor/cern.ch/delphi/MCprod/lyon/bhwide101/v97g/182.7/bhwide101_182.7_30301.xsdst ! RUN = 30301 ! NEVT = 1000
FILE = /castor/cern.ch/delphi/MCprod/lyon/bhwide101/v97g/182.7/bhwide101_182.7_30302.xsdst ! RUN = 30302 ! NEVT = 1000
FILE = /castor/cern.ch/delphi/MCprod/lyon/bhwide101/v97g/182.7/bhwide101_182.7_30303.xsdst ! RUN = 30303 ! NEVT = 1000
FILE = /castor/cern.ch/delphi/MCprod/lyon/bhwide101/v97g/182.7/bhwide101_182.7_30304.xsdst ! RUN = 30304 ! NEVT = 1000
FILE = /castor/cern.ch/delphi/MCprod/lyon/bhwide101/v97g/182.7/bhwide101_182.7_30305.xsdst ! RUN = 30305 ! NEVT = 1000
FILE = /castor/cern.ch/delphi/MCprod/lyon/bhwide101/v97g/182.7/bhwide101_182.7_30306.xsdst ! RUN = 30306 ! NEVT = 1000
FILE = /castor/cern.ch/delphi/MCprod/lyon/bhwide101/v97g/182.7/bhwide101_182.7_30307.xsdst ! RUN = 30307 ! NEVT = 1000
FILE = /castor/cern.ch/delphi/MCprod/lyon/bhwide101/v97g/182.7/bhwide101_182.7_30308.xsdst ! RUN = 30308 ! NEVT = 1000
FILE = /castor/cern.ch/delphi/MCprod/lyon/bhwide101/v97g/182.7/bhwide101_182.7_30309.xsdst ! RUN = 30309 ! NEVT = 1000
FILE = /castor/cern.ch/delphi/MCprod/lyon/bhwide101/v97g/182.7/bhwide101_182.7_30310.xsdst ! RUN = 30310 ! NEVT = 1000
FILE = /castor/cern.ch/delphi/MCprod/lyon/bhwide101/v97g/182.7/bhwide101_182.7_30311.xsdst ! RUN = 30311 ! NEVT = 1000
FILE = /castor/cern.ch/delphi/MCprod/lyon/bhwide101/v97g/182.7/bhwide101_182.7_30312.xsdst ! RUN = 30312 ! NEVT = 1000
FILE = /castor/cern.ch/delphi/MCprod/lyon/bhwide101/v97g/182.7/bhwide101_182.7_30313.xsdst ! RUN = 30313 ! NEVT = 999
FILE = /castor/cern.ch/delphi/MCprod/lyon/bhwide101/v97g/182.7/bhwide101_182.7_30314.xsdst ! RUN = 30314 ! NEVT = 1000
FILE = /castor/cern.ch/delphi/MCprod/lyon/bhwide101/v97g/182.7/bhwide101_182.7_30315.xsdst ! RUN = 30315 ! NEVT = 1000
FILE = /castor/cern.ch/delphi/MCprod/lyon/bhwide101/v97g/182.7/bhwide101_182.7_30316.xsdst ! RUN = 30316 ! NEVT = 1000
FILE = /castor/cern.ch/delphi/MCprod/lyon/bhwide101/v97g/182.7/bhwide101_182.7_30317.xsdst ! RUN = 30317 ! NEVT = 1000
FILE = /castor/cern.ch/delphi/MCprod/lyon/bhwide101/v97g/182.7/bhwide101_182.7_30318.xsdst ! RUN = 30318 ! NEVT = 1000
FILE = /castor/cern.ch/delphi/MCprod/lyon/bhwide101/v97g/182.7/bhwide101_182.7_30319.xsdst ! RUN = 30319 ! NEVT = 1000
FILE = /castor/cern.ch/delphi/MCprod/lyon/bhwide101/v97g/182.7/bhwide101_182.7_30320.xsdst ! RUN = 30320 ! NEVT = 1000
FILE = /castor/cern.ch/delphi/MCprod/lyon/bhwide101/v97g/182.7/bhwide101_182.7_30321.xsdst ! RUN = 30321 ! NEVT = 1000
FILE = /castor/cern.ch/delphi/MCprod/lyon/bhwide101/v97g/182.7/bhwide101_182.7_30322.xsdst ! RUN = 30322 ! NEVT = 1000
FILE = /castor/cern.ch/delphi/MCprod/lyon/bhwide101/v97g/182.7/bhwide101_182.7_30323.xsdst ! RUN = 30323 ! NEVT = 1000
FILE = /castor/cern.ch/delphi/MCprod/lyon/bhwide101/v97g/182.7/bhwide101_182.7_30324.xsdst ! RUN = 30324 ! NEVT = 1000
FILE = /castor/cern.ch/delphi/MCprod/lyon/bhwide101/v97g/182.7/bhwide101_182.7_30325.xsdst ! RUN = 30325 ! NEVT = 1000
FILE = /castor/cern.ch/delphi/MCprod/lyon/bhwide101/v97g/182.7/bhwide101_182.7_30326.xsdst ! RUN = 30326 ! NEVT = 1000
FILE = /castor/cern.ch/delphi/MCprod/lyon/bhwide101/v97g/182.7/bhwide101_182.7_30327.xsdst ! RUN = 30327 ! NEVT = 1000
FILE = /castor/cern.ch/delphi/MCprod/lyon/bhwide101/v97g/182.7/bhwide101_182.7_30328.xsdst ! RUN = 30328 ! NEVT = 1000
FILE = /castor/cern.ch/delphi/MCprod/lyon/bhwide101/v97g/182.7/bhwide101_182.7_30329.xsdst ! RUN = 30329 ! NEVT = 1000
FILE = /castor/cern.ch/delphi/MCprod/lyon/bhwide101/v97g/182.7/bhwide101_182.7_30330.xsdst ! RUN = 30330 ! NEVT = 1000
FILE = /castor/cern.ch/delphi/MCprod/lyon/bhwide101/v97g/182.7/bhwide101_182.7_30331.xsdst ! RUN = 30331 ! NEVT = 1000
FILE = /castor/cern.ch/delphi/MCprod/lyon/bhwide101/v97g/182.7/bhwide101_182.7_30332.xsdst ! RUN = 30332 ! NEVT = 1000
FILE = /castor/cern.ch/delphi/MCprod/lyon/bhwide101/v97g/182.7/bhwide101_182.7_30333.xsdst ! RUN = 30333 ! NEVT = 1000
FILE = /castor/cern.ch/delphi/MCprod/lyon/bhwide101/v97g/182.7/bhwide101_182.7_30334.xsdst ! RUN = 30334 ! NEVT = 1000
FILE = /castor/cern.ch/delphi/MCprod/lyon/bhwide101/v97g/182.7/bhwide101_182.7_30335.xsdst ! RUN = 30335 ! NEVT = 999
FILE = /castor/cern.ch/delphi/MCprod/lyon/bhwide101/v97g/182.7/bhwide101_182.7_30336.xsdst ! RUN = 30336 ! NEVT = 1000
FILE = /castor/cern.ch/delphi/MCprod/lyon/bhwide101/v97g/182.7/bhwide101_182.7_30337.xsdst ! RUN = 30337 ! NEVT = 1000
FILE = /castor/cern.ch/delphi/MCprod/lyon/bhwide101/v97g/182.7/bhwide101_182.7_30338.xsdst ! RUN = 30338 ! NEVT = 1000
FILE = /castor/cern.ch/delphi/MCprod/lyon/bhwide101/v97g/182.7/bhwide101_182.7_30339.xsdst ! RUN = 30339 ! NEVT = 1000
FILE = /castor/cern.ch/delphi/MCprod/lyon/bhwide101/v97g/182.7/bhwide101_182.7_30340.xsdst ! RUN = 30340 ! NEVT = 1000
FILE = /castor/cern.ch/delphi/MCprod/lyon/bhwide101/v97g/182.7/bhwide101_182.7_30341.xsdst ! RUN = 30341 ! NEVT = 1000
FILE = /castor/cern.ch/delphi/MCprod/lyon/bhwide101/v97g/182.7/bhwide101_182.7_30342.xsdst ! RUN = 30342 ! NEVT = 1000
FILE = /castor/cern.ch/delphi/MCprod/lyon/bhwide101/v97g/182.7/bhwide101_182.7_30343.xsdst ! RUN = 30343 ! NEVT = 1000
FILE = /castor/cern.ch/delphi/MCprod/lyon/bhwide101/v97g/182.7/bhwide101_182.7_30344.xsdst ! RUN = 30344 ! NEVT = 1000
FILE = /castor/cern.ch/delphi/MCprod/lyon/bhwide101/v97g/182.7/bhwide101_182.7_30345.xsdst ! RUN = 30345 ! NEVT = 1000
FILE = /castor/cern.ch/delphi/MCprod/lyon/bhwide101/v97g/182.7/bhwide101_182.7_30346.xsdst ! RUN = 30346 ! NEVT = 1000
FILE = /castor/cern.ch/delphi/MCprod/lyon/bhwide101/v97g/182.7/bhwide101_182.7_30347.xsdst ! RUN = 30347 ! NEVT = 1000
FILE = /castor/cern.ch/delphi/MCprod/lyon/bhwide101/v97g/182.7/bhwide101_182.7_30348.xsdst ! RUN = 30348 ! NEVT = 1000
FILE = /castor/cern.ch/delphi/MCprod/lyon/bhwide101/v97g/182.7/bhwide101_182.7_30349.xsdst ! RUN = 30349 ! NEVT = 1000
FILE = /castor/cern.ch/delphi/MCprod/lyon/bhwide101/v97g/182.7/bhwide101_182.7_30350.xsdst ! RUN = 30350 ! NEVT = 1000
FILE = /castor/cern.ch/delphi/MCprod/lyon/bhwide101/v97g/182.7/bhwide101_182.7_30351.xsdst ! RUN = 30351 ! NEVT = 1000
FILE = /castor/cern.ch/delphi/MCprod/lyon/bhwide101/v97g/182.7/bhwide101_182.7_30352.xsdst ! RUN = 30352 ! NEVT = 1000
FILE = /castor/cern.ch/delphi/MCprod/lyon/bhwide101/v97g/182.7/bhwide101_182.7_30353.xsdst ! RUN = 30353 ! NEVT = 1000
FILE = /castor/cern.ch/delphi/MCprod/lyon/bhwide101/v97g/182.7/bhwide101_182.7_30354.xsdst ! RUN = 30354 ! NEVT = 1000
FILE = /castor/cern.ch/delphi/MCprod/lyon/bhwide101/v97g/182.7/bhwide101_182.7_30355.xsdst ! RUN = 30355 ! NEVT = 1000
FILE = /castor/cern.ch/delphi/MCprod/lyon/bhwide101/v97g/182.7/bhwide101_182.7_30356.xsdst ! RUN = 30356 ! NEVT = 1000
FILE = /castor/cern.ch/delphi/MCprod/lyon/bhwide101/v97g/182.7/bhwide101_182.7_30357.xsdst ! RUN = 30357 ! NEVT = 1000
FILE = /castor/cern.ch/delphi/MCprod/lyon/bhwide101/v97g/182.7/bhwide101_182.7_30358.xsdst ! RUN = 30358 ! NEVT = 1000
FILE = /castor/cern.ch/delphi/MCprod/lyon/bhwide101/v97g/182.7/bhwide101_182.7_30359.xsdst ! RUN = 30359 ! NEVT = 1000
FILE = /castor/cern.ch/delphi/MCprod/lyon/bhwide101/v97g/182.7/bhwide101_182.7_30360.xsdst ! RUN = 30360 ! NEVT = 1000
FILE = /castor/cern.ch/delphi/MCprod/lyon/bhwide101/v97g/182.7/bhwide101_182.7_30361.xsdst ! RUN = 30361 ! NEVT = 1000
FILE = /castor/cern.ch/delphi/MCprod/lyon/bhwide101/v97g/182.7/bhwide101_182.7_30362.xsdst ! RUN = 30362 ! NEVT = 1000
FILE = /castor/cern.ch/delphi/MCprod/lyon/bhwide101/v97g/182.7/bhwide101_182.7_30363.xsdst ! RUN = 30363 ! NEVT = 999
FILE = /castor/cern.ch/delphi/MCprod/lyon/bhwide101/v97g/182.7/bhwide101_182.7_30364.xsdst ! RUN = 30364 ! NEVT = 1000
FILE = /castor/cern.ch/delphi/MCprod/lyon/bhwide101/v97g/182.7/bhwide101_182.7_30365.xsdst ! RUN = 30365 ! NEVT = 1000
FILE = /castor/cern.ch/delphi/MCprod/lyon/bhwide101/v97g/182.7/bhwide101_182.7_30366.xsdst ! RUN = 30366 ! NEVT = 1000
FILE = /castor/cern.ch/delphi/MCprod/lyon/bhwide101/v97g/182.7/bhwide101_182.7_30367.xsdst ! RUN = 30367 ! NEVT = 1000
FILE = /castor/cern.ch/delphi/MCprod/lyon/bhwide101/v97g/182.7/bhwide101_182.7_30368.xsdst ! RUN = 30368 ! NEVT = 999
FILE = /castor/cern.ch/delphi/MCprod/lyon/bhwide101/v97g/182.7/bhwide101_182.7_30369.xsdst ! RUN = 30369 ! NEVT = 1000
FILE = /castor/cern.ch/delphi/MCprod/lyon/bhwide101/v97g/182.7/bhwide101_182.7_30370.xsdst ! RUN = 30370 ! NEVT = 1000
FILE = /castor/cern.ch/delphi/MCprod/lyon/bhwide101/v97g/182.7/bhwide101_182.7_30371.xsdst ! RUN = 30371 ! NEVT = 1000
FILE = /castor/cern.ch/delphi/MCprod/lyon/bhwide101/v97g/182.7/bhwide101_182.7_30372.xsdst ! RUN = 30372 ! NEVT = 1000
FILE = /castor/cern.ch/delphi/MCprod/lyon/bhwide101/v97g/182.7/bhwide101_182.7_30373.xsdst ! RUN = 30373 ! NEVT = 1000
FILE = /castor/cern.ch/delphi/MCprod/lyon/bhwide101/v97g/182.7/bhwide101_182.7_30374.xsdst ! RUN = 30374 ! NEVT = 1000
FILE = /castor/cern.ch/delphi/MCprod/lyon/bhwide101/v97g/182.7/bhwide101_182.7_30375.xsdst ! RUN = 30375 ! NEVT = 1000
FILE = /castor/cern.ch/delphi/MCprod/lyon/bhwide101/v97g/182.7/bhwide101_182.7_30376.xsdst ! RUN = 30376 ! NEVT = 1000
FILE = /castor/cern.ch/delphi/MCprod/lyon/bhwide101/v97g/182.7/bhwide101_182.7_30377.xsdst ! RUN = 30377 ! NEVT = 1000
FILE = /castor/cern.ch/delphi/MCprod/lyon/bhwide101/v97g/182.7/bhwide101_182.7_30378.xsdst ! RUN = 30378 ! NEVT = 1000
FILE = /castor/cern.ch/delphi/MCprod/lyon/bhwide101/v97g/182.7/bhwide101_182.7_30379.xsdst ! RUN = 30379 ! NEVT = 1000
FILE = /castor/cern.ch/delphi/MCprod/lyon/bhwide101/v97g/182.7/bhwide101_182.7_30380.xsdst ! RUN = 30380 ! NEVT = 1000
FILE = /castor/cern.ch/delphi/MCprod/lyon/bhwide101/v97g/182.7/bhwide101_182.7_30381.xsdst ! RUN = 30381 ! NEVT = 1000
FILE = /castor/cern.ch/delphi/MCprod/lyon/bhwide101/v97g/182.7/bhwide101_182.7_30382.xsdst ! RUN = 30382 ! NEVT = 1000
FILE = /castor/cern.ch/delphi/MCprod/lyon/bhwide101/v97g/182.7/bhwide101_182.7_30383.xsdst ! RUN = 30383 ! NEVT = 1000
FILE = /castor/cern.ch/delphi/MCprod/lyon/bhwide101/v97g/182.7/bhwide101_182.7_30384.xsdst ! RUN = 30384 ! NEVT = 1000
FILE = /castor/cern.ch/delphi/MCprod/lyon/bhwide101/v97g/182.7/bhwide101_182.7_30385.xsdst ! RUN = 30385 ! NEVT = 1000
FILE = /castor/cern.ch/delphi/MCprod/lyon/bhwide101/v97g/182.7/bhwide101_182.7_30386.xsdst ! RUN = 30386 ! NEVT = 999
FILE = /castor/cern.ch/delphi/MCprod/lyon/bhwide101/v97g/182.7/bhwide101_182.7_30387.xsdst ! RUN = 30387 ! NEVT = 1000
FILE = /castor/cern.ch/delphi/MCprod/lyon/bhwide101/v97g/182.7/bhwide101_182.7_30388.xsdst ! RUN = 30388 ! NEVT = 1000
FILE = /castor/cern.ch/delphi/MCprod/lyon/bhwide101/v97g/182.7/bhwide101_182.7_30389.xsdst ! RUN = 30389 ! NEVT = 1000
FILE = /castor/cern.ch/delphi/MCprod/lyon/bhwide101/v97g/182.7/bhwide101_182.7_30390.xsdst ! RUN = 30390 ! NEVT = 1000
FILE = /castor/cern.ch/delphi/MCprod/lyon/bhwide101/v97g/182.7/bhwide101_182.7_30391.xsdst ! RUN = 30391 ! NEVT = 1000
FILE = /castor/cern.ch/delphi/MCprod/lyon/bhwide101/v97g/182.7/bhwide101_182.7_30392.xsdst ! RUN = 30392 ! NEVT = 1000
FILE = /castor/cern.ch/delphi/MCprod/lyon/bhwide101/v97g/182.7/bhwide101_182.7_30393.xsdst ! RUN = 30393 ! NEVT = 1000
FILE = /castor/cern.ch/delphi/MCprod/lyon/bhwide101/v97g/182.7/bhwide101_182.7_30394.xsdst ! RUN = 30394 ! NEVT = 1000
FILE = /castor/cern.ch/delphi/MCprod/lyon/bhwide101/v97g/182.7/bhwide101_182.7_30395.xsdst ! RUN = 30395 ! NEVT = 1000
FILE = /castor/cern.ch/delphi/MCprod/lyon/bhwide101/v97g/182.7/bhwide101_182.7_30396.xsdst ! RUN = 30396 ! NEVT = 1000
FILE = /castor/cern.ch/delphi/MCprod/lyon/bhwide101/v97g/182.7/bhwide101_182.7_30397.xsdst ! RUN = 30397 ! NEVT = 1000
FILE = /castor/cern.ch/delphi/MCprod/lyon/bhwide101/v97g/182.7/bhwide101_182.7_30398.xsdst ! RUN = 30398 ! NEVT = 1000
FILE = /castor/cern.ch/delphi/MCprod/lyon/bhwide101/v97g/182.7/bhwide101_182.7_30399.xsdst ! RUN = 30399 ! NEVT = 1000
FILE = /castor/cern.ch/delphi/MCprod/lyon/bhwide101/v97g/182.7/bhwide101_182.7_30400.xsdst ! RUN = 30400 ! NEVT = 1000
FILE = /castor/cern.ch/delphi/MCprod/lyon/bhwide101/v97g/182.7/bhwide101_182.7_30401.xsdst ! RUN = 30401 ! NEVT = 1000
FILE = /castor/cern.ch/delphi/MCprod/lyon/bhwide101/v97g/182.7/bhwide101_182.7_30402.xsdst ! RUN = 30402 ! NEVT = 1000
FILE = /castor/cern.ch/delphi/MCprod/lyon/bhwide101/v97g/182.7/bhwide101_182.7_30403.xsdst ! RUN = 30403 ! NEVT = 1000
FILE = /castor/cern.ch/delphi/MCprod/lyon/bhwide101/v97g/182.7/bhwide101_182.7_30404.xsdst ! RUN = 30404 ! NEVT = 1000
FILE = /castor/cern.ch/delphi/MCprod/lyon/bhwide101/v97g/182.7/bhwide101_182.7_30405.xsdst ! RUN = 30405 ! NEVT = 1000
FILE = /castor/cern.ch/delphi/MCprod/lyon/bhwide101/v97g/182.7/bhwide101_182.7_30406.xsdst ! RUN = 30406 ! NEVT = 1000
FILE = /castor/cern.ch/delphi/MCprod/lyon/bhwide101/v97g/182.7/bhwide101_182.7_30407.xsdst ! RUN = 30407 ! NEVT = 1000
FILE = /castor/cern.ch/delphi/MCprod/lyon/bhwide101/v97g/182.7/bhwide101_182.7_30408.xsdst ! RUN = 30408 ! NEVT = 1000
FILE = /castor/cern.ch/delphi/MCprod/lyon/bhwide101/v97g/182.7/bhwide101_182.7_30409.xsdst ! RUN = 30409 ! NEVT = 1000
FILE = /castor/cern.ch/delphi/MCprod/lyon/bhwide101/v97g/182.7/bhwide101_182.7_30410.xsdst ! RUN = 30410 ! NEVT = 1000
FILE = /castor/cern.ch/delphi/MCprod/lyon/bhwide101/v97g/182.7/bhwide101_182.7_30412.xsdst ! RUN = 30412 ! NEVT = 1000
FILE = /castor/cern.ch/delphi/MCprod/lyon/bhwide101/v97g/182.7/bhwide101_182.7_30413.xsdst ! RUN = 30413 ! NEVT = 1000
FILE = /castor/cern.ch/delphi/MCprod/lyon/bhwide101/v97g/182.7/bhwide101_182.7_30414.xsdst ! RUN = 30414 ! NEVT = 1000
FILE = /castor/cern.ch/delphi/MCprod/lyon/bhwide101/v97g/182.7/bhwide101_182.7_30415.xsdst ! RUN = 30415 ! NEVT = 1000
FILE = /castor/cern.ch/delphi/MCprod/lyon/bhwide101/v97g/182.7/bhwide101_182.7_30416.xsdst ! RUN = 30416 ! NEVT = 1000
FILE = /castor/cern.ch/delphi/MCprod/lyon/bhwide101/v97g/182.7/bhwide101_182.7_30417.xsdst ! RUN = 30417 ! NEVT = 1000
FILE = /castor/cern.ch/delphi/MCprod/lyon/bhwide101/v97g/182.7/bhwide101_182.7_30418.xsdst ! RUN = 30418 ! NEVT = 1000
FILE = /castor/cern.ch/delphi/MCprod/lyon/bhwide101/v97g/182.7/bhwide101_182.7_30419.xsdst ! RUN = 30419 ! NEVT = 1000
FILE = /castor/cern.ch/delphi/MCprod/lyon/bhwide101/v97g/182.7/bhwide101_182.7_30420.xsdst ! RUN = 30420 ! NEVT = 1000
FILE = /castor/cern.ch/delphi/MCprod/lyon/bhwide101/v97g/182.7/bhwide101_182.7_30421.xsdst ! RUN = 30421 ! NEVT = 1000
FILE = /castor/cern.ch/delphi/MCprod/lyon/bhwide101/v97g/182.7/bhwide101_182.7_30422.xsdst ! RUN = 30422 ! NEVT = 1000
FILE = /castor/cern.ch/delphi/MCprod/lyon/bhwide101/v97g/182.7/bhwide101_182.7_30423.xsdst ! RUN = 30423 ! NEVT = 1000
FILE = /castor/cern.ch/delphi/MCprod/lyon/bhwide101/v97g/182.7/bhwide101_182.7_30424.xsdst ! RUN = 30424 ! NEVT = 1000
FILE = /castor/cern.ch/delphi/MCprod/lyon/bhwide101/v97g/182.7/bhwide101_182.7_30425.xsdst ! RUN = 30425 ! NEVT = 1000
FILE = /castor/cern.ch/delphi/MCprod/lyon/bhwide101/v97g/182.7/bhwide101_182.7_30426.xsdst ! RUN = 30426 ! NEVT = 1000
FILE = /castor/cern.ch/delphi/MCprod/lyon/bhwide101/v97g/182.7/bhwide101_182.7_30427.xsdst ! RUN = 30427 ! NEVT = 1000
FILE = /castor/cern.ch/delphi/MCprod/lyon/bhwide101/v97g/182.7/bhwide101_182.7_30428.xsdst ! RUN = 30428 ! NEVT = 1000
FILE = /castor/cern.ch/delphi/MCprod/lyon/bhwide101/v97g/182.7/bhwide101_182.7_30429.xsdst ! RUN = 30429 ! NEVT = 1000
FILE = /castor/cern.ch/delphi/MCprod/lyon/bhwide101/v97g/182.7/bhwide101_182.7_30430.xsdst ! RUN = 30430 ! NEVT = 1000
FILE = /castor/cern.ch/delphi/MCprod/lyon/bhwide101/v97g/182.7/bhwide101_182.7_30431.xsdst ! RUN = 30431 ! NEVT = 1000
FILE = /castor/cern.ch/delphi/MCprod/lyon/bhwide101/v97g/182.7/bhwide101_182.7_30432.xsdst ! RUN = 30432 ! NEVT = 1000
FILE = /castor/cern.ch/delphi/MCprod/lyon/bhwide101/v97g/182.7/bhwide101_182.7_30433.xsdst ! RUN = 30433 ! NEVT = 1000
FILE = /castor/cern.ch/delphi/MCprod/lyon/bhwide101/v97g/182.7/bhwide101_182.7_30434.xsdst ! RUN = 30434 ! NEVT = 1000
FILE = /castor/cern.ch/delphi/MCprod/lyon/bhwide101/v97g/182.7/bhwide101_182.7_30435.xsdst ! RUN = 30435 ! NEVT = 1000
FILE = /castor/cern.ch/delphi/MCprod/lyon/bhwide101/v97g/182.7/bhwide101_182.7_30436.xsdst ! RUN = 30436 ! NEVT = 1000
FILE = /castor/cern.ch/delphi/MCprod/lyon/bhwide101/v97g/182.7/bhwide101_182.7_30437.xsdst ! RUN = 30437 ! NEVT = 1000
FILE = /castor/cern.ch/delphi/MCprod/lyon/bhwide101/v97g/182.7/bhwide101_182.7_30438.xsdst ! RUN = 30438 ! NEVT = 1000
FILE = /castor/cern.ch/delphi/MCprod/lyon/bhwide101/v97g/182.7/bhwide101_182.7_30439.xsdst ! RUN = 30439 ! NEVT = 1000
FILE = /castor/cern.ch/delphi/MCprod/lyon/bhwide101/v97g/182.7/bhwide101_182.7_30440.xsdst ! RUN = 30440 ! NEVT = 1000
FILE = /castor/cern.ch/delphi/MCprod/lyon/bhwide101/v97g/182.7/bhwide101_182.7_30441.xsdst ! RUN = 30441 ! NEVT = 1000
FILE = /castor/cern.ch/delphi/MCprod/lyon/bhwide101/v97g/182.7/bhwide101_182.7_30442.xsdst ! RUN = 30442 ! NEVT = 1000
FILE = /castor/cern.ch/delphi/MCprod/lyon/bhwide101/v97g/182.7/bhwide101_182.7_30443.xsdst ! RUN = 30443 ! NEVT = 1000
FILE = /castor/cern.ch/delphi/MCprod/lyon/bhwide101/v97g/182.7/bhwide101_182.7_30444.xsdst ! RUN = 30444 ! NEVT = 1000
FILE = /castor/cern.ch/delphi/MCprod/lyon/bhwide101/v97g/182.7/bhwide101_182.7_30445.xsdst ! RUN = 30445 ! NEVT = 1000
FILE = /castor/cern.ch/delphi/MCprod/lyon/bhwide101/v97g/182.7/bhwide101_182.7_30446.xsdst ! RUN = 30446 ! NEVT = 1000
FILE = /castor/cern.ch/delphi/MCprod/lyon/bhwide101/v97g/182.7/bhwide101_182.7_30447.xsdst ! RUN = 30447 ! NEVT = 1000
FILE = /castor/cern.ch/delphi/MCprod/lyon/bhwide101/v97g/182.7/bhwide101_182.7_30448.xsdst ! RUN = 30448 ! NEVT = 1000
FILE = /castor/cern.ch/delphi/MCprod/lyon/bhwide101/v97g/182.7/bhwide101_182.7_30449.xsdst ! RUN = 30449 ! NEVT = 1000
FILE = /castor/cern.ch/delphi/MCprod/lyon/bhwide101/v97g/182.7/bhwide101_182.7_30450.xsdst ! RUN = 30450 ! NEVT = 1000
FILE = /castor/cern.ch/delphi/MCprod/lyon/bhwide101/v97g/182.7/bhwide101_182.7_30451.xsdst ! RUN = 30451 ! NEVT = 1000
FILE = /castor/cern.ch/delphi/MCprod/lyon/bhwide101/v97g/182.7/bhwide101_182.7_30452.xsdst ! RUN = 30452 ! NEVT = 1000
FILE = /castor/cern.ch/delphi/MCprod/lyon/bhwide101/v97g/182.7/bhwide101_182.7_30453.xsdst ! RUN = 30453 ! NEVT = 1000
FILE = /castor/cern.ch/delphi/MCprod/lyon/bhwide101/v97g/182.7/bhwide101_182.7_30454.xsdst ! RUN = 30454 ! NEVT = 1000
FILE = /castor/cern.ch/delphi/MCprod/lyon/bhwide101/v97g/182.7/bhwide101_182.7_30455.xsdst ! RUN = 30455 ! NEVT = 1000
FILE = /castor/cern.ch/delphi/MCprod/lyon/bhwide101/v97g/182.7/bhwide101_182.7_30456.xsdst ! RUN = 30456 ! NEVT = 1000
FILE = /castor/cern.ch/delphi/MCprod/lyon/bhwide101/v97g/182.7/bhwide101_182.7_30457.xsdst ! RUN = 30457 ! NEVT = 1000
FILE = /castor/cern.ch/delphi/MCprod/lyon/bhwide101/v97g/182.7/bhwide101_182.7_30458.xsdst ! RUN = 30458 ! NEVT = 1000
FILE = /castor/cern.ch/delphi/MCprod/lyon/bhwide101/v97g/182.7/bhwide101_182.7_30459.xsdst ! RUN = 30459 ! NEVT = 1000
FILE = /castor/cern.ch/delphi/MCprod/lyon/bhwide101/v97g/182.7/bhwide101_182.7_30460.xsdst ! RUN = 30460 ! NEVT = 1000
FILE = /castor/cern.ch/delphi/MCprod/lyon/bhwide101/v97g/182.7/bhwide101_182.7_30461.xsdst ! RUN = 30461 ! NEVT = 1000
FILE = /castor/cern.ch/delphi/MCprod/lyon/bhwide101/v97g/182.7/bhwide101_182.7_30462.xsdst ! RUN = 30462 ! NEVT = 1000
FILE = /castor/cern.ch/delphi/MCprod/lyon/bhwide101/v97g/182.7/bhwide101_182.7_30463.xsdst ! RUN = 30463 ! NEVT = 1000
FILE = /castor/cern.ch/delphi/MCprod/lyon/bhwide101/v97g/182.7/bhwide101_182.7_30464.xsdst ! RUN = 30464 ! NEVT = 1000
FILE = /castor/cern.ch/delphi/MCprod/lyon/bhwide101/v97g/182.7/bhwide101_182.7_30465.xsdst ! RUN = 30465 ! NEVT = 1000
FILE = /castor/cern.ch/delphi/MCprod/lyon/bhwide101/v97g/182.7/bhwide101_182.7_30466.xsdst ! RUN = 30466 ! NEVT = 1000
FILE = /castor/cern.ch/delphi/MCprod/lyon/bhwide101/v97g/182.7/bhwide101_182.7_30467.xsdst ! RUN = 30467 ! NEVT = 1000
FILE = /castor/cern.ch/delphi/MCprod/lyon/bhwide101/v97g/182.7/bhwide101_182.7_30468.xsdst ! RUN = 30468 ! NEVT = 1000
FILE = /castor/cern.ch/delphi/MCprod/lyon/bhwide101/v97g/182.7/bhwide101_182.7_30469.xsdst ! RUN = 30469 ! NEVT = 1000
FILE = /castor/cern.ch/delphi/MCprod/lyon/bhwide101/v97g/182.7/bhwide101_182.7_30470.xsdst ! RUN = 30470 ! NEVT = 1000
FILE = /castor/cern.ch/delphi/MCprod/lyon/bhwide101/v97g/182.7/bhwide101_182.7_30471.xsdst ! RUN = 30471 ! NEVT = 1000
FILE = /castor/cern.ch/delphi/MCprod/lyon/bhwide101/v97g/182.7/bhwide101_182.7_30472.xsdst ! RUN = 30472 ! NEVT = 1000
FILE = /castor/cern.ch/delphi/MCprod/lyon/bhwide101/v97g/182.7/bhwide101_182.7_30473.xsdst ! RUN = 30473 ! NEVT = 1000
FILE = /castor/cern.ch/delphi/MCprod/lyon/bhwide101/v97g/182.7/bhwide101_182.7_30474.xsdst ! RUN = 30474 ! NEVT = 999
FILE = /castor/cern.ch/delphi/MCprod/lyon/bhwide101/v97g/182.7/bhwide101_182.7_30475.xsdst ! RUN = 30475 ! NEVT = 1000
FILE = /castor/cern.ch/delphi/MCprod/lyon/bhwide101/v97g/182.7/bhwide101_182.7_30476.xsdst ! RUN = 30476 ! NEVT = 1000
FILE = /castor/cern.ch/delphi/MCprod/lyon/bhwide101/v97g/182.7/bhwide101_182.7_30477.xsdst ! RUN = 30477 ! NEVT = 1000
FILE = /castor/cern.ch/delphi/MCprod/lyon/bhwide101/v97g/182.7/bhwide101_182.7_30478.xsdst ! RUN = 30478 ! NEVT = 1000
FILE = /castor/cern.ch/delphi/MCprod/lyon/bhwide101/v97g/182.7/bhwide101_182.7_30479.xsdst ! RUN = 30479 ! NEVT = 1000
FILE = /castor/cern.ch/delphi/MCprod/lyon/bhwide101/v97g/182.7/bhwide101_182.7_30480.xsdst ! RUN = 30480 ! NEVT = 1000
FILE = /castor/cern.ch/delphi/MCprod/lyon/bhwide101/v97g/182.7/bhwide101_182.7_30481.xsdst ! RUN = 30481 ! NEVT = 1000
FILE = /castor/cern.ch/delphi/MCprod/lyon/bhwide101/v97g/182.7/bhwide101_182.7_30482.xsdst ! RUN = 30482 ! NEVT = 1000
FILE = /castor/cern.ch/delphi/MCprod/lyon/bhwide101/v97g/182.7/bhwide101_182.7_30483.xsdst ! RUN = 30483 ! NEVT = 1000
FILE = /castor/cern.ch/delphi/MCprod/lyon/bhwide101/v97g/182.7/bhwide101_182.7_30484.xsdst ! RUN = 30484 ! NEVT = 1000
FILE = /castor/cern.ch/delphi/MCprod/lyon/bhwide101/v97g/182.7/bhwide101_182.7_30485.xsdst ! RUN = 30485 ! NEVT = 1000
FILE = /castor/cern.ch/delphi/MCprod/lyon/bhwide101/v97g/182.7/bhwide101_182.7_30486.xsdst ! RUN = 30486 ! NEVT = 1000
FILE = /castor/cern.ch/delphi/MCprod/lyon/bhwide101/v97g/182.7/bhwide101_182.7_30487.xsdst ! RUN = 30487 ! NEVT = 1000
FILE = /castor/cern.ch/delphi/MCprod/lyon/bhwide101/v97g/182.7/bhwide101_182.7_30488.xsdst ! RUN = 30488 ! NEVT = 999
FILE = /castor/cern.ch/delphi/MCprod/lyon/bhwide101/v97g/182.7/bhwide101_182.7_30489.xsdst ! RUN = 30489 ! NEVT = 1000
FILE = /castor/cern.ch/delphi/MCprod/lyon/bhwide101/v97g/182.7/bhwide101_182.7_30490.xsdst ! RUN = 30490 ! NEVT = 1000
FILE = /castor/cern.ch/delphi/MCprod/lyon/bhwide101/v97g/182.7/bhwide101_182.7_30491.xsdst ! RUN = 30491 ! NEVT = 1000
FILE = /castor/cern.ch/delphi/MCprod/lyon/bhwide101/v97g/182.7/bhwide101_182.7_30492.xsdst ! RUN = 30492 ! NEVT = 1000
FILE = /castor/cern.ch/delphi/MCprod/lyon/bhwide101/v97g/182.7/bhwide101_182.7_30493.xsdst ! RUN = 30493 ! NEVT = 1000
FILE = /castor/cern.ch/delphi/MCprod/lyon/bhwide101/v97g/182.7/bhwide101_182.7_30494.xsdst ! RUN = 30494 ! NEVT = 1000
FILE = /castor/cern.ch/delphi/MCprod/lyon/bhwide101/v97g/182.7/bhwide101_182.7_30495.xsdst ! RUN = 30495 ! NEVT = 1000
FILE = /castor/cern.ch/delphi/MCprod/lyon/bhwide101/v97g/182.7/bhwide101_182.7_30496.xsdst ! RUN = 30496 ! NEVT = 1000
FILE = /castor/cern.ch/delphi/MCprod/lyon/bhwide101/v97g/182.7/bhwide101_182.7_30497.xsdst ! RUN = 30497 ! NEVT = 1000
FILE = /castor/cern.ch/delphi/MCprod/lyon/bhwide101/v97g/182.7/bhwide101_182.7_30498.xsdst ! RUN = 30498 ! NEVT = 1000
FILE = /castor/cern.ch/delphi/MCprod/lyon/bhwide101/v97g/182.7/bhwide101_182.7_30499.xsdst ! RUN = 30499 ! NEVT = 1000
FILE = /castor/cern.ch/delphi/MCprod/lyon/bhwide101/v97g/182.7/bhwide101_182.7_30500.xsdst ! RUN = 30500 ! NEVT = 1000
FILE = /castor/cern.ch/delphi/MCprod/lyon/bhwide101/v97g/182.7/bhwide101_182.7_30501.xsdst ! RUN = 30501 ! NEVT = 1000
FILE = /castor/cern.ch/delphi/MCprod/lyon/bhwide101/v97g/182.7/bhwide101_182.7_30502.xsdst ! RUN = 30502 ! NEVT = 1000
FILE = /castor/cern.ch/delphi/MCprod/lyon/bhwide101/v97g/182.7/bhwide101_182.7_30503.xsdst ! RUN = 30503 ! NEVT = 1000
FILE = /castor/cern.ch/delphi/MCprod/lyon/bhwide101/v97g/182.7/bhwide101_182.7_30504.xsdst ! RUN = 30504 ! NEVT = 1000
FILE = /castor/cern.ch/delphi/MCprod/lyon/bhwide101/v97g/182.7/bhwide101_182.7_30505.xsdst ! RUN = 30505 ! NEVT = 1000
FILE = /castor/cern.ch/delphi/MCprod/lyon/bhwide101/v97g/182.7/bhwide101_182.7_30506.xsdst ! RUN = 30506 ! NEVT = 1000
FILE = /castor/cern.ch/delphi/MCprod/lyon/bhwide101/v97g/182.7/bhwide101_182.7_30507.xsdst ! RUN = 30507 ! NEVT = 1000
FILE = /castor/cern.ch/delphi/MCprod/lyon/bhwide101/v97g/182.7/bhwide101_182.7_30508.xsdst ! RUN = 30508 ! NEVT = 1000
FILE = /castor/cern.ch/delphi/MCprod/lyon/bhwide101/v97g/182.7/bhwide101_182.7_30509.xsdst ! RUN = 30509 ! NEVT = 1000
FILE = /castor/cern.ch/delphi/MCprod/lyon/bhwide101/v97g/182.7/bhwide101_182.7_30510.xsdst ! RUN = 30510 ! NEVT = 1000
FILE = /castor/cern.ch/delphi/MCprod/lyon/bhwide101/v97g/182.7/bhwide101_182.7_30511.xsdst ! RUN = 30511 ! NEVT = 1000
FILE = /castor/cern.ch/delphi/MCprod/lyon/bhwide101/v97g/182.7/bhwide101_182.7_30512.xsdst ! RUN = 30512 ! NEVT = 1000
FILE = /castor/cern.ch/delphi/MCprod/lyon/bhwide101/v97g/182.7/bhwide101_182.7_30513.xsdst ! RUN = 30513 ! NEVT = 1000
FILE = /castor/cern.ch/delphi/MCprod/lyon/bhwide101/v97g/182.7/bhwide101_182.7_30514.xsdst ! RUN = 30514 ! NEVT = 1000
FILE = /castor/cern.ch/delphi/MCprod/lyon/bhwide101/v97g/182.7/bhwide101_182.7_30515.xsdst ! RUN = 30515 ! NEVT = 1000
FILE = /castor/cern.ch/delphi/MCprod/lyon/bhwide101/v97g/182.7/bhwide101_182.7_30516.xsdst ! RUN = 30516 ! NEVT = 1000
FILE = /castor/cern.ch/delphi/MCprod/lyon/bhwide101/v97g/182.7/bhwide101_182.7_30517.xsdst ! RUN = 30517 ! NEVT = 1000
FILE = /castor/cern.ch/delphi/MCprod/lyon/bhwide101/v97g/182.7/bhwide101_182.7_30518.xsdst ! RUN = 30518 ! NEVT = 1000
FILE = /castor/cern.ch/delphi/MCprod/lyon/bhwide101/v97g/182.7/bhwide101_182.7_30519.xsdst ! RUN = 30519 ! NEVT = 1000
FILE = /castor/cern.ch/delphi/MCprod/lyon/bhwide101/v97g/182.7/bhwide101_182.7_30520.xsdst ! RUN = 30520 ! NEVT = 1000
FILE = /castor/cern.ch/delphi/MCprod/lyon/bhwide101/v97g/182.7/bhwide101_182.7_30521.xsdst ! RUN = 30521 ! NEVT = 1000
FILE = /castor/cern.ch/delphi/MCprod/lyon/bhwide101/v97g/182.7/bhwide101_182.7_30522.xsdst ! RUN = 30522 ! NEVT = 1000
FILE = /castor/cern.ch/delphi/MCprod/lyon/bhwide101/v97g/182.7/bhwide101_182.7_30523.xsdst ! RUN = 30523 ! NEVT = 1000
FILE = /castor/cern.ch/delphi/MCprod/lyon/bhwide101/v97g/182.7/bhwide101_182.7_30524.xsdst ! RUN = 30524 ! NEVT = 1000
FILE = /castor/cern.ch/delphi/MCprod/lyon/bhwide101/v97g/182.7/bhwide101_182.7_30525.xsdst ! RUN = 30525 ! NEVT = 1000
FILE = /castor/cern.ch/delphi/MCprod/lyon/bhwide101/v97g/182.7/bhwide101_182.7_30526.xsdst ! RUN = 30526 ! NEVT = 1000
FILE = /castor/cern.ch/delphi/MCprod/lyon/bhwide101/v97g/182.7/bhwide101_182.7_30527.xsdst ! RUN = 30527 ! NEVT = 1000
FILE = /castor/cern.ch/delphi/MCprod/lyon/bhwide101/v97g/182.7/bhwide101_182.7_30528.xsdst ! RUN = 30528 ! NEVT = 1000
FILE = /castor/cern.ch/delphi/MCprod/lyon/bhwide101/v97g/182.7/bhwide101_182.7_30529.xsdst ! RUN = 30529 ! NEVT = 1000
FILE = /castor/cern.ch/delphi/MCprod/lyon/bhwide101/v97g/182.7/bhwide101_182.7_30530.xsdst ! RUN = 30530 ! NEVT = 1000
FILE = /castor/cern.ch/delphi/MCprod/lyon/bhwide101/v97g/182.7/bhwide101_182.7_30531.xsdst ! RUN = 30531 ! NEVT = 1000
FILE = /castor/cern.ch/delphi/MCprod/lyon/bhwide101/v97g/182.7/bhwide101_182.7_30532.xsdst ! RUN = 30532 ! NEVT = 1000
FILE = /castor/cern.ch/delphi/MCprod/lyon/bhwide101/v97g/182.7/bhwide101_182.7_30533.xsdst ! RUN = 30533 ! NEVT = 1000
FILE = /castor/cern.ch/delphi/MCprod/lyon/bhwide101/v97g/182.7/bhwide101_182.7_30534.xsdst ! RUN = 30534 ! NEVT = 1000
FILE = /castor/cern.ch/delphi/MCprod/lyon/bhwide101/v97g/182.7/bhwide101_182.7_30535.xsdst ! RUN = 30535 ! NEVT = 1000
FILE = /castor/cern.ch/delphi/MCprod/lyon/bhwide101/v97g/182.7/bhwide101_182.7_30536.xsdst ! RUN = 30536 ! NEVT = 1000
FILE = /castor/cern.ch/delphi/MCprod/lyon/bhwide101/v97g/182.7/bhwide101_182.7_30537.xsdst ! RUN = 30537 ! NEVT = 1000
FILE = /castor/cern.ch/delphi/MCprod/lyon/bhwide101/v97g/182.7/bhwide101_182.7_30538.xsdst ! RUN = 30538 ! NEVT = 1000
FILE = /castor/cern.ch/delphi/MCprod/lyon/bhwide101/v97g/182.7/bhwide101_182.7_30539.xsdst ! RUN = 30539 ! NEVT = 1000
FILE = /castor/cern.ch/delphi/MCprod/lyon/bhwide101/v97g/182.7/bhwide101_182.7_30540.xsdst ! RUN = 30540 ! NEVT = 1000
FILE = /castor/cern.ch/delphi/MCprod/lyon/bhwide101/v97g/182.7/bhwide101_182.7_30541.xsdst ! RUN = 30541 ! NEVT = 476
FILE = /castor/cern.ch/delphi/MCprod/lyon/bhwide101/v97g/182.7/bhwide101_182.7_30542.xsdst ! RUN = 30542 ! NEVT = 1000
FILE = /castor/cern.ch/delphi/MCprod/lyon/bhwide101/v97g/182.7/bhwide101_182.7_30543.xsdst ! RUN = 30543 ! NEVT = 1000
FILE = /castor/cern.ch/delphi/MCprod/lyon/bhwide101/v97g/182.7/bhwide101_182.7_30544.xsdst ! RUN = 30544 ! NEVT = 1000
FILE = /castor/cern.ch/delphi/MCprod/lyon/bhwide101/v97g/182.7/bhwide101_182.7_30545.xsdst ! RUN = 30545 ! NEVT = 1000
FILE = /castor/cern.ch/delphi/MCprod/lyon/bhwide101/v97g/182.7/bhwide101_182.7_30546.xsdst ! RUN = 30546 ! NEVT = 1000
FILE = /castor/cern.ch/delphi/MCprod/lyon/bhwide101/v97g/182.7/bhwide101_182.7_30547.xsdst ! RUN = 30547 ! NEVT = 1000
FILE = /castor/cern.ch/delphi/MCprod/lyon/bhwide101/v97g/182.7/bhwide101_182.7_30548.xsdst ! RUN = 30548 ! NEVT = 1000
FILE = /castor/cern.ch/delphi/MCprod/lyon/bhwide101/v97g/182.7/bhwide101_182.7_30549.xsdst ! RUN = 30549 ! NEVT = 1000
FILE = /castor/cern.ch/delphi/MCprod/lyon/bhwide101/v97g/182.7/bhwide101_182.7_30550.xsdst ! RUN = 30550 ! NEVT = 1000
FILE = /castor/cern.ch/delphi/MCprod/lyon/bhwide101/v97g/182.7/bhwide101_182.7_30551.xsdst ! RUN = 30551 ! NEVT = 1000
FILE = /castor/cern.ch/delphi/MCprod/lyon/bhwide101/v97g/182.7/bhwide101_182.7_30552.xsdst ! RUN = 30552 ! NEVT = 1000
FILE = /castor/cern.ch/delphi/MCprod/lyon/bhwide101/v97g/182.7/bhwide101_182.7_30553.xsdst ! RUN = 30553 ! NEVT = 1000
FILE = /castor/cern.ch/delphi/MCprod/lyon/bhwide101/v97g/182.7/bhwide101_182.7_30554.xsdst ! RUN = 30554 ! NEVT = 1000
FILE = /castor/cern.ch/delphi/MCprod/lyon/bhwide101/v97g/182.7/bhwide101_182.7_30555.xsdst ! RUN = 30555 ! NEVT = 1000
FILE = /castor/cern.ch/delphi/MCprod/lyon/bhwide101/v97g/182.7/bhwide101_182.7_30556.xsdst ! RUN = 30556 ! NEVT = 1000
FILE = /castor/cern.ch/delphi/MCprod/lyon/bhwide101/v97g/182.7/bhwide101_182.7_30557.xsdst ! RUN = 30557 ! NEVT = 1000
FILE = /castor/cern.ch/delphi/MCprod/lyon/bhwide101/v97g/182.7/bhwide101_182.7_30558.xsdst ! RUN = 30558 ! NEVT = 1000
FILE = /castor/cern.ch/delphi/MCprod/lyon/bhwide101/v97g/182.7/bhwide101_182.7_30559.xsdst ! RUN = 30559 ! NEVT = 1000
FILE = /castor/cern.ch/delphi/MCprod/lyon/bhwide101/v97g/182.7/bhwide101_182.7_30560.xsdst ! RUN = 30560 ! NEVT = 1000
FILE = /castor/cern.ch/delphi/MCprod/lyon/bhwide101/v97g/182.7/bhwide101_182.7_30561.xsdst ! RUN = 30561 ! NEVT = 1000
FILE = /castor/cern.ch/delphi/MCprod/lyon/bhwide101/v97g/182.7/bhwide101_182.7_30562.xsdst ! RUN = 30562 ! NEVT = 1000
FILE = /castor/cern.ch/delphi/MCprod/lyon/bhwide101/v97g/182.7/bhwide101_182.7_30563.xsdst ! RUN = 30563 ! NEVT = 1000
FILE = /castor/cern.ch/delphi/MCprod/lyon/bhwide101/v97g/182.7/bhwide101_182.7_30564.xsdst ! RUN = 30564 ! NEVT = 1000
FILE = /castor/cern.ch/delphi/MCprod/lyon/bhwide101/v97g/182.7/bhwide101_182.7_30565.xsdst ! RUN = 30565 ! NEVT = 1000
FILE = /castor/cern.ch/delphi/MCprod/lyon/bhwide101/v97g/182.7/bhwide101_182.7_30566.xsdst ! RUN = 30566 ! NEVT = 1000
FILE = /castor/cern.ch/delphi/MCprod/lyon/bhwide101/v97g/182.7/bhwide101_182.7_30567.xsdst ! RUN = 30567 ! NEVT = 1000
FILE = /castor/cern.ch/delphi/MCprod/lyon/bhwide101/v97g/182.7/bhwide101_182.7_30568.xsdst ! RUN = 30568 ! NEVT = 1000
FILE = /castor/cern.ch/delphi/MCprod/lyon/bhwide101/v97g/182.7/bhwide101_182.7_30569.xsdst ! RUN = 30569 ! NEVT = 1000
FILE = /castor/cern.ch/delphi/MCprod/lyon/bhwide101/v97g/182.7/bhwide101_182.7_30570.xsdst ! RUN = 30570 ! NEVT = 1000
FILE = /castor/cern.ch/delphi/MCprod/lyon/bhwide101/v97g/182.7/bhwide101_182.7_30571.xsdst ! RUN = 30571 ! NEVT = 1000
FILE = /castor/cern.ch/delphi/MCprod/lyon/bhwide101/v97g/182.7/bhwide101_182.7_30572.xsdst ! RUN = 30572 ! NEVT = 1000
FILE = /castor/cern.ch/delphi/MCprod/lyon/bhwide101/v97g/182.7/bhwide101_182.7_30573.xsdst ! RUN = 30573 ! NEVT = 1000
FILE = /castor/cern.ch/delphi/MCprod/lyon/bhwide101/v97g/182.7/bhwide101_182.7_30574.xsdst ! RUN = 30574 ! NEVT = 1000
FILE = /castor/cern.ch/delphi/MCprod/lyon/bhwide101/v97g/182.7/bhwide101_182.7_30575.xsdst ! RUN = 30575 ! NEVT = 1000
FILE = /castor/cern.ch/delphi/MCprod/lyon/bhwide101/v97g/182.7/bhwide101_182.7_30576.xsdst ! RUN = 30576 ! NEVT = 1000
FILE = /castor/cern.ch/delphi/MCprod/lyon/bhwide101/v97g/182.7/bhwide101_182.7_30577.xsdst ! RUN = 30577 ! NEVT = 1000
FILE = /castor/cern.ch/delphi/MCprod/lyon/bhwide101/v97g/182.7/bhwide101_182.7_30578.xsdst ! RUN = 30578 ! NEVT = 1000
FILE = /castor/cern.ch/delphi/MCprod/lyon/bhwide101/v97g/182.7/bhwide101_182.7_30579.xsdst ! RUN = 30579 ! NEVT = 1000
FILE = /castor/cern.ch/delphi/MCprod/lyon/bhwide101/v97g/182.7/bhwide101_182.7_30580.xsdst ! RUN = 30580 ! NEVT = 1000
FILE = /castor/cern.ch/delphi/MCprod/lyon/bhwide101/v97g/182.7/bhwide101_182.7_30581.xsdst ! RUN = 30581 ! NEVT = 1000
FILE = /castor/cern.ch/delphi/MCprod/lyon/bhwide101/v97g/182.7/bhwide101_182.7_30582.xsdst ! RUN = 30582 ! NEVT = 1000
FILE = /castor/cern.ch/delphi/MCprod/lyon/bhwide101/v97g/182.7/bhwide101_182.7_30583.xsdst ! RUN = 30583 ! NEVT = 1000
FILE = /castor/cern.ch/delphi/MCprod/lyon/bhwide101/v97g/182.7/bhwide101_182.7_30584.xsdst ! RUN = 30584 ! NEVT = 1000
FILE = /castor/cern.ch/delphi/MCprod/lyon/bhwide101/v97g/182.7/bhwide101_182.7_30585.xsdst ! RUN = 30585 ! NEVT = 1000
FILE = /castor/cern.ch/delphi/MCprod/lyon/bhwide101/v97g/182.7/bhwide101_182.7_30586.xsdst ! RUN = 30586 ! NEVT = 1000
FILE = /castor/cern.ch/delphi/MCprod/lyon/bhwide101/v97g/182.7/bhwide101_182.7_30587.xsdst ! RUN = 30587 ! NEVT = 1000
FILE = /castor/cern.ch/delphi/MCprod/lyon/bhwide101/v97g/182.7/bhwide101_182.7_30588.xsdst ! RUN = 30588 ! NEVT = 1000
FILE = /castor/cern.ch/delphi/MCprod/lyon/bhwide101/v97g/182.7/bhwide101_182.7_30589.xsdst ! RUN = 30589 ! NEVT = 1000
FILE = /castor/cern.ch/delphi/MCprod/lyon/bhwide101/v97g/182.7/bhwide101_182.7_30590.xsdst ! RUN = 30590 ! NEVT = 1000
FILE = /castor/cern.ch/delphi/MCprod/lyon/bhwide101/v97g/182.7/bhwide101_182.7_30591.xsdst ! RUN = 30591 ! NEVT = 1000
FILE = /castor/cern.ch/delphi/MCprod/lyon/bhwide101/v97g/182.7/bhwide101_182.7_30592.xsdst ! RUN = 30592 ! NEVT = 1000
FILE = /castor/cern.ch/delphi/MCprod/lyon/bhwide101/v97g/182.7/bhwide101_182.7_30593.xsdst ! RUN = 30593 ! NEVT = 1000
FILE = /castor/cern.ch/delphi/MCprod/lyon/bhwide101/v97g/182.7/bhwide101_182.7_30594.xsdst ! RUN = 30594 ! NEVT = 1000
FILE = /castor/cern.ch/delphi/MCprod/lyon/bhwide101/v97g/182.7/bhwide101_182.7_30595.xsdst ! RUN = 30595 ! NEVT = 1000
FILE = /castor/cern.ch/delphi/MCprod/lyon/bhwide101/v97g/182.7/bhwide101_182.7_30596.xsdst ! RUN = 30596 ! NEVT = 1000
FILE = /castor/cern.ch/delphi/MCprod/lyon/bhwide101/v97g/182.7/bhwide101_182.7_30597.xsdst ! RUN = 30597 ! NEVT = 999
FILE = /castor/cern.ch/delphi/MCprod/lyon/bhwide101/v97g/182.7/bhwide101_182.7_30598.xsdst ! RUN = 30598 ! NEVT = 1000
FILE = /castor/cern.ch/delphi/MCprod/lyon/bhwide101/v97g/182.7/bhwide101_182.7_30599.xsdst ! RUN = 30599 ! NEVT = 1000
FILE = /castor/cern.ch/delphi/MCprod/lyon/bhwide101/v97g/182.7/bhwide101_182.7_30600.xsdst ! RUN = 30600 ! NEVT = 1000
FILE = /castor/cern.ch/delphi/MCprod/lyon/bhwide101/v97g/182.7/bhwide101_182.7_30601.xsdst ! RUN = 30601 ! NEVT = 1000
FILE = /castor/cern.ch/delphi/MCprod/lyon/bhwide101/v97g/182.7/bhwide101_182.7_30602.xsdst ! RUN = 30602 ! NEVT = 1000
FILE = /castor/cern.ch/delphi/MCprod/lyon/bhwide101/v97g/182.7/bhwide101_182.7_30603.xsdst ! RUN = 30603 ! NEVT = 1000
FILE = /castor/cern.ch/delphi/MCprod/lyon/bhwide101/v97g/182.7/bhwide101_182.7_30604.xsdst ! RUN = 30604 ! NEVT = 1000
FILE = /castor/cern.ch/delphi/MCprod/lyon/bhwide101/v97g/182.7/bhwide101_182.7_30605.xsdst ! RUN = 30605 ! NEVT = 1000
FILE = /castor/cern.ch/delphi/MCprod/lyon/bhwide101/v97g/182.7/bhwide101_182.7_30606.xsdst ! RUN = 30606 ! NEVT = 1000
FILE = /castor/cern.ch/delphi/MCprod/lyon/bhwide101/v97g/182.7/bhwide101_182.7_30607.xsdst ! RUN = 30607 ! NEVT = 1000
FILE = /castor/cern.ch/delphi/MCprod/lyon/bhwide101/v97g/182.7/bhwide101_182.7_30608.xsdst ! RUN = 30608 ! NEVT = 999
FILE = /castor/cern.ch/delphi/MCprod/lyon/bhwide101/v97g/182.7/bhwide101_182.7_30609.xsdst ! RUN = 30609 ! NEVT = 1000
FILE = /castor/cern.ch/delphi/MCprod/lyon/bhwide101/v97g/182.7/bhwide101_182.7_30610.xsdst ! RUN = 30610 ! NEVT = 1000
FILE = /castor/cern.ch/delphi/MCprod/lyon/bhwide101/v97g/182.7/bhwide101_182.7_30611.xsdst ! RUN = 30611 ! NEVT = 1000
FILE = /castor/cern.ch/delphi/MCprod/lyon/bhwide101/v97g/182.7/bhwide101_182.7_30612.xsdst ! RUN = 30612 ! NEVT = 1000
FILE = /castor/cern.ch/delphi/MCprod/lyon/bhwide101/v97g/182.7/bhwide101_182.7_30613.xsdst ! RUN = 30613 ! NEVT = 1000
FILE = /castor/cern.ch/delphi/MCprod/lyon/bhwide101/v97g/182.7/bhwide101_182.7_30614.xsdst ! RUN = 30614 ! NEVT = 1000
FILE = /castor/cern.ch/delphi/MCprod/lyon/bhwide101/v97g/182.7/bhwide101_182.7_30615.xsdst ! RUN = 30615 ! NEVT = 1000
FILE = /castor/cern.ch/delphi/MCprod/lyon/bhwide101/v97g/182.7/bhwide101_182.7_30616.xsdst ! RUN = 30616 ! NEVT = 1000
FILE = /castor/cern.ch/delphi/MCprod/lyon/bhwide101/v97g/182.7/bhwide101_182.7_30617.xsdst ! RUN = 30617 ! NEVT = 1000
FILE = /castor/cern.ch/delphi/MCprod/lyon/bhwide101/v97g/182.7/bhwide101_182.7_30618.xsdst ! RUN = 30618 ! NEVT = 1000
FILE = /castor/cern.ch/delphi/MCprod/lyon/bhwide101/v97g/182.7/bhwide101_182.7_30619.xsdst ! RUN = 30619 ! NEVT = 1000
FILE = /castor/cern.ch/delphi/MCprod/lyon/bhwide101/v97g/182.7/bhwide101_182.7_30620.xsdst ! RUN = 30620 ! NEVT = 1000
FILE = /castor/cern.ch/delphi/MCprod/lyon/bhwide101/v97g/182.7/bhwide101_182.7_30621.xsdst ! RUN = 30621 ! NEVT = 1000
FILE = /castor/cern.ch/delphi/MCprod/lyon/bhwide101/v97g/182.7/bhwide101_182.7_30622.xsdst ! RUN = 30622 ! NEVT = 1000
FILE = /castor/cern.ch/delphi/MCprod/lyon/bhwide101/v97g/182.7/bhwide101_182.7_30623.xsdst ! RUN = 30623 ! NEVT = 1000
FILE = /castor/cern.ch/delphi/MCprod/lyon/bhwide101/v97g/182.7/bhwide101_182.7_30624.xsdst ! RUN = 30624 ! NEVT = 1000
FILE = /castor/cern.ch/delphi/MCprod/lyon/bhwide101/v97g/182.7/bhwide101_182.7_30625.xsdst ! RUN = 30625 ! NEVT = 1000
FILE = /castor/cern.ch/delphi/MCprod/lyon/bhwide101/v97g/182.7/bhwide101_182.7_30626.xsdst ! RUN = 30626 ! NEVT = 1000
FILE = /castor/cern.ch/delphi/MCprod/lyon/bhwide101/v97g/182.7/bhwide101_182.7_30627.xsdst ! RUN = 30627 ! NEVT = 1000
FILE = /castor/cern.ch/delphi/MCprod/lyon/bhwide101/v97g/182.7/bhwide101_182.7_30628.xsdst ! RUN = 30628 ! NEVT = 1000
FILE = /castor/cern.ch/delphi/MCprod/lyon/bhwide101/v97g/182.7/bhwide101_182.7_30629.xsdst ! RUN = 30629 ! NEVT = 1000
FILE = /castor/cern.ch/delphi/MCprod/lyon/bhwide101/v97g/182.7/bhwide101_182.7_30630.xsdst ! RUN = 30630 ! NEVT = 1000
FILE = /castor/cern.ch/delphi/MCprod/lyon/bhwide101/v97g/182.7/bhwide101_182.7_30631.xsdst ! RUN = 30631 ! NEVT = 1000
FILE = /castor/cern.ch/delphi/MCprod/lyon/bhwide101/v97g/182.7/bhwide101_182.7_30632.xsdst ! RUN = 30632 ! NEVT = 1000
FILE = /castor/cern.ch/delphi/MCprod/lyon/bhwide101/v97g/182.7/bhwide101_182.7_30633.xsdst ! RUN = 30633 ! NEVT = 1000
FILE = /castor/cern.ch/delphi/MCprod/lyon/bhwide101/v97g/182.7/bhwide101_182.7_30634.xsdst ! RUN = 30634 ! NEVT = 1000
FILE = /castor/cern.ch/delphi/MCprod/lyon/bhwide101/v97g/182.7/bhwide101_182.7_30635.xsdst ! RUN = 30635 ! NEVT = 1000
FILE = /castor/cern.ch/delphi/MCprod/lyon/bhwide101/v97g/182.7/bhwide101_182.7_30636.xsdst ! RUN = 30636 ! NEVT = 1000
FILE = /castor/cern.ch/delphi/MCprod/lyon/bhwide101/v97g/182.7/bhwide101_182.7_30637.xsdst ! RUN = 30637 ! NEVT = 1000
FILE = /castor/cern.ch/delphi/MCprod/lyon/bhwide101/v97g/182.7/bhwide101_182.7_30638.xsdst ! RUN = 30638 ! NEVT = 1000
FILE = /castor/cern.ch/delphi/MCprod/lyon/bhwide101/v97g/182.7/bhwide101_182.7_30639.xsdst ! RUN = 30639 ! NEVT = 999
FILE = /castor/cern.ch/delphi/MCprod/lyon/bhwide101/v97g/182.7/bhwide101_182.7_30640.xsdst ! RUN = 30640 ! NEVT = 1000
FILE = /castor/cern.ch/delphi/MCprod/lyon/bhwide101/v97g/182.7/bhwide101_182.7_30641.xsdst ! RUN = 30641 ! NEVT = 1000
FILE = /castor/cern.ch/delphi/MCprod/lyon/bhwide101/v97g/182.7/bhwide101_182.7_30642.xsdst ! RUN = 30642 ! NEVT = 1000
FILE = /castor/cern.ch/delphi/MCprod/lyon/bhwide101/v97g/182.7/bhwide101_182.7_30643.xsdst ! RUN = 30643 ! NEVT = 1000
FILE = /castor/cern.ch/delphi/MCprod/lyon/bhwide101/v97g/182.7/bhwide101_182.7_30644.xsdst ! RUN = 30644 ! NEVT = 1000
FILE = /castor/cern.ch/delphi/MCprod/lyon/bhwide101/v97g/182.7/bhwide101_182.7_30645.xsdst ! RUN = 30645 ! NEVT = 1000
FILE = /castor/cern.ch/delphi/MCprod/lyon/bhwide101/v97g/182.7/bhwide101_182.7_30646.xsdst ! RUN = 30646 ! NEVT = 1000
FILE = /castor/cern.ch/delphi/MCprod/lyon/bhwide101/v97g/182.7/bhwide101_182.7_30647.xsdst ! RUN = 30647 ! NEVT = 1000
FILE = /castor/cern.ch/delphi/MCprod/lyon/bhwide101/v97g/182.7/bhwide101_182.7_30648.xsdst ! RUN = 30648 ! NEVT = 1000
FILE = /castor/cern.ch/delphi/MCprod/lyon/bhwide101/v97g/182.7/bhwide101_182.7_30649.xsdst ! RUN = 30649 ! NEVT = 1000
FILE = /castor/cern.ch/delphi/MCprod/lyon/bhwide101/v97g/182.7/bhwide101_182.7_30650.xsdst ! RUN = 30650 ! NEVT = 1000
FILE = /castor/cern.ch/delphi/MCprod/lyon/bhwide101/v97g/182.7/bhwide101_182.7_30651.xsdst ! RUN = 30651 ! NEVT = 1000
FILE = /castor/cern.ch/delphi/MCprod/lyon/bhwide101/v97g/182.7/bhwide101_182.7_30652.xsdst ! RUN = 30652 ! NEVT = 1000
FILE = /castor/cern.ch/delphi/MCprod/lyon/bhwide101/v97g/182.7/bhwide101_182.7_30653.xsdst ! RUN = 30653 ! NEVT = 1000
FILE = /castor/cern.ch/delphi/MCprod/lyon/bhwide101/v97g/182.7/bhwide101_182.7_30654.xsdst ! RUN = 30654 ! NEVT = 1000
FILE = /castor/cern.ch/delphi/MCprod/lyon/bhwide101/v97g/182.7/bhwide101_182.7_30655.xsdst ! RUN = 30655 ! NEVT = 1000
FILE = /castor/cern.ch/delphi/MCprod/lyon/bhwide101/v97g/182.7/bhwide101_182.7_30656.xsdst ! RUN = 30656 ! NEVT = 1000
FILE = /castor/cern.ch/delphi/MCprod/lyon/bhwide101/v97g/182.7/bhwide101_182.7_30657.xsdst ! RUN = 30657 ! NEVT = 1000
FILE = /castor/cern.ch/delphi/MCprod/lyon/bhwide101/v97g/182.7/bhwide101_182.7_30658.xsdst ! RUN = 30658 ! NEVT = 1000
FILE = /castor/cern.ch/delphi/MCprod/lyon/bhwide101/v97g/182.7/bhwide101_182.7_30660.xsdst ! RUN = 30660 ! NEVT = 1000
FILE = /castor/cern.ch/delphi/MCprod/lyon/bhwide101/v97g/182.7/bhwide101_182.7_30661.xsdst ! RUN = 30661 ! NEVT = 1000
FILE = /castor/cern.ch/delphi/MCprod/lyon/bhwide101/v97g/182.7/bhwide101_182.7_30662.xsdst ! RUN = 30662 ! NEVT = 1000
FILE = /castor/cern.ch/delphi/MCprod/lyon/bhwide101/v97g/182.7/bhwide101_182.7_30663.xsdst ! RUN = 30663 ! NEVT = 1000
FILE = /castor/cern.ch/delphi/MCprod/lyon/bhwide101/v97g/182.7/bhwide101_182.7_30664.xsdst ! RUN = 30664 ! NEVT = 1000
FILE = /castor/cern.ch/delphi/MCprod/lyon/bhwide101/v97g/182.7/bhwide101_182.7_30666.xsdst ! RUN = 30666 ! NEVT = 1000
FILE = /castor/cern.ch/delphi/MCprod/lyon/bhwide101/v97g/182.7/bhwide101_182.7_30667.xsdst ! RUN = 30667 ! NEVT = 1000
FILE = /castor/cern.ch/delphi/MCprod/lyon/bhwide101/v97g/182.7/bhwide101_182.7_30668.xsdst ! RUN = 30668 ! NEVT = 1000
FILE = /castor/cern.ch/delphi/MCprod/lyon/bhwide101/v97g/182.7/bhwide101_182.7_30669.xsdst ! RUN = 30669 ! NEVT = 1000
FILE = /castor/cern.ch/delphi/MCprod/lyon/bhwide101/v97g/182.7/bhwide101_182.7_30671.xsdst ! RUN = 30671 ! NEVT = 1000
FILE = /castor/cern.ch/delphi/MCprod/lyon/bhwide101/v97g/182.7/bhwide101_182.7_30672.xsdst ! RUN = 30672 ! NEVT = 1000
FILE = /castor/cern.ch/delphi/MCprod/lyon/bhwide101/v97g/182.7/bhwide101_182.7_30674.xsdst ! RUN = 30674 ! NEVT = 1000
FILE = /castor/cern.ch/delphi/MCprod/lyon/bhwide101/v97g/182.7/bhwide101_182.7_30675.xsdst ! RUN = 30675 ! NEVT = 1000
FILE = /castor/cern.ch/delphi/MCprod/lyon/bhwide101/v97g/182.7/bhwide101_182.7_30676.xsdst ! RUN = 30676 ! NEVT = 1000
FILE = /castor/cern.ch/delphi/MCprod/lyon/bhwide101/v97g/182.7/bhwide101_182.7_30677.xsdst ! RUN = 30677 ! NEVT = 1000
FILE = /castor/cern.ch/delphi/MCprod/lyon/bhwide101/v97g/182.7/bhwide101_182.7_30678.xsdst ! RUN = 30678 ! NEVT = 1000
FILE = /castor/cern.ch/delphi/MCprod/lyon/bhwide101/v97g/182.7/bhwide101_182.7_30679.xsdst ! RUN = 30679 ! NEVT = 1000
FILE = /castor/cern.ch/delphi/MCprod/lyon/bhwide101/v97g/182.7/bhwide101_182.7_30680.xsdst ! RUN = 30680 ! NEVT = 1000
FILE = /castor/cern.ch/delphi/MCprod/lyon/bhwide101/v97g/182.7/bhwide101_182.7_30681.xsdst ! RUN = 30681 ! NEVT = 1000
FILE = /castor/cern.ch/delphi/MCprod/lyon/bhwide101/v97g/182.7/bhwide101_182.7_30682.xsdst ! RUN = 30682 ! NEVT = 1000
FILE = /castor/cern.ch/delphi/MCprod/lyon/bhwide101/v97g/182.7/bhwide101_182.7_30683.xsdst ! RUN = 30683 ! NEVT = 1000
FILE = /castor/cern.ch/delphi/MCprod/lyon/bhwide101/v97g/182.7/bhwide101_182.7_30684.xsdst ! RUN = 30684 ! NEVT = 1000
FILE = /castor/cern.ch/delphi/MCprod/lyon/bhwide101/v97g/182.7/bhwide101_182.7_30685.xsdst ! RUN = 30685 ! NEVT = 1000
FILE = /castor/cern.ch/delphi/MCprod/lyon/bhwide101/v97g/182.7/bhwide101_182.7_30686.xsdst ! RUN = 30686 ! NEVT = 1000
FILE = /castor/cern.ch/delphi/MCprod/lyon/bhwide101/v97g/182.7/bhwide101_182.7_30687.xsdst ! RUN = 30687 ! NEVT = 1000
FILE = /castor/cern.ch/delphi/MCprod/lyon/bhwide101/v97g/182.7/bhwide101_182.7_30688.xsdst ! RUN = 30688 ! NEVT = 1000
FILE = /castor/cern.ch/delphi/MCprod/lyon/bhwide101/v97g/182.7/bhwide101_182.7_30689.xsdst ! RUN = 30689 ! NEVT = 1000
FILE = /castor/cern.ch/delphi/MCprod/lyon/bhwide101/v97g/182.7/bhwide101_182.7_30690.xsdst ! RUN = 30690 ! NEVT = 1000
FILE = /castor/cern.ch/delphi/MCprod/lyon/bhwide101/v97g/182.7/bhwide101_182.7_30691.xsdst ! RUN = 30691 ! NEVT = 1000
FILE = /castor/cern.ch/delphi/MCprod/lyon/bhwide101/v97g/182.7/bhwide101_182.7_30692.xsdst ! RUN = 30692 ! NEVT = 1000
FILE = /castor/cern.ch/delphi/MCprod/lyon/bhwide101/v97g/182.7/bhwide101_182.7_30693.xsdst ! RUN = 30693 ! NEVT = 1000
FILE = /castor/cern.ch/delphi/MCprod/lyon/bhwide101/v97g/182.7/bhwide101_182.7_30694.xsdst ! RUN = 30694 ! NEVT = 1000
FILE = /castor/cern.ch/delphi/MCprod/lyon/bhwide101/v97g/182.7/bhwide101_182.7_30695.xsdst ! RUN = 30695 ! NEVT = 1000
FILE = /castor/cern.ch/delphi/MCprod/lyon/bhwide101/v97g/182.7/bhwide101_182.7_30696.xsdst ! RUN = 30696 ! NEVT = 1000
FILE = /castor/cern.ch/delphi/MCprod/lyon/bhwide101/v97g/182.7/bhwide101_182.7_30697.xsdst ! RUN = 30697 ! NEVT = 1000
FILE = /castor/cern.ch/delphi/MCprod/lyon/bhwide101/v97g/182.7/bhwide101_182.7_30698.xsdst ! RUN = 30698 ! NEVT = 1000
FILE = /castor/cern.ch/delphi/MCprod/lyon/bhwide101/v97g/182.7/bhwide101_182.7_30699.xsdst ! RUN = 30699 ! NEVT = 1000
FILE = /castor/cern.ch/delphi/MCprod/lyon/bhwide101/v97g/182.7/bhwide101_182.7_30700.xsdst ! RUN = 30700 ! NEVT = 1000
FILE = /castor/cern.ch/delphi/MCprod/lyon/bhwide101/v97g/182.7/bhwide101_182.7_30701.xsdst ! RUN = 30701 ! NEVT = 1000
FILE = /castor/cern.ch/delphi/MCprod/lyon/bhwide101/v97g/182.7/bhwide101_182.7_30702.xsdst ! RUN = 30702 ! NEVT = 1000
FILE = /castor/cern.ch/delphi/MCprod/lyon/bhwide101/v97g/182.7/bhwide101_182.7_30703.xsdst ! RUN = 30703 ! NEVT = 19
FILE = /castor/cern.ch/delphi/MCprod/lyon/bhwide101/v97g/182.7/bhwide101_182.7_30704.xsdst ! RUN = 30704 ! NEVT = 1000
FILE = /castor/cern.ch/delphi/MCprod/lyon/bhwide101/v97g/182.7/bhwide101_182.7_30705.xsdst ! RUN = 30705 ! NEVT = 1000
FILE = /castor/cern.ch/delphi/MCprod/lyon/bhwide101/v97g/182.7/bhwide101_182.7_30706.xsdst ! RUN = 30706 ! NEVT = 1000
FILE = /castor/cern.ch/delphi/MCprod/lyon/bhwide101/v97g/182.7/bhwide101_182.7_30707.xsdst ! RUN = 30707 ! NEVT = 1000
FILE = /castor/cern.ch/delphi/MCprod/lyon/bhwide101/v97g/182.7/bhwide101_182.7_30708.xsdst ! RUN = 30708 ! NEVT = 1000
FILE = /castor/cern.ch/delphi/MCprod/lyon/bhwide101/v97g/182.7/bhwide101_182.7_30709.xsdst ! RUN = 30709 ! NEVT = 1000
FILE = /castor/cern.ch/delphi/MCprod/lyon/bhwide101/v97g/182.7/bhwide101_182.7_30710.xsdst ! RUN = 30710 ! NEVT = 1000
FILE = /castor/cern.ch/delphi/MCprod/lyon/bhwide101/v97g/182.7/bhwide101_182.7_30711.xsdst ! RUN = 30711 ! NEVT = 1000
FILE = /castor/cern.ch/delphi/MCprod/lyon/bhwide101/v97g/182.7/bhwide101_182.7_30712.xsdst ! RUN = 30712 ! NEVT = 1000
FILE = /castor/cern.ch/delphi/MCprod/lyon/bhwide101/v97g/182.7/bhwide101_182.7_30713.xsdst ! RUN = 30713 ! NEVT = 1000
FILE = /castor/cern.ch/delphi/MCprod/lyon/bhwide101/v97g/182.7/bhwide101_182.7_30714.xsdst ! RUN = 30714 ! NEVT = 999
FILE = /castor/cern.ch/delphi/MCprod/lyon/bhwide101/v97g/182.7/bhwide101_182.7_30715.xsdst ! RUN = 30715 ! NEVT = 1000
FILE = /castor/cern.ch/delphi/MCprod/lyon/bhwide101/v97g/182.7/bhwide101_182.7_30716.xsdst ! RUN = 30716 ! NEVT = 1000
FILE = /castor/cern.ch/delphi/MCprod/lyon/bhwide101/v97g/182.7/bhwide101_182.7_30717.xsdst ! RUN = 30717 ! NEVT = 1000
FILE = /castor/cern.ch/delphi/MCprod/lyon/bhwide101/v97g/182.7/bhwide101_182.7_30718.xsdst ! RUN = 30718 ! NEVT = 1000
FILE = /castor/cern.ch/delphi/MCprod/lyon/bhwide101/v97g/182.7/bhwide101_182.7_30719.xsdst ! RUN = 30719 ! NEVT = 1000
FILE = /castor/cern.ch/delphi/MCprod/lyon/bhwide101/v97g/182.7/bhwide101_182.7_30720.xsdst ! RUN = 30720 ! NEVT = 1000
FILE = /castor/cern.ch/delphi/MCprod/lyon/bhwide101/v97g/182.7/bhwide101_182.7_30721.xsdst ! RUN = 30721 ! NEVT = 1000
FILE = /castor/cern.ch/delphi/MCprod/lyon/bhwide101/v97g/182.7/bhwide101_182.7_30722.xsdst ! RUN = 30722 ! NEVT = 1000
FILE = /castor/cern.ch/delphi/MCprod/lyon/bhwide101/v97g/182.7/bhwide101_182.7_30723.xsdst ! RUN = 30723 ! NEVT = 1000
FILE = /castor/cern.ch/delphi/MCprod/lyon/bhwide101/v97g/182.7/bhwide101_182.7_30724.xsdst ! RUN = 30724 ! NEVT = 1000
FILE = /castor/cern.ch/delphi/MCprod/lyon/bhwide101/v97g/182.7/bhwide101_182.7_30725.xsdst ! RUN = 30725 ! NEVT = 999
FILE = /castor/cern.ch/delphi/MCprod/lyon/bhwide101/v97g/182.7/bhwide101_182.7_30726.xsdst ! RUN = 30726 ! NEVT = 999
FILE = /castor/cern.ch/delphi/MCprod/lyon/bhwide101/v97g/182.7/bhwide101_182.7_30727.xsdst ! RUN = 30727 ! NEVT = 1000
FILE = /castor/cern.ch/delphi/MCprod/lyon/bhwide101/v97g/182.7/bhwide101_182.7_30728.xsdst ! RUN = 30728 ! NEVT = 1000
FILE = /castor/cern.ch/delphi/MCprod/lyon/bhwide101/v97g/182.7/bhwide101_182.7_30729.xsdst ! RUN = 30729 ! NEVT = 1000
FILE = /castor/cern.ch/delphi/MCprod/lyon/bhwide101/v97g/182.7/bhwide101_182.7_30730.xsdst ! RUN = 30730 ! NEVT = 1000
FILE = /castor/cern.ch/delphi/MCprod/lyon/bhwide101/v97g/182.7/bhwide101_182.7_30731.xsdst ! RUN = 30731 ! NEVT = 1000
FILE = /castor/cern.ch/delphi/MCprod/lyon/bhwide101/v97g/182.7/bhwide101_182.7_30732.xsdst ! RUN = 30732 ! NEVT = 1000
FILE = /castor/cern.ch/delphi/MCprod/lyon/bhwide101/v97g/182.7/bhwide101_182.7_30733.xsdst ! RUN = 30733 ! NEVT = 999
FILE = /castor/cern.ch/delphi/MCprod/lyon/bhwide101/v97g/182.7/bhwide101_182.7_30734.xsdst ! RUN = 30734 ! NEVT = 1000
FILE = /castor/cern.ch/delphi/MCprod/lyon/bhwide101/v97g/182.7/bhwide101_182.7_30735.xsdst ! RUN = 30735 ! NEVT = 1000
FILE = /castor/cern.ch/delphi/MCprod/lyon/bhwide101/v97g/182.7/bhwide101_182.7_30736.xsdst ! RUN = 30736 ! NEVT = 1000
FILE = /castor/cern.ch/delphi/MCprod/lyon/bhwide101/v97g/182.7/bhwide101_182.7_30737.xsdst ! RUN = 30737 ! NEVT = 1000
FILE = /castor/cern.ch/delphi/MCprod/lyon/bhwide101/v97g/182.7/bhwide101_182.7_30738.xsdst ! RUN = 30738 ! NEVT = 1000
FILE = /castor/cern.ch/delphi/MCprod/lyon/bhwide101/v97g/182.7/bhwide101_182.7_30739.xsdst ! RUN = 30739 ! NEVT = 1000
FILE = /castor/cern.ch/delphi/MCprod/lyon/bhwide101/v97g/182.7/bhwide101_182.7_30740.xsdst ! RUN = 30740 ! NEVT = 1000
FILE = /castor/cern.ch/delphi/MCprod/lyon/bhwide101/v97g/182.7/bhwide101_182.7_30741.xsdst ! RUN = 30741 ! NEVT = 1000
FILE = /castor/cern.ch/delphi/MCprod/lyon/bhwide101/v97g/182.7/bhwide101_182.7_30742.xsdst ! RUN = 30742 ! NEVT = 1000
FILE = /castor/cern.ch/delphi/MCprod/lyon/bhwide101/v97g/182.7/bhwide101_182.7_30743.xsdst ! RUN = 30743 ! NEVT = 1000
FILE = /castor/cern.ch/delphi/MCprod/lyon/bhwide101/v97g/182.7/bhwide101_182.7_30744.xsdst ! RUN = 30744 ! NEVT = 1000
FILE = /castor/cern.ch/delphi/MCprod/lyon/bhwide101/v97g/182.7/bhwide101_182.7_30745.xsdst ! RUN = 30745 ! NEVT = 1000
FILE = /castor/cern.ch/delphi/MCprod/lyon/bhwide101/v97g/182.7/bhwide101_182.7_30746.xsdst ! RUN = 30746 ! NEVT = 1000
FILE = /castor/cern.ch/delphi/MCprod/lyon/bhwide101/v97g/182.7/bhwide101_182.7_30747.xsdst ! RUN = 30747 ! NEVT = 1000
FILE = /castor/cern.ch/delphi/MCprod/lyon/bhwide101/v97g/182.7/bhwide101_182.7_30748.xsdst ! RUN = 30748 ! NEVT = 1000
FILE = /castor/cern.ch/delphi/MCprod/lyon/bhwide101/v97g/182.7/bhwide101_182.7_30749.xsdst ! RUN = 30749 ! NEVT = 1000
FILE = /castor/cern.ch/delphi/MCprod/lyon/bhwide101/v97g/182.7/bhwide101_182.7_30750.xsdst ! RUN = 30750 ! NEVT = 1000
