*
*   Nickname     : xs_kk2f4143qqstrip_e182.7_l97_1l_g1
*   Generic Name : //CERN/DELPHI/P02_SIMD/XSDST/KK2F4143QQSTRIP/E182.7/SUMT
*   Description  :  Extended Short DST simulation 97_g1 done at ecms=182.7 
*---
*   Comments     :  time stamp: Tue Feb  5 08:50:28 2002
*---
*
*  Comments     : same events as xs_kk2f4143qq_e182.7_l97_1l_g1 with empty events stripped
*
* found 964559 events in 98 files
FILE = /castor/cern.ch/delphi/MCprod/lyon/kk2f4143/v97g/182.7/x1/stripkkkk2f4143_qqstrip_182.7_1.xsdst ! RUN =  -20001 -20002 -20003 -20004 -20005 -20006 -20007 -20008 -20009 -20010      0      0      0      0      0      0      0      0      0      0! NEVT =    9923
FILE = /castor/cern.ch/delphi/MCprod/lyon/kk2f4143/v97g/182.7/x1/stripkkkk2f4143_qqstrip_182.7_2.xsdst ! RUN =  -20011 -20013 -20014 -20016 -20017 -20018 -20019 -20021 -20022 -20023      0      0      0      0      0      0      0      0      0      0! NEVT =    9928
FILE = /castor/cern.ch/delphi/MCprod/lyon/kk2f4143/v97g/182.7/x1/stripkkkk2f4143_qqstrip_182.7_3.xsdst ! RUN =  -20024 -20025 -20026 -20027 -20028 -20029 -20030 -20031 -20032 -20033      0      0      0      0      0      0      0      0      0      0! NEVT =    9925
FILE = /castor/cern.ch/delphi/MCprod/lyon/kk2f4143/v97g/182.7/x1/stripkkkk2f4143_qqstrip_182.7_4.xsdst ! RUN =  -20034 -20036 -20037 -20038 -20039 -20040 -20042 -20043 -20044 -20045      0      0      0      0      0      0      0      0      0      0! NEVT =    9946
FILE = /castor/cern.ch/delphi/MCprod/lyon/kk2f4143/v97g/182.7/x1/stripkkkk2f4143_qqstrip_182.7_5.xsdst ! RUN =  -20046 -20047 -20048 -20049 -20050 -20051 -20053 -20054 -20055 -20057      0      0      0      0      0      0      0      0      0      0! NEVT =    9939
FILE = /castor/cern.ch/delphi/MCprod/lyon/kk2f4143/v97g/182.7/x1/stripkkkk2f4143_qqstrip_182.7_6.xsdst ! RUN =  -20058 -20059 -20060 -20061 -20062 -20063 -20064 -20065 -20066 -20068      0      0      0      0      0      0      0      0      0      0! NEVT =    9939
FILE = /castor/cern.ch/delphi/MCprod/lyon/kk2f4143/v97g/182.7/x1/stripkkkk2f4143_qqstrip_182.7_7.xsdst ! RUN =  -20069 -20070 -20071 -20072 -20073 -20074 -20075 -20076 -20077 -20078      0      0      0      0      0      0      0      0      0      0! NEVT =    9932
FILE = /castor/cern.ch/delphi/MCprod/lyon/kk2f4143/v97g/182.7/x1/stripkkkk2f4143_qqstrip_182.7_8.xsdst ! RUN =  -20079 -20080 -20081 -20082 -20084 -20085 -20086 -20087 -20088 -20089      0      0      0      0      0      0      0      0      0      0! NEVT =    9945
FILE = /castor/cern.ch/delphi/MCprod/lyon/kk2f4143/v97g/182.7/x1/stripkkkk2f4143_qqstrip_182.7_9.xsdst ! RUN =  -20090 -20091 -20092 -20093 -20094 -20095 -20096 -20097 -20098 -20099      0      0      0      0      0      0      0      0      0      0! NEVT =    9938
FILE = /castor/cern.ch/delphi/MCprod/lyon/kk2f4143/v97g/182.7/x1/stripkkkk2f4143_qqstrip_182.7_10.xsdst ! RUN =  -20100 -20101 -20102 -20103 -20104 -20105 -20106 -20107 -20109 -20110      0      0      0      0      0      0      0      0      0      0! NEVT =    9918
FILE = /castor/cern.ch/delphi/MCprod/lyon/kk2f4143/v97g/182.7/x1/stripkkkk2f4143_qqstrip_182.7_11.xsdst ! RUN =  -20111 -20112 -20113 -20114 -20115 -20116 -20117 -20118 -20119 -20120      0      0      0      0      0      0      0      0      0      0! NEVT =    9928
FILE = /castor/cern.ch/delphi/MCprod/lyon/kk2f4143/v97g/182.7/x1/stripkkkk2f4143_qqstrip_182.7_12.xsdst ! RUN =  -20121 -20122 -20123 -20124 -20125 -20126 -20127 -20128 -20129 -20130      0      0      0      0      0      0      0      0      0      0! NEVT =    9936
FILE = /castor/cern.ch/delphi/MCprod/lyon/kk2f4143/v97g/182.7/x1/stripkkkk2f4143_qqstrip_182.7_13.xsdst ! RUN =  -20131 -20132 -20133 -20134 -20135 -20136 -20137 -20138 -20139 -20140      0      0      0      0      0      0      0      0      0      0! NEVT =    9937
FILE = /castor/cern.ch/delphi/MCprod/lyon/kk2f4143/v97g/182.7/x1/stripkkkk2f4143_qqstrip_182.7_14.xsdst ! RUN =  -20141 -20142 -20143 -20144 -20145 -20146 -20147 -20148 -20149 -20150      0      0      0      0      0      0      0      0      0      0! NEVT =    9941
FILE = /castor/cern.ch/delphi/MCprod/lyon/kk2f4143/v97g/182.7/x1/stripkkkk2f4143_qqstrip_182.7_15.xsdst ! RUN =  -20151 -20152 -20153 -20154 -20155 -20156 -20157 -20158 -20159 -20160      0      0      0      0      0      0      0      0      0      0! NEVT =    9941
FILE = /castor/cern.ch/delphi/MCprod/lyon/kk2f4143/v97g/182.7/x1/stripkkkk2f4143_qqstrip_182.7_16.xsdst ! RUN =  -20161 -20162 -20163 -20164 -20165 -20166 -20168 -20169 -20170 -20171      0      0      0      0      0      0      0      0      0      0! NEVT =    9932
FILE = /castor/cern.ch/delphi/MCprod/lyon/kk2f4143/v97g/182.7/x1/stripkkkk2f4143_qqstrip_182.7_17.xsdst ! RUN =  -20172 -20173 -20174 -20175 -20176 -20177 -20178 -20179 -20180 -20181      0      0      0      0      0      0      0      0      0      0! NEVT =    9938
FILE = /castor/cern.ch/delphi/MCprod/lyon/kk2f4143/v97g/182.7/x1/stripkkkk2f4143_qqstrip_182.7_18.xsdst ! RUN =  -20182 -20183 -20184 -20185 -20186 -20187 -20188 -20189 -20190 -20191      0      0      0      0      0      0      0      0      0      0! NEVT =    9929
FILE = /castor/cern.ch/delphi/MCprod/lyon/kk2f4143/v97g/182.7/x1/stripkkkk2f4143_qqstrip_182.7_19.xsdst ! RUN =  -20192 -20193 -20194 -20195 -20196 -20197 -20198 -20199 -20200 -20201      0      0      0      0      0      0      0      0      0      0! NEVT =    9931
FILE = /castor/cern.ch/delphi/MCprod/lyon/kk2f4143/v97g/182.7/x1/stripkkkk2f4143_qqstrip_182.7_20.xsdst ! RUN =  -20202 -20203 -20204 -20205 -20206 -20207 -20208 -20209 -20210 -20211      0      0      0      0      0      0      0      0      0      0! NEVT =    9931
FILE = /castor/cern.ch/delphi/MCprod/lyon/kk2f4143/v97g/182.7/x1/stripkkkk2f4143_qqstrip_182.7_21.xsdst ! RUN =  -20212 -20213 -20214 -20215 -20216 -20217 -20218 -20219 -20220 -20221      0      0      0      0      0      0      0      0      0      0! NEVT =    9946
FILE = /castor/cern.ch/delphi/MCprod/lyon/kk2f4143/v97g/182.7/x1/stripkkkk2f4143_qqstrip_182.7_22.xsdst ! RUN =  -20222 -20223 -20224 -20225 -20226 -20227 -20228 -20229 -20230 -20231      0      0      0      0      0      0      0      0      0      0! NEVT =    9933
FILE = /castor/cern.ch/delphi/MCprod/lyon/kk2f4143/v97g/182.7/x1/stripkkkk2f4143_qqstrip_182.7_23.xsdst ! RUN =  -20232 -20233 -20234 -20235 -20236 -20237 -20238 -20239 -20240 -20241      0      0      0      0      0      0      0      0      0      0! NEVT =    9924
FILE = /castor/cern.ch/delphi/MCprod/lyon/kk2f4143/v97g/182.7/x1/stripkkkk2f4143_qqstrip_182.7_24.xsdst ! RUN =  -20242 -20243 -20244 -20245 -20246 -20247 -20248 -20249 -20250 -20251      0      0      0      0      0      0      0      0      0      0! NEVT =    9934
FILE = /castor/cern.ch/delphi/MCprod/lyon/kk2f4143/v97g/182.7/x1/stripkkkk2f4143_qqstrip_182.7_25.xsdst ! RUN =  -20252 -20253 -20254 -20255 -20256 -20257 -20258 -20259 -20260 -20261      0      0      0      0      0      0      0      0      0      0! NEVT =    9948
FILE = /castor/cern.ch/delphi/MCprod/lyon/kk2f4143/v97g/182.7/x1/stripkkkk2f4143_qqstrip_182.7_26.xsdst ! RUN =  -20262 -20263 -20264 -20265 -20266 -20267 -20268 -20269 -20270 -20271      0      0      0      0      0      0      0      0      0      0! NEVT =    9945
FILE = /castor/cern.ch/delphi/MCprod/lyon/kk2f4143/v97g/182.7/x1/stripkkkk2f4143_qqstrip_182.7_27.xsdst ! RUN =  -20272 -20273 -20274 -20275 -20276 -20277 -20278 -20279 -20280 -20281      0      0      0      0      0      0      0      0      0      0! NEVT =    9946
FILE = /castor/cern.ch/delphi/MCprod/lyon/kk2f4143/v97g/182.7/x1/stripkkkk2f4143_qqstrip_182.7_28.xsdst ! RUN =  -20282 -20283 -20284 -20285 -20286 -20287 -20288 -20289 -20290 -20291      0      0      0      0      0      0      0      0      0      0! NEVT =    9929
FILE = /castor/cern.ch/delphi/MCprod/lyon/kk2f4143/v97g/182.7/x1/stripkkkk2f4143_qqstrip_182.7_29.xsdst ! RUN =  -20292 -20293 -20294 -20295 -20296 -20297 -20298 -20299 -20300 -20301      0      0      0      0      0      0      0      0      0      0! NEVT =    9938
FILE = /castor/cern.ch/delphi/MCprod/lyon/kk2f4143/v97g/182.7/x1/stripkkkk2f4143_qqstrip_182.7_30.xsdst ! RUN =  -20302 -20303 -20304 -20305 -20306 -20307 -20308 -20309 -20310 -20311      0      0      0      0      0      0      0      0      0      0! NEVT =    9937
FILE = /castor/cern.ch/delphi/MCprod/lyon/kk2f4143/v97g/182.7/x1/stripkkkk2f4143_qqstrip_182.7_31.xsdst ! RUN =  -20312 -20313 -20314 -20315 -20316 -20317 -20318 -20319 -20320 -20321      0      0      0      0      0      0      0      0      0      0! NEVT =    9919
FILE = /castor/cern.ch/delphi/MCprod/lyon/kk2f4143/v97g/182.7/x1/stripkkkk2f4143_qqstrip_182.7_32.xsdst ! RUN =  -20322 -20323 -20324 -20325 -20326 -20327 -20328 -20329 -20330 -20331      0      0      0      0      0      0      0      0      0      0! NEVT =    9934
FILE = /castor/cern.ch/delphi/MCprod/lyon/kk2f4143/v97g/182.7/x1/stripkkkk2f4143_qqstrip_182.7_33.xsdst ! RUN =  -20332 -20333 -20334 -20335 -20336 -20337 -20338 -20339 -20340 -20341      0      0      0      0      0      0      0      0      0      0! NEVT =    9919
FILE = /castor/cern.ch/delphi/MCprod/lyon/kk2f4143/v97g/182.7/x1/stripkkkk2f4143_qqstrip_182.7_34.xsdst ! RUN =  -20342 -20343 -20344 -20345 -20346 -20347 -20348 -20349 -20350 -20351      0      0      0      0      0      0      0      0      0      0! NEVT =    9929
FILE = /castor/cern.ch/delphi/MCprod/lyon/kk2f4143/v97g/182.7/x1/stripkkkk2f4143_qqstrip_182.7_35.xsdst ! RUN =  -20352 -20353 -20354 -20356 -20357 -20358 -20359 -20360 -20361 -20362      0      0      0      0      0      0      0      0      0      0! NEVT =    9941
FILE = /castor/cern.ch/delphi/MCprod/lyon/kk2f4143/v97g/182.7/x1/stripkkkk2f4143_qqstrip_182.7_36.xsdst ! RUN =  -20363 -20364 -20365 -20366 -20367 -20368 -20369 -20370 -20371 -20372      0      0      0      0      0      0      0      0      0      0! NEVT =    9942
FILE = /castor/cern.ch/delphi/MCprod/lyon/kk2f4143/v97g/182.7/x1/stripkkkk2f4143_qqstrip_182.7_37.xsdst ! RUN =  -20373 -20374 -20375 -20376 -20377 -20378 -20379 -20380 -20381 -20382      0      0      0      0      0      0      0      0      0      0! NEVT =    9918
FILE = /castor/cern.ch/delphi/MCprod/lyon/kk2f4143/v97g/182.7/x1/stripkkkk2f4143_qqstrip_182.7_38.xsdst ! RUN =  -20383 -20384 -20385 -20386 -20387 -20389 -20390 -20391 -20392 -20393      0      0      0      0      0      0      0      0      0      0! NEVT =    9933
FILE = /castor/cern.ch/delphi/MCprod/lyon/kk2f4143/v97g/182.7/x1/stripkkkk2f4143_qqstrip_182.7_39.xsdst ! RUN =  -20395 -20396 -20398 -20399 -20400 -20401 -20402 -20403 -20404 -20405      0      0      0      0      0      0      0      0      0      0! NEVT =    9947
FILE = /castor/cern.ch/delphi/MCprod/lyon/kk2f4143/v97g/182.7/x1/stripkkkk2f4143_qqstrip_182.7_40.xsdst ! RUN =  -20406 -20407 -20408 -20409 -20410 -20411 -20412 -20413 -20414 -20415      0      0      0      0      0      0      0      0      0      0! NEVT =    9935
FILE = /castor/cern.ch/delphi/MCprod/lyon/kk2f4143/v97g/182.7/x1/stripkkkk2f4143_qqstrip_182.7_41.xsdst ! RUN =  -20416 -20417 -20418 -20419 -20420 -20421 -20423 -20424 -20425 -20426      0      0      0      0      0      0      0      0      0      0! NEVT =    9920
FILE = /castor/cern.ch/delphi/MCprod/lyon/kk2f4143/v97g/182.7/x1/stripkkkk2f4143_qqstrip_182.7_42.xsdst ! RUN =  -20427 -20428 -20429 -20430 -20431 -20432 -20433 -20434 -20435 -20436      0      0      0      0      0      0      0      0      0      0! NEVT =    9942
FILE = /castor/cern.ch/delphi/MCprod/lyon/kk2f4143/v97g/182.7/x1/stripkkkk2f4143_qqstrip_182.7_43.xsdst ! RUN =  -20437 -20438 -20439 -20440 -20441 -20442 -20443 -20444 -20445 -20446      0      0      0      0      0      0      0      0      0      0! NEVT =    9943
FILE = /castor/cern.ch/delphi/MCprod/lyon/kk2f4143/v97g/182.7/x1/stripkkkk2f4143_qqstrip_182.7_44.xsdst ! RUN =  -20447 -20448 -20449 -20450 -20451 -20452 -20453 -20454 -20456 -20457      0      0      0      0      0      0      0      0      0      0! NEVT =    9935
FILE = /castor/cern.ch/delphi/MCprod/lyon/kk2f4143/v97g/182.7/x1/stripkkkk2f4143_qqstrip_182.7_45.xsdst ! RUN =  -20458 -20459 -20460 -20461 -20462 -20464 -20465 -20466 -20467 -20468      0      0      0      0      0      0      0      0      0      0! NEVT =    9929
FILE = /castor/cern.ch/delphi/MCprod/lyon/kk2f4143/v97g/182.7/x1/stripkkkk2f4143_qqstrip_182.7_46.xsdst ! RUN =  -20469 -20470 -20471 -20472 -20473 -20474 -20475 -20476 -20477 -20478      0      0      0      0      0      0      0      0      0      0! NEVT =    9932
FILE = /castor/cern.ch/delphi/MCprod/lyon/kk2f4143/v97g/182.7/x1/stripkkkk2f4143_qqstrip_182.7_47.xsdst ! RUN =  -20479 -20480 -20481 -20482 -20483 -20484 -20485 -20486 -20487 -20488      0      0      0      0      0      0      0      0      0      0! NEVT =    9926
FILE = /castor/cern.ch/delphi/MCprod/lyon/kk2f4143/v97g/182.7/x1/stripkkkk2f4143_qqstrip_182.7_48.xsdst ! RUN =  -20489 -20490 -20491 -20492 -20493 -20494 -20495 -20496 -20497 -20498      0      0      0      0      0      0      0      0      0      0! NEVT =    9949
FILE = /castor/cern.ch/delphi/MCprod/lyon/kk2f4143/v97g/182.7/x1/stripkkkk2f4143_qqstrip_182.7_49.xsdst ! RUN =  -20499 -20500 -20501 -20502 -20503 -20504 -20505 -20506 -20507 -20508      0      0      0      0      0      0      0      0      0      0! NEVT =    9925
FILE = /castor/cern.ch/delphi/MCprod/lyon/kk2f4143/v97g/182.7/x1/stripkkkk2f4143_qqstrip_182.7_50.xsdst ! RUN =  -20509 -20510 -20511 -20512 -20513 -20514 -20515 -20516 -20517 -20518      0      0      0      0      0      0      0      0      0      0! NEVT =    9937
FILE = /castor/cern.ch/delphi/MCprod/lyon/kk2f4143/v97g/182.7/x1/stripkkkk2f4143_qqstrip_182.7_51.xsdst ! RUN =  -20519 -20520 -20521 -20522 -20523 -20524 -20525 -20526 -20527 -20528      0      0      0      0      0      0      0      0      0      0! NEVT =    9914
FILE = /castor/cern.ch/delphi/MCprod/lyon/kk2f4143/v97g/182.7/x1/stripkkkk2f4143_qqstrip_182.7_52.xsdst ! RUN =  -20529 -20530 -20531 -20532 -20533 -20534 -20535 -20536 -20537 -20538      0      0      0      0      0      0      0      0      0      0! NEVT =    9946
FILE = /castor/cern.ch/delphi/MCprod/lyon/kk2f4143/v97g/182.7/x1/stripkkkk2f4143_qqstrip_182.7_53.xsdst ! RUN =  -20539 -20540 -20541 -20542 -20543 -20544 -20545 -20546 -20547 -20548      0      0      0      0      0      0      0      0      0      0! NEVT =    9929
FILE = /castor/cern.ch/delphi/MCprod/lyon/kk2f4143/v97g/182.7/x1/stripkkkk2f4143_qqstrip_182.7_54.xsdst ! RUN =  -20549 -20550 -20551 -20552 -20553 -20554 -20555 -20556 -20557 -20558      0      0      0      0      0      0      0      0      0      0! NEVT =    9921
FILE = /castor/cern.ch/delphi/MCprod/lyon/kk2f4143/v97g/182.7/x1/stripkkkk2f4143_qqstrip_182.7_55.xsdst ! RUN =  -20559 -20560 -20561 -20562 -20563 -20564 -20565 -20566 -20567 -20568      0      0      0      0      0      0      0      0      0      0! NEVT =    9931
FILE = /castor/cern.ch/delphi/MCprod/lyon/kk2f4143/v97g/182.7/x1/stripkkkk2f4143_qqstrip_182.7_56.xsdst ! RUN =  -20569 -20570 -20571 -20572 -20573 -20574 -20575 -20576 -20577 -20578      0      0      0      0      0      0      0      0      0      0! NEVT =    9935
FILE = /castor/cern.ch/delphi/MCprod/lyon/kk2f4143/v97g/182.7/x1/stripkkkk2f4143_qqstrip_182.7_57.xsdst ! RUN =  -20579 -20580 -20581 -20582 -20583 -20584 -20585 -20586 -20587 -20589      0      0      0      0      0      0      0      0      0      0! NEVT =    9941
FILE = /castor/cern.ch/delphi/MCprod/lyon/kk2f4143/v97g/182.7/x1/stripkkkk2f4143_qqstrip_182.7_58.xsdst ! RUN =  -20590 -20591 -20592 -20593 -20594 -20595 -20596 -20597 -20598 -20599      0      0      0      0      0      0      0      0      0      0! NEVT =    9942
FILE = /castor/cern.ch/delphi/MCprod/lyon/kk2f4143/v97g/182.7/x1/stripkkkk2f4143_qqstrip_182.7_59.xsdst ! RUN =  -20600 -20602 -20603 -20604 -20605 -20606 -20607 -20608 -20609 -20610      0      0      0      0      0      0      0      0      0      0! NEVT =    9930
FILE = /castor/cern.ch/delphi/MCprod/lyon/kk2f4143/v97g/182.7/x1/stripkkkk2f4143_qqstrip_182.7_60.xsdst ! RUN =  -20611 -20612 -20613 -20614 -20615 -20616 -20617 -20618 -20619 -20620      0      0      0      0      0      0      0      0      0      0! NEVT =    9942
FILE = /castor/cern.ch/delphi/MCprod/lyon/kk2f4143/v97g/182.7/x1/stripkkkk2f4143_qqstrip_182.7_61.xsdst ! RUN =  -20621 -20622 -20623 -20624 -20625 -20626 -20627 -20628 -20629 -20630      0      0      0      0      0      0      0      0      0      0! NEVT =    9931
FILE = /castor/cern.ch/delphi/MCprod/lyon/kk2f4143/v97g/182.7/x1/stripkkkk2f4143_qqstrip_182.7_62.xsdst ! RUN =  -20631 -20632 -20633 -20634 -20635 -20636 -20637 -20638 -20639 -20640      0      0      0      0      0      0      0      0      0      0! NEVT =    9934
FILE = /castor/cern.ch/delphi/MCprod/lyon/kk2f4143/v97g/182.7/x1/stripkkkk2f4143_qqstrip_182.7_63.xsdst ! RUN =  -20641 -20642 -20643 -20644 -20645 -20646 -20647 -20648 -20649 -20650      0      0      0      0      0      0      0      0      0      0! NEVT =    9939
FILE = /castor/cern.ch/delphi/MCprod/lyon/kk2f4143/v97g/182.7/x1/stripkkkk2f4143_qqstrip_182.7_64.xsdst ! RUN =  -20651 -20652 -20653 -20654 -20655 -20656 -20657 -20658 -20659 -20660      0      0      0      0      0      0      0      0      0      0! NEVT =    9923
FILE = /castor/cern.ch/delphi/MCprod/lyon/kk2f4143/v97g/182.7/x1/stripkkkk2f4143_qqstrip_182.7_65.xsdst ! RUN =  -20661 -20662 -20663 -20664 -20665 -20666 -20667 -20668 -20669 -20670      0      0      0      0      0      0      0      0      0      0! NEVT =    9932
FILE = /castor/cern.ch/delphi/MCprod/lyon/kk2f4143/v97g/182.7/x1/stripkkkk2f4143_qqstrip_182.7_66.xsdst ! RUN =  -20671 -20672 -20673 -20674 -20675 -20676 -20677 -20678 -20679 -20680      0      0      0      0      0      0      0      0      0      0! NEVT =    9937
FILE = /castor/cern.ch/delphi/MCprod/lyon/kk2f4143/v97g/182.7/x1/stripkkkk2f4143_qqstrip_182.7_67.xsdst ! RUN =  -20681 -20682 -20683 -20684 -20685 -20686 -20687 -20688 -20689 -20690      0      0      0      0      0      0      0      0      0      0! NEVT =    9918
FILE = /castor/cern.ch/delphi/MCprod/lyon/kk2f4143/v97g/182.7/x1/stripkkkk2f4143_qqstrip_182.7_68.xsdst ! RUN =  -20691 -20692 -20693 -20694 -20695 -20696 -20697 -20698 -20699 -20700      0      0      0      0      0      0      0      0      0      0! NEVT =    9942
FILE = /castor/cern.ch/delphi/MCprod/lyon/kk2f4143/v97g/182.7/x1/stripkkkk2f4143_qqstrip_182.7_69.xsdst ! RUN =  -20701 -20702 -20703 -20704 -20705 -20706 -20707 -20708 -20709 -20710      0      0      0      0      0      0      0      0      0      0! NEVT =    9941
FILE = /castor/cern.ch/delphi/MCprod/lyon/kk2f4143/v97g/182.7/x1/stripkkkk2f4143_qqstrip_182.7_70.xsdst ! RUN =  -20711 -20712 -20713 -20714 -20715 -20716 -20717 -20718 -20719 -20720      0      0      0      0      0      0      0      0      0      0! NEVT =    9924
FILE = /castor/cern.ch/delphi/MCprod/lyon/kk2f4143/v97g/182.7/x1/stripkkkk2f4143_qqstrip_182.7_71.xsdst ! RUN =  -20721 -20722 -20723 -20724 -20725 -20726 -20727 -20728 -20729 -20730      0      0      0      0      0      0      0      0      0      0! NEVT =    9919
FILE = /castor/cern.ch/delphi/MCprod/lyon/kk2f4143/v97g/182.7/x1/stripkkkk2f4143_qqstrip_182.7_72.xsdst ! RUN =  -20731 -20732 -20733 -20734 -20735 -20736 -20737 -20738 -20739 -20740      0      0      0      0      0      0      0      0      0      0! NEVT =    9937
FILE = /castor/cern.ch/delphi/MCprod/lyon/kk2f4143/v97g/182.7/x1/stripkkkk2f4143_qqstrip_182.7_73.xsdst ! RUN =  -20741 -20742 -20743 -20744 -20745 -20746 -20747 -20748 -20749 -20750      0      0      0      0      0      0      0      0      0      0! NEVT =    9940
FILE = /castor/cern.ch/delphi/MCprod/lyon/kk2f4143/v97g/182.7/x1/stripkkkk2f4143_qqstrip_182.7_74.xsdst ! RUN =  -20751 -20752 -20753 -20754 -20755 -20756 -20757 -20758 -20759 -20760      0      0      0      0      0      0      0      0      0      0! NEVT =    9938
FILE = /castor/cern.ch/delphi/MCprod/lyon/kk2f4143/v97g/182.7/x1/stripkkkk2f4143_qqstrip_182.7_75.xsdst ! RUN =  -20761 -20762 -20763 -20764 -20765 -20766 -20768 -20769 -20770 -20771      0      0      0      0      0      0      0      0      0      0! NEVT =    9926
FILE = /castor/cern.ch/delphi/MCprod/lyon/kk2f4143/v97g/182.7/x1/stripkkkk2f4143_qqstrip_182.7_76.xsdst ! RUN =  -20772 -20773 -20774 -20775 -20776 -20777 -20778 -20779 -20780 -20781      0      0      0      0      0      0      0      0      0      0! NEVT =    9936
FILE = /castor/cern.ch/delphi/MCprod/lyon/kk2f4143/v97g/182.7/x1/stripkkkk2f4143_qqstrip_182.7_77.xsdst ! RUN =  -20782 -20783 -20784 -20785 -20786 -20787 -20788 -20789 -20790 -20791      0      0      0      0      0      0      0      0      0      0! NEVT =    9935
FILE = /castor/cern.ch/delphi/MCprod/lyon/kk2f4143/v97g/182.7/x1/stripkkkk2f4143_qqstrip_182.7_78.xsdst ! RUN =  -20792 -20798 -20799 -20800 -20801 -20802 -20803 -20804 -20805 -20806      0      0      0      0      0      0      0      0      0      0! NEVT =    9927
FILE = /castor/cern.ch/delphi/MCprod/lyon/kk2f4143/v97g/182.7/x1/stripkkkk2f4143_qqstrip_182.7_79.xsdst ! RUN =  -20807 -20808 -20809 -20810 -20811 -20812 -20813 -20814 -20815 -20816      0      0      0      0      0      0      0      0      0      0! NEVT =    9941
FILE = /castor/cern.ch/delphi/MCprod/lyon/kk2f4143/v97g/182.7/x1/stripkkkk2f4143_qqstrip_182.7_80.xsdst ! RUN =  -20817 -20818 -20819 -20820 -20821 -20822 -20823 -20824 -20825 -20826      0      0      0      0      0      0      0      0      0      0! NEVT =    9936
FILE = /castor/cern.ch/delphi/MCprod/lyon/kk2f4143/v97g/182.7/x1/stripkkkk2f4143_qqstrip_182.7_81.xsdst ! RUN =  -20827 -20828 -20829 -20830 -20831 -20832 -20833 -20834 -20835 -20836      0      0      0      0      0      0      0      0      0      0! NEVT =    9917
FILE = /castor/cern.ch/delphi/MCprod/lyon/kk2f4143/v97g/182.7/x1/stripkkkk2f4143_qqstrip_182.7_82.xsdst ! RUN =  -20837 -20838 -20839 -20840 -20841 -20842 -20843 -20844 -20845 -20846      0      0      0      0      0      0      0      0      0      0! NEVT =    9943
FILE = /castor/cern.ch/delphi/MCprod/lyon/kk2f4143/v97g/182.7/x1/stripkkkk2f4143_qqstrip_182.7_83.xsdst ! RUN =  -20847 -20848 -20849 -20850 -20851 -20852 -20853 -20854 -20855 -20856      0      0      0      0      0      0      0      0      0      0! NEVT =    9927
FILE = /castor/cern.ch/delphi/MCprod/lyon/kk2f4143/v97g/182.7/x1/stripkkkk2f4143_qqstrip_182.7_84.xsdst ! RUN =  -20857 -20858 -20859 -20860 -20861 -20862 -20863 -20864 -20865 -20866      0      0      0      0      0      0      0      0      0      0! NEVT =    9934
FILE = /castor/cern.ch/delphi/MCprod/lyon/kk2f4143/v97g/182.7/x1/stripkkkk2f4143_qqstrip_182.7_85.xsdst ! RUN =  -20867 -20868 -20869 -20870 -20871 -20872 -20873 -20874 -20875 -20876      0      0      0      0      0      0      0      0      0      0! NEVT =    9935
FILE = /castor/cern.ch/delphi/MCprod/lyon/kk2f4143/v97g/182.7/x1/stripkkkk2f4143_qqstrip_182.7_86.xsdst ! RUN =  -20877 -20878 -20879 -20880 -20881 -20882 -20883 -20884 -20885 -20886      0      0      0      0      0      0      0      0      0      0! NEVT =    9938
FILE = /castor/cern.ch/delphi/MCprod/lyon/kk2f4143/v97g/182.7/x1/stripkkkk2f4143_qqstrip_182.7_87.xsdst ! RUN =  -20887 -20888 -20889 -20890 -20892 -20895 -20896 -20897 -20898 -20899      0      0      0      0      0      0      0      0      0      0! NEVT =    9943
FILE = /castor/cern.ch/delphi/MCprod/lyon/kk2f4143/v97g/182.7/x1/stripkkkk2f4143_qqstrip_182.7_88.xsdst ! RUN =  -20900 -20901 -20902 -20903 -20904 -20905 -20906 -20907 -20908 -20909      0      0      0      0      0      0      0      0      0      0! NEVT =    9937
FILE = /castor/cern.ch/delphi/MCprod/lyon/kk2f4143/v97g/182.7/x1/stripkkkk2f4143_qqstrip_182.7_89.xsdst ! RUN =  -20910 -20911 -20912 -20913 -20914 -20915 -20916 -20917 -20918 -20919      0      0      0      0      0      0      0      0      0      0! NEVT =    9926
FILE = /castor/cern.ch/delphi/MCprod/lyon/kk2f4143/v97g/182.7/x1/stripkkkk2f4143_qqstrip_182.7_90.xsdst ! RUN =  -20920 -20921 -20922 -20923 -20924 -20925 -20926 -20927 -20928 -20929      0      0      0      0      0      0      0      0      0      0! NEVT =    9923
FILE = /castor/cern.ch/delphi/MCprod/lyon/kk2f4143/v97g/182.7/x1/stripkkkk2f4143_qqstrip_182.7_91.xsdst ! RUN =  -20930 -20931 -20932 -20933 -20934 -20935 -20936 -20937 -20938 -20939      0      0      0      0      0      0      0      0      0      0! NEVT =    9936
FILE = /castor/cern.ch/delphi/MCprod/lyon/kk2f4143/v97g/182.7/x1/stripkkkk2f4143_qqstrip_182.7_92.xsdst ! RUN =  -20940 -20941 -20942 -20943 -20944 -20945 -20946 -20947 -20948 -20949      0      0      0      0      0      0      0      0      0      0! NEVT =    9941
FILE = /castor/cern.ch/delphi/MCprod/lyon/kk2f4143/v97g/182.7/x1/stripkkkk2f4143_qqstrip_182.7_93.xsdst ! RUN =  -20950 -20951 -20952 -20953 -20954 -20955 -20956 -20957 -20958 -20959      0      0      0      0      0      0      0      0      0      0! NEVT =    9942
FILE = /castor/cern.ch/delphi/MCprod/lyon/kk2f4143/v97g/182.7/x1/stripkkkk2f4143_qqstrip_182.7_94.xsdst ! RUN =  -20960 -20961 -20962 -20963 -20964 -20965 -20966 -20967 -20968 -20969      0      0      0      0      0      0      0      0      0      0! NEVT =    9931
FILE = /castor/cern.ch/delphi/MCprod/lyon/kk2f4143/v97g/182.7/x1/stripkkkk2f4143_qqstrip_182.7_95.xsdst ! RUN =  -20970 -20971 -20972 -20973 -20974 -20975 -20976 -20977 -20978 -20979      0      0      0      0      0      0      0      0      0      0! NEVT =    9932
FILE = /castor/cern.ch/delphi/MCprod/lyon/kk2f4143/v97g/182.7/x1/stripkkkk2f4143_qqstrip_182.7_96.xsdst ! RUN =  -20980 -20981 -20982 -20983 -20984 -20985 -20986 -20987 -20988 -20989      0      0      0      0      0      0      0      0      0      0! NEVT =    9945
FILE = /castor/cern.ch/delphi/MCprod/lyon/kk2f4143/v97g/182.7/x1/stripkkkk2f4143_qqstrip_182.7_97.xsdst ! RUN =  -20990 -20991 -20992 -20993 -20994 -20995 -20996 -20997 -20998 -20999      0      0      0      0      0      0      0      0      0      0! NEVT =    9923
FILE = /castor/cern.ch/delphi/MCprod/lyon/kk2f4143/v97g/182.7/x1/stripkkkk2f4143_qqstrip_182.7_98.xsdst ! RUN =   21000 ! NEVT =     987
