*
*   Nickname     : xs_kk2f4144tthl_e182.7_r97_1l_g1
*   Generic Name : //CERN/DELPHI/P02_SIMD/XSDST/KK2F4144TTHL/E182.7/RAL/SUMT/C001-40
*   Description  :  Extended Short DST simulation 97_g1 done at ecms=182.7 , RAL
*---
*   Comments     : in total 199942 events in 40 files time stamp: Thu Feb 21 15:13:35 2002
*---
*
*
*
*
*
FILE = /castor/cern.ch/delphi/MCprod/ral/kk2f4144/v97g/182.7/kk2f4144_tthl_182.7_17101.xsdst ! RUN = 17101 ! NEVT = 4998
FILE = /castor/cern.ch/delphi/MCprod/ral/kk2f4144/v97g/182.7/kk2f4144_tthl_182.7_17102.xsdst ! RUN = 17102 ! NEVT = 4998
FILE = /castor/cern.ch/delphi/MCprod/ral/kk2f4144/v97g/182.7/kk2f4144_tthl_182.7_17103.xsdst ! RUN = 17103 ! NEVT = 4997
FILE = /castor/cern.ch/delphi/MCprod/ral/kk2f4144/v97g/182.7/kk2f4144_tthl_182.7_17104.xsdst ! RUN = 17104 ! NEVT = 4998
FILE = /castor/cern.ch/delphi/MCprod/ral/kk2f4144/v97g/182.7/kk2f4144_tthl_182.7_17105.xsdst ! RUN = 17105 ! NEVT = 5000
FILE = /castor/cern.ch/delphi/MCprod/ral/kk2f4144/v97g/182.7/kk2f4144_tthl_182.7_17106.xsdst ! RUN = 17106 ! NEVT = 4999
FILE = /castor/cern.ch/delphi/MCprod/ral/kk2f4144/v97g/182.7/kk2f4144_tthl_182.7_17107.xsdst ! RUN = 17107 ! NEVT = 4999
FILE = /castor/cern.ch/delphi/MCprod/ral/kk2f4144/v97g/182.7/kk2f4144_tthl_182.7_17108.xsdst ! RUN = 17108 ! NEVT = 4998
FILE = /castor/cern.ch/delphi/MCprod/ral/kk2f4144/v97g/182.7/kk2f4144_tthl_182.7_17109.xsdst ! RUN = 17109 ! NEVT = 4997
FILE = /castor/cern.ch/delphi/MCprod/ral/kk2f4144/v97g/182.7/kk2f4144_tthl_182.7_17110.xsdst ! RUN = 17110 ! NEVT = 4998
FILE = /castor/cern.ch/delphi/MCprod/ral/kk2f4144/v97g/182.7/kk2f4144_tthl_182.7_17111.xsdst ! RUN = 17111 ! NEVT = 4997
FILE = /castor/cern.ch/delphi/MCprod/ral/kk2f4144/v97g/182.7/kk2f4144_tthl_182.7_17112.xsdst ! RUN = 17112 ! NEVT = 4998
FILE = /castor/cern.ch/delphi/MCprod/ral/kk2f4144/v97g/182.7/kk2f4144_tthl_182.7_17113.xsdst ! RUN = 17113 ! NEVT = 4998
FILE = /castor/cern.ch/delphi/MCprod/ral/kk2f4144/v97g/182.7/kk2f4144_tthl_182.7_17114.xsdst ! RUN = 17114 ! NEVT = 4999
FILE = /castor/cern.ch/delphi/MCprod/ral/kk2f4144/v97g/182.7/kk2f4144_tthl_182.7_17115.xsdst ! RUN = 17115 ! NEVT = 4999
FILE = /castor/cern.ch/delphi/MCprod/ral/kk2f4144/v97g/182.7/kk2f4144_tthl_182.7_17116.xsdst ! RUN = 17116 ! NEVT = 4998
FILE = /castor/cern.ch/delphi/MCprod/ral/kk2f4144/v97g/182.7/kk2f4144_tthl_182.7_17117.xsdst ! RUN = 17117 ! NEVT = 5000
FILE = /castor/cern.ch/delphi/MCprod/ral/kk2f4144/v97g/182.7/kk2f4144_tthl_182.7_17118.xsdst ! RUN = 17118 ! NEVT = 4999
FILE = /castor/cern.ch/delphi/MCprod/ral/kk2f4144/v97g/182.7/kk2f4144_tthl_182.7_17119.xsdst ! RUN = 17119 ! NEVT = 4999
FILE = /castor/cern.ch/delphi/MCprod/ral/kk2f4144/v97g/182.7/kk2f4144_tthl_182.7_17120.xsdst ! RUN = 17120 ! NEVT = 4999
FILE = /castor/cern.ch/delphi/MCprod/ral/kk2f4144/v97g/182.7/kk2f4144_tthl_182.7_17121.xsdst ! RUN = 17121 ! NEVT = 4999
FILE = /castor/cern.ch/delphi/MCprod/ral/kk2f4144/v97g/182.7/kk2f4144_tthl_182.7_17122.xsdst ! RUN = 17122 ! NEVT = 4997
FILE = /castor/cern.ch/delphi/MCprod/ral/kk2f4144/v97g/182.7/kk2f4144_tthl_182.7_17123.xsdst ! RUN = 17123 ! NEVT = 4999
FILE = /castor/cern.ch/delphi/MCprod/ral/kk2f4144/v97g/182.7/kk2f4144_tthl_182.7_17124.xsdst ! RUN = 17124 ! NEVT = 4999
FILE = /castor/cern.ch/delphi/MCprod/ral/kk2f4144/v97g/182.7/kk2f4144_tthl_182.7_17125.xsdst ! RUN = 17125 ! NEVT = 5000
FILE = /castor/cern.ch/delphi/MCprod/ral/kk2f4144/v97g/182.7/kk2f4144_tthl_182.7_17126.xsdst ! RUN = 17126 ! NEVT = 4998
FILE = /castor/cern.ch/delphi/MCprod/ral/kk2f4144/v97g/182.7/kk2f4144_tthl_182.7_17127.xsdst ! RUN = 17127 ! NEVT = 4996
FILE = /castor/cern.ch/delphi/MCprod/ral/kk2f4144/v97g/182.7/kk2f4144_tthl_182.7_17128.xsdst ! RUN = 17128 ! NEVT = 5000
FILE = /castor/cern.ch/delphi/MCprod/ral/kk2f4144/v97g/182.7/kk2f4144_tthl_182.7_17129.xsdst ! RUN = 17129 ! NEVT = 5000
FILE = /castor/cern.ch/delphi/MCprod/ral/kk2f4144/v97g/182.7/kk2f4144_tthl_182.7_17130.xsdst ! RUN = 17130 ! NEVT = 4999
FILE = /castor/cern.ch/delphi/MCprod/ral/kk2f4144/v97g/182.7/kk2f4144_tthl_182.7_17131.xsdst ! RUN = 17131 ! NEVT = 4998
FILE = /castor/cern.ch/delphi/MCprod/ral/kk2f4144/v97g/182.7/kk2f4144_tthl_182.7_17132.xsdst ! RUN = 17132 ! NEVT = 4998
FILE = /castor/cern.ch/delphi/MCprod/ral/kk2f4144/v97g/182.7/kk2f4144_tthl_182.7_17133.xsdst ! RUN = 17133 ! NEVT = 5000
FILE = /castor/cern.ch/delphi/MCprod/ral/kk2f4144/v97g/182.7/kk2f4144_tthl_182.7_17134.xsdst ! RUN = 17134 ! NEVT = 5000
FILE = /castor/cern.ch/delphi/MCprod/ral/kk2f4144/v97g/182.7/kk2f4144_tthl_182.7_17135.xsdst ! RUN = 17135 ! NEVT = 4998
FILE = /castor/cern.ch/delphi/MCprod/ral/kk2f4144/v97g/182.7/kk2f4144_tthl_182.7_17136.xsdst ! RUN = 17136 ! NEVT = 5000
FILE = /castor/cern.ch/delphi/MCprod/ral/kk2f4144/v97g/182.7/kk2f4144_tthl_182.7_17137.xsdst ! RUN = 17137 ! NEVT = 4999
FILE = /castor/cern.ch/delphi/MCprod/ral/kk2f4144/v97g/182.7/kk2f4144_tthl_182.7_17138.xsdst ! RUN = 17138 ! NEVT = 4997
FILE = /castor/cern.ch/delphi/MCprod/ral/kk2f4144/v97g/182.7/kk2f4144_tthl_182.7_17139.xsdst ! RUN = 17139 ! NEVT = 4999
FILE = /castor/cern.ch/delphi/MCprod/ral/kk2f4144/v97g/182.7/kk2f4144_tthl_182.7_17140.xsdst ! RUN = 17140 ! NEVT = 4998
