# index of html fragments. Provides additional information for sorting files. DO NOT REMOVE.
#File Name                                       year processing   category      files          events     energy       mass      mass2       labo
xs_wphact23cc_e206.5_mxxx_c99_1l_a1             2000      v99a1      4FERM        547         1085429      206.5      m80.4          -       CERN
