*   Nickname :     xs_hzha03pyth6156ha4t_e206.5_m4_m90_ca0_1l_u1
*   Generic Name : //CERN/DELPHI/P02_SIMD/XSDST/HZHA03PYTH6156HA4T/E206.5/CERN/SUMT/C001-2
*   Description :   Extended Short DST simulation a0u  done at ecm=206.5 GeV , CERN
*   Comments :     in total 1999 events in 2 files, time stamp: Tue Nov 12 4:16:58 2002
*
*
*
FILE = /castor/cern.ch/delphi/MCprod/cern/hzha03pyth6156/va0u/206.5/hzha03pyth6156_ha4t_206.5_4_90_1305.xsdst ! RUN = 1305 ! NEVT = 999
FILE = /castor/cern.ch/delphi/MCprod/cern/hzha03pyth6156/va0u/206.5/hzha03pyth6156_ha4t_206.5_4_90_1306.xsdst ! RUN = 1306 ! NEVT = 1000
