*
*   Nickname     : xs_hzha03pyth6156habbtt_e206.5_m95_m95_ra0_1l_u1
*   Generic Name : //CERN/DELPHI/P02_SIMD/XSDST/HZHA03PYTH6156HABBTT/E206.5/RAL/SUMT/C001-5
*   Description  :  Extended Short DST simulation a0_u1 done at ecms=206.5 , RAL
*---
*   Comments     : in total 2498 events in 5 files time stamp: Sun Nov 25 20:47:45 2001
*---
*
*
*
*
*
FILE = /castor/cern.ch/delphi/MCprod/ral/hzha03pyth6156/va0u/206.5/hzha03pyth6156_habbtt_206.5_95_95_21601.xsdst ! RUN = 21601 ! NEVT = 500
FILE = /castor/cern.ch/delphi/MCprod/ral/hzha03pyth6156/va0u/206.5/hzha03pyth6156_habbtt_206.5_95_95_21602.xsdst ! RUN = 21602 ! NEVT = 500
FILE = /castor/cern.ch/delphi/MCprod/ral/hzha03pyth6156/va0u/206.5/hzha03pyth6156_habbtt_206.5_95_95_21603.xsdst ! RUN = 21603 ! NEVT = 500
FILE = /castor/cern.ch/delphi/MCprod/ral/hzha03pyth6156/va0u/206.5/hzha03pyth6156_habbtt_206.5_95_95_21604.xsdst ! RUN = 21604 ! NEVT = 498
FILE = /castor/cern.ch/delphi/MCprod/ral/hzha03pyth6156/va0u/206.5/hzha03pyth6156_habbtt_206.5_95_95_21605.xsdst ! RUN = 21605 ! NEVT = 500
