*
*   Nickname     : xs_gpym_e200_c99_1l_a1
*   Generic Name : //CERN/DELPHI/P02_SIMD/XSDST/GPYM/SUMT
*   Description  : ShortDST gamma gamma -> hadrons  PYTHIA6143 generator Lyon, XSEC = 8.92+-0.01 nb Extended Short DST simulation  200 
*---
*   Comments     :  time stamp: Tue Feb 13 10:06:44 2001
*---
*
*
*  Comments: produced Xmas 2000, on Linux farms at Cern and Lyon. Only the
*            XSDST data have been saved.
*            After many "operational challenges", few problems remain:
*            -- 12 run had Dstana Zebra crashes (reported)
*            -- 1 run had a Delana problem (reported)
*            -- 5 files were somehow truncated when they were copied into Castor
*               (reported). All were rerun successfully.
*
*                                          JvE, Dec 2000
*  xs_gpym_e200_l99_1l_a1 and xs_gpym_e200_c99_1l_a1
*  contain in total 10.000 files, containing 9.995.332 events
*
FILE = /castor/cern.ch/delphi/MCprod/lyon/p6143/v99_4/200/run19001.xsdst ! NEVT =   1000
FILE = /castor/cern.ch/delphi/MCprod/lyon/p6143/v99_4/200/run19002.xsdst ! NEVT =   1000
FILE = /castor/cern.ch/delphi/MCprod/lyon/p6143/v99_4/200/run19003.xsdst ! NEVT =   1000
FILE = /castor/cern.ch/delphi/MCprod/lyon/p6143/v99_4/200/run19004.xsdst ! NEVT =   1000
FILE = /castor/cern.ch/delphi/MCprod/lyon/p6143/v99_4/200/run19005.xsdst ! NEVT =   1000
FILE = /castor/cern.ch/delphi/MCprod/lyon/p6143/v99_4/200/run19006.xsdst ! NEVT =   1000
FILE = /castor/cern.ch/delphi/MCprod/lyon/p6143/v99_4/200/run19007.xsdst ! NEVT =   1000
FILE = /castor/cern.ch/delphi/MCprod/lyon/p6143/v99_4/200/run19008.xsdst ! NEVT =   1000
FILE = /castor/cern.ch/delphi/MCprod/lyon/p6143/v99_4/200/run19009.xsdst ! NEVT =   1000
FILE = /castor/cern.ch/delphi/MCprod/lyon/p6143/v99_4/200/run19010.xsdst ! NEVT =   1000
FILE = /castor/cern.ch/delphi/MCprod/lyon/p6143/v99_4/200/run19011.xsdst ! NEVT =   1000
FILE = /castor/cern.ch/delphi/MCprod/lyon/p6143/v99_4/200/run19012.xsdst ! NEVT =   1000
FILE = /castor/cern.ch/delphi/MCprod/lyon/p6143/v99_4/200/run19013.xsdst ! NEVT =   1000
FILE = /castor/cern.ch/delphi/MCprod/lyon/p6143/v99_4/200/run19014.xsdst ! NEVT =   1000
FILE = /castor/cern.ch/delphi/MCprod/lyon/p6143/v99_4/200/run19015.xsdst ! NEVT =   1000
FILE = /castor/cern.ch/delphi/MCprod/lyon/p6143/v99_4/200/run19016.xsdst ! NEVT =   1000
FILE = /castor/cern.ch/delphi/MCprod/lyon/p6143/v99_4/200/run19017.xsdst ! NEVT =   1000
FILE = /castor/cern.ch/delphi/MCprod/lyon/p6143/v99_4/200/run19018.xsdst ! NEVT =   1000
FILE = /castor/cern.ch/delphi/MCprod/lyon/p6143/v99_4/200/run19019.xsdst ! NEVT =   1000
FILE = /castor/cern.ch/delphi/MCprod/lyon/p6143/v99_4/200/run19020.xsdst ! NEVT =   1000
FILE = /castor/cern.ch/delphi/MCprod/lyon/p6143/v99_4/200/run19021.xsdst ! NEVT =   1000
FILE = /castor/cern.ch/delphi/MCprod/lyon/p6143/v99_4/200/run19022.xsdst ! NEVT =   1000
FILE = /castor/cern.ch/delphi/MCprod/lyon/p6143/v99_4/200/run19023.xsdst ! NEVT =   1000
FILE = /castor/cern.ch/delphi/MCprod/lyon/p6143/v99_4/200/run19024.xsdst ! NEVT =   1000
FILE = /castor/cern.ch/delphi/MCprod/lyon/p6143/v99_4/200/run19025.xsdst ! NEVT =   1000
FILE = /castor/cern.ch/delphi/MCprod/lyon/p6143/v99_4/200/run19026.xsdst ! NEVT =   1000
FILE = /castor/cern.ch/delphi/MCprod/lyon/p6143/v99_4/200/run19027.xsdst ! NEVT =   1000
FILE = /castor/cern.ch/delphi/MCprod/lyon/p6143/v99_4/200/run19028.xsdst ! NEVT =   1000
FILE = /castor/cern.ch/delphi/MCprod/lyon/p6143/v99_4/200/run19029.xsdst ! NEVT =   1000
FILE = /castor/cern.ch/delphi/MCprod/lyon/p6143/v99_4/200/run19030.xsdst ! NEVT =   1000
FILE = /castor/cern.ch/delphi/MCprod/lyon/p6143/v99_4/200/run19031.xsdst ! NEVT =   1000
FILE = /castor/cern.ch/delphi/MCprod/lyon/p6143/v99_4/200/run19032.xsdst ! NEVT =   1000
FILE = /castor/cern.ch/delphi/MCprod/lyon/p6143/v99_4/200/run19033.xsdst ! NEVT =   1000
FILE = /castor/cern.ch/delphi/MCprod/lyon/p6143/v99_4/200/run19034.xsdst ! NEVT =   1000
FILE = /castor/cern.ch/delphi/MCprod/lyon/p6143/v99_4/200/run19035.xsdst ! NEVT =   1000
FILE = /castor/cern.ch/delphi/MCprod/lyon/p6143/v99_4/200/run19036.xsdst ! NEVT =   1000
FILE = /castor/cern.ch/delphi/MCprod/lyon/p6143/v99_4/200/run19037.xsdst ! NEVT =   1000
FILE = /castor/cern.ch/delphi/MCprod/lyon/p6143/v99_4/200/run19038.xsdst ! NEVT =   1000
FILE = /castor/cern.ch/delphi/MCprod/lyon/p6143/v99_4/200/run19039.xsdst ! NEVT =   1000
FILE = /castor/cern.ch/delphi/MCprod/lyon/p6143/v99_4/200/run19040.xsdst ! NEVT =   1000
FILE = /castor/cern.ch/delphi/MCprod/lyon/p6143/v99_4/200/run19041.xsdst ! NEVT =   1000
FILE = /castor/cern.ch/delphi/MCprod/lyon/p6143/v99_4/200/run19042.xsdst ! NEVT =   1000
FILE = /castor/cern.ch/delphi/MCprod/lyon/p6143/v99_4/200/run19043.xsdst ! NEVT =   1000
FILE = /castor/cern.ch/delphi/MCprod/lyon/p6143/v99_4/200/run19044.xsdst ! NEVT =   1000
FILE = /castor/cern.ch/delphi/MCprod/lyon/p6143/v99_4/200/run19045.xsdst ! NEVT =   1000
FILE = /castor/cern.ch/delphi/MCprod/lyon/p6143/v99_4/200/run19046.xsdst ! NEVT =   1000
FILE = /castor/cern.ch/delphi/MCprod/lyon/p6143/v99_4/200/run19047.xsdst ! NEVT =   1000
FILE = /castor/cern.ch/delphi/MCprod/lyon/p6143/v99_4/200/run19048.xsdst ! NEVT =   1000
FILE = /castor/cern.ch/delphi/MCprod/lyon/p6143/v99_4/200/run19049.xsdst ! NEVT =   1000
FILE = /castor/cern.ch/delphi/MCprod/lyon/p6143/v99_4/200/run19050.xsdst ! NEVT =   1000
FILE = /castor/cern.ch/delphi/MCprod/lyon/p6143/v99_4/200/run19051.xsdst ! NEVT =   1000
FILE = /castor/cern.ch/delphi/MCprod/lyon/p6143/v99_4/200/run19052.xsdst ! NEVT =   1000
FILE = /castor/cern.ch/delphi/MCprod/lyon/p6143/v99_4/200/run19053.xsdst ! NEVT =   1000
FILE = /castor/cern.ch/delphi/MCprod/lyon/p6143/v99_4/200/run19054.xsdst ! NEVT =   1000
FILE = /castor/cern.ch/delphi/MCprod/lyon/p6143/v99_4/200/run19055.xsdst ! NEVT =   1000
FILE = /castor/cern.ch/delphi/MCprod/lyon/p6143/v99_4/200/run19056.xsdst ! NEVT =   1000
FILE = /castor/cern.ch/delphi/MCprod/lyon/p6143/v99_4/200/run19057.xsdst ! NEVT =   1000
FILE = /castor/cern.ch/delphi/MCprod/lyon/p6143/v99_4/200/run19058.xsdst ! NEVT =   1000
FILE = /castor/cern.ch/delphi/MCprod/lyon/p6143/v99_4/200/run19059.xsdst ! NEVT =   1000
FILE = /castor/cern.ch/delphi/MCprod/lyon/p6143/v99_4/200/run19060.xsdst ! NEVT =   1000
FILE = /castor/cern.ch/delphi/MCprod/lyon/p6143/v99_4/200/run19061.xsdst ! NEVT =   1000
FILE = /castor/cern.ch/delphi/MCprod/lyon/p6143/v99_4/200/run19062.xsdst ! NEVT =   1000
FILE = /castor/cern.ch/delphi/MCprod/lyon/p6143/v99_4/200/run19063.xsdst ! NEVT =   1000
FILE = /castor/cern.ch/delphi/MCprod/lyon/p6143/v99_4/200/run19064.xsdst ! NEVT =   1000
FILE = /castor/cern.ch/delphi/MCprod/lyon/p6143/v99_4/200/run19065.xsdst ! NEVT =   1000
FILE = /castor/cern.ch/delphi/MCprod/lyon/p6143/v99_4/200/run19066.xsdst ! NEVT =   1000
FILE = /castor/cern.ch/delphi/MCprod/lyon/p6143/v99_4/200/run19067.xsdst ! NEVT =   1000
FILE = /castor/cern.ch/delphi/MCprod/lyon/p6143/v99_4/200/run19068.xsdst ! NEVT =   1000
FILE = /castor/cern.ch/delphi/MCprod/lyon/p6143/v99_4/200/run19069.xsdst ! NEVT =   1000
FILE = /castor/cern.ch/delphi/MCprod/lyon/p6143/v99_4/200/run19070.xsdst ! NEVT =   1000
FILE = /castor/cern.ch/delphi/MCprod/lyon/p6143/v99_4/200/run19071.xsdst ! NEVT =   1000
FILE = /castor/cern.ch/delphi/MCprod/lyon/p6143/v99_4/200/run19072.xsdst ! NEVT =   1000
FILE = /castor/cern.ch/delphi/MCprod/lyon/p6143/v99_4/200/run19073.xsdst ! NEVT =   1000
FILE = /castor/cern.ch/delphi/MCprod/lyon/p6143/v99_4/200/run19074.xsdst ! NEVT =   1000
FILE = /castor/cern.ch/delphi/MCprod/lyon/p6143/v99_4/200/run19075.xsdst ! NEVT =   1000
FILE = /castor/cern.ch/delphi/MCprod/lyon/p6143/v99_4/200/run19076.xsdst ! NEVT =   1000
FILE = /castor/cern.ch/delphi/MCprod/lyon/p6143/v99_4/200/run19077.xsdst ! NEVT =   1000
FILE = /castor/cern.ch/delphi/MCprod/lyon/p6143/v99_4/200/run19078.xsdst ! NEVT =   1000
FILE = /castor/cern.ch/delphi/MCprod/lyon/p6143/v99_4/200/run19079.xsdst ! NEVT =   1000
FILE = /castor/cern.ch/delphi/MCprod/lyon/p6143/v99_4/200/run19080.xsdst ! NEVT =   1000
FILE = /castor/cern.ch/delphi/MCprod/lyon/p6143/v99_4/200/run19081.xsdst ! NEVT =   1000
FILE = /castor/cern.ch/delphi/MCprod/lyon/p6143/v99_4/200/run19082.xsdst ! NEVT =   1000
FILE = /castor/cern.ch/delphi/MCprod/lyon/p6143/v99_4/200/run19083.xsdst ! NEVT =   1000
FILE = /castor/cern.ch/delphi/MCprod/lyon/p6143/v99_4/200/run19084.xsdst ! NEVT =   1000
FILE = /castor/cern.ch/delphi/MCprod/lyon/p6143/v99_4/200/run19085.xsdst ! NEVT =   1000
FILE = /castor/cern.ch/delphi/MCprod/lyon/p6143/v99_4/200/run19086.xsdst ! NEVT =   1000
FILE = /castor/cern.ch/delphi/MCprod/lyon/p6143/v99_4/200/run19087.xsdst ! NEVT =   1000
FILE = /castor/cern.ch/delphi/MCprod/lyon/p6143/v99_4/200/run19088.xsdst ! NEVT =   1000
FILE = /castor/cern.ch/delphi/MCprod/lyon/p6143/v99_4/200/run19089.xsdst ! NEVT =   1000
FILE = /castor/cern.ch/delphi/MCprod/lyon/p6143/v99_4/200/run19090.xsdst ! NEVT =   1000
FILE = /castor/cern.ch/delphi/MCprod/lyon/p6143/v99_4/200/run19091.xsdst ! NEVT =   1000
FILE = /castor/cern.ch/delphi/MCprod/lyon/p6143/v99_4/200/run19092.xsdst ! NEVT =   1000
FILE = /castor/cern.ch/delphi/MCprod/lyon/p6143/v99_4/200/run19093.xsdst ! NEVT =   1000
FILE = /castor/cern.ch/delphi/MCprod/lyon/p6143/v99_4/200/run19094.xsdst ! NEVT =   1000
FILE = /castor/cern.ch/delphi/MCprod/lyon/p6143/v99_4/200/run19095.xsdst ! NEVT =   1000
FILE = /castor/cern.ch/delphi/MCprod/lyon/p6143/v99_4/200/run19096.xsdst ! NEVT =   1000
FILE = /castor/cern.ch/delphi/MCprod/lyon/p6143/v99_4/200/run19097.xsdst ! NEVT =   1000
FILE = /castor/cern.ch/delphi/MCprod/lyon/p6143/v99_4/200/run19098.xsdst ! NEVT =   1000
FILE = /castor/cern.ch/delphi/MCprod/lyon/p6143/v99_4/200/run19099.xsdst ! NEVT =   1000
FILE = /castor/cern.ch/delphi/MCprod/lyon/p6143/v99_4/200/run19100.xsdst ! NEVT =   1000
FILE = /castor/cern.ch/delphi/MCprod/lyon/p6143/v99_4/200/run19101.xsdst ! NEVT =   1000
FILE = /castor/cern.ch/delphi/MCprod/lyon/p6143/v99_4/200/run19102.xsdst ! NEVT =   1000
FILE = /castor/cern.ch/delphi/MCprod/lyon/p6143/v99_4/200/run19103.xsdst ! NEVT =   1000
FILE = /castor/cern.ch/delphi/MCprod/lyon/p6143/v99_4/200/run19104.xsdst ! NEVT =   1000
FILE = /castor/cern.ch/delphi/MCprod/lyon/p6143/v99_4/200/run19105.xsdst ! NEVT =   1000
FILE = /castor/cern.ch/delphi/MCprod/lyon/p6143/v99_4/200/run19106.xsdst ! NEVT =   1000
FILE = /castor/cern.ch/delphi/MCprod/lyon/p6143/v99_4/200/run19107.xsdst ! NEVT =   1000
FILE = /castor/cern.ch/delphi/MCprod/lyon/p6143/v99_4/200/run19108.xsdst ! NEVT =   1000
FILE = /castor/cern.ch/delphi/MCprod/lyon/p6143/v99_4/200/run19109.xsdst ! NEVT =   1000
FILE = /castor/cern.ch/delphi/MCprod/lyon/p6143/v99_4/200/run19110.xsdst ! NEVT =   1000
FILE = /castor/cern.ch/delphi/MCprod/lyon/p6143/v99_4/200/run19111.xsdst ! NEVT =   1000
FILE = /castor/cern.ch/delphi/MCprod/lyon/p6143/v99_4/200/run19112.xsdst ! NEVT =   1000
FILE = /castor/cern.ch/delphi/MCprod/lyon/p6143/v99_4/200/run19113.xsdst ! NEVT =   1000
FILE = /castor/cern.ch/delphi/MCprod/lyon/p6143/v99_4/200/run19114.xsdst ! NEVT =   1000
FILE = /castor/cern.ch/delphi/MCprod/lyon/p6143/v99_4/200/run19115.xsdst ! NEVT =   1000
FILE = /castor/cern.ch/delphi/MCprod/lyon/p6143/v99_4/200/run19116.xsdst ! NEVT =   1000
FILE = /castor/cern.ch/delphi/MCprod/lyon/p6143/v99_4/200/run19117.xsdst ! NEVT =   1000
FILE = /castor/cern.ch/delphi/MCprod/lyon/p6143/v99_4/200/run19118.xsdst ! NEVT =   1000
FILE = /castor/cern.ch/delphi/MCprod/lyon/p6143/v99_4/200/run19119.xsdst ! NEVT =   1000
FILE = /castor/cern.ch/delphi/MCprod/lyon/p6143/v99_4/200/run19120.xsdst ! NEVT =   1000
FILE = /castor/cern.ch/delphi/MCprod/lyon/p6143/v99_4/200/run19121.xsdst ! NEVT =   1000
FILE = /castor/cern.ch/delphi/MCprod/lyon/p6143/v99_4/200/run19122.xsdst ! NEVT =   1000
FILE = /castor/cern.ch/delphi/MCprod/lyon/p6143/v99_4/200/run19123.xsdst ! NEVT =   1000
FILE = /castor/cern.ch/delphi/MCprod/lyon/p6143/v99_4/200/run19124.xsdst ! NEVT =   1000
FILE = /castor/cern.ch/delphi/MCprod/lyon/p6143/v99_4/200/run19125.xsdst ! NEVT =   1000
FILE = /castor/cern.ch/delphi/MCprod/lyon/p6143/v99_4/200/run19126.xsdst ! NEVT =   1000
FILE = /castor/cern.ch/delphi/MCprod/lyon/p6143/v99_4/200/run19127.xsdst ! NEVT =   1000
FILE = /castor/cern.ch/delphi/MCprod/lyon/p6143/v99_4/200/run19128.xsdst ! NEVT =   1000
FILE = /castor/cern.ch/delphi/MCprod/lyon/p6143/v99_4/200/run19129.xsdst ! NEVT =   1000
FILE = /castor/cern.ch/delphi/MCprod/lyon/p6143/v99_4/200/run19130.xsdst ! NEVT =   1000
FILE = /castor/cern.ch/delphi/MCprod/lyon/p6143/v99_4/200/run19131.xsdst ! NEVT =   1000
FILE = /castor/cern.ch/delphi/MCprod/lyon/p6143/v99_4/200/run19132.xsdst ! NEVT =   1000
FILE = /castor/cern.ch/delphi/MCprod/lyon/p6143/v99_4/200/run19133.xsdst ! NEVT =   1000
FILE = /castor/cern.ch/delphi/MCprod/lyon/p6143/v99_4/200/run19134.xsdst ! NEVT =   1000
FILE = /castor/cern.ch/delphi/MCprod/lyon/p6143/v99_4/200/run19135.xsdst ! NEVT =   1000
FILE = /castor/cern.ch/delphi/MCprod/lyon/p6143/v99_4/200/run19136.xsdst ! NEVT =   1000
FILE = /castor/cern.ch/delphi/MCprod/lyon/p6143/v99_4/200/run19137.xsdst ! NEVT =   1000
FILE = /castor/cern.ch/delphi/MCprod/lyon/p6143/v99_4/200/run19138.xsdst ! NEVT =   1000
FILE = /castor/cern.ch/delphi/MCprod/lyon/p6143/v99_4/200/run19139.xsdst ! NEVT =   1000
FILE = /castor/cern.ch/delphi/MCprod/lyon/p6143/v99_4/200/run19140.xsdst ! NEVT =   1000
FILE = /castor/cern.ch/delphi/MCprod/lyon/p6143/v99_4/200/run19141.xsdst ! NEVT =   1000
FILE = /castor/cern.ch/delphi/MCprod/lyon/p6143/v99_4/200/run19142.xsdst ! NEVT =   1000
FILE = /castor/cern.ch/delphi/MCprod/lyon/p6143/v99_4/200/run19143.xsdst ! NEVT =   1000
FILE = /castor/cern.ch/delphi/MCprod/lyon/p6143/v99_4/200/run19144.xsdst ! NEVT =   1000
FILE = /castor/cern.ch/delphi/MCprod/lyon/p6143/v99_4/200/run19145.xsdst ! NEVT =   1000
FILE = /castor/cern.ch/delphi/MCprod/lyon/p6143/v99_4/200/run19146.xsdst ! NEVT =   1000
FILE = /castor/cern.ch/delphi/MCprod/lyon/p6143/v99_4/200/run19147.xsdst ! NEVT =   1000
FILE = /castor/cern.ch/delphi/MCprod/lyon/p6143/v99_4/200/run19148.xsdst ! NEVT =   1000
FILE = /castor/cern.ch/delphi/MCprod/lyon/p6143/v99_4/200/run19149.xsdst ! NEVT =   1000
FILE = /castor/cern.ch/delphi/MCprod/lyon/p6143/v99_4/200/run19150.xsdst ! NEVT =   1000
FILE = /castor/cern.ch/delphi/MCprod/lyon/p6143/v99_4/200/run19151.xsdst ! NEVT =   1000
FILE = /castor/cern.ch/delphi/MCprod/lyon/p6143/v99_4/200/run19152.xsdst ! NEVT =   1000
FILE = /castor/cern.ch/delphi/MCprod/lyon/p6143/v99_4/200/run19153.xsdst ! NEVT =   1000
FILE = /castor/cern.ch/delphi/MCprod/lyon/p6143/v99_4/200/run19154.xsdst ! NEVT =   1000
FILE = /castor/cern.ch/delphi/MCprod/lyon/p6143/v99_4/200/run19155.xsdst ! NEVT =   1000
FILE = /castor/cern.ch/delphi/MCprod/lyon/p6143/v99_4/200/run19156.xsdst ! NEVT =   1000
FILE = /castor/cern.ch/delphi/MCprod/lyon/p6143/v99_4/200/run19157.xsdst ! NEVT =   1000
FILE = /castor/cern.ch/delphi/MCprod/lyon/p6143/v99_4/200/run19158.xsdst ! NEVT =   1000
FILE = /castor/cern.ch/delphi/MCprod/lyon/p6143/v99_4/200/run19159.xsdst ! NEVT =   1000
FILE = /castor/cern.ch/delphi/MCprod/lyon/p6143/v99_4/200/run19160.xsdst ! NEVT =   1000
FILE = /castor/cern.ch/delphi/MCprod/lyon/p6143/v99_4/200/run19161.xsdst ! NEVT =   1000
FILE = /castor/cern.ch/delphi/MCprod/lyon/p6143/v99_4/200/run19162.xsdst ! NEVT =   1000
FILE = /castor/cern.ch/delphi/MCprod/lyon/p6143/v99_4/200/run19163.xsdst ! NEVT =   1000
FILE = /castor/cern.ch/delphi/MCprod/lyon/p6143/v99_4/200/run19164.xsdst ! NEVT =   1000
FILE = /castor/cern.ch/delphi/MCprod/lyon/p6143/v99_4/200/run19165.xsdst ! NEVT =   1000
FILE = /castor/cern.ch/delphi/MCprod/lyon/p6143/v99_4/200/run19166.xsdst ! NEVT =   1000
FILE = /castor/cern.ch/delphi/MCprod/lyon/p6143/v99_4/200/run19167.xsdst ! NEVT =   1000
FILE = /castor/cern.ch/delphi/MCprod/lyon/p6143/v99_4/200/run19168.xsdst ! NEVT =   1000
FILE = /castor/cern.ch/delphi/MCprod/lyon/p6143/v99_4/200/run19169.xsdst ! NEVT =   1000
FILE = /castor/cern.ch/delphi/MCprod/lyon/p6143/v99_4/200/run19170.xsdst ! NEVT =   1000
FILE = /castor/cern.ch/delphi/MCprod/lyon/p6143/v99_4/200/run19171.xsdst ! NEVT =   1000
FILE = /castor/cern.ch/delphi/MCprod/lyon/p6143/v99_4/200/run19172.xsdst ! NEVT =   1000
FILE = /castor/cern.ch/delphi/MCprod/lyon/p6143/v99_4/200/run19173.xsdst ! NEVT =   1000
FILE = /castor/cern.ch/delphi/MCprod/lyon/p6143/v99_4/200/run19174.xsdst ! NEVT =   1000
FILE = /castor/cern.ch/delphi/MCprod/lyon/p6143/v99_4/200/run19175.xsdst ! NEVT =   1000
FILE = /castor/cern.ch/delphi/MCprod/lyon/p6143/v99_4/200/run19176.xsdst ! NEVT =   1000
FILE = /castor/cern.ch/delphi/MCprod/lyon/p6143/v99_4/200/run19177.xsdst ! NEVT =   1000
FILE = /castor/cern.ch/delphi/MCprod/lyon/p6143/v99_4/200/run19178.xsdst ! NEVT =   1000
FILE = /castor/cern.ch/delphi/MCprod/lyon/p6143/v99_4/200/run19179.xsdst ! NEVT =   1000
FILE = /castor/cern.ch/delphi/MCprod/lyon/p6143/v99_4/200/run19180.xsdst ! NEVT =   1000
FILE = /castor/cern.ch/delphi/MCprod/lyon/p6143/v99_4/200/run19181.xsdst ! NEVT =   1000
FILE = /castor/cern.ch/delphi/MCprod/lyon/p6143/v99_4/200/run19182.xsdst ! NEVT =   1000
FILE = /castor/cern.ch/delphi/MCprod/lyon/p6143/v99_4/200/run19183.xsdst ! NEVT =   1000
FILE = /castor/cern.ch/delphi/MCprod/lyon/p6143/v99_4/200/run19184.xsdst ! NEVT =   1000
FILE = /castor/cern.ch/delphi/MCprod/lyon/p6143/v99_4/200/run19185.xsdst ! NEVT =   1000
FILE = /castor/cern.ch/delphi/MCprod/lyon/p6143/v99_4/200/run19186.xsdst ! NEVT =   1000
FILE = /castor/cern.ch/delphi/MCprod/lyon/p6143/v99_4/200/run19187.xsdst ! NEVT =   1000
FILE = /castor/cern.ch/delphi/MCprod/lyon/p6143/v99_4/200/run19188.xsdst ! NEVT =   1000
FILE = /castor/cern.ch/delphi/MCprod/lyon/p6143/v99_4/200/run19189.xsdst ! NEVT =   1000
FILE = /castor/cern.ch/delphi/MCprod/lyon/p6143/v99_4/200/run19190.xsdst ! NEVT =   1000
FILE = /castor/cern.ch/delphi/MCprod/lyon/p6143/v99_4/200/run19191.xsdst ! NEVT =   1000
FILE = /castor/cern.ch/delphi/MCprod/lyon/p6143/v99_4/200/run19192.xsdst ! NEVT =   1000
FILE = /castor/cern.ch/delphi/MCprod/lyon/p6143/v99_4/200/run19193.xsdst ! NEVT =   1000
FILE = /castor/cern.ch/delphi/MCprod/lyon/p6143/v99_4/200/run19194.xsdst ! NEVT =   1000
FILE = /castor/cern.ch/delphi/MCprod/lyon/p6143/v99_4/200/run19195.xsdst ! NEVT =   1000
FILE = /castor/cern.ch/delphi/MCprod/lyon/p6143/v99_4/200/run19196.xsdst ! NEVT =   1000
FILE = /castor/cern.ch/delphi/MCprod/lyon/p6143/v99_4/200/run19197.xsdst ! NEVT =   1000
FILE = /castor/cern.ch/delphi/MCprod/lyon/p6143/v99_4/200/run19198.xsdst ! NEVT =   1000
FILE = /castor/cern.ch/delphi/MCprod/lyon/p6143/v99_4/200/run19199.xsdst ! NEVT =   1000
FILE = /castor/cern.ch/delphi/MCprod/lyon/p6143/v99_4/200/run19200.xsdst ! NEVT =   1000
FILE = /castor/cern.ch/delphi/MCprod/lyon/p6143/v99_4/200/run19201.xsdst ! NEVT =   1000
FILE = /castor/cern.ch/delphi/MCprod/lyon/p6143/v99_4/200/run19202.xsdst ! NEVT =   1000
FILE = /castor/cern.ch/delphi/MCprod/lyon/p6143/v99_4/200/run19203.xsdst ! NEVT =   1000
FILE = /castor/cern.ch/delphi/MCprod/lyon/p6143/v99_4/200/run19204.xsdst ! NEVT =   1000
FILE = /castor/cern.ch/delphi/MCprod/lyon/p6143/v99_4/200/run19205.xsdst ! NEVT =   1000
FILE = /castor/cern.ch/delphi/MCprod/lyon/p6143/v99_4/200/run19206.xsdst ! NEVT =   1000
FILE = /castor/cern.ch/delphi/MCprod/lyon/p6143/v99_4/200/run19207.xsdst ! NEVT =   1000
FILE = /castor/cern.ch/delphi/MCprod/lyon/p6143/v99_4/200/run19208.xsdst ! NEVT =   1000
FILE = /castor/cern.ch/delphi/MCprod/lyon/p6143/v99_4/200/run19209.xsdst ! NEVT =   1000
FILE = /castor/cern.ch/delphi/MCprod/lyon/p6143/v99_4/200/run19210.xsdst ! NEVT =   1000
FILE = /castor/cern.ch/delphi/MCprod/lyon/p6143/v99_4/200/run19211.xsdst ! NEVT =   1000
FILE = /castor/cern.ch/delphi/MCprod/lyon/p6143/v99_4/200/run19212.xsdst ! NEVT =   1000
FILE = /castor/cern.ch/delphi/MCprod/lyon/p6143/v99_4/200/run19213.xsdst ! NEVT =   1000
FILE = /castor/cern.ch/delphi/MCprod/lyon/p6143/v99_4/200/run19214.xsdst ! NEVT =   1000
FILE = /castor/cern.ch/delphi/MCprod/lyon/p6143/v99_4/200/run19215.xsdst ! NEVT =   1000
FILE = /castor/cern.ch/delphi/MCprod/lyon/p6143/v99_4/200/run19216.xsdst ! NEVT =   1000
FILE = /castor/cern.ch/delphi/MCprod/lyon/p6143/v99_4/200/run19217.xsdst ! NEVT =   1000
FILE = /castor/cern.ch/delphi/MCprod/lyon/p6143/v99_4/200/run19218.xsdst ! NEVT =   1000
FILE = /castor/cern.ch/delphi/MCprod/lyon/p6143/v99_4/200/run19219.xsdst ! NEVT =   1000
FILE = /castor/cern.ch/delphi/MCprod/lyon/p6143/v99_4/200/run19220.xsdst ! NEVT =   1000
FILE = /castor/cern.ch/delphi/MCprod/lyon/p6143/v99_4/200/run19221.xsdst ! NEVT =   1000
FILE = /castor/cern.ch/delphi/MCprod/lyon/p6143/v99_4/200/run19222.xsdst ! NEVT =   1000
FILE = /castor/cern.ch/delphi/MCprod/lyon/p6143/v99_4/200/run19223.xsdst ! NEVT =   1000
FILE = /castor/cern.ch/delphi/MCprod/lyon/p6143/v99_4/200/run19224.xsdst ! NEVT =   1000
FILE = /castor/cern.ch/delphi/MCprod/lyon/p6143/v99_4/200/run19225.xsdst ! NEVT =   1000
FILE = /castor/cern.ch/delphi/MCprod/lyon/p6143/v99_4/200/run19226.xsdst ! NEVT =   1000
FILE = /castor/cern.ch/delphi/MCprod/lyon/p6143/v99_4/200/run19227.xsdst ! NEVT =   1000
FILE = /castor/cern.ch/delphi/MCprod/lyon/p6143/v99_4/200/run19228.xsdst ! NEVT =   1000
FILE = /castor/cern.ch/delphi/MCprod/lyon/p6143/v99_4/200/run19229.xsdst ! NEVT =   1000
FILE = /castor/cern.ch/delphi/MCprod/lyon/p6143/v99_4/200/run19230.xsdst ! NEVT =   1000
FILE = /castor/cern.ch/delphi/MCprod/lyon/p6143/v99_4/200/run19231.xsdst ! NEVT =   1000
FILE = /castor/cern.ch/delphi/MCprod/lyon/p6143/v99_4/200/run19232.xsdst ! NEVT =   1000
FILE = /castor/cern.ch/delphi/MCprod/lyon/p6143/v99_4/200/run19233.xsdst ! NEVT =   1000
FILE = /castor/cern.ch/delphi/MCprod/lyon/p6143/v99_4/200/run19234.xsdst ! NEVT =   1000
FILE = /castor/cern.ch/delphi/MCprod/lyon/p6143/v99_4/200/run19235.xsdst ! NEVT =   1000
FILE = /castor/cern.ch/delphi/MCprod/lyon/p6143/v99_4/200/run19236.xsdst ! NEVT =   1000
FILE = /castor/cern.ch/delphi/MCprod/lyon/p6143/v99_4/200/run19237.xsdst ! NEVT =   1000
FILE = /castor/cern.ch/delphi/MCprod/lyon/p6143/v99_4/200/run19238.xsdst ! NEVT =   1000
FILE = /castor/cern.ch/delphi/MCprod/lyon/p6143/v99_4/200/run19239.xsdst ! NEVT =   1000
FILE = /castor/cern.ch/delphi/MCprod/lyon/p6143/v99_4/200/run19240.xsdst ! NEVT =   1000
FILE = /castor/cern.ch/delphi/MCprod/lyon/p6143/v99_4/200/run19241.xsdst ! NEVT =   1000
FILE = /castor/cern.ch/delphi/MCprod/lyon/p6143/v99_4/200/run19242.xsdst ! NEVT =   1000
FILE = /castor/cern.ch/delphi/MCprod/lyon/p6143/v99_4/200/run19243.xsdst ! NEVT =   1000
FILE = /castor/cern.ch/delphi/MCprod/lyon/p6143/v99_4/200/run19244.xsdst ! NEVT =   1000
FILE = /castor/cern.ch/delphi/MCprod/lyon/p6143/v99_4/200/run19245.xsdst ! NEVT =   1000
FILE = /castor/cern.ch/delphi/MCprod/lyon/p6143/v99_4/200/run19246.xsdst ! NEVT =   1000
FILE = /castor/cern.ch/delphi/MCprod/lyon/p6143/v99_4/200/run19247.xsdst ! NEVT =   1000
FILE = /castor/cern.ch/delphi/MCprod/lyon/p6143/v99_4/200/run19248.xsdst ! NEVT =   1000
FILE = /castor/cern.ch/delphi/MCprod/lyon/p6143/v99_4/200/run19249.xsdst ! NEVT =   1000
FILE = /castor/cern.ch/delphi/MCprod/lyon/p6143/v99_4/200/run19250.xsdst ! NEVT =   1000
FILE = /castor/cern.ch/delphi/MCprod/lyon/p6143/v99_4/200/run19251.xsdst ! NEVT =   1000
FILE = /castor/cern.ch/delphi/MCprod/lyon/p6143/v99_4/200/run19252.xsdst ! NEVT =   1000
FILE = /castor/cern.ch/delphi/MCprod/lyon/p6143/v99_4/200/run19253.xsdst ! NEVT =   1000
FILE = /castor/cern.ch/delphi/MCprod/lyon/p6143/v99_4/200/run19254.xsdst ! NEVT =   1000
FILE = /castor/cern.ch/delphi/MCprod/lyon/p6143/v99_4/200/run19255.xsdst ! NEVT =   1000
FILE = /castor/cern.ch/delphi/MCprod/lyon/p6143/v99_4/200/run19256.xsdst ! NEVT =   1000
FILE = /castor/cern.ch/delphi/MCprod/lyon/p6143/v99_4/200/run19257.xsdst ! NEVT =   1000
FILE = /castor/cern.ch/delphi/MCprod/lyon/p6143/v99_4/200/run19258.xsdst ! NEVT =   1000
FILE = /castor/cern.ch/delphi/MCprod/lyon/p6143/v99_4/200/run19259.xsdst ! NEVT =   1000
FILE = /castor/cern.ch/delphi/MCprod/lyon/p6143/v99_4/200/run19260.xsdst ! NEVT =   1000
FILE = /castor/cern.ch/delphi/MCprod/lyon/p6143/v99_4/200/run19261.xsdst ! NEVT =   1000
FILE = /castor/cern.ch/delphi/MCprod/lyon/p6143/v99_4/200/run19262.xsdst ! NEVT =   1000
FILE = /castor/cern.ch/delphi/MCprod/lyon/p6143/v99_4/200/run19263.xsdst ! NEVT =   1000
FILE = /castor/cern.ch/delphi/MCprod/lyon/p6143/v99_4/200/run19264.xsdst ! NEVT =   1000
FILE = /castor/cern.ch/delphi/MCprod/lyon/p6143/v99_4/200/run19265.xsdst ! NEVT =   1000
FILE = /castor/cern.ch/delphi/MCprod/lyon/p6143/v99_4/200/run19266.xsdst ! NEVT =   1000
FILE = /castor/cern.ch/delphi/MCprod/lyon/p6143/v99_4/200/run19267.xsdst ! NEVT =   1000
FILE = /castor/cern.ch/delphi/MCprod/lyon/p6143/v99_4/200/run19268.xsdst ! NEVT =   1000
FILE = /castor/cern.ch/delphi/MCprod/lyon/p6143/v99_4/200/run19269.xsdst ! NEVT =   1000
FILE = /castor/cern.ch/delphi/MCprod/lyon/p6143/v99_4/200/run19270.xsdst ! NEVT =   1000
FILE = /castor/cern.ch/delphi/MCprod/lyon/p6143/v99_4/200/run19271.xsdst ! NEVT =   1000
FILE = /castor/cern.ch/delphi/MCprod/lyon/p6143/v99_4/200/run19272.xsdst ! NEVT =   1000
FILE = /castor/cern.ch/delphi/MCprod/lyon/p6143/v99_4/200/run19273.xsdst ! NEVT =   1000
FILE = /castor/cern.ch/delphi/MCprod/lyon/p6143/v99_4/200/run19274.xsdst ! NEVT =   1000
FILE = /castor/cern.ch/delphi/MCprod/lyon/p6143/v99_4/200/run19275.xsdst ! NEVT =   1000
FILE = /castor/cern.ch/delphi/MCprod/lyon/p6143/v99_4/200/run19276.xsdst ! NEVT =   1000
FILE = /castor/cern.ch/delphi/MCprod/lyon/p6143/v99_4/200/run19277.xsdst ! NEVT =   1000
FILE = /castor/cern.ch/delphi/MCprod/lyon/p6143/v99_4/200/run19278.xsdst ! NEVT =   1000
FILE = /castor/cern.ch/delphi/MCprod/lyon/p6143/v99_4/200/run19279.xsdst ! NEVT =   1000
FILE = /castor/cern.ch/delphi/MCprod/lyon/p6143/v99_4/200/run19280.xsdst ! NEVT =   1000
FILE = /castor/cern.ch/delphi/MCprod/lyon/p6143/v99_4/200/run19281.xsdst ! NEVT =   1000
FILE = /castor/cern.ch/delphi/MCprod/lyon/p6143/v99_4/200/run19282.xsdst ! NEVT =   1000
FILE = /castor/cern.ch/delphi/MCprod/lyon/p6143/v99_4/200/run19283.xsdst ! NEVT =   1000
FILE = /castor/cern.ch/delphi/MCprod/lyon/p6143/v99_4/200/run19284.xsdst ! NEVT =   1000
FILE = /castor/cern.ch/delphi/MCprod/lyon/p6143/v99_4/200/run19285.xsdst ! NEVT =   1000
FILE = /castor/cern.ch/delphi/MCprod/lyon/p6143/v99_4/200/run19286.xsdst ! NEVT =   1000
FILE = /castor/cern.ch/delphi/MCprod/lyon/p6143/v99_4/200/run19287.xsdst ! NEVT =   1000
FILE = /castor/cern.ch/delphi/MCprod/lyon/p6143/v99_4/200/run19288.xsdst ! NEVT =   1000
FILE = /castor/cern.ch/delphi/MCprod/lyon/p6143/v99_4/200/run19289.xsdst ! NEVT =   1000
FILE = /castor/cern.ch/delphi/MCprod/lyon/p6143/v99_4/200/run19290.xsdst ! NEVT =   1000
FILE = /castor/cern.ch/delphi/MCprod/lyon/p6143/v99_4/200/run19291.xsdst ! NEVT =   1000
FILE = /castor/cern.ch/delphi/MCprod/lyon/p6143/v99_4/200/run19292.xsdst ! NEVT =   1000
FILE = /castor/cern.ch/delphi/MCprod/lyon/p6143/v99_4/200/run19293.xsdst ! NEVT =   1000
FILE = /castor/cern.ch/delphi/MCprod/lyon/p6143/v99_4/200/run19294.xsdst ! NEVT =   1000
FILE = /castor/cern.ch/delphi/MCprod/lyon/p6143/v99_4/200/run19295.xsdst ! NEVT =   1000
FILE = /castor/cern.ch/delphi/MCprod/lyon/p6143/v99_4/200/run19296.xsdst ! NEVT =   1000
FILE = /castor/cern.ch/delphi/MCprod/lyon/p6143/v99_4/200/run19297.xsdst ! NEVT =   1000
FILE = /castor/cern.ch/delphi/MCprod/lyon/p6143/v99_4/200/run19298.xsdst ! NEVT =   1000
FILE = /castor/cern.ch/delphi/MCprod/lyon/p6143/v99_4/200/run19299.xsdst ! NEVT =   1000
FILE = /castor/cern.ch/delphi/MCprod/lyon/p6143/v99_4/200/run19300.xsdst ! NEVT =   1000
FILE = /castor/cern.ch/delphi/MCprod/lyon/p6143/v99_4/200/run19301.xsdst ! NEVT =   1000
FILE = /castor/cern.ch/delphi/MCprod/lyon/p6143/v99_4/200/run19302.xsdst ! NEVT =   1000
FILE = /castor/cern.ch/delphi/MCprod/lyon/p6143/v99_4/200/run19303.xsdst ! NEVT =   1000
FILE = /castor/cern.ch/delphi/MCprod/lyon/p6143/v99_4/200/run19304.xsdst ! NEVT =   1000
FILE = /castor/cern.ch/delphi/MCprod/lyon/p6143/v99_4/200/run19305.xsdst ! NEVT =   1000
FILE = /castor/cern.ch/delphi/MCprod/lyon/p6143/v99_4/200/run19306.xsdst ! NEVT =   1000
FILE = /castor/cern.ch/delphi/MCprod/lyon/p6143/v99_4/200/run19307.xsdst ! NEVT =   1000
FILE = /castor/cern.ch/delphi/MCprod/lyon/p6143/v99_4/200/run19308.xsdst ! NEVT =   1000
FILE = /castor/cern.ch/delphi/MCprod/lyon/p6143/v99_4/200/run19309.xsdst ! NEVT =   1000
FILE = /castor/cern.ch/delphi/MCprod/lyon/p6143/v99_4/200/run19310.xsdst ! NEVT =   1000
FILE = /castor/cern.ch/delphi/MCprod/lyon/p6143/v99_4/200/run19311.xsdst ! NEVT =   1000
FILE = /castor/cern.ch/delphi/MCprod/lyon/p6143/v99_4/200/run19312.xsdst ! NEVT =   1000
FILE = /castor/cern.ch/delphi/MCprod/lyon/p6143/v99_4/200/run19313.xsdst ! NEVT =   1000
FILE = /castor/cern.ch/delphi/MCprod/lyon/p6143/v99_4/200/run19314.xsdst ! NEVT =   1000
FILE = /castor/cern.ch/delphi/MCprod/lyon/p6143/v99_4/200/run19315.xsdst ! NEVT =   1000
FILE = /castor/cern.ch/delphi/MCprod/lyon/p6143/v99_4/200/run19316.xsdst ! NEVT =   1000
FILE = /castor/cern.ch/delphi/MCprod/lyon/p6143/v99_4/200/run19317.xsdst ! NEVT =   1000
FILE = /castor/cern.ch/delphi/MCprod/lyon/p6143/v99_4/200/run19318.xsdst ! NEVT =   1000
FILE = /castor/cern.ch/delphi/MCprod/lyon/p6143/v99_4/200/run19319.xsdst ! NEVT =   1000
FILE = /castor/cern.ch/delphi/MCprod/lyon/p6143/v99_4/200/run19320.xsdst ! NEVT =   1000
FILE = /castor/cern.ch/delphi/MCprod/lyon/p6143/v99_4/200/run19321.xsdst ! NEVT =   1000
FILE = /castor/cern.ch/delphi/MCprod/lyon/p6143/v99_4/200/run19322.xsdst ! NEVT =   1000
FILE = /castor/cern.ch/delphi/MCprod/lyon/p6143/v99_4/200/run19323.xsdst ! NEVT =   1000
FILE = /castor/cern.ch/delphi/MCprod/lyon/p6143/v99_4/200/run19324.xsdst ! NEVT =   1000
FILE = /castor/cern.ch/delphi/MCprod/lyon/p6143/v99_4/200/run19325.xsdst ! NEVT =   1000
FILE = /castor/cern.ch/delphi/MCprod/lyon/p6143/v99_4/200/run19326.xsdst ! NEVT =   1000
FILE = /castor/cern.ch/delphi/MCprod/lyon/p6143/v99_4/200/run19327.xsdst ! NEVT =   1000
FILE = /castor/cern.ch/delphi/MCprod/lyon/p6143/v99_4/200/run19328.xsdst ! NEVT =   1000
FILE = /castor/cern.ch/delphi/MCprod/lyon/p6143/v99_4/200/run19329.xsdst ! NEVT =   1000
FILE = /castor/cern.ch/delphi/MCprod/lyon/p6143/v99_4/200/run19330.xsdst ! NEVT =   1000
FILE = /castor/cern.ch/delphi/MCprod/lyon/p6143/v99_4/200/run19331.xsdst ! NEVT =   1000
FILE = /castor/cern.ch/delphi/MCprod/lyon/p6143/v99_4/200/run19332.xsdst ! NEVT =   1000
FILE = /castor/cern.ch/delphi/MCprod/lyon/p6143/v99_4/200/run19333.xsdst ! NEVT =   1000
FILE = /castor/cern.ch/delphi/MCprod/lyon/p6143/v99_4/200/run19334.xsdst ! NEVT =   1000
FILE = /castor/cern.ch/delphi/MCprod/lyon/p6143/v99_4/200/run19335.xsdst ! NEVT =   1000
FILE = /castor/cern.ch/delphi/MCprod/lyon/p6143/v99_4/200/run19336.xsdst ! NEVT =   1000
FILE = /castor/cern.ch/delphi/MCprod/lyon/p6143/v99_4/200/run19337.xsdst ! NEVT =   1000
FILE = /castor/cern.ch/delphi/MCprod/lyon/p6143/v99_4/200/run19338.xsdst ! NEVT =   1000
FILE = /castor/cern.ch/delphi/MCprod/lyon/p6143/v99_4/200/run19339.xsdst ! NEVT =   1000
FILE = /castor/cern.ch/delphi/MCprod/lyon/p6143/v99_4/200/run19340.xsdst ! NEVT =   1000
FILE = /castor/cern.ch/delphi/MCprod/lyon/p6143/v99_4/200/run19341.xsdst ! NEVT =   1000
FILE = /castor/cern.ch/delphi/MCprod/lyon/p6143/v99_4/200/run19342.xsdst ! NEVT =   1000
FILE = /castor/cern.ch/delphi/MCprod/lyon/p6143/v99_4/200/run19343.xsdst ! NEVT =   1000
FILE = /castor/cern.ch/delphi/MCprod/lyon/p6143/v99_4/200/run19344.xsdst ! NEVT =   1000
FILE = /castor/cern.ch/delphi/MCprod/lyon/p6143/v99_4/200/run19345.xsdst ! NEVT =   1000
FILE = /castor/cern.ch/delphi/MCprod/lyon/p6143/v99_4/200/run19346.xsdst ! NEVT =   1000
FILE = /castor/cern.ch/delphi/MCprod/lyon/p6143/v99_4/200/run19347.xsdst ! NEVT =   1000
FILE = /castor/cern.ch/delphi/MCprod/lyon/p6143/v99_4/200/run19348.xsdst ! NEVT =   1000
FILE = /castor/cern.ch/delphi/MCprod/lyon/p6143/v99_4/200/run19349.xsdst ! NEVT =   1000
FILE = /castor/cern.ch/delphi/MCprod/lyon/p6143/v99_4/200/run19350.xsdst ! NEVT =   1000
FILE = /castor/cern.ch/delphi/MCprod/lyon/p6143/v99_4/200/run19351.xsdst ! NEVT =   1000
FILE = /castor/cern.ch/delphi/MCprod/lyon/p6143/v99_4/200/run19352.xsdst ! NEVT =   1000
FILE = /castor/cern.ch/delphi/MCprod/lyon/p6143/v99_4/200/run19353.xsdst ! NEVT =   1000
FILE = /castor/cern.ch/delphi/MCprod/lyon/p6143/v99_4/200/run19354.xsdst ! NEVT =   1000
FILE = /castor/cern.ch/delphi/MCprod/lyon/p6143/v99_4/200/run19355.xsdst ! NEVT =   1000
FILE = /castor/cern.ch/delphi/MCprod/lyon/p6143/v99_4/200/run19356.xsdst ! NEVT =   1000
FILE = /castor/cern.ch/delphi/MCprod/lyon/p6143/v99_4/200/run19357.xsdst ! NEVT =   1000
FILE = /castor/cern.ch/delphi/MCprod/lyon/p6143/v99_4/200/run19358.xsdst ! NEVT =   1000
FILE = /castor/cern.ch/delphi/MCprod/lyon/p6143/v99_4/200/run19359.xsdst ! NEVT =   1000
FILE = /castor/cern.ch/delphi/MCprod/lyon/p6143/v99_4/200/run19360.xsdst ! NEVT =   1000
FILE = /castor/cern.ch/delphi/MCprod/lyon/p6143/v99_4/200/run19361.xsdst ! NEVT =   1000
FILE = /castor/cern.ch/delphi/MCprod/lyon/p6143/v99_4/200/run19362.xsdst ! NEVT =   1000
FILE = /castor/cern.ch/delphi/MCprod/lyon/p6143/v99_4/200/run19363.xsdst ! NEVT =   1000
FILE = /castor/cern.ch/delphi/MCprod/lyon/p6143/v99_4/200/run19364.xsdst ! NEVT =   1000
FILE = /castor/cern.ch/delphi/MCprod/lyon/p6143/v99_4/200/run19365.xsdst ! NEVT =   1000
FILE = /castor/cern.ch/delphi/MCprod/lyon/p6143/v99_4/200/run19366.xsdst ! NEVT =   1000
FILE = /castor/cern.ch/delphi/MCprod/lyon/p6143/v99_4/200/run19367.xsdst ! NEVT =   1000
FILE = /castor/cern.ch/delphi/MCprod/lyon/p6143/v99_4/200/run19368.xsdst ! NEVT =   1000
FILE = /castor/cern.ch/delphi/MCprod/lyon/p6143/v99_4/200/run19369.xsdst ! NEVT =   1000
FILE = /castor/cern.ch/delphi/MCprod/lyon/p6143/v99_4/200/run19370.xsdst ! NEVT =   1000
FILE = /castor/cern.ch/delphi/MCprod/lyon/p6143/v99_4/200/run19371.xsdst ! NEVT =   1000
FILE = /castor/cern.ch/delphi/MCprod/lyon/p6143/v99_4/200/run19372.xsdst ! NEVT =   1000
FILE = /castor/cern.ch/delphi/MCprod/lyon/p6143/v99_4/200/run19373.xsdst ! NEVT =   1000
FILE = /castor/cern.ch/delphi/MCprod/lyon/p6143/v99_4/200/run19374.xsdst ! NEVT =   1000
FILE = /castor/cern.ch/delphi/MCprod/lyon/p6143/v99_4/200/run19375.xsdst ! NEVT =   1000
FILE = /castor/cern.ch/delphi/MCprod/lyon/p6143/v99_4/200/run19376.xsdst ! NEVT =   1000
FILE = /castor/cern.ch/delphi/MCprod/lyon/p6143/v99_4/200/run19377.xsdst ! NEVT =   1000
FILE = /castor/cern.ch/delphi/MCprod/lyon/p6143/v99_4/200/run19378.xsdst ! NEVT =   1000
FILE = /castor/cern.ch/delphi/MCprod/lyon/p6143/v99_4/200/run19379.xsdst ! NEVT =   1000
FILE = /castor/cern.ch/delphi/MCprod/lyon/p6143/v99_4/200/run19380.xsdst ! NEVT =   1000
FILE = /castor/cern.ch/delphi/MCprod/lyon/p6143/v99_4/200/run19381.xsdst ! NEVT =   1000
FILE = /castor/cern.ch/delphi/MCprod/lyon/p6143/v99_4/200/run19382.xsdst ! NEVT =   1000
FILE = /castor/cern.ch/delphi/MCprod/lyon/p6143/v99_4/200/run19383.xsdst ! NEVT =   1000
FILE = /castor/cern.ch/delphi/MCprod/lyon/p6143/v99_4/200/run19384.xsdst ! NEVT =   1000
FILE = /castor/cern.ch/delphi/MCprod/lyon/p6143/v99_4/200/run19385.xsdst ! NEVT =   1000
FILE = /castor/cern.ch/delphi/MCprod/lyon/p6143/v99_4/200/run19386.xsdst ! NEVT =   1000
FILE = /castor/cern.ch/delphi/MCprod/lyon/p6143/v99_4/200/run19387.xsdst ! NEVT =   1000
FILE = /castor/cern.ch/delphi/MCprod/lyon/p6143/v99_4/200/run19388.xsdst ! NEVT =   1000
FILE = /castor/cern.ch/delphi/MCprod/lyon/p6143/v99_4/200/run19389.xsdst ! NEVT =   1000
FILE = /castor/cern.ch/delphi/MCprod/lyon/p6143/v99_4/200/run19390.xsdst ! NEVT =   1000
FILE = /castor/cern.ch/delphi/MCprod/lyon/p6143/v99_4/200/run19391.xsdst ! NEVT =   1000
FILE = /castor/cern.ch/delphi/MCprod/lyon/p6143/v99_4/200/run19392.xsdst ! NEVT =   1000
FILE = /castor/cern.ch/delphi/MCprod/lyon/p6143/v99_4/200/run19393.xsdst ! NEVT =   1000
FILE = /castor/cern.ch/delphi/MCprod/lyon/p6143/v99_4/200/run19394.xsdst ! NEVT =   1000
FILE = /castor/cern.ch/delphi/MCprod/lyon/p6143/v99_4/200/run19395.xsdst ! NEVT =   1000
FILE = /castor/cern.ch/delphi/MCprod/lyon/p6143/v99_4/200/run19396.xsdst ! NEVT =   1000
FILE = /castor/cern.ch/delphi/MCprod/lyon/p6143/v99_4/200/run19397.xsdst ! NEVT =   1000
FILE = /castor/cern.ch/delphi/MCprod/lyon/p6143/v99_4/200/run19398.xsdst ! NEVT =   1000
FILE = /castor/cern.ch/delphi/MCprod/lyon/p6143/v99_4/200/run19399.xsdst ! NEVT =   1000
FILE = /castor/cern.ch/delphi/MCprod/lyon/p6143/v99_4/200/run19400.xsdst ! NEVT =   1000
FILE = /castor/cern.ch/delphi/MCprod/lyon/p6143/v99_4/200/run19401.xsdst ! NEVT =   1000
FILE = /castor/cern.ch/delphi/MCprod/lyon/p6143/v99_4/200/run19402.xsdst ! NEVT =   1000
FILE = /castor/cern.ch/delphi/MCprod/lyon/p6143/v99_4/200/run19403.xsdst ! NEVT =   1000
FILE = /castor/cern.ch/delphi/MCprod/lyon/p6143/v99_4/200/run19404.xsdst ! NEVT =   1000
FILE = /castor/cern.ch/delphi/MCprod/lyon/p6143/v99_4/200/run19405.xsdst ! NEVT =   1000
FILE = /castor/cern.ch/delphi/MCprod/lyon/p6143/v99_4/200/run19406.xsdst ! NEVT =   1000
FILE = /castor/cern.ch/delphi/MCprod/lyon/p6143/v99_4/200/run19407.xsdst ! NEVT =   1000
FILE = /castor/cern.ch/delphi/MCprod/lyon/p6143/v99_4/200/run19408.xsdst ! NEVT =   1000
FILE = /castor/cern.ch/delphi/MCprod/lyon/p6143/v99_4/200/run19409.xsdst ! NEVT =   1000
FILE = /castor/cern.ch/delphi/MCprod/lyon/p6143/v99_4/200/run19410.xsdst ! NEVT =   1000
FILE = /castor/cern.ch/delphi/MCprod/lyon/p6143/v99_4/200/run19411.xsdst ! NEVT =   1000
FILE = /castor/cern.ch/delphi/MCprod/lyon/p6143/v99_4/200/run19412.xsdst ! NEVT =   1000
FILE = /castor/cern.ch/delphi/MCprod/lyon/p6143/v99_4/200/run19413.xsdst ! NEVT =   1000
FILE = /castor/cern.ch/delphi/MCprod/lyon/p6143/v99_4/200/run19414.xsdst ! NEVT =   1000
FILE = /castor/cern.ch/delphi/MCprod/lyon/p6143/v99_4/200/run19415.xsdst ! NEVT =   1000
FILE = /castor/cern.ch/delphi/MCprod/lyon/p6143/v99_4/200/run19416.xsdst ! NEVT =   1000
FILE = /castor/cern.ch/delphi/MCprod/lyon/p6143/v99_4/200/run19417.xsdst ! NEVT =   1000
FILE = /castor/cern.ch/delphi/MCprod/lyon/p6143/v99_4/200/run19418.xsdst ! NEVT =   1000
FILE = /castor/cern.ch/delphi/MCprod/lyon/p6143/v99_4/200/run19419.xsdst ! NEVT =   1000
FILE = /castor/cern.ch/delphi/MCprod/lyon/p6143/v99_4/200/run19420.xsdst ! NEVT =   1000
FILE = /castor/cern.ch/delphi/MCprod/lyon/p6143/v99_4/200/run19421.xsdst ! NEVT =   1000
FILE = /castor/cern.ch/delphi/MCprod/lyon/p6143/v99_4/200/run19422.xsdst ! NEVT =   1000
FILE = /castor/cern.ch/delphi/MCprod/lyon/p6143/v99_4/200/run19423.xsdst ! NEVT =   1000
FILE = /castor/cern.ch/delphi/MCprod/lyon/p6143/v99_4/200/run19424.xsdst ! NEVT =   1000
FILE = /castor/cern.ch/delphi/MCprod/lyon/p6143/v99_4/200/run19425.xsdst ! NEVT =   1000
FILE = /castor/cern.ch/delphi/MCprod/lyon/p6143/v99_4/200/run19426.xsdst ! NEVT =   1000
FILE = /castor/cern.ch/delphi/MCprod/lyon/p6143/v99_4/200/run19427.xsdst ! NEVT =   1000
FILE = /castor/cern.ch/delphi/MCprod/lyon/p6143/v99_4/200/run19428.xsdst ! NEVT =   1000
FILE = /castor/cern.ch/delphi/MCprod/lyon/p6143/v99_4/200/run19429.xsdst ! NEVT =   1000
FILE = /castor/cern.ch/delphi/MCprod/lyon/p6143/v99_4/200/run19430.xsdst ! NEVT =   1000
FILE = /castor/cern.ch/delphi/MCprod/lyon/p6143/v99_4/200/run19431.xsdst ! NEVT =   1000
FILE = /castor/cern.ch/delphi/MCprod/lyon/p6143/v99_4/200/run19432.xsdst ! NEVT =   1000
FILE = /castor/cern.ch/delphi/MCprod/lyon/p6143/v99_4/200/run19433.xsdst ! NEVT =   1000
FILE = /castor/cern.ch/delphi/MCprod/lyon/p6143/v99_4/200/run19434.xsdst ! NEVT =   1000
FILE = /castor/cern.ch/delphi/MCprod/lyon/p6143/v99_4/200/run19435.xsdst ! NEVT =   1000
FILE = /castor/cern.ch/delphi/MCprod/lyon/p6143/v99_4/200/run19436.xsdst ! NEVT =   1000
FILE = /castor/cern.ch/delphi/MCprod/lyon/p6143/v99_4/200/run19437.xsdst ! NEVT =   1000
FILE = /castor/cern.ch/delphi/MCprod/lyon/p6143/v99_4/200/run19438.xsdst ! NEVT =   1000
FILE = /castor/cern.ch/delphi/MCprod/lyon/p6143/v99_4/200/run19439.xsdst ! NEVT =   1000
FILE = /castor/cern.ch/delphi/MCprod/lyon/p6143/v99_4/200/run19440.xsdst ! NEVT =   1000
FILE = /castor/cern.ch/delphi/MCprod/lyon/p6143/v99_4/200/run19441.xsdst ! NEVT =   1000
FILE = /castor/cern.ch/delphi/MCprod/lyon/p6143/v99_4/200/run19442.xsdst ! NEVT =   1000
FILE = /castor/cern.ch/delphi/MCprod/lyon/p6143/v99_4/200/run19443.xsdst ! NEVT =   1000
FILE = /castor/cern.ch/delphi/MCprod/lyon/p6143/v99_4/200/run19444.xsdst ! NEVT =   1000
FILE = /castor/cern.ch/delphi/MCprod/lyon/p6143/v99_4/200/run19445.xsdst ! NEVT =   1000
FILE = /castor/cern.ch/delphi/MCprod/lyon/p6143/v99_4/200/run19446.xsdst ! NEVT =   1000
FILE = /castor/cern.ch/delphi/MCprod/lyon/p6143/v99_4/200/run19447.xsdst ! NEVT =   1000
FILE = /castor/cern.ch/delphi/MCprod/lyon/p6143/v99_4/200/run19448.xsdst ! NEVT =   1000
FILE = /castor/cern.ch/delphi/MCprod/lyon/p6143/v99_4/200/run19449.xsdst ! NEVT =   1000
FILE = /castor/cern.ch/delphi/MCprod/lyon/p6143/v99_4/200/run19450.xsdst ! NEVT =   1000
FILE = /castor/cern.ch/delphi/MCprod/lyon/p6143/v99_4/200/run19451.xsdst ! NEVT =   1000
FILE = /castor/cern.ch/delphi/MCprod/lyon/p6143/v99_4/200/run19452.xsdst ! NEVT =   1000
FILE = /castor/cern.ch/delphi/MCprod/lyon/p6143/v99_4/200/run19453.xsdst ! NEVT =   1000
FILE = /castor/cern.ch/delphi/MCprod/lyon/p6143/v99_4/200/run19454.xsdst ! NEVT =   1000
FILE = /castor/cern.ch/delphi/MCprod/lyon/p6143/v99_4/200/run19455.xsdst ! NEVT =   1000
FILE = /castor/cern.ch/delphi/MCprod/lyon/p6143/v99_4/200/run19456.xsdst ! NEVT =   1000
FILE = /castor/cern.ch/delphi/MCprod/lyon/p6143/v99_4/200/run19457.xsdst ! NEVT =   1000
FILE = /castor/cern.ch/delphi/MCprod/lyon/p6143/v99_4/200/run19458.xsdst ! NEVT =   1000
FILE = /castor/cern.ch/delphi/MCprod/lyon/p6143/v99_4/200/run19459.xsdst ! NEVT =   1000
FILE = /castor/cern.ch/delphi/MCprod/lyon/p6143/v99_4/200/run19460.xsdst ! NEVT =   1000
FILE = /castor/cern.ch/delphi/MCprod/lyon/p6143/v99_4/200/run19461.xsdst ! NEVT =   1000
FILE = /castor/cern.ch/delphi/MCprod/lyon/p6143/v99_4/200/run19462.xsdst ! NEVT =   1000
FILE = /castor/cern.ch/delphi/MCprod/lyon/p6143/v99_4/200/run19463.xsdst ! NEVT =   1000
FILE = /castor/cern.ch/delphi/MCprod/lyon/p6143/v99_4/200/run19464.xsdst ! NEVT =   1000
FILE = /castor/cern.ch/delphi/MCprod/lyon/p6143/v99_4/200/run19465.xsdst ! NEVT =   1000
FILE = /castor/cern.ch/delphi/MCprod/lyon/p6143/v99_4/200/run19466.xsdst ! NEVT =   1000
FILE = /castor/cern.ch/delphi/MCprod/lyon/p6143/v99_4/200/run19467.xsdst ! NEVT =   1000
FILE = /castor/cern.ch/delphi/MCprod/lyon/p6143/v99_4/200/run19468.xsdst ! NEVT =   1000
FILE = /castor/cern.ch/delphi/MCprod/lyon/p6143/v99_4/200/run19469.xsdst ! NEVT =   1000
FILE = /castor/cern.ch/delphi/MCprod/lyon/p6143/v99_4/200/run19470.xsdst ! NEVT =   1000
FILE = /castor/cern.ch/delphi/MCprod/lyon/p6143/v99_4/200/run19471.xsdst ! NEVT =   1000
FILE = /castor/cern.ch/delphi/MCprod/lyon/p6143/v99_4/200/run19472.xsdst ! NEVT =   1000
FILE = /castor/cern.ch/delphi/MCprod/lyon/p6143/v99_4/200/run19473.xsdst ! NEVT =   1000
FILE = /castor/cern.ch/delphi/MCprod/lyon/p6143/v99_4/200/run19474.xsdst ! NEVT =   1000
FILE = /castor/cern.ch/delphi/MCprod/lyon/p6143/v99_4/200/run19475.xsdst ! NEVT =   1000
FILE = /castor/cern.ch/delphi/MCprod/lyon/p6143/v99_4/200/run19476.xsdst ! NEVT =   1000
FILE = /castor/cern.ch/delphi/MCprod/lyon/p6143/v99_4/200/run19477.xsdst ! NEVT =   1000
FILE = /castor/cern.ch/delphi/MCprod/lyon/p6143/v99_4/200/run19478.xsdst ! NEVT =   1000
FILE = /castor/cern.ch/delphi/MCprod/lyon/p6143/v99_4/200/run19479.xsdst ! NEVT =   1000
FILE = /castor/cern.ch/delphi/MCprod/lyon/p6143/v99_4/200/run19480.xsdst ! NEVT =   1000
FILE = /castor/cern.ch/delphi/MCprod/lyon/p6143/v99_4/200/run19481.xsdst ! NEVT =   1000
FILE = /castor/cern.ch/delphi/MCprod/lyon/p6143/v99_4/200/run19482.xsdst ! NEVT =   1000
FILE = /castor/cern.ch/delphi/MCprod/lyon/p6143/v99_4/200/run19483.xsdst ! NEVT =   1000
FILE = /castor/cern.ch/delphi/MCprod/lyon/p6143/v99_4/200/run19484.xsdst ! NEVT =   1000
FILE = /castor/cern.ch/delphi/MCprod/lyon/p6143/v99_4/200/run19485.xsdst ! NEVT =   1000
FILE = /castor/cern.ch/delphi/MCprod/lyon/p6143/v99_4/200/run19486.xsdst ! NEVT =   1000
FILE = /castor/cern.ch/delphi/MCprod/lyon/p6143/v99_4/200/run19487.xsdst ! NEVT =   1000
FILE = /castor/cern.ch/delphi/MCprod/lyon/p6143/v99_4/200/run19488.xsdst ! NEVT =   1000
FILE = /castor/cern.ch/delphi/MCprod/lyon/p6143/v99_4/200/run19489.xsdst ! NEVT =   1000
FILE = /castor/cern.ch/delphi/MCprod/lyon/p6143/v99_4/200/run19490.xsdst ! NEVT =   1000
FILE = /castor/cern.ch/delphi/MCprod/lyon/p6143/v99_4/200/run19491.xsdst ! NEVT =   1000
FILE = /castor/cern.ch/delphi/MCprod/lyon/p6143/v99_4/200/run19492.xsdst ! NEVT =   1000
FILE = /castor/cern.ch/delphi/MCprod/lyon/p6143/v99_4/200/run19493.xsdst ! NEVT =   1000
FILE = /castor/cern.ch/delphi/MCprod/lyon/p6143/v99_4/200/run19494.xsdst ! NEVT =   1000
FILE = /castor/cern.ch/delphi/MCprod/lyon/p6143/v99_4/200/run19495.xsdst ! NEVT =   1000
FILE = /castor/cern.ch/delphi/MCprod/lyon/p6143/v99_4/200/run19496.xsdst ! NEVT =   1000
FILE = /castor/cern.ch/delphi/MCprod/lyon/p6143/v99_4/200/run19497.xsdst ! NEVT =   1000
FILE = /castor/cern.ch/delphi/MCprod/lyon/p6143/v99_4/200/run19498.xsdst ! NEVT =   1000
FILE = /castor/cern.ch/delphi/MCprod/lyon/p6143/v99_4/200/run19499.xsdst ! NEVT =   1000
FILE = /castor/cern.ch/delphi/MCprod/lyon/p6143/v99_4/200/run19500.xsdst ! NEVT =   1000
FILE = /castor/cern.ch/delphi/MCprod/lyon/p6143/v99_4/200/run19501.xsdst ! NEVT =   1000
FILE = /castor/cern.ch/delphi/MCprod/lyon/p6143/v99_4/200/run19502.xsdst ! NEVT =   1000
FILE = /castor/cern.ch/delphi/MCprod/lyon/p6143/v99_4/200/run19503.xsdst ! NEVT =   1000
FILE = /castor/cern.ch/delphi/MCprod/lyon/p6143/v99_4/200/run19504.xsdst ! NEVT =   1000
FILE = /castor/cern.ch/delphi/MCprod/lyon/p6143/v99_4/200/run19505.xsdst ! NEVT =   1000
FILE = /castor/cern.ch/delphi/MCprod/lyon/p6143/v99_4/200/run19506.xsdst ! NEVT =   1000
FILE = /castor/cern.ch/delphi/MCprod/lyon/p6143/v99_4/200/run19507.xsdst ! NEVT =   1000
FILE = /castor/cern.ch/delphi/MCprod/lyon/p6143/v99_4/200/run19508.xsdst ! NEVT =   1000
FILE = /castor/cern.ch/delphi/MCprod/lyon/p6143/v99_4/200/run19509.xsdst ! NEVT =   1000
FILE = /castor/cern.ch/delphi/MCprod/lyon/p6143/v99_4/200/run19510.xsdst ! NEVT =   1000
FILE = /castor/cern.ch/delphi/MCprod/lyon/p6143/v99_4/200/run19511.xsdst ! NEVT =   1000
FILE = /castor/cern.ch/delphi/MCprod/lyon/p6143/v99_4/200/run19512.xsdst ! NEVT =   1000
FILE = /castor/cern.ch/delphi/MCprod/lyon/p6143/v99_4/200/run19513.xsdst ! NEVT =   1000
FILE = /castor/cern.ch/delphi/MCprod/lyon/p6143/v99_4/200/run19514.xsdst ! NEVT =   1000
FILE = /castor/cern.ch/delphi/MCprod/lyon/p6143/v99_4/200/run19515.xsdst ! NEVT =   1000
FILE = /castor/cern.ch/delphi/MCprod/lyon/p6143/v99_4/200/run19516.xsdst ! NEVT =   1000
FILE = /castor/cern.ch/delphi/MCprod/lyon/p6143/v99_4/200/run19517.xsdst ! NEVT =   1000
FILE = /castor/cern.ch/delphi/MCprod/lyon/p6143/v99_4/200/run19518.xsdst ! NEVT =   1000
FILE = /castor/cern.ch/delphi/MCprod/lyon/p6143/v99_4/200/run19519.xsdst ! NEVT =   1000
FILE = /castor/cern.ch/delphi/MCprod/lyon/p6143/v99_4/200/run19520.xsdst ! NEVT =   1000
FILE = /castor/cern.ch/delphi/MCprod/lyon/p6143/v99_4/200/run19521.xsdst ! NEVT =   1000
FILE = /castor/cern.ch/delphi/MCprod/lyon/p6143/v99_4/200/run19522.xsdst ! NEVT =   1000
FILE = /castor/cern.ch/delphi/MCprod/lyon/p6143/v99_4/200/run19523.xsdst ! NEVT =   1000
FILE = /castor/cern.ch/delphi/MCprod/lyon/p6143/v99_4/200/run19524.xsdst ! NEVT =   1000
FILE = /castor/cern.ch/delphi/MCprod/lyon/p6143/v99_4/200/run19525.xsdst ! NEVT =   1000
FILE = /castor/cern.ch/delphi/MCprod/lyon/p6143/v99_4/200/run19526.xsdst ! NEVT =   1000
FILE = /castor/cern.ch/delphi/MCprod/lyon/p6143/v99_4/200/run19527.xsdst ! NEVT =   1000
FILE = /castor/cern.ch/delphi/MCprod/lyon/p6143/v99_4/200/run19528.xsdst ! NEVT =   1000
FILE = /castor/cern.ch/delphi/MCprod/lyon/p6143/v99_4/200/run19529.xsdst ! NEVT =   1000
FILE = /castor/cern.ch/delphi/MCprod/lyon/p6143/v99_4/200/run19530.xsdst ! NEVT =   1000
FILE = /castor/cern.ch/delphi/MCprod/lyon/p6143/v99_4/200/run19531.xsdst ! NEVT =   1000
FILE = /castor/cern.ch/delphi/MCprod/lyon/p6143/v99_4/200/run19532.xsdst ! NEVT =   1000
FILE = /castor/cern.ch/delphi/MCprod/lyon/p6143/v99_4/200/run19533.xsdst ! NEVT =   1000
FILE = /castor/cern.ch/delphi/MCprod/lyon/p6143/v99_4/200/run19534.xsdst ! NEVT =   1000
FILE = /castor/cern.ch/delphi/MCprod/lyon/p6143/v99_4/200/run19535.xsdst ! NEVT =   1000
FILE = /castor/cern.ch/delphi/MCprod/lyon/p6143/v99_4/200/run19536.xsdst ! NEVT =   1000
FILE = /castor/cern.ch/delphi/MCprod/lyon/p6143/v99_4/200/run19537.xsdst ! NEVT =   1000
FILE = /castor/cern.ch/delphi/MCprod/lyon/p6143/v99_4/200/run19538.xsdst ! NEVT =   1000
FILE = /castor/cern.ch/delphi/MCprod/lyon/p6143/v99_4/200/run19539.xsdst ! NEVT =   1000
FILE = /castor/cern.ch/delphi/MCprod/lyon/p6143/v99_4/200/run19540.xsdst ! NEVT =   1000
FILE = /castor/cern.ch/delphi/MCprod/lyon/p6143/v99_4/200/run19541.xsdst ! NEVT =   1000
FILE = /castor/cern.ch/delphi/MCprod/lyon/p6143/v99_4/200/run19542.xsdst ! NEVT =   1000
FILE = /castor/cern.ch/delphi/MCprod/lyon/p6143/v99_4/200/run19543.xsdst ! NEVT =   1000
FILE = /castor/cern.ch/delphi/MCprod/lyon/p6143/v99_4/200/run19544.xsdst ! NEVT =   1000
FILE = /castor/cern.ch/delphi/MCprod/lyon/p6143/v99_4/200/run19545.xsdst ! NEVT =   1000
FILE = /castor/cern.ch/delphi/MCprod/lyon/p6143/v99_4/200/run19546.xsdst ! NEVT =   1000
FILE = /castor/cern.ch/delphi/MCprod/lyon/p6143/v99_4/200/run19547.xsdst ! NEVT =   1000
FILE = /castor/cern.ch/delphi/MCprod/lyon/p6143/v99_4/200/run19548.xsdst ! NEVT =   1000
FILE = /castor/cern.ch/delphi/MCprod/lyon/p6143/v99_4/200/run19549.xsdst ! NEVT =   1000
FILE = /castor/cern.ch/delphi/MCprod/lyon/p6143/v99_4/200/run19550.xsdst ! NEVT =   1000
FILE = /castor/cern.ch/delphi/MCprod/lyon/p6143/v99_4/200/run19551.xsdst ! NEVT =   1000
FILE = /castor/cern.ch/delphi/MCprod/lyon/p6143/v99_4/200/run19552.xsdst ! NEVT =   1000
FILE = /castor/cern.ch/delphi/MCprod/lyon/p6143/v99_4/200/run19553.xsdst ! NEVT =   1000
FILE = /castor/cern.ch/delphi/MCprod/lyon/p6143/v99_4/200/run19554.xsdst ! NEVT =   1000
FILE = /castor/cern.ch/delphi/MCprod/lyon/p6143/v99_4/200/run19555.xsdst ! NEVT =   1000
FILE = /castor/cern.ch/delphi/MCprod/lyon/p6143/v99_4/200/run19556.xsdst ! NEVT =   1000
FILE = /castor/cern.ch/delphi/MCprod/lyon/p6143/v99_4/200/run19557.xsdst ! NEVT =   1000
FILE = /castor/cern.ch/delphi/MCprod/lyon/p6143/v99_4/200/run19558.xsdst ! NEVT =   1000
FILE = /castor/cern.ch/delphi/MCprod/lyon/p6143/v99_4/200/run19559.xsdst ! NEVT =   1000
FILE = /castor/cern.ch/delphi/MCprod/lyon/p6143/v99_4/200/run19560.xsdst ! NEVT =   1000
FILE = /castor/cern.ch/delphi/MCprod/lyon/p6143/v99_4/200/run19561.xsdst ! NEVT =   1000
FILE = /castor/cern.ch/delphi/MCprod/lyon/p6143/v99_4/200/run19562.xsdst ! NEVT =   1000
FILE = /castor/cern.ch/delphi/MCprod/lyon/p6143/v99_4/200/run19563.xsdst ! NEVT =   1000
FILE = /castor/cern.ch/delphi/MCprod/lyon/p6143/v99_4/200/run19564.xsdst ! NEVT =   1000
FILE = /castor/cern.ch/delphi/MCprod/lyon/p6143/v99_4/200/run19565.xsdst ! NEVT =   1000
FILE = /castor/cern.ch/delphi/MCprod/lyon/p6143/v99_4/200/run19566.xsdst ! NEVT =   1000
FILE = /castor/cern.ch/delphi/MCprod/lyon/p6143/v99_4/200/run19567.xsdst ! NEVT =   1000
FILE = /castor/cern.ch/delphi/MCprod/lyon/p6143/v99_4/200/run19568.xsdst ! NEVT =   1000
FILE = /castor/cern.ch/delphi/MCprod/lyon/p6143/v99_4/200/run19569.xsdst ! NEVT =   1000
FILE = /castor/cern.ch/delphi/MCprod/lyon/p6143/v99_4/200/run19570.xsdst ! NEVT =   1000
FILE = /castor/cern.ch/delphi/MCprod/lyon/p6143/v99_4/200/run19571.xsdst ! NEVT =   1000
FILE = /castor/cern.ch/delphi/MCprod/lyon/p6143/v99_4/200/run19572.xsdst ! NEVT =   1000
FILE = /castor/cern.ch/delphi/MCprod/lyon/p6143/v99_4/200/run19573.xsdst ! NEVT =   1000
FILE = /castor/cern.ch/delphi/MCprod/lyon/p6143/v99_4/200/run19574.xsdst ! NEVT =   1000
FILE = /castor/cern.ch/delphi/MCprod/lyon/p6143/v99_4/200/run19575.xsdst ! NEVT =   1000
FILE = /castor/cern.ch/delphi/MCprod/lyon/p6143/v99_4/200/run19576.xsdst ! NEVT =   1000
FILE = /castor/cern.ch/delphi/MCprod/lyon/p6143/v99_4/200/run19577.xsdst ! NEVT =   1000
FILE = /castor/cern.ch/delphi/MCprod/lyon/p6143/v99_4/200/run19578.xsdst ! NEVT =   1000
FILE = /castor/cern.ch/delphi/MCprod/lyon/p6143/v99_4/200/run19579.xsdst ! NEVT =   1000
FILE = /castor/cern.ch/delphi/MCprod/lyon/p6143/v99_4/200/run19580.xsdst ! NEVT =   1000
FILE = /castor/cern.ch/delphi/MCprod/lyon/p6143/v99_4/200/run19581.xsdst ! NEVT =   1000
FILE = /castor/cern.ch/delphi/MCprod/lyon/p6143/v99_4/200/run19582.xsdst ! NEVT =   1000
FILE = /castor/cern.ch/delphi/MCprod/lyon/p6143/v99_4/200/run19583.xsdst ! NEVT =   1000
FILE = /castor/cern.ch/delphi/MCprod/lyon/p6143/v99_4/200/run19584.xsdst ! NEVT =   1000
FILE = /castor/cern.ch/delphi/MCprod/lyon/p6143/v99_4/200/run19585.xsdst ! NEVT =   1000
FILE = /castor/cern.ch/delphi/MCprod/lyon/p6143/v99_4/200/run19586.xsdst ! NEVT =   1000
FILE = /castor/cern.ch/delphi/MCprod/lyon/p6143/v99_4/200/run19587.xsdst ! NEVT =   1000
FILE = /castor/cern.ch/delphi/MCprod/lyon/p6143/v99_4/200/run19588.xsdst ! NEVT =   1000
FILE = /castor/cern.ch/delphi/MCprod/lyon/p6143/v99_4/200/run19589.xsdst ! NEVT =   1000
FILE = /castor/cern.ch/delphi/MCprod/lyon/p6143/v99_4/200/run19590.xsdst ! NEVT =   1000
FILE = /castor/cern.ch/delphi/MCprod/lyon/p6143/v99_4/200/run19591.xsdst ! NEVT =   1000
FILE = /castor/cern.ch/delphi/MCprod/lyon/p6143/v99_4/200/run19592.xsdst ! NEVT =   1000
FILE = /castor/cern.ch/delphi/MCprod/lyon/p6143/v99_4/200/run19593.xsdst ! NEVT =   1000
FILE = /castor/cern.ch/delphi/MCprod/lyon/p6143/v99_4/200/run19594.xsdst ! NEVT =   1000
FILE = /castor/cern.ch/delphi/MCprod/lyon/p6143/v99_4/200/run19595.xsdst ! NEVT =   1000
FILE = /castor/cern.ch/delphi/MCprod/lyon/p6143/v99_4/200/run19596.xsdst ! NEVT =   1000
FILE = /castor/cern.ch/delphi/MCprod/lyon/p6143/v99_4/200/run19597.xsdst ! NEVT =   1000
FILE = /castor/cern.ch/delphi/MCprod/lyon/p6143/v99_4/200/run19598.xsdst ! NEVT =   1000
FILE = /castor/cern.ch/delphi/MCprod/lyon/p6143/v99_4/200/run19599.xsdst ! NEVT =   1000
FILE = /castor/cern.ch/delphi/MCprod/lyon/p6143/v99_4/200/run19600.xsdst ! NEVT =   1000
FILE = /castor/cern.ch/delphi/MCprod/lyon/p6143/v99_4/200/run19601.xsdst ! NEVT =   1000
FILE = /castor/cern.ch/delphi/MCprod/lyon/p6143/v99_4/200/run19602.xsdst ! NEVT =   1000
FILE = /castor/cern.ch/delphi/MCprod/lyon/p6143/v99_4/200/run19603.xsdst ! NEVT =   1000
FILE = /castor/cern.ch/delphi/MCprod/lyon/p6143/v99_4/200/run19604.xsdst ! NEVT =   1000
FILE = /castor/cern.ch/delphi/MCprod/lyon/p6143/v99_4/200/run19605.xsdst ! NEVT =   1000
FILE = /castor/cern.ch/delphi/MCprod/lyon/p6143/v99_4/200/run19606.xsdst ! NEVT =   1000
FILE = /castor/cern.ch/delphi/MCprod/lyon/p6143/v99_4/200/run19607.xsdst ! NEVT =   1000
FILE = /castor/cern.ch/delphi/MCprod/lyon/p6143/v99_4/200/run19608.xsdst ! NEVT =   1000
FILE = /castor/cern.ch/delphi/MCprod/lyon/p6143/v99_4/200/run19609.xsdst ! NEVT =   1000
FILE = /castor/cern.ch/delphi/MCprod/lyon/p6143/v99_4/200/run19610.xsdst ! NEVT =   1000
FILE = /castor/cern.ch/delphi/MCprod/lyon/p6143/v99_4/200/run19611.xsdst ! NEVT =   1000
FILE = /castor/cern.ch/delphi/MCprod/lyon/p6143/v99_4/200/run19612.xsdst ! NEVT =   1000
FILE = /castor/cern.ch/delphi/MCprod/lyon/p6143/v99_4/200/run19613.xsdst ! NEVT =   1000
FILE = /castor/cern.ch/delphi/MCprod/lyon/p6143/v99_4/200/run19614.xsdst ! NEVT =   1000
FILE = /castor/cern.ch/delphi/MCprod/lyon/p6143/v99_4/200/run19615.xsdst ! NEVT =   1000
FILE = /castor/cern.ch/delphi/MCprod/lyon/p6143/v99_4/200/run19616.xsdst ! NEVT =   1000
FILE = /castor/cern.ch/delphi/MCprod/lyon/p6143/v99_4/200/run19617.xsdst ! NEVT =   1000
FILE = /castor/cern.ch/delphi/MCprod/lyon/p6143/v99_4/200/run19618.xsdst ! NEVT =   1000
FILE = /castor/cern.ch/delphi/MCprod/lyon/p6143/v99_4/200/run19619.xsdst ! NEVT =   1000
FILE = /castor/cern.ch/delphi/MCprod/lyon/p6143/v99_4/200/run19620.xsdst ! NEVT =   1000
FILE = /castor/cern.ch/delphi/MCprod/lyon/p6143/v99_4/200/run19621.xsdst ! NEVT =   1000
FILE = /castor/cern.ch/delphi/MCprod/lyon/p6143/v99_4/200/run19622.xsdst ! NEVT =   1000
FILE = /castor/cern.ch/delphi/MCprod/lyon/p6143/v99_4/200/run19623.xsdst ! NEVT =   1000
FILE = /castor/cern.ch/delphi/MCprod/lyon/p6143/v99_4/200/run19624.xsdst ! NEVT =   1000
FILE = /castor/cern.ch/delphi/MCprod/lyon/p6143/v99_4/200/run19625.xsdst ! NEVT =   1000
FILE = /castor/cern.ch/delphi/MCprod/lyon/p6143/v99_4/200/run19626.xsdst ! NEVT =   1000
FILE = /castor/cern.ch/delphi/MCprod/lyon/p6143/v99_4/200/run19627.xsdst ! NEVT =   1000
FILE = /castor/cern.ch/delphi/MCprod/lyon/p6143/v99_4/200/run19628.xsdst ! NEVT =   1000
FILE = /castor/cern.ch/delphi/MCprod/lyon/p6143/v99_4/200/run19629.xsdst ! NEVT =   1000
FILE = /castor/cern.ch/delphi/MCprod/lyon/p6143/v99_4/200/run19630.xsdst ! NEVT =   1000
FILE = /castor/cern.ch/delphi/MCprod/lyon/p6143/v99_4/200/run19631.xsdst ! NEVT =   1000
FILE = /castor/cern.ch/delphi/MCprod/lyon/p6143/v99_4/200/run19632.xsdst ! NEVT =   1000
FILE = /castor/cern.ch/delphi/MCprod/lyon/p6143/v99_4/200/run19633.xsdst ! NEVT =   1000
FILE = /castor/cern.ch/delphi/MCprod/lyon/p6143/v99_4/200/run19634.xsdst ! NEVT =   1000
FILE = /castor/cern.ch/delphi/MCprod/lyon/p6143/v99_4/200/run19635.xsdst ! NEVT =   1000
FILE = /castor/cern.ch/delphi/MCprod/lyon/p6143/v99_4/200/run19636.xsdst ! NEVT =   1000
FILE = /castor/cern.ch/delphi/MCprod/lyon/p6143/v99_4/200/run19637.xsdst ! NEVT =   1000
FILE = /castor/cern.ch/delphi/MCprod/lyon/p6143/v99_4/200/run19638.xsdst ! NEVT =   1000
FILE = /castor/cern.ch/delphi/MCprod/lyon/p6143/v99_4/200/run19639.xsdst ! NEVT =   1000
FILE = /castor/cern.ch/delphi/MCprod/lyon/p6143/v99_4/200/run19640.xsdst ! NEVT =   1000
FILE = /castor/cern.ch/delphi/MCprod/lyon/p6143/v99_4/200/run19641.xsdst ! NEVT =   1000
FILE = /castor/cern.ch/delphi/MCprod/lyon/p6143/v99_4/200/run19642.xsdst ! NEVT =   1000
FILE = /castor/cern.ch/delphi/MCprod/lyon/p6143/v99_4/200/run19643.xsdst ! NEVT =   1000
FILE = /castor/cern.ch/delphi/MCprod/lyon/p6143/v99_4/200/run19644.xsdst ! NEVT =   1000
FILE = /castor/cern.ch/delphi/MCprod/lyon/p6143/v99_4/200/run19645.xsdst ! NEVT =   1000
FILE = /castor/cern.ch/delphi/MCprod/lyon/p6143/v99_4/200/run19646.xsdst ! NEVT =   1000
FILE = /castor/cern.ch/delphi/MCprod/lyon/p6143/v99_4/200/run19647.xsdst ! NEVT =   1000
FILE = /castor/cern.ch/delphi/MCprod/lyon/p6143/v99_4/200/run19648.xsdst ! NEVT =   1000
FILE = /castor/cern.ch/delphi/MCprod/lyon/p6143/v99_4/200/run19649.xsdst ! NEVT =   1000
FILE = /castor/cern.ch/delphi/MCprod/lyon/p6143/v99_4/200/run19650.xsdst ! NEVT =   1000
FILE = /castor/cern.ch/delphi/MCprod/lyon/p6143/v99_4/200/run19651.xsdst ! NEVT =   1000
FILE = /castor/cern.ch/delphi/MCprod/lyon/p6143/v99_4/200/run19652.xsdst ! NEVT =   1000
FILE = /castor/cern.ch/delphi/MCprod/lyon/p6143/v99_4/200/run19653.xsdst ! NEVT =   1000
FILE = /castor/cern.ch/delphi/MCprod/lyon/p6143/v99_4/200/run19654.xsdst ! NEVT =   1000
FILE = /castor/cern.ch/delphi/MCprod/lyon/p6143/v99_4/200/run19655.xsdst ! NEVT =   1000
FILE = /castor/cern.ch/delphi/MCprod/lyon/p6143/v99_4/200/run19656.xsdst ! NEVT =   1000
FILE = /castor/cern.ch/delphi/MCprod/lyon/p6143/v99_4/200/run19657.xsdst ! NEVT =   1000
FILE = /castor/cern.ch/delphi/MCprod/lyon/p6143/v99_4/200/run19658.xsdst ! NEVT =   1000
FILE = /castor/cern.ch/delphi/MCprod/lyon/p6143/v99_4/200/run19659.xsdst ! NEVT =   1000
FILE = /castor/cern.ch/delphi/MCprod/lyon/p6143/v99_4/200/run19660.xsdst ! NEVT =   1000
FILE = /castor/cern.ch/delphi/MCprod/lyon/p6143/v99_4/200/run19661.xsdst ! NEVT =   1000
FILE = /castor/cern.ch/delphi/MCprod/lyon/p6143/v99_4/200/run19662.xsdst ! NEVT =   1000
FILE = /castor/cern.ch/delphi/MCprod/lyon/p6143/v99_4/200/run19663.xsdst ! NEVT =   1000
FILE = /castor/cern.ch/delphi/MCprod/lyon/p6143/v99_4/200/run19664.xsdst ! NEVT =   1000
FILE = /castor/cern.ch/delphi/MCprod/lyon/p6143/v99_4/200/run19665.xsdst ! NEVT =   1000
FILE = /castor/cern.ch/delphi/MCprod/lyon/p6143/v99_4/200/run19666.xsdst ! NEVT =   1000
FILE = /castor/cern.ch/delphi/MCprod/lyon/p6143/v99_4/200/run19667.xsdst ! NEVT =   1000
FILE = /castor/cern.ch/delphi/MCprod/lyon/p6143/v99_4/200/run19668.xsdst ! NEVT =   1000
FILE = /castor/cern.ch/delphi/MCprod/lyon/p6143/v99_4/200/run19669.xsdst ! NEVT =   1000
FILE = /castor/cern.ch/delphi/MCprod/lyon/p6143/v99_4/200/run19670.xsdst ! NEVT =   1000
FILE = /castor/cern.ch/delphi/MCprod/lyon/p6143/v99_4/200/run19671.xsdst ! NEVT =   1000
FILE = /castor/cern.ch/delphi/MCprod/lyon/p6143/v99_4/200/run19672.xsdst ! NEVT =   1000
FILE = /castor/cern.ch/delphi/MCprod/lyon/p6143/v99_4/200/run19673.xsdst ! NEVT =   1000
FILE = /castor/cern.ch/delphi/MCprod/lyon/p6143/v99_4/200/run19674.xsdst ! NEVT =   1000
FILE = /castor/cern.ch/delphi/MCprod/lyon/p6143/v99_4/200/run19675.xsdst ! NEVT =   1000
FILE = /castor/cern.ch/delphi/MCprod/lyon/p6143/v99_4/200/run19676.xsdst ! NEVT =   1000
FILE = /castor/cern.ch/delphi/MCprod/lyon/p6143/v99_4/200/run19677.xsdst ! NEVT =   1000
FILE = /castor/cern.ch/delphi/MCprod/lyon/p6143/v99_4/200/run19678.xsdst ! NEVT =   1000
FILE = /castor/cern.ch/delphi/MCprod/lyon/p6143/v99_4/200/run19679.xsdst ! NEVT =   1000
FILE = /castor/cern.ch/delphi/MCprod/lyon/p6143/v99_4/200/run19680.xsdst ! NEVT =   1000
FILE = /castor/cern.ch/delphi/MCprod/lyon/p6143/v99_4/200/run19681.xsdst ! NEVT =   1000
FILE = /castor/cern.ch/delphi/MCprod/lyon/p6143/v99_4/200/run19682.xsdst ! NEVT =   1000
FILE = /castor/cern.ch/delphi/MCprod/lyon/p6143/v99_4/200/run19683.xsdst ! NEVT =   1000
FILE = /castor/cern.ch/delphi/MCprod/lyon/p6143/v99_4/200/run19684.xsdst ! NEVT =   1000
FILE = /castor/cern.ch/delphi/MCprod/lyon/p6143/v99_4/200/run19685.xsdst ! NEVT =   1000
FILE = /castor/cern.ch/delphi/MCprod/lyon/p6143/v99_4/200/run19686.xsdst ! NEVT =   1000
FILE = /castor/cern.ch/delphi/MCprod/lyon/p6143/v99_4/200/run19687.xsdst ! NEVT =   1000
FILE = /castor/cern.ch/delphi/MCprod/lyon/p6143/v99_4/200/run19688.xsdst ! NEVT =   1000
FILE = /castor/cern.ch/delphi/MCprod/lyon/p6143/v99_4/200/run19689.xsdst ! NEVT =   1000
FILE = /castor/cern.ch/delphi/MCprod/lyon/p6143/v99_4/200/run19690.xsdst ! NEVT =   1000
FILE = /castor/cern.ch/delphi/MCprod/lyon/p6143/v99_4/200/run19691.xsdst ! NEVT =   1000
FILE = /castor/cern.ch/delphi/MCprod/lyon/p6143/v99_4/200/run19692.xsdst ! NEVT =   1000
FILE = /castor/cern.ch/delphi/MCprod/lyon/p6143/v99_4/200/run19693.xsdst ! NEVT =   1000
FILE = /castor/cern.ch/delphi/MCprod/lyon/p6143/v99_4/200/run19694.xsdst ! NEVT =   1000
FILE = /castor/cern.ch/delphi/MCprod/lyon/p6143/v99_4/200/run19695.xsdst ! NEVT =   1000
FILE = /castor/cern.ch/delphi/MCprod/lyon/p6143/v99_4/200/run19696.xsdst ! NEVT =   1000
FILE = /castor/cern.ch/delphi/MCprod/lyon/p6143/v99_4/200/run19697.xsdst ! NEVT =   1000
FILE = /castor/cern.ch/delphi/MCprod/lyon/p6143/v99_4/200/run19698.xsdst ! NEVT =   1000
FILE = /castor/cern.ch/delphi/MCprod/lyon/p6143/v99_4/200/run19699.xsdst ! NEVT =   1000
FILE = /castor/cern.ch/delphi/MCprod/lyon/p6143/v99_4/200/run19700.xsdst ! NEVT =   1000
FILE = /castor/cern.ch/delphi/MCprod/lyon/p6143/v99_4/200/run19701.xsdst ! NEVT =   1000
FILE = /castor/cern.ch/delphi/MCprod/lyon/p6143/v99_4/200/run19702.xsdst ! NEVT =   1000
FILE = /castor/cern.ch/delphi/MCprod/lyon/p6143/v99_4/200/run19703.xsdst ! NEVT =   1000
FILE = /castor/cern.ch/delphi/MCprod/lyon/p6143/v99_4/200/run19704.xsdst ! NEVT =   1000
FILE = /castor/cern.ch/delphi/MCprod/lyon/p6143/v99_4/200/run19705.xsdst ! NEVT =   1000
FILE = /castor/cern.ch/delphi/MCprod/lyon/p6143/v99_4/200/run19706.xsdst ! NEVT =   1000
FILE = /castor/cern.ch/delphi/MCprod/lyon/p6143/v99_4/200/run19707.xsdst ! NEVT =   1000
FILE = /castor/cern.ch/delphi/MCprod/lyon/p6143/v99_4/200/run19708.xsdst ! NEVT =   1000
FILE = /castor/cern.ch/delphi/MCprod/lyon/p6143/v99_4/200/run19709.xsdst ! NEVT =   1000
FILE = /castor/cern.ch/delphi/MCprod/lyon/p6143/v99_4/200/run19710.xsdst ! NEVT =   1000
FILE = /castor/cern.ch/delphi/MCprod/lyon/p6143/v99_4/200/run19711.xsdst ! NEVT =   1000
FILE = /castor/cern.ch/delphi/MCprod/lyon/p6143/v99_4/200/run19712.xsdst ! NEVT =   1000
FILE = /castor/cern.ch/delphi/MCprod/lyon/p6143/v99_4/200/run19713.xsdst ! NEVT =   1000
FILE = /castor/cern.ch/delphi/MCprod/lyon/p6143/v99_4/200/run19714.xsdst ! NEVT =   1000
FILE = /castor/cern.ch/delphi/MCprod/lyon/p6143/v99_4/200/run19715.xsdst ! NEVT =   1000
FILE = /castor/cern.ch/delphi/MCprod/lyon/p6143/v99_4/200/run19716.xsdst ! NEVT =   1000
FILE = /castor/cern.ch/delphi/MCprod/lyon/p6143/v99_4/200/run19717.xsdst ! NEVT =   1000
FILE = /castor/cern.ch/delphi/MCprod/lyon/p6143/v99_4/200/run19718.xsdst ! NEVT =   1000
FILE = /castor/cern.ch/delphi/MCprod/lyon/p6143/v99_4/200/run19719.xsdst ! NEVT =   1000
FILE = /castor/cern.ch/delphi/MCprod/lyon/p6143/v99_4/200/run19720.xsdst ! NEVT =   1000
FILE = /castor/cern.ch/delphi/MCprod/lyon/p6143/v99_4/200/run19721.xsdst ! NEVT =   1000
FILE = /castor/cern.ch/delphi/MCprod/lyon/p6143/v99_4/200/run19722.xsdst ! NEVT =   1000
FILE = /castor/cern.ch/delphi/MCprod/lyon/p6143/v99_4/200/run19723.xsdst ! NEVT =   1000
FILE = /castor/cern.ch/delphi/MCprod/lyon/p6143/v99_4/200/run19724.xsdst ! NEVT =   1000
FILE = /castor/cern.ch/delphi/MCprod/lyon/p6143/v99_4/200/run19725.xsdst ! NEVT =   1000
FILE = /castor/cern.ch/delphi/MCprod/lyon/p6143/v99_4/200/run19726.xsdst ! NEVT =   1000
FILE = /castor/cern.ch/delphi/MCprod/lyon/p6143/v99_4/200/run19727.xsdst ! NEVT =   1000
FILE = /castor/cern.ch/delphi/MCprod/lyon/p6143/v99_4/200/run19728.xsdst ! NEVT =   1000
FILE = /castor/cern.ch/delphi/MCprod/lyon/p6143/v99_4/200/run19729.xsdst ! NEVT =   1000
FILE = /castor/cern.ch/delphi/MCprod/lyon/p6143/v99_4/200/run19730.xsdst ! NEVT =   1000
FILE = /castor/cern.ch/delphi/MCprod/lyon/p6143/v99_4/200/run19731.xsdst ! NEVT =   1000
FILE = /castor/cern.ch/delphi/MCprod/lyon/p6143/v99_4/200/run19732.xsdst ! NEVT =   1000
FILE = /castor/cern.ch/delphi/MCprod/lyon/p6143/v99_4/200/run19733.xsdst ! NEVT =   1000
FILE = /castor/cern.ch/delphi/MCprod/lyon/p6143/v99_4/200/run19734.xsdst ! NEVT =   1000
FILE = /castor/cern.ch/delphi/MCprod/lyon/p6143/v99_4/200/run19735.xsdst ! NEVT =   1000
FILE = /castor/cern.ch/delphi/MCprod/lyon/p6143/v99_4/200/run19736.xsdst ! NEVT =   1000
FILE = /castor/cern.ch/delphi/MCprod/lyon/p6143/v99_4/200/run19737.xsdst ! NEVT =   1000
FILE = /castor/cern.ch/delphi/MCprod/lyon/p6143/v99_4/200/run19738.xsdst ! NEVT =   1000
FILE = /castor/cern.ch/delphi/MCprod/lyon/p6143/v99_4/200/run19739.xsdst ! NEVT =   1000
FILE = /castor/cern.ch/delphi/MCprod/lyon/p6143/v99_4/200/run19740.xsdst ! NEVT =   1000
FILE = /castor/cern.ch/delphi/MCprod/lyon/p6143/v99_4/200/run19741.xsdst ! NEVT =   1000
FILE = /castor/cern.ch/delphi/MCprod/lyon/p6143/v99_4/200/run19742.xsdst ! NEVT =   1000
FILE = /castor/cern.ch/delphi/MCprod/lyon/p6143/v99_4/200/run19743.xsdst ! NEVT =   1000
FILE = /castor/cern.ch/delphi/MCprod/lyon/p6143/v99_4/200/run19744.xsdst ! NEVT =   1000
FILE = /castor/cern.ch/delphi/MCprod/lyon/p6143/v99_4/200/run19745.xsdst ! NEVT =   1000
FILE = /castor/cern.ch/delphi/MCprod/lyon/p6143/v99_4/200/run19746.xsdst ! NEVT =   1000
FILE = /castor/cern.ch/delphi/MCprod/lyon/p6143/v99_4/200/run19747.xsdst ! NEVT =   1000
FILE = /castor/cern.ch/delphi/MCprod/lyon/p6143/v99_4/200/run19748.xsdst ! NEVT =   1000
FILE = /castor/cern.ch/delphi/MCprod/lyon/p6143/v99_4/200/run19749.xsdst ! NEVT =   1000
FILE = /castor/cern.ch/delphi/MCprod/lyon/p6143/v99_4/200/run19750.xsdst ! NEVT =   1000
FILE = /castor/cern.ch/delphi/MCprod/lyon/p6143/v99_4/200/run19751.xsdst ! NEVT =   1000
FILE = /castor/cern.ch/delphi/MCprod/lyon/p6143/v99_4/200/run19752.xsdst ! NEVT =   1000
FILE = /castor/cern.ch/delphi/MCprod/lyon/p6143/v99_4/200/run19753.xsdst ! NEVT =   1000
FILE = /castor/cern.ch/delphi/MCprod/lyon/p6143/v99_4/200/run19754.xsdst ! NEVT =   1000
FILE = /castor/cern.ch/delphi/MCprod/lyon/p6143/v99_4/200/run19755.xsdst ! NEVT =   1000
FILE = /castor/cern.ch/delphi/MCprod/lyon/p6143/v99_4/200/run19756.xsdst ! NEVT =   1000
FILE = /castor/cern.ch/delphi/MCprod/lyon/p6143/v99_4/200/run19757.xsdst ! NEVT =   1000
FILE = /castor/cern.ch/delphi/MCprod/lyon/p6143/v99_4/200/run19758.xsdst ! NEVT =   1000
FILE = /castor/cern.ch/delphi/MCprod/lyon/p6143/v99_4/200/run19759.xsdst ! NEVT =   1000
FILE = /castor/cern.ch/delphi/MCprod/lyon/p6143/v99_4/200/run19760.xsdst ! NEVT =   1000
FILE = /castor/cern.ch/delphi/MCprod/lyon/p6143/v99_4/200/run19761.xsdst ! NEVT =   1000
FILE = /castor/cern.ch/delphi/MCprod/lyon/p6143/v99_4/200/run19762.xsdst ! NEVT =   1000
FILE = /castor/cern.ch/delphi/MCprod/lyon/p6143/v99_4/200/run19763.xsdst ! NEVT =   1000
FILE = /castor/cern.ch/delphi/MCprod/lyon/p6143/v99_4/200/run19764.xsdst ! NEVT =   1000
FILE = /castor/cern.ch/delphi/MCprod/lyon/p6143/v99_4/200/run19765.xsdst ! NEVT =   1000
FILE = /castor/cern.ch/delphi/MCprod/lyon/p6143/v99_4/200/run19766.xsdst ! NEVT =   1000
FILE = /castor/cern.ch/delphi/MCprod/lyon/p6143/v99_4/200/run19767.xsdst ! NEVT =   1000
FILE = /castor/cern.ch/delphi/MCprod/lyon/p6143/v99_4/200/run19768.xsdst ! NEVT =   1000
FILE = /castor/cern.ch/delphi/MCprod/lyon/p6143/v99_4/200/run19769.xsdst ! NEVT =   1000
FILE = /castor/cern.ch/delphi/MCprod/lyon/p6143/v99_4/200/run19770.xsdst ! NEVT =   1000
FILE = /castor/cern.ch/delphi/MCprod/lyon/p6143/v99_4/200/run19771.xsdst ! NEVT =   1000
FILE = /castor/cern.ch/delphi/MCprod/lyon/p6143/v99_4/200/run19772.xsdst ! NEVT =   1000
FILE = /castor/cern.ch/delphi/MCprod/lyon/p6143/v99_4/200/run19773.xsdst ! NEVT =   1000
FILE = /castor/cern.ch/delphi/MCprod/lyon/p6143/v99_4/200/run19774.xsdst ! NEVT =   1000
FILE = /castor/cern.ch/delphi/MCprod/lyon/p6143/v99_4/200/run19775.xsdst ! NEVT =   1000
FILE = /castor/cern.ch/delphi/MCprod/lyon/p6143/v99_4/200/run19776.xsdst ! NEVT =   1000
FILE = /castor/cern.ch/delphi/MCprod/lyon/p6143/v99_4/200/run19777.xsdst ! NEVT =   1000
FILE = /castor/cern.ch/delphi/MCprod/lyon/p6143/v99_4/200/run19778.xsdst ! NEVT =   1000
FILE = /castor/cern.ch/delphi/MCprod/lyon/p6143/v99_4/200/run19779.xsdst ! NEVT =   1000
FILE = /castor/cern.ch/delphi/MCprod/lyon/p6143/v99_4/200/run19780.xsdst ! NEVT =   1000
FILE = /castor/cern.ch/delphi/MCprod/lyon/p6143/v99_4/200/run19781.xsdst ! NEVT =   1000
FILE = /castor/cern.ch/delphi/MCprod/lyon/p6143/v99_4/200/run19782.xsdst ! NEVT =   1000
FILE = /castor/cern.ch/delphi/MCprod/lyon/p6143/v99_4/200/run19783.xsdst ! NEVT =   1000
FILE = /castor/cern.ch/delphi/MCprod/lyon/p6143/v99_4/200/run19784.xsdst ! NEVT =   1000
FILE = /castor/cern.ch/delphi/MCprod/lyon/p6143/v99_4/200/run19785.xsdst ! NEVT =   1000
FILE = /castor/cern.ch/delphi/MCprod/lyon/p6143/v99_4/200/run19786.xsdst ! NEVT =   1000
FILE = /castor/cern.ch/delphi/MCprod/lyon/p6143/v99_4/200/run19787.xsdst ! NEVT =   1000
FILE = /castor/cern.ch/delphi/MCprod/lyon/p6143/v99_4/200/run19788.xsdst ! NEVT =   1000
FILE = /castor/cern.ch/delphi/MCprod/lyon/p6143/v99_4/200/run19789.xsdst ! NEVT =   1000
FILE = /castor/cern.ch/delphi/MCprod/lyon/p6143/v99_4/200/run19790.xsdst ! NEVT =   1000
FILE = /castor/cern.ch/delphi/MCprod/lyon/p6143/v99_4/200/run19791.xsdst ! NEVT =   1000
FILE = /castor/cern.ch/delphi/MCprod/lyon/p6143/v99_4/200/run19792.xsdst ! NEVT =   1000
FILE = /castor/cern.ch/delphi/MCprod/lyon/p6143/v99_4/200/run19793.xsdst ! NEVT =   1000
FILE = /castor/cern.ch/delphi/MCprod/lyon/p6143/v99_4/200/run19794.xsdst ! NEVT =   1000
FILE = /castor/cern.ch/delphi/MCprod/lyon/p6143/v99_4/200/run19795.xsdst ! NEVT =   1000
FILE = /castor/cern.ch/delphi/MCprod/lyon/p6143/v99_4/200/run19796.xsdst ! NEVT =   1000
FILE = /castor/cern.ch/delphi/MCprod/lyon/p6143/v99_4/200/run19797.xsdst ! NEVT =   1000
FILE = /castor/cern.ch/delphi/MCprod/lyon/p6143/v99_4/200/run19798.xsdst ! NEVT =   1000
FILE = /castor/cern.ch/delphi/MCprod/lyon/p6143/v99_4/200/run19799.xsdst ! NEVT =   1000
FILE = /castor/cern.ch/delphi/MCprod/lyon/p6143/v99_4/200/run19800.xsdst ! NEVT =   1000
FILE = /castor/cern.ch/delphi/MCprod/lyon/p6143/v99_4/200/run19801.xsdst ! NEVT =   1000
FILE = /castor/cern.ch/delphi/MCprod/lyon/p6143/v99_4/200/run19802.xsdst ! NEVT =   1000
FILE = /castor/cern.ch/delphi/MCprod/lyon/p6143/v99_4/200/run19803.xsdst ! NEVT =   1000
FILE = /castor/cern.ch/delphi/MCprod/lyon/p6143/v99_4/200/run19804.xsdst ! NEVT =   1000
FILE = /castor/cern.ch/delphi/MCprod/lyon/p6143/v99_4/200/run19805.xsdst ! NEVT =   1000
FILE = /castor/cern.ch/delphi/MCprod/lyon/p6143/v99_4/200/run19806.xsdst ! NEVT =   1000
FILE = /castor/cern.ch/delphi/MCprod/lyon/p6143/v99_4/200/run19807.xsdst ! NEVT =   1000
FILE = /castor/cern.ch/delphi/MCprod/lyon/p6143/v99_4/200/run19808.xsdst ! NEVT =   1000
FILE = /castor/cern.ch/delphi/MCprod/lyon/p6143/v99_4/200/run19809.xsdst ! NEVT =   1000
FILE = /castor/cern.ch/delphi/MCprod/lyon/p6143/v99_4/200/run19810.xsdst ! NEVT =   1000
FILE = /castor/cern.ch/delphi/MCprod/lyon/p6143/v99_4/200/run19811.xsdst ! NEVT =   1000
FILE = /castor/cern.ch/delphi/MCprod/lyon/p6143/v99_4/200/run19812.xsdst ! NEVT =   1000
FILE = /castor/cern.ch/delphi/MCprod/lyon/p6143/v99_4/200/run19813.xsdst ! NEVT =   1000
FILE = /castor/cern.ch/delphi/MCprod/lyon/p6143/v99_4/200/run19814.xsdst ! NEVT =   1000
FILE = /castor/cern.ch/delphi/MCprod/lyon/p6143/v99_4/200/run19815.xsdst ! NEVT =   1000
FILE = /castor/cern.ch/delphi/MCprod/lyon/p6143/v99_4/200/run19816.xsdst ! NEVT =   1000
FILE = /castor/cern.ch/delphi/MCprod/lyon/p6143/v99_4/200/run19817.xsdst ! NEVT =   1000
FILE = /castor/cern.ch/delphi/MCprod/lyon/p6143/v99_4/200/run19818.xsdst ! NEVT =   1000
FILE = /castor/cern.ch/delphi/MCprod/lyon/p6143/v99_4/200/run19819.xsdst ! NEVT =   1000
FILE = /castor/cern.ch/delphi/MCprod/lyon/p6143/v99_4/200/run19820.xsdst ! NEVT =   1000
FILE = /castor/cern.ch/delphi/MCprod/lyon/p6143/v99_4/200/run19821.xsdst ! NEVT =   1000
FILE = /castor/cern.ch/delphi/MCprod/lyon/p6143/v99_4/200/run19822.xsdst ! NEVT =   1000
FILE = /castor/cern.ch/delphi/MCprod/lyon/p6143/v99_4/200/run19823.xsdst ! NEVT =   1000
FILE = /castor/cern.ch/delphi/MCprod/lyon/p6143/v99_4/200/run19824.xsdst ! NEVT =   1000
FILE = /castor/cern.ch/delphi/MCprod/lyon/p6143/v99_4/200/run19825.xsdst ! NEVT =   1000
FILE = /castor/cern.ch/delphi/MCprod/lyon/p6143/v99_4/200/run19826.xsdst ! NEVT =   1000
FILE = /castor/cern.ch/delphi/MCprod/lyon/p6143/v99_4/200/run19827.xsdst ! NEVT =   1000
FILE = /castor/cern.ch/delphi/MCprod/lyon/p6143/v99_4/200/run19828.xsdst ! NEVT =   1000
FILE = /castor/cern.ch/delphi/MCprod/lyon/p6143/v99_4/200/run19829.xsdst ! NEVT =   1000
FILE = /castor/cern.ch/delphi/MCprod/lyon/p6143/v99_4/200/run19830.xsdst ! NEVT =   1000
FILE = /castor/cern.ch/delphi/MCprod/lyon/p6143/v99_4/200/run19831.xsdst ! NEVT =   1000
FILE = /castor/cern.ch/delphi/MCprod/lyon/p6143/v99_4/200/run19832.xsdst ! NEVT =   1000
FILE = /castor/cern.ch/delphi/MCprod/lyon/p6143/v99_4/200/run19833.xsdst ! NEVT =   1000
FILE = /castor/cern.ch/delphi/MCprod/lyon/p6143/v99_4/200/run19834.xsdst ! NEVT =   1000
FILE = /castor/cern.ch/delphi/MCprod/lyon/p6143/v99_4/200/run19835.xsdst ! NEVT =   1000
FILE = /castor/cern.ch/delphi/MCprod/lyon/p6143/v99_4/200/run19836.xsdst ! NEVT =   1000
FILE = /castor/cern.ch/delphi/MCprod/lyon/p6143/v99_4/200/run19837.xsdst ! NEVT =   1000
FILE = /castor/cern.ch/delphi/MCprod/lyon/p6143/v99_4/200/run19838.xsdst ! NEVT =   1000
FILE = /castor/cern.ch/delphi/MCprod/lyon/p6143/v99_4/200/run19839.xsdst ! NEVT =   1000
FILE = /castor/cern.ch/delphi/MCprod/lyon/p6143/v99_4/200/run19840.xsdst ! NEVT =   1000
FILE = /castor/cern.ch/delphi/MCprod/lyon/p6143/v99_4/200/run19841.xsdst ! NEVT =   1000
FILE = /castor/cern.ch/delphi/MCprod/lyon/p6143/v99_4/200/run19842.xsdst ! NEVT =   1000
FILE = /castor/cern.ch/delphi/MCprod/lyon/p6143/v99_4/200/run19843.xsdst ! NEVT =   1000
FILE = /castor/cern.ch/delphi/MCprod/lyon/p6143/v99_4/200/run19844.xsdst ! NEVT =   1000
FILE = /castor/cern.ch/delphi/MCprod/lyon/p6143/v99_4/200/run19845.xsdst ! NEVT =   1000
FILE = /castor/cern.ch/delphi/MCprod/lyon/p6143/v99_4/200/run19846.xsdst ! NEVT =   1000
FILE = /castor/cern.ch/delphi/MCprod/lyon/p6143/v99_4/200/run19847.xsdst ! NEVT =   1000
FILE = /castor/cern.ch/delphi/MCprod/lyon/p6143/v99_4/200/run19848.xsdst ! NEVT =   1000
FILE = /castor/cern.ch/delphi/MCprod/lyon/p6143/v99_4/200/run19849.xsdst ! NEVT =   1000
FILE = /castor/cern.ch/delphi/MCprod/lyon/p6143/v99_4/200/run19850.xsdst ! NEVT =   1000
FILE = /castor/cern.ch/delphi/MCprod/lyon/p6143/v99_4/200/run19851.xsdst ! NEVT =   1000
FILE = /castor/cern.ch/delphi/MCprod/lyon/p6143/v99_4/200/run19852.xsdst ! NEVT =   1000
FILE = /castor/cern.ch/delphi/MCprod/lyon/p6143/v99_4/200/run19853.xsdst ! NEVT =   1000
FILE = /castor/cern.ch/delphi/MCprod/lyon/p6143/v99_4/200/run19854.xsdst ! NEVT =   1000
FILE = /castor/cern.ch/delphi/MCprod/lyon/p6143/v99_4/200/run19855.xsdst ! NEVT =   1000
FILE = /castor/cern.ch/delphi/MCprod/lyon/p6143/v99_4/200/run19856.xsdst ! NEVT =   1000
FILE = /castor/cern.ch/delphi/MCprod/lyon/p6143/v99_4/200/run19857.xsdst ! NEVT =   1000
FILE = /castor/cern.ch/delphi/MCprod/lyon/p6143/v99_4/200/run19858.xsdst ! NEVT =   1000
FILE = /castor/cern.ch/delphi/MCprod/lyon/p6143/v99_4/200/run19859.xsdst ! NEVT =   1000
FILE = /castor/cern.ch/delphi/MCprod/lyon/p6143/v99_4/200/run19860.xsdst ! NEVT =   1000
FILE = /castor/cern.ch/delphi/MCprod/lyon/p6143/v99_4/200/run19861.xsdst ! NEVT =   1000
FILE = /castor/cern.ch/delphi/MCprod/lyon/p6143/v99_4/200/run19862.xsdst ! NEVT =   1000
FILE = /castor/cern.ch/delphi/MCprod/lyon/p6143/v99_4/200/run19863.xsdst ! NEVT =   1000
FILE = /castor/cern.ch/delphi/MCprod/lyon/p6143/v99_4/200/run19864.xsdst ! NEVT =   1000
FILE = /castor/cern.ch/delphi/MCprod/lyon/p6143/v99_4/200/run19865.xsdst ! NEVT =   1000
FILE = /castor/cern.ch/delphi/MCprod/lyon/p6143/v99_4/200/run19866.xsdst ! NEVT =   1000
FILE = /castor/cern.ch/delphi/MCprod/lyon/p6143/v99_4/200/run19867.xsdst ! NEVT =   1000
FILE = /castor/cern.ch/delphi/MCprod/lyon/p6143/v99_4/200/run19868.xsdst ! NEVT =   1000
FILE = /castor/cern.ch/delphi/MCprod/lyon/p6143/v99_4/200/run19869.xsdst ! NEVT =   1000
FILE = /castor/cern.ch/delphi/MCprod/lyon/p6143/v99_4/200/run19870.xsdst ! NEVT =   1000
FILE = /castor/cern.ch/delphi/MCprod/lyon/p6143/v99_4/200/run19871.xsdst ! NEVT =   1000
FILE = /castor/cern.ch/delphi/MCprod/lyon/p6143/v99_4/200/run19872.xsdst ! NEVT =   1000
FILE = /castor/cern.ch/delphi/MCprod/lyon/p6143/v99_4/200/run19873.xsdst ! NEVT =   1000
FILE = /castor/cern.ch/delphi/MCprod/lyon/p6143/v99_4/200/run19874.xsdst ! NEVT =   1000
FILE = /castor/cern.ch/delphi/MCprod/lyon/p6143/v99_4/200/run19875.xsdst ! NEVT =   1000
FILE = /castor/cern.ch/delphi/MCprod/lyon/p6143/v99_4/200/run19876.xsdst ! NEVT =   1000
FILE = /castor/cern.ch/delphi/MCprod/lyon/p6143/v99_4/200/run19877.xsdst ! NEVT =   1000
FILE = /castor/cern.ch/delphi/MCprod/lyon/p6143/v99_4/200/run19878.xsdst ! NEVT =   1000
FILE = /castor/cern.ch/delphi/MCprod/lyon/p6143/v99_4/200/run19879.xsdst ! NEVT =   1000
FILE = /castor/cern.ch/delphi/MCprod/lyon/p6143/v99_4/200/run19880.xsdst ! NEVT =   1000
FILE = /castor/cern.ch/delphi/MCprod/lyon/p6143/v99_4/200/run19881.xsdst ! NEVT =   1000
FILE = /castor/cern.ch/delphi/MCprod/lyon/p6143/v99_4/200/run19882.xsdst ! NEVT =   1000
FILE = /castor/cern.ch/delphi/MCprod/lyon/p6143/v99_4/200/run19883.xsdst ! NEVT =   1000
FILE = /castor/cern.ch/delphi/MCprod/lyon/p6143/v99_4/200/run19884.xsdst ! NEVT =   1000
FILE = /castor/cern.ch/delphi/MCprod/lyon/p6143/v99_4/200/run19885.xsdst ! NEVT =   1000
FILE = /castor/cern.ch/delphi/MCprod/lyon/p6143/v99_4/200/run19886.xsdst ! NEVT =   1000
FILE = /castor/cern.ch/delphi/MCprod/lyon/p6143/v99_4/200/run19887.xsdst ! NEVT =   1000
FILE = /castor/cern.ch/delphi/MCprod/lyon/p6143/v99_4/200/run19888.xsdst ! NEVT =   1000
FILE = /castor/cern.ch/delphi/MCprod/lyon/p6143/v99_4/200/run19889.xsdst ! NEVT =   1000
FILE = /castor/cern.ch/delphi/MCprod/lyon/p6143/v99_4/200/run19890.xsdst ! NEVT =   1000
FILE = /castor/cern.ch/delphi/MCprod/lyon/p6143/v99_4/200/run19891.xsdst ! NEVT =   1000
FILE = /castor/cern.ch/delphi/MCprod/lyon/p6143/v99_4/200/run19892.xsdst ! NEVT =   1000
FILE = /castor/cern.ch/delphi/MCprod/lyon/p6143/v99_4/200/run19893.xsdst ! NEVT =   1000
FILE = /castor/cern.ch/delphi/MCprod/lyon/p6143/v99_4/200/run19894.xsdst ! NEVT =   1000
FILE = /castor/cern.ch/delphi/MCprod/lyon/p6143/v99_4/200/run19895.xsdst ! NEVT =   1000
FILE = /castor/cern.ch/delphi/MCprod/lyon/p6143/v99_4/200/run19896.xsdst ! NEVT =   1000
FILE = /castor/cern.ch/delphi/MCprod/lyon/p6143/v99_4/200/run19897.xsdst ! NEVT =   1000
FILE = /castor/cern.ch/delphi/MCprod/lyon/p6143/v99_4/200/run19898.xsdst ! NEVT =   1000
FILE = /castor/cern.ch/delphi/MCprod/lyon/p6143/v99_4/200/run19899.xsdst ! NEVT =   1000
FILE = /castor/cern.ch/delphi/MCprod/lyon/p6143/v99_4/200/run19900.xsdst ! NEVT =   1000
FILE = /castor/cern.ch/delphi/MCprod/lyon/p6143/v99_4/200/run19901.xsdst ! NEVT =   1000
FILE = /castor/cern.ch/delphi/MCprod/lyon/p6143/v99_4/200/run19902.xsdst ! NEVT =   1000
FILE = /castor/cern.ch/delphi/MCprod/lyon/p6143/v99_4/200/run19903.xsdst ! NEVT =   1000
FILE = /castor/cern.ch/delphi/MCprod/lyon/p6143/v99_4/200/run19904.xsdst ! NEVT =   1000
FILE = /castor/cern.ch/delphi/MCprod/lyon/p6143/v99_4/200/run19905.xsdst ! NEVT =   1000
FILE = /castor/cern.ch/delphi/MCprod/lyon/p6143/v99_4/200/run19906.xsdst ! NEVT =   1000
FILE = /castor/cern.ch/delphi/MCprod/lyon/p6143/v99_4/200/run19907.xsdst ! NEVT =   1000
FILE = /castor/cern.ch/delphi/MCprod/lyon/p6143/v99_4/200/run19908.xsdst ! NEVT =   1000
FILE = /castor/cern.ch/delphi/MCprod/lyon/p6143/v99_4/200/run19909.xsdst ! NEVT =   1000
FILE = /castor/cern.ch/delphi/MCprod/lyon/p6143/v99_4/200/run19910.xsdst ! NEVT =   1000
FILE = /castor/cern.ch/delphi/MCprod/lyon/p6143/v99_4/200/run19911.xsdst ! NEVT =   1000
FILE = /castor/cern.ch/delphi/MCprod/lyon/p6143/v99_4/200/run19912.xsdst ! NEVT =   1000
FILE = /castor/cern.ch/delphi/MCprod/lyon/p6143/v99_4/200/run19913.xsdst ! NEVT =   1000
FILE = /castor/cern.ch/delphi/MCprod/lyon/p6143/v99_4/200/run19914.xsdst ! NEVT =   1000
FILE = /castor/cern.ch/delphi/MCprod/lyon/p6143/v99_4/200/run19915.xsdst ! NEVT =   1000
FILE = /castor/cern.ch/delphi/MCprod/lyon/p6143/v99_4/200/run19916.xsdst ! NEVT =   1000
FILE = /castor/cern.ch/delphi/MCprod/lyon/p6143/v99_4/200/run19917.xsdst ! NEVT =   1000
FILE = /castor/cern.ch/delphi/MCprod/lyon/p6143/v99_4/200/run19918.xsdst ! NEVT =   1000
FILE = /castor/cern.ch/delphi/MCprod/lyon/p6143/v99_4/200/run19919.xsdst ! NEVT =   1000
FILE = /castor/cern.ch/delphi/MCprod/lyon/p6143/v99_4/200/run19920.xsdst ! NEVT =   1000
FILE = /castor/cern.ch/delphi/MCprod/lyon/p6143/v99_4/200/run19921.xsdst ! NEVT =   1000
FILE = /castor/cern.ch/delphi/MCprod/lyon/p6143/v99_4/200/run19922.xsdst ! NEVT =   1000
FILE = /castor/cern.ch/delphi/MCprod/lyon/p6143/v99_4/200/run19923.xsdst ! NEVT =   1000
FILE = /castor/cern.ch/delphi/MCprod/lyon/p6143/v99_4/200/run19924.xsdst ! NEVT =   1000
FILE = /castor/cern.ch/delphi/MCprod/lyon/p6143/v99_4/200/run19925.xsdst ! NEVT =   1000
FILE = /castor/cern.ch/delphi/MCprod/lyon/p6143/v99_4/200/run19926.xsdst ! NEVT =   1000
FILE = /castor/cern.ch/delphi/MCprod/lyon/p6143/v99_4/200/run19927.xsdst ! NEVT =   1000
FILE = /castor/cern.ch/delphi/MCprod/lyon/p6143/v99_4/200/run19928.xsdst ! NEVT =   1000
FILE = /castor/cern.ch/delphi/MCprod/lyon/p6143/v99_4/200/run19929.xsdst ! NEVT =   1000
FILE = /castor/cern.ch/delphi/MCprod/lyon/p6143/v99_4/200/run19930.xsdst ! NEVT =   1000
FILE = /castor/cern.ch/delphi/MCprod/lyon/p6143/v99_4/200/run19931.xsdst ! NEVT =   1000
FILE = /castor/cern.ch/delphi/MCprod/lyon/p6143/v99_4/200/run19932.xsdst ! NEVT =   1000
FILE = /castor/cern.ch/delphi/MCprod/lyon/p6143/v99_4/200/run19933.xsdst ! NEVT =   1000
FILE = /castor/cern.ch/delphi/MCprod/lyon/p6143/v99_4/200/run19934.xsdst ! NEVT =   1000
FILE = /castor/cern.ch/delphi/MCprod/lyon/p6143/v99_4/200/run19935.xsdst ! NEVT =   1000
FILE = /castor/cern.ch/delphi/MCprod/lyon/p6143/v99_4/200/run19936.xsdst ! NEVT =   1000
FILE = /castor/cern.ch/delphi/MCprod/lyon/p6143/v99_4/200/run19937.xsdst ! NEVT =   1000
FILE = /castor/cern.ch/delphi/MCprod/lyon/p6143/v99_4/200/run19938.xsdst ! NEVT =   1000
FILE = /castor/cern.ch/delphi/MCprod/lyon/p6143/v99_4/200/run19939.xsdst ! NEVT =   1000
FILE = /castor/cern.ch/delphi/MCprod/lyon/p6143/v99_4/200/run19940.xsdst ! NEVT =   1000
FILE = /castor/cern.ch/delphi/MCprod/lyon/p6143/v99_4/200/run19941.xsdst ! NEVT =   1000
FILE = /castor/cern.ch/delphi/MCprod/lyon/p6143/v99_4/200/run19942.xsdst ! NEVT =   1000
FILE = /castor/cern.ch/delphi/MCprod/lyon/p6143/v99_4/200/run19943.xsdst ! NEVT =   1000
FILE = /castor/cern.ch/delphi/MCprod/lyon/p6143/v99_4/200/run19944.xsdst ! NEVT =   1000
FILE = /castor/cern.ch/delphi/MCprod/lyon/p6143/v99_4/200/run19945.xsdst ! NEVT =   1000
FILE = /castor/cern.ch/delphi/MCprod/lyon/p6143/v99_4/200/run19946.xsdst ! NEVT =   1000
FILE = /castor/cern.ch/delphi/MCprod/lyon/p6143/v99_4/200/run19947.xsdst ! NEVT =   1000
FILE = /castor/cern.ch/delphi/MCprod/lyon/p6143/v99_4/200/run19948.xsdst ! NEVT =   1000
FILE = /castor/cern.ch/delphi/MCprod/lyon/p6143/v99_4/200/run19949.xsdst ! NEVT =   1000
FILE = /castor/cern.ch/delphi/MCprod/lyon/p6143/v99_4/200/run19950.xsdst ! NEVT =   1000
FILE = /castor/cern.ch/delphi/MCprod/lyon/p6143/v99_4/200/run19951.xsdst ! NEVT =   1000
FILE = /castor/cern.ch/delphi/MCprod/lyon/p6143/v99_4/200/run19952.xsdst ! NEVT =   1000
FILE = /castor/cern.ch/delphi/MCprod/lyon/p6143/v99_4/200/run19953.xsdst ! NEVT =   1000
FILE = /castor/cern.ch/delphi/MCprod/lyon/p6143/v99_4/200/run19954.xsdst ! NEVT =   1000
FILE = /castor/cern.ch/delphi/MCprod/lyon/p6143/v99_4/200/run19955.xsdst ! NEVT =   1000
FILE = /castor/cern.ch/delphi/MCprod/lyon/p6143/v99_4/200/run19956.xsdst ! NEVT =   1000
FILE = /castor/cern.ch/delphi/MCprod/lyon/p6143/v99_4/200/run19957.xsdst ! NEVT =   1000
FILE = /castor/cern.ch/delphi/MCprod/lyon/p6143/v99_4/200/run19958.xsdst ! NEVT =   1000
FILE = /castor/cern.ch/delphi/MCprod/lyon/p6143/v99_4/200/run19959.xsdst ! NEVT =   1000
FILE = /castor/cern.ch/delphi/MCprod/lyon/p6143/v99_4/200/run19960.xsdst ! NEVT =   1000
FILE = /castor/cern.ch/delphi/MCprod/lyon/p6143/v99_4/200/run19961.xsdst ! NEVT =   1000
FILE = /castor/cern.ch/delphi/MCprod/lyon/p6143/v99_4/200/run19962.xsdst ! NEVT =   1000
FILE = /castor/cern.ch/delphi/MCprod/lyon/p6143/v99_4/200/run19963.xsdst ! NEVT =   1000
FILE = /castor/cern.ch/delphi/MCprod/lyon/p6143/v99_4/200/run19964.xsdst ! NEVT =   1000
FILE = /castor/cern.ch/delphi/MCprod/lyon/p6143/v99_4/200/run19965.xsdst ! NEVT =   1000
FILE = /castor/cern.ch/delphi/MCprod/lyon/p6143/v99_4/200/run19966.xsdst ! NEVT =   1000
FILE = /castor/cern.ch/delphi/MCprod/lyon/p6143/v99_4/200/run19967.xsdst ! NEVT =   1000
FILE = /castor/cern.ch/delphi/MCprod/lyon/p6143/v99_4/200/run19968.xsdst ! NEVT =   1000
FILE = /castor/cern.ch/delphi/MCprod/lyon/p6143/v99_4/200/run19969.xsdst ! NEVT =   1000
FILE = /castor/cern.ch/delphi/MCprod/lyon/p6143/v99_4/200/run19970.xsdst ! NEVT =   1000
FILE = /castor/cern.ch/delphi/MCprod/lyon/p6143/v99_4/200/run19971.xsdst ! NEVT =   1000
FILE = /castor/cern.ch/delphi/MCprod/lyon/p6143/v99_4/200/run19972.xsdst ! NEVT =   1000
FILE = /castor/cern.ch/delphi/MCprod/lyon/p6143/v99_4/200/run19973.xsdst ! NEVT =   1000
FILE = /castor/cern.ch/delphi/MCprod/lyon/p6143/v99_4/200/run19974.xsdst ! NEVT =   1000
FILE = /castor/cern.ch/delphi/MCprod/lyon/p6143/v99_4/200/run19975.xsdst ! NEVT =   1000
FILE = /castor/cern.ch/delphi/MCprod/lyon/p6143/v99_4/200/run19976.xsdst ! NEVT =   1000
FILE = /castor/cern.ch/delphi/MCprod/lyon/p6143/v99_4/200/run19977.xsdst ! NEVT =   1000
FILE = /castor/cern.ch/delphi/MCprod/lyon/p6143/v99_4/200/run19978.xsdst ! NEVT =   1000
FILE = /castor/cern.ch/delphi/MCprod/lyon/p6143/v99_4/200/run19979.xsdst ! NEVT =   1000
FILE = /castor/cern.ch/delphi/MCprod/lyon/p6143/v99_4/200/run19980.xsdst ! NEVT =   1000
FILE = /castor/cern.ch/delphi/MCprod/lyon/p6143/v99_4/200/run19981.xsdst ! NEVT =   1000
FILE = /castor/cern.ch/delphi/MCprod/lyon/p6143/v99_4/200/run19982.xsdst ! NEVT =   1000
FILE = /castor/cern.ch/delphi/MCprod/lyon/p6143/v99_4/200/run19983.xsdst ! NEVT =   1000
FILE = /castor/cern.ch/delphi/MCprod/lyon/p6143/v99_4/200/run19984.xsdst ! NEVT =   1000
FILE = /castor/cern.ch/delphi/MCprod/lyon/p6143/v99_4/200/run19985.xsdst ! NEVT =   1000
FILE = /castor/cern.ch/delphi/MCprod/lyon/p6143/v99_4/200/run19986.xsdst ! NEVT =   1000
FILE = /castor/cern.ch/delphi/MCprod/lyon/p6143/v99_4/200/run19987.xsdst ! NEVT =   1000
FILE = /castor/cern.ch/delphi/MCprod/lyon/p6143/v99_4/200/run19988.xsdst ! NEVT =   1000
FILE = /castor/cern.ch/delphi/MCprod/lyon/p6143/v99_4/200/run19989.xsdst ! NEVT =   1000
FILE = /castor/cern.ch/delphi/MCprod/lyon/p6143/v99_4/200/run19990.xsdst ! NEVT =   1000
FILE = /castor/cern.ch/delphi/MCprod/lyon/p6143/v99_4/200/run19991.xsdst ! NEVT =   1000
FILE = /castor/cern.ch/delphi/MCprod/lyon/p6143/v99_4/200/run19992.xsdst ! NEVT =   1000
FILE = /castor/cern.ch/delphi/MCprod/lyon/p6143/v99_4/200/run19993.xsdst ! NEVT =   1000
FILE = /castor/cern.ch/delphi/MCprod/lyon/p6143/v99_4/200/run19994.xsdst ! NEVT =   1000
FILE = /castor/cern.ch/delphi/MCprod/lyon/p6143/v99_4/200/run19995.xsdst ! NEVT =   1000
FILE = /castor/cern.ch/delphi/MCprod/lyon/p6143/v99_4/200/run19996.xsdst ! NEVT =   1000
FILE = /castor/cern.ch/delphi/MCprod/lyon/p6143/v99_4/200/run19997.xsdst ! NEVT =   1000
FILE = /castor/cern.ch/delphi/MCprod/lyon/p6143/v99_4/200/run19998.xsdst ! NEVT =   1000
FILE = /castor/cern.ch/delphi/MCprod/lyon/p6143/v99_4/200/run19999.xsdst ! NEVT =   1000
FILE = /castor/cern.ch/delphi/MCprod/lyon/p6143/v99_4/200/run20000.xsdst ! NEVT =   1000
