*
*   Nickname     : xs_gpym6156c4_e200_l99_1l_a1
*   Generic Name : //CERN/DELPHI/P02_SIMD/XSDST/GPYM6156C4/LYON, 139753 EVENTS/SUMT
*   Description  : special sample gamma gamma -> hadrons, pythia 6156 Cut = 3 Extended Short DST simulation 99_a1 200 , Lyon, 139753 events
*---
*   Comments     :  time stamp: Sat May 12 18:54:28 2001
*---
*
*  Comments     : gamma gamma -> hadrons, pythia 6156 xsec about 300pb^-1 
*                 the title card CUT 3 will select events with at least 1 particle
*                 with p>0.3 Ebeam and Theta>1.8 degrees
*
*
*
FILE = /castor/cern.ch/delphi/MCprod/lyon/gpym6156c4/v99_4/200/gpym6156c4_20000.xsdst ! RUN = 20000 ! NEVT = 1000
FILE = /castor/cern.ch/delphi/MCprod/lyon/gpym6156c4/v99_4/200/gpym6156c4_20001.xsdst ! RUN = 20001 ! NEVT = 1000
FILE = /castor/cern.ch/delphi/MCprod/lyon/gpym6156c4/v99_4/200/gpym6156c4_20002.xsdst ! RUN = 20002 ! NEVT = 1000
FILE = /castor/cern.ch/delphi/MCprod/lyon/gpym6156c4/v99_4/200/gpym6156c4_20003.xsdst ! RUN = 20003 ! NEVT = 1000
FILE = /castor/cern.ch/delphi/MCprod/lyon/gpym6156c4/v99_4/200/gpym6156c4_20004.xsdst ! RUN = 20004 ! NEVT = 1000
FILE = /castor/cern.ch/delphi/MCprod/lyon/gpym6156c4/v99_4/200/gpym6156c4_20005.xsdst ! RUN = 20005 ! NEVT = 1000
FILE = /castor/cern.ch/delphi/MCprod/lyon/gpym6156c4/v99_4/200/gpym6156c4_20006.xsdst ! RUN = 20006 ! NEVT = 1000
FILE = /castor/cern.ch/delphi/MCprod/lyon/gpym6156c4/v99_4/200/gpym6156c4_20007.xsdst ! RUN = 20007 ! NEVT = 1000
FILE = /castor/cern.ch/delphi/MCprod/lyon/gpym6156c4/v99_4/200/gpym6156c4_20008.xsdst ! RUN = 20008 ! NEVT = 1000
FILE = /castor/cern.ch/delphi/MCprod/lyon/gpym6156c4/v99_4/200/gpym6156c4_20009.xsdst ! RUN = 20009 ! NEVT = 1000
FILE = /castor/cern.ch/delphi/MCprod/lyon/gpym6156c4/v99_4/200/gpym6156c4_20010.xsdst ! RUN = 20010 ! NEVT = 1000
FILE = /castor/cern.ch/delphi/MCprod/lyon/gpym6156c4/v99_4/200/gpym6156c4_20011.xsdst ! RUN = 20011 ! NEVT = 1000
FILE = /castor/cern.ch/delphi/MCprod/lyon/gpym6156c4/v99_4/200/gpym6156c4_20012.xsdst ! RUN = 20012 ! NEVT = 1000
FILE = /castor/cern.ch/delphi/MCprod/lyon/gpym6156c4/v99_4/200/gpym6156c4_20013.xsdst ! RUN = 20013 ! NEVT = 1000
FILE = /castor/cern.ch/delphi/MCprod/lyon/gpym6156c4/v99_4/200/gpym6156c4_20014.xsdst ! RUN = 20014 ! NEVT = 1000
FILE = /castor/cern.ch/delphi/MCprod/lyon/gpym6156c4/v99_4/200/gpym6156c4_20015.xsdst ! RUN = 20015 ! NEVT = 1000
FILE = /castor/cern.ch/delphi/MCprod/lyon/gpym6156c4/v99_4/200/gpym6156c4_20016.xsdst ! RUN = 20016 ! NEVT = 1000
FILE = /castor/cern.ch/delphi/MCprod/lyon/gpym6156c4/v99_4/200/gpym6156c4_20017.xsdst ! RUN = 20017 ! NEVT = 1000
FILE = /castor/cern.ch/delphi/MCprod/lyon/gpym6156c4/v99_4/200/gpym6156c4_20018.xsdst ! RUN = 20018 ! NEVT = 1000
FILE = /castor/cern.ch/delphi/MCprod/lyon/gpym6156c4/v99_4/200/gpym6156c4_20019.xsdst ! RUN = 20019 ! NEVT = 1000
FILE = /castor/cern.ch/delphi/MCprod/lyon/gpym6156c4/v99_4/200/gpym6156c4_20020.xsdst ! RUN = 20020 ! NEVT = 1000
FILE = /castor/cern.ch/delphi/MCprod/lyon/gpym6156c4/v99_4/200/gpym6156c4_20021.xsdst ! RUN = 20021 ! NEVT = 1000
FILE = /castor/cern.ch/delphi/MCprod/lyon/gpym6156c4/v99_4/200/gpym6156c4_20022.xsdst ! RUN = 20022 ! NEVT = 1000
FILE = /castor/cern.ch/delphi/MCprod/lyon/gpym6156c4/v99_4/200/gpym6156c4_20023.xsdst ! RUN = 20023 ! NEVT = 1000
FILE = /castor/cern.ch/delphi/MCprod/lyon/gpym6156c4/v99_4/200/gpym6156c4_20024.xsdst ! RUN = 20024 ! NEVT = 753
FILE = /castor/cern.ch/delphi/MCprod/lyon/gpym6156c4/v99_4/200/gpym6156c4_20025.xsdst ! RUN = 20025 ! NEVT = 1000
FILE = /castor/cern.ch/delphi/MCprod/lyon/gpym6156c4/v99_4/200/gpym6156c4_20026.xsdst ! RUN = 20026 ! NEVT = 1000
FILE = /castor/cern.ch/delphi/MCprod/lyon/gpym6156c4/v99_4/200/gpym6156c4_20027.xsdst ! RUN = 20027 ! NEVT = 1000
FILE = /castor/cern.ch/delphi/MCprod/lyon/gpym6156c4/v99_4/200/gpym6156c4_20028.xsdst ! RUN = 20028 ! NEVT = 1000
FILE = /castor/cern.ch/delphi/MCprod/lyon/gpym6156c4/v99_4/200/gpym6156c4_20029.xsdst ! RUN = 20029 ! NEVT = 1000
FILE = /castor/cern.ch/delphi/MCprod/lyon/gpym6156c4/v99_4/200/gpym6156c4_20030.xsdst ! RUN = 20030 ! NEVT = 1000
FILE = /castor/cern.ch/delphi/MCprod/lyon/gpym6156c4/v99_4/200/gpym6156c4_20031.xsdst ! RUN = 20031 ! NEVT = 1000
FILE = /castor/cern.ch/delphi/MCprod/lyon/gpym6156c4/v99_4/200/gpym6156c4_20032.xsdst ! RUN = 20032 ! NEVT = 1000
FILE = /castor/cern.ch/delphi/MCprod/lyon/gpym6156c4/v99_4/200/gpym6156c4_20033.xsdst ! RUN = 20033 ! NEVT = 1000
FILE = /castor/cern.ch/delphi/MCprod/lyon/gpym6156c4/v99_4/200/gpym6156c4_20034.xsdst ! RUN = 20034 ! NEVT = 1000
FILE = /castor/cern.ch/delphi/MCprod/lyon/gpym6156c4/v99_4/200/gpym6156c4_20035.xsdst ! RUN = 20035 ! NEVT = 1000
FILE = /castor/cern.ch/delphi/MCprod/lyon/gpym6156c4/v99_4/200/gpym6156c4_20036.xsdst ! RUN = 20036 ! NEVT = 1000
FILE = /castor/cern.ch/delphi/MCprod/lyon/gpym6156c4/v99_4/200/gpym6156c4_20037.xsdst ! RUN = 20037 ! NEVT = 1000
FILE = /castor/cern.ch/delphi/MCprod/lyon/gpym6156c4/v99_4/200/gpym6156c4_20038.xsdst ! RUN = 20038 ! NEVT = 1000
FILE = /castor/cern.ch/delphi/MCprod/lyon/gpym6156c4/v99_4/200/gpym6156c4_20039.xsdst ! RUN = 20039 ! NEVT = 1000
FILE = /castor/cern.ch/delphi/MCprod/lyon/gpym6156c4/v99_4/200/gpym6156c4_20040.xsdst ! RUN = 20040 ! NEVT = 1000
FILE = /castor/cern.ch/delphi/MCprod/lyon/gpym6156c4/v99_4/200/gpym6156c4_20041.xsdst ! RUN = 20041 ! NEVT = 1000
FILE = /castor/cern.ch/delphi/MCprod/lyon/gpym6156c4/v99_4/200/gpym6156c4_20042.xsdst ! RUN = 20042 ! NEVT = 1000
FILE = /castor/cern.ch/delphi/MCprod/lyon/gpym6156c4/v99_4/200/gpym6156c4_20043.xsdst ! RUN = 20043 ! NEVT = 1000
FILE = /castor/cern.ch/delphi/MCprod/lyon/gpym6156c4/v99_4/200/gpym6156c4_20044.xsdst ! RUN = 20044 ! NEVT = 1000
FILE = /castor/cern.ch/delphi/MCprod/lyon/gpym6156c4/v99_4/200/gpym6156c4_20045.xsdst ! RUN = 20045 ! NEVT = 1000
FILE = /castor/cern.ch/delphi/MCprod/lyon/gpym6156c4/v99_4/200/gpym6156c4_20046.xsdst ! RUN = 20046 ! NEVT = 1000
FILE = /castor/cern.ch/delphi/MCprod/lyon/gpym6156c4/v99_4/200/gpym6156c4_20047.xsdst ! RUN = 20047 ! NEVT = 1000
FILE = /castor/cern.ch/delphi/MCprod/lyon/gpym6156c4/v99_4/200/gpym6156c4_20048.xsdst ! RUN = 20048 ! NEVT = 1000
FILE = /castor/cern.ch/delphi/MCprod/lyon/gpym6156c4/v99_4/200/gpym6156c4_20049.xsdst ! RUN = 20049 ! NEVT = 1000
FILE = /castor/cern.ch/delphi/MCprod/lyon/gpym6156c4/v99_4/200/gpym6156c4_20050.xsdst ! RUN = 20050 ! NEVT = 1000
FILE = /castor/cern.ch/delphi/MCprod/lyon/gpym6156c4/v99_4/200/gpym6156c4_20051.xsdst ! RUN = 20051 ! NEVT = 1000
FILE = /castor/cern.ch/delphi/MCprod/lyon/gpym6156c4/v99_4/200/gpym6156c4_20052.xsdst ! RUN = 20052 ! NEVT = 1000
FILE = /castor/cern.ch/delphi/MCprod/lyon/gpym6156c4/v99_4/200/gpym6156c4_20053.xsdst ! RUN = 20053 ! NEVT = 1000
FILE = /castor/cern.ch/delphi/MCprod/lyon/gpym6156c4/v99_4/200/gpym6156c4_20054.xsdst ! RUN = 20054 ! NEVT = 1000
FILE = /castor/cern.ch/delphi/MCprod/lyon/gpym6156c4/v99_4/200/gpym6156c4_20055.xsdst ! RUN = 20055 ! NEVT = 1000
FILE = /castor/cern.ch/delphi/MCprod/lyon/gpym6156c4/v99_4/200/gpym6156c4_20056.xsdst ! RUN = 20056 ! NEVT = 1000
FILE = /castor/cern.ch/delphi/MCprod/lyon/gpym6156c4/v99_4/200/gpym6156c4_20057.xsdst ! RUN = 20057 ! NEVT = 1000
FILE = /castor/cern.ch/delphi/MCprod/lyon/gpym6156c4/v99_4/200/gpym6156c4_20058.xsdst ! RUN = 20058 ! NEVT = 1000
FILE = /castor/cern.ch/delphi/MCprod/lyon/gpym6156c4/v99_4/200/gpym6156c4_20059.xsdst ! RUN = 20059 ! NEVT = 1000
FILE = /castor/cern.ch/delphi/MCprod/lyon/gpym6156c4/v99_4/200/gpym6156c4_20060.xsdst ! RUN = 20060 ! NEVT = 1000
FILE = /castor/cern.ch/delphi/MCprod/lyon/gpym6156c4/v99_4/200/gpym6156c4_20061.xsdst ! RUN = 20061 ! NEVT = 1000
FILE = /castor/cern.ch/delphi/MCprod/lyon/gpym6156c4/v99_4/200/gpym6156c4_20062.xsdst ! RUN = 20062 ! NEVT = 1000
FILE = /castor/cern.ch/delphi/MCprod/lyon/gpym6156c4/v99_4/200/gpym6156c4_20063.xsdst ! RUN = 20063 ! NEVT = 1000
FILE = /castor/cern.ch/delphi/MCprod/lyon/gpym6156c4/v99_4/200/gpym6156c4_20064.xsdst ! RUN = 20064 ! NEVT = 1000
FILE = /castor/cern.ch/delphi/MCprod/lyon/gpym6156c4/v99_4/200/gpym6156c4_20065.xsdst ! RUN = 20065 ! NEVT = 1000
FILE = /castor/cern.ch/delphi/MCprod/lyon/gpym6156c4/v99_4/200/gpym6156c4_20066.xsdst ! RUN = 20066 ! NEVT = 1000
FILE = /castor/cern.ch/delphi/MCprod/lyon/gpym6156c4/v99_4/200/gpym6156c4_20067.xsdst ! RUN = 20067 ! NEVT = 1000
FILE = /castor/cern.ch/delphi/MCprod/lyon/gpym6156c4/v99_4/200/gpym6156c4_20068.xsdst ! RUN = 20068 ! NEVT = 1000
FILE = /castor/cern.ch/delphi/MCprod/lyon/gpym6156c4/v99_4/200/gpym6156c4_20069.xsdst ! RUN = 20069 ! NEVT = 1000
FILE = /castor/cern.ch/delphi/MCprod/lyon/gpym6156c4/v99_4/200/gpym6156c4_20070.xsdst ! RUN = 20070 ! NEVT = 1000
FILE = /castor/cern.ch/delphi/MCprod/lyon/gpym6156c4/v99_4/200/gpym6156c4_20071.xsdst ! RUN = 20071 ! NEVT = 1000
FILE = /castor/cern.ch/delphi/MCprod/lyon/gpym6156c4/v99_4/200/gpym6156c4_20072.xsdst ! RUN = 20072 ! NEVT = 1000
FILE = /castor/cern.ch/delphi/MCprod/lyon/gpym6156c4/v99_4/200/gpym6156c4_20073.xsdst ! RUN = 20073 ! NEVT = 1000
FILE = /castor/cern.ch/delphi/MCprod/lyon/gpym6156c4/v99_4/200/gpym6156c4_20074.xsdst ! RUN = 20074 ! NEVT = 1000
FILE = /castor/cern.ch/delphi/MCprod/lyon/gpym6156c4/v99_4/200/gpym6156c4_20075.xsdst ! RUN = 20075 ! NEVT = 1000
FILE = /castor/cern.ch/delphi/MCprod/lyon/gpym6156c4/v99_4/200/gpym6156c4_20076.xsdst ! RUN = 20076 ! NEVT = 1000
FILE = /castor/cern.ch/delphi/MCprod/lyon/gpym6156c4/v99_4/200/gpym6156c4_20077.xsdst ! RUN = 20077 ! NEVT = 1000
FILE = /castor/cern.ch/delphi/MCprod/lyon/gpym6156c4/v99_4/200/gpym6156c4_20078.xsdst ! RUN = 20078 ! NEVT = 1000
FILE = /castor/cern.ch/delphi/MCprod/lyon/gpym6156c4/v99_4/200/gpym6156c4_20079.xsdst ! RUN = 20079 ! NEVT = 1000
FILE = /castor/cern.ch/delphi/MCprod/lyon/gpym6156c4/v99_4/200/gpym6156c4_20080.xsdst ! RUN = 20080 ! NEVT = 1000
FILE = /castor/cern.ch/delphi/MCprod/lyon/gpym6156c4/v99_4/200/gpym6156c4_20081.xsdst ! RUN = 20081 ! NEVT = 1000
FILE = /castor/cern.ch/delphi/MCprod/lyon/gpym6156c4/v99_4/200/gpym6156c4_20082.xsdst ! RUN = 20082 ! NEVT = 1000
FILE = /castor/cern.ch/delphi/MCprod/lyon/gpym6156c4/v99_4/200/gpym6156c4_20083.xsdst ! RUN = 20083 ! NEVT = 1000
FILE = /castor/cern.ch/delphi/MCprod/lyon/gpym6156c4/v99_4/200/gpym6156c4_20084.xsdst ! RUN = 20084 ! NEVT = 1000
FILE = /castor/cern.ch/delphi/MCprod/lyon/gpym6156c4/v99_4/200/gpym6156c4_20085.xsdst ! RUN = 20085 ! NEVT = 1000
FILE = /castor/cern.ch/delphi/MCprod/lyon/gpym6156c4/v99_4/200/gpym6156c4_20086.xsdst ! RUN = 20086 ! NEVT = 1000
FILE = /castor/cern.ch/delphi/MCprod/lyon/gpym6156c4/v99_4/200/gpym6156c4_20087.xsdst ! RUN = 20087 ! NEVT = 1000
FILE = /castor/cern.ch/delphi/MCprod/lyon/gpym6156c4/v99_4/200/gpym6156c4_20088.xsdst ! RUN = 20088 ! NEVT = 1000
FILE = /castor/cern.ch/delphi/MCprod/lyon/gpym6156c4/v99_4/200/gpym6156c4_20089.xsdst ! RUN = 20089 ! NEVT = 1000
FILE = /castor/cern.ch/delphi/MCprod/lyon/gpym6156c4/v99_4/200/gpym6156c4_20090.xsdst ! RUN = 20090 ! NEVT = 1000
FILE = /castor/cern.ch/delphi/MCprod/lyon/gpym6156c4/v99_4/200/gpym6156c4_20091.xsdst ! RUN = 20091 ! NEVT = 1000
FILE = /castor/cern.ch/delphi/MCprod/lyon/gpym6156c4/v99_4/200/gpym6156c4_20092.xsdst ! RUN = 20092 ! NEVT = 1000
FILE = /castor/cern.ch/delphi/MCprod/lyon/gpym6156c4/v99_4/200/gpym6156c4_20093.xsdst ! RUN = 20093 ! NEVT = 1000
FILE = /castor/cern.ch/delphi/MCprod/lyon/gpym6156c4/v99_4/200/gpym6156c4_20094.xsdst ! RUN = 20094 ! NEVT = 1000
FILE = /castor/cern.ch/delphi/MCprod/lyon/gpym6156c4/v99_4/200/gpym6156c4_20095.xsdst ! RUN = 20095 ! NEVT = 1000
FILE = /castor/cern.ch/delphi/MCprod/lyon/gpym6156c4/v99_4/200/gpym6156c4_20096.xsdst ! RUN = 20096 ! NEVT = 1000
FILE = /castor/cern.ch/delphi/MCprod/lyon/gpym6156c4/v99_4/200/gpym6156c4_20097.xsdst ! RUN = 20097 ! NEVT = 1000
FILE = /castor/cern.ch/delphi/MCprod/lyon/gpym6156c4/v99_4/200/gpym6156c4_20098.xsdst ! RUN = 20098 ! NEVT = 1000
FILE = /castor/cern.ch/delphi/MCprod/lyon/gpym6156c4/v99_4/200/gpym6156c4_20099.xsdst ! RUN = 20099 ! NEVT = 1000
FILE = /castor/cern.ch/delphi/MCprod/lyon/gpym6156c4/v99_4/200/gpym6156c4_200_20100.xsdst ! RUN = 20100 ! NEVT = 1000
FILE = /castor/cern.ch/delphi/MCprod/lyon/gpym6156c4/v99_4/200/gpym6156c4_200_20101.xsdst ! RUN = 20101 ! NEVT = 1000
FILE = /castor/cern.ch/delphi/MCprod/lyon/gpym6156c4/v99_4/200/gpym6156c4_200_20102.xsdst ! RUN = 20102 ! NEVT = 1000
FILE = /castor/cern.ch/delphi/MCprod/lyon/gpym6156c4/v99_4/200/gpym6156c4_200_20103.xsdst ! RUN = 20103 ! NEVT = 1000
FILE = /castor/cern.ch/delphi/MCprod/lyon/gpym6156c4/v99_4/200/gpym6156c4_200_20104.xsdst ! RUN = 20104 ! NEVT = 1000
FILE = /castor/cern.ch/delphi/MCprod/lyon/gpym6156c4/v99_4/200/gpym6156c4_200_20105.xsdst ! RUN = 20105 ! NEVT = 1000
FILE = /castor/cern.ch/delphi/MCprod/lyon/gpym6156c4/v99_4/200/gpym6156c4_200_20106.xsdst ! RUN = 20106 ! NEVT = 1000
FILE = /castor/cern.ch/delphi/MCprod/lyon/gpym6156c4/v99_4/200/gpym6156c4_200_20107.xsdst ! RUN = 20107 ! NEVT = 1000
FILE = /castor/cern.ch/delphi/MCprod/lyon/gpym6156c4/v99_4/200/gpym6156c4_200_20108.xsdst ! RUN = 20108 ! NEVT = 1000
FILE = /castor/cern.ch/delphi/MCprod/lyon/gpym6156c4/v99_4/200/gpym6156c4_200_20109.xsdst ! RUN = 20109 ! NEVT = 1000
FILE = /castor/cern.ch/delphi/MCprod/lyon/gpym6156c4/v99_4/200/gpym6156c4_200_20110.xsdst ! RUN = 20110 ! NEVT = 1000
FILE = /castor/cern.ch/delphi/MCprod/lyon/gpym6156c4/v99_4/200/gpym6156c4_200_20111.xsdst ! RUN = 20111 ! NEVT = 1000
FILE = /castor/cern.ch/delphi/MCprod/lyon/gpym6156c4/v99_4/200/gpym6156c4_200_20112.xsdst ! RUN = 20112 ! NEVT = 1000
FILE = /castor/cern.ch/delphi/MCprod/lyon/gpym6156c4/v99_4/200/gpym6156c4_200_20113.xsdst ! RUN = 20113 ! NEVT = 1000
FILE = /castor/cern.ch/delphi/MCprod/lyon/gpym6156c4/v99_4/200/gpym6156c4_200_20114.xsdst ! RUN = 20114 ! NEVT = 1000
FILE = /castor/cern.ch/delphi/MCprod/lyon/gpym6156c4/v99_4/200/gpym6156c4_200_20115.xsdst ! RUN = 20115 ! NEVT = 1000
FILE = /castor/cern.ch/delphi/MCprod/lyon/gpym6156c4/v99_4/200/gpym6156c4_200_20116.xsdst ! RUN = 20116 ! NEVT = 1000
FILE = /castor/cern.ch/delphi/MCprod/lyon/gpym6156c4/v99_4/200/gpym6156c4_200_20117.xsdst ! RUN = 20117 ! NEVT = 1000
FILE = /castor/cern.ch/delphi/MCprod/lyon/gpym6156c4/v99_4/200/gpym6156c4_200_20118.xsdst ! RUN = 20118 ! NEVT = 1000
FILE = /castor/cern.ch/delphi/MCprod/lyon/gpym6156c4/v99_4/200/gpym6156c4_200_20119.xsdst ! RUN = 20119 ! NEVT = 1000
FILE = /castor/cern.ch/delphi/MCprod/lyon/gpym6156c4/v99_4/200/gpym6156c4_200_20120.xsdst ! RUN = 20120 ! NEVT = 1000
FILE = /castor/cern.ch/delphi/MCprod/lyon/gpym6156c4/v99_4/200/gpym6156c4_200_20121.xsdst ! RUN = 20121 ! NEVT = 1000
FILE = /castor/cern.ch/delphi/MCprod/lyon/gpym6156c4/v99_4/200/gpym6156c4_200_20122.xsdst ! RUN = 20122 ! NEVT = 1000
FILE = /castor/cern.ch/delphi/MCprod/lyon/gpym6156c4/v99_4/200/gpym6156c4_200_20123.xsdst ! RUN = 20123 ! NEVT = 1000
FILE = /castor/cern.ch/delphi/MCprod/lyon/gpym6156c4/v99_4/200/gpym6156c4_200_20124.xsdst ! RUN = 20124 ! NEVT = 1000
FILE = /castor/cern.ch/delphi/MCprod/lyon/gpym6156c4/v99_4/200/gpym6156c4_200_20125.xsdst ! RUN = 20125 ! NEVT = 1000
FILE = /castor/cern.ch/delphi/MCprod/lyon/gpym6156c4/v99_4/200/gpym6156c4_200_20126.xsdst ! RUN = 20126 ! NEVT = 1000
FILE = /castor/cern.ch/delphi/MCprod/lyon/gpym6156c4/v99_4/200/gpym6156c4_200_20127.xsdst ! RUN = 20127 ! NEVT = 1000
FILE = /castor/cern.ch/delphi/MCprod/lyon/gpym6156c4/v99_4/200/gpym6156c4_200_20128.xsdst ! RUN = 20128 ! NEVT = 1000
FILE = /castor/cern.ch/delphi/MCprod/lyon/gpym6156c4/v99_4/200/gpym6156c4_200_20129.xsdst ! RUN = 20129 ! NEVT = 1000
FILE = /castor/cern.ch/delphi/MCprod/lyon/gpym6156c4/v99_4/200/gpym6156c4_200_20130.xsdst ! RUN = 20130 ! NEVT = 1000
FILE = /castor/cern.ch/delphi/MCprod/lyon/gpym6156c4/v99_4/200/gpym6156c4_200_20131.xsdst ! RUN = 20131 ! NEVT = 1000
FILE = /castor/cern.ch/delphi/MCprod/lyon/gpym6156c4/v99_4/200/gpym6156c4_200_20132.xsdst ! RUN = 20132 ! NEVT = 1000
FILE = /castor/cern.ch/delphi/MCprod/lyon/gpym6156c4/v99_4/200/gpym6156c4_200_20133.xsdst ! RUN = 20133 ! NEVT = 1000
FILE = /castor/cern.ch/delphi/MCprod/lyon/gpym6156c4/v99_4/200/gpym6156c4_200_20134.xsdst ! RUN = 20134 ! NEVT = 1000
FILE = /castor/cern.ch/delphi/MCprod/lyon/gpym6156c4/v99_4/200/gpym6156c4_200_20135.xsdst ! RUN = 20135 ! NEVT = 1000
FILE = /castor/cern.ch/delphi/MCprod/lyon/gpym6156c4/v99_4/200/gpym6156c4_200_20136.xsdst ! RUN = 20136 ! NEVT = 1000
FILE = /castor/cern.ch/delphi/MCprod/lyon/gpym6156c4/v99_4/200/gpym6156c4_200_20137.xsdst ! RUN = 20137 ! NEVT = 1000
FILE = /castor/cern.ch/delphi/MCprod/lyon/gpym6156c4/v99_4/200/gpym6156c4_200_20138.xsdst ! RUN = 20138 ! NEVT = 1000
FILE = /castor/cern.ch/delphi/MCprod/lyon/gpym6156c4/v99_4/200/gpym6156c4_200_20139.xsdst ! RUN = 20139 ! NEVT = 1000
