*
*   Nickname     : xs_hzhahphmwawa_e188.7_m70_c98_1l_e1
*   Generic Name : //CERN/DELPHI/P02_SIMD/XSDST/HZHAHPHMWAWA/E188.7/CERN/SUMT/C001-1
*   Description  :  Extended Short DST simulation 98e1 done at ecms=188.7 , CERN
*---
*   Comments     : in total 1998 events in 1 files time stamp: Mon Apr 29 10:51:23 2002
*---
*
*
*
*
*
FILE = /castor/cern.ch/delphi/MCprod/cern/hzha/v98e/188.7/hzha_hphm_wawa_e188.7_70_50.xsdst ! RUN = 50 ! NEVT = 1998
