*
*   Nickname     : sh_kk2f4146qqpy_e91.25_c92_2l_e2
*   Generic Name : //CERN/DELPHI/P01_SIMD/SHORT/KK2F4146QQPY/E91.25/CERN/SUMT/C001-287
*   Description  :  Short DST simulation 92e2 done at ecms=91.25 , CERN
*---
*   Comments     : in total 809012 events in 287 files time stamp: Mon Jul 22 15:11:26 2002
*---
*
*
*
*
*
FILE = /castor/cern.ch/delphi/MCprod/cern/kk2f4146/v92e/91.25/kk2f4146_qqpy_91.25_21001.sdst ! RUN = 21001 ! NEVT = 2999
FILE = /castor/cern.ch/delphi/MCprod/cern/kk2f4146/v92e/91.25/kk2f4146_qqpy_91.25_21002.sdst ! RUN = 21002 ! NEVT = 2997
FILE = /castor/cern.ch/delphi/MCprod/cern/kk2f4146/v92e/91.25/kk2f4146_qqpy_91.25_21003.sdst ! RUN = 21003 ! NEVT = 2999
FILE = /castor/cern.ch/delphi/MCprod/cern/kk2f4146/v92e/91.25/kk2f4146_qqpy_91.25_21004.sdst ! RUN = 21004 ! NEVT = 2998
FILE = /castor/cern.ch/delphi/MCprod/cern/kk2f4146/v92e/91.25/kk2f4146_qqpy_91.25_21005.sdst ! RUN = 21005 ! NEVT = 3000
FILE = /castor/cern.ch/delphi/MCprod/cern/kk2f4146/v92e/91.25/kk2f4146_qqpy_91.25_21006.sdst ! RUN = 21006 ! NEVT = 2999
FILE = /castor/cern.ch/delphi/MCprod/cern/kk2f4146/v92e/91.25/kk2f4146_qqpy_91.25_21007.sdst ! RUN = 21007 ! NEVT = 3000
FILE = /castor/cern.ch/delphi/MCprod/cern/kk2f4146/v92e/91.25/kk2f4146_qqpy_91.25_21008.sdst ! RUN = 21008 ! NEVT = 3000
FILE = /castor/cern.ch/delphi/MCprod/cern/kk2f4146/v92e/91.25/kk2f4146_qqpy_91.25_21009.sdst ! RUN = 21009 ! NEVT = 3000
FILE = /castor/cern.ch/delphi/MCprod/cern/kk2f4146/v92e/91.25/kk2f4146_qqpy_91.25_21010.sdst ! RUN = 21010 ! NEVT = 3000
FILE = /castor/cern.ch/delphi/MCprod/cern/kk2f4146/v92e/91.25/kk2f4146_qqpy_91.25_21011.sdst ! RUN = 21011 ! NEVT = 1610
FILE = /castor/cern.ch/delphi/MCprod/cern/kk2f4146/v92e/91.25/kk2f4146_qqpy_91.25_21012.sdst ! RUN = 21012 ! NEVT = 2999
FILE = /castor/cern.ch/delphi/MCprod/cern/kk2f4146/v92e/91.25/kk2f4146_qqpy_91.25_21013.sdst ! RUN = 21013 ! NEVT = 2999
FILE = /castor/cern.ch/delphi/MCprod/cern/kk2f4146/v92e/91.25/kk2f4146_qqpy_91.25_21014.sdst ! RUN = 21014 ! NEVT = 3000
FILE = /castor/cern.ch/delphi/MCprod/cern/kk2f4146/v92e/91.25/kk2f4146_qqpy_91.25_21015.sdst ! RUN = 21015 ! NEVT = 3000
FILE = /castor/cern.ch/delphi/MCprod/cern/kk2f4146/v92e/91.25/kk2f4146_qqpy_91.25_21016.sdst ! RUN = 21016 ! NEVT = 3000
FILE = /castor/cern.ch/delphi/MCprod/cern/kk2f4146/v92e/91.25/kk2f4146_qqpy_91.25_21017.sdst ! RUN = 21017 ! NEVT = 2998
FILE = /castor/cern.ch/delphi/MCprod/cern/kk2f4146/v92e/91.25/kk2f4146_qqpy_91.25_21018.sdst ! RUN = 21018 ! NEVT = 3000
FILE = /castor/cern.ch/delphi/MCprod/cern/kk2f4146/v92e/91.25/kk2f4146_qqpy_91.25_21019.sdst ! RUN = 21019 ! NEVT = 2040
FILE = /castor/cern.ch/delphi/MCprod/cern/kk2f4146/v92e/91.25/kk2f4146_qqpy_91.25_21020.sdst ! RUN = 21020 ! NEVT = 2999
FILE = /castor/cern.ch/delphi/MCprod/cern/kk2f4146/v92e/91.25/kk2f4146_qqpy_91.25_21021.sdst ! RUN = 21021 ! NEVT = 2999
FILE = /castor/cern.ch/delphi/MCprod/cern/kk2f4146/v92e/91.25/kk2f4146_qqpy_91.25_21022.sdst ! RUN = 21022 ! NEVT = 3000
FILE = /castor/cern.ch/delphi/MCprod/cern/kk2f4146/v92e/91.25/kk2f4146_qqpy_91.25_21023.sdst ! RUN = 21023 ! NEVT = 3000
FILE = /castor/cern.ch/delphi/MCprod/cern/kk2f4146/v92e/91.25/kk2f4146_qqpy_91.25_21024.sdst ! RUN = 21024 ! NEVT = 3000
FILE = /castor/cern.ch/delphi/MCprod/cern/kk2f4146/v92e/91.25/kk2f4146_qqpy_91.25_21025.sdst ! RUN = 21025 ! NEVT = 3000
FILE = /castor/cern.ch/delphi/MCprod/cern/kk2f4146/v92e/91.25/kk2f4146_qqpy_91.25_21026.sdst ! RUN = 21026 ! NEVT = 2999
FILE = /castor/cern.ch/delphi/MCprod/cern/kk2f4146/v92e/91.25/kk2f4146_qqpy_91.25_21027.sdst ! RUN = 21027 ! NEVT = 3000
FILE = /castor/cern.ch/delphi/MCprod/cern/kk2f4146/v92e/91.25/kk2f4146_qqpy_91.25_21028.sdst ! RUN = 21028 ! NEVT = 2999
FILE = /castor/cern.ch/delphi/MCprod/cern/kk2f4146/v92e/91.25/kk2f4146_qqpy_91.25_21029.sdst ! RUN = 21029 ! NEVT = 2999
FILE = /castor/cern.ch/delphi/MCprod/cern/kk2f4146/v92e/91.25/kk2f4146_qqpy_91.25_21030.sdst ! RUN = 21030 ! NEVT = 3000
FILE = /castor/cern.ch/delphi/MCprod/cern/kk2f4146/v92e/91.25/kk2f4146_qqpy_91.25_21031.sdst ! RUN = 21031 ! NEVT = 2999
FILE = /castor/cern.ch/delphi/MCprod/cern/kk2f4146/v92e/91.25/kk2f4146_qqpy_91.25_21032.sdst ! RUN = 21032 ! NEVT = 784
FILE = /castor/cern.ch/delphi/MCprod/cern/kk2f4146/v92e/91.25/kk2f4146_qqpy_91.25_21033.sdst ! RUN = 21033 ! NEVT = 3000
FILE = /castor/cern.ch/delphi/MCprod/cern/kk2f4146/v92e/91.25/kk2f4146_qqpy_91.25_21034.sdst ! RUN = 21034 ! NEVT = 2999
FILE = /castor/cern.ch/delphi/MCprod/cern/kk2f4146/v92e/91.25/kk2f4146_qqpy_91.25_21035.sdst ! RUN = 21035 ! NEVT = 3000
FILE = /castor/cern.ch/delphi/MCprod/cern/kk2f4146/v92e/91.25/kk2f4146_qqpy_91.25_21036.sdst ! RUN = 21036 ! NEVT = 2999
FILE = /castor/cern.ch/delphi/MCprod/cern/kk2f4146/v92e/91.25/kk2f4146_qqpy_91.25_21037.sdst ! RUN = 21037 ! NEVT = 3000
FILE = /castor/cern.ch/delphi/MCprod/cern/kk2f4146/v92e/91.25/kk2f4146_qqpy_91.25_21038.sdst ! RUN = 21038 ! NEVT = 3000
FILE = /castor/cern.ch/delphi/MCprod/cern/kk2f4146/v92e/91.25/kk2f4146_qqpy_91.25_21039.sdst ! RUN = 21039 ! NEVT = 2998
FILE = /castor/cern.ch/delphi/MCprod/cern/kk2f4146/v92e/91.25/kk2f4146_qqpy_91.25_21040.sdst ! RUN = 21040 ! NEVT = 3000
FILE = /castor/cern.ch/delphi/MCprod/cern/kk2f4146/v92e/91.25/kk2f4146_qqpy_91.25_21041.sdst ! RUN = 21041 ! NEVT = 3000
FILE = /castor/cern.ch/delphi/MCprod/cern/kk2f4146/v92e/91.25/kk2f4146_qqpy_91.25_21042.sdst ! RUN = 21042 ! NEVT = 2999
FILE = /castor/cern.ch/delphi/MCprod/cern/kk2f4146/v92e/91.25/kk2f4146_qqpy_91.25_21043.sdst ! RUN = 21043 ! NEVT = 2666
FILE = /castor/cern.ch/delphi/MCprod/cern/kk2f4146/v92e/91.25/kk2f4146_qqpy_91.25_21044.sdst ! RUN = 21044 ! NEVT = 3000
FILE = /castor/cern.ch/delphi/MCprod/cern/kk2f4146/v92e/91.25/kk2f4146_qqpy_91.25_21045.sdst ! RUN = 21045 ! NEVT = 3000
FILE = /castor/cern.ch/delphi/MCprod/cern/kk2f4146/v92e/91.25/kk2f4146_qqpy_91.25_21046.sdst ! RUN = 21046 ! NEVT = 3000
FILE = /castor/cern.ch/delphi/MCprod/cern/kk2f4146/v92e/91.25/kk2f4146_qqpy_91.25_21047.sdst ! RUN = 21047 ! NEVT = 3000
FILE = /castor/cern.ch/delphi/MCprod/cern/kk2f4146/v92e/91.25/kk2f4146_qqpy_91.25_21048.sdst ! RUN = 21048 ! NEVT = 3000
FILE = /castor/cern.ch/delphi/MCprod/cern/kk2f4146/v92e/91.25/kk2f4146_qqpy_91.25_21049.sdst ! RUN = 21049 ! NEVT = 2998
FILE = /castor/cern.ch/delphi/MCprod/cern/kk2f4146/v92e/91.25/kk2f4146_qqpy_91.25_21050.sdst ! RUN = 21050 ! NEVT = 2998
FILE = /castor/cern.ch/delphi/MCprod/cern/kk2f4146/v92e/91.25/kk2f4146_qqpy_91.25_21051.sdst ! RUN = 21051 ! NEVT = 3000
FILE = /castor/cern.ch/delphi/MCprod/cern/kk2f4146/v92e/91.25/kk2f4146_qqpy_91.25_21052.sdst ! RUN = 21052 ! NEVT = 3000
FILE = /castor/cern.ch/delphi/MCprod/cern/kk2f4146/v92e/91.25/kk2f4146_qqpy_91.25_21053.sdst ! RUN = 21053 ! NEVT = 2714
FILE = /castor/cern.ch/delphi/MCprod/cern/kk2f4146/v92e/91.25/kk2f4146_qqpy_91.25_21054.sdst ! RUN = 21054 ! NEVT = 2998
FILE = /castor/cern.ch/delphi/MCprod/cern/kk2f4146/v92e/91.25/kk2f4146_qqpy_91.25_21055.sdst ! RUN = 21055 ! NEVT = 3000
FILE = /castor/cern.ch/delphi/MCprod/cern/kk2f4146/v92e/91.25/kk2f4146_qqpy_91.25_21056.sdst ! RUN = 21056 ! NEVT = 2999
FILE = /castor/cern.ch/delphi/MCprod/cern/kk2f4146/v92e/91.25/kk2f4146_qqpy_91.25_21057.sdst ! RUN = 21057 ! NEVT = 2999
FILE = /castor/cern.ch/delphi/MCprod/cern/kk2f4146/v92e/91.25/kk2f4146_qqpy_91.25_21058.sdst ! RUN = 21058 ! NEVT = 2998
FILE = /castor/cern.ch/delphi/MCprod/cern/kk2f4146/v92e/91.25/kk2f4146_qqpy_91.25_21059.sdst ! RUN = 21059 ! NEVT = 2997
FILE = /castor/cern.ch/delphi/MCprod/cern/kk2f4146/v92e/91.25/kk2f4146_qqpy_91.25_21060.sdst ! RUN = 21060 ! NEVT = 3000
FILE = /castor/cern.ch/delphi/MCprod/cern/kk2f4146/v92e/91.25/kk2f4146_qqpy_91.25_21061.sdst ! RUN = 21061 ! NEVT = 2997
FILE = /castor/cern.ch/delphi/MCprod/cern/kk2f4146/v92e/91.25/kk2f4146_qqpy_91.25_21063.sdst ! RUN = 21063 ! NEVT = 2999
FILE = /castor/cern.ch/delphi/MCprod/cern/kk2f4146/v92e/91.25/kk2f4146_qqpy_91.25_21064.sdst ! RUN = 21064 ! NEVT = 3000
FILE = /castor/cern.ch/delphi/MCprod/cern/kk2f4146/v92e/91.25/kk2f4146_qqpy_91.25_21065.sdst ! RUN = 21065 ! NEVT = 2998
FILE = /castor/cern.ch/delphi/MCprod/cern/kk2f4146/v92e/91.25/kk2f4146_qqpy_91.25_21066.sdst ! RUN = 21066 ! NEVT = 3000
FILE = /castor/cern.ch/delphi/MCprod/cern/kk2f4146/v92e/91.25/kk2f4146_qqpy_91.25_21067.sdst ! RUN = 21067 ! NEVT = 3000
FILE = /castor/cern.ch/delphi/MCprod/cern/kk2f4146/v92e/91.25/kk2f4146_qqpy_91.25_21068.sdst ! RUN = 21068 ! NEVT = 2998
FILE = /castor/cern.ch/delphi/MCprod/cern/kk2f4146/v92e/91.25/kk2f4146_qqpy_91.25_21069.sdst ! RUN = 21069 ! NEVT = 2997
FILE = /castor/cern.ch/delphi/MCprod/cern/kk2f4146/v92e/91.25/kk2f4146_qqpy_91.25_21070.sdst ! RUN = 21070 ! NEVT = 2997
FILE = /castor/cern.ch/delphi/MCprod/cern/kk2f4146/v92e/91.25/kk2f4146_qqpy_91.25_21071.sdst ! RUN = 21071 ! NEVT = 2989
FILE = /castor/cern.ch/delphi/MCprod/cern/kk2f4146/v92e/91.25/kk2f4146_qqpy_91.25_21072.sdst ! RUN = 21072 ! NEVT = 3000
FILE = /castor/cern.ch/delphi/MCprod/cern/kk2f4146/v92e/91.25/kk2f4146_qqpy_91.25_21073.sdst ! RUN = 21073 ! NEVT = 2997
FILE = /castor/cern.ch/delphi/MCprod/cern/kk2f4146/v92e/91.25/kk2f4146_qqpy_91.25_21074.sdst ! RUN = 21074 ! NEVT = 2997
FILE = /castor/cern.ch/delphi/MCprod/cern/kk2f4146/v92e/91.25/kk2f4146_qqpy_91.25_21075.sdst ! RUN = 21075 ! NEVT = 2998
FILE = /castor/cern.ch/delphi/MCprod/cern/kk2f4146/v92e/91.25/kk2f4146_qqpy_91.25_21076.sdst ! RUN = 21076 ! NEVT = 2999
FILE = /castor/cern.ch/delphi/MCprod/cern/kk2f4146/v92e/91.25/kk2f4146_qqpy_91.25_21077.sdst ! RUN = 21077 ! NEVT = 3000
FILE = /castor/cern.ch/delphi/MCprod/cern/kk2f4146/v92e/91.25/kk2f4146_qqpy_91.25_21078.sdst ! RUN = 21078 ! NEVT = 2998
FILE = /castor/cern.ch/delphi/MCprod/cern/kk2f4146/v92e/91.25/kk2f4146_qqpy_91.25_21079.sdst ! RUN = 21079 ! NEVT = 2999
FILE = /castor/cern.ch/delphi/MCprod/cern/kk2f4146/v92e/91.25/kk2f4146_qqpy_91.25_21080.sdst ! RUN = 21080 ! NEVT = 3000
FILE = /castor/cern.ch/delphi/MCprod/cern/kk2f4146/v92e/91.25/kk2f4146_qqpy_91.25_21081.sdst ! RUN = 21081 ! NEVT = 2998
FILE = /castor/cern.ch/delphi/MCprod/cern/kk2f4146/v92e/91.25/kk2f4146_qqpy_91.25_21082.sdst ! RUN = 21082 ! NEVT = 2999
FILE = /castor/cern.ch/delphi/MCprod/cern/kk2f4146/v92e/91.25/kk2f4146_qqpy_91.25_21083.sdst ! RUN = 21083 ! NEVT = 2999
FILE = /castor/cern.ch/delphi/MCprod/cern/kk2f4146/v92e/91.25/kk2f4146_qqpy_91.25_21084.sdst ! RUN = 21084 ! NEVT = 2998
FILE = /castor/cern.ch/delphi/MCprod/cern/kk2f4146/v92e/91.25/kk2f4146_qqpy_91.25_21085.sdst ! RUN = 21085 ! NEVT = 2998
FILE = /castor/cern.ch/delphi/MCprod/cern/kk2f4146/v92e/91.25/kk2f4146_qqpy_91.25_21086.sdst ! RUN = 21086 ! NEVT = 3000
FILE = /castor/cern.ch/delphi/MCprod/cern/kk2f4146/v92e/91.25/kk2f4146_qqpy_91.25_21087.sdst ! RUN = 21087 ! NEVT = 3000
FILE = /castor/cern.ch/delphi/MCprod/cern/kk2f4146/v92e/91.25/kk2f4146_qqpy_91.25_21088.sdst ! RUN = 21088 ! NEVT = 2998
FILE = /castor/cern.ch/delphi/MCprod/cern/kk2f4146/v92e/91.25/kk2f4146_qqpy_91.25_21089.sdst ! RUN = 21089 ! NEVT = 3000
FILE = /castor/cern.ch/delphi/MCprod/cern/kk2f4146/v92e/91.25/kk2f4146_qqpy_91.25_21090.sdst ! RUN = 21090 ! NEVT = 2999
FILE = /castor/cern.ch/delphi/MCprod/cern/kk2f4146/v92e/91.25/kk2f4146_qqpy_91.25_21091.sdst ! RUN = 21091 ! NEVT = 2999
FILE = /castor/cern.ch/delphi/MCprod/cern/kk2f4146/v92e/91.25/kk2f4146_qqpy_91.25_21092.sdst ! RUN = 21092 ! NEVT = 2999
FILE = /castor/cern.ch/delphi/MCprod/cern/kk2f4146/v92e/91.25/kk2f4146_qqpy_91.25_21093.sdst ! RUN = 21093 ! NEVT = 3000
FILE = /castor/cern.ch/delphi/MCprod/cern/kk2f4146/v92e/91.25/kk2f4146_qqpy_91.25_21094.sdst ! RUN = 21094 ! NEVT = 3000
FILE = /castor/cern.ch/delphi/MCprod/cern/kk2f4146/v92e/91.25/kk2f4146_qqpy_91.25_21095.sdst ! RUN = 21095 ! NEVT = 2999
FILE = /castor/cern.ch/delphi/MCprod/cern/kk2f4146/v92e/91.25/kk2f4146_qqpy_91.25_21096.sdst ! RUN = 21096 ! NEVT = 3000
FILE = /castor/cern.ch/delphi/MCprod/cern/kk2f4146/v92e/91.25/kk2f4146_qqpy_91.25_21097.sdst ! RUN = 21097 ! NEVT = 2998
FILE = /castor/cern.ch/delphi/MCprod/cern/kk2f4146/v92e/91.25/kk2f4146_qqpy_91.25_21098.sdst ! RUN = 21098 ! NEVT = 2999
FILE = /castor/cern.ch/delphi/MCprod/cern/kk2f4146/v92e/91.25/kk2f4146_qqpy_91.25_21099.sdst ! RUN = 21099 ! NEVT = 3000
FILE = /castor/cern.ch/delphi/MCprod/cern/kk2f4146/v92e/91.25/kk2f4146_qqpy_91.25_21101.sdst ! RUN = 21101 ! NEVT = 686
FILE = /castor/cern.ch/delphi/MCprod/cern/kk2f4146/v92e/91.25/kk2f4146_qqpy_91.25_21102.sdst ! RUN = 21102 ! NEVT = 58
FILE = /castor/cern.ch/delphi/MCprod/cern/kk2f4146/v92e/91.25/kk2f4146_qqpy_91.25_21103.sdst ! RUN = 21103 ! NEVT = 2999
FILE = /castor/cern.ch/delphi/MCprod/cern/kk2f4146/v92e/91.25/kk2f4146_qqpy_91.25_21104.sdst ! RUN = 21104 ! NEVT = 1003
FILE = /castor/cern.ch/delphi/MCprod/cern/kk2f4146/v92e/91.25/kk2f4146_qqpy_91.25_21105.sdst ! RUN = 21105 ! NEVT = 2999
FILE = /castor/cern.ch/delphi/MCprod/cern/kk2f4146/v92e/91.25/kk2f4146_qqpy_91.25_21106.sdst ! RUN = 21106 ! NEVT = 3000
FILE = /castor/cern.ch/delphi/MCprod/cern/kk2f4146/v92e/91.25/kk2f4146_qqpy_91.25_21107.sdst ! RUN = 21107 ! NEVT = 2998
FILE = /castor/cern.ch/delphi/MCprod/cern/kk2f4146/v92e/91.25/kk2f4146_qqpy_91.25_21108.sdst ! RUN = 21108 ! NEVT = 3000
FILE = /castor/cern.ch/delphi/MCprod/cern/kk2f4146/v92e/91.25/kk2f4146_qqpy_91.25_21109.sdst ! RUN = 21109 ! NEVT = 3000
FILE = /castor/cern.ch/delphi/MCprod/cern/kk2f4146/v92e/91.25/kk2f4146_qqpy_91.25_21110.sdst ! RUN = 21110 ! NEVT = 2999
FILE = /castor/cern.ch/delphi/MCprod/cern/kk2f4146/v92e/91.25/kk2f4146_qqpy_91.25_21111.sdst ! RUN = 21111 ! NEVT = 2999
FILE = /castor/cern.ch/delphi/MCprod/cern/kk2f4146/v92e/91.25/kk2f4146_qqpy_91.25_21112.sdst ! RUN = 21112 ! NEVT = 2999
FILE = /castor/cern.ch/delphi/MCprod/cern/kk2f4146/v92e/91.25/kk2f4146_qqpy_91.25_21113.sdst ! RUN = 21113 ! NEVT = 3000
FILE = /castor/cern.ch/delphi/MCprod/cern/kk2f4146/v92e/91.25/kk2f4146_qqpy_91.25_21114.sdst ! RUN = 21114 ! NEVT = 3000
FILE = /castor/cern.ch/delphi/MCprod/cern/kk2f4146/v92e/91.25/kk2f4146_qqpy_91.25_21115.sdst ! RUN = 21115 ! NEVT = 3000
FILE = /castor/cern.ch/delphi/MCprod/cern/kk2f4146/v92e/91.25/kk2f4146_qqpy_91.25_21116.sdst ! RUN = 21116 ! NEVT = 3000
FILE = /castor/cern.ch/delphi/MCprod/cern/kk2f4146/v92e/91.25/kk2f4146_qqpy_91.25_21117.sdst ! RUN = 21117 ! NEVT = 2237
FILE = /castor/cern.ch/delphi/MCprod/cern/kk2f4146/v92e/91.25/kk2f4146_qqpy_91.25_21118.sdst ! RUN = 21118 ! NEVT = 3000
FILE = /castor/cern.ch/delphi/MCprod/cern/kk2f4146/v92e/91.25/kk2f4146_qqpy_91.25_21119.sdst ! RUN = 21119 ! NEVT = 3000
FILE = /castor/cern.ch/delphi/MCprod/cern/kk2f4146/v92e/91.25/kk2f4146_qqpy_91.25_21120.sdst ! RUN = 21120 ! NEVT = 2998
FILE = /castor/cern.ch/delphi/MCprod/cern/kk2f4146/v92e/91.25/kk2f4146_qqpy_91.25_21121.sdst ! RUN = 21121 ! NEVT = 3000
FILE = /castor/cern.ch/delphi/MCprod/cern/kk2f4146/v92e/91.25/kk2f4146_qqpy_91.25_21122.sdst ! RUN = 21122 ! NEVT = 2999
FILE = /castor/cern.ch/delphi/MCprod/cern/kk2f4146/v92e/91.25/kk2f4146_qqpy_91.25_21123.sdst ! RUN = 21123 ! NEVT = 3000
FILE = /castor/cern.ch/delphi/MCprod/cern/kk2f4146/v92e/91.25/kk2f4146_qqpy_91.25_21124.sdst ! RUN = 21124 ! NEVT = 3000
FILE = /castor/cern.ch/delphi/MCprod/cern/kk2f4146/v92e/91.25/kk2f4146_qqpy_91.25_21125.sdst ! RUN = 21125 ! NEVT = 2999
FILE = /castor/cern.ch/delphi/MCprod/cern/kk2f4146/v92e/91.25/kk2f4146_qqpy_91.25_21126.sdst ! RUN = 21126 ! NEVT = 3000
FILE = /castor/cern.ch/delphi/MCprod/cern/kk2f4146/v92e/91.25/kk2f4146_qqpy_91.25_21127.sdst ! RUN = 21127 ! NEVT = 3000
FILE = /castor/cern.ch/delphi/MCprod/cern/kk2f4146/v92e/91.25/kk2f4146_qqpy_91.25_21128.sdst ! RUN = 21128 ! NEVT = 2999
FILE = /castor/cern.ch/delphi/MCprod/cern/kk2f4146/v92e/91.25/kk2f4146_qqpy_91.25_21129.sdst ! RUN = 21129 ! NEVT = 2999
FILE = /castor/cern.ch/delphi/MCprod/cern/kk2f4146/v92e/91.25/kk2f4146_qqpy_91.25_21130.sdst ! RUN = 21130 ! NEVT = 2553
FILE = /castor/cern.ch/delphi/MCprod/cern/kk2f4146/v92e/91.25/kk2f4146_qqpy_91.25_21131.sdst ! RUN = 21131 ! NEVT = 2997
FILE = /castor/cern.ch/delphi/MCprod/cern/kk2f4146/v92e/91.25/kk2f4146_qqpy_91.25_21132.sdst ! RUN = 21132 ! NEVT = 3000
FILE = /castor/cern.ch/delphi/MCprod/cern/kk2f4146/v92e/91.25/kk2f4146_qqpy_91.25_21133.sdst ! RUN = 21133 ! NEVT = 2998
FILE = /castor/cern.ch/delphi/MCprod/cern/kk2f4146/v92e/91.25/kk2f4146_qqpy_91.25_21134.sdst ! RUN = 21134 ! NEVT = 3000
FILE = /castor/cern.ch/delphi/MCprod/cern/kk2f4146/v92e/91.25/kk2f4146_qqpy_91.25_21135.sdst ! RUN = 21135 ! NEVT = 2999
FILE = /castor/cern.ch/delphi/MCprod/cern/kk2f4146/v92e/91.25/kk2f4146_qqpy_91.25_21136.sdst ! RUN = 21136 ! NEVT = 1202
FILE = /castor/cern.ch/delphi/MCprod/cern/kk2f4146/v92e/91.25/kk2f4146_qqpy_91.25_21137.sdst ! RUN = 21137 ! NEVT = 3000
FILE = /castor/cern.ch/delphi/MCprod/cern/kk2f4146/v92e/91.25/kk2f4146_qqpy_91.25_21138.sdst ! RUN = 21138 ! NEVT = 2997
FILE = /castor/cern.ch/delphi/MCprod/cern/kk2f4146/v92e/91.25/kk2f4146_qqpy_91.25_21139.sdst ! RUN = 21139 ! NEVT = 1037
FILE = /castor/cern.ch/delphi/MCprod/cern/kk2f4146/v92e/91.25/kk2f4146_qqpy_91.25_21140.sdst ! RUN = 21140 ! NEVT = 3000
FILE = /castor/cern.ch/delphi/MCprod/cern/kk2f4146/v92e/91.25/kk2f4146_qqpy_91.25_21141.sdst ! RUN = 21141 ! NEVT = 2998
FILE = /castor/cern.ch/delphi/MCprod/cern/kk2f4146/v92e/91.25/kk2f4146_qqpy_91.25_21142.sdst ! RUN = 21142 ! NEVT = 2135
FILE = /castor/cern.ch/delphi/MCprod/cern/kk2f4146/v92e/91.25/kk2f4146_qqpy_91.25_21143.sdst ! RUN = 21143 ! NEVT = 3000
FILE = /castor/cern.ch/delphi/MCprod/cern/kk2f4146/v92e/91.25/kk2f4146_qqpy_91.25_21144.sdst ! RUN = 21144 ! NEVT = 2999
FILE = /castor/cern.ch/delphi/MCprod/cern/kk2f4146/v92e/91.25/kk2f4146_qqpy_91.25_21145.sdst ! RUN = 21145 ! NEVT = 2999
FILE = /castor/cern.ch/delphi/MCprod/cern/kk2f4146/v92e/91.25/kk2f4146_qqpy_91.25_21146.sdst ! RUN = 21146 ! NEVT = 2999
FILE = /castor/cern.ch/delphi/MCprod/cern/kk2f4146/v92e/91.25/kk2f4146_qqpy_91.25_21147.sdst ! RUN = 21147 ! NEVT = 2998
FILE = /castor/cern.ch/delphi/MCprod/cern/kk2f4146/v92e/91.25/kk2f4146_qqpy_91.25_21148.sdst ! RUN = 21148 ! NEVT = 2999
FILE = /castor/cern.ch/delphi/MCprod/cern/kk2f4146/v92e/91.25/kk2f4146_qqpy_91.25_21149.sdst ! RUN = 21149 ! NEVT = 2998
FILE = /castor/cern.ch/delphi/MCprod/cern/kk2f4146/v92e/91.25/kk2f4146_qqpy_91.25_21150.sdst ! RUN = 21150 ! NEVT = 2998
FILE = /castor/cern.ch/delphi/MCprod/cern/kk2f4146/v92e/91.25/kk2f4146_qqpy_91.25_21151.sdst ! RUN = 21151 ! NEVT = 2999
FILE = /castor/cern.ch/delphi/MCprod/cern/kk2f4146/v92e/91.25/kk2f4146_qqpy_91.25_21152.sdst ! RUN = 21152 ! NEVT = 3000
FILE = /castor/cern.ch/delphi/MCprod/cern/kk2f4146/v92e/91.25/kk2f4146_qqpy_91.25_21153.sdst ! RUN = 21153 ! NEVT = 3000
FILE = /castor/cern.ch/delphi/MCprod/cern/kk2f4146/v92e/91.25/kk2f4146_qqpy_91.25_21154.sdst ! RUN = 21154 ! NEVT = 2999
FILE = /castor/cern.ch/delphi/MCprod/cern/kk2f4146/v92e/91.25/kk2f4146_qqpy_91.25_21155.sdst ! RUN = 21155 ! NEVT = 3000
FILE = /castor/cern.ch/delphi/MCprod/cern/kk2f4146/v92e/91.25/kk2f4146_qqpy_91.25_21156.sdst ! RUN = 21156 ! NEVT = 3000
FILE = /castor/cern.ch/delphi/MCprod/cern/kk2f4146/v92e/91.25/kk2f4146_qqpy_91.25_21157.sdst ! RUN = 21157 ! NEVT = 2998
FILE = /castor/cern.ch/delphi/MCprod/cern/kk2f4146/v92e/91.25/kk2f4146_qqpy_91.25_21158.sdst ! RUN = 21158 ! NEVT = 3000
FILE = /castor/cern.ch/delphi/MCprod/cern/kk2f4146/v92e/91.25/kk2f4146_qqpy_91.25_21159.sdst ! RUN = 21159 ! NEVT = 2998
FILE = /castor/cern.ch/delphi/MCprod/cern/kk2f4146/v92e/91.25/kk2f4146_qqpy_91.25_21160.sdst ! RUN = 21160 ! NEVT = 3000
FILE = /castor/cern.ch/delphi/MCprod/cern/kk2f4146/v92e/91.25/kk2f4146_qqpy_91.25_21161.sdst ! RUN = 21161 ! NEVT = 2998
FILE = /castor/cern.ch/delphi/MCprod/cern/kk2f4146/v92e/91.25/kk2f4146_qqpy_91.25_21162.sdst ! RUN = 21162 ! NEVT = 2998
FILE = /castor/cern.ch/delphi/MCprod/cern/kk2f4146/v92e/91.25/kk2f4146_qqpy_91.25_21163.sdst ! RUN = 21163 ! NEVT = 2999
FILE = /castor/cern.ch/delphi/MCprod/cern/kk2f4146/v92e/91.25/kk2f4146_qqpy_91.25_21164.sdst ! RUN = 21164 ! NEVT = 2103
FILE = /castor/cern.ch/delphi/MCprod/cern/kk2f4146/v92e/91.25/kk2f4146_qqpy_91.25_21165.sdst ! RUN = 21165 ! NEVT = 3000
FILE = /castor/cern.ch/delphi/MCprod/cern/kk2f4146/v92e/91.25/kk2f4146_qqpy_91.25_21166.sdst ! RUN = 21166 ! NEVT = 3000
FILE = /castor/cern.ch/delphi/MCprod/cern/kk2f4146/v92e/91.25/kk2f4146_qqpy_91.25_21167.sdst ! RUN = 21167 ! NEVT = 3000
FILE = /castor/cern.ch/delphi/MCprod/cern/kk2f4146/v92e/91.25/kk2f4146_qqpy_91.25_21168.sdst ! RUN = 21168 ! NEVT = 3000
FILE = /castor/cern.ch/delphi/MCprod/cern/kk2f4146/v92e/91.25/kk2f4146_qqpy_91.25_21169.sdst ! RUN = 21169 ! NEVT = 3000
FILE = /castor/cern.ch/delphi/MCprod/cern/kk2f4146/v92e/91.25/kk2f4146_qqpy_91.25_21170.sdst ! RUN = 21170 ! NEVT = 2999
FILE = /castor/cern.ch/delphi/MCprod/cern/kk2f4146/v92e/91.25/kk2f4146_qqpy_91.25_21171.sdst ! RUN = 21171 ! NEVT = 3000
FILE = /castor/cern.ch/delphi/MCprod/cern/kk2f4146/v92e/91.25/kk2f4146_qqpy_91.25_21172.sdst ! RUN = 21172 ! NEVT = 2999
FILE = /castor/cern.ch/delphi/MCprod/cern/kk2f4146/v92e/91.25/kk2f4146_qqpy_91.25_21173.sdst ! RUN = 21173 ! NEVT = 2998
FILE = /castor/cern.ch/delphi/MCprod/cern/kk2f4146/v92e/91.25/kk2f4146_qqpy_91.25_21174.sdst ! RUN = 21174 ! NEVT = 1472
FILE = /castor/cern.ch/delphi/MCprod/cern/kk2f4146/v92e/91.25/kk2f4146_qqpy_91.25_21175.sdst ! RUN = 21175 ! NEVT = 1996
FILE = /castor/cern.ch/delphi/MCprod/cern/kk2f4146/v92e/91.25/kk2f4146_qqpy_91.25_21176.sdst ! RUN = 21176 ! NEVT = 3000
FILE = /castor/cern.ch/delphi/MCprod/cern/kk2f4146/v92e/91.25/kk2f4146_qqpy_91.25_21177.sdst ! RUN = 21177 ! NEVT = 3000
FILE = /castor/cern.ch/delphi/MCprod/cern/kk2f4146/v92e/91.25/kk2f4146_qqpy_91.25_21178.sdst ! RUN = 21178 ! NEVT = 2998
FILE = /castor/cern.ch/delphi/MCprod/cern/kk2f4146/v92e/91.25/kk2f4146_qqpy_91.25_21179.sdst ! RUN = 21179 ! NEVT = 3000
FILE = /castor/cern.ch/delphi/MCprod/cern/kk2f4146/v92e/91.25/kk2f4146_qqpy_91.25_21180.sdst ! RUN = 21180 ! NEVT = 2998
FILE = /castor/cern.ch/delphi/MCprod/cern/kk2f4146/v92e/91.25/kk2f4146_qqpy_91.25_21181.sdst ! RUN = 21181 ! NEVT = 2999
FILE = /castor/cern.ch/delphi/MCprod/cern/kk2f4146/v92e/91.25/kk2f4146_qqpy_91.25_21182.sdst ! RUN = 21182 ! NEVT = 1018
FILE = /castor/cern.ch/delphi/MCprod/cern/kk2f4146/v92e/91.25/kk2f4146_qqpy_91.25_21183.sdst ! RUN = 21183 ! NEVT = 3000
FILE = /castor/cern.ch/delphi/MCprod/cern/kk2f4146/v92e/91.25/kk2f4146_qqpy_91.25_21184.sdst ! RUN = 21184 ! NEVT = 3000
FILE = /castor/cern.ch/delphi/MCprod/cern/kk2f4146/v92e/91.25/kk2f4146_qqpy_91.25_21185.sdst ! RUN = 21185 ! NEVT = 2999
FILE = /castor/cern.ch/delphi/MCprod/cern/kk2f4146/v92e/91.25/kk2f4146_qqpy_91.25_21186.sdst ! RUN = 21186 ! NEVT = 2999
FILE = /castor/cern.ch/delphi/MCprod/cern/kk2f4146/v92e/91.25/kk2f4146_qqpy_91.25_21187.sdst ! RUN = 21187 ! NEVT = 2999
FILE = /castor/cern.ch/delphi/MCprod/cern/kk2f4146/v92e/91.25/kk2f4146_qqpy_91.25_21188.sdst ! RUN = 21188 ! NEVT = 2996
FILE = /castor/cern.ch/delphi/MCprod/cern/kk2f4146/v92e/91.25/kk2f4146_qqpy_91.25_21189.sdst ! RUN = 21189 ! NEVT = 2999
FILE = /castor/cern.ch/delphi/MCprod/cern/kk2f4146/v92e/91.25/kk2f4146_qqpy_91.25_21190.sdst ! RUN = 21190 ! NEVT = 2999
FILE = /castor/cern.ch/delphi/MCprod/cern/kk2f4146/v92e/91.25/kk2f4146_qqpy_91.25_21191.sdst ! RUN = 21191 ! NEVT = 3000
FILE = /castor/cern.ch/delphi/MCprod/cern/kk2f4146/v92e/91.25/kk2f4146_qqpy_91.25_21192.sdst ! RUN = 21192 ! NEVT = 1631
FILE = /castor/cern.ch/delphi/MCprod/cern/kk2f4146/v92e/91.25/kk2f4146_qqpy_91.25_21193.sdst ! RUN = 21193 ! NEVT = 43
FILE = /castor/cern.ch/delphi/MCprod/cern/kk2f4146/v92e/91.25/kk2f4146_qqpy_91.25_21194.sdst ! RUN = 21194 ! NEVT = 3000
FILE = /castor/cern.ch/delphi/MCprod/cern/kk2f4146/v92e/91.25/kk2f4146_qqpy_91.25_21195.sdst ! RUN = 21195 ! NEVT = 2999
FILE = /castor/cern.ch/delphi/MCprod/cern/kk2f4146/v92e/91.25/kk2f4146_qqpy_91.25_21196.sdst ! RUN = 21196 ! NEVT = 2999
FILE = /castor/cern.ch/delphi/MCprod/cern/kk2f4146/v92e/91.25/kk2f4146_qqpy_91.25_21197.sdst ! RUN = 21197 ! NEVT = 2999
FILE = /castor/cern.ch/delphi/MCprod/cern/kk2f4146/v92e/91.25/kk2f4146_qqpy_91.25_21198.sdst ! RUN = 21198 ! NEVT = 2190
FILE = /castor/cern.ch/delphi/MCprod/cern/kk2f4146/v92e/91.25/kk2f4146_qqpy_91.25_21199.sdst ! RUN = 21199 ! NEVT = 2999
FILE = /castor/cern.ch/delphi/MCprod/cern/kk2f4146/v92e/91.25/kk2f4146_qqpy_91.25_21200.sdst ! RUN = 21200 ! NEVT = 523
FILE = /castor/cern.ch/delphi/MCprod/cern/kk2f4146/v92e/91.25/kk2f4146_qqpy_91.25_21201.sdst ! RUN = 21201 ! NEVT = 2999
FILE = /castor/cern.ch/delphi/MCprod/cern/kk2f4146/v92e/91.25/kk2f4146_qqpy_91.25_21202.sdst ! RUN = 21202 ! NEVT = 3000
FILE = /castor/cern.ch/delphi/MCprod/cern/kk2f4146/v92e/91.25/kk2f4146_qqpy_91.25_21203.sdst ! RUN = 21203 ! NEVT = 2998
FILE = /castor/cern.ch/delphi/MCprod/cern/kk2f4146/v92e/91.25/kk2f4146_qqpy_91.25_21204.sdst ! RUN = 21204 ! NEVT = 3000
FILE = /castor/cern.ch/delphi/MCprod/cern/kk2f4146/v92e/91.25/kk2f4146_qqpy_91.25_21205.sdst ! RUN = 21205 ! NEVT = 3000
FILE = /castor/cern.ch/delphi/MCprod/cern/kk2f4146/v92e/91.25/kk2f4146_qqpy_91.25_21206.sdst ! RUN = 21206 ! NEVT = 3000
FILE = /castor/cern.ch/delphi/MCprod/cern/kk2f4146/v92e/91.25/kk2f4146_qqpy_91.25_21207.sdst ! RUN = 21207 ! NEVT = 2999
FILE = /castor/cern.ch/delphi/MCprod/cern/kk2f4146/v92e/91.25/kk2f4146_qqpy_91.25_21208.sdst ! RUN = 21208 ! NEVT = 3000
FILE = /castor/cern.ch/delphi/MCprod/cern/kk2f4146/v92e/91.25/kk2f4146_qqpy_91.25_21209.sdst ! RUN = 21209 ! NEVT = 2999
FILE = /castor/cern.ch/delphi/MCprod/cern/kk2f4146/v92e/91.25/kk2f4146_qqpy_91.25_21210.sdst ! RUN = 21210 ! NEVT = 3000
FILE = /castor/cern.ch/delphi/MCprod/cern/kk2f4146/v92e/91.25/kk2f4146_qqpy_91.25_21211.sdst ! RUN = 21211 ! NEVT = 3000
FILE = /castor/cern.ch/delphi/MCprod/cern/kk2f4146/v92e/91.25/kk2f4146_qqpy_91.25_21212.sdst ! RUN = 21212 ! NEVT = 3000
FILE = /castor/cern.ch/delphi/MCprod/cern/kk2f4146/v92e/91.25/kk2f4146_qqpy_91.25_21213.sdst ! RUN = 21213 ! NEVT = 3000
FILE = /castor/cern.ch/delphi/MCprod/cern/kk2f4146/v92e/91.25/kk2f4146_qqpy_91.25_21214.sdst ! RUN = 21214 ! NEVT = 3000
FILE = /castor/cern.ch/delphi/MCprod/cern/kk2f4146/v92e/91.25/kk2f4146_qqpy_91.25_21216.sdst ! RUN = 21216 ! NEVT = 2999
FILE = /castor/cern.ch/delphi/MCprod/cern/kk2f4146/v92e/91.25/kk2f4146_qqpy_91.25_21217.sdst ! RUN = 21217 ! NEVT = 2999
FILE = /castor/cern.ch/delphi/MCprod/cern/kk2f4146/v92e/91.25/kk2f4146_qqpy_91.25_21218.sdst ! RUN = 21218 ! NEVT = 2998
FILE = /castor/cern.ch/delphi/MCprod/cern/kk2f4146/v92e/91.25/kk2f4146_qqpy_91.25_21219.sdst ! RUN = 21219 ! NEVT = 3000
FILE = /castor/cern.ch/delphi/MCprod/cern/kk2f4146/v92e/91.25/kk2f4146_qqpy_91.25_21220.sdst ! RUN = 21220 ! NEVT = 3000
FILE = /castor/cern.ch/delphi/MCprod/cern/kk2f4146/v92e/91.25/kk2f4146_qqpy_91.25_21221.sdst ! RUN = 21221 ! NEVT = 2999
FILE = /castor/cern.ch/delphi/MCprod/cern/kk2f4146/v92e/91.25/kk2f4146_qqpy_91.25_21222.sdst ! RUN = 21222 ! NEVT = 2998
FILE = /castor/cern.ch/delphi/MCprod/cern/kk2f4146/v92e/91.25/kk2f4146_qqpy_91.25_21223.sdst ! RUN = 21223 ! NEVT = 2999
FILE = /castor/cern.ch/delphi/MCprod/cern/kk2f4146/v92e/91.25/kk2f4146_qqpy_91.25_21224.sdst ! RUN = 21224 ! NEVT = 3000
FILE = /castor/cern.ch/delphi/MCprod/cern/kk2f4146/v92e/91.25/kk2f4146_qqpy_91.25_21225.sdst ! RUN = 21225 ! NEVT = 3000
FILE = /castor/cern.ch/delphi/MCprod/cern/kk2f4146/v92e/91.25/kk2f4146_qqpy_91.25_21226.sdst ! RUN = 21226 ! NEVT = 3000
FILE = /castor/cern.ch/delphi/MCprod/cern/kk2f4146/v92e/91.25/kk2f4146_qqpy_91.25_21227.sdst ! RUN = 21227 ! NEVT = 2999
FILE = /castor/cern.ch/delphi/MCprod/cern/kk2f4146/v92e/91.25/kk2f4146_qqpy_91.25_21228.sdst ! RUN = 21228 ! NEVT = 3000
FILE = /castor/cern.ch/delphi/MCprod/cern/kk2f4146/v92e/91.25/kk2f4146_qqpy_91.25_21229.sdst ! RUN = 21229 ! NEVT = 3000
FILE = /castor/cern.ch/delphi/MCprod/cern/kk2f4146/v92e/91.25/kk2f4146_qqpy_91.25_21230.sdst ! RUN = 21230 ! NEVT = 3000
FILE = /castor/cern.ch/delphi/MCprod/cern/kk2f4146/v92e/91.25/kk2f4146_qqpy_91.25_21231.sdst ! RUN = 21231 ! NEVT = 2996
FILE = /castor/cern.ch/delphi/MCprod/cern/kk2f4146/v92e/91.25/kk2f4146_qqpy_91.25_21232.sdst ! RUN = 21232 ! NEVT = 1515
FILE = /castor/cern.ch/delphi/MCprod/cern/kk2f4146/v92e/91.25/kk2f4146_qqpy_91.25_21233.sdst ! RUN = 21233 ! NEVT = 2999
FILE = /castor/cern.ch/delphi/MCprod/cern/kk2f4146/v92e/91.25/kk2f4146_qqpy_91.25_21234.sdst ! RUN = 21234 ! NEVT = 3000
FILE = /castor/cern.ch/delphi/MCprod/cern/kk2f4146/v92e/91.25/kk2f4146_qqpy_91.25_21235.sdst ! RUN = 21235 ! NEVT = 3000
FILE = /castor/cern.ch/delphi/MCprod/cern/kk2f4146/v92e/91.25/kk2f4146_qqpy_91.25_21236.sdst ! RUN = 21236 ! NEVT = 2999
FILE = /castor/cern.ch/delphi/MCprod/cern/kk2f4146/v92e/91.25/kk2f4146_qqpy_91.25_21237.sdst ! RUN = 21237 ! NEVT = 2999
FILE = /castor/cern.ch/delphi/MCprod/cern/kk2f4146/v92e/91.25/kk2f4146_qqpy_91.25_21238.sdst ! RUN = 21238 ! NEVT = 3000
FILE = /castor/cern.ch/delphi/MCprod/cern/kk2f4146/v92e/91.25/kk2f4146_qqpy_91.25_21239.sdst ! RUN = 21239 ! NEVT = 1254
FILE = /castor/cern.ch/delphi/MCprod/cern/kk2f4146/v92e/91.25/kk2f4146_qqpy_91.25_21240.sdst ! RUN = 21240 ! NEVT = 696
FILE = /castor/cern.ch/delphi/MCprod/cern/kk2f4146/v92e/91.25/kk2f4146_qqpy_91.25_21241.sdst ! RUN = 21241 ! NEVT = 2998
FILE = /castor/cern.ch/delphi/MCprod/cern/kk2f4146/v92e/91.25/kk2f4146_qqpy_91.25_21242.sdst ! RUN = 21242 ! NEVT = 3000
FILE = /castor/cern.ch/delphi/MCprod/cern/kk2f4146/v92e/91.25/kk2f4146_qqpy_91.25_21243.sdst ! RUN = 21243 ! NEVT = 2998
FILE = /castor/cern.ch/delphi/MCprod/cern/kk2f4146/v92e/91.25/kk2f4146_qqpy_91.25_21244.sdst ! RUN = 21244 ! NEVT = 2999
FILE = /castor/cern.ch/delphi/MCprod/cern/kk2f4146/v92e/91.25/kk2f4146_qqpy_91.25_21245.sdst ! RUN = 21245 ! NEVT = 2999
FILE = /castor/cern.ch/delphi/MCprod/cern/kk2f4146/v92e/91.25/kk2f4146_qqpy_91.25_21246.sdst ! RUN = 21246 ! NEVT = 2999
FILE = /castor/cern.ch/delphi/MCprod/cern/kk2f4146/v92e/91.25/kk2f4146_qqpy_91.25_21247.sdst ! RUN = 21247 ! NEVT = 2999
FILE = /castor/cern.ch/delphi/MCprod/cern/kk2f4146/v92e/91.25/kk2f4146_qqpy_91.25_21248.sdst ! RUN = 21248 ! NEVT = 2998
FILE = /castor/cern.ch/delphi/MCprod/cern/kk2f4146/v92e/91.25/kk2f4146_qqpy_91.25_21249.sdst ! RUN = 21249 ! NEVT = 3000
FILE = /castor/cern.ch/delphi/MCprod/cern/kk2f4146/v92e/91.25/kk2f4146_qqpy_91.25_21250.sdst ! RUN = 21250 ! NEVT = 3000
FILE = /castor/cern.ch/delphi/MCprod/cern/kk2f4146/v92e/91.25/kk2f4146_qqpy_91.25_21251.sdst ! RUN = 21251 ! NEVT = 2999
FILE = /castor/cern.ch/delphi/MCprod/cern/kk2f4146/v92e/91.25/kk2f4146_qqpy_91.25_21252.sdst ! RUN = 21252 ! NEVT = 3000
FILE = /castor/cern.ch/delphi/MCprod/cern/kk2f4146/v92e/91.25/kk2f4146_qqpy_91.25_21253.sdst ! RUN = 21253 ! NEVT = 2999
FILE = /castor/cern.ch/delphi/MCprod/cern/kk2f4146/v92e/91.25/kk2f4146_qqpy_91.25_21254.sdst ! RUN = 21254 ! NEVT = 2999
FILE = /castor/cern.ch/delphi/MCprod/cern/kk2f4146/v92e/91.25/kk2f4146_qqpy_91.25_21255.sdst ! RUN = 21255 ! NEVT = 2999
FILE = /castor/cern.ch/delphi/MCprod/cern/kk2f4146/v92e/91.25/kk2f4146_qqpy_91.25_21256.sdst ! RUN = 21256 ! NEVT = 3000
FILE = /castor/cern.ch/delphi/MCprod/cern/kk2f4146/v92e/91.25/kk2f4146_qqpy_91.25_21257.sdst ! RUN = 21257 ! NEVT = 2999
FILE = /castor/cern.ch/delphi/MCprod/cern/kk2f4146/v92e/91.25/kk2f4146_qqpy_91.25_21258.sdst ! RUN = 21258 ! NEVT = 3000
FILE = /castor/cern.ch/delphi/MCprod/cern/kk2f4146/v92e/91.25/kk2f4146_qqpy_91.25_21259.sdst ! RUN = 21259 ! NEVT = 758
FILE = /castor/cern.ch/delphi/MCprod/cern/kk2f4146/v92e/91.25/kk2f4146_qqpy_91.25_21260.sdst ! RUN = 21260 ! NEVT = 993
FILE = /castor/cern.ch/delphi/MCprod/cern/kk2f4146/v92e/91.25/kk2f4146_qqpy_91.25_21261.sdst ! RUN = 21261 ! NEVT = 2999
FILE = /castor/cern.ch/delphi/MCprod/cern/kk2f4146/v92e/91.25/kk2f4146_qqpy_91.25_21262.sdst ! RUN = 21262 ! NEVT = 3000
FILE = /castor/cern.ch/delphi/MCprod/cern/kk2f4146/v92e/91.25/kk2f4146_qqpy_91.25_21263.sdst ! RUN = 21263 ! NEVT = 2999
FILE = /castor/cern.ch/delphi/MCprod/cern/kk2f4146/v92e/91.25/kk2f4146_qqpy_91.25_21264.sdst ! RUN = 21264 ! NEVT = 3000
FILE = /castor/cern.ch/delphi/MCprod/cern/kk2f4146/v92e/91.25/kk2f4146_qqpy_91.25_21265.sdst ! RUN = 21265 ! NEVT = 2998
FILE = /castor/cern.ch/delphi/MCprod/cern/kk2f4146/v92e/91.25/kk2f4146_qqpy_91.25_21266.sdst ! RUN = 21266 ! NEVT = 3000
FILE = /castor/cern.ch/delphi/MCprod/cern/kk2f4146/v92e/91.25/kk2f4146_qqpy_91.25_21267.sdst ! RUN = 21267 ! NEVT = 1302
FILE = /castor/cern.ch/delphi/MCprod/cern/kk2f4146/v92e/91.25/kk2f4146_qqpy_91.25_21268.sdst ! RUN = 21268 ! NEVT = 2998
FILE = /castor/cern.ch/delphi/MCprod/cern/kk2f4146/v92e/91.25/kk2f4146_qqpy_91.25_21269.sdst ! RUN = 21269 ! NEVT = 1200
FILE = /castor/cern.ch/delphi/MCprod/cern/kk2f4146/v92e/91.25/kk2f4146_qqpy_91.25_21270.sdst ! RUN = 21270 ! NEVT = 3000
FILE = /castor/cern.ch/delphi/MCprod/cern/kk2f4146/v92e/91.25/kk2f4146_qqpy_91.25_21271.sdst ! RUN = 21271 ! NEVT = 2999
FILE = /castor/cern.ch/delphi/MCprod/cern/kk2f4146/v92e/91.25/kk2f4146_qqpy_91.25_21272.sdst ! RUN = 21272 ! NEVT = 2560
FILE = /castor/cern.ch/delphi/MCprod/cern/kk2f4146/v92e/91.25/kk2f4146_qqpy_91.25_21273.sdst ! RUN = 21273 ! NEVT = 3000
FILE = /castor/cern.ch/delphi/MCprod/cern/kk2f4146/v92e/91.25/kk2f4146_qqpy_91.25_21274.sdst ! RUN = 21274 ! NEVT = 538
FILE = /castor/cern.ch/delphi/MCprod/cern/kk2f4146/v92e/91.25/kk2f4146_qqpy_91.25_21275.sdst ! RUN = 21275 ! NEVT = 3000
FILE = /castor/cern.ch/delphi/MCprod/cern/kk2f4146/v92e/91.25/kk2f4146_qqpy_91.25_21276.sdst ! RUN = 21276 ! NEVT = 2998
FILE = /castor/cern.ch/delphi/MCprod/cern/kk2f4146/v92e/91.25/kk2f4146_qqpy_91.25_21277.sdst ! RUN = 21277 ! NEVT = 1483
FILE = /castor/cern.ch/delphi/MCprod/cern/kk2f4146/v92e/91.25/kk2f4146_qqpy_91.25_21278.sdst ! RUN = 21278 ! NEVT = 222
FILE = /castor/cern.ch/delphi/MCprod/cern/kk2f4146/v92e/91.25/kk2f4146_qqpy_91.25_21279.sdst ! RUN = 21279 ! NEVT = 3000
FILE = /castor/cern.ch/delphi/MCprod/cern/kk2f4146/v92e/91.25/kk2f4146_qqpy_91.25_21280.sdst ! RUN = 21280 ! NEVT = 2999
FILE = /castor/cern.ch/delphi/MCprod/cern/kk2f4146/v92e/91.25/kk2f4146_qqpy_91.25_21281.sdst ! RUN = 21281 ! NEVT = 2999
FILE = /castor/cern.ch/delphi/MCprod/cern/kk2f4146/v92e/91.25/kk2f4146_qqpy_91.25_21282.sdst ! RUN = 21282 ! NEVT = 2999
FILE = /castor/cern.ch/delphi/MCprod/cern/kk2f4146/v92e/91.25/kk2f4146_qqpy_91.25_21283.sdst ! RUN = 21283 ! NEVT = 3000
FILE = /castor/cern.ch/delphi/MCprod/cern/kk2f4146/v92e/91.25/kk2f4146_qqpy_91.25_21284.sdst ! RUN = 21284 ! NEVT = 3000
FILE = /castor/cern.ch/delphi/MCprod/cern/kk2f4146/v92e/91.25/kk2f4146_qqpy_91.25_21285.sdst ! RUN = 21285 ! NEVT = 2999
FILE = /castor/cern.ch/delphi/MCprod/cern/kk2f4146/v92e/91.25/kk2f4146_qqpy_91.25_21286.sdst ! RUN = 21286 ! NEVT = 2999
FILE = /castor/cern.ch/delphi/MCprod/cern/kk2f4146/v92e/91.25/kk2f4146_qqpy_91.25_21287.sdst ! RUN = 21287 ! NEVT = 3000
FILE = /castor/cern.ch/delphi/MCprod/cern/kk2f4146/v92e/91.25/kk2f4146_qqpy_91.25_21288.sdst ! RUN = 21288 ! NEVT = 2999
FILE = /castor/cern.ch/delphi/MCprod/cern/kk2f4146/v92e/91.25/kk2f4146_qqpy_91.25_21289.sdst ! RUN = 21289 ! NEVT = 2999
FILE = /castor/cern.ch/delphi/MCprod/cern/kk2f4146/v92e/91.25/kk2f4146_qqpy_91.25_21290.sdst ! RUN = 21290 ! NEVT = 2999
