# index of html fragments. Provides additional information for sorting files. DO NOT REMOVE.
#File Name                                       year processing   category      files          events     energy       mass      mass2       labo
xs_hzha03pyth6156hzcq_e206.5_mxxx_mxxx_ca0_1l_e1        2000      va0e1      HIGGS         40           32360      206.5         10          4       CERN
