*   Nickname :     xs_hzha03pyth6156hzcq_e206.5_m105_m8_ca0_1l_e1
*   Generic Name : //CERN/DELPHI/P02_SIMD/XSDST/HZHA03PYTH6156HZCQ/E206.5/CERN/SUMT/C001-10
*   Description :   Extended Short DST simulation a0e  done at ecm=206.5 GeV , CERN
*   Comments :     in total 9917 events in 10 files, time stamp: Thu Mai 15 4:12:22 2003
*
*
*
FILE = /castor/cern.ch/delphi/MCprod/cern/hzha03pyth6156/va0e/206.5/hzha03pyth6156_hzcq_206.5_105_8_10552.xsdst ! RUN = 10552 ! NEVT = 1000
FILE = /castor/cern.ch/delphi/MCprod/cern/hzha03pyth6156/va0e/206.5/hzha03pyth6156_hzcq_206.5_105_8_10553.xsdst ! RUN = 10553 ! NEVT = 999
FILE = /castor/cern.ch/delphi/MCprod/cern/hzha03pyth6156/va0e/206.5/hzha03pyth6156_hzcq_206.5_105_8_10554.xsdst ! RUN = 10554 ! NEVT = 999
FILE = /castor/cern.ch/delphi/MCprod/cern/hzha03pyth6156/va0e/206.5/hzha03pyth6156_hzcq_206.5_105_8_10555.xsdst ! RUN = 10555 ! NEVT = 920
FILE = /castor/cern.ch/delphi/MCprod/cern/hzha03pyth6156/va0e/206.5/hzha03pyth6156_hzcq_206.5_105_8_10556.xsdst ! RUN = 10556 ! NEVT = 1000
FILE = /castor/cern.ch/delphi/MCprod/cern/hzha03pyth6156/va0e/206.5/hzha03pyth6156_hzcq_206.5_105_8_10557.xsdst ! RUN = 10557 ! NEVT = 1000
FILE = /castor/cern.ch/delphi/MCprod/cern/hzha03pyth6156/va0e/206.5/hzha03pyth6156_hzcq_206.5_105_8_10558.xsdst ! RUN = 10558 ! NEVT = 1000
FILE = /castor/cern.ch/delphi/MCprod/cern/hzha03pyth6156/va0e/206.5/hzha03pyth6156_hzcq_206.5_105_8_10559.xsdst ! RUN = 10559 ! NEVT = 1000
FILE = /castor/cern.ch/delphi/MCprod/cern/hzha03pyth6156/va0e/206.5/hzha03pyth6156_hzcq_206.5_105_8_10560.xsdst ! RUN = 10560 ! NEVT = 999
FILE = /castor/cern.ch/delphi/MCprod/cern/hzha03pyth6156/va0e/206.5/hzha03pyth6156_hzcq_206.5_105_8_10561.xsdst ! RUN = 10561 ! NEVT = 1000
