*
*   Nickname     : dsto_wwex202be32f_e200_r99_1l_a
*   Generic Name : //CERN/DELPHI/P02_SIMD/DSTO/WWEX202BE32F/RAL/SUMT/C001-50
*   Description  :  Full DST/Delana output simulation 99_a 200 , RAL
*---
*   Comments     : in total 49983 events in 50 files time stamp: Fri Aug 10 14:15:08 2001
*---
*
*
*
*
*
FILE = /castor/cern.ch/delphi/MCprod/ral/wwex202be32f/v99_4/200/wwex202be32f_200_12101.fadana ! RUN = 12101 ! NEVT = 1000
FILE = /castor/cern.ch/delphi/MCprod/ral/wwex202be32f/v99_4/200/wwex202be32f_200_12102.fadana ! RUN = 12102 ! NEVT = 1000
FILE = /castor/cern.ch/delphi/MCprod/ral/wwex202be32f/v99_4/200/wwex202be32f_200_12103.fadana ! RUN = 12103 ! NEVT = 1000
FILE = /castor/cern.ch/delphi/MCprod/ral/wwex202be32f/v99_4/200/wwex202be32f_200_12104.fadana ! RUN = 12104 ! NEVT = 1000
FILE = /castor/cern.ch/delphi/MCprod/ral/wwex202be32f/v99_4/200/wwex202be32f_200_12105.fadana ! RUN = 12105 ! NEVT = 999
FILE = /castor/cern.ch/delphi/MCprod/ral/wwex202be32f/v99_4/200/wwex202be32f_200_12106.fadana ! RUN = 12106 ! NEVT = 1000
FILE = /castor/cern.ch/delphi/MCprod/ral/wwex202be32f/v99_4/200/wwex202be32f_200_12107.fadana ! RUN = 12107 ! NEVT = 1000
FILE = /castor/cern.ch/delphi/MCprod/ral/wwex202be32f/v99_4/200/wwex202be32f_200_12108.fadana ! RUN = 12108 ! NEVT = 1000
FILE = /castor/cern.ch/delphi/MCprod/ral/wwex202be32f/v99_4/200/wwex202be32f_200_12109.fadana ! RUN = 12109 ! NEVT = 1000
FILE = /castor/cern.ch/delphi/MCprod/ral/wwex202be32f/v99_4/200/wwex202be32f_200_12110.fadana ! RUN = 12110 ! NEVT = 1000
FILE = /castor/cern.ch/delphi/MCprod/ral/wwex202be32f/v99_4/200/wwex202be32f_200_12111.fadana ! RUN = 12111 ! NEVT = 1000
FILE = /castor/cern.ch/delphi/MCprod/ral/wwex202be32f/v99_4/200/wwex202be32f_200_12112.fadana ! RUN = 12112 ! NEVT = 1000
FILE = /castor/cern.ch/delphi/MCprod/ral/wwex202be32f/v99_4/200/wwex202be32f_200_12113.fadana ! RUN = 12113 ! NEVT = 999
FILE = /castor/cern.ch/delphi/MCprod/ral/wwex202be32f/v99_4/200/wwex202be32f_200_12114.fadana ! RUN = 12114 ! NEVT = 1000
FILE = /castor/cern.ch/delphi/MCprod/ral/wwex202be32f/v99_4/200/wwex202be32f_200_12115.fadana ! RUN = 12115 ! NEVT = 999
FILE = /castor/cern.ch/delphi/MCprod/ral/wwex202be32f/v99_4/200/wwex202be32f_200_12116.fadana ! RUN = 12116 ! NEVT = 1000
FILE = /castor/cern.ch/delphi/MCprod/ral/wwex202be32f/v99_4/200/wwex202be32f_200_12117.fadana ! RUN = 12117 ! NEVT = 1000
FILE = /castor/cern.ch/delphi/MCprod/ral/wwex202be32f/v99_4/200/wwex202be32f_200_12118.fadana ! RUN = 12118 ! NEVT = 1000
FILE = /castor/cern.ch/delphi/MCprod/ral/wwex202be32f/v99_4/200/wwex202be32f_200_12119.fadana ! RUN = 12119 ! NEVT = 1000
FILE = /castor/cern.ch/delphi/MCprod/ral/wwex202be32f/v99_4/200/wwex202be32f_200_12120.fadana ! RUN = 12120 ! NEVT = 1000
FILE = /castor/cern.ch/delphi/MCprod/ral/wwex202be32f/v99_4/200/wwex202be32f_200_12121.fadana ! RUN = 12121 ! NEVT = 1000
FILE = /castor/cern.ch/delphi/MCprod/ral/wwex202be32f/v99_4/200/wwex202be32f_200_12122.fadana ! RUN = 12122 ! NEVT = 998
FILE = /castor/cern.ch/delphi/MCprod/ral/wwex202be32f/v99_4/200/wwex202be32f_200_12123.fadana ! RUN = 12123 ! NEVT = 999
FILE = /castor/cern.ch/delphi/MCprod/ral/wwex202be32f/v99_4/200/wwex202be32f_200_12124.fadana ! RUN = 12124 ! NEVT = 1000
FILE = /castor/cern.ch/delphi/MCprod/ral/wwex202be32f/v99_4/200/wwex202be32f_200_12125.fadana ! RUN = 12125 ! NEVT = 1000
FILE = /castor/cern.ch/delphi/MCprod/ral/wwex202be32f/v99_4/200/wwex202be32f_200_12126.fadana ! RUN = 12126 ! NEVT = 1000
FILE = /castor/cern.ch/delphi/MCprod/ral/wwex202be32f/v99_4/200/wwex202be32f_200_12127.fadana ! RUN = 12127 ! NEVT = 1000
FILE = /castor/cern.ch/delphi/MCprod/ral/wwex202be32f/v99_4/200/wwex202be32f_200_12128.fadana ! RUN = 12128 ! NEVT = 1000
FILE = /castor/cern.ch/delphi/MCprod/ral/wwex202be32f/v99_4/200/wwex202be32f_200_12129.fadana ! RUN = 12129 ! NEVT = 1000
FILE = /castor/cern.ch/delphi/MCprod/ral/wwex202be32f/v99_4/200/wwex202be32f_200_12130.fadana ! RUN = 12130 ! NEVT = 998
FILE = /castor/cern.ch/delphi/MCprod/ral/wwex202be32f/v99_4/200/wwex202be32f_200_12131.fadana ! RUN = 12131 ! NEVT = 1000
FILE = /castor/cern.ch/delphi/MCprod/ral/wwex202be32f/v99_4/200/wwex202be32f_200_12132.fadana ! RUN = 12132 ! NEVT = 999
FILE = /castor/cern.ch/delphi/MCprod/ral/wwex202be32f/v99_4/200/wwex202be32f_200_12133.fadana ! RUN = 12133 ! NEVT = 1000
FILE = /castor/cern.ch/delphi/MCprod/ral/wwex202be32f/v99_4/200/wwex202be32f_200_12134.fadana ! RUN = 12134 ! NEVT = 1000
FILE = /castor/cern.ch/delphi/MCprod/ral/wwex202be32f/v99_4/200/wwex202be32f_200_12135.fadana ! RUN = 12135 ! NEVT = 1000
FILE = /castor/cern.ch/delphi/MCprod/ral/wwex202be32f/v99_4/200/wwex202be32f_200_12136.fadana ! RUN = 12136 ! NEVT = 999
FILE = /castor/cern.ch/delphi/MCprod/ral/wwex202be32f/v99_4/200/wwex202be32f_200_12137.fadana ! RUN = 12137 ! NEVT = 999
FILE = /castor/cern.ch/delphi/MCprod/ral/wwex202be32f/v99_4/200/wwex202be32f_200_12138.fadana ! RUN = 12138 ! NEVT = 1000
FILE = /castor/cern.ch/delphi/MCprod/ral/wwex202be32f/v99_4/200/wwex202be32f_200_12139.fadana ! RUN = 12139 ! NEVT = 998
FILE = /castor/cern.ch/delphi/MCprod/ral/wwex202be32f/v99_4/200/wwex202be32f_200_12140.fadana ! RUN = 12140 ! NEVT = 1000
FILE = /castor/cern.ch/delphi/MCprod/ral/wwex202be32f/v99_4/200/wwex202be32f_200_12141.fadana ! RUN = 12141 ! NEVT = 1000
FILE = /castor/cern.ch/delphi/MCprod/ral/wwex202be32f/v99_4/200/wwex202be32f_200_12142.fadana ! RUN = 12142 ! NEVT = 1000
FILE = /castor/cern.ch/delphi/MCprod/ral/wwex202be32f/v99_4/200/wwex202be32f_200_12143.fadana ! RUN = 12143 ! NEVT = 999
FILE = /castor/cern.ch/delphi/MCprod/ral/wwex202be32f/v99_4/200/wwex202be32f_200_12144.fadana ! RUN = 12144 ! NEVT = 999
FILE = /castor/cern.ch/delphi/MCprod/ral/wwex202be32f/v99_4/200/wwex202be32f_200_12145.fadana ! RUN = 12145 ! NEVT = 1000
FILE = /castor/cern.ch/delphi/MCprod/ral/wwex202be32f/v99_4/200/wwex202be32f_200_12146.fadana ! RUN = 12146 ! NEVT = 1000
FILE = /castor/cern.ch/delphi/MCprod/ral/wwex202be32f/v99_4/200/wwex202be32f_200_12147.fadana ! RUN = 12147 ! NEVT = 998
FILE = /castor/cern.ch/delphi/MCprod/ral/wwex202be32f/v99_4/200/wwex202be32f_200_12148.fadana ! RUN = 12148 ! NEVT = 1000
FILE = /castor/cern.ch/delphi/MCprod/ral/wwex202be32f/v99_4/200/wwex202be32f_200_12149.fadana ! RUN = 12149 ! NEVT = 1000
FILE = /castor/cern.ch/delphi/MCprod/ral/wwex202be32f/v99_4/200/wwex202be32f_200_12150.fadana ! RUN = 12150 ! NEVT = 1000
