*
*   Nickname     : dsto_wwex202be32f09_e189_r99_1l_a
*   Generic Name : //CERN/DELPHI/P02_SIMD/DSTO/WWEX202BE32F09/RAL/SUMT/C001-50
*   Description  :  Full DST/Delana output simulation 99_a 189 , RAL
*---
*   Comments     : in total 49985 events in 50 files time stamp: Fri Aug 10 11:15:08 2001
*---
*
*
*
*
*
FILE = /castor/cern.ch/delphi/MCprod/ral/wwex202be32f09/v99_4/189/wwex202be32f09_189_12301.fadana ! RUN = 12301 ! NEVT = 999
FILE = /castor/cern.ch/delphi/MCprod/ral/wwex202be32f09/v99_4/189/wwex202be32f09_189_12302.fadana ! RUN = 12302 ! NEVT = 1000
FILE = /castor/cern.ch/delphi/MCprod/ral/wwex202be32f09/v99_4/189/wwex202be32f09_189_12303.fadana ! RUN = 12303 ! NEVT = 1000
FILE = /castor/cern.ch/delphi/MCprod/ral/wwex202be32f09/v99_4/189/wwex202be32f09_189_12304.fadana ! RUN = 12304 ! NEVT = 1000
FILE = /castor/cern.ch/delphi/MCprod/ral/wwex202be32f09/v99_4/189/wwex202be32f09_189_12305.fadana ! RUN = 12305 ! NEVT = 999
FILE = /castor/cern.ch/delphi/MCprod/ral/wwex202be32f09/v99_4/189/wwex202be32f09_189_12306.fadana ! RUN = 12306 ! NEVT = 1000
FILE = /castor/cern.ch/delphi/MCprod/ral/wwex202be32f09/v99_4/189/wwex202be32f09_189_12307.fadana ! RUN = 12307 ! NEVT = 999
FILE = /castor/cern.ch/delphi/MCprod/ral/wwex202be32f09/v99_4/189/wwex202be32f09_189_12308.fadana ! RUN = 12308 ! NEVT = 1000
FILE = /castor/cern.ch/delphi/MCprod/ral/wwex202be32f09/v99_4/189/wwex202be32f09_189_12309.fadana ! RUN = 12309 ! NEVT = 1000
FILE = /castor/cern.ch/delphi/MCprod/ral/wwex202be32f09/v99_4/189/wwex202be32f09_189_12310.fadana ! RUN = 12310 ! NEVT = 999
FILE = /castor/cern.ch/delphi/MCprod/ral/wwex202be32f09/v99_4/189/wwex202be32f09_189_12311.fadana ! RUN = 12311 ! NEVT = 1000
FILE = /castor/cern.ch/delphi/MCprod/ral/wwex202be32f09/v99_4/189/wwex202be32f09_189_12312.fadana ! RUN = 12312 ! NEVT = 999
FILE = /castor/cern.ch/delphi/MCprod/ral/wwex202be32f09/v99_4/189/wwex202be32f09_189_12313.fadana ! RUN = 12313 ! NEVT = 999
FILE = /castor/cern.ch/delphi/MCprod/ral/wwex202be32f09/v99_4/189/wwex202be32f09_189_12314.fadana ! RUN = 12314 ! NEVT = 1000
FILE = /castor/cern.ch/delphi/MCprod/ral/wwex202be32f09/v99_4/189/wwex202be32f09_189_12315.fadana ! RUN = 12315 ! NEVT = 1000
FILE = /castor/cern.ch/delphi/MCprod/ral/wwex202be32f09/v99_4/189/wwex202be32f09_189_12316.fadana ! RUN = 12316 ! NEVT = 1000
FILE = /castor/cern.ch/delphi/MCprod/ral/wwex202be32f09/v99_4/189/wwex202be32f09_189_12317.fadana ! RUN = 12317 ! NEVT = 1000
FILE = /castor/cern.ch/delphi/MCprod/ral/wwex202be32f09/v99_4/189/wwex202be32f09_189_12318.fadana ! RUN = 12318 ! NEVT = 1000
FILE = /castor/cern.ch/delphi/MCprod/ral/wwex202be32f09/v99_4/189/wwex202be32f09_189_12319.fadana ! RUN = 12319 ! NEVT = 999
FILE = /castor/cern.ch/delphi/MCprod/ral/wwex202be32f09/v99_4/189/wwex202be32f09_189_12320.fadana ! RUN = 12320 ! NEVT = 1000
FILE = /castor/cern.ch/delphi/MCprod/ral/wwex202be32f09/v99_4/189/wwex202be32f09_189_12321.fadana ! RUN = 12321 ! NEVT = 1000
FILE = /castor/cern.ch/delphi/MCprod/ral/wwex202be32f09/v99_4/189/wwex202be32f09_189_12322.fadana ! RUN = 12322 ! NEVT = 999
FILE = /castor/cern.ch/delphi/MCprod/ral/wwex202be32f09/v99_4/189/wwex202be32f09_189_12323.fadana ! RUN = 12323 ! NEVT = 1000
FILE = /castor/cern.ch/delphi/MCprod/ral/wwex202be32f09/v99_4/189/wwex202be32f09_189_12324.fadana ! RUN = 12324 ! NEVT = 999
FILE = /castor/cern.ch/delphi/MCprod/ral/wwex202be32f09/v99_4/189/wwex202be32f09_189_12325.fadana ! RUN = 12325 ! NEVT = 1000
FILE = /castor/cern.ch/delphi/MCprod/ral/wwex202be32f09/v99_4/189/wwex202be32f09_189_12326.fadana ! RUN = 12326 ! NEVT = 1000
FILE = /castor/cern.ch/delphi/MCprod/ral/wwex202be32f09/v99_4/189/wwex202be32f09_189_12327.fadana ! RUN = 12327 ! NEVT = 1000
FILE = /castor/cern.ch/delphi/MCprod/ral/wwex202be32f09/v99_4/189/wwex202be32f09_189_12328.fadana ! RUN = 12328 ! NEVT = 1000
FILE = /castor/cern.ch/delphi/MCprod/ral/wwex202be32f09/v99_4/189/wwex202be32f09_189_12329.fadana ! RUN = 12329 ! NEVT = 1000
FILE = /castor/cern.ch/delphi/MCprod/ral/wwex202be32f09/v99_4/189/wwex202be32f09_189_12330.fadana ! RUN = 12330 ! NEVT = 1000
FILE = /castor/cern.ch/delphi/MCprod/ral/wwex202be32f09/v99_4/189/wwex202be32f09_189_12331.fadana ! RUN = 12331 ! NEVT = 999
FILE = /castor/cern.ch/delphi/MCprod/ral/wwex202be32f09/v99_4/189/wwex202be32f09_189_12332.fadana ! RUN = 12332 ! NEVT = 999
FILE = /castor/cern.ch/delphi/MCprod/ral/wwex202be32f09/v99_4/189/wwex202be32f09_189_12333.fadana ! RUN = 12333 ! NEVT = 1000
FILE = /castor/cern.ch/delphi/MCprod/ral/wwex202be32f09/v99_4/189/wwex202be32f09_189_12334.fadana ! RUN = 12334 ! NEVT = 1000
FILE = /castor/cern.ch/delphi/MCprod/ral/wwex202be32f09/v99_4/189/wwex202be32f09_189_12335.fadana ! RUN = 12335 ! NEVT = 1000
FILE = /castor/cern.ch/delphi/MCprod/ral/wwex202be32f09/v99_4/189/wwex202be32f09_189_12336.fadana ! RUN = 12336 ! NEVT = 999
FILE = /castor/cern.ch/delphi/MCprod/ral/wwex202be32f09/v99_4/189/wwex202be32f09_189_12337.fadana ! RUN = 12337 ! NEVT = 1000
FILE = /castor/cern.ch/delphi/MCprod/ral/wwex202be32f09/v99_4/189/wwex202be32f09_189_12338.fadana ! RUN = 12338 ! NEVT = 1000
FILE = /castor/cern.ch/delphi/MCprod/ral/wwex202be32f09/v99_4/189/wwex202be32f09_189_12339.fadana ! RUN = 12339 ! NEVT = 1000
FILE = /castor/cern.ch/delphi/MCprod/ral/wwex202be32f09/v99_4/189/wwex202be32f09_189_12340.fadana ! RUN = 12340 ! NEVT = 1000
FILE = /castor/cern.ch/delphi/MCprod/ral/wwex202be32f09/v99_4/189/wwex202be32f09_189_12341.fadana ! RUN = 12341 ! NEVT = 1000
FILE = /castor/cern.ch/delphi/MCprod/ral/wwex202be32f09/v99_4/189/wwex202be32f09_189_12342.fadana ! RUN = 12342 ! NEVT = 1000
FILE = /castor/cern.ch/delphi/MCprod/ral/wwex202be32f09/v99_4/189/wwex202be32f09_189_12343.fadana ! RUN = 12343 ! NEVT = 1000
FILE = /castor/cern.ch/delphi/MCprod/ral/wwex202be32f09/v99_4/189/wwex202be32f09_189_12344.fadana ! RUN = 12344 ! NEVT = 999
FILE = /castor/cern.ch/delphi/MCprod/ral/wwex202be32f09/v99_4/189/wwex202be32f09_189_12345.fadana ! RUN = 12345 ! NEVT = 999
FILE = /castor/cern.ch/delphi/MCprod/ral/wwex202be32f09/v99_4/189/wwex202be32f09_189_12346.fadana ! RUN = 12346 ! NEVT = 1000
FILE = /castor/cern.ch/delphi/MCprod/ral/wwex202be32f09/v99_4/189/wwex202be32f09_189_12347.fadana ! RUN = 12347 ! NEVT = 999
FILE = /castor/cern.ch/delphi/MCprod/ral/wwex202be32f09/v99_4/189/wwex202be32f09_189_12348.fadana ! RUN = 12348 ! NEVT = 1000
FILE = /castor/cern.ch/delphi/MCprod/ral/wwex202be32f09/v99_4/189/wwex202be32f09_189_12349.fadana ! RUN = 12349 ! NEVT = 1000
FILE = /castor/cern.ch/delphi/MCprod/ral/wwex202be32f09/v99_4/189/wwex202be32f09_189_12350.fadana ! RUN = 12350 ! NEVT = 1000
