*
*   Nickname     : xs_4qex202crstd_e200_sk1_c99_1l_a1
*   Generic Name : //CERN/DELPHI/P02_SIMD/XSDST/4QEX202CRSTD/CERN/SUMT/C001-300
*   Description  :  Extended Short DST simulation 99_a1 200 , CERN
*---
*   Comments     : in total 299043 events in 300 files time stamp: Fri Jun 22 23:32:00 2001
*---
*
*
*
*
*
FILE = /castor/cern.ch/delphi/MCprod/cern/4qex202cr/v99_4/200/4qex202cr_std_200_sk1_5001.xsdst ! RUN = 5001 ! NEVT = 1000
FILE = /castor/cern.ch/delphi/MCprod/cern/4qex202cr/v99_4/200/4qex202cr_std_200_sk1_5002.xsdst ! RUN = 5002 ! NEVT = 1000
FILE = /castor/cern.ch/delphi/MCprod/cern/4qex202cr/v99_4/200/4qex202cr_std_200_sk1_5003.xsdst ! RUN = 5003 ! NEVT = 1000
FILE = /castor/cern.ch/delphi/MCprod/cern/4qex202cr/v99_4/200/4qex202cr_std_200_sk1_5004.xsdst ! RUN = 5004 ! NEVT = 1000
FILE = /castor/cern.ch/delphi/MCprod/cern/4qex202cr/v99_4/200/4qex202cr_std_200_sk1_5005.xsdst ! RUN = 5005 ! NEVT = 1000
FILE = /castor/cern.ch/delphi/MCprod/cern/4qex202cr/v99_4/200/4qex202cr_std_200_sk1_5006.xsdst ! RUN = 5006 ! NEVT = 1000
FILE = /castor/cern.ch/delphi/MCprod/cern/4qex202cr/v99_4/200/4qex202cr_std_200_sk1_5007.xsdst ! RUN = 5007 ! NEVT = 1000
FILE = /castor/cern.ch/delphi/MCprod/cern/4qex202cr/v99_4/200/4qex202cr_std_200_sk1_5008.xsdst ! RUN = 5008 ! NEVT = 1000
FILE = /castor/cern.ch/delphi/MCprod/cern/4qex202cr/v99_4/200/4qex202cr_std_200_sk1_5009.xsdst ! RUN = 5009 ! NEVT = 1000
FILE = /castor/cern.ch/delphi/MCprod/cern/4qex202cr/v99_4/200/4qex202cr_std_200_sk1_5010.xsdst ! RUN = 5010 ! NEVT = 1000
FILE = /castor/cern.ch/delphi/MCprod/cern/4qex202cr/v99_4/200/4qex202cr_std_200_sk1_5011.xsdst ! RUN = 5011 ! NEVT = 1000
FILE = /castor/cern.ch/delphi/MCprod/cern/4qex202cr/v99_4/200/4qex202cr_std_200_sk1_5012.xsdst ! RUN = 5012 ! NEVT = 1000
FILE = /castor/cern.ch/delphi/MCprod/cern/4qex202cr/v99_4/200/4qex202cr_std_200_sk1_5013.xsdst ! RUN = 5013 ! NEVT = 1000
FILE = /castor/cern.ch/delphi/MCprod/cern/4qex202cr/v99_4/200/4qex202cr_std_200_sk1_5014.xsdst ! RUN = 5014 ! NEVT = 1000
FILE = /castor/cern.ch/delphi/MCprod/cern/4qex202cr/v99_4/200/4qex202cr_std_200_sk1_5015.xsdst ! RUN = 5015 ! NEVT = 999
FILE = /castor/cern.ch/delphi/MCprod/cern/4qex202cr/v99_4/200/4qex202cr_std_200_sk1_5016.xsdst ! RUN = 5016 ! NEVT = 1000
FILE = /castor/cern.ch/delphi/MCprod/cern/4qex202cr/v99_4/200/4qex202cr_std_200_sk1_5017.xsdst ! RUN = 5017 ! NEVT = 999
FILE = /castor/cern.ch/delphi/MCprod/cern/4qex202cr/v99_4/200/4qex202cr_std_200_sk1_5018.xsdst ! RUN = 5018 ! NEVT = 1000
FILE = /castor/cern.ch/delphi/MCprod/cern/4qex202cr/v99_4/200/4qex202cr_std_200_sk1_5019.xsdst ! RUN = 5019 ! NEVT = 1000
FILE = /castor/cern.ch/delphi/MCprod/cern/4qex202cr/v99_4/200/4qex202cr_std_200_sk1_5020.xsdst ! RUN = 5020 ! NEVT = 1000
FILE = /castor/cern.ch/delphi/MCprod/cern/4qex202cr/v99_4/200/4qex202cr_std_200_sk1_5021.xsdst ! RUN = 5021 ! NEVT = 141
FILE = /castor/cern.ch/delphi/MCprod/cern/4qex202cr/v99_4/200/4qex202cr_std_200_sk1_5022.xsdst ! RUN = 5022 ! NEVT = 1000
FILE = /castor/cern.ch/delphi/MCprod/cern/4qex202cr/v99_4/200/4qex202cr_std_200_sk1_5023.xsdst ! RUN = 5023 ! NEVT = 1000
FILE = /castor/cern.ch/delphi/MCprod/cern/4qex202cr/v99_4/200/4qex202cr_std_200_sk1_5024.xsdst ! RUN = 5024 ! NEVT = 1000
FILE = /castor/cern.ch/delphi/MCprod/cern/4qex202cr/v99_4/200/4qex202cr_std_200_sk1_5025.xsdst ! RUN = 5025 ! NEVT = 1000
FILE = /castor/cern.ch/delphi/MCprod/cern/4qex202cr/v99_4/200/4qex202cr_std_200_sk1_5026.xsdst ! RUN = 5026 ! NEVT = 1000
FILE = /castor/cern.ch/delphi/MCprod/cern/4qex202cr/v99_4/200/4qex202cr_std_200_sk1_5027.xsdst ! RUN = 5027 ! NEVT = 1000
FILE = /castor/cern.ch/delphi/MCprod/cern/4qex202cr/v99_4/200/4qex202cr_std_200_sk1_5028.xsdst ! RUN = 5028 ! NEVT = 1000
FILE = /castor/cern.ch/delphi/MCprod/cern/4qex202cr/v99_4/200/4qex202cr_std_200_sk1_5029.xsdst ! RUN = 5029 ! NEVT = 1000
FILE = /castor/cern.ch/delphi/MCprod/cern/4qex202cr/v99_4/200/4qex202cr_std_200_sk1_5030.xsdst ! RUN = 5030 ! NEVT = 998
FILE = /castor/cern.ch/delphi/MCprod/cern/4qex202cr/v99_4/200/4qex202cr_std_200_sk1_5031.xsdst ! RUN = 5031 ! NEVT = 1000
FILE = /castor/cern.ch/delphi/MCprod/cern/4qex202cr/v99_4/200/4qex202cr_std_200_sk1_5032.xsdst ! RUN = 5032 ! NEVT = 1000
FILE = /castor/cern.ch/delphi/MCprod/cern/4qex202cr/v99_4/200/4qex202cr_std_200_sk1_5033.xsdst ! RUN = 5033 ! NEVT = 1000
FILE = /castor/cern.ch/delphi/MCprod/cern/4qex202cr/v99_4/200/4qex202cr_std_200_sk1_5034.xsdst ! RUN = 5034 ! NEVT = 1000
FILE = /castor/cern.ch/delphi/MCprod/cern/4qex202cr/v99_4/200/4qex202cr_std_200_sk1_5035.xsdst ! RUN = 5035 ! NEVT = 999
FILE = /castor/cern.ch/delphi/MCprod/cern/4qex202cr/v99_4/200/4qex202cr_std_200_sk1_5036.xsdst ! RUN = 5036 ! NEVT = 1000
FILE = /castor/cern.ch/delphi/MCprod/cern/4qex202cr/v99_4/200/4qex202cr_std_200_sk1_5037.xsdst ! RUN = 5037 ! NEVT = 1000
FILE = /castor/cern.ch/delphi/MCprod/cern/4qex202cr/v99_4/200/4qex202cr_std_200_sk1_5038.xsdst ! RUN = 5038 ! NEVT = 1000
FILE = /castor/cern.ch/delphi/MCprod/cern/4qex202cr/v99_4/200/4qex202cr_std_200_sk1_5039.xsdst ! RUN = 5039 ! NEVT = 1000
FILE = /castor/cern.ch/delphi/MCprod/cern/4qex202cr/v99_4/200/4qex202cr_std_200_sk1_5040.xsdst ! RUN = 5040 ! NEVT = 1000
FILE = /castor/cern.ch/delphi/MCprod/cern/4qex202cr/v99_4/200/4qex202cr_std_200_sk1_5041.xsdst ! RUN = 5041 ! NEVT = 1000
FILE = /castor/cern.ch/delphi/MCprod/cern/4qex202cr/v99_4/200/4qex202cr_std_200_sk1_5042.xsdst ! RUN = 5042 ! NEVT = 1000
FILE = /castor/cern.ch/delphi/MCprod/cern/4qex202cr/v99_4/200/4qex202cr_std_200_sk1_5043.xsdst ! RUN = 5043 ! NEVT = 999
FILE = /castor/cern.ch/delphi/MCprod/cern/4qex202cr/v99_4/200/4qex202cr_std_200_sk1_5044.xsdst ! RUN = 5044 ! NEVT = 1000
FILE = /castor/cern.ch/delphi/MCprod/cern/4qex202cr/v99_4/200/4qex202cr_std_200_sk1_5045.xsdst ! RUN = 5045 ! NEVT = 999
FILE = /castor/cern.ch/delphi/MCprod/cern/4qex202cr/v99_4/200/4qex202cr_std_200_sk1_5046.xsdst ! RUN = 5046 ! NEVT = 999
FILE = /castor/cern.ch/delphi/MCprod/cern/4qex202cr/v99_4/200/4qex202cr_std_200_sk1_5047.xsdst ! RUN = 5047 ! NEVT = 1000
FILE = /castor/cern.ch/delphi/MCprod/cern/4qex202cr/v99_4/200/4qex202cr_std_200_sk1_5048.xsdst ! RUN = 5048 ! NEVT = 999
FILE = /castor/cern.ch/delphi/MCprod/cern/4qex202cr/v99_4/200/4qex202cr_std_200_sk1_5049.xsdst ! RUN = 5049 ! NEVT = 1000
FILE = /castor/cern.ch/delphi/MCprod/cern/4qex202cr/v99_4/200/4qex202cr_std_200_sk1_5050.xsdst ! RUN = 5050 ! NEVT = 999
FILE = /castor/cern.ch/delphi/MCprod/cern/4qex202cr/v99_4/200/4qex202cr_std_200_sk1_5051.xsdst ! RUN = 5051 ! NEVT = 1000
FILE = /castor/cern.ch/delphi/MCprod/cern/4qex202cr/v99_4/200/4qex202cr_std_200_sk1_5052.xsdst ! RUN = 5052 ! NEVT = 999
FILE = /castor/cern.ch/delphi/MCprod/cern/4qex202cr/v99_4/200/4qex202cr_std_200_sk1_5053.xsdst ! RUN = 5053 ! NEVT = 1000
FILE = /castor/cern.ch/delphi/MCprod/cern/4qex202cr/v99_4/200/4qex202cr_std_200_sk1_5054.xsdst ! RUN = 5054 ! NEVT = 1000
FILE = /castor/cern.ch/delphi/MCprod/cern/4qex202cr/v99_4/200/4qex202cr_std_200_sk1_5055.xsdst ! RUN = 5055 ! NEVT = 1000
FILE = /castor/cern.ch/delphi/MCprod/cern/4qex202cr/v99_4/200/4qex202cr_std_200_sk1_5056.xsdst ! RUN = 5056 ! NEVT = 1000
FILE = /castor/cern.ch/delphi/MCprod/cern/4qex202cr/v99_4/200/4qex202cr_std_200_sk1_5057.xsdst ! RUN = 5057 ! NEVT = 999
FILE = /castor/cern.ch/delphi/MCprod/cern/4qex202cr/v99_4/200/4qex202cr_std_200_sk1_5058.xsdst ! RUN = 5058 ! NEVT = 1000
FILE = /castor/cern.ch/delphi/MCprod/cern/4qex202cr/v99_4/200/4qex202cr_std_200_sk1_5059.xsdst ! RUN = 5059 ! NEVT = 1000
FILE = /castor/cern.ch/delphi/MCprod/cern/4qex202cr/v99_4/200/4qex202cr_std_200_sk1_5060.xsdst ! RUN = 5060 ! NEVT = 1000
FILE = /castor/cern.ch/delphi/MCprod/cern/4qex202cr/v99_4/200/4qex202cr_std_200_sk1_5061.xsdst ! RUN = 5061 ! NEVT = 999
FILE = /castor/cern.ch/delphi/MCprod/cern/4qex202cr/v99_4/200/4qex202cr_std_200_sk1_5062.xsdst ! RUN = 5062 ! NEVT = 1000
FILE = /castor/cern.ch/delphi/MCprod/cern/4qex202cr/v99_4/200/4qex202cr_std_200_sk1_5063.xsdst ! RUN = 5063 ! NEVT = 1000
FILE = /castor/cern.ch/delphi/MCprod/cern/4qex202cr/v99_4/200/4qex202cr_std_200_sk1_5064.xsdst ! RUN = 5064 ! NEVT = 1000
FILE = /castor/cern.ch/delphi/MCprod/cern/4qex202cr/v99_4/200/4qex202cr_std_200_sk1_5065.xsdst ! RUN = 5065 ! NEVT = 1000
FILE = /castor/cern.ch/delphi/MCprod/cern/4qex202cr/v99_4/200/4qex202cr_std_200_sk1_5066.xsdst ! RUN = 5066 ! NEVT = 999
FILE = /castor/cern.ch/delphi/MCprod/cern/4qex202cr/v99_4/200/4qex202cr_std_200_sk1_5067.xsdst ! RUN = 5067 ! NEVT = 1000
FILE = /castor/cern.ch/delphi/MCprod/cern/4qex202cr/v99_4/200/4qex202cr_std_200_sk1_5068.xsdst ! RUN = 5068 ! NEVT = 999
FILE = /castor/cern.ch/delphi/MCprod/cern/4qex202cr/v99_4/200/4qex202cr_std_200_sk1_5069.xsdst ! RUN = 5069 ! NEVT = 999
FILE = /castor/cern.ch/delphi/MCprod/cern/4qex202cr/v99_4/200/4qex202cr_std_200_sk1_5070.xsdst ! RUN = 5070 ! NEVT = 999
FILE = /castor/cern.ch/delphi/MCprod/cern/4qex202cr/v99_4/200/4qex202cr_std_200_sk1_5071.xsdst ! RUN = 5071 ! NEVT = 1000
FILE = /castor/cern.ch/delphi/MCprod/cern/4qex202cr/v99_4/200/4qex202cr_std_200_sk1_5072.xsdst ! RUN = 5072 ! NEVT = 999
FILE = /castor/cern.ch/delphi/MCprod/cern/4qex202cr/v99_4/200/4qex202cr_std_200_sk1_5073.xsdst ! RUN = 5073 ! NEVT = 998
FILE = /castor/cern.ch/delphi/MCprod/cern/4qex202cr/v99_4/200/4qex202cr_std_200_sk1_5074.xsdst ! RUN = 5074 ! NEVT = 1000
FILE = /castor/cern.ch/delphi/MCprod/cern/4qex202cr/v99_4/200/4qex202cr_std_200_sk1_5075.xsdst ! RUN = 5075 ! NEVT = 999
FILE = /castor/cern.ch/delphi/MCprod/cern/4qex202cr/v99_4/200/4qex202cr_std_200_sk1_5076.xsdst ! RUN = 5076 ! NEVT = 1000
FILE = /castor/cern.ch/delphi/MCprod/cern/4qex202cr/v99_4/200/4qex202cr_std_200_sk1_5077.xsdst ! RUN = 5077 ! NEVT = 1000
FILE = /castor/cern.ch/delphi/MCprod/cern/4qex202cr/v99_4/200/4qex202cr_std_200_sk1_5078.xsdst ! RUN = 5078 ! NEVT = 1000
FILE = /castor/cern.ch/delphi/MCprod/cern/4qex202cr/v99_4/200/4qex202cr_std_200_sk1_5079.xsdst ! RUN = 5079 ! NEVT = 1000
FILE = /castor/cern.ch/delphi/MCprod/cern/4qex202cr/v99_4/200/4qex202cr_std_200_sk1_5080.xsdst ! RUN = 5080 ! NEVT = 1000
FILE = /castor/cern.ch/delphi/MCprod/cern/4qex202cr/v99_4/200/4qex202cr_std_200_sk1_5081.xsdst ! RUN = 5081 ! NEVT = 999
FILE = /castor/cern.ch/delphi/MCprod/cern/4qex202cr/v99_4/200/4qex202cr_std_200_sk1_5082.xsdst ! RUN = 5082 ! NEVT = 1000
FILE = /castor/cern.ch/delphi/MCprod/cern/4qex202cr/v99_4/200/4qex202cr_std_200_sk1_5083.xsdst ! RUN = 5083 ! NEVT = 1000
FILE = /castor/cern.ch/delphi/MCprod/cern/4qex202cr/v99_4/200/4qex202cr_std_200_sk1_5084.xsdst ! RUN = 5084 ! NEVT = 999
FILE = /castor/cern.ch/delphi/MCprod/cern/4qex202cr/v99_4/200/4qex202cr_std_200_sk1_5085.xsdst ! RUN = 5085 ! NEVT = 1000
FILE = /castor/cern.ch/delphi/MCprod/cern/4qex202cr/v99_4/200/4qex202cr_std_200_sk1_5086.xsdst ! RUN = 5086 ! NEVT = 999
FILE = /castor/cern.ch/delphi/MCprod/cern/4qex202cr/v99_4/200/4qex202cr_std_200_sk1_5087.xsdst ! RUN = 5087 ! NEVT = 1000
FILE = /castor/cern.ch/delphi/MCprod/cern/4qex202cr/v99_4/200/4qex202cr_std_200_sk1_5088.xsdst ! RUN = 5088 ! NEVT = 1000
FILE = /castor/cern.ch/delphi/MCprod/cern/4qex202cr/v99_4/200/4qex202cr_std_200_sk1_5089.xsdst ! RUN = 5089 ! NEVT = 1000
FILE = /castor/cern.ch/delphi/MCprod/cern/4qex202cr/v99_4/200/4qex202cr_std_200_sk1_5090.xsdst ! RUN = 5090 ! NEVT = 998
FILE = /castor/cern.ch/delphi/MCprod/cern/4qex202cr/v99_4/200/4qex202cr_std_200_sk1_5091.xsdst ! RUN = 5091 ! NEVT = 1000
FILE = /castor/cern.ch/delphi/MCprod/cern/4qex202cr/v99_4/200/4qex202cr_std_200_sk1_5092.xsdst ! RUN = 5092 ! NEVT = 1000
FILE = /castor/cern.ch/delphi/MCprod/cern/4qex202cr/v99_4/200/4qex202cr_std_200_sk1_5093.xsdst ! RUN = 5093 ! NEVT = 1000
FILE = /castor/cern.ch/delphi/MCprod/cern/4qex202cr/v99_4/200/4qex202cr_std_200_sk1_5094.xsdst ! RUN = 5094 ! NEVT = 999
FILE = /castor/cern.ch/delphi/MCprod/cern/4qex202cr/v99_4/200/4qex202cr_std_200_sk1_5095.xsdst ! RUN = 5095 ! NEVT = 1000
FILE = /castor/cern.ch/delphi/MCprod/cern/4qex202cr/v99_4/200/4qex202cr_std_200_sk1_5096.xsdst ! RUN = 5096 ! NEVT = 1000
FILE = /castor/cern.ch/delphi/MCprod/cern/4qex202cr/v99_4/200/4qex202cr_std_200_sk1_5097.xsdst ! RUN = 5097 ! NEVT = 1000
FILE = /castor/cern.ch/delphi/MCprod/cern/4qex202cr/v99_4/200/4qex202cr_std_200_sk1_5098.xsdst ! RUN = 5098 ! NEVT = 1000
FILE = /castor/cern.ch/delphi/MCprod/cern/4qex202cr/v99_4/200/4qex202cr_std_200_sk1_5099.xsdst ! RUN = 5099 ! NEVT = 1000
FILE = /castor/cern.ch/delphi/MCprod/cern/4qex202cr/v99_4/200/4qex202cr_std_200_sk1_5100.xsdst ! RUN = 5100 ! NEVT = 1000
FILE = /castor/cern.ch/delphi/MCprod/cern/4qex202cr/v99_4/200/4qex202cr_std_200_sk1_5101.xsdst ! RUN = 5101 ! NEVT = 999
FILE = /castor/cern.ch/delphi/MCprod/cern/4qex202cr/v99_4/200/4qex202cr_std_200_sk1_5102.xsdst ! RUN = 5102 ! NEVT = 1000
FILE = /castor/cern.ch/delphi/MCprod/cern/4qex202cr/v99_4/200/4qex202cr_std_200_sk1_5103.xsdst ! RUN = 5103 ! NEVT = 1000
FILE = /castor/cern.ch/delphi/MCprod/cern/4qex202cr/v99_4/200/4qex202cr_std_200_sk1_5104.xsdst ! RUN = 5104 ! NEVT = 1000
FILE = /castor/cern.ch/delphi/MCprod/cern/4qex202cr/v99_4/200/4qex202cr_std_200_sk1_5105.xsdst ! RUN = 5105 ! NEVT = 998
FILE = /castor/cern.ch/delphi/MCprod/cern/4qex202cr/v99_4/200/4qex202cr_std_200_sk1_5106.xsdst ! RUN = 5106 ! NEVT = 1000
FILE = /castor/cern.ch/delphi/MCprod/cern/4qex202cr/v99_4/200/4qex202cr_std_200_sk1_5107.xsdst ! RUN = 5107 ! NEVT = 1000
FILE = /castor/cern.ch/delphi/MCprod/cern/4qex202cr/v99_4/200/4qex202cr_std_200_sk1_5108.xsdst ! RUN = 5108 ! NEVT = 1000
FILE = /castor/cern.ch/delphi/MCprod/cern/4qex202cr/v99_4/200/4qex202cr_std_200_sk1_5109.xsdst ! RUN = 5109 ! NEVT = 1000
FILE = /castor/cern.ch/delphi/MCprod/cern/4qex202cr/v99_4/200/4qex202cr_std_200_sk1_5110.xsdst ! RUN = 5110 ! NEVT = 1000
FILE = /castor/cern.ch/delphi/MCprod/cern/4qex202cr/v99_4/200/4qex202cr_std_200_sk1_5111.xsdst ! RUN = 5111 ! NEVT = 1000
FILE = /castor/cern.ch/delphi/MCprod/cern/4qex202cr/v99_4/200/4qex202cr_std_200_sk1_5112.xsdst ! RUN = 5112 ! NEVT = 1000
FILE = /castor/cern.ch/delphi/MCprod/cern/4qex202cr/v99_4/200/4qex202cr_std_200_sk1_5113.xsdst ! RUN = 5113 ! NEVT = 1000
FILE = /castor/cern.ch/delphi/MCprod/cern/4qex202cr/v99_4/200/4qex202cr_std_200_sk1_5114.xsdst ! RUN = 5114 ! NEVT = 1000
FILE = /castor/cern.ch/delphi/MCprod/cern/4qex202cr/v99_4/200/4qex202cr_std_200_sk1_5115.xsdst ! RUN = 5115 ! NEVT = 1000
FILE = /castor/cern.ch/delphi/MCprod/cern/4qex202cr/v99_4/200/4qex202cr_std_200_sk1_5116.xsdst ! RUN = 5116 ! NEVT = 1000
FILE = /castor/cern.ch/delphi/MCprod/cern/4qex202cr/v99_4/200/4qex202cr_std_200_sk1_5117.xsdst ! RUN = 5117 ! NEVT = 1000
FILE = /castor/cern.ch/delphi/MCprod/cern/4qex202cr/v99_4/200/4qex202cr_std_200_sk1_5118.xsdst ! RUN = 5118 ! NEVT = 999
FILE = /castor/cern.ch/delphi/MCprod/cern/4qex202cr/v99_4/200/4qex202cr_std_200_sk1_5119.xsdst ! RUN = 5119 ! NEVT = 1000
FILE = /castor/cern.ch/delphi/MCprod/cern/4qex202cr/v99_4/200/4qex202cr_std_200_sk1_5120.xsdst ! RUN = 5120 ! NEVT = 999
FILE = /castor/cern.ch/delphi/MCprod/cern/4qex202cr/v99_4/200/4qex202cr_std_200_sk1_5121.xsdst ! RUN = 5121 ! NEVT = 999
FILE = /castor/cern.ch/delphi/MCprod/cern/4qex202cr/v99_4/200/4qex202cr_std_200_sk1_5122.xsdst ! RUN = 5122 ! NEVT = 999
FILE = /castor/cern.ch/delphi/MCprod/cern/4qex202cr/v99_4/200/4qex202cr_std_200_sk1_5123.xsdst ! RUN = 5123 ! NEVT = 999
FILE = /castor/cern.ch/delphi/MCprod/cern/4qex202cr/v99_4/200/4qex202cr_std_200_sk1_5124.xsdst ! RUN = 5124 ! NEVT = 1000
FILE = /castor/cern.ch/delphi/MCprod/cern/4qex202cr/v99_4/200/4qex202cr_std_200_sk1_5125.xsdst ! RUN = 5125 ! NEVT = 1000
FILE = /castor/cern.ch/delphi/MCprod/cern/4qex202cr/v99_4/200/4qex202cr_std_200_sk1_5126.xsdst ! RUN = 5126 ! NEVT = 1000
FILE = /castor/cern.ch/delphi/MCprod/cern/4qex202cr/v99_4/200/4qex202cr_std_200_sk1_5127.xsdst ! RUN = 5127 ! NEVT = 999
FILE = /castor/cern.ch/delphi/MCprod/cern/4qex202cr/v99_4/200/4qex202cr_std_200_sk1_5128.xsdst ! RUN = 5128 ! NEVT = 1000
FILE = /castor/cern.ch/delphi/MCprod/cern/4qex202cr/v99_4/200/4qex202cr_std_200_sk1_5129.xsdst ! RUN = 5129 ! NEVT = 1000
FILE = /castor/cern.ch/delphi/MCprod/cern/4qex202cr/v99_4/200/4qex202cr_std_200_sk1_5130.xsdst ! RUN = 5130 ! NEVT = 999
FILE = /castor/cern.ch/delphi/MCprod/cern/4qex202cr/v99_4/200/4qex202cr_std_200_sk1_5131.xsdst ! RUN = 5131 ! NEVT = 1000
FILE = /castor/cern.ch/delphi/MCprod/cern/4qex202cr/v99_4/200/4qex202cr_std_200_sk1_5132.xsdst ! RUN = 5132 ! NEVT = 1000
FILE = /castor/cern.ch/delphi/MCprod/cern/4qex202cr/v99_4/200/4qex202cr_std_200_sk1_5133.xsdst ! RUN = 5133 ! NEVT = 999
FILE = /castor/cern.ch/delphi/MCprod/cern/4qex202cr/v99_4/200/4qex202cr_std_200_sk1_5134.xsdst ! RUN = 5134 ! NEVT = 1000
FILE = /castor/cern.ch/delphi/MCprod/cern/4qex202cr/v99_4/200/4qex202cr_std_200_sk1_5135.xsdst ! RUN = 5135 ! NEVT = 1000
FILE = /castor/cern.ch/delphi/MCprod/cern/4qex202cr/v99_4/200/4qex202cr_std_200_sk1_5136.xsdst ! RUN = 5136 ! NEVT = 1000
FILE = /castor/cern.ch/delphi/MCprod/cern/4qex202cr/v99_4/200/4qex202cr_std_200_sk1_5137.xsdst ! RUN = 5137 ! NEVT = 1000
FILE = /castor/cern.ch/delphi/MCprod/cern/4qex202cr/v99_4/200/4qex202cr_std_200_sk1_5138.xsdst ! RUN = 5138 ! NEVT = 999
FILE = /castor/cern.ch/delphi/MCprod/cern/4qex202cr/v99_4/200/4qex202cr_std_200_sk1_5139.xsdst ! RUN = 5139 ! NEVT = 1000
FILE = /castor/cern.ch/delphi/MCprod/cern/4qex202cr/v99_4/200/4qex202cr_std_200_sk1_5140.xsdst ! RUN = 5140 ! NEVT = 1000
FILE = /castor/cern.ch/delphi/MCprod/cern/4qex202cr/v99_4/200/4qex202cr_std_200_sk1_5141.xsdst ! RUN = 5141 ! NEVT = 1000
FILE = /castor/cern.ch/delphi/MCprod/cern/4qex202cr/v99_4/200/4qex202cr_std_200_sk1_5142.xsdst ! RUN = 5142 ! NEVT = 999
FILE = /castor/cern.ch/delphi/MCprod/cern/4qex202cr/v99_4/200/4qex202cr_std_200_sk1_5143.xsdst ! RUN = 5143 ! NEVT = 999
FILE = /castor/cern.ch/delphi/MCprod/cern/4qex202cr/v99_4/200/4qex202cr_std_200_sk1_5144.xsdst ! RUN = 5144 ! NEVT = 1000
FILE = /castor/cern.ch/delphi/MCprod/cern/4qex202cr/v99_4/200/4qex202cr_std_200_sk1_5145.xsdst ! RUN = 5145 ! NEVT = 1000
FILE = /castor/cern.ch/delphi/MCprod/cern/4qex202cr/v99_4/200/4qex202cr_std_200_sk1_5146.xsdst ! RUN = 5146 ! NEVT = 1000
FILE = /castor/cern.ch/delphi/MCprod/cern/4qex202cr/v99_4/200/4qex202cr_std_200_sk1_5147.xsdst ! RUN = 5147 ! NEVT = 1000
FILE = /castor/cern.ch/delphi/MCprod/cern/4qex202cr/v99_4/200/4qex202cr_std_200_sk1_5148.xsdst ! RUN = 5148 ! NEVT = 999
FILE = /castor/cern.ch/delphi/MCprod/cern/4qex202cr/v99_4/200/4qex202cr_std_200_sk1_5149.xsdst ! RUN = 5149 ! NEVT = 999
FILE = /castor/cern.ch/delphi/MCprod/cern/4qex202cr/v99_4/200/4qex202cr_std_200_sk1_5150.xsdst ! RUN = 5150 ! NEVT = 999
FILE = /castor/cern.ch/delphi/MCprod/cern/4qex202cr/v99_4/200/4qex202cr_std_200_sk1_5151.xsdst ! RUN = 5151 ! NEVT = 1000
FILE = /castor/cern.ch/delphi/MCprod/cern/4qex202cr/v99_4/200/4qex202cr_std_200_sk1_5152.xsdst ! RUN = 5152 ! NEVT = 1000
FILE = /castor/cern.ch/delphi/MCprod/cern/4qex202cr/v99_4/200/4qex202cr_std_200_sk1_5153.xsdst ! RUN = 5153 ! NEVT = 999
FILE = /castor/cern.ch/delphi/MCprod/cern/4qex202cr/v99_4/200/4qex202cr_std_200_sk1_5154.xsdst ! RUN = 5154 ! NEVT = 1000
FILE = /castor/cern.ch/delphi/MCprod/cern/4qex202cr/v99_4/200/4qex202cr_std_200_sk1_5155.xsdst ! RUN = 5155 ! NEVT = 1000
FILE = /castor/cern.ch/delphi/MCprod/cern/4qex202cr/v99_4/200/4qex202cr_std_200_sk1_5156.xsdst ! RUN = 5156 ! NEVT = 1000
FILE = /castor/cern.ch/delphi/MCprod/cern/4qex202cr/v99_4/200/4qex202cr_std_200_sk1_5157.xsdst ! RUN = 5157 ! NEVT = 1000
FILE = /castor/cern.ch/delphi/MCprod/cern/4qex202cr/v99_4/200/4qex202cr_std_200_sk1_5158.xsdst ! RUN = 5158 ! NEVT = 1000
FILE = /castor/cern.ch/delphi/MCprod/cern/4qex202cr/v99_4/200/4qex202cr_std_200_sk1_5159.xsdst ! RUN = 5159 ! NEVT = 1000
FILE = /castor/cern.ch/delphi/MCprod/cern/4qex202cr/v99_4/200/4qex202cr_std_200_sk1_5160.xsdst ! RUN = 5160 ! NEVT = 999
FILE = /castor/cern.ch/delphi/MCprod/cern/4qex202cr/v99_4/200/4qex202cr_std_200_sk1_5161.xsdst ! RUN = 5161 ! NEVT = 998
FILE = /castor/cern.ch/delphi/MCprod/cern/4qex202cr/v99_4/200/4qex202cr_std_200_sk1_5162.xsdst ! RUN = 5162 ! NEVT = 1000
FILE = /castor/cern.ch/delphi/MCprod/cern/4qex202cr/v99_4/200/4qex202cr_std_200_sk1_5163.xsdst ! RUN = 5163 ! NEVT = 1000
FILE = /castor/cern.ch/delphi/MCprod/cern/4qex202cr/v99_4/200/4qex202cr_std_200_sk1_5164.xsdst ! RUN = 5164 ! NEVT = 1000
FILE = /castor/cern.ch/delphi/MCprod/cern/4qex202cr/v99_4/200/4qex202cr_std_200_sk1_5165.xsdst ! RUN = 5165 ! NEVT = 1000
FILE = /castor/cern.ch/delphi/MCprod/cern/4qex202cr/v99_4/200/4qex202cr_std_200_sk1_5166.xsdst ! RUN = 5166 ! NEVT = 1000
FILE = /castor/cern.ch/delphi/MCprod/cern/4qex202cr/v99_4/200/4qex202cr_std_200_sk1_5167.xsdst ! RUN = 5167 ! NEVT = 1000
FILE = /castor/cern.ch/delphi/MCprod/cern/4qex202cr/v99_4/200/4qex202cr_std_200_sk1_5168.xsdst ! RUN = 5168 ! NEVT = 999
FILE = /castor/cern.ch/delphi/MCprod/cern/4qex202cr/v99_4/200/4qex202cr_std_200_sk1_5169.xsdst ! RUN = 5169 ! NEVT = 1000
FILE = /castor/cern.ch/delphi/MCprod/cern/4qex202cr/v99_4/200/4qex202cr_std_200_sk1_5170.xsdst ! RUN = 5170 ! NEVT = 1000
FILE = /castor/cern.ch/delphi/MCprod/cern/4qex202cr/v99_4/200/4qex202cr_std_200_sk1_5171.xsdst ! RUN = 5171 ! NEVT = 999
FILE = /castor/cern.ch/delphi/MCprod/cern/4qex202cr/v99_4/200/4qex202cr_std_200_sk1_5172.xsdst ! RUN = 5172 ! NEVT = 1000
FILE = /castor/cern.ch/delphi/MCprod/cern/4qex202cr/v99_4/200/4qex202cr_std_200_sk1_5173.xsdst ! RUN = 5173 ! NEVT = 1000
FILE = /castor/cern.ch/delphi/MCprod/cern/4qex202cr/v99_4/200/4qex202cr_std_200_sk1_5174.xsdst ! RUN = 5174 ! NEVT = 999
FILE = /castor/cern.ch/delphi/MCprod/cern/4qex202cr/v99_4/200/4qex202cr_std_200_sk1_5175.xsdst ! RUN = 5175 ! NEVT = 1000
FILE = /castor/cern.ch/delphi/MCprod/cern/4qex202cr/v99_4/200/4qex202cr_std_200_sk1_5176.xsdst ! RUN = 5176 ! NEVT = 1000
FILE = /castor/cern.ch/delphi/MCprod/cern/4qex202cr/v99_4/200/4qex202cr_std_200_sk1_5177.xsdst ! RUN = 5177 ! NEVT = 1000
FILE = /castor/cern.ch/delphi/MCprod/cern/4qex202cr/v99_4/200/4qex202cr_std_200_sk1_5178.xsdst ! RUN = 5178 ! NEVT = 1000
FILE = /castor/cern.ch/delphi/MCprod/cern/4qex202cr/v99_4/200/4qex202cr_std_200_sk1_5179.xsdst ! RUN = 5179 ! NEVT = 1000
FILE = /castor/cern.ch/delphi/MCprod/cern/4qex202cr/v99_4/200/4qex202cr_std_200_sk1_5180.xsdst ! RUN = 5180 ! NEVT = 999
FILE = /castor/cern.ch/delphi/MCprod/cern/4qex202cr/v99_4/200/4qex202cr_std_200_sk1_5181.xsdst ! RUN = 5181 ! NEVT = 1000
FILE = /castor/cern.ch/delphi/MCprod/cern/4qex202cr/v99_4/200/4qex202cr_std_200_sk1_5182.xsdst ! RUN = 5182 ! NEVT = 1000
FILE = /castor/cern.ch/delphi/MCprod/cern/4qex202cr/v99_4/200/4qex202cr_std_200_sk1_5183.xsdst ! RUN = 5183 ! NEVT = 998
FILE = /castor/cern.ch/delphi/MCprod/cern/4qex202cr/v99_4/200/4qex202cr_std_200_sk1_5184.xsdst ! RUN = 5184 ! NEVT = 998
FILE = /castor/cern.ch/delphi/MCprod/cern/4qex202cr/v99_4/200/4qex202cr_std_200_sk1_5185.xsdst ! RUN = 5185 ! NEVT = 999
FILE = /castor/cern.ch/delphi/MCprod/cern/4qex202cr/v99_4/200/4qex202cr_std_200_sk1_5186.xsdst ! RUN = 5186 ! NEVT = 1000
FILE = /castor/cern.ch/delphi/MCprod/cern/4qex202cr/v99_4/200/4qex202cr_std_200_sk1_5187.xsdst ! RUN = 5187 ! NEVT = 1000
FILE = /castor/cern.ch/delphi/MCprod/cern/4qex202cr/v99_4/200/4qex202cr_std_200_sk1_5188.xsdst ! RUN = 5188 ! NEVT = 1000
FILE = /castor/cern.ch/delphi/MCprod/cern/4qex202cr/v99_4/200/4qex202cr_std_200_sk1_5189.xsdst ! RUN = 5189 ! NEVT = 999
FILE = /castor/cern.ch/delphi/MCprod/cern/4qex202cr/v99_4/200/4qex202cr_std_200_sk1_5190.xsdst ! RUN = 5190 ! NEVT = 1000
FILE = /castor/cern.ch/delphi/MCprod/cern/4qex202cr/v99_4/200/4qex202cr_std_200_sk1_5191.xsdst ! RUN = 5191 ! NEVT = 1000
FILE = /castor/cern.ch/delphi/MCprod/cern/4qex202cr/v99_4/200/4qex202cr_std_200_sk1_5192.xsdst ! RUN = 5192 ! NEVT = 1000
FILE = /castor/cern.ch/delphi/MCprod/cern/4qex202cr/v99_4/200/4qex202cr_std_200_sk1_5193.xsdst ! RUN = 5193 ! NEVT = 1000
FILE = /castor/cern.ch/delphi/MCprod/cern/4qex202cr/v99_4/200/4qex202cr_std_200_sk1_5194.xsdst ! RUN = 5194 ! NEVT = 999
FILE = /castor/cern.ch/delphi/MCprod/cern/4qex202cr/v99_4/200/4qex202cr_std_200_sk1_5195.xsdst ! RUN = 5195 ! NEVT = 1000
FILE = /castor/cern.ch/delphi/MCprod/cern/4qex202cr/v99_4/200/4qex202cr_std_200_sk1_5196.xsdst ! RUN = 5196 ! NEVT = 1000
FILE = /castor/cern.ch/delphi/MCprod/cern/4qex202cr/v99_4/200/4qex202cr_std_200_sk1_5197.xsdst ! RUN = 5197 ! NEVT = 1000
FILE = /castor/cern.ch/delphi/MCprod/cern/4qex202cr/v99_4/200/4qex202cr_std_200_sk1_5198.xsdst ! RUN = 5198 ! NEVT = 999
FILE = /castor/cern.ch/delphi/MCprod/cern/4qex202cr/v99_4/200/4qex202cr_std_200_sk1_5199.xsdst ! RUN = 5199 ! NEVT = 1000
FILE = /castor/cern.ch/delphi/MCprod/cern/4qex202cr/v99_4/200/4qex202cr_std_200_sk1_5200.xsdst ! RUN = 5200 ! NEVT = 1000
FILE = /castor/cern.ch/delphi/MCprod/cern/4qex202cr/v99_4/200/4qex202cr_std_200_sk1_5201.xsdst ! RUN = 5201 ! NEVT = 1000
FILE = /castor/cern.ch/delphi/MCprod/cern/4qex202cr/v99_4/200/4qex202cr_std_200_sk1_5202.xsdst ! RUN = 5202 ! NEVT = 1000
FILE = /castor/cern.ch/delphi/MCprod/cern/4qex202cr/v99_4/200/4qex202cr_std_200_sk1_5203.xsdst ! RUN = 5203 ! NEVT = 1000
FILE = /castor/cern.ch/delphi/MCprod/cern/4qex202cr/v99_4/200/4qex202cr_std_200_sk1_5204.xsdst ! RUN = 5204 ! NEVT = 999
FILE = /castor/cern.ch/delphi/MCprod/cern/4qex202cr/v99_4/200/4qex202cr_std_200_sk1_5205.xsdst ! RUN = 5205 ! NEVT = 1000
FILE = /castor/cern.ch/delphi/MCprod/cern/4qex202cr/v99_4/200/4qex202cr_std_200_sk1_5206.xsdst ! RUN = 5206 ! NEVT = 999
FILE = /castor/cern.ch/delphi/MCprod/cern/4qex202cr/v99_4/200/4qex202cr_std_200_sk1_5207.xsdst ! RUN = 5207 ! NEVT = 999
FILE = /castor/cern.ch/delphi/MCprod/cern/4qex202cr/v99_4/200/4qex202cr_std_200_sk1_5208.xsdst ! RUN = 5208 ! NEVT = 1000
FILE = /castor/cern.ch/delphi/MCprod/cern/4qex202cr/v99_4/200/4qex202cr_std_200_sk1_5209.xsdst ! RUN = 5209 ! NEVT = 1000
FILE = /castor/cern.ch/delphi/MCprod/cern/4qex202cr/v99_4/200/4qex202cr_std_200_sk1_5210.xsdst ! RUN = 5210 ! NEVT = 1000
FILE = /castor/cern.ch/delphi/MCprod/cern/4qex202cr/v99_4/200/4qex202cr_std_200_sk1_5211.xsdst ! RUN = 5211 ! NEVT = 1000
FILE = /castor/cern.ch/delphi/MCprod/cern/4qex202cr/v99_4/200/4qex202cr_std_200_sk1_5212.xsdst ! RUN = 5212 ! NEVT = 1000
FILE = /castor/cern.ch/delphi/MCprod/cern/4qex202cr/v99_4/200/4qex202cr_std_200_sk1_5213.xsdst ! RUN = 5213 ! NEVT = 999
FILE = /castor/cern.ch/delphi/MCprod/cern/4qex202cr/v99_4/200/4qex202cr_std_200_sk1_5214.xsdst ! RUN = 5214 ! NEVT = 1000
FILE = /castor/cern.ch/delphi/MCprod/cern/4qex202cr/v99_4/200/4qex202cr_std_200_sk1_5215.xsdst ! RUN = 5215 ! NEVT = 1000
FILE = /castor/cern.ch/delphi/MCprod/cern/4qex202cr/v99_4/200/4qex202cr_std_200_sk1_5216.xsdst ! RUN = 5216 ! NEVT = 1000
FILE = /castor/cern.ch/delphi/MCprod/cern/4qex202cr/v99_4/200/4qex202cr_std_200_sk1_5217.xsdst ! RUN = 5217 ! NEVT = 999
FILE = /castor/cern.ch/delphi/MCprod/cern/4qex202cr/v99_4/200/4qex202cr_std_200_sk1_5218.xsdst ! RUN = 5218 ! NEVT = 1000
FILE = /castor/cern.ch/delphi/MCprod/cern/4qex202cr/v99_4/200/4qex202cr_std_200_sk1_5219.xsdst ! RUN = 5219 ! NEVT = 999
FILE = /castor/cern.ch/delphi/MCprod/cern/4qex202cr/v99_4/200/4qex202cr_std_200_sk1_5220.xsdst ! RUN = 5220 ! NEVT = 1000
FILE = /castor/cern.ch/delphi/MCprod/cern/4qex202cr/v99_4/200/4qex202cr_std_200_sk1_5221.xsdst ! RUN = 5221 ! NEVT = 1000
FILE = /castor/cern.ch/delphi/MCprod/cern/4qex202cr/v99_4/200/4qex202cr_std_200_sk1_5222.xsdst ! RUN = 5222 ! NEVT = 999
FILE = /castor/cern.ch/delphi/MCprod/cern/4qex202cr/v99_4/200/4qex202cr_std_200_sk1_5223.xsdst ! RUN = 5223 ! NEVT = 1000
FILE = /castor/cern.ch/delphi/MCprod/cern/4qex202cr/v99_4/200/4qex202cr_std_200_sk1_5224.xsdst ! RUN = 5224 ! NEVT = 1000
FILE = /castor/cern.ch/delphi/MCprod/cern/4qex202cr/v99_4/200/4qex202cr_std_200_sk1_5225.xsdst ! RUN = 5225 ! NEVT = 1000
FILE = /castor/cern.ch/delphi/MCprod/cern/4qex202cr/v99_4/200/4qex202cr_std_200_sk1_5226.xsdst ! RUN = 5226 ! NEVT = 998
FILE = /castor/cern.ch/delphi/MCprod/cern/4qex202cr/v99_4/200/4qex202cr_std_200_sk1_5227.xsdst ! RUN = 5227 ! NEVT = 999
FILE = /castor/cern.ch/delphi/MCprod/cern/4qex202cr/v99_4/200/4qex202cr_std_200_sk1_5228.xsdst ! RUN = 5228 ! NEVT = 1000
FILE = /castor/cern.ch/delphi/MCprod/cern/4qex202cr/v99_4/200/4qex202cr_std_200_sk1_5229.xsdst ! RUN = 5229 ! NEVT = 999
FILE = /castor/cern.ch/delphi/MCprod/cern/4qex202cr/v99_4/200/4qex202cr_std_200_sk1_5230.xsdst ! RUN = 5230 ! NEVT = 1000
FILE = /castor/cern.ch/delphi/MCprod/cern/4qex202cr/v99_4/200/4qex202cr_std_200_sk1_5231.xsdst ! RUN = 5231 ! NEVT = 1000
FILE = /castor/cern.ch/delphi/MCprod/cern/4qex202cr/v99_4/200/4qex202cr_std_200_sk1_5232.xsdst ! RUN = 5232 ! NEVT = 1000
FILE = /castor/cern.ch/delphi/MCprod/cern/4qex202cr/v99_4/200/4qex202cr_std_200_sk1_5233.xsdst ! RUN = 5233 ! NEVT = 998
FILE = /castor/cern.ch/delphi/MCprod/cern/4qex202cr/v99_4/200/4qex202cr_std_200_sk1_5234.xsdst ! RUN = 5234 ! NEVT = 1000
FILE = /castor/cern.ch/delphi/MCprod/cern/4qex202cr/v99_4/200/4qex202cr_std_200_sk1_5235.xsdst ! RUN = 5235 ! NEVT = 999
FILE = /castor/cern.ch/delphi/MCprod/cern/4qex202cr/v99_4/200/4qex202cr_std_200_sk1_5236.xsdst ! RUN = 5236 ! NEVT = 1000
FILE = /castor/cern.ch/delphi/MCprod/cern/4qex202cr/v99_4/200/4qex202cr_std_200_sk1_5237.xsdst ! RUN = 5237 ! NEVT = 999
FILE = /castor/cern.ch/delphi/MCprod/cern/4qex202cr/v99_4/200/4qex202cr_std_200_sk1_5238.xsdst ! RUN = 5238 ! NEVT = 1000
FILE = /castor/cern.ch/delphi/MCprod/cern/4qex202cr/v99_4/200/4qex202cr_std_200_sk1_5239.xsdst ! RUN = 5239 ! NEVT = 999
FILE = /castor/cern.ch/delphi/MCprod/cern/4qex202cr/v99_4/200/4qex202cr_std_200_sk1_5240.xsdst ! RUN = 5240 ! NEVT = 1000
FILE = /castor/cern.ch/delphi/MCprod/cern/4qex202cr/v99_4/200/4qex202cr_std_200_sk1_5241.xsdst ! RUN = 5241 ! NEVT = 1000
FILE = /castor/cern.ch/delphi/MCprod/cern/4qex202cr/v99_4/200/4qex202cr_std_200_sk1_5242.xsdst ! RUN = 5242 ! NEVT = 999
FILE = /castor/cern.ch/delphi/MCprod/cern/4qex202cr/v99_4/200/4qex202cr_std_200_sk1_5243.xsdst ! RUN = 5243 ! NEVT = 999
FILE = /castor/cern.ch/delphi/MCprod/cern/4qex202cr/v99_4/200/4qex202cr_std_200_sk1_5244.xsdst ! RUN = 5244 ! NEVT = 999
FILE = /castor/cern.ch/delphi/MCprod/cern/4qex202cr/v99_4/200/4qex202cr_std_200_sk1_5245.xsdst ! RUN = 5245 ! NEVT = 1000
FILE = /castor/cern.ch/delphi/MCprod/cern/4qex202cr/v99_4/200/4qex202cr_std_200_sk1_5246.xsdst ! RUN = 5246 ! NEVT = 999
FILE = /castor/cern.ch/delphi/MCprod/cern/4qex202cr/v99_4/200/4qex202cr_std_200_sk1_5247.xsdst ! RUN = 5247 ! NEVT = 1000
FILE = /castor/cern.ch/delphi/MCprod/cern/4qex202cr/v99_4/200/4qex202cr_std_200_sk1_5248.xsdst ! RUN = 5248 ! NEVT = 1000
FILE = /castor/cern.ch/delphi/MCprod/cern/4qex202cr/v99_4/200/4qex202cr_std_200_sk1_5249.xsdst ! RUN = 5249 ! NEVT = 1000
FILE = /castor/cern.ch/delphi/MCprod/cern/4qex202cr/v99_4/200/4qex202cr_std_200_sk1_5250.xsdst ! RUN = 5250 ! NEVT = 1000
FILE = /castor/cern.ch/delphi/MCprod/cern/4qex202cr/v99_4/200/4qex202cr_std_200_sk1_5251.xsdst ! RUN = 5251 ! NEVT = 999
FILE = /castor/cern.ch/delphi/MCprod/cern/4qex202cr/v99_4/200/4qex202cr_std_200_sk1_5252.xsdst ! RUN = 5252 ! NEVT = 1000
FILE = /castor/cern.ch/delphi/MCprod/cern/4qex202cr/v99_4/200/4qex202cr_std_200_sk1_5253.xsdst ! RUN = 5253 ! NEVT = 1000
FILE = /castor/cern.ch/delphi/MCprod/cern/4qex202cr/v99_4/200/4qex202cr_std_200_sk1_5254.xsdst ! RUN = 5254 ! NEVT = 999
FILE = /castor/cern.ch/delphi/MCprod/cern/4qex202cr/v99_4/200/4qex202cr_std_200_sk1_5255.xsdst ! RUN = 5255 ! NEVT = 999
FILE = /castor/cern.ch/delphi/MCprod/cern/4qex202cr/v99_4/200/4qex202cr_std_200_sk1_5256.xsdst ! RUN = 5256 ! NEVT = 1000
FILE = /castor/cern.ch/delphi/MCprod/cern/4qex202cr/v99_4/200/4qex202cr_std_200_sk1_5257.xsdst ! RUN = 5257 ! NEVT = 999
FILE = /castor/cern.ch/delphi/MCprod/cern/4qex202cr/v99_4/200/4qex202cr_std_200_sk1_5258.xsdst ! RUN = 5258 ! NEVT = 999
FILE = /castor/cern.ch/delphi/MCprod/cern/4qex202cr/v99_4/200/4qex202cr_std_200_sk1_5259.xsdst ! RUN = 5259 ! NEVT = 1000
FILE = /castor/cern.ch/delphi/MCprod/cern/4qex202cr/v99_4/200/4qex202cr_std_200_sk1_5260.xsdst ! RUN = 5260 ! NEVT = 1000
FILE = /castor/cern.ch/delphi/MCprod/cern/4qex202cr/v99_4/200/4qex202cr_std_200_sk1_5261.xsdst ! RUN = 5261 ! NEVT = 1000
FILE = /castor/cern.ch/delphi/MCprod/cern/4qex202cr/v99_4/200/4qex202cr_std_200_sk1_5262.xsdst ! RUN = 5262 ! NEVT = 1000
FILE = /castor/cern.ch/delphi/MCprod/cern/4qex202cr/v99_4/200/4qex202cr_std_200_sk1_5263.xsdst ! RUN = 5263 ! NEVT = 1000
FILE = /castor/cern.ch/delphi/MCprod/cern/4qex202cr/v99_4/200/4qex202cr_std_200_sk1_5264.xsdst ! RUN = 5264 ! NEVT = 1000
FILE = /castor/cern.ch/delphi/MCprod/cern/4qex202cr/v99_4/200/4qex202cr_std_200_sk1_5265.xsdst ! RUN = 5265 ! NEVT = 999
FILE = /castor/cern.ch/delphi/MCprod/cern/4qex202cr/v99_4/200/4qex202cr_std_200_sk1_5266.xsdst ! RUN = 5266 ! NEVT = 999
FILE = /castor/cern.ch/delphi/MCprod/cern/4qex202cr/v99_4/200/4qex202cr_std_200_sk1_5267.xsdst ! RUN = 5267 ! NEVT = 1000
FILE = /castor/cern.ch/delphi/MCprod/cern/4qex202cr/v99_4/200/4qex202cr_std_200_sk1_5268.xsdst ! RUN = 5268 ! NEVT = 1000
FILE = /castor/cern.ch/delphi/MCprod/cern/4qex202cr/v99_4/200/4qex202cr_std_200_sk1_5269.xsdst ! RUN = 5269 ! NEVT = 1000
FILE = /castor/cern.ch/delphi/MCprod/cern/4qex202cr/v99_4/200/4qex202cr_std_200_sk1_5270.xsdst ! RUN = 5270 ! NEVT = 1000
FILE = /castor/cern.ch/delphi/MCprod/cern/4qex202cr/v99_4/200/4qex202cr_std_200_sk1_5271.xsdst ! RUN = 5271 ! NEVT = 1000
FILE = /castor/cern.ch/delphi/MCprod/cern/4qex202cr/v99_4/200/4qex202cr_std_200_sk1_5272.xsdst ! RUN = 5272 ! NEVT = 1000
FILE = /castor/cern.ch/delphi/MCprod/cern/4qex202cr/v99_4/200/4qex202cr_std_200_sk1_5273.xsdst ! RUN = 5273 ! NEVT = 999
FILE = /castor/cern.ch/delphi/MCprod/cern/4qex202cr/v99_4/200/4qex202cr_std_200_sk1_5274.xsdst ! RUN = 5274 ! NEVT = 1000
FILE = /castor/cern.ch/delphi/MCprod/cern/4qex202cr/v99_4/200/4qex202cr_std_200_sk1_5275.xsdst ! RUN = 5275 ! NEVT = 1000
FILE = /castor/cern.ch/delphi/MCprod/cern/4qex202cr/v99_4/200/4qex202cr_std_200_sk1_5276.xsdst ! RUN = 5276 ! NEVT = 999
FILE = /castor/cern.ch/delphi/MCprod/cern/4qex202cr/v99_4/200/4qex202cr_std_200_sk1_5277.xsdst ! RUN = 5277 ! NEVT = 1000
FILE = /castor/cern.ch/delphi/MCprod/cern/4qex202cr/v99_4/200/4qex202cr_std_200_sk1_5278.xsdst ! RUN = 5278 ! NEVT = 1000
FILE = /castor/cern.ch/delphi/MCprod/cern/4qex202cr/v99_4/200/4qex202cr_std_200_sk1_5279.xsdst ! RUN = 5279 ! NEVT = 999
FILE = /castor/cern.ch/delphi/MCprod/cern/4qex202cr/v99_4/200/4qex202cr_std_200_sk1_5280.xsdst ! RUN = 5280 ! NEVT = 1000
FILE = /castor/cern.ch/delphi/MCprod/cern/4qex202cr/v99_4/200/4qex202cr_std_200_sk1_5281.xsdst ! RUN = 5281 ! NEVT = 1000
FILE = /castor/cern.ch/delphi/MCprod/cern/4qex202cr/v99_4/200/4qex202cr_std_200_sk1_5282.xsdst ! RUN = 5282 ! NEVT = 1000
FILE = /castor/cern.ch/delphi/MCprod/cern/4qex202cr/v99_4/200/4qex202cr_std_200_sk1_5283.xsdst ! RUN = 5283 ! NEVT = 1000
FILE = /castor/cern.ch/delphi/MCprod/cern/4qex202cr/v99_4/200/4qex202cr_std_200_sk1_5284.xsdst ! RUN = 5284 ! NEVT = 1000
FILE = /castor/cern.ch/delphi/MCprod/cern/4qex202cr/v99_4/200/4qex202cr_std_200_sk1_5285.xsdst ! RUN = 5285 ! NEVT = 1000
FILE = /castor/cern.ch/delphi/MCprod/cern/4qex202cr/v99_4/200/4qex202cr_std_200_sk1_5286.xsdst ! RUN = 5286 ! NEVT = 998
FILE = /castor/cern.ch/delphi/MCprod/cern/4qex202cr/v99_4/200/4qex202cr_std_200_sk1_5287.xsdst ! RUN = 5287 ! NEVT = 1000
FILE = /castor/cern.ch/delphi/MCprod/cern/4qex202cr/v99_4/200/4qex202cr_std_200_sk1_5288.xsdst ! RUN = 5288 ! NEVT = 1000
FILE = /castor/cern.ch/delphi/MCprod/cern/4qex202cr/v99_4/200/4qex202cr_std_200_sk1_5289.xsdst ! RUN = 5289 ! NEVT = 999
FILE = /castor/cern.ch/delphi/MCprod/cern/4qex202cr/v99_4/200/4qex202cr_std_200_sk1_5290.xsdst ! RUN = 5290 ! NEVT = 1000
FILE = /castor/cern.ch/delphi/MCprod/cern/4qex202cr/v99_4/200/4qex202cr_std_200_sk1_5291.xsdst ! RUN = 5291 ! NEVT = 999
FILE = /castor/cern.ch/delphi/MCprod/cern/4qex202cr/v99_4/200/4qex202cr_std_200_sk1_5292.xsdst ! RUN = 5292 ! NEVT = 1000
FILE = /castor/cern.ch/delphi/MCprod/cern/4qex202cr/v99_4/200/4qex202cr_std_200_sk1_5293.xsdst ! RUN = 5293 ! NEVT = 999
FILE = /castor/cern.ch/delphi/MCprod/cern/4qex202cr/v99_4/200/4qex202cr_std_200_sk1_5294.xsdst ! RUN = 5294 ! NEVT = 999
FILE = /castor/cern.ch/delphi/MCprod/cern/4qex202cr/v99_4/200/4qex202cr_std_200_sk1_5295.xsdst ! RUN = 5295 ! NEVT = 1000
FILE = /castor/cern.ch/delphi/MCprod/cern/4qex202cr/v99_4/200/4qex202cr_std_200_sk1_5296.xsdst ! RUN = 5296 ! NEVT = 1000
FILE = /castor/cern.ch/delphi/MCprod/cern/4qex202cr/v99_4/200/4qex202cr_std_200_sk1_5297.xsdst ! RUN = 5297 ! NEVT = 1000
FILE = /castor/cern.ch/delphi/MCprod/cern/4qex202cr/v99_4/200/4qex202cr_std_200_sk1_5298.xsdst ! RUN = 5298 ! NEVT = 998
FILE = /castor/cern.ch/delphi/MCprod/cern/4qex202cr/v99_4/200/4qex202cr_std_200_sk1_5299.xsdst ! RUN = 5299 ! NEVT = 1000
FILE = /castor/cern.ch/delphi/MCprod/cern/4qex202cr/v99_4/200/4qex202cr_std_200_sk1_5300.xsdst ! RUN = 5300 ! NEVT = 1000
