*
*   Nickname     : xs_4qex202crnorec_e189_sk1_c98_1l_d2
*   Generic Name : //CERN/DELPHI/P02_SIMD/XSDST/4QEX202CRNOREC/KARL/SUMT
*   Description  :  Extended Short DST simulation 98_d2 189 , KARL
*---
*   Comments     :  time stamp: Thu Sep 13 11:44:32 2001
*---
*
*
*
*
*found 247461 events in 248 files
FILE = /castor/cern.ch/delphi/MCprod/karlsruhe/wwex_postdst/v98d2/189/EK5800.1.xsdst ! RUN =  -13002 -13004 -13003 -13013 -13014      0      0      0      0      0! NEVT =    1000
FILE = /castor/cern.ch/delphi/MCprod/karlsruhe/wwex_postdst/v98d2/189/EK5800.2.xsdst ! RUN =  -13009 -13016 -13019 -13026 -13028      0      0      0      0      0! NEVT =    1000
FILE = /castor/cern.ch/delphi/MCprod/karlsruhe/wwex_postdst/v98d2/189/EK5800.3.xsdst ! RUN =  -13018 -13020 -13021 -13024 -13027      0      0      0      0      0! NEVT =    1000
FILE = /castor/cern.ch/delphi/MCprod/karlsruhe/wwex_postdst/v98d2/189/EK5800.4.xsdst ! RUN =  -13022 -13040 -13041 -13001 -13015      0      0      0      0      0! NEVT =    1000
FILE = /castor/cern.ch/delphi/MCprod/karlsruhe/wwex_postdst/v98d2/189/EK5800.5.xsdst ! RUN =  -13029 -13030 -13031 -13036 -13039      0      0      0      0      0! NEVT =     999
FILE = /castor/cern.ch/delphi/MCprod/karlsruhe/wwex_postdst/v98d2/189/EK5800.6.xsdst ! RUN =  -13042 -13043 -13044 -13007 -13008      0      0      0      0      0! NEVT =    1000
FILE = /castor/cern.ch/delphi/MCprod/karlsruhe/wwex_postdst/v98d2/189/EK5800.7.xsdst ! RUN =  -13045 -13048 -13006 -13017 -13047      0      0      0      0      0! NEVT =    1000
FILE = /castor/cern.ch/delphi/MCprod/karlsruhe/wwex_postdst/v98d2/189/EK5800.8.xsdst ! RUN =  -13046 -13050 -13012 -13025 -13034      0      0      0      0      0! NEVT =    1000
FILE = /castor/cern.ch/delphi/MCprod/karlsruhe/wwex_postdst/v98d2/189/EK5800.9.xsdst ! RUN =  -13049 -13011 -13033 -13035 -13038      0      0      0      0      0! NEVT =    1000
FILE = /castor/cern.ch/delphi/MCprod/karlsruhe/wwex_postdst/v98d2/189/EK5800.10.xsdst ! RUN =  -13023 -13010 -13037 -13032 -13051      0      0      0      0      0! NEVT =    1000
FILE = /castor/cern.ch/delphi/MCprod/karlsruhe/wwex_postdst/v98d2/189/EK5800.11.xsdst ! RUN =  -13053 -13054 -13055 -13052 -13056      0      0      0      0      0! NEVT =    1000
FILE = /castor/cern.ch/delphi/MCprod/karlsruhe/wwex_postdst/v98d2/189/EK5800.12.xsdst ! RUN =  -13057 -13059 -13060 -13061 -13063      0      0      0      0      0! NEVT =    1000
FILE = /castor/cern.ch/delphi/MCprod/karlsruhe/wwex_postdst/v98d2/189/EK5800.13.xsdst ! RUN =  -13064 -13065 -13071 -13062 -13067      0      0      0      0      0! NEVT =     999
FILE = /castor/cern.ch/delphi/MCprod/karlsruhe/wwex_postdst/v98d2/189/EK5800.14.xsdst ! RUN =  -13068 -13069 -13070 -13072 -13073      0      0      0      0      0! NEVT =    1000
FILE = /castor/cern.ch/delphi/MCprod/karlsruhe/wwex_postdst/v98d2/189/EK5800.15.xsdst ! RUN =  -13074 -13077 -13080 -13005 -13058      0      0      0      0      0! NEVT =    1000
FILE = /castor/cern.ch/delphi/MCprod/karlsruhe/wwex_postdst/v98d2/189/EK5800.16.xsdst ! RUN =  -13075 -13076 -13078 -13079 -13081      0      0      0      0      0! NEVT =    1000
FILE = /castor/cern.ch/delphi/MCprod/karlsruhe/wwex_postdst/v98d2/189/EK5800.17.xsdst ! RUN =  -13082 -13083 -13084 -13085 -13086      0      0      0      0      0! NEVT =    1000
FILE = /castor/cern.ch/delphi/MCprod/karlsruhe/wwex_postdst/v98d2/189/EK5800.18.xsdst ! RUN =  -13088 -13087 -13089 -13090 -13091      0      0      0      0      0! NEVT =    1000
FILE = /castor/cern.ch/delphi/MCprod/karlsruhe/wwex_postdst/v98d2/189/EK5800.19.xsdst ! RUN =  -13092 -13093 -13094 -13095 -13096      0      0      0      0      0! NEVT =    1000
FILE = /castor/cern.ch/delphi/MCprod/karlsruhe/wwex_postdst/v98d2/189/EK5800.20.xsdst ! RUN =  -13097 -13098 -13100 -13101 -13103      0      0      0      0      0! NEVT =    1000
FILE = /castor/cern.ch/delphi/MCprod/karlsruhe/wwex_postdst/v98d2/189/EK5800.21.xsdst ! RUN =  -13106 -13112 -13099 -13107 -13110      0      0      0      0      0! NEVT =    1000
FILE = /castor/cern.ch/delphi/MCprod/karlsruhe/wwex_postdst/v98d2/189/EK5800.22.xsdst ! RUN =  -13111 -13116 -13118 -13102 -13113      0      0      0      0      0! NEVT =    1000
FILE = /castor/cern.ch/delphi/MCprod/karlsruhe/wwex_postdst/v98d2/189/EK5800.23.xsdst ! RUN =  -13114 -13119 -13122 -13124 -13125      0      0      0      0      0! NEVT =    1000
FILE = /castor/cern.ch/delphi/MCprod/karlsruhe/wwex_postdst/v98d2/189/EK5800.24.xsdst ! RUN =  -13127 -13128 -13115 -13121 -13126      0      0      0      0      0! NEVT =    1000
FILE = /castor/cern.ch/delphi/MCprod/karlsruhe/wwex_postdst/v98d2/189/EK5800.25.xsdst ! RUN =  -13129 -13135 -13123 -13131 -13133      0      0      0      0      0! NEVT =    1000
FILE = /castor/cern.ch/delphi/MCprod/karlsruhe/wwex_postdst/v98d2/189/EK5800.26.xsdst ! RUN =  -13137 -13139 -13141 -13138 -13142      0      0      0      0      0! NEVT =    1000
FILE = /castor/cern.ch/delphi/MCprod/karlsruhe/wwex_postdst/v98d2/189/EK5800.27.xsdst ! RUN =  -13144 -13140 -13136 -13143 -13146      0      0      0      0      0! NEVT =    1000
FILE = /castor/cern.ch/delphi/MCprod/karlsruhe/wwex_postdst/v98d2/189/EK5800.28.xsdst ! RUN =  -13147 -13145 -13148 -13158 -13149      0      0      0      0      0! NEVT =    1000
FILE = /castor/cern.ch/delphi/MCprod/karlsruhe/wwex_postdst/v98d2/189/EK5800.29.xsdst ! RUN =  -13150 -13154 -13157 -13159 -13160      0      0      0      0      0! NEVT =     999
FILE = /castor/cern.ch/delphi/MCprod/karlsruhe/wwex_postdst/v98d2/189/EK5800.30.xsdst ! RUN =  -13151 -13155 -13161 -13162 -13163      0      0      0      0      0! NEVT =    1000
FILE = /castor/cern.ch/delphi/MCprod/karlsruhe/wwex_postdst/v98d2/189/EK5800.31.xsdst ! RUN =  -13164 -13165 -13174 -13104 -13105      0      0      0      0      0! NEVT =     999
FILE = /castor/cern.ch/delphi/MCprod/karlsruhe/wwex_postdst/v98d2/189/EK5800.32.xsdst ! RUN =  -13166 -13167 -13171 -13175 -13176      0      0      0      0      0! NEVT =     999
FILE = /castor/cern.ch/delphi/MCprod/karlsruhe/wwex_postdst/v98d2/189/EK5800.33.xsdst ! RUN =  -13169 -13179 -13181 -13182 -13108      0      0      0      0      0! NEVT =     999
FILE = /castor/cern.ch/delphi/MCprod/karlsruhe/wwex_postdst/v98d2/189/EK5800.34.xsdst ! RUN =  -13109 -13153 -13170 -13177 -13178      0      0      0      0      0! NEVT =    1000
FILE = /castor/cern.ch/delphi/MCprod/karlsruhe/wwex_postdst/v98d2/189/EK5800.35.xsdst ! RUN =  -13120 -13180 -13132 -13152 -13173      0      0      0      0      0! NEVT =    1000
FILE = /castor/cern.ch/delphi/MCprod/karlsruhe/wwex_postdst/v98d2/189/EK5800.36.xsdst ! RUN =  -13183 -13185 -13186 -13187 -13134      0      0      0      0      0! NEVT =    1000
FILE = /castor/cern.ch/delphi/MCprod/karlsruhe/wwex_postdst/v98d2/189/EK5800.37.xsdst ! RUN =  -13156 -13168 -13184 -13130 -13188      0      0      0      0      0! NEVT =    1000
FILE = /castor/cern.ch/delphi/MCprod/karlsruhe/wwex_postdst/v98d2/189/EK5800.38.xsdst ! RUN =  -13189 -13190 -13196 -13197 -13199      0      0      0      0      0! NEVT =    1000
FILE = /castor/cern.ch/delphi/MCprod/karlsruhe/wwex_postdst/v98d2/189/EK5800.39.xsdst ! RUN =  -13191 -13200 -13201 -13202 -13203      0      0      0      0      0! NEVT =    1000
FILE = /castor/cern.ch/delphi/MCprod/karlsruhe/wwex_postdst/v98d2/189/EK5800.40.xsdst ! RUN =  -13198 -13205 -13206 -13207 -13208      0      0      0      0      0! NEVT =    1000
FILE = /castor/cern.ch/delphi/MCprod/karlsruhe/wwex_postdst/v98d2/189/EK5800.41.xsdst ! RUN =  -13204 -13192 -13193 -13194 -13195      0      0      0      0      0! NEVT =    1000
FILE = /castor/cern.ch/delphi/MCprod/karlsruhe/wwex_postdst/v98d2/189/EK5800.42.xsdst ! RUN =  -13209 -13211 -13214 -13210 -13212      0      0      0      0      0! NEVT =    1000
FILE = /castor/cern.ch/delphi/MCprod/karlsruhe/wwex_postdst/v98d2/189/EK5800.43.xsdst ! RUN =  -13213 -13215 -13216 -13220 -13217      0      0      0      0      0! NEVT =     999
FILE = /castor/cern.ch/delphi/MCprod/karlsruhe/wwex_postdst/v98d2/189/EK5800.44.xsdst ! RUN =  -13218 -13219 -13221 -13222 -13223      0      0      0      0      0! NEVT =    1000
FILE = /castor/cern.ch/delphi/MCprod/karlsruhe/wwex_postdst/v98d2/189/EK5800.45.xsdst ! RUN =  -13225 -13226 -13224 -13227 -13228      0      0      0      0      0! NEVT =     999
FILE = /castor/cern.ch/delphi/MCprod/karlsruhe/wwex_postdst/v98d2/189/EK5800.46.xsdst ! RUN =  -13229 -13230 -13231 -13232 -13233      0      0      0      0      0! NEVT =     999
FILE = /castor/cern.ch/delphi/MCprod/karlsruhe/wwex_postdst/v98d2/189/EK5800.47.xsdst ! RUN =  -13236 -13241 -13239 -13240 -13242      0      0      0      0      0! NEVT =    1000
FILE = /castor/cern.ch/delphi/MCprod/karlsruhe/wwex_postdst/v98d2/189/EK5800.48.xsdst ! RUN =  -13243 -13244 -13245 -13246 -13247      0      0      0      0      0! NEVT =    1000
FILE = /castor/cern.ch/delphi/MCprod/karlsruhe/wwex_postdst/v98d2/189/EK5800.49.xsdst ! RUN =  -13248 -13251 -13249 -13250 -13252      0      0      0      0      0! NEVT =    1000
FILE = /castor/cern.ch/delphi/MCprod/karlsruhe/wwex_postdst/v98d2/189/EK5800.50.xsdst ! RUN =  -13253 -13254 -13255 -13256 -13258      0      0      0      0      0! NEVT =    1000
FILE = /castor/cern.ch/delphi/MCprod/karlsruhe/wwex_postdst/v98d2/189/EK5800.51.xsdst ! RUN =  -13257 -13259 -13260 -13262 -13263      0      0      0      0      0! NEVT =    1000
FILE = /castor/cern.ch/delphi/MCprod/karlsruhe/wwex_postdst/v98d2/189/EK5800.52.xsdst ! RUN =  -13265 -13267 -13268 -13269 -13270      0      0      0      0      0! NEVT =    1000
FILE = /castor/cern.ch/delphi/MCprod/karlsruhe/wwex_postdst/v98d2/189/EK5800.53.xsdst ! RUN =  -13271 -13273 -13274 -13275 -13277      0      0      0      0      0! NEVT =     998
FILE = /castor/cern.ch/delphi/MCprod/karlsruhe/wwex_postdst/v98d2/189/EK5800.54.xsdst ! RUN =  -13278 -13279 -13276 -13280 -13281      0      0      0      0      0! NEVT =    1000
FILE = /castor/cern.ch/delphi/MCprod/karlsruhe/wwex_postdst/v98d2/189/EK5800.55.xsdst ! RUN =  -13282 -13283 -13284 -13285 -13286      0      0      0      0      0! NEVT =    1000
FILE = /castor/cern.ch/delphi/MCprod/karlsruhe/wwex_postdst/v98d2/189/EK5800.56.xsdst ! RUN =  -13287 -13289 -13291 -13292 -13293      0      0      0      0      0! NEVT =    1000
FILE = /castor/cern.ch/delphi/MCprod/karlsruhe/wwex_postdst/v98d2/189/EK5800.57.xsdst ! RUN =  -13290 -13304 -13305 -13306 -13307      0      0      0      0      0! NEVT =    1000
FILE = /castor/cern.ch/delphi/MCprod/karlsruhe/wwex_postdst/v98d2/189/EK5800.58.xsdst ! RUN =  -13294 -13295 -13296 -13297 -13299      0      0      0      0      0! NEVT =    1000
FILE = /castor/cern.ch/delphi/MCprod/karlsruhe/wwex_postdst/v98d2/189/EK5800.59.xsdst ! RUN =  -13301 -13298 -13300 -13302 -13303      0      0      0      0      0! NEVT =     998
FILE = /castor/cern.ch/delphi/MCprod/karlsruhe/wwex_postdst/v98d2/189/EK5800.60.xsdst ! RUN =  -13235 -13318 -13319 -13320 -13321      0      0      0      0      0! NEVT =    1000
FILE = /castor/cern.ch/delphi/MCprod/karlsruhe/wwex_postdst/v98d2/189/EK5800.61.xsdst ! RUN =  -13308 -13309 -13310 -13311 -13312      0      0      0      0      0! NEVT =    1000
FILE = /castor/cern.ch/delphi/MCprod/karlsruhe/wwex_postdst/v98d2/189/EK5800.62.xsdst ! RUN =  -13313 -13314 -13315 -13316 -13317      0      0      0      0      0! NEVT =    1000
FILE = /castor/cern.ch/delphi/MCprod/karlsruhe/wwex_postdst/v98d2/189/EK5801.1.xsdst ! RUN =  -13322 -13234 -13323 -13324 -13238      0      0      0      0      0! NEVT =     998
FILE = /castor/cern.ch/delphi/MCprod/karlsruhe/wwex_postdst/v98d2/189/EK5801.2.xsdst ! RUN =  -13325 -13326 -13327 -13328 -13329      0      0      0      0      0! NEVT =    1000
FILE = /castor/cern.ch/delphi/MCprod/karlsruhe/wwex_postdst/v98d2/189/EK5801.3.xsdst ! RUN =  -13330 -13331 -13332 -13336 -13337      0      0      0      0      0! NEVT =     999
FILE = /castor/cern.ch/delphi/MCprod/karlsruhe/wwex_postdst/v98d2/189/EK5801.4.xsdst ! RUN =  -13338 -13334 -13335 -13339 -13340      0      0      0      0      0! NEVT =    1000
FILE = /castor/cern.ch/delphi/MCprod/karlsruhe/wwex_postdst/v98d2/189/EK5801.5.xsdst ! RUN =  -13343 -13264 -13266 -13341 -13344      0      0      0      0      0! NEVT =     939
FILE = /castor/cern.ch/delphi/MCprod/karlsruhe/wwex_postdst/v98d2/189/EK5801.6.xsdst ! RUN =  -13346 -13350 -13342 -13347 -13351      0      0      0      0      0! NEVT =    1000
FILE = /castor/cern.ch/delphi/MCprod/karlsruhe/wwex_postdst/v98d2/189/EK5801.7.xsdst ! RUN =  -13352 -13355 -13345 -13353 -13354      0      0      0      0      0! NEVT =    1000
FILE = /castor/cern.ch/delphi/MCprod/karlsruhe/wwex_postdst/v98d2/189/EK5801.8.xsdst ! RUN =  -13356 -13357 -13358 -13359 -13360      0      0      0      0      0! NEVT =     999
FILE = /castor/cern.ch/delphi/MCprod/karlsruhe/wwex_postdst/v98d2/189/EK5801.9.xsdst ! RUN =  -13361 -13363 -13366 -13362 -13364      0      0      0      0      0! NEVT =    1000
FILE = /castor/cern.ch/delphi/MCprod/karlsruhe/wwex_postdst/v98d2/189/EK5801.10.xsdst ! RUN =  -13365 -13367 -13368 -13369 -13370      0      0      0      0      0! NEVT =    1000
FILE = /castor/cern.ch/delphi/MCprod/karlsruhe/wwex_postdst/v98d2/189/EK5801.11.xsdst ! RUN =  -13371 -13389 -13372 -13378 -13373      0      0      0      0      0! NEVT =     999
FILE = /castor/cern.ch/delphi/MCprod/karlsruhe/wwex_postdst/v98d2/189/EK5801.12.xsdst ! RUN =  -13374 -13375 -13376 -13377 -13379      0      0      0      0      0! NEVT =    1000
FILE = /castor/cern.ch/delphi/MCprod/karlsruhe/wwex_postdst/v98d2/189/EK5801.13.xsdst ! RUN =  -13380 -13381 -13382 -13383 -13384      0      0      0      0      0! NEVT =     986
FILE = /castor/cern.ch/delphi/MCprod/karlsruhe/wwex_postdst/v98d2/189/EK5801.14.xsdst ! RUN =  -13385 -13386 -13387 -13388 -13390      0      0      0      0      0! NEVT =    1000
FILE = /castor/cern.ch/delphi/MCprod/karlsruhe/wwex_postdst/v98d2/189/EK5801.15.xsdst ! RUN =  -13391 -13392 -13394 -13395 -13396      0      0      0      0      0! NEVT =     999
FILE = /castor/cern.ch/delphi/MCprod/karlsruhe/wwex_postdst/v98d2/189/EK5801.16.xsdst ! RUN =  -13398 -13399 -13401 -13400 -13402      0      0      0      0      0! NEVT =    1000
FILE = /castor/cern.ch/delphi/MCprod/karlsruhe/wwex_postdst/v98d2/189/EK5801.17.xsdst ! RUN =  -13403 -13404 -13405 -13397 -13406      0      0      0      0      0! NEVT =    1000
FILE = /castor/cern.ch/delphi/MCprod/karlsruhe/wwex_postdst/v98d2/189/EK5801.18.xsdst ! RUN =  -13407 -13408 -13409 -13410 -13411      0      0      0      0      0! NEVT =     999
FILE = /castor/cern.ch/delphi/MCprod/karlsruhe/wwex_postdst/v98d2/189/EK5801.19.xsdst ! RUN =  -13393 -13412 -13413 -13414 -13415      0      0      0      0      0! NEVT =    1000
FILE = /castor/cern.ch/delphi/MCprod/karlsruhe/wwex_postdst/v98d2/189/EK5801.20.xsdst ! RUN =  -13422 -13423 -13424 -13425 -13426      0      0      0      0      0! NEVT =    1000
FILE = /castor/cern.ch/delphi/MCprod/karlsruhe/wwex_postdst/v98d2/189/EK5801.21.xsdst ! RUN =  -13427 -13428 -13430 -13432 -13433      0      0      0      0      0! NEVT =     999
FILE = /castor/cern.ch/delphi/MCprod/karlsruhe/wwex_postdst/v98d2/189/EK5801.22.xsdst ! RUN =  -13429 -13418 -13420 -13419 -13421      0      0      0      0      0! NEVT =    1000
FILE = /castor/cern.ch/delphi/MCprod/karlsruhe/wwex_postdst/v98d2/189/EK5801.23.xsdst ! RUN =  -13434 -13436 -13435 -13437 -13438      0      0      0      0      0! NEVT =     999
FILE = /castor/cern.ch/delphi/MCprod/karlsruhe/wwex_postdst/v98d2/189/EK5801.24.xsdst ! RUN =  -13439 -13440 -13442 -13441 -13444      0      0      0      0      0! NEVT =    1000
FILE = /castor/cern.ch/delphi/MCprod/karlsruhe/wwex_postdst/v98d2/189/EK5801.25.xsdst ! RUN =  -13443 -13445 -13446 -13416 -13447      0      0      0      0      0! NEVT =    1000
FILE = /castor/cern.ch/delphi/MCprod/karlsruhe/wwex_postdst/v98d2/189/EK5801.26.xsdst ! RUN =  -13448 -13449 -13450 -13451 -13452      0      0      0      0      0! NEVT =    1000
FILE = /castor/cern.ch/delphi/MCprod/karlsruhe/wwex_postdst/v98d2/189/EK5801.27.xsdst ! RUN =  -13453 -13454 -13455 -13456 -13457      0      0      0      0      0! NEVT =    1000
FILE = /castor/cern.ch/delphi/MCprod/karlsruhe/wwex_postdst/v98d2/189/EK5801.28.xsdst ! RUN =  -13458 -13459 -13431 -13460 -13461      0      0      0      0      0! NEVT =     999
FILE = /castor/cern.ch/delphi/MCprod/karlsruhe/wwex_postdst/v98d2/189/EK5801.29.xsdst ! RUN =  -13462 -13463 -13465 -13469 -13466      0      0      0      0      0! NEVT =     999
FILE = /castor/cern.ch/delphi/MCprod/karlsruhe/wwex_postdst/v98d2/189/EK5801.30.xsdst ! RUN =  -13467 -13468 -13464 -13470 -13471      0      0      0      0      0! NEVT =    1000
FILE = /castor/cern.ch/delphi/MCprod/karlsruhe/wwex_postdst/v98d2/189/EK5801.31.xsdst ! RUN =  -13472 -13473 -13475 -13474 -13476      0      0      0      0      0! NEVT =    1000
FILE = /castor/cern.ch/delphi/MCprod/karlsruhe/wwex_postdst/v98d2/189/EK5801.32.xsdst ! RUN =  -13477 -13480 -13417 -13481 -13478      0      0      0      0      0! NEVT =    1000
FILE = /castor/cern.ch/delphi/MCprod/karlsruhe/wwex_postdst/v98d2/189/EK5801.33.xsdst ! RUN =  -13479 -13482 -13483 -13484 -13487      0      0      0      0      0! NEVT =    1000
FILE = /castor/cern.ch/delphi/MCprod/karlsruhe/wwex_postdst/v98d2/189/EK5801.34.xsdst ! RUN =  -13488 -13489 -13485 -13486 -13494      0      0      0      0      0! NEVT =     999
FILE = /castor/cern.ch/delphi/MCprod/karlsruhe/wwex_postdst/v98d2/189/EK5801.35.xsdst ! RUN =  -13496 -13490 -13491 -13492 -13495      0      0      0      0      0! NEVT =     998
FILE = /castor/cern.ch/delphi/MCprod/karlsruhe/wwex_postdst/v98d2/189/EK5801.36.xsdst ! RUN =  -13493 -13498 -13501 -13500 -13497      0      0      0      0      0! NEVT =    1000
FILE = /castor/cern.ch/delphi/MCprod/karlsruhe/wwex_postdst/v98d2/189/EK5801.37.xsdst ! RUN =  -13499 -13502 -13503 -13504 -13507      0      0      0      0      0! NEVT =    1000
FILE = /castor/cern.ch/delphi/MCprod/karlsruhe/wwex_postdst/v98d2/189/EK5801.38.xsdst ! RUN =  -13516 -13517 -13518 -13505 -13506      0      0      0      0      0! NEVT =     988
FILE = /castor/cern.ch/delphi/MCprod/karlsruhe/wwex_postdst/v98d2/189/EK5801.39.xsdst ! RUN =  -13525 -13510 -13513 -13511 -13515      0      0      0      0      0! NEVT =    1000
FILE = /castor/cern.ch/delphi/MCprod/karlsruhe/wwex_postdst/v98d2/189/EK5801.40.xsdst ! RUN =  -13519 -13508 -13509 -13512 -13514      0      0      0      0      0! NEVT =     999
FILE = /castor/cern.ch/delphi/MCprod/karlsruhe/wwex_postdst/v98d2/189/EK5801.41.xsdst ! RUN =  -13522 -13526 -13520 -13524 -13529      0      0      0      0      0! NEVT =    1000
FILE = /castor/cern.ch/delphi/MCprod/karlsruhe/wwex_postdst/v98d2/189/EK5801.42.xsdst ! RUN =  -13530 -13531 -13532 -13521 -13523      0      0      0      0      0! NEVT =     999
FILE = /castor/cern.ch/delphi/MCprod/karlsruhe/wwex_postdst/v98d2/189/EK5801.43.xsdst ! RUN =  -13527 -13540 -13541 -13542 -13538      0      0      0      0      0! NEVT =    1000
FILE = /castor/cern.ch/delphi/MCprod/karlsruhe/wwex_postdst/v98d2/189/EK5801.44.xsdst ! RUN =  -13533 -13535 -13536 -13537 -13539      0      0      0      0      0! NEVT =    1000
FILE = /castor/cern.ch/delphi/MCprod/karlsruhe/wwex_postdst/v98d2/189/EK5801.45.xsdst ! RUN =  -13543 -13544 -13547 -13528 -13534      0      0      0      0      0! NEVT =    1000
FILE = /castor/cern.ch/delphi/MCprod/karlsruhe/wwex_postdst/v98d2/189/EK5801.46.xsdst ! RUN =  -13545 -13550 -13551 -13552 -13553      0      0      0      0      0! NEVT =    1000
FILE = /castor/cern.ch/delphi/MCprod/karlsruhe/wwex_postdst/v98d2/189/EK5801.47.xsdst ! RUN =  -13554 -13555 -13556 -13559 -13560      0      0      0      0      0! NEVT =    1000
FILE = /castor/cern.ch/delphi/MCprod/karlsruhe/wwex_postdst/v98d2/189/EK5801.48.xsdst ! RUN =  -13561 -13564 -13566 -13563 -13565      0      0      0      0      0! NEVT =    1000
FILE = /castor/cern.ch/delphi/MCprod/karlsruhe/wwex_postdst/v98d2/189/EK5801.49.xsdst ! RUN =  -13567 -13568 -13562 -13570 -13571      0      0      0      0      0! NEVT =    1000
FILE = /castor/cern.ch/delphi/MCprod/karlsruhe/wwex_postdst/v98d2/189/EK5801.50.xsdst ! RUN =  -13558 -13575 -13577 -13585 -13587      0      0      0      0      0! NEVT =    1000
FILE = /castor/cern.ch/delphi/MCprod/karlsruhe/wwex_postdst/v98d2/189/EK5801.51.xsdst ! RUN =  -13589 -13546 -13548 -13549 -13573      0      0      0      0      0! NEVT =     999
FILE = /castor/cern.ch/delphi/MCprod/karlsruhe/wwex_postdst/v98d2/189/EK5801.52.xsdst ! RUN =  -13574 -13592 -13582 -13595 -13596      0      0      0      0      0! NEVT =    1000
FILE = /castor/cern.ch/delphi/MCprod/karlsruhe/wwex_postdst/v98d2/189/EK5801.53.xsdst ! RUN =  -13598 -13588 -13599 -13602 -13605      0      0      0      0      0! NEVT =     999
FILE = /castor/cern.ch/delphi/MCprod/karlsruhe/wwex_postdst/v98d2/189/EK5801.54.xsdst ! RUN =  -13607 -13609 -13614 -13610 -13601      0      0      0      0      0! NEVT =    1000
FILE = /castor/cern.ch/delphi/MCprod/karlsruhe/wwex_postdst/v98d2/189/EK5801.55.xsdst ! RUN =  -13603 -13604 -13608 -13613 -13619      0      0      0      0      0! NEVT =    1000
FILE = /castor/cern.ch/delphi/MCprod/karlsruhe/wwex_postdst/v98d2/189/EK5801.56.xsdst ! RUN =  -13620 -13569 -13622 -13572 -13578      0      0      0      0      0! NEVT =    1000
FILE = /castor/cern.ch/delphi/MCprod/karlsruhe/wwex_postdst/v98d2/189/EK5801.57.xsdst ! RUN =  -13606 -13618 -13626 -13583 -13584      0      0      0      0      0! NEVT =     999
FILE = /castor/cern.ch/delphi/MCprod/karlsruhe/wwex_postdst/v98d2/189/EK5801.58.xsdst ! RUN =  -13615 -13623 -13616 -13624 -13625      0      0      0      0      0! NEVT =    1000
FILE = /castor/cern.ch/delphi/MCprod/karlsruhe/wwex_postdst/v98d2/189/EK5801.59.xsdst ! RUN =  -13627 -13630 -13617 -13629 -13631      0      0      0      0      0! NEVT =    1000
FILE = /castor/cern.ch/delphi/MCprod/karlsruhe/wwex_postdst/v98d2/189/EK5801.60.xsdst ! RUN =  -13632 -13628 -13634 -13621 -13635      0      0      0      0      0! NEVT =     999
FILE = /castor/cern.ch/delphi/MCprod/karlsruhe/wwex_postdst/v98d2/189/EK5801.61.xsdst ! RUN =  -13636 -13641 -13639 -13640 -13645      0      0      0      0      0! NEVT =     967
FILE = /castor/cern.ch/delphi/MCprod/karlsruhe/wwex_postdst/v98d2/189/EK5801.62.xsdst ! RUN =  -13646 -13648 -13649 -13637 -13644      0      0      0      0      0! NEVT =    1000
FILE = /castor/cern.ch/delphi/MCprod/karlsruhe/wwex_postdst/v98d2/189/EK5802.1.xsdst ! RUN =  -13650 -13652 -13633 -13638 -13653      0      0      0      0      0! NEVT =     999
FILE = /castor/cern.ch/delphi/MCprod/karlsruhe/wwex_postdst/v98d2/189/EK5802.2.xsdst ! RUN =  -13651 -13660 -13661 -13658 -13663      0      0      0      0      0! NEVT =    1000
FILE = /castor/cern.ch/delphi/MCprod/karlsruhe/wwex_postdst/v98d2/189/EK5802.3.xsdst ! RUN =  -13654 -13655 -13656 -13657 -13659      0      0      0      0      0! NEVT =    1000
FILE = /castor/cern.ch/delphi/MCprod/karlsruhe/wwex_postdst/v98d2/189/EK5802.4.xsdst ! RUN =  -13664 -13666 -13669 -13673 -13662      0      0      0      0      0! NEVT =    1000
FILE = /castor/cern.ch/delphi/MCprod/karlsruhe/wwex_postdst/v98d2/189/EK5802.5.xsdst ! RUN =  -13670 -13689 -13690 -13680 -13675      0      0      0      0      0! NEVT =    1000
FILE = /castor/cern.ch/delphi/MCprod/karlsruhe/wwex_postdst/v98d2/189/EK5802.6.xsdst ! RUN =  -13671 -13665 -13674 -13678 -13667      0      0      0      0      0! NEVT =     904
FILE = /castor/cern.ch/delphi/MCprod/karlsruhe/wwex_postdst/v98d2/189/EK5802.7.xsdst ! RUN =  -13679 -13683 -13682 -13684 -13686      0      0      0      0      0! NEVT =    1000
FILE = /castor/cern.ch/delphi/MCprod/karlsruhe/wwex_postdst/v98d2/189/EK5802.8.xsdst ! RUN =  -13687 -13672 -13681 -13694 -13677      0      0      0      0      0! NEVT =     999
FILE = /castor/cern.ch/delphi/MCprod/karlsruhe/wwex_postdst/v98d2/189/EK5802.9.xsdst ! RUN =  -13688 -13706 -13708 -13696 -13702      0      0      0      0      0! NEVT =     998
FILE = /castor/cern.ch/delphi/MCprod/karlsruhe/wwex_postdst/v98d2/189/EK5802.10.xsdst ! RUN =  -13695 -13697 -13668 -13698 -13700      0      0      0      0      0! NEVT =     999
FILE = /castor/cern.ch/delphi/MCprod/karlsruhe/wwex_postdst/v98d2/189/EK5802.11.xsdst ! RUN =  -13701 -13704 -13699 -13703 -13707      0      0      0      0      0! NEVT =     945
FILE = /castor/cern.ch/delphi/MCprod/karlsruhe/wwex_postdst/v98d2/189/EK5802.12.xsdst ! RUN =  -13710 -13643 -13685 -13709 -13647      0      0      0      0      0! NEVT =     966
FILE = /castor/cern.ch/delphi/MCprod/karlsruhe/wwex_postdst/v98d2/189/EK5802.13.xsdst ! RUN =  -13718 -13691 -13692 -13693 -13711      0      0      0      0      0! NEVT =     999
FILE = /castor/cern.ch/delphi/MCprod/karlsruhe/wwex_postdst/v98d2/189/EK5802.14.xsdst ! RUN =  -13676 -13712 -13714 -13723 -13727      0      0      0      0      0! NEVT =    1000
FILE = /castor/cern.ch/delphi/MCprod/karlsruhe/wwex_postdst/v98d2/189/EK5802.15.xsdst ! RUN =  -13720 -13721 -13724 -13725 -13642      0      0      0      0      0! NEVT =     999
FILE = /castor/cern.ch/delphi/MCprod/karlsruhe/wwex_postdst/v98d2/189/EK5802.16.xsdst ! RUN =  -13728 -13715 -13726 -13729 -13716      0      0      0      0      0! NEVT =    1000
FILE = /castor/cern.ch/delphi/MCprod/karlsruhe/wwex_postdst/v98d2/189/EK5802.17.xsdst ! RUN =  -13348 -13705 -13730 -13349 -13731      0      0      0      0      0! NEVT =    1000
FILE = /castor/cern.ch/delphi/MCprod/karlsruhe/wwex_postdst/v98d2/189/EK5802.18.xsdst ! RUN =  -13717 -13732 -13713 -13737 -13739      0      0      0      0      0! NEVT =    1000
FILE = /castor/cern.ch/delphi/MCprod/karlsruhe/wwex_postdst/v98d2/189/EK5802.19.xsdst ! RUN =  -13733 -13734 -13736 -13757 -13738      0      0      0      0      0! NEVT =    1000
FILE = /castor/cern.ch/delphi/MCprod/karlsruhe/wwex_postdst/v98d2/189/EK5802.20.xsdst ! RUN =  -13740 -13741 -13743 -13747 -13744      0      0      0      0      0! NEVT =     999
FILE = /castor/cern.ch/delphi/MCprod/karlsruhe/wwex_postdst/v98d2/189/EK5802.21.xsdst ! RUN =  -13745 -13746 -13748 -13750 -13749      0      0      0      0      0! NEVT =    1000
FILE = /castor/cern.ch/delphi/MCprod/karlsruhe/wwex_postdst/v98d2/189/EK5802.22.xsdst ! RUN =  -13752 -13753 -13754 -13755 -13756      0      0      0      0      0! NEVT =    1000
FILE = /castor/cern.ch/delphi/MCprod/karlsruhe/wwex_postdst/v98d2/189/EK5802.23.xsdst ! RUN =  -13758 -13759 -13735 -13742 -13760      0      0      0      0      0! NEVT =     999
FILE = /castor/cern.ch/delphi/MCprod/karlsruhe/wwex_postdst/v98d2/189/EK5802.24.xsdst ! RUN =  -13761 -13778 -13762 -13763 -13765      0      0      0      0      0! NEVT =     999
FILE = /castor/cern.ch/delphi/MCprod/karlsruhe/wwex_postdst/v98d2/189/EK5802.25.xsdst ! RUN =  -13766 -13786 -13576 -13579 -13581      0      0      0      0      0! NEVT =    1000
FILE = /castor/cern.ch/delphi/MCprod/karlsruhe/wwex_postdst/v98d2/189/EK5802.26.xsdst ! RUN =  -13767 -13771 -13772 -13580 -13768      0      0      0      0      0! NEVT =    1000
FILE = /castor/cern.ch/delphi/MCprod/karlsruhe/wwex_postdst/v98d2/189/EK5802.27.xsdst ! RUN =  -13770 -13777 -13779 -13775 -13780      0      0      0      0      0! NEVT =     999
FILE = /castor/cern.ch/delphi/MCprod/karlsruhe/wwex_postdst/v98d2/189/EK5802.28.xsdst ! RUN =  -13781 -13782 -13783 -13586 -13719      0      0      0      0      0! NEVT =     999
FILE = /castor/cern.ch/delphi/MCprod/karlsruhe/wwex_postdst/v98d2/189/EK5802.29.xsdst ! RUN =  -13764 -13785 -13784 -13769 -13789      0      0      0      0      0! NEVT =     999
FILE = /castor/cern.ch/delphi/MCprod/karlsruhe/wwex_postdst/v98d2/189/EK5802.30.xsdst ! RUN =  -13776 -13787 -13791 -13788 -13773      0      0      0      0      0! NEVT =     998
FILE = /castor/cern.ch/delphi/MCprod/karlsruhe/wwex_postdst/v98d2/189/EK5802.31.xsdst ! RUN =  -13774 -13796 -13797 -13790 -13794      0      0      0      0      0! NEVT =    1000
FILE = /castor/cern.ch/delphi/MCprod/karlsruhe/wwex_postdst/v98d2/189/EK5802.32.xsdst ! RUN =  -13792 -13804 -13807 -13809 -13810      0      0      0      0      0! NEVT =     999
FILE = /castor/cern.ch/delphi/MCprod/karlsruhe/wwex_postdst/v98d2/189/EK5802.33.xsdst ! RUN =  -13793 -13811 -13813 -13808 -13814      0      0      0      0      0! NEVT =    1000
FILE = /castor/cern.ch/delphi/MCprod/karlsruhe/wwex_postdst/v98d2/189/EK5802.34.xsdst ! RUN =  -13818 -13821 -13751 -13815 -13823      0      0      0      0      0! NEVT =    1000
FILE = /castor/cern.ch/delphi/MCprod/karlsruhe/wwex_postdst/v98d2/189/EK5802.35.xsdst ! RUN =  -13824 -13795 -13828 -13826 -13827      0      0      0      0      0! NEVT =     999
FILE = /castor/cern.ch/delphi/MCprod/karlsruhe/wwex_postdst/v98d2/189/EK5802.36.xsdst ! RUN =  -13822 -13829 -13830 -13832 -13834      0      0      0      0      0! NEVT =     999
FILE = /castor/cern.ch/delphi/MCprod/karlsruhe/wwex_postdst/v98d2/189/EK5802.37.xsdst ! RUN =  -13835 -13833 -13837 -13839 -13836      0      0      0      0      0! NEVT =     999
FILE = /castor/cern.ch/delphi/MCprod/karlsruhe/wwex_postdst/v98d2/189/EK5802.38.xsdst ! RUN =  -13842 -13819 -13843 -13844 -13845      0      0      0      0      0! NEVT =    1000
FILE = /castor/cern.ch/delphi/MCprod/karlsruhe/wwex_postdst/v98d2/189/EK5802.39.xsdst ! RUN =  -13846 -13847 -13848 -13850 -13849 -13856      0      0      0      0! NEVT =    1071
FILE = /castor/cern.ch/delphi/MCprod/karlsruhe/wwex_postdst/v98d2/189/EK5802.40.xsdst ! RUN =  -13851 -13852 -13853 -13854 -13855      0      0      0      0      0! NEVT =     999
FILE = /castor/cern.ch/delphi/MCprod/karlsruhe/wwex_postdst/v98d2/189/EK5802.41.xsdst ! RUN =  -13857 -13858 -13859 -13860 -13862      0      0      0      0      0! NEVT =     997
FILE = /castor/cern.ch/delphi/MCprod/karlsruhe/wwex_postdst/v98d2/189/EK5802.42.xsdst ! RUN =  -13861 -13863 -13864 -13840 -13866      0      0      0      0      0! NEVT =     966
FILE = /castor/cern.ch/delphi/MCprod/karlsruhe/wwex_postdst/v98d2/189/EK5802.43.xsdst ! RUN =  -13868 -13869 -13870 -13871 -13872      0      0      0      0      0! NEVT =     998
FILE = /castor/cern.ch/delphi/MCprod/karlsruhe/wwex_postdst/v98d2/189/EK5802.44.xsdst ! RUN =  -13875 -13876 -13865 -13867 -13873      0      0      0      0      0! NEVT =     999
FILE = /castor/cern.ch/delphi/MCprod/karlsruhe/wwex_postdst/v98d2/189/EK5802.45.xsdst ! RUN =  -13874 -13820 -13880 -13881 -13825      0      0      0      0      0! NEVT =     998
FILE = /castor/cern.ch/delphi/MCprod/karlsruhe/wwex_postdst/v98d2/189/EK5802.46.xsdst ! RUN =  -13882 -13883 -13884 -13841 -13816      0      0      0      0      0! NEVT =    1000
FILE = /castor/cern.ch/delphi/MCprod/karlsruhe/wwex_postdst/v98d2/189/EK5802.47.xsdst ! RUN =  -13879 -13817 -13886 -13885 -13889      0      0      0      0      0! NEVT =    1000
FILE = /castor/cern.ch/delphi/MCprod/karlsruhe/wwex_postdst/v98d2/189/EK5802.48.xsdst ! RUN =  -13831 -13890 -13893 -13891 -13838      0      0      0      0      0! NEVT =    1000
FILE = /castor/cern.ch/delphi/MCprod/karlsruhe/wwex_postdst/v98d2/189/EK5802.49.xsdst ! RUN =  -13888 -13898 -13899 -13900 -13901      0      0      0      0      0! NEVT =    1000
FILE = /castor/cern.ch/delphi/MCprod/karlsruhe/wwex_postdst/v98d2/189/EK5802.50.xsdst ! RUN =  -13902 -13892 -13894 -13906 -13910      0      0      0      0      0! NEVT =     999
FILE = /castor/cern.ch/delphi/MCprod/karlsruhe/wwex_postdst/v98d2/189/EK5802.51.xsdst ! RUN =  -13903 -13904 -13905 -13877 -13878      0      0      0      0      0! NEVT =    1000
FILE = /castor/cern.ch/delphi/MCprod/karlsruhe/wwex_postdst/v98d2/189/EK5802.52.xsdst ! RUN =  -13907 -13908 -13909 -13911 -13912      0      0      0      0      0! NEVT =    1000
FILE = /castor/cern.ch/delphi/MCprod/karlsruhe/wwex_postdst/v98d2/189/EK5802.53.xsdst ! RUN =  -13887 -13895 -13896 -13897 -13915      0      0      0      0      0! NEVT =    1000
FILE = /castor/cern.ch/delphi/MCprod/karlsruhe/wwex_postdst/v98d2/189/EK5802.54.xsdst ! RUN =  -13918 -13920 -13921 -13913 -13923      0      0      0      0      0! NEVT =    1000
FILE = /castor/cern.ch/delphi/MCprod/karlsruhe/wwex_postdst/v98d2/189/EK5802.55.xsdst ! RUN =  -13924 -13925 -13929 -13936 -13261      0      0      0      0      0! NEVT =    1000
FILE = /castor/cern.ch/delphi/MCprod/karlsruhe/wwex_postdst/v98d2/189/EK5802.56.xsdst ! RUN =  -13930 -13916 -13272 -13931 -13932      0      0      0      0      0! NEVT =    1000
FILE = /castor/cern.ch/delphi/MCprod/karlsruhe/wwex_postdst/v98d2/189/EK5802.57.xsdst ! RUN =  -13933 -13934 -13919 -13914 -13937      0      0      0      0      0! NEVT =     941
FILE = /castor/cern.ch/delphi/MCprod/karlsruhe/wwex_postdst/v98d2/189/EK5802.58.xsdst ! RUN =  -13938 -13942 -13940 -13943 -13945      0      0      0      0      0! NEVT =     910
FILE = /castor/cern.ch/delphi/MCprod/karlsruhe/wwex_postdst/v98d2/189/EK5802.59.xsdst ! RUN =  -13948 -13927 -13950 -13941 -13722      0      0      0      0      0! NEVT =    1000
FILE = /castor/cern.ch/delphi/MCprod/karlsruhe/wwex_postdst/v98d2/189/EK5802.60.xsdst ! RUN =  -13955 -13958 -13959 -13964 -13966      0      0      0      0      0! NEVT =    1000
FILE = /castor/cern.ch/delphi/MCprod/karlsruhe/wwex_postdst/v98d2/189/EK5802.61.xsdst ! RUN =  -13967 -13968 -13969 -13970 -13917      0      0      0      0      0! NEVT =    1000
FILE = /castor/cern.ch/delphi/MCprod/karlsruhe/wwex_postdst/v98d2/189/EK5802.62.xsdst ! RUN =  -13971 -13974 -13956 -13953 -13935      0      0      0      0      0! NEVT =    1000
FILE = /castor/cern.ch/delphi/MCprod/karlsruhe/wwex_postdst/v98d2/189/EK5803.1.xsdst ! RUN =  -13946 -13947 -13981 -13600 -13949      0      0      0      0      0! NEVT =    1000
FILE = /castor/cern.ch/delphi/MCprod/karlsruhe/wwex_postdst/v98d2/189/EK5803.2.xsdst ! RUN =  -13984 -13944 -13952 -13957 -13985      0      0      0      0      0! NEVT =     999
FILE = /castor/cern.ch/delphi/MCprod/karlsruhe/wwex_postdst/v98d2/189/EK5803.3.xsdst ! RUN =  -13972 -13986 -13987 -13988 -13989      0      0      0      0      0! NEVT =     999
FILE = /castor/cern.ch/delphi/MCprod/karlsruhe/wwex_postdst/v98d2/189/EK5803.4.xsdst ! RUN =  -13990 -13991 -13993 -13995 -13994      0      0      0      0      0! NEVT =     999
FILE = /castor/cern.ch/delphi/MCprod/karlsruhe/wwex_postdst/v98d2/189/EK5803.5.xsdst ! RUN =  -13996 -13997 -13998 -13999 -13980      0      0      0      0      0! NEVT =    1000
FILE = /castor/cern.ch/delphi/MCprod/karlsruhe/wwex_postdst/v98d2/189/EK5803.6.xsdst ! RUN =  -14002 -14003 -14004 -14005 -14006      0      0      0      0      0! NEVT =     999
FILE = /castor/cern.ch/delphi/MCprod/karlsruhe/wwex_postdst/v98d2/189/EK5803.7.xsdst ! RUN =  -14007 -14008 -14009 -14010 -14012      0      0      0      0      0! NEVT =     999
FILE = /castor/cern.ch/delphi/MCprod/karlsruhe/wwex_postdst/v98d2/189/EK5803.8.xsdst ! RUN =  -14014 -14015 -14000 -14016 -14001      0      0      0      0      0! NEVT =    1000
FILE = /castor/cern.ch/delphi/MCprod/karlsruhe/wwex_postdst/v98d2/189/EK5803.9.xsdst ! RUN =  -14018 -14011 -14019 -14020 -14017      0      0      0      0      0! NEVT =     999
FILE = /castor/cern.ch/delphi/MCprod/karlsruhe/wwex_postdst/v98d2/189/EK5803.10.xsdst ! RUN =  -14021 -14023 -14028 -14024 -14025      0      0      0      0      0! NEVT =     999
FILE = /castor/cern.ch/delphi/MCprod/karlsruhe/wwex_postdst/v98d2/189/EK5803.11.xsdst ! RUN =  -14022 -14031 -14026 -14027 -14029      0      0      0      0      0! NEVT =    1000
FILE = /castor/cern.ch/delphi/MCprod/karlsruhe/wwex_postdst/v98d2/189/EK5803.12.xsdst ! RUN =  -14030 -14036 -14032 -14035 -14037 -14038      0      0      0      0! NEVT =    1015
FILE = /castor/cern.ch/delphi/MCprod/karlsruhe/wwex_postdst/v98d2/189/EK5803.13.xsdst ! RUN =  -14040 -14041 -14033 -14046 -14047      0      0      0      0      0! NEVT =    1000
FILE = /castor/cern.ch/delphi/MCprod/karlsruhe/wwex_postdst/v98d2/189/EK5803.14.xsdst ! RUN =  -14048 -14044 -14051 -14052 -14045      0      0      0      0      0! NEVT =    1000
FILE = /castor/cern.ch/delphi/MCprod/karlsruhe/wwex_postdst/v98d2/189/EK5803.15.xsdst ! RUN =  -14053 -14049 -14050 -14054 -14055      0      0      0      0      0! NEVT =    1000
FILE = /castor/cern.ch/delphi/MCprod/karlsruhe/wwex_postdst/v98d2/189/EK5803.16.xsdst ! RUN =  -14056 -14057 -14059 -14042 -14043      0      0      0      0      0! NEVT =    1000
FILE = /castor/cern.ch/delphi/MCprod/karlsruhe/wwex_postdst/v98d2/189/EK5803.17.xsdst ! RUN =  -14061 -14062 -14063 -14039 -14060      0      0      0      0      0! NEVT =    1000
FILE = /castor/cern.ch/delphi/MCprod/karlsruhe/wwex_postdst/v98d2/189/EK5803.18.xsdst ! RUN =  -14064 -14067 -14066 -14068 -14069      0      0      0      0      0! NEVT =    1000
FILE = /castor/cern.ch/delphi/MCprod/karlsruhe/wwex_postdst/v98d2/189/EK5803.19.xsdst ! RUN =  -14071 -14072 -14065 -14070 -14073      0      0      0      0      0! NEVT =    1000
FILE = /castor/cern.ch/delphi/MCprod/karlsruhe/wwex_postdst/v98d2/189/EK5803.20.xsdst ! RUN =  -14075 -14084 -14074 -14076 -14077      0      0      0      0      0! NEVT =    1000
FILE = /castor/cern.ch/delphi/MCprod/karlsruhe/wwex_postdst/v98d2/189/EK5803.21.xsdst ! RUN =  -14078 -14079 -14080 -14081 -14082      0      0      0      0      0! NEVT =    1000
FILE = /castor/cern.ch/delphi/MCprod/karlsruhe/wwex_postdst/v98d2/189/EK5803.22.xsdst ! RUN =  -14083 -14085 -14087 -14090 -14091      0      0      0      0      0! NEVT =    1000
FILE = /castor/cern.ch/delphi/MCprod/karlsruhe/wwex_postdst/v98d2/189/EK5803.23.xsdst ! RUN =  -14086 -14088 -13806 -14116 -14117      0      0      0      0      0! NEVT =    1000
FILE = /castor/cern.ch/delphi/MCprod/karlsruhe/wwex_postdst/v98d2/189/EK5803.24.xsdst ! RUN =  -14095 -14100 -14118 -14109 -14101      0      0      0      0      0! NEVT =    1000
FILE = /castor/cern.ch/delphi/MCprod/karlsruhe/wwex_postdst/v98d2/189/EK5803.25.xsdst ! RUN =  -14102 -14103 -14104 -14105 -14106      0      0      0      0      0! NEVT =    1000
FILE = /castor/cern.ch/delphi/MCprod/karlsruhe/wwex_postdst/v98d2/189/EK5803.26.xsdst ! RUN =  -14107 -14108 -14110 -14112 -13965      0      0      0      0      0! NEVT =    1000
FILE = /castor/cern.ch/delphi/MCprod/karlsruhe/wwex_postdst/v98d2/189/EK5803.27.xsdst ! RUN =  -14115 -14126 -14131 -14133 -14134      0      0      0      0      0! NEVT =    1000
FILE = /castor/cern.ch/delphi/MCprod/karlsruhe/wwex_postdst/v98d2/189/EK5803.28.xsdst ! RUN =  -14135 -14136 -14139 -14140 -14137      0      0      0      0      0! NEVT =    1000
FILE = /castor/cern.ch/delphi/MCprod/karlsruhe/wwex_postdst/v98d2/189/EK5803.29.xsdst ! RUN =  -14141 -14138 -14123 -14124 -13982      0      0      0      0      0! NEVT =     999
FILE = /castor/cern.ch/delphi/MCprod/karlsruhe/wwex_postdst/v98d2/189/EK5803.30.xsdst ! RUN =  -13983 -14128 -14094 -14142 -14143      0      0      0      0      0! NEVT =    1000
FILE = /castor/cern.ch/delphi/MCprod/karlsruhe/wwex_postdst/v98d2/189/EK5803.31.xsdst ! RUN =  -14147 -14148 -14150 -14149 -14151      0      0      0      0      0! NEVT =    1000
FILE = /castor/cern.ch/delphi/MCprod/karlsruhe/wwex_postdst/v98d2/189/EK5803.32.xsdst ! RUN =  -14152 -14157 -14127 -14129 -14130      0      0      0      0      0! NEVT =    1000
FILE = /castor/cern.ch/delphi/MCprod/karlsruhe/wwex_postdst/v98d2/189/EK5803.33.xsdst ! RUN =  -14154 -14156 -14155 -14145 -14144      0      0      0      0      0! NEVT =     999
FILE = /castor/cern.ch/delphi/MCprod/karlsruhe/wwex_postdst/v98d2/189/EK5803.34.xsdst ! RUN =  -14122 -14164 -13960 -13961 -14163      0      0      0      0      0! NEVT =    1000
FILE = /castor/cern.ch/delphi/MCprod/karlsruhe/wwex_postdst/v98d2/189/EK5803.35.xsdst ! RUN =  -14132 -14158 -14146 -14159 -14111      0      0      0      0      0! NEVT =    1000
FILE = /castor/cern.ch/delphi/MCprod/karlsruhe/wwex_postdst/v98d2/189/EK5803.36.xsdst ! RUN =  -14114 -14167 -14168 -13963 -14113      0      0      0      0      0! NEVT =    1000
FILE = /castor/cern.ch/delphi/MCprod/karlsruhe/wwex_postdst/v98d2/189/EK5803.37.xsdst ! RUN =  -14166 -13954 -14120 -14162 -14165      0      0      0      0      0! NEVT =     998
FILE = /castor/cern.ch/delphi/MCprod/karlsruhe/wwex_postdst/v98d2/189/EK5803.38.xsdst ! RUN =  -13979 -14173 -14153 -14175 -14176      0      0      0      0      0! NEVT =    1000
FILE = /castor/cern.ch/delphi/MCprod/karlsruhe/wwex_postdst/v98d2/189/EK5803.39.xsdst ! RUN =  -14169 -14170 -14171 -14172 -13978      0      0      0      0      0! NEVT =     999
FILE = /castor/cern.ch/delphi/MCprod/karlsruhe/wwex_postdst/v98d2/189/EK5803.40.xsdst ! RUN =  -14177 -14181 -14160 -14161 -14192      0      0      0      0      0! NEVT =    1000
FILE = /castor/cern.ch/delphi/MCprod/karlsruhe/wwex_postdst/v98d2/189/EK5803.41.xsdst ! RUN =  -14179 -14183 -14182 -14199 -14201      0      0      0      0      0! NEVT =    1000
FILE = /castor/cern.ch/delphi/MCprod/karlsruhe/wwex_postdst/v98d2/189/EK5803.42.xsdst ! RUN =  -14178 -14209 -14210 -14212 -14203      0      0      0      0      0! NEVT =    1000
FILE = /castor/cern.ch/delphi/MCprod/karlsruhe/wwex_postdst/v98d2/189/EK5803.43.xsdst ! RUN =  -14202 -14186 -14206 -14194 -14211      0      0      0      0      0! NEVT =    1000
FILE = /castor/cern.ch/delphi/MCprod/karlsruhe/wwex_postdst/v98d2/189/EK5803.44.xsdst ! RUN =  -14213 -14214 -14215 -14188 -14187      0      0      0      0      0! NEVT =     998
FILE = /castor/cern.ch/delphi/MCprod/karlsruhe/wwex_postdst/v98d2/189/EK5803.45.xsdst ! RUN =  -14190 -14216 -14217 -14200 -14189      0      0      0      0      0! NEVT =    1000
FILE = /castor/cern.ch/delphi/MCprod/karlsruhe/wwex_postdst/v98d2/189/EK5803.46.xsdst ! RUN =  -14220 -14224 -14204 -14226 -14227      0      0      0      0      0! NEVT =    1000
FILE = /castor/cern.ch/delphi/MCprod/karlsruhe/wwex_postdst/v98d2/189/EK5803.47.xsdst ! RUN =  -14221 -14222 -14219 -14218 -14223      0      0      0      0      0! NEVT =    1000
FILE = /castor/cern.ch/delphi/MCprod/karlsruhe/wwex_postdst/v98d2/189/EK5803.48.xsdst ! RUN =  -14229 -14208 -14228 -14231 -14232      0      0      0      0      0! NEVT =    1000
FILE = /castor/cern.ch/delphi/MCprod/karlsruhe/wwex_postdst/v98d2/189/EK5803.49.xsdst ! RUN =  -14233 -14234 -14235 -14174 -14230      0      0      0      0      0! NEVT =    1000
FILE = /castor/cern.ch/delphi/MCprod/karlsruhe/wwex_postdst/v98d2/189/EK5803.50.xsdst ! RUN =  -14238 -14092 -14240 -14246 -14247      0      0      0      0      0! NEVT =    1000
FILE = /castor/cern.ch/delphi/MCprod/karlsruhe/wwex_postdst/v98d2/189/EK5803.51.xsdst ! RUN =  -14250 -14185 -14255 -14237 -14254      0      0      0      0      0! NEVT =    1000
FILE = /castor/cern.ch/delphi/MCprod/karlsruhe/wwex_postdst/v98d2/189/EK5803.52.xsdst ! RUN =  -14256 -14257 -14119 -14236 -14259      0      0      0      0      0! NEVT =    1000
FILE = /castor/cern.ch/delphi/MCprod/karlsruhe/wwex_postdst/v98d2/189/EK5803.53.xsdst ! RUN =  -14261 -13973 -13975 -14125 -14184      0      0      0      0      0! NEVT =     942
FILE = /castor/cern.ch/delphi/MCprod/karlsruhe/wwex_postdst/v98d2/189/EK5803.54.xsdst ! RUN =  -14239 -14249 -14093 -14263 -14244      0      0      0      0      0! NEVT =    1000
FILE = /castor/cern.ch/delphi/MCprod/karlsruhe/wwex_postdst/v98d2/189/EK5803.55.xsdst ! RUN =  -14245 -14270 -14272 -14191 -14251      0      0      0      0      0! NEVT =    1000
FILE = /castor/cern.ch/delphi/MCprod/karlsruhe/wwex_postdst/v98d2/189/EK5803.56.xsdst ! RUN =  -14193 -14195 -14196 -14197 -14198      0      0      0      0      0! NEVT =     999
FILE = /castor/cern.ch/delphi/MCprod/karlsruhe/wwex_postdst/v98d2/189/EK5803.57.xsdst ! RUN =  -14268 -14269 -14248 -14253 -14258      0      0      0      0      0! NEVT =    1000
FILE = /castor/cern.ch/delphi/MCprod/karlsruhe/wwex_postdst/v98d2/189/EK5803.58.xsdst ! RUN =  -14271 -14097 -14274 -14275 -14099      0      0      0      0      0! NEVT =    1000
FILE = /castor/cern.ch/delphi/MCprod/karlsruhe/wwex_postdst/v98d2/189/EK5803.59.xsdst ! RUN =  -14096 -14098 -14298 -14205 -14243      0      0      0      0      0! NEVT =     999
FILE = /castor/cern.ch/delphi/MCprod/karlsruhe/wwex_postdst/v98d2/189/EK5803.60.xsdst ! RUN =  -14277 -14278 -14279 -14241 -14295      0      0      0      0      0! NEVT =     999
FILE = /castor/cern.ch/delphi/MCprod/karlsruhe/wwex_postdst/v98d2/189/EK5803.61.xsdst ! RUN =  -14267 -14291 -14292 -14207 -14264      0      0      0      0      0! NEVT =    1000
FILE = /castor/cern.ch/delphi/MCprod/karlsruhe/wwex_postdst/v98d2/189/EK5803.62.xsdst ! RUN =  -14300 -14265 -14302 -14260 -14304      0      0      0      0      0! NEVT =    1000
