*
*   Nickname     : xs_wwex202be32f_e200_r99_1l_a1
*   Generic Name : //CERN/DELPHI/P02_SIMD/XSDST/WWEX202BE32F/RAL/SUMT/C001-50
*   Description  :  Extended Short DST simulation 99_a1 200 , RAL
*---
*   Comments     : in total 49437 events in 50 files time stamp: Fri Aug 10 14:15:08 2001
*---
*
*
*
*
*
FILE = /castor/cern.ch/delphi/MCprod/ral/wwex202be32f/v99_4/200/wwex202be32f_200_12101.xsdst ! RUN = 12101 ! NEVT = 1000
FILE = /castor/cern.ch/delphi/MCprod/ral/wwex202be32f/v99_4/200/wwex202be32f_200_12102.xsdst ! RUN = 12102 ! NEVT = 1000
FILE = /castor/cern.ch/delphi/MCprod/ral/wwex202be32f/v99_4/200/wwex202be32f_200_12103.xsdst ! RUN = 12103 ! NEVT = 1000
FILE = /castor/cern.ch/delphi/MCprod/ral/wwex202be32f/v99_4/200/wwex202be32f_200_12104.xsdst ! RUN = 12104 ! NEVT = 1000
FILE = /castor/cern.ch/delphi/MCprod/ral/wwex202be32f/v99_4/200/wwex202be32f_200_12105.xsdst ! RUN = 12105 ! NEVT = 999
FILE = /castor/cern.ch/delphi/MCprod/ral/wwex202be32f/v99_4/200/wwex202be32f_200_12106.xsdst ! RUN = 12106 ! NEVT = 1000
FILE = /castor/cern.ch/delphi/MCprod/ral/wwex202be32f/v99_4/200/wwex202be32f_200_12107.xsdst ! RUN = 12107 ! NEVT = 1000
FILE = /castor/cern.ch/delphi/MCprod/ral/wwex202be32f/v99_4/200/wwex202be32f_200_12108.xsdst ! RUN = 12108 ! NEVT = 1000
FILE = /castor/cern.ch/delphi/MCprod/ral/wwex202be32f/v99_4/200/wwex202be32f_200_12109.xsdst ! RUN = 12109 ! NEVT = 1000
FILE = /castor/cern.ch/delphi/MCprod/ral/wwex202be32f/v99_4/200/wwex202be32f_200_12110.xsdst ! RUN = 12110 ! NEVT = 1000
FILE = /castor/cern.ch/delphi/MCprod/ral/wwex202be32f/v99_4/200/wwex202be32f_200_12111.xsdst ! RUN = 12111 ! NEVT = 1000
FILE = /castor/cern.ch/delphi/MCprod/ral/wwex202be32f/v99_4/200/wwex202be32f_200_12112.xsdst ! RUN = 12112 ! NEVT = 1000
FILE = /castor/cern.ch/delphi/MCprod/ral/wwex202be32f/v99_4/200/wwex202be32f_200_12113.xsdst ! RUN = 12113 ! NEVT = 999
FILE = /castor/cern.ch/delphi/MCprod/ral/wwex202be32f/v99_4/200/wwex202be32f_200_12114.xsdst ! RUN = 12114 ! NEVT = 1000
FILE = /castor/cern.ch/delphi/MCprod/ral/wwex202be32f/v99_4/200/wwex202be32f_200_12115.xsdst ! RUN = 12115 ! NEVT = 999
FILE = /castor/cern.ch/delphi/MCprod/ral/wwex202be32f/v99_4/200/wwex202be32f_200_12116.xsdst ! RUN = 12116 ! NEVT = 1000
FILE = /castor/cern.ch/delphi/MCprod/ral/wwex202be32f/v99_4/200/wwex202be32f_200_12117.xsdst ! RUN = 12117 ! NEVT = 1000
FILE = /castor/cern.ch/delphi/MCprod/ral/wwex202be32f/v99_4/200/wwex202be32f_200_12118.xsdst ! RUN = 12118 ! NEVT = 1000
FILE = /castor/cern.ch/delphi/MCprod/ral/wwex202be32f/v99_4/200/wwex202be32f_200_12119.xsdst ! RUN = 12119 ! NEVT = 1000
FILE = /castor/cern.ch/delphi/MCprod/ral/wwex202be32f/v99_4/200/wwex202be32f_200_12120.xsdst ! RUN = 12120 ! NEVT = 1000
FILE = /castor/cern.ch/delphi/MCprod/ral/wwex202be32f/v99_4/200/wwex202be32f_200_12121.xsdst ! RUN = 12121 ! NEVT = 454
FILE = /castor/cern.ch/delphi/MCprod/ral/wwex202be32f/v99_4/200/wwex202be32f_200_12122.xsdst ! RUN = 12122 ! NEVT = 998
FILE = /castor/cern.ch/delphi/MCprod/ral/wwex202be32f/v99_4/200/wwex202be32f_200_12123.xsdst ! RUN = 12123 ! NEVT = 999
FILE = /castor/cern.ch/delphi/MCprod/ral/wwex202be32f/v99_4/200/wwex202be32f_200_12124.xsdst ! RUN = 12124 ! NEVT = 1000
FILE = /castor/cern.ch/delphi/MCprod/ral/wwex202be32f/v99_4/200/wwex202be32f_200_12125.xsdst ! RUN = 12125 ! NEVT = 1000
FILE = /castor/cern.ch/delphi/MCprod/ral/wwex202be32f/v99_4/200/wwex202be32f_200_12126.xsdst ! RUN = 12126 ! NEVT = 1000
FILE = /castor/cern.ch/delphi/MCprod/ral/wwex202be32f/v99_4/200/wwex202be32f_200_12127.xsdst ! RUN = 12127 ! NEVT = 1000
FILE = /castor/cern.ch/delphi/MCprod/ral/wwex202be32f/v99_4/200/wwex202be32f_200_12128.xsdst ! RUN = 12128 ! NEVT = 1000
FILE = /castor/cern.ch/delphi/MCprod/ral/wwex202be32f/v99_4/200/wwex202be32f_200_12129.xsdst ! RUN = 12129 ! NEVT = 1000
FILE = /castor/cern.ch/delphi/MCprod/ral/wwex202be32f/v99_4/200/wwex202be32f_200_12130.xsdst ! RUN = 12130 ! NEVT = 998
FILE = /castor/cern.ch/delphi/MCprod/ral/wwex202be32f/v99_4/200/wwex202be32f_200_12131.xsdst ! RUN = 12131 ! NEVT = 1000
FILE = /castor/cern.ch/delphi/MCprod/ral/wwex202be32f/v99_4/200/wwex202be32f_200_12132.xsdst ! RUN = 12132 ! NEVT = 999
FILE = /castor/cern.ch/delphi/MCprod/ral/wwex202be32f/v99_4/200/wwex202be32f_200_12133.xsdst ! RUN = 12133 ! NEVT = 1000
FILE = /castor/cern.ch/delphi/MCprod/ral/wwex202be32f/v99_4/200/wwex202be32f_200_12134.xsdst ! RUN = 12134 ! NEVT = 1000
FILE = /castor/cern.ch/delphi/MCprod/ral/wwex202be32f/v99_4/200/wwex202be32f_200_12135.xsdst ! RUN = 12135 ! NEVT = 1000
FILE = /castor/cern.ch/delphi/MCprod/ral/wwex202be32f/v99_4/200/wwex202be32f_200_12136.xsdst ! RUN = 12136 ! NEVT = 999
FILE = /castor/cern.ch/delphi/MCprod/ral/wwex202be32f/v99_4/200/wwex202be32f_200_12137.xsdst ! RUN = 12137 ! NEVT = 999
FILE = /castor/cern.ch/delphi/MCprod/ral/wwex202be32f/v99_4/200/wwex202be32f_200_12138.xsdst ! RUN = 12138 ! NEVT = 1000
FILE = /castor/cern.ch/delphi/MCprod/ral/wwex202be32f/v99_4/200/wwex202be32f_200_12139.xsdst ! RUN = 12139 ! NEVT = 998
FILE = /castor/cern.ch/delphi/MCprod/ral/wwex202be32f/v99_4/200/wwex202be32f_200_12140.xsdst ! RUN = 12140 ! NEVT = 1000
FILE = /castor/cern.ch/delphi/MCprod/ral/wwex202be32f/v99_4/200/wwex202be32f_200_12141.xsdst ! RUN = 12141 ! NEVT = 1000
FILE = /castor/cern.ch/delphi/MCprod/ral/wwex202be32f/v99_4/200/wwex202be32f_200_12142.xsdst ! RUN = 12142 ! NEVT = 1000
FILE = /castor/cern.ch/delphi/MCprod/ral/wwex202be32f/v99_4/200/wwex202be32f_200_12143.xsdst ! RUN = 12143 ! NEVT = 999
FILE = /castor/cern.ch/delphi/MCprod/ral/wwex202be32f/v99_4/200/wwex202be32f_200_12144.xsdst ! RUN = 12144 ! NEVT = 999
FILE = /castor/cern.ch/delphi/MCprod/ral/wwex202be32f/v99_4/200/wwex202be32f_200_12145.xsdst ! RUN = 12145 ! NEVT = 1000
FILE = /castor/cern.ch/delphi/MCprod/ral/wwex202be32f/v99_4/200/wwex202be32f_200_12146.xsdst ! RUN = 12146 ! NEVT = 1000
FILE = /castor/cern.ch/delphi/MCprod/ral/wwex202be32f/v99_4/200/wwex202be32f_200_12147.xsdst ! RUN = 12147 ! NEVT = 998
FILE = /castor/cern.ch/delphi/MCprod/ral/wwex202be32f/v99_4/200/wwex202be32f_200_12148.xsdst ! RUN = 12148 ! NEVT = 1000
FILE = /castor/cern.ch/delphi/MCprod/ral/wwex202be32f/v99_4/200/wwex202be32f_200_12149.xsdst ! RUN = 12149 ! NEVT = 1000
FILE = /castor/cern.ch/delphi/MCprod/ral/wwex202be32f/v99_4/200/wwex202be32f_200_12150.xsdst ! RUN = 12150 ! NEVT = 1000
