*
*   Nickname     : xs_hzha03pyth6156hinvqq_e188.6_m115_r98_1l_e1
*   Generic Name : //CERN/DELPHI/P02_SIMD/XSDST/HZHA03PYTH6156HINVQQ/E188.6/RAL/SUMT/C001-10
*   Description  :  Extended Short DST simulation 98_e1 done at ecms=188.6 , RAL
*---
*   Comments     : in total 5000 events in 10 files time stamp: Sun Nov 25 12:14:29 2001
*---
*
*
*
*
*
FILE = /castor/cern.ch/delphi/MCprod/ral/hzha03pyth6156/v98e/188.6/hzha03pyth6156_hinvqq_188.6_115_51540.xsdst ! RUN = 51540 ! NEVT = 500
FILE = /castor/cern.ch/delphi/MCprod/ral/hzha03pyth6156/v98e/188.6/hzha03pyth6156_hinvqq_188.6_115_51541.xsdst ! RUN = 51541 ! NEVT = 500
FILE = /castor/cern.ch/delphi/MCprod/ral/hzha03pyth6156/v98e/188.6/hzha03pyth6156_hinvqq_188.6_115_51542.xsdst ! RUN = 51542 ! NEVT = 500
FILE = /castor/cern.ch/delphi/MCprod/ral/hzha03pyth6156/v98e/188.6/hzha03pyth6156_hinvqq_188.6_115_51543.xsdst ! RUN = 51543 ! NEVT = 500
FILE = /castor/cern.ch/delphi/MCprod/ral/hzha03pyth6156/v98e/188.6/hzha03pyth6156_hinvqq_188.6_115_51544.xsdst ! RUN = 51544 ! NEVT = 500
FILE = /castor/cern.ch/delphi/MCprod/ral/hzha03pyth6156/v98e/188.6/hzha03pyth6156_hinvqq_188.6_115_51545.xsdst ! RUN = 51545 ! NEVT = 500
FILE = /castor/cern.ch/delphi/MCprod/ral/hzha03pyth6156/v98e/188.6/hzha03pyth6156_hinvqq_188.6_115_51546.xsdst ! RUN = 51546 ! NEVT = 500
FILE = /castor/cern.ch/delphi/MCprod/ral/hzha03pyth6156/v98e/188.6/hzha03pyth6156_hinvqq_188.6_115_51547.xsdst ! RUN = 51547 ! NEVT = 500
FILE = /castor/cern.ch/delphi/MCprod/ral/hzha03pyth6156/v98e/188.6/hzha03pyth6156_hinvqq_188.6_115_51548.xsdst ! RUN = 51548 ! NEVT = 500
FILE = /castor/cern.ch/delphi/MCprod/ral/hzha03pyth6156/v98e/188.6/hzha03pyth6156_hinvqq_188.6_115_51549.xsdst ! RUN = 51549 ! NEVT = 500
