*
*   Nickname     : xs_hzha03pyth6156hinvee_e188.6_m95_r98_1l_e1
*   Generic Name : //CERN/DELPHI/P02_SIMD/XSDST/HZHA03PYTH6156HINVEE/E188.6/RAL/SUMT/C001-10
*   Description  :  Extended Short DST simulation 98_e1 done at ecms=188.6 , RAL
*---
*   Comments     : in total 4994 events in 10 files time stamp: Sun Nov 25 12:14:40 2001
*---
*
*
*
*
*
FILE = /castor/cern.ch/delphi/MCprod/ral/hzha03pyth6156/v98e/188.6/hzha03pyth6156_hinvee_188.6_95_49500.xsdst ! RUN = 49500 ! NEVT = 500
FILE = /castor/cern.ch/delphi/MCprod/ral/hzha03pyth6156/v98e/188.6/hzha03pyth6156_hinvee_188.6_95_49501.xsdst ! RUN = 49501 ! NEVT = 500
FILE = /castor/cern.ch/delphi/MCprod/ral/hzha03pyth6156/v98e/188.6/hzha03pyth6156_hinvee_188.6_95_49502.xsdst ! RUN = 49502 ! NEVT = 499
FILE = /castor/cern.ch/delphi/MCprod/ral/hzha03pyth6156/v98e/188.6/hzha03pyth6156_hinvee_188.6_95_49503.xsdst ! RUN = 49503 ! NEVT = 499
FILE = /castor/cern.ch/delphi/MCprod/ral/hzha03pyth6156/v98e/188.6/hzha03pyth6156_hinvee_188.6_95_49504.xsdst ! RUN = 49504 ! NEVT = 499
FILE = /castor/cern.ch/delphi/MCprod/ral/hzha03pyth6156/v98e/188.6/hzha03pyth6156_hinvee_188.6_95_49505.xsdst ! RUN = 49505 ! NEVT = 500
FILE = /castor/cern.ch/delphi/MCprod/ral/hzha03pyth6156/v98e/188.6/hzha03pyth6156_hinvee_188.6_95_49506.xsdst ! RUN = 49506 ! NEVT = 500
FILE = /castor/cern.ch/delphi/MCprod/ral/hzha03pyth6156/v98e/188.6/hzha03pyth6156_hinvee_188.6_95_49507.xsdst ! RUN = 49507 ! NEVT = 498
FILE = /castor/cern.ch/delphi/MCprod/ral/hzha03pyth6156/v98e/188.6/hzha03pyth6156_hinvee_188.6_95_49508.xsdst ! RUN = 49508 ! NEVT = 499
FILE = /castor/cern.ch/delphi/MCprod/ral/hzha03pyth6156/v98e/188.6/hzha03pyth6156_hinvee_188.6_95_49509.xsdst ! RUN = 49509 ! NEVT = 500
