*
*   Nickname     : xs_hzha03pyth6156hinvtt_e206.5_m85_ra0_1l_e1
*   Generic Name : //CERN/DELPHI/P02_SIMD/XSDST/HZHA03PYTH6156HINVTT/E206.5/RAL/SUMT/C001-4
*   Description  :  Extended Short DST simulation a0_e1 done at ecms=206.5 , RAL
*---
*   Comments     : in total 1999 events in 4 files time stamp: Wed Sep  5 10:34:46 2001
*---
*
*
*
*
*
FILE = /castor/cern.ch/delphi/MCprod/ral/hzha03pyth6156/va0e/206.5/hzha03pyth6156_hinvtt_206.5_85_38560.xsdst ! RUN = 38560 ! NEVT = 499
FILE = /castor/cern.ch/delphi/MCprod/ral/hzha03pyth6156/va0e/206.5/hzha03pyth6156_hinvtt_206.5_85_38561.xsdst ! RUN = 38561 ! NEVT = 500
FILE = /castor/cern.ch/delphi/MCprod/ral/hzha03pyth6156/va0e/206.5/hzha03pyth6156_hinvtt_206.5_85_38562.xsdst ! RUN = 38562 ! NEVT = 500
FILE = /castor/cern.ch/delphi/MCprod/ral/hzha03pyth6156/va0e/206.5/hzha03pyth6156_hinvtt_206.5_85_38563.xsdst ! RUN = 38563 ! NEVT = 500
