*
*   Nickname     : xs_hzha03pyth6156hinvee_e203.7_m55_ra0_1l_e1
*   Generic Name : //CERN/DELPHI/P02_SIMD/XSDST/HZHA03PYTH6156HINVEE/E203.7/RAL/SUMT/C001-4
*   Description  :  Extended Short DST simulation a0_e1 done at ecms=203.7 , RAL
*---
*   Comments     : in total 1998 events in 4 files time stamp: Thu Sep 13 03:32:20 2001
*---
*
*
*
*
*
FILE = /castor/cern.ch/delphi/MCprod/ral/hzha03pyth6156/va0e/203.7/hzha03pyth6156_hinvee_203.7_55_35920.xsdst ! RUN = 35920 ! NEVT = 500
FILE = /castor/cern.ch/delphi/MCprod/ral/hzha03pyth6156/va0e/203.7/hzha03pyth6156_hinvee_203.7_55_35921.xsdst ! RUN = 35921 ! NEVT = 499
FILE = /castor/cern.ch/delphi/MCprod/ral/hzha03pyth6156/va0e/203.7/hzha03pyth6156_hinvee_203.7_55_35922.xsdst ! RUN = 35922 ! NEVT = 500
FILE = /castor/cern.ch/delphi/MCprod/ral/hzha03pyth6156/va0e/203.7/hzha03pyth6156_hinvee_203.7_55_35923.xsdst ! RUN = 35923 ! NEVT = 499
