*
*   Nickname     : xs_hzha03pyth6156hinvmu_e208_m65_ra0_1l_e1
*   Generic Name : //CERN/DELPHI/P02_SIMD/XSDST/HZHA03PYTH6156HINVMU/RAL/SUMT/C001-4
*   Description  :  Extended Short DST simulation a0_e1 208 , RAL
*---
*   Comments     : in total 2000 events in 4 files time stamp: Sun Sep  9 07:25:50 2001
*---
*
*
*
*
*
FILE = /castor/cern.ch/delphi/MCprod/ral/hzha03pyth6156/va0e/208/hzha03pyth6156_hinvmu_208_65_36740.xsdst ! RUN = 36740 ! NEVT = 500
FILE = /castor/cern.ch/delphi/MCprod/ral/hzha03pyth6156/va0e/208/hzha03pyth6156_hinvmu_208_65_36741.xsdst ! RUN = 36741 ! NEVT = 500
FILE = /castor/cern.ch/delphi/MCprod/ral/hzha03pyth6156/va0e/208/hzha03pyth6156_hinvmu_208_65_36742.xsdst ! RUN = 36742 ! NEVT = 500
FILE = /castor/cern.ch/delphi/MCprod/ral/hzha03pyth6156/va0e/208/hzha03pyth6156_hinvmu_208_65_36743.xsdst ! RUN = 36743 ! NEVT = 500
