*
*   Nickname     : xs_hzha03pyth6156hinvqq_e205_m112.5_ra0_1l_e1
*   Generic Name : //CERN/DELPHI/P02_SIMD/XSDST/HZHA03PYTH6156HINVQQ/RAL/SUMT/C001-10
*   Description  :  Extended Short DST simulation a0_e1 205 , RAL
*---
*   Comments     : in total 5000 events in 10 files time stamp: Wed Sep 12 18:23:12 2001
*---
*
*
*
*
*
FILE = /castor/cern.ch/delphi/MCprod/ral/hzha03pyth6156/va0e/205/hzha03pyth6156_hinvqq_205_112.5_41550.xsdst ! RUN = 41550 ! NEVT = 500
FILE = /castor/cern.ch/delphi/MCprod/ral/hzha03pyth6156/va0e/205/hzha03pyth6156_hinvqq_205_112.5_41551.xsdst ! RUN = 41551 ! NEVT = 500
FILE = /castor/cern.ch/delphi/MCprod/ral/hzha03pyth6156/va0e/205/hzha03pyth6156_hinvqq_205_112.5_41552.xsdst ! RUN = 41552 ! NEVT = 500
FILE = /castor/cern.ch/delphi/MCprod/ral/hzha03pyth6156/va0e/205/hzha03pyth6156_hinvqq_205_112.5_41553.xsdst ! RUN = 41553 ! NEVT = 500
FILE = /castor/cern.ch/delphi/MCprod/ral/hzha03pyth6156/va0e/205/hzha03pyth6156_hinvqq_205_112.5_41554.xsdst ! RUN = 41554 ! NEVT = 500
FILE = /castor/cern.ch/delphi/MCprod/ral/hzha03pyth6156/va0e/205/hzha03pyth6156_hinvqq_205_112.5_41555.xsdst ! RUN = 41555 ! NEVT = 500
FILE = /castor/cern.ch/delphi/MCprod/ral/hzha03pyth6156/va0e/205/hzha03pyth6156_hinvqq_205_112.5_41556.xsdst ! RUN = 41556 ! NEVT = 500
FILE = /castor/cern.ch/delphi/MCprod/ral/hzha03pyth6156/va0e/205/hzha03pyth6156_hinvqq_205_112.5_41557.xsdst ! RUN = 41557 ! NEVT = 500
FILE = /castor/cern.ch/delphi/MCprod/ral/hzha03pyth6156/va0e/205/hzha03pyth6156_hinvqq_205_112.5_41558.xsdst ! RUN = 41558 ! NEVT = 500
FILE = /castor/cern.ch/delphi/MCprod/ral/hzha03pyth6156/va0e/205/hzha03pyth6156_hinvqq_205_112.5_41559.xsdst ! RUN = 41559 ! NEVT = 500
