*
*   Nickname     : xs_hzha03pyth6156hinvqq_e208_m107.5_ra0_1l_e1
*   Generic Name : //CERN/DELPHI/P02_SIMD/XSDST/HZHA03PYTH6156HINVQQ/RAL/SUMT/C001-10
*   Description  :  Extended Short DST simulation a0_e1 208 , RAL
*---
*   Comments     : in total 4998 events in 10 files time stamp: Sat Sep  8 17:26:33 2001
*---
*
*
*
*
*
FILE = /castor/cern.ch/delphi/MCprod/ral/hzha03pyth6156/va0e/208/hzha03pyth6156_hinvqq_208_107.5_40950.xsdst ! RUN = 40950 ! NEVT = 500
FILE = /castor/cern.ch/delphi/MCprod/ral/hzha03pyth6156/va0e/208/hzha03pyth6156_hinvqq_208_107.5_40951.xsdst ! RUN = 40951 ! NEVT = 500
FILE = /castor/cern.ch/delphi/MCprod/ral/hzha03pyth6156/va0e/208/hzha03pyth6156_hinvqq_208_107.5_40952.xsdst ! RUN = 40952 ! NEVT = 499
FILE = /castor/cern.ch/delphi/MCprod/ral/hzha03pyth6156/va0e/208/hzha03pyth6156_hinvqq_208_107.5_40953.xsdst ! RUN = 40953 ! NEVT = 500
FILE = /castor/cern.ch/delphi/MCprod/ral/hzha03pyth6156/va0e/208/hzha03pyth6156_hinvqq_208_107.5_40954.xsdst ! RUN = 40954 ! NEVT = 500
FILE = /castor/cern.ch/delphi/MCprod/ral/hzha03pyth6156/va0e/208/hzha03pyth6156_hinvqq_208_107.5_40955.xsdst ! RUN = 40955 ! NEVT = 500
FILE = /castor/cern.ch/delphi/MCprod/ral/hzha03pyth6156/va0e/208/hzha03pyth6156_hinvqq_208_107.5_40956.xsdst ! RUN = 40956 ! NEVT = 500
FILE = /castor/cern.ch/delphi/MCprod/ral/hzha03pyth6156/va0e/208/hzha03pyth6156_hinvqq_208_107.5_40957.xsdst ! RUN = 40957 ! NEVT = 500
FILE = /castor/cern.ch/delphi/MCprod/ral/hzha03pyth6156/va0e/208/hzha03pyth6156_hinvqq_208_107.5_40958.xsdst ! RUN = 40958 ! NEVT = 499
FILE = /castor/cern.ch/delphi/MCprod/ral/hzha03pyth6156/va0e/208/hzha03pyth6156_hinvqq_208_107.5_40959.xsdst ! RUN = 40959 ! NEVT = 500
