*
*   Nickname     : xs_hzha03pyth6156hinvtt_e206.5_m110_ra0_1l_e1
*   Generic Name : //CERN/DELPHI/P02_SIMD/XSDST/HZHA03PYTH6156HINVTT/E206.5/RAL/SUMT/C001-4
*   Description  :  Extended Short DST simulation a0_e1 done at ecms=206.5 , RAL
*---
*   Comments     : in total 2000 events in 4 files time stamp: Wed Sep  5 10:35:20 2001
*---
*
*
*
*
*
FILE = /castor/cern.ch/delphi/MCprod/ral/hzha03pyth6156/va0e/206.5/hzha03pyth6156_hinvtt_206.5_110_41060.xsdst ! RUN = 41060 ! NEVT = 500
FILE = /castor/cern.ch/delphi/MCprod/ral/hzha03pyth6156/va0e/206.5/hzha03pyth6156_hinvtt_206.5_110_41061.xsdst ! RUN = 41061 ! NEVT = 500
FILE = /castor/cern.ch/delphi/MCprod/ral/hzha03pyth6156/va0e/206.5/hzha03pyth6156_hinvtt_206.5_110_41062.xsdst ! RUN = 41062 ! NEVT = 500
FILE = /castor/cern.ch/delphi/MCprod/ral/hzha03pyth6156/va0e/206.5/hzha03pyth6156_hinvtt_206.5_110_41063.xsdst ! RUN = 41063 ! NEVT = 500
