*
*   Nickname     : xs_hzha03pyth6156hinvee_e203.7_m95_ra0_1l_e1
*   Generic Name : //CERN/DELPHI/P02_SIMD/XSDST/HZHA03PYTH6156HINVEE/E203.7/RAL/SUMT/C001-4
*   Description  :  Extended Short DST simulation a0_e1 done at ecms=203.7 , RAL
*---
*   Comments     : in total 2000 events in 4 files time stamp: Thu Sep 13 04:22:55 2001
*---
*
*
*
*
*
FILE = /castor/cern.ch/delphi/MCprod/ral/hzha03pyth6156/va0e/203.7/hzha03pyth6156_hinvee_203.7_95_39920.xsdst ! RUN = 39920 ! NEVT = 500
FILE = /castor/cern.ch/delphi/MCprod/ral/hzha03pyth6156/va0e/203.7/hzha03pyth6156_hinvee_203.7_95_39921.xsdst ! RUN = 39921 ! NEVT = 500
FILE = /castor/cern.ch/delphi/MCprod/ral/hzha03pyth6156/va0e/203.7/hzha03pyth6156_hinvee_203.7_95_39922.xsdst ! RUN = 39922 ! NEVT = 500
FILE = /castor/cern.ch/delphi/MCprod/ral/hzha03pyth6156/va0e/203.7/hzha03pyth6156_hinvee_203.7_95_39923.xsdst ! RUN = 39923 ! NEVT = 500
