*
*   Nickname     : xs_hzha03pyth6156hinvee_e208_m95_ra0_1l_e1
*   Generic Name : //CERN/DELPHI/P02_SIMD/XSDST/HZHA03PYTH6156HINVEE/RAL/SUMT/C001-4
*   Description  :  Extended Short DST simulation a0_e1 208 , RAL
*---
*   Comments     : in total 1998 events in 4 files time stamp: Sun Sep  9 06:26:55 2001
*---
*
*
*
*
*
FILE = /castor/cern.ch/delphi/MCprod/ral/hzha03pyth6156/va0e/208/hzha03pyth6156_hinvee_208_95_39720.xsdst ! RUN = 39720 ! NEVT = 499
FILE = /castor/cern.ch/delphi/MCprod/ral/hzha03pyth6156/va0e/208/hzha03pyth6156_hinvee_208_95_39721.xsdst ! RUN = 39721 ! NEVT = 500
FILE = /castor/cern.ch/delphi/MCprod/ral/hzha03pyth6156/va0e/208/hzha03pyth6156_hinvee_208_95_39722.xsdst ! RUN = 39722 ! NEVT = 499
FILE = /castor/cern.ch/delphi/MCprod/ral/hzha03pyth6156/va0e/208/hzha03pyth6156_hinvee_208_95_39723.xsdst ! RUN = 39723 ! NEVT = 500
