*
*   Nickname     : xs_hzha03pyth6156hinvqq_e208_m112.5_ra0_1l_e1
*   Generic Name : //CERN/DELPHI/P02_SIMD/XSDST/HZHA03PYTH6156HINVQQ/RAL/SUMT/C001-10
*   Description  :  Extended Short DST simulation a0_e1 208 , RAL
*---
*   Comments     : in total 5000 events in 10 files time stamp: Sat Sep  8 20:25:44 2001
*---
*
*
*
*
*
FILE = /castor/cern.ch/delphi/MCprod/ral/hzha03pyth6156/va0e/208/hzha03pyth6156_hinvqq_208_112.5_41450.xsdst ! RUN = 41450 ! NEVT = 500
FILE = /castor/cern.ch/delphi/MCprod/ral/hzha03pyth6156/va0e/208/hzha03pyth6156_hinvqq_208_112.5_41451.xsdst ! RUN = 41451 ! NEVT = 500
FILE = /castor/cern.ch/delphi/MCprod/ral/hzha03pyth6156/va0e/208/hzha03pyth6156_hinvqq_208_112.5_41452.xsdst ! RUN = 41452 ! NEVT = 500
FILE = /castor/cern.ch/delphi/MCprod/ral/hzha03pyth6156/va0e/208/hzha03pyth6156_hinvqq_208_112.5_41453.xsdst ! RUN = 41453 ! NEVT = 500
FILE = /castor/cern.ch/delphi/MCprod/ral/hzha03pyth6156/va0e/208/hzha03pyth6156_hinvqq_208_112.5_41454.xsdst ! RUN = 41454 ! NEVT = 500
FILE = /castor/cern.ch/delphi/MCprod/ral/hzha03pyth6156/va0e/208/hzha03pyth6156_hinvqq_208_112.5_41455.xsdst ! RUN = 41455 ! NEVT = 500
FILE = /castor/cern.ch/delphi/MCprod/ral/hzha03pyth6156/va0e/208/hzha03pyth6156_hinvqq_208_112.5_41456.xsdst ! RUN = 41456 ! NEVT = 500
FILE = /castor/cern.ch/delphi/MCprod/ral/hzha03pyth6156/va0e/208/hzha03pyth6156_hinvqq_208_112.5_41457.xsdst ! RUN = 41457 ! NEVT = 500
FILE = /castor/cern.ch/delphi/MCprod/ral/hzha03pyth6156/va0e/208/hzha03pyth6156_hinvqq_208_112.5_41458.xsdst ! RUN = 41458 ! NEVT = 500
FILE = /castor/cern.ch/delphi/MCprod/ral/hzha03pyth6156/va0e/208/hzha03pyth6156_hinvqq_208_112.5_41459.xsdst ! RUN = 41459 ! NEVT = 500
