*
*   Nickname     : xs_hzha03pyth6156hinvtt_e205_m40_ra0_1l_e1
*   Generic Name : //CERN/DELPHI/P02_SIMD/XSDST/HZHA03PYTH6156HINVTT/RAL/SUMT/C001-4
*   Description  :  Extended Short DST simulation a0_e1 205 , RAL
*---
*   Comments     : in total 1999 events in 4 files time stamp: Mon Sep 10 21:24:36 2001
*---
*
*
*
*
*
FILE = /castor/cern.ch/delphi/MCprod/ral/hzha03pyth6156/va0e/205/hzha03pyth6156_hinvtt_205_40_34360.xsdst ! RUN = 34360 ! NEVT = 499
FILE = /castor/cern.ch/delphi/MCprod/ral/hzha03pyth6156/va0e/205/hzha03pyth6156_hinvtt_205_40_34361.xsdst ! RUN = 34361 ! NEVT = 500
FILE = /castor/cern.ch/delphi/MCprod/ral/hzha03pyth6156/va0e/205/hzha03pyth6156_hinvtt_205_40_34362.xsdst ! RUN = 34362 ! NEVT = 500
FILE = /castor/cern.ch/delphi/MCprod/ral/hzha03pyth6156/va0e/205/hzha03pyth6156_hinvtt_205_40_34363.xsdst ! RUN = 34363 ! NEVT = 500
