# index of html fragments. Provides additional information for sorting files. DO NOT REMOVE.
#File Name                                       year processing   category      files          events     energy       mass      mass2       labo
xs_evev_e204.9_mxxx_1l_a1                       2000      v99a1      4FERM          6           10800      204.9          -          -       mila
xs_evev_e206.7_mxxx_1l_a1                       2000      v99a1      4FERM          4            7200      206.7          -          -       mila
xs_evev_e206.7_mxxx_1l_s1                       2000      v00s1      4FERM          4            7200      206.7          -          -       mila
