*   Nickname :     dsto_wphact23ccsk1_e188.6_m80.4_c98_1l_e
*   Generic Name : //CERN/DELPHI/P02_SIMD/DSTO/WPHACT23CCSK1/E188.6/CERN/SUMT/C001-563
*   Description :   Full DST/Delana output simulation 98e  done at ecm=188.6 GeV , CERN
*   Comments :     in total 1111048 events in 563 files, time stamp: Tue Dec 24 4:12:59 2002
*
*
*
FILE = /castor/cern.ch/delphi/MCprod/cern/wphact23/v98e/188.6/wphact23_ccsk1_188.6_80.4_60001.fadana ! RUN = 60001 ! NEVT = 2000
FILE = /castor/cern.ch/delphi/MCprod/cern/wphact23/v98e/188.6/wphact23_ccsk1_188.6_80.4_60002.fadana ! RUN = 60002 ! NEVT = 2000
FILE = /castor/cern.ch/delphi/MCprod/cern/wphact23/v98e/188.6/wphact23_ccsk1_188.6_80.4_60004.fadana ! RUN = 60004 ! NEVT = 1999
FILE = /castor/cern.ch/delphi/MCprod/cern/wphact23/v98e/188.6/wphact23_ccsk1_188.6_80.4_60005.fadana ! RUN = 60005 ! NEVT = 2000
FILE = /castor/cern.ch/delphi/MCprod/cern/wphact23/v98e/188.6/wphact23_ccsk1_188.6_80.4_60006.fadana ! RUN = 60006 ! NEVT = 2000
FILE = /castor/cern.ch/delphi/MCprod/cern/wphact23/v98e/188.6/wphact23_ccsk1_188.6_80.4_60007.fadana ! RUN = 60007 ! NEVT = 1999
FILE = /castor/cern.ch/delphi/MCprod/cern/wphact23/v98e/188.6/wphact23_ccsk1_188.6_80.4_60008.fadana ! RUN = 60008 ! NEVT = 1999
FILE = /castor/cern.ch/delphi/MCprod/cern/wphact23/v98e/188.6/wphact23_ccsk1_188.6_80.4_60009.fadana ! RUN = 60009 ! NEVT = 1997
FILE = /castor/cern.ch/delphi/MCprod/cern/wphact23/v98e/188.6/wphact23_ccsk1_188.6_80.4_60010.fadana ! RUN = 60010 ! NEVT = 1998
FILE = /castor/cern.ch/delphi/MCprod/cern/wphact23/v98e/188.6/wphact23_ccsk1_188.6_80.4_60011.fadana ! RUN = 60011 ! NEVT = 2000
FILE = /castor/cern.ch/delphi/MCprod/cern/wphact23/v98e/188.6/wphact23_ccsk1_188.6_80.4_60012.fadana ! RUN = 60012 ! NEVT = 2000
FILE = /castor/cern.ch/delphi/MCprod/cern/wphact23/v98e/188.6/wphact23_ccsk1_188.6_80.4_60013.fadana ! RUN = 60013 ! NEVT = 1999
FILE = /castor/cern.ch/delphi/MCprod/cern/wphact23/v98e/188.6/wphact23_ccsk1_188.6_80.4_60014.fadana ! RUN = 60014 ! NEVT = 2000
FILE = /castor/cern.ch/delphi/MCprod/cern/wphact23/v98e/188.6/wphact23_ccsk1_188.6_80.4_60015.fadana ! RUN = 60015 ! NEVT = 2000
FILE = /castor/cern.ch/delphi/MCprod/cern/wphact23/v98e/188.6/wphact23_ccsk1_188.6_80.4_60016.fadana ! RUN = 60016 ! NEVT = 1999
FILE = /castor/cern.ch/delphi/MCprod/cern/wphact23/v98e/188.6/wphact23_ccsk1_188.6_80.4_60017.fadana ! RUN = 60017 ! NEVT = 2000
FILE = /castor/cern.ch/delphi/MCprod/cern/wphact23/v98e/188.6/wphact23_ccsk1_188.6_80.4_60018.fadana ! RUN = 60018 ! NEVT = 1999
FILE = /castor/cern.ch/delphi/MCprod/cern/wphact23/v98e/188.6/wphact23_ccsk1_188.6_80.4_60019.fadana ! RUN = 60019 ! NEVT = 1999
FILE = /castor/cern.ch/delphi/MCprod/cern/wphact23/v98e/188.6/wphact23_ccsk1_188.6_80.4_60020.fadana ! RUN = 60020 ! NEVT = 2000
FILE = /castor/cern.ch/delphi/MCprod/cern/wphact23/v98e/188.6/wphact23_ccsk1_188.6_80.4_60021.fadana ! RUN = 60021 ! NEVT = 1999
FILE = /castor/cern.ch/delphi/MCprod/cern/wphact23/v98e/188.6/wphact23_ccsk1_188.6_80.4_60022.fadana ! RUN = 60022 ! NEVT = 1998
FILE = /castor/cern.ch/delphi/MCprod/cern/wphact23/v98e/188.6/wphact23_ccsk1_188.6_80.4_60023.fadana ! RUN = 60023 ! NEVT = 2000
FILE = /castor/cern.ch/delphi/MCprod/cern/wphact23/v98e/188.6/wphact23_ccsk1_188.6_80.4_60024.fadana ! RUN = 60024 ! NEVT = 1999
FILE = /castor/cern.ch/delphi/MCprod/cern/wphact23/v98e/188.6/wphact23_ccsk1_188.6_80.4_60025.fadana ! RUN = 60025 ! NEVT = 1999
FILE = /castor/cern.ch/delphi/MCprod/cern/wphact23/v98e/188.6/wphact23_ccsk1_188.6_80.4_60026.fadana ! RUN = 60026 ! NEVT = 2000
FILE = /castor/cern.ch/delphi/MCprod/cern/wphact23/v98e/188.6/wphact23_ccsk1_188.6_80.4_60027.fadana ! RUN = 60027 ! NEVT = 2000
FILE = /castor/cern.ch/delphi/MCprod/cern/wphact23/v98e/188.6/wphact23_ccsk1_188.6_80.4_60028.fadana ! RUN = 60028 ! NEVT = 2000
FILE = /castor/cern.ch/delphi/MCprod/cern/wphact23/v98e/188.6/wphact23_ccsk1_188.6_80.4_60029.fadana ! RUN = 60029 ! NEVT = 1998
FILE = /castor/cern.ch/delphi/MCprod/cern/wphact23/v98e/188.6/wphact23_ccsk1_188.6_80.4_60030.fadana ! RUN = 60030 ! NEVT = 1997
FILE = /castor/cern.ch/delphi/MCprod/cern/wphact23/v98e/188.6/wphact23_ccsk1_188.6_80.4_60031.fadana ! RUN = 60031 ! NEVT = 2000
FILE = /castor/cern.ch/delphi/MCprod/cern/wphact23/v98e/188.6/wphact23_ccsk1_188.6_80.4_60032.fadana ! RUN = 60032 ! NEVT = 2000
FILE = /castor/cern.ch/delphi/MCprod/cern/wphact23/v98e/188.6/wphact23_ccsk1_188.6_80.4_60033.fadana ! RUN = 60033 ! NEVT = 1999
FILE = /castor/cern.ch/delphi/MCprod/cern/wphact23/v98e/188.6/wphact23_ccsk1_188.6_80.4_60034.fadana ! RUN = 60034 ! NEVT = 2000
FILE = /castor/cern.ch/delphi/MCprod/cern/wphact23/v98e/188.6/wphact23_ccsk1_188.6_80.4_60035.fadana ! RUN = 60035 ! NEVT = 1997
FILE = /castor/cern.ch/delphi/MCprod/cern/wphact23/v98e/188.6/wphact23_ccsk1_188.6_80.4_60036.fadana ! RUN = 60036 ! NEVT = 1999
FILE = /castor/cern.ch/delphi/MCprod/cern/wphact23/v98e/188.6/wphact23_ccsk1_188.6_80.4_60037.fadana ! RUN = 60037 ! NEVT = 2000
FILE = /castor/cern.ch/delphi/MCprod/cern/wphact23/v98e/188.6/wphact23_ccsk1_188.6_80.4_60038.fadana ! RUN = 60038 ! NEVT = 1997
FILE = /castor/cern.ch/delphi/MCprod/cern/wphact23/v98e/188.6/wphact23_ccsk1_188.6_80.4_60039.fadana ! RUN = 60039 ! NEVT = 2000
FILE = /castor/cern.ch/delphi/MCprod/cern/wphact23/v98e/188.6/wphact23_ccsk1_188.6_80.4_60040.fadana ! RUN = 60040 ! NEVT = 1999
FILE = /castor/cern.ch/delphi/MCprod/cern/wphact23/v98e/188.6/wphact23_ccsk1_188.6_80.4_60041.fadana ! RUN = 60041 ! NEVT = 2000
FILE = /castor/cern.ch/delphi/MCprod/cern/wphact23/v98e/188.6/wphact23_ccsk1_188.6_80.4_60042.fadana ! RUN = 60042 ! NEVT = 1999
FILE = /castor/cern.ch/delphi/MCprod/cern/wphact23/v98e/188.6/wphact23_ccsk1_188.6_80.4_60043.fadana ! RUN = 60043 ! NEVT = 1998
FILE = /castor/cern.ch/delphi/MCprod/cern/wphact23/v98e/188.6/wphact23_ccsk1_188.6_80.4_60044.fadana ! RUN = 60044 ! NEVT = 2000
FILE = /castor/cern.ch/delphi/MCprod/cern/wphact23/v98e/188.6/wphact23_ccsk1_188.6_80.4_60045.fadana ! RUN = 60045 ! NEVT = 2000
FILE = /castor/cern.ch/delphi/MCprod/cern/wphact23/v98e/188.6/wphact23_ccsk1_188.6_80.4_60046.fadana ! RUN = 60046 ! NEVT = 1999
FILE = /castor/cern.ch/delphi/MCprod/cern/wphact23/v98e/188.6/wphact23_ccsk1_188.6_80.4_60047.fadana ! RUN = 60047 ! NEVT = 1999
FILE = /castor/cern.ch/delphi/MCprod/cern/wphact23/v98e/188.6/wphact23_ccsk1_188.6_80.4_60048.fadana ! RUN = 60048 ! NEVT = 2000
FILE = /castor/cern.ch/delphi/MCprod/cern/wphact23/v98e/188.6/wphact23_ccsk1_188.6_80.4_60049.fadana ! RUN = 60049 ! NEVT = 2000
FILE = /castor/cern.ch/delphi/MCprod/cern/wphact23/v98e/188.6/wphact23_ccsk1_188.6_80.4_60050.fadana ! RUN = 60050 ! NEVT = 2000
FILE = /castor/cern.ch/delphi/MCprod/cern/wphact23/v98e/188.6/wphact23_ccsk1_188.6_80.4_60051.fadana ! RUN = 60051 ! NEVT = 813
FILE = /castor/cern.ch/delphi/MCprod/cern/wphact23/v98e/188.6/wphact23_ccsk1_188.6_80.4_60052.fadana ! RUN = 60052 ! NEVT = 2000
FILE = /castor/cern.ch/delphi/MCprod/cern/wphact23/v98e/188.6/wphact23_ccsk1_188.6_80.4_60053.fadana ! RUN = 60053 ! NEVT = 2000
FILE = /castor/cern.ch/delphi/MCprod/cern/wphact23/v98e/188.6/wphact23_ccsk1_188.6_80.4_60055.fadana ! RUN = 60055 ! NEVT = 1998
FILE = /castor/cern.ch/delphi/MCprod/cern/wphact23/v98e/188.6/wphact23_ccsk1_188.6_80.4_60056.fadana ! RUN = 60056 ! NEVT = 1999
FILE = /castor/cern.ch/delphi/MCprod/cern/wphact23/v98e/188.6/wphact23_ccsk1_188.6_80.4_60057.fadana ! RUN = 60057 ! NEVT = 2000
FILE = /castor/cern.ch/delphi/MCprod/cern/wphact23/v98e/188.6/wphact23_ccsk1_188.6_80.4_60058.fadana ! RUN = 60058 ! NEVT = 1999
FILE = /castor/cern.ch/delphi/MCprod/cern/wphact23/v98e/188.6/wphact23_ccsk1_188.6_80.4_60059.fadana ! RUN = 60059 ! NEVT = 2000
FILE = /castor/cern.ch/delphi/MCprod/cern/wphact23/v98e/188.6/wphact23_ccsk1_188.6_80.4_60060.fadana ! RUN = 60060 ! NEVT = 2000
FILE = /castor/cern.ch/delphi/MCprod/cern/wphact23/v98e/188.6/wphact23_ccsk1_188.6_80.4_60061.fadana ! RUN = 60061 ! NEVT = 2000
FILE = /castor/cern.ch/delphi/MCprod/cern/wphact23/v98e/188.6/wphact23_ccsk1_188.6_80.4_60062.fadana ! RUN = 60062 ! NEVT = 1522
FILE = /castor/cern.ch/delphi/MCprod/cern/wphact23/v98e/188.6/wphact23_ccsk1_188.6_80.4_60063.fadana ! RUN = 60063 ! NEVT = 1998
FILE = /castor/cern.ch/delphi/MCprod/cern/wphact23/v98e/188.6/wphact23_ccsk1_188.6_80.4_60064.fadana ! RUN = 60064 ! NEVT = 1999
FILE = /castor/cern.ch/delphi/MCprod/cern/wphact23/v98e/188.6/wphact23_ccsk1_188.6_80.4_60065.fadana ! RUN = 60065 ! NEVT = 1998
FILE = /castor/cern.ch/delphi/MCprod/cern/wphact23/v98e/188.6/wphact23_ccsk1_188.6_80.4_60066.fadana ! RUN = 60066 ! NEVT = 2000
FILE = /castor/cern.ch/delphi/MCprod/cern/wphact23/v98e/188.6/wphact23_ccsk1_188.6_80.4_60067.fadana ! RUN = 60067 ! NEVT = 2000
FILE = /castor/cern.ch/delphi/MCprod/cern/wphact23/v98e/188.6/wphact23_ccsk1_188.6_80.4_60068.fadana ! RUN = 60068 ! NEVT = 1999
FILE = /castor/cern.ch/delphi/MCprod/cern/wphact23/v98e/188.6/wphact23_ccsk1_188.6_80.4_60069.fadana ! RUN = 60069 ! NEVT = 2000
FILE = /castor/cern.ch/delphi/MCprod/cern/wphact23/v98e/188.6/wphact23_ccsk1_188.6_80.4_60070.fadana ! RUN = 60070 ! NEVT = 2000
FILE = /castor/cern.ch/delphi/MCprod/cern/wphact23/v98e/188.6/wphact23_ccsk1_188.6_80.4_60071.fadana ! RUN = 60071 ! NEVT = 1999
FILE = /castor/cern.ch/delphi/MCprod/cern/wphact23/v98e/188.6/wphact23_ccsk1_188.6_80.4_60072.fadana ! RUN = 60072 ! NEVT = 2000
FILE = /castor/cern.ch/delphi/MCprod/cern/wphact23/v98e/188.6/wphact23_ccsk1_188.6_80.4_60073.fadana ! RUN = 60073 ! NEVT = 1999
FILE = /castor/cern.ch/delphi/MCprod/cern/wphact23/v98e/188.6/wphact23_ccsk1_188.6_80.4_60074.fadana ! RUN = 60074 ! NEVT = 2000
FILE = /castor/cern.ch/delphi/MCprod/cern/wphact23/v98e/188.6/wphact23_ccsk1_188.6_80.4_60075.fadana ! RUN = 60075 ! NEVT = 1999
FILE = /castor/cern.ch/delphi/MCprod/cern/wphact23/v98e/188.6/wphact23_ccsk1_188.6_80.4_60076.fadana ! RUN = 60076 ! NEVT = 1999
FILE = /castor/cern.ch/delphi/MCprod/cern/wphact23/v98e/188.6/wphact23_ccsk1_188.6_80.4_60077.fadana ! RUN = 60077 ! NEVT = 2000
FILE = /castor/cern.ch/delphi/MCprod/cern/wphact23/v98e/188.6/wphact23_ccsk1_188.6_80.4_60078.fadana ! RUN = 60078 ! NEVT = 1999
FILE = /castor/cern.ch/delphi/MCprod/cern/wphact23/v98e/188.6/wphact23_ccsk1_188.6_80.4_60079.fadana ! RUN = 60079 ! NEVT = 2000
FILE = /castor/cern.ch/delphi/MCprod/cern/wphact23/v98e/188.6/wphact23_ccsk1_188.6_80.4_60080.fadana ! RUN = 60080 ! NEVT = 1998
FILE = /castor/cern.ch/delphi/MCprod/cern/wphact23/v98e/188.6/wphact23_ccsk1_188.6_80.4_60081.fadana ! RUN = 60081 ! NEVT = 1999
FILE = /castor/cern.ch/delphi/MCprod/cern/wphact23/v98e/188.6/wphact23_ccsk1_188.6_80.4_60082.fadana ! RUN = 60082 ! NEVT = 1999
FILE = /castor/cern.ch/delphi/MCprod/cern/wphact23/v98e/188.6/wphact23_ccsk1_188.6_80.4_60083.fadana ! RUN = 60083 ! NEVT = 1998
FILE = /castor/cern.ch/delphi/MCprod/cern/wphact23/v98e/188.6/wphact23_ccsk1_188.6_80.4_60084.fadana ! RUN = 60084 ! NEVT = 2000
FILE = /castor/cern.ch/delphi/MCprod/cern/wphact23/v98e/188.6/wphact23_ccsk1_188.6_80.4_60085.fadana ! RUN = 60085 ! NEVT = 1999
FILE = /castor/cern.ch/delphi/MCprod/cern/wphact23/v98e/188.6/wphact23_ccsk1_188.6_80.4_60086.fadana ! RUN = 60086 ! NEVT = 1999
FILE = /castor/cern.ch/delphi/MCprod/cern/wphact23/v98e/188.6/wphact23_ccsk1_188.6_80.4_60087.fadana ! RUN = 60087 ! NEVT = 2000
FILE = /castor/cern.ch/delphi/MCprod/cern/wphact23/v98e/188.6/wphact23_ccsk1_188.6_80.4_60088.fadana ! RUN = 60088 ! NEVT = 2000
FILE = /castor/cern.ch/delphi/MCprod/cern/wphact23/v98e/188.6/wphact23_ccsk1_188.6_80.4_60089.fadana ! RUN = 60089 ! NEVT = 2000
FILE = /castor/cern.ch/delphi/MCprod/cern/wphact23/v98e/188.6/wphact23_ccsk1_188.6_80.4_60090.fadana ! RUN = 60090 ! NEVT = 2000
FILE = /castor/cern.ch/delphi/MCprod/cern/wphact23/v98e/188.6/wphact23_ccsk1_188.6_80.4_60091.fadana ! RUN = 60091 ! NEVT = 1999
FILE = /castor/cern.ch/delphi/MCprod/cern/wphact23/v98e/188.6/wphact23_ccsk1_188.6_80.4_60092.fadana ! RUN = 60092 ! NEVT = 2000
FILE = /castor/cern.ch/delphi/MCprod/cern/wphact23/v98e/188.6/wphact23_ccsk1_188.6_80.4_60093.fadana ! RUN = 60093 ! NEVT = 1999
FILE = /castor/cern.ch/delphi/MCprod/cern/wphact23/v98e/188.6/wphact23_ccsk1_188.6_80.4_60094.fadana ! RUN = 60094 ! NEVT = 1999
FILE = /castor/cern.ch/delphi/MCprod/cern/wphact23/v98e/188.6/wphact23_ccsk1_188.6_80.4_60095.fadana ! RUN = 60095 ! NEVT = 2000
FILE = /castor/cern.ch/delphi/MCprod/cern/wphact23/v98e/188.6/wphact23_ccsk1_188.6_80.4_60096.fadana ! RUN = 60096 ! NEVT = 1999
FILE = /castor/cern.ch/delphi/MCprod/cern/wphact23/v98e/188.6/wphact23_ccsk1_188.6_80.4_60097.fadana ! RUN = 60097 ! NEVT = 1999
FILE = /castor/cern.ch/delphi/MCprod/cern/wphact23/v98e/188.6/wphact23_ccsk1_188.6_80.4_60098.fadana ! RUN = 60098 ! NEVT = 1999
FILE = /castor/cern.ch/delphi/MCprod/cern/wphact23/v98e/188.6/wphact23_ccsk1_188.6_80.4_60099.fadana ! RUN = 60099 ! NEVT = 1998
FILE = /castor/cern.ch/delphi/MCprod/cern/wphact23/v98e/188.6/wphact23_ccsk1_188.6_80.4_60100.fadana ! RUN = 60100 ! NEVT = 2000
FILE = /castor/cern.ch/delphi/MCprod/cern/wphact23/v98e/188.6/wphact23_ccsk1_188.6_80.4_60101.fadana ! RUN = 60101 ! NEVT = 2000
FILE = /castor/cern.ch/delphi/MCprod/cern/wphact23/v98e/188.6/wphact23_ccsk1_188.6_80.4_60102.fadana ! RUN = 60102 ! NEVT = 2000
FILE = /castor/cern.ch/delphi/MCprod/cern/wphact23/v98e/188.6/wphact23_ccsk1_188.6_80.4_60103.fadana ! RUN = 60103 ! NEVT = 1999
FILE = /castor/cern.ch/delphi/MCprod/cern/wphact23/v98e/188.6/wphact23_ccsk1_188.6_80.4_60104.fadana ! RUN = 60104 ! NEVT = 1999
FILE = /castor/cern.ch/delphi/MCprod/cern/wphact23/v98e/188.6/wphact23_ccsk1_188.6_80.4_60105.fadana ! RUN = 60105 ! NEVT = 1998
FILE = /castor/cern.ch/delphi/MCprod/cern/wphact23/v98e/188.6/wphact23_ccsk1_188.6_80.4_60106.fadana ! RUN = 60106 ! NEVT = 1999
FILE = /castor/cern.ch/delphi/MCprod/cern/wphact23/v98e/188.6/wphact23_ccsk1_188.6_80.4_60107.fadana ! RUN = 60107 ! NEVT = 1999
FILE = /castor/cern.ch/delphi/MCprod/cern/wphact23/v98e/188.6/wphact23_ccsk1_188.6_80.4_60108.fadana ! RUN = 60108 ! NEVT = 2000
FILE = /castor/cern.ch/delphi/MCprod/cern/wphact23/v98e/188.6/wphact23_ccsk1_188.6_80.4_60109.fadana ! RUN = 60109 ! NEVT = 2000
FILE = /castor/cern.ch/delphi/MCprod/cern/wphact23/v98e/188.6/wphact23_ccsk1_188.6_80.4_60110.fadana ! RUN = 60110 ! NEVT = 1999
FILE = /castor/cern.ch/delphi/MCprod/cern/wphact23/v98e/188.6/wphact23_ccsk1_188.6_80.4_60111.fadana ! RUN = 60111 ! NEVT = 1999
FILE = /castor/cern.ch/delphi/MCprod/cern/wphact23/v98e/188.6/wphact23_ccsk1_188.6_80.4_60112.fadana ! RUN = 60112 ! NEVT = 2000
FILE = /castor/cern.ch/delphi/MCprod/cern/wphact23/v98e/188.6/wphact23_ccsk1_188.6_80.4_60113.fadana ! RUN = 60113 ! NEVT = 1997
FILE = /castor/cern.ch/delphi/MCprod/cern/wphact23/v98e/188.6/wphact23_ccsk1_188.6_80.4_60114.fadana ! RUN = 60114 ! NEVT = 2000
FILE = /castor/cern.ch/delphi/MCprod/cern/wphact23/v98e/188.6/wphact23_ccsk1_188.6_80.4_60115.fadana ! RUN = 60115 ! NEVT = 2000
FILE = /castor/cern.ch/delphi/MCprod/cern/wphact23/v98e/188.6/wphact23_ccsk1_188.6_80.4_60116.fadana ! RUN = 60116 ! NEVT = 880
FILE = /castor/cern.ch/delphi/MCprod/cern/wphact23/v98e/188.6/wphact23_ccsk1_188.6_80.4_60117.fadana ! RUN = 60117 ! NEVT = 2000
FILE = /castor/cern.ch/delphi/MCprod/cern/wphact23/v98e/188.6/wphact23_ccsk1_188.6_80.4_60118.fadana ! RUN = 60118 ! NEVT = 2000
FILE = /castor/cern.ch/delphi/MCprod/cern/wphact23/v98e/188.6/wphact23_ccsk1_188.6_80.4_60119.fadana ! RUN = 60119 ! NEVT = 1999
FILE = /castor/cern.ch/delphi/MCprod/cern/wphact23/v98e/188.6/wphact23_ccsk1_188.6_80.4_60120.fadana ! RUN = 60120 ! NEVT = 1998
FILE = /castor/cern.ch/delphi/MCprod/cern/wphact23/v98e/188.6/wphact23_ccsk1_188.6_80.4_60122.fadana ! RUN = 60122 ! NEVT = 2000
FILE = /castor/cern.ch/delphi/MCprod/cern/wphact23/v98e/188.6/wphact23_ccsk1_188.6_80.4_60123.fadana ! RUN = 60123 ! NEVT = 2000
FILE = /castor/cern.ch/delphi/MCprod/cern/wphact23/v98e/188.6/wphact23_ccsk1_188.6_80.4_60124.fadana ! RUN = 60124 ! NEVT = 1999
FILE = /castor/cern.ch/delphi/MCprod/cern/wphact23/v98e/188.6/wphact23_ccsk1_188.6_80.4_60125.fadana ! RUN = 60125 ! NEVT = 2000
FILE = /castor/cern.ch/delphi/MCprod/cern/wphact23/v98e/188.6/wphact23_ccsk1_188.6_80.4_60126.fadana ! RUN = 60126 ! NEVT = 1999
FILE = /castor/cern.ch/delphi/MCprod/cern/wphact23/v98e/188.6/wphact23_ccsk1_188.6_80.4_60127.fadana ! RUN = 60127 ! NEVT = 1998
FILE = /castor/cern.ch/delphi/MCprod/cern/wphact23/v98e/188.6/wphact23_ccsk1_188.6_80.4_60128.fadana ! RUN = 60128 ! NEVT = 1999
FILE = /castor/cern.ch/delphi/MCprod/cern/wphact23/v98e/188.6/wphact23_ccsk1_188.6_80.4_60129.fadana ! RUN = 60129 ! NEVT = 2000
FILE = /castor/cern.ch/delphi/MCprod/cern/wphact23/v98e/188.6/wphact23_ccsk1_188.6_80.4_60130.fadana ! RUN = 60130 ! NEVT = 2000
FILE = /castor/cern.ch/delphi/MCprod/cern/wphact23/v98e/188.6/wphact23_ccsk1_188.6_80.4_60131.fadana ! RUN = 60131 ! NEVT = 1999
FILE = /castor/cern.ch/delphi/MCprod/cern/wphact23/v98e/188.6/wphact23_ccsk1_188.6_80.4_60132.fadana ! RUN = 60132 ! NEVT = 1999
FILE = /castor/cern.ch/delphi/MCprod/cern/wphact23/v98e/188.6/wphact23_ccsk1_188.6_80.4_60133.fadana ! RUN = 60133 ! NEVT = 1998
FILE = /castor/cern.ch/delphi/MCprod/cern/wphact23/v98e/188.6/wphact23_ccsk1_188.6_80.4_60134.fadana ! RUN = 60134 ! NEVT = 1999
FILE = /castor/cern.ch/delphi/MCprod/cern/wphact23/v98e/188.6/wphact23_ccsk1_188.6_80.4_60135.fadana ! RUN = 60135 ! NEVT = 1999
FILE = /castor/cern.ch/delphi/MCprod/cern/wphact23/v98e/188.6/wphact23_ccsk1_188.6_80.4_60136.fadana ! RUN = 60136 ! NEVT = 1999
FILE = /castor/cern.ch/delphi/MCprod/cern/wphact23/v98e/188.6/wphact23_ccsk1_188.6_80.4_60137.fadana ! RUN = 60137 ! NEVT = 2000
FILE = /castor/cern.ch/delphi/MCprod/cern/wphact23/v98e/188.6/wphact23_ccsk1_188.6_80.4_60138.fadana ! RUN = 60138 ! NEVT = 1999
FILE = /castor/cern.ch/delphi/MCprod/cern/wphact23/v98e/188.6/wphact23_ccsk1_188.6_80.4_60139.fadana ! RUN = 60139 ! NEVT = 1997
FILE = /castor/cern.ch/delphi/MCprod/cern/wphact23/v98e/188.6/wphact23_ccsk1_188.6_80.4_60140.fadana ! RUN = 60140 ! NEVT = 2000
FILE = /castor/cern.ch/delphi/MCprod/cern/wphact23/v98e/188.6/wphact23_ccsk1_188.6_80.4_60141.fadana ! RUN = 60141 ! NEVT = 2000
FILE = /castor/cern.ch/delphi/MCprod/cern/wphact23/v98e/188.6/wphact23_ccsk1_188.6_80.4_60142.fadana ! RUN = 60142 ! NEVT = 2000
FILE = /castor/cern.ch/delphi/MCprod/cern/wphact23/v98e/188.6/wphact23_ccsk1_188.6_80.4_60143.fadana ! RUN = 60143 ! NEVT = 1998
FILE = /castor/cern.ch/delphi/MCprod/cern/wphact23/v98e/188.6/wphact23_ccsk1_188.6_80.4_60144.fadana ! RUN = 60144 ! NEVT = 2000
FILE = /castor/cern.ch/delphi/MCprod/cern/wphact23/v98e/188.6/wphact23_ccsk1_188.6_80.4_60145.fadana ! RUN = 60145 ! NEVT = 1999
FILE = /castor/cern.ch/delphi/MCprod/cern/wphact23/v98e/188.6/wphact23_ccsk1_188.6_80.4_60146.fadana ! RUN = 60146 ! NEVT = 2000
FILE = /castor/cern.ch/delphi/MCprod/cern/wphact23/v98e/188.6/wphact23_ccsk1_188.6_80.4_60147.fadana ! RUN = 60147 ! NEVT = 2000
FILE = /castor/cern.ch/delphi/MCprod/cern/wphact23/v98e/188.6/wphact23_ccsk1_188.6_80.4_60148.fadana ! RUN = 60148 ! NEVT = 1998
FILE = /castor/cern.ch/delphi/MCprod/cern/wphact23/v98e/188.6/wphact23_ccsk1_188.6_80.4_60149.fadana ! RUN = 60149 ! NEVT = 1999
FILE = /castor/cern.ch/delphi/MCprod/cern/wphact23/v98e/188.6/wphact23_ccsk1_188.6_80.4_60150.fadana ! RUN = 60150 ! NEVT = 2000
FILE = /castor/cern.ch/delphi/MCprod/cern/wphact23/v98e/188.6/wphact23_ccsk1_188.6_80.4_60151.fadana ! RUN = 60151 ! NEVT = 2000
FILE = /castor/cern.ch/delphi/MCprod/cern/wphact23/v98e/188.6/wphact23_ccsk1_188.6_80.4_60152.fadana ! RUN = 60152 ! NEVT = 2000
FILE = /castor/cern.ch/delphi/MCprod/cern/wphact23/v98e/188.6/wphact23_ccsk1_188.6_80.4_60153.fadana ! RUN = 60153 ! NEVT = 2000
FILE = /castor/cern.ch/delphi/MCprod/cern/wphact23/v98e/188.6/wphact23_ccsk1_188.6_80.4_60154.fadana ! RUN = 60154 ! NEVT = 2000
FILE = /castor/cern.ch/delphi/MCprod/cern/wphact23/v98e/188.6/wphact23_ccsk1_188.6_80.4_60155.fadana ! RUN = 60155 ! NEVT = 1998
FILE = /castor/cern.ch/delphi/MCprod/cern/wphact23/v98e/188.6/wphact23_ccsk1_188.6_80.4_60156.fadana ! RUN = 60156 ! NEVT = 838
FILE = /castor/cern.ch/delphi/MCprod/cern/wphact23/v98e/188.6/wphact23_ccsk1_188.6_80.4_60157.fadana ! RUN = 60157 ! NEVT = 2000
FILE = /castor/cern.ch/delphi/MCprod/cern/wphact23/v98e/188.6/wphact23_ccsk1_188.6_80.4_60158.fadana ! RUN = 60158 ! NEVT = 1999
FILE = /castor/cern.ch/delphi/MCprod/cern/wphact23/v98e/188.6/wphact23_ccsk1_188.6_80.4_60159.fadana ! RUN = 60159 ! NEVT = 1999
FILE = /castor/cern.ch/delphi/MCprod/cern/wphact23/v98e/188.6/wphact23_ccsk1_188.6_80.4_60160.fadana ! RUN = 60160 ! NEVT = 2000
FILE = /castor/cern.ch/delphi/MCprod/cern/wphact23/v98e/188.6/wphact23_ccsk1_188.6_80.4_60161.fadana ! RUN = 60161 ! NEVT = 2000
FILE = /castor/cern.ch/delphi/MCprod/cern/wphact23/v98e/188.6/wphact23_ccsk1_188.6_80.4_60162.fadana ! RUN = 60162 ! NEVT = 1998
FILE = /castor/cern.ch/delphi/MCprod/cern/wphact23/v98e/188.6/wphact23_ccsk1_188.6_80.4_60163.fadana ! RUN = 60163 ! NEVT = 1997
FILE = /castor/cern.ch/delphi/MCprod/cern/wphact23/v98e/188.6/wphact23_ccsk1_188.6_80.4_60164.fadana ! RUN = 60164 ! NEVT = 1999
FILE = /castor/cern.ch/delphi/MCprod/cern/wphact23/v98e/188.6/wphact23_ccsk1_188.6_80.4_60165.fadana ! RUN = 60165 ! NEVT = 1998
FILE = /castor/cern.ch/delphi/MCprod/cern/wphact23/v98e/188.6/wphact23_ccsk1_188.6_80.4_60166.fadana ! RUN = 60166 ! NEVT = 1999
FILE = /castor/cern.ch/delphi/MCprod/cern/wphact23/v98e/188.6/wphact23_ccsk1_188.6_80.4_60167.fadana ! RUN = 60167 ! NEVT = 1998
FILE = /castor/cern.ch/delphi/MCprod/cern/wphact23/v98e/188.6/wphact23_ccsk1_188.6_80.4_60168.fadana ! RUN = 60168 ! NEVT = 2000
FILE = /castor/cern.ch/delphi/MCprod/cern/wphact23/v98e/188.6/wphact23_ccsk1_188.6_80.4_60169.fadana ! RUN = 60169 ! NEVT = 1999
FILE = /castor/cern.ch/delphi/MCprod/cern/wphact23/v98e/188.6/wphact23_ccsk1_188.6_80.4_60170.fadana ! RUN = 60170 ! NEVT = 1999
FILE = /castor/cern.ch/delphi/MCprod/cern/wphact23/v98e/188.6/wphact23_ccsk1_188.6_80.4_60171.fadana ! RUN = 60171 ! NEVT = 2000
FILE = /castor/cern.ch/delphi/MCprod/cern/wphact23/v98e/188.6/wphact23_ccsk1_188.6_80.4_60173.fadana ! RUN = 60173 ! NEVT = 1999
FILE = /castor/cern.ch/delphi/MCprod/cern/wphact23/v98e/188.6/wphact23_ccsk1_188.6_80.4_60174.fadana ! RUN = 60174 ! NEVT = 2000
FILE = /castor/cern.ch/delphi/MCprod/cern/wphact23/v98e/188.6/wphact23_ccsk1_188.6_80.4_60175.fadana ! RUN = 60175 ! NEVT = 1999
FILE = /castor/cern.ch/delphi/MCprod/cern/wphact23/v98e/188.6/wphact23_ccsk1_188.6_80.4_60176.fadana ! RUN = 60176 ! NEVT = 1999
FILE = /castor/cern.ch/delphi/MCprod/cern/wphact23/v98e/188.6/wphact23_ccsk1_188.6_80.4_60177.fadana ! RUN = 60177 ! NEVT = 1999
FILE = /castor/cern.ch/delphi/MCprod/cern/wphact23/v98e/188.6/wphact23_ccsk1_188.6_80.4_60178.fadana ! RUN = 60178 ! NEVT = 1999
FILE = /castor/cern.ch/delphi/MCprod/cern/wphact23/v98e/188.6/wphact23_ccsk1_188.6_80.4_60180.fadana ! RUN = 60180 ! NEVT = 2000
FILE = /castor/cern.ch/delphi/MCprod/cern/wphact23/v98e/188.6/wphact23_ccsk1_188.6_80.4_60181.fadana ! RUN = 60181 ! NEVT = 2000
FILE = /castor/cern.ch/delphi/MCprod/cern/wphact23/v98e/188.6/wphact23_ccsk1_188.6_80.4_60182.fadana ! RUN = 60182 ! NEVT = 2000
FILE = /castor/cern.ch/delphi/MCprod/cern/wphact23/v98e/188.6/wphact23_ccsk1_188.6_80.4_60183.fadana ! RUN = 60183 ! NEVT = 2000
FILE = /castor/cern.ch/delphi/MCprod/cern/wphact23/v98e/188.6/wphact23_ccsk1_188.6_80.4_60184.fadana ! RUN = 60184 ! NEVT = 2000
FILE = /castor/cern.ch/delphi/MCprod/cern/wphact23/v98e/188.6/wphact23_ccsk1_188.6_80.4_60185.fadana ! RUN = 60185 ! NEVT = 2000
FILE = /castor/cern.ch/delphi/MCprod/cern/wphact23/v98e/188.6/wphact23_ccsk1_188.6_80.4_60186.fadana ! RUN = 60186 ! NEVT = 1999
FILE = /castor/cern.ch/delphi/MCprod/cern/wphact23/v98e/188.6/wphact23_ccsk1_188.6_80.4_60187.fadana ! RUN = 60187 ! NEVT = 2000
FILE = /castor/cern.ch/delphi/MCprod/cern/wphact23/v98e/188.6/wphact23_ccsk1_188.6_80.4_60188.fadana ! RUN = 60188 ! NEVT = 1999
FILE = /castor/cern.ch/delphi/MCprod/cern/wphact23/v98e/188.6/wphact23_ccsk1_188.6_80.4_60189.fadana ! RUN = 60189 ! NEVT = 2000
FILE = /castor/cern.ch/delphi/MCprod/cern/wphact23/v98e/188.6/wphact23_ccsk1_188.6_80.4_60190.fadana ! RUN = 60190 ! NEVT = 2000
FILE = /castor/cern.ch/delphi/MCprod/cern/wphact23/v98e/188.6/wphact23_ccsk1_188.6_80.4_60191.fadana ! RUN = 60191 ! NEVT = 1998
FILE = /castor/cern.ch/delphi/MCprod/cern/wphact23/v98e/188.6/wphact23_ccsk1_188.6_80.4_60192.fadana ! RUN = 60192 ! NEVT = 1998
FILE = /castor/cern.ch/delphi/MCprod/cern/wphact23/v98e/188.6/wphact23_ccsk1_188.6_80.4_60193.fadana ! RUN = 60193 ! NEVT = 1999
FILE = /castor/cern.ch/delphi/MCprod/cern/wphact23/v98e/188.6/wphact23_ccsk1_188.6_80.4_60194.fadana ! RUN = 60194 ! NEVT = 1999
FILE = /castor/cern.ch/delphi/MCprod/cern/wphact23/v98e/188.6/wphact23_ccsk1_188.6_80.4_60195.fadana ! RUN = 60195 ! NEVT = 1999
FILE = /castor/cern.ch/delphi/MCprod/cern/wphact23/v98e/188.6/wphact23_ccsk1_188.6_80.4_60196.fadana ! RUN = 60196 ! NEVT = 1999
FILE = /castor/cern.ch/delphi/MCprod/cern/wphact23/v98e/188.6/wphact23_ccsk1_188.6_80.4_60197.fadana ! RUN = 60197 ! NEVT = 2000
FILE = /castor/cern.ch/delphi/MCprod/cern/wphact23/v98e/188.6/wphact23_ccsk1_188.6_80.4_60198.fadana ! RUN = 60198 ! NEVT = 2000
FILE = /castor/cern.ch/delphi/MCprod/cern/wphact23/v98e/188.6/wphact23_ccsk1_188.6_80.4_60199.fadana ! RUN = 60199 ! NEVT = 2000
FILE = /castor/cern.ch/delphi/MCprod/cern/wphact23/v98e/188.6/wphact23_ccsk1_188.6_80.4_60200.fadana ! RUN = 60200 ! NEVT = 2000
FILE = /castor/cern.ch/delphi/MCprod/cern/wphact23/v98e/188.6/wphact23_ccsk1_188.6_80.4_60201.fadana ! RUN = 60201 ! NEVT = 1998
FILE = /castor/cern.ch/delphi/MCprod/cern/wphact23/v98e/188.6/wphact23_ccsk1_188.6_80.4_60202.fadana ! RUN = 60202 ! NEVT = 2000
FILE = /castor/cern.ch/delphi/MCprod/cern/wphact23/v98e/188.6/wphact23_ccsk1_188.6_80.4_60203.fadana ! RUN = 60203 ! NEVT = 2000
FILE = /castor/cern.ch/delphi/MCprod/cern/wphact23/v98e/188.6/wphact23_ccsk1_188.6_80.4_60204.fadana ! RUN = 60204 ! NEVT = 1465
FILE = /castor/cern.ch/delphi/MCprod/cern/wphact23/v98e/188.6/wphact23_ccsk1_188.6_80.4_60205.fadana ! RUN = 60205 ! NEVT = 1999
FILE = /castor/cern.ch/delphi/MCprod/cern/wphact23/v98e/188.6/wphact23_ccsk1_188.6_80.4_60206.fadana ! RUN = 60206 ! NEVT = 1999
FILE = /castor/cern.ch/delphi/MCprod/cern/wphact23/v98e/188.6/wphact23_ccsk1_188.6_80.4_60207.fadana ! RUN = 60207 ! NEVT = 1998
FILE = /castor/cern.ch/delphi/MCprod/cern/wphact23/v98e/188.6/wphact23_ccsk1_188.6_80.4_60208.fadana ! RUN = 60208 ! NEVT = 2000
FILE = /castor/cern.ch/delphi/MCprod/cern/wphact23/v98e/188.6/wphact23_ccsk1_188.6_80.4_60209.fadana ! RUN = 60209 ! NEVT = 2000
FILE = /castor/cern.ch/delphi/MCprod/cern/wphact23/v98e/188.6/wphact23_ccsk1_188.6_80.4_60210.fadana ! RUN = 60210 ! NEVT = 1999
FILE = /castor/cern.ch/delphi/MCprod/cern/wphact23/v98e/188.6/wphact23_ccsk1_188.6_80.4_60211.fadana ! RUN = 60211 ! NEVT = 2000
FILE = /castor/cern.ch/delphi/MCprod/cern/wphact23/v98e/188.6/wphact23_ccsk1_188.6_80.4_60212.fadana ! RUN = 60212 ! NEVT = 1999
FILE = /castor/cern.ch/delphi/MCprod/cern/wphact23/v98e/188.6/wphact23_ccsk1_188.6_80.4_60213.fadana ! RUN = 60213 ! NEVT = 1999
FILE = /castor/cern.ch/delphi/MCprod/cern/wphact23/v98e/188.6/wphact23_ccsk1_188.6_80.4_60214.fadana ! RUN = 60214 ! NEVT = 2000
FILE = /castor/cern.ch/delphi/MCprod/cern/wphact23/v98e/188.6/wphact23_ccsk1_188.6_80.4_60215.fadana ! RUN = 60215 ! NEVT = 2000
FILE = /castor/cern.ch/delphi/MCprod/cern/wphact23/v98e/188.6/wphact23_ccsk1_188.6_80.4_60216.fadana ! RUN = 60216 ! NEVT = 2000
FILE = /castor/cern.ch/delphi/MCprod/cern/wphact23/v98e/188.6/wphact23_ccsk1_188.6_80.4_60217.fadana ! RUN = 60217 ! NEVT = 1453
FILE = /castor/cern.ch/delphi/MCprod/cern/wphact23/v98e/188.6/wphact23_ccsk1_188.6_80.4_60218.fadana ! RUN = 60218 ! NEVT = 1999
FILE = /castor/cern.ch/delphi/MCprod/cern/wphact23/v98e/188.6/wphact23_ccsk1_188.6_80.4_60219.fadana ! RUN = 60219 ! NEVT = 2000
FILE = /castor/cern.ch/delphi/MCprod/cern/wphact23/v98e/188.6/wphact23_ccsk1_188.6_80.4_60220.fadana ! RUN = 60220 ! NEVT = 2000
FILE = /castor/cern.ch/delphi/MCprod/cern/wphact23/v98e/188.6/wphact23_ccsk1_188.6_80.4_60221.fadana ! RUN = 60221 ! NEVT = 1998
FILE = /castor/cern.ch/delphi/MCprod/cern/wphact23/v98e/188.6/wphact23_ccsk1_188.6_80.4_60222.fadana ! RUN = 60222 ! NEVT = 1999
FILE = /castor/cern.ch/delphi/MCprod/cern/wphact23/v98e/188.6/wphact23_ccsk1_188.6_80.4_60223.fadana ! RUN = 60223 ! NEVT = 2000
FILE = /castor/cern.ch/delphi/MCprod/cern/wphact23/v98e/188.6/wphact23_ccsk1_188.6_80.4_60224.fadana ! RUN = 60224 ! NEVT = 1999
FILE = /castor/cern.ch/delphi/MCprod/cern/wphact23/v98e/188.6/wphact23_ccsk1_188.6_80.4_60225.fadana ! RUN = 60225 ! NEVT = 1999
FILE = /castor/cern.ch/delphi/MCprod/cern/wphact23/v98e/188.6/wphact23_ccsk1_188.6_80.4_60226.fadana ! RUN = 60226 ! NEVT = 1999
FILE = /castor/cern.ch/delphi/MCprod/cern/wphact23/v98e/188.6/wphact23_ccsk1_188.6_80.4_60227.fadana ! RUN = 60227 ! NEVT = 568
FILE = /castor/cern.ch/delphi/MCprod/cern/wphact23/v98e/188.6/wphact23_ccsk1_188.6_80.4_60228.fadana ! RUN = 60228 ! NEVT = 2000
FILE = /castor/cern.ch/delphi/MCprod/cern/wphact23/v98e/188.6/wphact23_ccsk1_188.6_80.4_60229.fadana ! RUN = 60229 ! NEVT = 2000
FILE = /castor/cern.ch/delphi/MCprod/cern/wphact23/v98e/188.6/wphact23_ccsk1_188.6_80.4_60230.fadana ! RUN = 60230 ! NEVT = 1998
FILE = /castor/cern.ch/delphi/MCprod/cern/wphact23/v98e/188.6/wphact23_ccsk1_188.6_80.4_60231.fadana ! RUN = 60231 ! NEVT = 2000
FILE = /castor/cern.ch/delphi/MCprod/cern/wphact23/v98e/188.6/wphact23_ccsk1_188.6_80.4_60232.fadana ! RUN = 60232 ! NEVT = 1999
FILE = /castor/cern.ch/delphi/MCprod/cern/wphact23/v98e/188.6/wphact23_ccsk1_188.6_80.4_60233.fadana ! RUN = 60233 ! NEVT = 2000
FILE = /castor/cern.ch/delphi/MCprod/cern/wphact23/v98e/188.6/wphact23_ccsk1_188.6_80.4_60234.fadana ! RUN = 60234 ! NEVT = 1999
FILE = /castor/cern.ch/delphi/MCprod/cern/wphact23/v98e/188.6/wphact23_ccsk1_188.6_80.4_60235.fadana ! RUN = 60235 ! NEVT = 1997
FILE = /castor/cern.ch/delphi/MCprod/cern/wphact23/v98e/188.6/wphact23_ccsk1_188.6_80.4_60237.fadana ! RUN = 60237 ! NEVT = 2000
FILE = /castor/cern.ch/delphi/MCprod/cern/wphact23/v98e/188.6/wphact23_ccsk1_188.6_80.4_60238.fadana ! RUN = 60238 ! NEVT = 2000
FILE = /castor/cern.ch/delphi/MCprod/cern/wphact23/v98e/188.6/wphact23_ccsk1_188.6_80.4_60239.fadana ! RUN = 60239 ! NEVT = 1998
FILE = /castor/cern.ch/delphi/MCprod/cern/wphact23/v98e/188.6/wphact23_ccsk1_188.6_80.4_60240.fadana ! RUN = 60240 ! NEVT = 2000
FILE = /castor/cern.ch/delphi/MCprod/cern/wphact23/v98e/188.6/wphact23_ccsk1_188.6_80.4_60241.fadana ! RUN = 60241 ! NEVT = 1999
FILE = /castor/cern.ch/delphi/MCprod/cern/wphact23/v98e/188.6/wphact23_ccsk1_188.6_80.4_60242.fadana ! RUN = 60242 ! NEVT = 1998
FILE = /castor/cern.ch/delphi/MCprod/cern/wphact23/v98e/188.6/wphact23_ccsk1_188.6_80.4_60243.fadana ! RUN = 60243 ! NEVT = 2000
FILE = /castor/cern.ch/delphi/MCprod/cern/wphact23/v98e/188.6/wphact23_ccsk1_188.6_80.4_60244.fadana ! RUN = 60244 ! NEVT = 1999
FILE = /castor/cern.ch/delphi/MCprod/cern/wphact23/v98e/188.6/wphact23_ccsk1_188.6_80.4_60245.fadana ! RUN = 60245 ! NEVT = 1998
FILE = /castor/cern.ch/delphi/MCprod/cern/wphact23/v98e/188.6/wphact23_ccsk1_188.6_80.4_60246.fadana ! RUN = 60246 ! NEVT = 2000
FILE = /castor/cern.ch/delphi/MCprod/cern/wphact23/v98e/188.6/wphact23_ccsk1_188.6_80.4_60248.fadana ! RUN = 60248 ! NEVT = 2000
FILE = /castor/cern.ch/delphi/MCprod/cern/wphact23/v98e/188.6/wphact23_ccsk1_188.6_80.4_60249.fadana ! RUN = 60249 ! NEVT = 2000
FILE = /castor/cern.ch/delphi/MCprod/cern/wphact23/v98e/188.6/wphact23_ccsk1_188.6_80.4_60250.fadana ! RUN = 60250 ! NEVT = 2000
FILE = /castor/cern.ch/delphi/MCprod/cern/wphact23/v98e/188.6/wphact23_ccsk1_188.6_80.4_60251.fadana ! RUN = 60251 ! NEVT = 1999
FILE = /castor/cern.ch/delphi/MCprod/cern/wphact23/v98e/188.6/wphact23_ccsk1_188.6_80.4_60252.fadana ! RUN = 60252 ! NEVT = 2000
FILE = /castor/cern.ch/delphi/MCprod/cern/wphact23/v98e/188.6/wphact23_ccsk1_188.6_80.4_60253.fadana ! RUN = 60253 ! NEVT = 1999
FILE = /castor/cern.ch/delphi/MCprod/cern/wphact23/v98e/188.6/wphact23_ccsk1_188.6_80.4_60254.fadana ! RUN = 60254 ! NEVT = 1999
FILE = /castor/cern.ch/delphi/MCprod/cern/wphact23/v98e/188.6/wphact23_ccsk1_188.6_80.4_60255.fadana ! RUN = 60255 ! NEVT = 1999
FILE = /castor/cern.ch/delphi/MCprod/cern/wphact23/v98e/188.6/wphact23_ccsk1_188.6_80.4_60256.fadana ! RUN = 60256 ! NEVT = 1999
FILE = /castor/cern.ch/delphi/MCprod/cern/wphact23/v98e/188.6/wphact23_ccsk1_188.6_80.4_60258.fadana ! RUN = 60258 ! NEVT = 2000
FILE = /castor/cern.ch/delphi/MCprod/cern/wphact23/v98e/188.6/wphact23_ccsk1_188.6_80.4_60259.fadana ! RUN = 60259 ! NEVT = 2000
FILE = /castor/cern.ch/delphi/MCprod/cern/wphact23/v98e/188.6/wphact23_ccsk1_188.6_80.4_60260.fadana ! RUN = 60260 ! NEVT = 1999
FILE = /castor/cern.ch/delphi/MCprod/cern/wphact23/v98e/188.6/wphact23_ccsk1_188.6_80.4_60261.fadana ! RUN = 60261 ! NEVT = 2000
FILE = /castor/cern.ch/delphi/MCprod/cern/wphact23/v98e/188.6/wphact23_ccsk1_188.6_80.4_60262.fadana ! RUN = 60262 ! NEVT = 2000
FILE = /castor/cern.ch/delphi/MCprod/cern/wphact23/v98e/188.6/wphact23_ccsk1_188.6_80.4_60263.fadana ! RUN = 60263 ! NEVT = 2000
FILE = /castor/cern.ch/delphi/MCprod/cern/wphact23/v98e/188.6/wphact23_ccsk1_188.6_80.4_60264.fadana ! RUN = 60264 ! NEVT = 1998
FILE = /castor/cern.ch/delphi/MCprod/cern/wphact23/v98e/188.6/wphact23_ccsk1_188.6_80.4_60265.fadana ! RUN = 60265 ! NEVT = 1999
FILE = /castor/cern.ch/delphi/MCprod/cern/wphact23/v98e/188.6/wphact23_ccsk1_188.6_80.4_60266.fadana ! RUN = 60266 ! NEVT = 1999
FILE = /castor/cern.ch/delphi/MCprod/cern/wphact23/v98e/188.6/wphact23_ccsk1_188.6_80.4_60267.fadana ! RUN = 60267 ! NEVT = 2000
FILE = /castor/cern.ch/delphi/MCprod/cern/wphact23/v98e/188.6/wphact23_ccsk1_188.6_80.4_60268.fadana ! RUN = 60268 ! NEVT = 2000
FILE = /castor/cern.ch/delphi/MCprod/cern/wphact23/v98e/188.6/wphact23_ccsk1_188.6_80.4_60269.fadana ! RUN = 60269 ! NEVT = 1999
FILE = /castor/cern.ch/delphi/MCprod/cern/wphact23/v98e/188.6/wphact23_ccsk1_188.6_80.4_60270.fadana ! RUN = 60270 ! NEVT = 1999
FILE = /castor/cern.ch/delphi/MCprod/cern/wphact23/v98e/188.6/wphact23_ccsk1_188.6_80.4_60273.fadana ! RUN = 60273 ! NEVT = 1999
FILE = /castor/cern.ch/delphi/MCprod/cern/wphact23/v98e/188.6/wphact23_ccsk1_188.6_80.4_60276.fadana ! RUN = 60276 ! NEVT = 2000
FILE = /castor/cern.ch/delphi/MCprod/cern/wphact23/v98e/188.6/wphact23_ccsk1_188.6_80.4_60278.fadana ! RUN = 60278 ! NEVT = 1999
FILE = /castor/cern.ch/delphi/MCprod/cern/wphact23/v98e/188.6/wphact23_ccsk1_188.6_80.4_60279.fadana ! RUN = 60279 ! NEVT = 2000
FILE = /castor/cern.ch/delphi/MCprod/cern/wphact23/v98e/188.6/wphact23_ccsk1_188.6_80.4_60280.fadana ! RUN = 60280 ! NEVT = 1998
FILE = /castor/cern.ch/delphi/MCprod/cern/wphact23/v98e/188.6/wphact23_ccsk1_188.6_80.4_60281.fadana ! RUN = 60281 ! NEVT = 2000
FILE = /castor/cern.ch/delphi/MCprod/cern/wphact23/v98e/188.6/wphact23_ccsk1_188.6_80.4_60282.fadana ! RUN = 60282 ! NEVT = 1999
FILE = /castor/cern.ch/delphi/MCprod/cern/wphact23/v98e/188.6/wphact23_ccsk1_188.6_80.4_60283.fadana ! RUN = 60283 ! NEVT = 1997
FILE = /castor/cern.ch/delphi/MCprod/cern/wphact23/v98e/188.6/wphact23_ccsk1_188.6_80.4_60284.fadana ! RUN = 60284 ! NEVT = 2000
FILE = /castor/cern.ch/delphi/MCprod/cern/wphact23/v98e/188.6/wphact23_ccsk1_188.6_80.4_60285.fadana ! RUN = 60285 ! NEVT = 1998
FILE = /castor/cern.ch/delphi/MCprod/cern/wphact23/v98e/188.6/wphact23_ccsk1_188.6_80.4_60286.fadana ! RUN = 60286 ! NEVT = 2000
FILE = /castor/cern.ch/delphi/MCprod/cern/wphact23/v98e/188.6/wphact23_ccsk1_188.6_80.4_60287.fadana ! RUN = 60287 ! NEVT = 1998
FILE = /castor/cern.ch/delphi/MCprod/cern/wphact23/v98e/188.6/wphact23_ccsk1_188.6_80.4_60288.fadana ! RUN = 60288 ! NEVT = 2000
FILE = /castor/cern.ch/delphi/MCprod/cern/wphact23/v98e/188.6/wphact23_ccsk1_188.6_80.4_60289.fadana ! RUN = 60289 ! NEVT = 1999
FILE = /castor/cern.ch/delphi/MCprod/cern/wphact23/v98e/188.6/wphact23_ccsk1_188.6_80.4_60290.fadana ! RUN = 60290 ! NEVT = 1999
FILE = /castor/cern.ch/delphi/MCprod/cern/wphact23/v98e/188.6/wphact23_ccsk1_188.6_80.4_60291.fadana ! RUN = 60291 ! NEVT = 1998
FILE = /castor/cern.ch/delphi/MCprod/cern/wphact23/v98e/188.6/wphact23_ccsk1_188.6_80.4_60292.fadana ! RUN = 60292 ! NEVT = 1999
FILE = /castor/cern.ch/delphi/MCprod/cern/wphact23/v98e/188.6/wphact23_ccsk1_188.6_80.4_60293.fadana ! RUN = 60293 ! NEVT = 1999
FILE = /castor/cern.ch/delphi/MCprod/cern/wphact23/v98e/188.6/wphact23_ccsk1_188.6_80.4_60294.fadana ! RUN = 60294 ! NEVT = 2000
FILE = /castor/cern.ch/delphi/MCprod/cern/wphact23/v98e/188.6/wphact23_ccsk1_188.6_80.4_60295.fadana ! RUN = 60295 ! NEVT = 1999
FILE = /castor/cern.ch/delphi/MCprod/cern/wphact23/v98e/188.6/wphact23_ccsk1_188.6_80.4_60296.fadana ! RUN = 60296 ! NEVT = 1999
FILE = /castor/cern.ch/delphi/MCprod/cern/wphact23/v98e/188.6/wphact23_ccsk1_188.6_80.4_60297.fadana ! RUN = 60297 ! NEVT = 2000
FILE = /castor/cern.ch/delphi/MCprod/cern/wphact23/v98e/188.6/wphact23_ccsk1_188.6_80.4_60298.fadana ! RUN = 60298 ! NEVT = 2000
FILE = /castor/cern.ch/delphi/MCprod/cern/wphact23/v98e/188.6/wphact23_ccsk1_188.6_80.4_60299.fadana ! RUN = 60299 ! NEVT = 1997
FILE = /castor/cern.ch/delphi/MCprod/cern/wphact23/v98e/188.6/wphact23_ccsk1_188.6_80.4_60300.fadana ! RUN = 60300 ! NEVT = 1999
FILE = /castor/cern.ch/delphi/MCprod/cern/wphact23/v98e/188.6/wphact23_ccsk1_188.6_80.4_60301.fadana ! RUN = 60301 ! NEVT = 2000
FILE = /castor/cern.ch/delphi/MCprod/cern/wphact23/v98e/188.6/wphact23_ccsk1_188.6_80.4_60302.fadana ! RUN = 60302 ! NEVT = 1998
FILE = /castor/cern.ch/delphi/MCprod/cern/wphact23/v98e/188.6/wphact23_ccsk1_188.6_80.4_60303.fadana ! RUN = 60303 ! NEVT = 2000
FILE = /castor/cern.ch/delphi/MCprod/cern/wphact23/v98e/188.6/wphact23_ccsk1_188.6_80.4_60304.fadana ! RUN = 60304 ! NEVT = 2000
FILE = /castor/cern.ch/delphi/MCprod/cern/wphact23/v98e/188.6/wphact23_ccsk1_188.6_80.4_60305.fadana ! RUN = 60305 ! NEVT = 24
FILE = /castor/cern.ch/delphi/MCprod/cern/wphact23/v98e/188.6/wphact23_ccsk1_188.6_80.4_60306.fadana ! RUN = 60306 ! NEVT = 1999
FILE = /castor/cern.ch/delphi/MCprod/cern/wphact23/v98e/188.6/wphact23_ccsk1_188.6_80.4_60307.fadana ! RUN = 60307 ! NEVT = 1998
FILE = /castor/cern.ch/delphi/MCprod/cern/wphact23/v98e/188.6/wphact23_ccsk1_188.6_80.4_60308.fadana ! RUN = 60308 ! NEVT = 2000
FILE = /castor/cern.ch/delphi/MCprod/cern/wphact23/v98e/188.6/wphact23_ccsk1_188.6_80.4_60309.fadana ! RUN = 60309 ! NEVT = 1999
FILE = /castor/cern.ch/delphi/MCprod/cern/wphact23/v98e/188.6/wphact23_ccsk1_188.6_80.4_60310.fadana ! RUN = 60310 ! NEVT = 2000
FILE = /castor/cern.ch/delphi/MCprod/cern/wphact23/v98e/188.6/wphact23_ccsk1_188.6_80.4_60311.fadana ! RUN = 60311 ! NEVT = 1999
FILE = /castor/cern.ch/delphi/MCprod/cern/wphact23/v98e/188.6/wphact23_ccsk1_188.6_80.4_60312.fadana ! RUN = 60312 ! NEVT = 2000
FILE = /castor/cern.ch/delphi/MCprod/cern/wphact23/v98e/188.6/wphact23_ccsk1_188.6_80.4_60313.fadana ! RUN = 60313 ! NEVT = 1997
FILE = /castor/cern.ch/delphi/MCprod/cern/wphact23/v98e/188.6/wphact23_ccsk1_188.6_80.4_60314.fadana ! RUN = 60314 ! NEVT = 2000
FILE = /castor/cern.ch/delphi/MCprod/cern/wphact23/v98e/188.6/wphact23_ccsk1_188.6_80.4_60315.fadana ! RUN = 60315 ! NEVT = 1999
FILE = /castor/cern.ch/delphi/MCprod/cern/wphact23/v98e/188.6/wphact23_ccsk1_188.6_80.4_60316.fadana ! RUN = 60316 ! NEVT = 2000
FILE = /castor/cern.ch/delphi/MCprod/cern/wphact23/v98e/188.6/wphact23_ccsk1_188.6_80.4_60317.fadana ! RUN = 60317 ! NEVT = 1999
FILE = /castor/cern.ch/delphi/MCprod/cern/wphact23/v98e/188.6/wphact23_ccsk1_188.6_80.4_60318.fadana ! RUN = 60318 ! NEVT = 1999
FILE = /castor/cern.ch/delphi/MCprod/cern/wphact23/v98e/188.6/wphact23_ccsk1_188.6_80.4_60319.fadana ! RUN = 60319 ! NEVT = 1999
FILE = /castor/cern.ch/delphi/MCprod/cern/wphact23/v98e/188.6/wphact23_ccsk1_188.6_80.4_60320.fadana ! RUN = 60320 ! NEVT = 2000
FILE = /castor/cern.ch/delphi/MCprod/cern/wphact23/v98e/188.6/wphact23_ccsk1_188.6_80.4_60321.fadana ! RUN = 60321 ! NEVT = 1999
FILE = /castor/cern.ch/delphi/MCprod/cern/wphact23/v98e/188.6/wphact23_ccsk1_188.6_80.4_60323.fadana ! RUN = 60323 ! NEVT = 1999
FILE = /castor/cern.ch/delphi/MCprod/cern/wphact23/v98e/188.6/wphact23_ccsk1_188.6_80.4_60324.fadana ! RUN = 60324 ! NEVT = 2000
FILE = /castor/cern.ch/delphi/MCprod/cern/wphact23/v98e/188.6/wphact23_ccsk1_188.6_80.4_60325.fadana ! RUN = 60325 ! NEVT = 2000
FILE = /castor/cern.ch/delphi/MCprod/cern/wphact23/v98e/188.6/wphact23_ccsk1_188.6_80.4_60326.fadana ! RUN = 60326 ! NEVT = 2000
FILE = /castor/cern.ch/delphi/MCprod/cern/wphact23/v98e/188.6/wphact23_ccsk1_188.6_80.4_60327.fadana ! RUN = 60327 ! NEVT = 2000
FILE = /castor/cern.ch/delphi/MCprod/cern/wphact23/v98e/188.6/wphact23_ccsk1_188.6_80.4_60328.fadana ! RUN = 60328 ! NEVT = 1998
FILE = /castor/cern.ch/delphi/MCprod/cern/wphact23/v98e/188.6/wphact23_ccsk1_188.6_80.4_60329.fadana ! RUN = 60329 ! NEVT = 2000
FILE = /castor/cern.ch/delphi/MCprod/cern/wphact23/v98e/188.6/wphact23_ccsk1_188.6_80.4_60330.fadana ! RUN = 60330 ! NEVT = 2000
FILE = /castor/cern.ch/delphi/MCprod/cern/wphact23/v98e/188.6/wphact23_ccsk1_188.6_80.4_60331.fadana ! RUN = 60331 ! NEVT = 1999
FILE = /castor/cern.ch/delphi/MCprod/cern/wphact23/v98e/188.6/wphact23_ccsk1_188.6_80.4_60332.fadana ! RUN = 60332 ! NEVT = 2000
FILE = /castor/cern.ch/delphi/MCprod/cern/wphact23/v98e/188.6/wphact23_ccsk1_188.6_80.4_60333.fadana ! RUN = 60333 ! NEVT = 1999
FILE = /castor/cern.ch/delphi/MCprod/cern/wphact23/v98e/188.6/wphact23_ccsk1_188.6_80.4_60334.fadana ! RUN = 60334 ! NEVT = 629
FILE = /castor/cern.ch/delphi/MCprod/cern/wphact23/v98e/188.6/wphact23_ccsk1_188.6_80.4_60335.fadana ! RUN = 60335 ! NEVT = 2000
FILE = /castor/cern.ch/delphi/MCprod/cern/wphact23/v98e/188.6/wphact23_ccsk1_188.6_80.4_60336.fadana ! RUN = 60336 ! NEVT = 2000
FILE = /castor/cern.ch/delphi/MCprod/cern/wphact23/v98e/188.6/wphact23_ccsk1_188.6_80.4_60337.fadana ! RUN = 60337 ! NEVT = 2000
FILE = /castor/cern.ch/delphi/MCprod/cern/wphact23/v98e/188.6/wphact23_ccsk1_188.6_80.4_60338.fadana ! RUN = 60338 ! NEVT = 1999
FILE = /castor/cern.ch/delphi/MCprod/cern/wphact23/v98e/188.6/wphact23_ccsk1_188.6_80.4_60339.fadana ! RUN = 60339 ! NEVT = 1999
FILE = /castor/cern.ch/delphi/MCprod/cern/wphact23/v98e/188.6/wphact23_ccsk1_188.6_80.4_60340.fadana ! RUN = 60340 ! NEVT = 2000
FILE = /castor/cern.ch/delphi/MCprod/cern/wphact23/v98e/188.6/wphact23_ccsk1_188.6_80.4_60341.fadana ! RUN = 60341 ! NEVT = 1999
FILE = /castor/cern.ch/delphi/MCprod/cern/wphact23/v98e/188.6/wphact23_ccsk1_188.6_80.4_60342.fadana ! RUN = 60342 ! NEVT = 1999
FILE = /castor/cern.ch/delphi/MCprod/cern/wphact23/v98e/188.6/wphact23_ccsk1_188.6_80.4_60343.fadana ! RUN = 60343 ! NEVT = 1999
FILE = /castor/cern.ch/delphi/MCprod/cern/wphact23/v98e/188.6/wphact23_ccsk1_188.6_80.4_60344.fadana ! RUN = 60344 ! NEVT = 2000
FILE = /castor/cern.ch/delphi/MCprod/cern/wphact23/v98e/188.6/wphact23_ccsk1_188.6_80.4_60345.fadana ! RUN = 60345 ! NEVT = 2000
FILE = /castor/cern.ch/delphi/MCprod/cern/wphact23/v98e/188.6/wphact23_ccsk1_188.6_80.4_60346.fadana ! RUN = 60346 ! NEVT = 2000
FILE = /castor/cern.ch/delphi/MCprod/cern/wphact23/v98e/188.6/wphact23_ccsk1_188.6_80.4_60347.fadana ! RUN = 60347 ! NEVT = 1999
FILE = /castor/cern.ch/delphi/MCprod/cern/wphact23/v98e/188.6/wphact23_ccsk1_188.6_80.4_60348.fadana ! RUN = 60348 ! NEVT = 1999
FILE = /castor/cern.ch/delphi/MCprod/cern/wphact23/v98e/188.6/wphact23_ccsk1_188.6_80.4_60349.fadana ! RUN = 60349 ! NEVT = 2000
FILE = /castor/cern.ch/delphi/MCprod/cern/wphact23/v98e/188.6/wphact23_ccsk1_188.6_80.4_60350.fadana ! RUN = 60350 ! NEVT = 2000
FILE = /castor/cern.ch/delphi/MCprod/cern/wphact23/v98e/188.6/wphact23_ccsk1_188.6_80.4_60351.fadana ! RUN = 60351 ! NEVT = 2000
FILE = /castor/cern.ch/delphi/MCprod/cern/wphact23/v98e/188.6/wphact23_ccsk1_188.6_80.4_60352.fadana ! RUN = 60352 ! NEVT = 2000
FILE = /castor/cern.ch/delphi/MCprod/cern/wphact23/v98e/188.6/wphact23_ccsk1_188.6_80.4_60353.fadana ! RUN = 60353 ! NEVT = 1999
FILE = /castor/cern.ch/delphi/MCprod/cern/wphact23/v98e/188.6/wphact23_ccsk1_188.6_80.4_60354.fadana ! RUN = 60354 ! NEVT = 2000
FILE = /castor/cern.ch/delphi/MCprod/cern/wphact23/v98e/188.6/wphact23_ccsk1_188.6_80.4_60355.fadana ! RUN = 60355 ! NEVT = 1999
FILE = /castor/cern.ch/delphi/MCprod/cern/wphact23/v98e/188.6/wphact23_ccsk1_188.6_80.4_60356.fadana ! RUN = 60356 ! NEVT = 2000
FILE = /castor/cern.ch/delphi/MCprod/cern/wphact23/v98e/188.6/wphact23_ccsk1_188.6_80.4_60357.fadana ! RUN = 60357 ! NEVT = 1998
FILE = /castor/cern.ch/delphi/MCprod/cern/wphact23/v98e/188.6/wphact23_ccsk1_188.6_80.4_60358.fadana ! RUN = 60358 ! NEVT = 1999
FILE = /castor/cern.ch/delphi/MCprod/cern/wphact23/v98e/188.6/wphact23_ccsk1_188.6_80.4_60359.fadana ! RUN = 60359 ! NEVT = 1998
FILE = /castor/cern.ch/delphi/MCprod/cern/wphact23/v98e/188.6/wphact23_ccsk1_188.6_80.4_60360.fadana ! RUN = 60360 ! NEVT = 1998
FILE = /castor/cern.ch/delphi/MCprod/cern/wphact23/v98e/188.6/wphact23_ccsk1_188.6_80.4_60361.fadana ! RUN = 60361 ! NEVT = 2000
FILE = /castor/cern.ch/delphi/MCprod/cern/wphact23/v98e/188.6/wphact23_ccsk1_188.6_80.4_60362.fadana ! RUN = 60362 ! NEVT = 2000
FILE = /castor/cern.ch/delphi/MCprod/cern/wphact23/v98e/188.6/wphact23_ccsk1_188.6_80.4_60363.fadana ! RUN = 60363 ! NEVT = 2000
FILE = /castor/cern.ch/delphi/MCprod/cern/wphact23/v98e/188.6/wphact23_ccsk1_188.6_80.4_60364.fadana ! RUN = 60364 ! NEVT = 1999
FILE = /castor/cern.ch/delphi/MCprod/cern/wphact23/v98e/188.6/wphact23_ccsk1_188.6_80.4_60365.fadana ! RUN = 60365 ! NEVT = 2000
FILE = /castor/cern.ch/delphi/MCprod/cern/wphact23/v98e/188.6/wphact23_ccsk1_188.6_80.4_60366.fadana ! RUN = 60366 ! NEVT = 2000
FILE = /castor/cern.ch/delphi/MCprod/cern/wphact23/v98e/188.6/wphact23_ccsk1_188.6_80.4_60367.fadana ! RUN = 60367 ! NEVT = 1161
FILE = /castor/cern.ch/delphi/MCprod/cern/wphact23/v98e/188.6/wphact23_ccsk1_188.6_80.4_60368.fadana ! RUN = 60368 ! NEVT = 2000
FILE = /castor/cern.ch/delphi/MCprod/cern/wphact23/v98e/188.6/wphact23_ccsk1_188.6_80.4_60369.fadana ! RUN = 60369 ! NEVT = 1999
FILE = /castor/cern.ch/delphi/MCprod/cern/wphact23/v98e/188.6/wphact23_ccsk1_188.6_80.4_60370.fadana ! RUN = 60370 ! NEVT = 2000
FILE = /castor/cern.ch/delphi/MCprod/cern/wphact23/v98e/188.6/wphact23_ccsk1_188.6_80.4_60371.fadana ! RUN = 60371 ! NEVT = 2000
FILE = /castor/cern.ch/delphi/MCprod/cern/wphact23/v98e/188.6/wphact23_ccsk1_188.6_80.4_60372.fadana ! RUN = 60372 ! NEVT = 1999
FILE = /castor/cern.ch/delphi/MCprod/cern/wphact23/v98e/188.6/wphact23_ccsk1_188.6_80.4_60373.fadana ! RUN = 60373 ! NEVT = 1999
FILE = /castor/cern.ch/delphi/MCprod/cern/wphact23/v98e/188.6/wphact23_ccsk1_188.6_80.4_60374.fadana ! RUN = 60374 ! NEVT = 1999
FILE = /castor/cern.ch/delphi/MCprod/cern/wphact23/v98e/188.6/wphact23_ccsk1_188.6_80.4_60375.fadana ! RUN = 60375 ! NEVT = 1999
FILE = /castor/cern.ch/delphi/MCprod/cern/wphact23/v98e/188.6/wphact23_ccsk1_188.6_80.4_60376.fadana ! RUN = 60376 ! NEVT = 1999
FILE = /castor/cern.ch/delphi/MCprod/cern/wphact23/v98e/188.6/wphact23_ccsk1_188.6_80.4_60377.fadana ! RUN = 60377 ! NEVT = 1999
FILE = /castor/cern.ch/delphi/MCprod/cern/wphact23/v98e/188.6/wphact23_ccsk1_188.6_80.4_60378.fadana ! RUN = 60378 ! NEVT = 1999
FILE = /castor/cern.ch/delphi/MCprod/cern/wphact23/v98e/188.6/wphact23_ccsk1_188.6_80.4_60379.fadana ! RUN = 60379 ! NEVT = 1999
FILE = /castor/cern.ch/delphi/MCprod/cern/wphact23/v98e/188.6/wphact23_ccsk1_188.6_80.4_60380.fadana ! RUN = 60380 ! NEVT = 2000
FILE = /castor/cern.ch/delphi/MCprod/cern/wphact23/v98e/188.6/wphact23_ccsk1_188.6_80.4_60381.fadana ! RUN = 60381 ! NEVT = 1999
FILE = /castor/cern.ch/delphi/MCprod/cern/wphact23/v98e/188.6/wphact23_ccsk1_188.6_80.4_60382.fadana ! RUN = 60382 ! NEVT = 2000
FILE = /castor/cern.ch/delphi/MCprod/cern/wphact23/v98e/188.6/wphact23_ccsk1_188.6_80.4_60383.fadana ! RUN = 60383 ! NEVT = 1999
FILE = /castor/cern.ch/delphi/MCprod/cern/wphact23/v98e/188.6/wphact23_ccsk1_188.6_80.4_60384.fadana ! RUN = 60384 ! NEVT = 1999
FILE = /castor/cern.ch/delphi/MCprod/cern/wphact23/v98e/188.6/wphact23_ccsk1_188.6_80.4_60385.fadana ! RUN = 60385 ! NEVT = 2000
FILE = /castor/cern.ch/delphi/MCprod/cern/wphact23/v98e/188.6/wphact23_ccsk1_188.6_80.4_60386.fadana ! RUN = 60386 ! NEVT = 2000
FILE = /castor/cern.ch/delphi/MCprod/cern/wphact23/v98e/188.6/wphact23_ccsk1_188.6_80.4_60387.fadana ! RUN = 60387 ! NEVT = 1998
FILE = /castor/cern.ch/delphi/MCprod/cern/wphact23/v98e/188.6/wphact23_ccsk1_188.6_80.4_60388.fadana ! RUN = 60388 ! NEVT = 1999
FILE = /castor/cern.ch/delphi/MCprod/cern/wphact23/v98e/188.6/wphact23_ccsk1_188.6_80.4_60389.fadana ! RUN = 60389 ! NEVT = 2000
FILE = /castor/cern.ch/delphi/MCprod/cern/wphact23/v98e/188.6/wphact23_ccsk1_188.6_80.4_60390.fadana ! RUN = 60390 ! NEVT = 1997
FILE = /castor/cern.ch/delphi/MCprod/cern/wphact23/v98e/188.6/wphact23_ccsk1_188.6_80.4_60391.fadana ! RUN = 60391 ! NEVT = 2000
FILE = /castor/cern.ch/delphi/MCprod/cern/wphact23/v98e/188.6/wphact23_ccsk1_188.6_80.4_60392.fadana ! RUN = 60392 ! NEVT = 1999
FILE = /castor/cern.ch/delphi/MCprod/cern/wphact23/v98e/188.6/wphact23_ccsk1_188.6_80.4_60393.fadana ! RUN = 60393 ! NEVT = 1999
FILE = /castor/cern.ch/delphi/MCprod/cern/wphact23/v98e/188.6/wphact23_ccsk1_188.6_80.4_60394.fadana ! RUN = 60394 ! NEVT = 2000
FILE = /castor/cern.ch/delphi/MCprod/cern/wphact23/v98e/188.6/wphact23_ccsk1_188.6_80.4_60396.fadana ! RUN = 60396 ! NEVT = 2000
FILE = /castor/cern.ch/delphi/MCprod/cern/wphact23/v98e/188.6/wphact23_ccsk1_188.6_80.4_60397.fadana ! RUN = 60397 ! NEVT = 2000
FILE = /castor/cern.ch/delphi/MCprod/cern/wphact23/v98e/188.6/wphact23_ccsk1_188.6_80.4_60398.fadana ! RUN = 60398 ! NEVT = 2000
FILE = /castor/cern.ch/delphi/MCprod/cern/wphact23/v98e/188.6/wphact23_ccsk1_188.6_80.4_60399.fadana ! RUN = 60399 ! NEVT = 2000
FILE = /castor/cern.ch/delphi/MCprod/cern/wphact23/v98e/188.6/wphact23_ccsk1_188.6_80.4_60400.fadana ! RUN = 60400 ! NEVT = 1999
FILE = /castor/cern.ch/delphi/MCprod/cern/wphact23/v98e/188.6/wphact23_ccsk1_188.6_80.4_60401.fadana ! RUN = 60401 ! NEVT = 2000
FILE = /castor/cern.ch/delphi/MCprod/cern/wphact23/v98e/188.6/wphact23_ccsk1_188.6_80.4_60402.fadana ! RUN = 60402 ! NEVT = 2000
FILE = /castor/cern.ch/delphi/MCprod/cern/wphact23/v98e/188.6/wphact23_ccsk1_188.6_80.4_60403.fadana ! RUN = 60403 ! NEVT = 1999
FILE = /castor/cern.ch/delphi/MCprod/cern/wphact23/v98e/188.6/wphact23_ccsk1_188.6_80.4_60404.fadana ! RUN = 60404 ! NEVT = 1999
FILE = /castor/cern.ch/delphi/MCprod/cern/wphact23/v98e/188.6/wphact23_ccsk1_188.6_80.4_60405.fadana ! RUN = 60405 ! NEVT = 2000
FILE = /castor/cern.ch/delphi/MCprod/cern/wphact23/v98e/188.6/wphact23_ccsk1_188.6_80.4_60406.fadana ! RUN = 60406 ! NEVT = 1966
FILE = /castor/cern.ch/delphi/MCprod/cern/wphact23/v98e/188.6/wphact23_ccsk1_188.6_80.4_60407.fadana ! RUN = 60407 ! NEVT = 2000
FILE = /castor/cern.ch/delphi/MCprod/cern/wphact23/v98e/188.6/wphact23_ccsk1_188.6_80.4_60408.fadana ! RUN = 60408 ! NEVT = 2000
FILE = /castor/cern.ch/delphi/MCprod/cern/wphact23/v98e/188.6/wphact23_ccsk1_188.6_80.4_60409.fadana ! RUN = 60409 ! NEVT = 1999
FILE = /castor/cern.ch/delphi/MCprod/cern/wphact23/v98e/188.6/wphact23_ccsk1_188.6_80.4_60410.fadana ! RUN = 60410 ! NEVT = 1999
FILE = /castor/cern.ch/delphi/MCprod/cern/wphact23/v98e/188.6/wphact23_ccsk1_188.6_80.4_60411.fadana ! RUN = 60411 ! NEVT = 2000
FILE = /castor/cern.ch/delphi/MCprod/cern/wphact23/v98e/188.6/wphact23_ccsk1_188.6_80.4_60412.fadana ! RUN = 60412 ! NEVT = 2000
FILE = /castor/cern.ch/delphi/MCprod/cern/wphact23/v98e/188.6/wphact23_ccsk1_188.6_80.4_60413.fadana ! RUN = 60413 ! NEVT = 1999
FILE = /castor/cern.ch/delphi/MCprod/cern/wphact23/v98e/188.6/wphact23_ccsk1_188.6_80.4_60414.fadana ! RUN = 60414 ! NEVT = 2000
FILE = /castor/cern.ch/delphi/MCprod/cern/wphact23/v98e/188.6/wphact23_ccsk1_188.6_80.4_60415.fadana ! RUN = 60415 ! NEVT = 2000
FILE = /castor/cern.ch/delphi/MCprod/cern/wphact23/v98e/188.6/wphact23_ccsk1_188.6_80.4_60416.fadana ! RUN = 60416 ! NEVT = 1999
FILE = /castor/cern.ch/delphi/MCprod/cern/wphact23/v98e/188.6/wphact23_ccsk1_188.6_80.4_60417.fadana ! RUN = 60417 ! NEVT = 1997
FILE = /castor/cern.ch/delphi/MCprod/cern/wphact23/v98e/188.6/wphact23_ccsk1_188.6_80.4_60418.fadana ! RUN = 60418 ! NEVT = 2000
FILE = /castor/cern.ch/delphi/MCprod/cern/wphact23/v98e/188.6/wphact23_ccsk1_188.6_80.4_60419.fadana ! RUN = 60419 ! NEVT = 1999
FILE = /castor/cern.ch/delphi/MCprod/cern/wphact23/v98e/188.6/wphact23_ccsk1_188.6_80.4_60420.fadana ! RUN = 60420 ! NEVT = 2000
FILE = /castor/cern.ch/delphi/MCprod/cern/wphact23/v98e/188.6/wphact23_ccsk1_188.6_80.4_60421.fadana ! RUN = 60421 ! NEVT = 1999
FILE = /castor/cern.ch/delphi/MCprod/cern/wphact23/v98e/188.6/wphact23_ccsk1_188.6_80.4_60422.fadana ! RUN = 60422 ! NEVT = 1999
FILE = /castor/cern.ch/delphi/MCprod/cern/wphact23/v98e/188.6/wphact23_ccsk1_188.6_80.4_60423.fadana ! RUN = 60423 ! NEVT = 2000
FILE = /castor/cern.ch/delphi/MCprod/cern/wphact23/v98e/188.6/wphact23_ccsk1_188.6_80.4_60424.fadana ! RUN = 60424 ! NEVT = 2000
FILE = /castor/cern.ch/delphi/MCprod/cern/wphact23/v98e/188.6/wphact23_ccsk1_188.6_80.4_60425.fadana ! RUN = 60425 ! NEVT = 1999
FILE = /castor/cern.ch/delphi/MCprod/cern/wphact23/v98e/188.6/wphact23_ccsk1_188.6_80.4_60426.fadana ! RUN = 60426 ! NEVT = 2000
FILE = /castor/cern.ch/delphi/MCprod/cern/wphact23/v98e/188.6/wphact23_ccsk1_188.6_80.4_60427.fadana ! RUN = 60427 ! NEVT = 2000
FILE = /castor/cern.ch/delphi/MCprod/cern/wphact23/v98e/188.6/wphact23_ccsk1_188.6_80.4_60428.fadana ! RUN = 60428 ! NEVT = 1999
FILE = /castor/cern.ch/delphi/MCprod/cern/wphact23/v98e/188.6/wphact23_ccsk1_188.6_80.4_60429.fadana ! RUN = 60429 ! NEVT = 2000
FILE = /castor/cern.ch/delphi/MCprod/cern/wphact23/v98e/188.6/wphact23_ccsk1_188.6_80.4_60430.fadana ! RUN = 60430 ! NEVT = 2000
FILE = /castor/cern.ch/delphi/MCprod/cern/wphact23/v98e/188.6/wphact23_ccsk1_188.6_80.4_60431.fadana ! RUN = 60431 ! NEVT = 1999
FILE = /castor/cern.ch/delphi/MCprod/cern/wphact23/v98e/188.6/wphact23_ccsk1_188.6_80.4_60432.fadana ! RUN = 60432 ! NEVT = 1999
FILE = /castor/cern.ch/delphi/MCprod/cern/wphact23/v98e/188.6/wphact23_ccsk1_188.6_80.4_60433.fadana ! RUN = 60433 ! NEVT = 2000
FILE = /castor/cern.ch/delphi/MCprod/cern/wphact23/v98e/188.6/wphact23_ccsk1_188.6_80.4_60434.fadana ! RUN = 60434 ! NEVT = 2000
FILE = /castor/cern.ch/delphi/MCprod/cern/wphact23/v98e/188.6/wphact23_ccsk1_188.6_80.4_60435.fadana ! RUN = 60435 ! NEVT = 2000
FILE = /castor/cern.ch/delphi/MCprod/cern/wphact23/v98e/188.6/wphact23_ccsk1_188.6_80.4_60436.fadana ! RUN = 60436 ! NEVT = 1998
FILE = /castor/cern.ch/delphi/MCprod/cern/wphact23/v98e/188.6/wphact23_ccsk1_188.6_80.4_60437.fadana ! RUN = 60437 ! NEVT = 1998
FILE = /castor/cern.ch/delphi/MCprod/cern/wphact23/v98e/188.6/wphact23_ccsk1_188.6_80.4_60438.fadana ! RUN = 60438 ! NEVT = 1998
FILE = /castor/cern.ch/delphi/MCprod/cern/wphact23/v98e/188.6/wphact23_ccsk1_188.6_80.4_60439.fadana ! RUN = 60439 ! NEVT = 1999
FILE = /castor/cern.ch/delphi/MCprod/cern/wphact23/v98e/188.6/wphact23_ccsk1_188.6_80.4_60440.fadana ! RUN = 60440 ! NEVT = 1999
FILE = /castor/cern.ch/delphi/MCprod/cern/wphact23/v98e/188.6/wphact23_ccsk1_188.6_80.4_60441.fadana ! RUN = 60441 ! NEVT = 1999
FILE = /castor/cern.ch/delphi/MCprod/cern/wphact23/v98e/188.6/wphact23_ccsk1_188.6_80.4_60442.fadana ! RUN = 60442 ! NEVT = 1999
FILE = /castor/cern.ch/delphi/MCprod/cern/wphact23/v98e/188.6/wphact23_ccsk1_188.6_80.4_60443.fadana ! RUN = 60443 ! NEVT = 2000
FILE = /castor/cern.ch/delphi/MCprod/cern/wphact23/v98e/188.6/wphact23_ccsk1_188.6_80.4_60444.fadana ! RUN = 60444 ! NEVT = 1998
FILE = /castor/cern.ch/delphi/MCprod/cern/wphact23/v98e/188.6/wphact23_ccsk1_188.6_80.4_60445.fadana ! RUN = 60445 ! NEVT = 2000
FILE = /castor/cern.ch/delphi/MCprod/cern/wphact23/v98e/188.6/wphact23_ccsk1_188.6_80.4_60446.fadana ! RUN = 60446 ! NEVT = 2000
FILE = /castor/cern.ch/delphi/MCprod/cern/wphact23/v98e/188.6/wphact23_ccsk1_188.6_80.4_60447.fadana ! RUN = 60447 ! NEVT = 2000
FILE = /castor/cern.ch/delphi/MCprod/cern/wphact23/v98e/188.6/wphact23_ccsk1_188.6_80.4_60448.fadana ! RUN = 60448 ! NEVT = 2000
FILE = /castor/cern.ch/delphi/MCprod/cern/wphact23/v98e/188.6/wphact23_ccsk1_188.6_80.4_60449.fadana ! RUN = 60449 ! NEVT = 1998
FILE = /castor/cern.ch/delphi/MCprod/cern/wphact23/v98e/188.6/wphact23_ccsk1_188.6_80.4_60450.fadana ! RUN = 60450 ! NEVT = 1995
FILE = /castor/cern.ch/delphi/MCprod/cern/wphact23/v98e/188.6/wphact23_ccsk1_188.6_80.4_60451.fadana ! RUN = 60451 ! NEVT = 1999
FILE = /castor/cern.ch/delphi/MCprod/cern/wphact23/v98e/188.6/wphact23_ccsk1_188.6_80.4_60452.fadana ! RUN = 60452 ! NEVT = 1998
FILE = /castor/cern.ch/delphi/MCprod/cern/wphact23/v98e/188.6/wphact23_ccsk1_188.6_80.4_60453.fadana ! RUN = 60453 ! NEVT = 2000
FILE = /castor/cern.ch/delphi/MCprod/cern/wphact23/v98e/188.6/wphact23_ccsk1_188.6_80.4_60454.fadana ! RUN = 60454 ! NEVT = 2000
FILE = /castor/cern.ch/delphi/MCprod/cern/wphact23/v98e/188.6/wphact23_ccsk1_188.6_80.4_60455.fadana ! RUN = 60455 ! NEVT = 1998
FILE = /castor/cern.ch/delphi/MCprod/cern/wphact23/v98e/188.6/wphact23_ccsk1_188.6_80.4_60456.fadana ! RUN = 60456 ! NEVT = 2000
FILE = /castor/cern.ch/delphi/MCprod/cern/wphact23/v98e/188.6/wphact23_ccsk1_188.6_80.4_60457.fadana ! RUN = 60457 ! NEVT = 2000
FILE = /castor/cern.ch/delphi/MCprod/cern/wphact23/v98e/188.6/wphact23_ccsk1_188.6_80.4_60458.fadana ! RUN = 60458 ! NEVT = 2000
FILE = /castor/cern.ch/delphi/MCprod/cern/wphact23/v98e/188.6/wphact23_ccsk1_188.6_80.4_60459.fadana ! RUN = 60459 ! NEVT = 1999
FILE = /castor/cern.ch/delphi/MCprod/cern/wphact23/v98e/188.6/wphact23_ccsk1_188.6_80.4_60460.fadana ! RUN = 60460 ! NEVT = 1999
FILE = /castor/cern.ch/delphi/MCprod/cern/wphact23/v98e/188.6/wphact23_ccsk1_188.6_80.4_60461.fadana ! RUN = 60461 ! NEVT = 2000
FILE = /castor/cern.ch/delphi/MCprod/cern/wphact23/v98e/188.6/wphact23_ccsk1_188.6_80.4_60462.fadana ! RUN = 60462 ! NEVT = 1998
FILE = /castor/cern.ch/delphi/MCprod/cern/wphact23/v98e/188.6/wphact23_ccsk1_188.6_80.4_60463.fadana ! RUN = 60463 ! NEVT = 1997
FILE = /castor/cern.ch/delphi/MCprod/cern/wphact23/v98e/188.6/wphact23_ccsk1_188.6_80.4_60464.fadana ! RUN = 60464 ! NEVT = 2000
FILE = /castor/cern.ch/delphi/MCprod/cern/wphact23/v98e/188.6/wphact23_ccsk1_188.6_80.4_60465.fadana ! RUN = 60465 ! NEVT = 2000
FILE = /castor/cern.ch/delphi/MCprod/cern/wphact23/v98e/188.6/wphact23_ccsk1_188.6_80.4_60466.fadana ! RUN = 60466 ! NEVT = 2000
FILE = /castor/cern.ch/delphi/MCprod/cern/wphact23/v98e/188.6/wphact23_ccsk1_188.6_80.4_60467.fadana ! RUN = 60467 ! NEVT = 2000
FILE = /castor/cern.ch/delphi/MCprod/cern/wphact23/v98e/188.6/wphact23_ccsk1_188.6_80.4_60468.fadana ! RUN = 60468 ! NEVT = 1062
FILE = /castor/cern.ch/delphi/MCprod/cern/wphact23/v98e/188.6/wphact23_ccsk1_188.6_80.4_60469.fadana ! RUN = 60469 ! NEVT = 2000
FILE = /castor/cern.ch/delphi/MCprod/cern/wphact23/v98e/188.6/wphact23_ccsk1_188.6_80.4_60470.fadana ! RUN = 60470 ! NEVT = 2000
FILE = /castor/cern.ch/delphi/MCprod/cern/wphact23/v98e/188.6/wphact23_ccsk1_188.6_80.4_60471.fadana ! RUN = 60471 ! NEVT = 2000
FILE = /castor/cern.ch/delphi/MCprod/cern/wphact23/v98e/188.6/wphact23_ccsk1_188.6_80.4_60472.fadana ! RUN = 60472 ! NEVT = 1999
FILE = /castor/cern.ch/delphi/MCprod/cern/wphact23/v98e/188.6/wphact23_ccsk1_188.6_80.4_60474.fadana ! RUN = 60474 ! NEVT = 1999
FILE = /castor/cern.ch/delphi/MCprod/cern/wphact23/v98e/188.6/wphact23_ccsk1_188.6_80.4_60475.fadana ! RUN = 60475 ! NEVT = 2000
FILE = /castor/cern.ch/delphi/MCprod/cern/wphact23/v98e/188.6/wphact23_ccsk1_188.6_80.4_60476.fadana ! RUN = 60476 ! NEVT = 2000
FILE = /castor/cern.ch/delphi/MCprod/cern/wphact23/v98e/188.6/wphact23_ccsk1_188.6_80.4_60477.fadana ! RUN = 60477 ! NEVT = 1998
FILE = /castor/cern.ch/delphi/MCprod/cern/wphact23/v98e/188.6/wphact23_ccsk1_188.6_80.4_60478.fadana ! RUN = 60478 ! NEVT = 1999
FILE = /castor/cern.ch/delphi/MCprod/cern/wphact23/v98e/188.6/wphact23_ccsk1_188.6_80.4_60479.fadana ! RUN = 60479 ! NEVT = 2000
FILE = /castor/cern.ch/delphi/MCprod/cern/wphact23/v98e/188.6/wphact23_ccsk1_188.6_80.4_60480.fadana ! RUN = 60480 ! NEVT = 1999
FILE = /castor/cern.ch/delphi/MCprod/cern/wphact23/v98e/188.6/wphact23_ccsk1_188.6_80.4_60481.fadana ! RUN = 60481 ! NEVT = 1997
FILE = /castor/cern.ch/delphi/MCprod/cern/wphact23/v98e/188.6/wphact23_ccsk1_188.6_80.4_60482.fadana ! RUN = 60482 ! NEVT = 2000
FILE = /castor/cern.ch/delphi/MCprod/cern/wphact23/v98e/188.6/wphact23_ccsk1_188.6_80.4_60483.fadana ! RUN = 60483 ! NEVT = 1999
FILE = /castor/cern.ch/delphi/MCprod/cern/wphact23/v98e/188.6/wphact23_ccsk1_188.6_80.4_60484.fadana ! RUN = 60484 ! NEVT = 1999
FILE = /castor/cern.ch/delphi/MCprod/cern/wphact23/v98e/188.6/wphact23_ccsk1_188.6_80.4_60485.fadana ! RUN = 60485 ! NEVT = 2000
FILE = /castor/cern.ch/delphi/MCprod/cern/wphact23/v98e/188.6/wphact23_ccsk1_188.6_80.4_60486.fadana ! RUN = 60486 ! NEVT = 1999
FILE = /castor/cern.ch/delphi/MCprod/cern/wphact23/v98e/188.6/wphact23_ccsk1_188.6_80.4_60487.fadana ! RUN = 60487 ! NEVT = 2000
FILE = /castor/cern.ch/delphi/MCprod/cern/wphact23/v98e/188.6/wphact23_ccsk1_188.6_80.4_60488.fadana ! RUN = 60488 ! NEVT = 1998
FILE = /castor/cern.ch/delphi/MCprod/cern/wphact23/v98e/188.6/wphact23_ccsk1_188.6_80.4_60489.fadana ! RUN = 60489 ! NEVT = 2000
FILE = /castor/cern.ch/delphi/MCprod/cern/wphact23/v98e/188.6/wphact23_ccsk1_188.6_80.4_60490.fadana ! RUN = 60490 ! NEVT = 1999
FILE = /castor/cern.ch/delphi/MCprod/cern/wphact23/v98e/188.6/wphact23_ccsk1_188.6_80.4_60492.fadana ! RUN = 60492 ! NEVT = 2000
FILE = /castor/cern.ch/delphi/MCprod/cern/wphact23/v98e/188.6/wphact23_ccsk1_188.6_80.4_60493.fadana ! RUN = 60493 ! NEVT = 1998
FILE = /castor/cern.ch/delphi/MCprod/cern/wphact23/v98e/188.6/wphact23_ccsk1_188.6_80.4_60494.fadana ! RUN = 60494 ! NEVT = 1999
FILE = /castor/cern.ch/delphi/MCprod/cern/wphact23/v98e/188.6/wphact23_ccsk1_188.6_80.4_60495.fadana ! RUN = 60495 ! NEVT = 1999
FILE = /castor/cern.ch/delphi/MCprod/cern/wphact23/v98e/188.6/wphact23_ccsk1_188.6_80.4_60496.fadana ! RUN = 60496 ! NEVT = 1998
FILE = /castor/cern.ch/delphi/MCprod/cern/wphact23/v98e/188.6/wphact23_ccsk1_188.6_80.4_60497.fadana ! RUN = 60497 ! NEVT = 1999
FILE = /castor/cern.ch/delphi/MCprod/cern/wphact23/v98e/188.6/wphact23_ccsk1_188.6_80.4_60498.fadana ! RUN = 60498 ! NEVT = 2000
FILE = /castor/cern.ch/delphi/MCprod/cern/wphact23/v98e/188.6/wphact23_ccsk1_188.6_80.4_60499.fadana ! RUN = 60499 ! NEVT = 1999
FILE = /castor/cern.ch/delphi/MCprod/cern/wphact23/v98e/188.6/wphact23_ccsk1_188.6_80.4_60500.fadana ! RUN = 60500 ! NEVT = 1998
FILE = /castor/cern.ch/delphi/MCprod/cern/wphact23/v98e/188.6/wphact23_ccsk1_188.6_80.4_60501.fadana ! RUN = 60501 ! NEVT = 2000
FILE = /castor/cern.ch/delphi/MCprod/cern/wphact23/v98e/188.6/wphact23_ccsk1_188.6_80.4_60502.fadana ! RUN = 60502 ! NEVT = 1999
FILE = /castor/cern.ch/delphi/MCprod/cern/wphact23/v98e/188.6/wphact23_ccsk1_188.6_80.4_60503.fadana ! RUN = 60503 ! NEVT = 2000
FILE = /castor/cern.ch/delphi/MCprod/cern/wphact23/v98e/188.6/wphact23_ccsk1_188.6_80.4_60504.fadana ! RUN = 60504 ! NEVT = 2000
FILE = /castor/cern.ch/delphi/MCprod/cern/wphact23/v98e/188.6/wphact23_ccsk1_188.6_80.4_60505.fadana ! RUN = 60505 ! NEVT = 2000
FILE = /castor/cern.ch/delphi/MCprod/cern/wphact23/v98e/188.6/wphact23_ccsk1_188.6_80.4_60506.fadana ! RUN = 60506 ! NEVT = 2000
FILE = /castor/cern.ch/delphi/MCprod/cern/wphact23/v98e/188.6/wphact23_ccsk1_188.6_80.4_60507.fadana ! RUN = 60507 ! NEVT = 2000
FILE = /castor/cern.ch/delphi/MCprod/cern/wphact23/v98e/188.6/wphact23_ccsk1_188.6_80.4_60508.fadana ! RUN = 60508 ! NEVT = 1996
FILE = /castor/cern.ch/delphi/MCprod/cern/wphact23/v98e/188.6/wphact23_ccsk1_188.6_80.4_60509.fadana ! RUN = 60509 ! NEVT = 2000
FILE = /castor/cern.ch/delphi/MCprod/cern/wphact23/v98e/188.6/wphact23_ccsk1_188.6_80.4_60510.fadana ! RUN = 60510 ! NEVT = 1998
FILE = /castor/cern.ch/delphi/MCprod/cern/wphact23/v98e/188.6/wphact23_ccsk1_188.6_80.4_60511.fadana ! RUN = 60511 ! NEVT = 1999
FILE = /castor/cern.ch/delphi/MCprod/cern/wphact23/v98e/188.6/wphact23_ccsk1_188.6_80.4_60512.fadana ! RUN = 60512 ! NEVT = 1997
FILE = /castor/cern.ch/delphi/MCprod/cern/wphact23/v98e/188.6/wphact23_ccsk1_188.6_80.4_60513.fadana ! RUN = 60513 ! NEVT = 1998
FILE = /castor/cern.ch/delphi/MCprod/cern/wphact23/v98e/188.6/wphact23_ccsk1_188.6_80.4_60514.fadana ! RUN = 60514 ! NEVT = 1999
FILE = /castor/cern.ch/delphi/MCprod/cern/wphact23/v98e/188.6/wphact23_ccsk1_188.6_80.4_60515.fadana ! RUN = 60515 ! NEVT = 2000
FILE = /castor/cern.ch/delphi/MCprod/cern/wphact23/v98e/188.6/wphact23_ccsk1_188.6_80.4_60516.fadana ! RUN = 60516 ! NEVT = 1999
FILE = /castor/cern.ch/delphi/MCprod/cern/wphact23/v98e/188.6/wphact23_ccsk1_188.6_80.4_60517.fadana ! RUN = 60517 ! NEVT = 1999
FILE = /castor/cern.ch/delphi/MCprod/cern/wphact23/v98e/188.6/wphact23_ccsk1_188.6_80.4_60518.fadana ! RUN = 60518 ! NEVT = 1999
FILE = /castor/cern.ch/delphi/MCprod/cern/wphact23/v98e/188.6/wphact23_ccsk1_188.6_80.4_60519.fadana ! RUN = 60519 ! NEVT = 1999
FILE = /castor/cern.ch/delphi/MCprod/cern/wphact23/v98e/188.6/wphact23_ccsk1_188.6_80.4_60520.fadana ! RUN = 60520 ! NEVT = 1999
FILE = /castor/cern.ch/delphi/MCprod/cern/wphact23/v98e/188.6/wphact23_ccsk1_188.6_80.4_60521.fadana ! RUN = 60521 ! NEVT = 1999
FILE = /castor/cern.ch/delphi/MCprod/cern/wphact23/v98e/188.6/wphact23_ccsk1_188.6_80.4_60522.fadana ! RUN = 60522 ! NEVT = 2000
FILE = /castor/cern.ch/delphi/MCprod/cern/wphact23/v98e/188.6/wphact23_ccsk1_188.6_80.4_60523.fadana ! RUN = 60523 ! NEVT = 1999
FILE = /castor/cern.ch/delphi/MCprod/cern/wphact23/v98e/188.6/wphact23_ccsk1_188.6_80.4_60524.fadana ! RUN = 60524 ! NEVT = 1999
FILE = /castor/cern.ch/delphi/MCprod/cern/wphact23/v98e/188.6/wphact23_ccsk1_188.6_80.4_60525.fadana ! RUN = 60525 ! NEVT = 2000
FILE = /castor/cern.ch/delphi/MCprod/cern/wphact23/v98e/188.6/wphact23_ccsk1_188.6_80.4_60526.fadana ! RUN = 60526 ! NEVT = 2000
FILE = /castor/cern.ch/delphi/MCprod/cern/wphact23/v98e/188.6/wphact23_ccsk1_188.6_80.4_60527.fadana ! RUN = 60527 ! NEVT = 2000
FILE = /castor/cern.ch/delphi/MCprod/cern/wphact23/v98e/188.6/wphact23_ccsk1_188.6_80.4_60528.fadana ! RUN = 60528 ! NEVT = 1998
FILE = /castor/cern.ch/delphi/MCprod/cern/wphact23/v98e/188.6/wphact23_ccsk1_188.6_80.4_60529.fadana ! RUN = 60529 ! NEVT = 2000
FILE = /castor/cern.ch/delphi/MCprod/cern/wphact23/v98e/188.6/wphact23_ccsk1_188.6_80.4_60530.fadana ! RUN = 60530 ! NEVT = 2000
FILE = /castor/cern.ch/delphi/MCprod/cern/wphact23/v98e/188.6/wphact23_ccsk1_188.6_80.4_60531.fadana ! RUN = 60531 ! NEVT = 1999
FILE = /castor/cern.ch/delphi/MCprod/cern/wphact23/v98e/188.6/wphact23_ccsk1_188.6_80.4_60532.fadana ! RUN = 60532 ! NEVT = 2000
FILE = /castor/cern.ch/delphi/MCprod/cern/wphact23/v98e/188.6/wphact23_ccsk1_188.6_80.4_60533.fadana ! RUN = 60533 ! NEVT = 1998
FILE = /castor/cern.ch/delphi/MCprod/cern/wphact23/v98e/188.6/wphact23_ccsk1_188.6_80.4_60534.fadana ! RUN = 60534 ! NEVT = 2000
FILE = /castor/cern.ch/delphi/MCprod/cern/wphact23/v98e/188.6/wphact23_ccsk1_188.6_80.4_60535.fadana ! RUN = 60535 ! NEVT = 1999
FILE = /castor/cern.ch/delphi/MCprod/cern/wphact23/v98e/188.6/wphact23_ccsk1_188.6_80.4_60536.fadana ! RUN = 60536 ! NEVT = 1998
FILE = /castor/cern.ch/delphi/MCprod/cern/wphact23/v98e/188.6/wphact23_ccsk1_188.6_80.4_60537.fadana ! RUN = 60537 ! NEVT = 2000
FILE = /castor/cern.ch/delphi/MCprod/cern/wphact23/v98e/188.6/wphact23_ccsk1_188.6_80.4_60538.fadana ! RUN = 60538 ! NEVT = 1996
FILE = /castor/cern.ch/delphi/MCprod/cern/wphact23/v98e/188.6/wphact23_ccsk1_188.6_80.4_60539.fadana ! RUN = 60539 ! NEVT = 1999
FILE = /castor/cern.ch/delphi/MCprod/cern/wphact23/v98e/188.6/wphact23_ccsk1_188.6_80.4_60540.fadana ! RUN = 60540 ! NEVT = 2000
FILE = /castor/cern.ch/delphi/MCprod/cern/wphact23/v98e/188.6/wphact23_ccsk1_188.6_80.4_60541.fadana ! RUN = 60541 ! NEVT = 2000
FILE = /castor/cern.ch/delphi/MCprod/cern/wphact23/v98e/188.6/wphact23_ccsk1_188.6_80.4_60542.fadana ! RUN = 60542 ! NEVT = 1999
FILE = /castor/cern.ch/delphi/MCprod/cern/wphact23/v98e/188.6/wphact23_ccsk1_188.6_80.4_60543.fadana ! RUN = 60543 ! NEVT = 1999
FILE = /castor/cern.ch/delphi/MCprod/cern/wphact23/v98e/188.6/wphact23_ccsk1_188.6_80.4_60544.fadana ! RUN = 60544 ! NEVT = 1999
FILE = /castor/cern.ch/delphi/MCprod/cern/wphact23/v98e/188.6/wphact23_ccsk1_188.6_80.4_60545.fadana ! RUN = 60545 ! NEVT = 2000
FILE = /castor/cern.ch/delphi/MCprod/cern/wphact23/v98e/188.6/wphact23_ccsk1_188.6_80.4_60546.fadana ! RUN = 60546 ! NEVT = 2000
FILE = /castor/cern.ch/delphi/MCprod/cern/wphact23/v98e/188.6/wphact23_ccsk1_188.6_80.4_60547.fadana ! RUN = 60547 ! NEVT = 1999
FILE = /castor/cern.ch/delphi/MCprod/cern/wphact23/v98e/188.6/wphact23_ccsk1_188.6_80.4_60548.fadana ! RUN = 60548 ! NEVT = 11
FILE = /castor/cern.ch/delphi/MCprod/cern/wphact23/v98e/188.6/wphact23_ccsk1_188.6_80.4_60549.fadana ! RUN = 60549 ! NEVT = 1997
FILE = /castor/cern.ch/delphi/MCprod/cern/wphact23/v98e/188.6/wphact23_ccsk1_188.6_80.4_60550.fadana ! RUN = 60550 ! NEVT = 1999
FILE = /castor/cern.ch/delphi/MCprod/cern/wphact23/v98e/188.6/wphact23_ccsk1_188.6_80.4_60551.fadana ! RUN = 60551 ! NEVT = 2000
FILE = /castor/cern.ch/delphi/MCprod/cern/wphact23/v98e/188.6/wphact23_ccsk1_188.6_80.4_60552.fadana ! RUN = 60552 ! NEVT = 2000
FILE = /castor/cern.ch/delphi/MCprod/cern/wphact23/v98e/188.6/wphact23_ccsk1_188.6_80.4_60553.fadana ! RUN = 60553 ! NEVT = 2000
FILE = /castor/cern.ch/delphi/MCprod/cern/wphact23/v98e/188.6/wphact23_ccsk1_188.6_80.4_60554.fadana ! RUN = 60554 ! NEVT = 1999
FILE = /castor/cern.ch/delphi/MCprod/cern/wphact23/v98e/188.6/wphact23_ccsk1_188.6_80.4_60555.fadana ! RUN = 60555 ! NEVT = 1998
FILE = /castor/cern.ch/delphi/MCprod/cern/wphact23/v98e/188.6/wphact23_ccsk1_188.6_80.4_60556.fadana ! RUN = 60556 ! NEVT = 1052
FILE = /castor/cern.ch/delphi/MCprod/cern/wphact23/v98e/188.6/wphact23_ccsk1_188.6_80.4_60557.fadana ! RUN = 60557 ! NEVT = 2000
FILE = /castor/cern.ch/delphi/MCprod/cern/wphact23/v98e/188.6/wphact23_ccsk1_188.6_80.4_60558.fadana ! RUN = 60558 ! NEVT = 1999
FILE = /castor/cern.ch/delphi/MCprod/cern/wphact23/v98e/188.6/wphact23_ccsk1_188.6_80.4_60559.fadana ! RUN = 60559 ! NEVT = 1999
FILE = /castor/cern.ch/delphi/MCprod/cern/wphact23/v98e/188.6/wphact23_ccsk1_188.6_80.4_60560.fadana ! RUN = 60560 ! NEVT = 1998
FILE = /castor/cern.ch/delphi/MCprod/cern/wphact23/v98e/188.6/wphact23_ccsk1_188.6_80.4_60561.fadana ! RUN = 60561 ! NEVT = 2000
FILE = /castor/cern.ch/delphi/MCprod/cern/wphact23/v98e/188.6/wphact23_ccsk1_188.6_80.4_60562.fadana ! RUN = 60562 ! NEVT = 1999
FILE = /castor/cern.ch/delphi/MCprod/cern/wphact23/v98e/188.6/wphact23_ccsk1_188.6_80.4_60563.fadana ! RUN = 60563 ! NEVT = 1999
FILE = /castor/cern.ch/delphi/MCprod/cern/wphact23/v98e/188.6/wphact23_ccsk1_188.6_80.4_60564.fadana ! RUN = 60564 ! NEVT = 2000
FILE = /castor/cern.ch/delphi/MCprod/cern/wphact23/v98e/188.6/wphact23_ccsk1_188.6_80.4_60565.fadana ! RUN = 60565 ! NEVT = 1998
FILE = /castor/cern.ch/delphi/MCprod/cern/wphact23/v98e/188.6/wphact23_ccsk1_188.6_80.4_60566.fadana ! RUN = 60566 ! NEVT = 1998
FILE = /castor/cern.ch/delphi/MCprod/cern/wphact23/v98e/188.6/wphact23_ccsk1_188.6_80.4_60567.fadana ! RUN = 60567 ! NEVT = 2000
FILE = /castor/cern.ch/delphi/MCprod/cern/wphact23/v98e/188.6/wphact23_ccsk1_188.6_80.4_60568.fadana ! RUN = 60568 ! NEVT = 1999
FILE = /castor/cern.ch/delphi/MCprod/cern/wphact23/v98e/188.6/wphact23_ccsk1_188.6_80.4_60569.fadana ! RUN = 60569 ! NEVT = 2000
FILE = /castor/cern.ch/delphi/MCprod/cern/wphact23/v98e/188.6/wphact23_ccsk1_188.6_80.4_60570.fadana ! RUN = 60570 ! NEVT = 2000
FILE = /castor/cern.ch/delphi/MCprod/cern/wphact23/v98e/188.6/wphact23_ccsk1_188.6_80.4_60571.fadana ! RUN = 60571 ! NEVT = 1999
FILE = /castor/cern.ch/delphi/MCprod/cern/wphact23/v98e/188.6/wphact23_ccsk1_188.6_80.4_60572.fadana ! RUN = 60572 ! NEVT = 2000
FILE = /castor/cern.ch/delphi/MCprod/cern/wphact23/v98e/188.6/wphact23_ccsk1_188.6_80.4_60573.fadana ! RUN = 60573 ! NEVT = 2000
FILE = /castor/cern.ch/delphi/MCprod/cern/wphact23/v98e/188.6/wphact23_ccsk1_188.6_80.4_60574.fadana ! RUN = 60574 ! NEVT = 1999
FILE = /castor/cern.ch/delphi/MCprod/cern/wphact23/v98e/188.6/wphact23_ccsk1_188.6_80.4_60575.fadana ! RUN = 60575 ! NEVT = 1998
FILE = /castor/cern.ch/delphi/MCprod/cern/wphact23/v98e/188.6/wphact23_ccsk1_188.6_80.4_60576.fadana ! RUN = 60576 ! NEVT = 1999
FILE = /castor/cern.ch/delphi/MCprod/cern/wphact23/v98e/188.6/wphact23_ccsk1_188.6_80.4_60577.fadana ! RUN = 60577 ! NEVT = 1998
FILE = /castor/cern.ch/delphi/MCprod/cern/wphact23/v98e/188.6/wphact23_ccsk1_188.6_80.4_60578.fadana ! RUN = 60578 ! NEVT = 2000
FILE = /castor/cern.ch/delphi/MCprod/cern/wphact23/v98e/188.6/wphact23_ccsk1_188.6_80.4_60579.fadana ! RUN = 60579 ! NEVT = 2000
FILE = /castor/cern.ch/delphi/MCprod/cern/wphact23/v98e/188.6/wphact23_ccsk1_188.6_80.4_60580.fadana ! RUN = 60580 ! NEVT = 2000
