*
*   Nickname     : xs_bdkrc02eemm_e188.6_l98_1l_e1
*   Generic Name : //CERN/DELPHI/P02_SIMD/XSDST/BDKRC02EEMM/E188.6/LYON/SUMT/C001-597
*   Description  :  Extended Short DST simulation 98_e1 done at ecms=188.6 , Lyon
*---
*   Comments     : in total 4117526 events in 597 files time stamp: Tue Jan  8 15:30:34 2002
*---
*
*
*
*
*
FILE = /castor/cern.ch/delphi/MCprod/lyon/bdkrc02/v98e/188.6/bdkrc02_eemm_188.6_41001.xsdst ! RUN = 41001 ! NEVT = 7000
FILE = /castor/cern.ch/delphi/MCprod/lyon/bdkrc02/v98e/188.6/bdkrc02_eemm_188.6_41002.xsdst ! RUN = 41002 ! NEVT = 7000
FILE = /castor/cern.ch/delphi/MCprod/lyon/bdkrc02/v98e/188.6/bdkrc02_eemm_188.6_41003.xsdst ! RUN = 41003 ! NEVT = 7000
FILE = /castor/cern.ch/delphi/MCprod/lyon/bdkrc02/v98e/188.6/bdkrc02_eemm_188.6_41004.xsdst ! RUN = 41004 ! NEVT = 7000
FILE = /castor/cern.ch/delphi/MCprod/lyon/bdkrc02/v98e/188.6/bdkrc02_eemm_188.6_41005.xsdst ! RUN = 41005 ! NEVT = 7000
FILE = /castor/cern.ch/delphi/MCprod/lyon/bdkrc02/v98e/188.6/bdkrc02_eemm_188.6_41006.xsdst ! RUN = 41006 ! NEVT = 7000
FILE = /castor/cern.ch/delphi/MCprod/lyon/bdkrc02/v98e/188.6/bdkrc02_eemm_188.6_41007.xsdst ! RUN = 41007 ! NEVT = 7000
FILE = /castor/cern.ch/delphi/MCprod/lyon/bdkrc02/v98e/188.6/bdkrc02_eemm_188.6_41008.xsdst ! RUN = 41008 ! NEVT = 7000
FILE = /castor/cern.ch/delphi/MCprod/lyon/bdkrc02/v98e/188.6/bdkrc02_eemm_188.6_41009.xsdst ! RUN = 41009 ! NEVT = 7000
FILE = /castor/cern.ch/delphi/MCprod/lyon/bdkrc02/v98e/188.6/bdkrc02_eemm_188.6_41010.xsdst ! RUN = 41010 ! NEVT = 7000
FILE = /castor/cern.ch/delphi/MCprod/lyon/bdkrc02/v98e/188.6/bdkrc02_eemm_188.6_41011.xsdst ! RUN = 41011 ! NEVT = 7000
FILE = /castor/cern.ch/delphi/MCprod/lyon/bdkrc02/v98e/188.6/bdkrc02_eemm_188.6_41012.xsdst ! RUN = 41012 ! NEVT = 7000
FILE = /castor/cern.ch/delphi/MCprod/lyon/bdkrc02/v98e/188.6/bdkrc02_eemm_188.6_41013.xsdst ! RUN = 41013 ! NEVT = 7000
FILE = /castor/cern.ch/delphi/MCprod/lyon/bdkrc02/v98e/188.6/bdkrc02_eemm_188.6_41014.xsdst ! RUN = 41014 ! NEVT = 7000
FILE = /castor/cern.ch/delphi/MCprod/lyon/bdkrc02/v98e/188.6/bdkrc02_eemm_188.6_41015.xsdst ! RUN = 41015 ! NEVT = 7000
FILE = /castor/cern.ch/delphi/MCprod/lyon/bdkrc02/v98e/188.6/bdkrc02_eemm_188.6_41016.xsdst ! RUN = 41016 ! NEVT = 7000
FILE = /castor/cern.ch/delphi/MCprod/lyon/bdkrc02/v98e/188.6/bdkrc02_eemm_188.6_41017.xsdst ! RUN = 41017 ! NEVT = 7000
FILE = /castor/cern.ch/delphi/MCprod/lyon/bdkrc02/v98e/188.6/bdkrc02_eemm_188.6_41018.xsdst ! RUN = 41018 ! NEVT = 7000
FILE = /castor/cern.ch/delphi/MCprod/lyon/bdkrc02/v98e/188.6/bdkrc02_eemm_188.6_41019.xsdst ! RUN = 41019 ! NEVT = 7000
FILE = /castor/cern.ch/delphi/MCprod/lyon/bdkrc02/v98e/188.6/bdkrc02_eemm_188.6_41020.xsdst ! RUN = 41020 ! NEVT = 7000
FILE = /castor/cern.ch/delphi/MCprod/lyon/bdkrc02/v98e/188.6/bdkrc02_eemm_188.6_41021.xsdst ! RUN = 41021 ! NEVT = 7000
FILE = /castor/cern.ch/delphi/MCprod/lyon/bdkrc02/v98e/188.6/bdkrc02_eemm_188.6_41022.xsdst ! RUN = 41022 ! NEVT = 2991
FILE = /castor/cern.ch/delphi/MCprod/lyon/bdkrc02/v98e/188.6/bdkrc02_eemm_188.6_41023.xsdst ! RUN = 41023 ! NEVT = 7000
FILE = /castor/cern.ch/delphi/MCprod/lyon/bdkrc02/v98e/188.6/bdkrc02_eemm_188.6_41024.xsdst ! RUN = 41024 ! NEVT = 7000
FILE = /castor/cern.ch/delphi/MCprod/lyon/bdkrc02/v98e/188.6/bdkrc02_eemm_188.6_41025.xsdst ! RUN = 41025 ! NEVT = 7000
FILE = /castor/cern.ch/delphi/MCprod/lyon/bdkrc02/v98e/188.6/bdkrc02_eemm_188.6_41026.xsdst ! RUN = 41026 ! NEVT = 7000
FILE = /castor/cern.ch/delphi/MCprod/lyon/bdkrc02/v98e/188.6/bdkrc02_eemm_188.6_41027.xsdst ! RUN = 41027 ! NEVT = 7000
FILE = /castor/cern.ch/delphi/MCprod/lyon/bdkrc02/v98e/188.6/bdkrc02_eemm_188.6_41028.xsdst ! RUN = 41028 ! NEVT = 7000
FILE = /castor/cern.ch/delphi/MCprod/lyon/bdkrc02/v98e/188.6/bdkrc02_eemm_188.6_41029.xsdst ! RUN = 41029 ! NEVT = 7000
FILE = /castor/cern.ch/delphi/MCprod/lyon/bdkrc02/v98e/188.6/bdkrc02_eemm_188.6_41030.xsdst ! RUN = 41030 ! NEVT = 7000
FILE = /castor/cern.ch/delphi/MCprod/lyon/bdkrc02/v98e/188.6/bdkrc02_eemm_188.6_41031.xsdst ! RUN = 41031 ! NEVT = 7000
FILE = /castor/cern.ch/delphi/MCprod/lyon/bdkrc02/v98e/188.6/bdkrc02_eemm_188.6_41032.xsdst ! RUN = 41032 ! NEVT = 7000
FILE = /castor/cern.ch/delphi/MCprod/lyon/bdkrc02/v98e/188.6/bdkrc02_eemm_188.6_41033.xsdst ! RUN = 41033 ! NEVT = 7000
FILE = /castor/cern.ch/delphi/MCprod/lyon/bdkrc02/v98e/188.6/bdkrc02_eemm_188.6_41034.xsdst ! RUN = 41034 ! NEVT = 7000
FILE = /castor/cern.ch/delphi/MCprod/lyon/bdkrc02/v98e/188.6/bdkrc02_eemm_188.6_41035.xsdst ! RUN = 41035 ! NEVT = 7000
FILE = /castor/cern.ch/delphi/MCprod/lyon/bdkrc02/v98e/188.6/bdkrc02_eemm_188.6_41036.xsdst ! RUN = 41036 ! NEVT = 7000
FILE = /castor/cern.ch/delphi/MCprod/lyon/bdkrc02/v98e/188.6/bdkrc02_eemm_188.6_41037.xsdst ! RUN = 41037 ! NEVT = 6450
FILE = /castor/cern.ch/delphi/MCprod/lyon/bdkrc02/v98e/188.6/bdkrc02_eemm_188.6_41038.xsdst ! RUN = 41038 ! NEVT = 7000
FILE = /castor/cern.ch/delphi/MCprod/lyon/bdkrc02/v98e/188.6/bdkrc02_eemm_188.6_41039.xsdst ! RUN = 41039 ! NEVT = 7000
FILE = /castor/cern.ch/delphi/MCprod/lyon/bdkrc02/v98e/188.6/bdkrc02_eemm_188.6_41040.xsdst ! RUN = 41040 ! NEVT = 7000
FILE = /castor/cern.ch/delphi/MCprod/lyon/bdkrc02/v98e/188.6/bdkrc02_eemm_188.6_41041.xsdst ! RUN = 41041 ! NEVT = 7000
FILE = /castor/cern.ch/delphi/MCprod/lyon/bdkrc02/v98e/188.6/bdkrc02_eemm_188.6_41042.xsdst ! RUN = 41042 ! NEVT = 7000
FILE = /castor/cern.ch/delphi/MCprod/lyon/bdkrc02/v98e/188.6/bdkrc02_eemm_188.6_41043.xsdst ! RUN = 41043 ! NEVT = 7000
FILE = /castor/cern.ch/delphi/MCprod/lyon/bdkrc02/v98e/188.6/bdkrc02_eemm_188.6_41044.xsdst ! RUN = 41044 ! NEVT = 7000
FILE = /castor/cern.ch/delphi/MCprod/lyon/bdkrc02/v98e/188.6/bdkrc02_eemm_188.6_41045.xsdst ! RUN = 41045 ! NEVT = 7000
FILE = /castor/cern.ch/delphi/MCprod/lyon/bdkrc02/v98e/188.6/bdkrc02_eemm_188.6_41046.xsdst ! RUN = 41046 ! NEVT = 7000
FILE = /castor/cern.ch/delphi/MCprod/lyon/bdkrc02/v98e/188.6/bdkrc02_eemm_188.6_41047.xsdst ! RUN = 41047 ! NEVT = 7000
FILE = /castor/cern.ch/delphi/MCprod/lyon/bdkrc02/v98e/188.6/bdkrc02_eemm_188.6_41048.xsdst ! RUN = 41048 ! NEVT = 7000
FILE = /castor/cern.ch/delphi/MCprod/lyon/bdkrc02/v98e/188.6/bdkrc02_eemm_188.6_41049.xsdst ! RUN = 41049 ! NEVT = 7000
FILE = /castor/cern.ch/delphi/MCprod/lyon/bdkrc02/v98e/188.6/bdkrc02_eemm_188.6_41050.xsdst ! RUN = 41050 ! NEVT = 7000
FILE = /castor/cern.ch/delphi/MCprod/lyon/bdkrc02/v98e/188.6/bdkrc02_eemm_188.6_41051.xsdst ! RUN = 41051 ! NEVT = 7000
FILE = /castor/cern.ch/delphi/MCprod/lyon/bdkrc02/v98e/188.6/bdkrc02_eemm_188.6_41052.xsdst ! RUN = 41052 ! NEVT = 7000
FILE = /castor/cern.ch/delphi/MCprod/lyon/bdkrc02/v98e/188.6/bdkrc02_eemm_188.6_41053.xsdst ! RUN = 41053 ! NEVT = 7000
FILE = /castor/cern.ch/delphi/MCprod/lyon/bdkrc02/v98e/188.6/bdkrc02_eemm_188.6_41054.xsdst ! RUN = 41054 ! NEVT = 7000
FILE = /castor/cern.ch/delphi/MCprod/lyon/bdkrc02/v98e/188.6/bdkrc02_eemm_188.6_41055.xsdst ! RUN = 41055 ! NEVT = 7000
FILE = /castor/cern.ch/delphi/MCprod/lyon/bdkrc02/v98e/188.6/bdkrc02_eemm_188.6_41056.xsdst ! RUN = 41056 ! NEVT = 7000
FILE = /castor/cern.ch/delphi/MCprod/lyon/bdkrc02/v98e/188.6/bdkrc02_eemm_188.6_41057.xsdst ! RUN = 41057 ! NEVT = 7000
FILE = /castor/cern.ch/delphi/MCprod/lyon/bdkrc02/v98e/188.6/bdkrc02_eemm_188.6_41058.xsdst ! RUN = 41058 ! NEVT = 7000
FILE = /castor/cern.ch/delphi/MCprod/lyon/bdkrc02/v98e/188.6/bdkrc02_eemm_188.6_41059.xsdst ! RUN = 41059 ! NEVT = 7000
FILE = /castor/cern.ch/delphi/MCprod/lyon/bdkrc02/v98e/188.6/bdkrc02_eemm_188.6_41060.xsdst ! RUN = 41060 ! NEVT = 7000
FILE = /castor/cern.ch/delphi/MCprod/lyon/bdkrc02/v98e/188.6/bdkrc02_eemm_188.6_41061.xsdst ! RUN = 41061 ! NEVT = 4475
FILE = /castor/cern.ch/delphi/MCprod/lyon/bdkrc02/v98e/188.6/bdkrc02_eemm_188.6_41062.xsdst ! RUN = 41062 ! NEVT = 7000
FILE = /castor/cern.ch/delphi/MCprod/lyon/bdkrc02/v98e/188.6/bdkrc02_eemm_188.6_41063.xsdst ! RUN = 41063 ! NEVT = 7000
FILE = /castor/cern.ch/delphi/MCprod/lyon/bdkrc02/v98e/188.6/bdkrc02_eemm_188.6_41064.xsdst ! RUN = 41064 ! NEVT = 7000
FILE = /castor/cern.ch/delphi/MCprod/lyon/bdkrc02/v98e/188.6/bdkrc02_eemm_188.6_41065.xsdst ! RUN = 41065 ! NEVT = 7000
FILE = /castor/cern.ch/delphi/MCprod/lyon/bdkrc02/v98e/188.6/bdkrc02_eemm_188.6_41066.xsdst ! RUN = 41066 ! NEVT = 7000
FILE = /castor/cern.ch/delphi/MCprod/lyon/bdkrc02/v98e/188.6/bdkrc02_eemm_188.6_41067.xsdst ! RUN = 41067 ! NEVT = 7000
FILE = /castor/cern.ch/delphi/MCprod/lyon/bdkrc02/v98e/188.6/bdkrc02_eemm_188.6_41068.xsdst ! RUN = 41068 ! NEVT = 7000
FILE = /castor/cern.ch/delphi/MCprod/lyon/bdkrc02/v98e/188.6/bdkrc02_eemm_188.6_41069.xsdst ! RUN = 41069 ! NEVT = 7000
FILE = /castor/cern.ch/delphi/MCprod/lyon/bdkrc02/v98e/188.6/bdkrc02_eemm_188.6_41070.xsdst ! RUN = 41070 ! NEVT = 7000
FILE = /castor/cern.ch/delphi/MCprod/lyon/bdkrc02/v98e/188.6/bdkrc02_eemm_188.6_41071.xsdst ! RUN = 41071 ! NEVT = 7000
FILE = /castor/cern.ch/delphi/MCprod/lyon/bdkrc02/v98e/188.6/bdkrc02_eemm_188.6_41072.xsdst ! RUN = 41072 ! NEVT = 7000
FILE = /castor/cern.ch/delphi/MCprod/lyon/bdkrc02/v98e/188.6/bdkrc02_eemm_188.6_41073.xsdst ! RUN = 41073 ! NEVT = 7000
FILE = /castor/cern.ch/delphi/MCprod/lyon/bdkrc02/v98e/188.6/bdkrc02_eemm_188.6_41074.xsdst ! RUN = 41074 ! NEVT = 7000
FILE = /castor/cern.ch/delphi/MCprod/lyon/bdkrc02/v98e/188.6/bdkrc02_eemm_188.6_41075.xsdst ! RUN = 41075 ! NEVT = 7000
FILE = /castor/cern.ch/delphi/MCprod/lyon/bdkrc02/v98e/188.6/bdkrc02_eemm_188.6_41076.xsdst ! RUN = 41076 ! NEVT = 7000
FILE = /castor/cern.ch/delphi/MCprod/lyon/bdkrc02/v98e/188.6/bdkrc02_eemm_188.6_41077.xsdst ! RUN = 41077 ! NEVT = 7000
FILE = /castor/cern.ch/delphi/MCprod/lyon/bdkrc02/v98e/188.6/bdkrc02_eemm_188.6_41078.xsdst ! RUN = 41078 ! NEVT = 7000
FILE = /castor/cern.ch/delphi/MCprod/lyon/bdkrc02/v98e/188.6/bdkrc02_eemm_188.6_41079.xsdst ! RUN = 41079 ! NEVT = 7000
FILE = /castor/cern.ch/delphi/MCprod/lyon/bdkrc02/v98e/188.6/bdkrc02_eemm_188.6_41080.xsdst ! RUN = 41080 ! NEVT = 7000
FILE = /castor/cern.ch/delphi/MCprod/lyon/bdkrc02/v98e/188.6/bdkrc02_eemm_188.6_41081.xsdst ! RUN = 41081 ! NEVT = 7000
FILE = /castor/cern.ch/delphi/MCprod/lyon/bdkrc02/v98e/188.6/bdkrc02_eemm_188.6_41082.xsdst ! RUN = 41082 ! NEVT = 7000
FILE = /castor/cern.ch/delphi/MCprod/lyon/bdkrc02/v98e/188.6/bdkrc02_eemm_188.6_41083.xsdst ! RUN = 41083 ! NEVT = 7000
FILE = /castor/cern.ch/delphi/MCprod/lyon/bdkrc02/v98e/188.6/bdkrc02_eemm_188.6_41084.xsdst ! RUN = 41084 ! NEVT = 7000
FILE = /castor/cern.ch/delphi/MCprod/lyon/bdkrc02/v98e/188.6/bdkrc02_eemm_188.6_41085.xsdst ! RUN = 41085 ! NEVT = 7000
FILE = /castor/cern.ch/delphi/MCprod/lyon/bdkrc02/v98e/188.6/bdkrc02_eemm_188.6_41086.xsdst ! RUN = 41086 ! NEVT = 7000
FILE = /castor/cern.ch/delphi/MCprod/lyon/bdkrc02/v98e/188.6/bdkrc02_eemm_188.6_41087.xsdst ! RUN = 41087 ! NEVT = 7000
FILE = /castor/cern.ch/delphi/MCprod/lyon/bdkrc02/v98e/188.6/bdkrc02_eemm_188.6_41088.xsdst ! RUN = 41088 ! NEVT = 1393
FILE = /castor/cern.ch/delphi/MCprod/lyon/bdkrc02/v98e/188.6/bdkrc02_eemm_188.6_41089.xsdst ! RUN = 41089 ! NEVT = 7000
FILE = /castor/cern.ch/delphi/MCprod/lyon/bdkrc02/v98e/188.6/bdkrc02_eemm_188.6_41090.xsdst ! RUN = 41090 ! NEVT = 7000
FILE = /castor/cern.ch/delphi/MCprod/lyon/bdkrc02/v98e/188.6/bdkrc02_eemm_188.6_41091.xsdst ! RUN = 41091 ! NEVT = 7000
FILE = /castor/cern.ch/delphi/MCprod/lyon/bdkrc02/v98e/188.6/bdkrc02_eemm_188.6_41092.xsdst ! RUN = 41092 ! NEVT = 7000
FILE = /castor/cern.ch/delphi/MCprod/lyon/bdkrc02/v98e/188.6/bdkrc02_eemm_188.6_41093.xsdst ! RUN = 41093 ! NEVT = 7000
FILE = /castor/cern.ch/delphi/MCprod/lyon/bdkrc02/v98e/188.6/bdkrc02_eemm_188.6_41094.xsdst ! RUN = 41094 ! NEVT = 7000
FILE = /castor/cern.ch/delphi/MCprod/lyon/bdkrc02/v98e/188.6/bdkrc02_eemm_188.6_41095.xsdst ! RUN = 41095 ! NEVT = 7000
FILE = /castor/cern.ch/delphi/MCprod/lyon/bdkrc02/v98e/188.6/bdkrc02_eemm_188.6_41096.xsdst ! RUN = 41096 ! NEVT = 7000
FILE = /castor/cern.ch/delphi/MCprod/lyon/bdkrc02/v98e/188.6/bdkrc02_eemm_188.6_41098.xsdst ! RUN = 41098 ! NEVT = 7000
FILE = /castor/cern.ch/delphi/MCprod/lyon/bdkrc02/v98e/188.6/bdkrc02_eemm_188.6_41099.xsdst ! RUN = 41099 ! NEVT = 7000
FILE = /castor/cern.ch/delphi/MCprod/lyon/bdkrc02/v98e/188.6/bdkrc02_eemm_188.6_41100.xsdst ! RUN = 41100 ! NEVT = 7000
FILE = /castor/cern.ch/delphi/MCprod/lyon/bdkrc02/v98e/188.6/bdkrc02_eemm_188.6_41101.xsdst ! RUN = 41101 ! NEVT = 7000
FILE = /castor/cern.ch/delphi/MCprod/lyon/bdkrc02/v98e/188.6/bdkrc02_eemm_188.6_41102.xsdst ! RUN = 41102 ! NEVT = 7000
FILE = /castor/cern.ch/delphi/MCprod/lyon/bdkrc02/v98e/188.6/bdkrc02_eemm_188.6_41103.xsdst ! RUN = 41103 ! NEVT = 7000
FILE = /castor/cern.ch/delphi/MCprod/lyon/bdkrc02/v98e/188.6/bdkrc02_eemm_188.6_41104.xsdst ! RUN = 41104 ! NEVT = 7000
FILE = /castor/cern.ch/delphi/MCprod/lyon/bdkrc02/v98e/188.6/bdkrc02_eemm_188.6_41105.xsdst ! RUN = 41105 ! NEVT = 7000
FILE = /castor/cern.ch/delphi/MCprod/lyon/bdkrc02/v98e/188.6/bdkrc02_eemm_188.6_41106.xsdst ! RUN = 41106 ! NEVT = 7000
FILE = /castor/cern.ch/delphi/MCprod/lyon/bdkrc02/v98e/188.6/bdkrc02_eemm_188.6_41107.xsdst ! RUN = 41107 ! NEVT = 7000
FILE = /castor/cern.ch/delphi/MCprod/lyon/bdkrc02/v98e/188.6/bdkrc02_eemm_188.6_41108.xsdst ! RUN = 41108 ! NEVT = 7000
FILE = /castor/cern.ch/delphi/MCprod/lyon/bdkrc02/v98e/188.6/bdkrc02_eemm_188.6_41109.xsdst ! RUN = 41109 ! NEVT = 7000
FILE = /castor/cern.ch/delphi/MCprod/lyon/bdkrc02/v98e/188.6/bdkrc02_eemm_188.6_41110.xsdst ! RUN = 41110 ! NEVT = 7000
FILE = /castor/cern.ch/delphi/MCprod/lyon/bdkrc02/v98e/188.6/bdkrc02_eemm_188.6_41111.xsdst ! RUN = 41111 ! NEVT = 7000
FILE = /castor/cern.ch/delphi/MCprod/lyon/bdkrc02/v98e/188.6/bdkrc02_eemm_188.6_41112.xsdst ! RUN = 41112 ! NEVT = 7000
FILE = /castor/cern.ch/delphi/MCprod/lyon/bdkrc02/v98e/188.6/bdkrc02_eemm_188.6_41113.xsdst ! RUN = 41113 ! NEVT = 7000
FILE = /castor/cern.ch/delphi/MCprod/lyon/bdkrc02/v98e/188.6/bdkrc02_eemm_188.6_41114.xsdst ! RUN = 41114 ! NEVT = 7000
FILE = /castor/cern.ch/delphi/MCprod/lyon/bdkrc02/v98e/188.6/bdkrc02_eemm_188.6_41115.xsdst ! RUN = 41115 ! NEVT = 7000
FILE = /castor/cern.ch/delphi/MCprod/lyon/bdkrc02/v98e/188.6/bdkrc02_eemm_188.6_41116.xsdst ! RUN = 41116 ! NEVT = 7000
FILE = /castor/cern.ch/delphi/MCprod/lyon/bdkrc02/v98e/188.6/bdkrc02_eemm_188.6_41117.xsdst ! RUN = 41117 ! NEVT = 7000
FILE = /castor/cern.ch/delphi/MCprod/lyon/bdkrc02/v98e/188.6/bdkrc02_eemm_188.6_41118.xsdst ! RUN = 41118 ! NEVT = 7000
FILE = /castor/cern.ch/delphi/MCprod/lyon/bdkrc02/v98e/188.6/bdkrc02_eemm_188.6_41119.xsdst ! RUN = 41119 ! NEVT = 7000
FILE = /castor/cern.ch/delphi/MCprod/lyon/bdkrc02/v98e/188.6/bdkrc02_eemm_188.6_41120.xsdst ! RUN = 41120 ! NEVT = 7000
FILE = /castor/cern.ch/delphi/MCprod/lyon/bdkrc02/v98e/188.6/bdkrc02_eemm_188.6_41121.xsdst ! RUN = 41121 ! NEVT = 7000
FILE = /castor/cern.ch/delphi/MCprod/lyon/bdkrc02/v98e/188.6/bdkrc02_eemm_188.6_41122.xsdst ! RUN = 41122 ! NEVT = 7000
FILE = /castor/cern.ch/delphi/MCprod/lyon/bdkrc02/v98e/188.6/bdkrc02_eemm_188.6_41123.xsdst ! RUN = 41123 ! NEVT = 7000
FILE = /castor/cern.ch/delphi/MCprod/lyon/bdkrc02/v98e/188.6/bdkrc02_eemm_188.6_41124.xsdst ! RUN = 41124 ! NEVT = 7000
FILE = /castor/cern.ch/delphi/MCprod/lyon/bdkrc02/v98e/188.6/bdkrc02_eemm_188.6_41125.xsdst ! RUN = 41125 ! NEVT = 7000
FILE = /castor/cern.ch/delphi/MCprod/lyon/bdkrc02/v98e/188.6/bdkrc02_eemm_188.6_41126.xsdst ! RUN = 41126 ! NEVT = 7000
FILE = /castor/cern.ch/delphi/MCprod/lyon/bdkrc02/v98e/188.6/bdkrc02_eemm_188.6_41127.xsdst ! RUN = 41127 ! NEVT = 7000
FILE = /castor/cern.ch/delphi/MCprod/lyon/bdkrc02/v98e/188.6/bdkrc02_eemm_188.6_41128.xsdst ! RUN = 41128 ! NEVT = 7000
FILE = /castor/cern.ch/delphi/MCprod/lyon/bdkrc02/v98e/188.6/bdkrc02_eemm_188.6_41129.xsdst ! RUN = 41129 ! NEVT = 7000
FILE = /castor/cern.ch/delphi/MCprod/lyon/bdkrc02/v98e/188.6/bdkrc02_eemm_188.6_41130.xsdst ! RUN = 41130 ! NEVT = 7000
FILE = /castor/cern.ch/delphi/MCprod/lyon/bdkrc02/v98e/188.6/bdkrc02_eemm_188.6_41131.xsdst ! RUN = 41131 ! NEVT = 7000
FILE = /castor/cern.ch/delphi/MCprod/lyon/bdkrc02/v98e/188.6/bdkrc02_eemm_188.6_41132.xsdst ! RUN = 41132 ! NEVT = 7000
FILE = /castor/cern.ch/delphi/MCprod/lyon/bdkrc02/v98e/188.6/bdkrc02_eemm_188.6_41133.xsdst ! RUN = 41133 ! NEVT = 7000
FILE = /castor/cern.ch/delphi/MCprod/lyon/bdkrc02/v98e/188.6/bdkrc02_eemm_188.6_41134.xsdst ! RUN = 41134 ! NEVT = 7000
FILE = /castor/cern.ch/delphi/MCprod/lyon/bdkrc02/v98e/188.6/bdkrc02_eemm_188.6_41135.xsdst ! RUN = 41135 ! NEVT = 7000
FILE = /castor/cern.ch/delphi/MCprod/lyon/bdkrc02/v98e/188.6/bdkrc02_eemm_188.6_41136.xsdst ! RUN = 41136 ! NEVT = 7000
FILE = /castor/cern.ch/delphi/MCprod/lyon/bdkrc02/v98e/188.6/bdkrc02_eemm_188.6_41137.xsdst ! RUN = 41137 ! NEVT = 7000
FILE = /castor/cern.ch/delphi/MCprod/lyon/bdkrc02/v98e/188.6/bdkrc02_eemm_188.6_41138.xsdst ! RUN = 41138 ! NEVT = 7000
FILE = /castor/cern.ch/delphi/MCprod/lyon/bdkrc02/v98e/188.6/bdkrc02_eemm_188.6_41139.xsdst ! RUN = 41139 ! NEVT = 7000
FILE = /castor/cern.ch/delphi/MCprod/lyon/bdkrc02/v98e/188.6/bdkrc02_eemm_188.6_41140.xsdst ! RUN = 41140 ! NEVT = 7000
FILE = /castor/cern.ch/delphi/MCprod/lyon/bdkrc02/v98e/188.6/bdkrc02_eemm_188.6_41141.xsdst ! RUN = 41141 ! NEVT = 7000
FILE = /castor/cern.ch/delphi/MCprod/lyon/bdkrc02/v98e/188.6/bdkrc02_eemm_188.6_41142.xsdst ! RUN = 41142 ! NEVT = 7000
FILE = /castor/cern.ch/delphi/MCprod/lyon/bdkrc02/v98e/188.6/bdkrc02_eemm_188.6_41143.xsdst ! RUN = 41143 ! NEVT = 7000
FILE = /castor/cern.ch/delphi/MCprod/lyon/bdkrc02/v98e/188.6/bdkrc02_eemm_188.6_41144.xsdst ! RUN = 41144 ! NEVT = 18
FILE = /castor/cern.ch/delphi/MCprod/lyon/bdkrc02/v98e/188.6/bdkrc02_eemm_188.6_41145.xsdst ! RUN = 41145 ! NEVT = 7000
FILE = /castor/cern.ch/delphi/MCprod/lyon/bdkrc02/v98e/188.6/bdkrc02_eemm_188.6_41146.xsdst ! RUN = 41146 ! NEVT = 7000
FILE = /castor/cern.ch/delphi/MCprod/lyon/bdkrc02/v98e/188.6/bdkrc02_eemm_188.6_41147.xsdst ! RUN = 41147 ! NEVT = 3666
FILE = /castor/cern.ch/delphi/MCprod/lyon/bdkrc02/v98e/188.6/bdkrc02_eemm_188.6_41148.xsdst ! RUN = 41148 ! NEVT = 7000
FILE = /castor/cern.ch/delphi/MCprod/lyon/bdkrc02/v98e/188.6/bdkrc02_eemm_188.6_41149.xsdst ! RUN = 41149 ! NEVT = 7000
FILE = /castor/cern.ch/delphi/MCprod/lyon/bdkrc02/v98e/188.6/bdkrc02_eemm_188.6_41150.xsdst ! RUN = 41150 ! NEVT = 7000
FILE = /castor/cern.ch/delphi/MCprod/lyon/bdkrc02/v98e/188.6/bdkrc02_eemm_188.6_41151.xsdst ! RUN = 41151 ! NEVT = 7000
FILE = /castor/cern.ch/delphi/MCprod/lyon/bdkrc02/v98e/188.6/bdkrc02_eemm_188.6_41152.xsdst ! RUN = 41152 ! NEVT = 7000
FILE = /castor/cern.ch/delphi/MCprod/lyon/bdkrc02/v98e/188.6/bdkrc02_eemm_188.6_41153.xsdst ! RUN = 41153 ! NEVT = 7000
FILE = /castor/cern.ch/delphi/MCprod/lyon/bdkrc02/v98e/188.6/bdkrc02_eemm_188.6_41154.xsdst ! RUN = 41154 ! NEVT = 7000
FILE = /castor/cern.ch/delphi/MCprod/lyon/bdkrc02/v98e/188.6/bdkrc02_eemm_188.6_41155.xsdst ! RUN = 41155 ! NEVT = 7000
FILE = /castor/cern.ch/delphi/MCprod/lyon/bdkrc02/v98e/188.6/bdkrc02_eemm_188.6_41156.xsdst ! RUN = 41156 ! NEVT = 7000
FILE = /castor/cern.ch/delphi/MCprod/lyon/bdkrc02/v98e/188.6/bdkrc02_eemm_188.6_41157.xsdst ! RUN = 41157 ! NEVT = 7000
FILE = /castor/cern.ch/delphi/MCprod/lyon/bdkrc02/v98e/188.6/bdkrc02_eemm_188.6_41158.xsdst ! RUN = 41158 ! NEVT = 7000
FILE = /castor/cern.ch/delphi/MCprod/lyon/bdkrc02/v98e/188.6/bdkrc02_eemm_188.6_41159.xsdst ! RUN = 41159 ! NEVT = 7000
FILE = /castor/cern.ch/delphi/MCprod/lyon/bdkrc02/v98e/188.6/bdkrc02_eemm_188.6_41160.xsdst ! RUN = 41160 ! NEVT = 7000
FILE = /castor/cern.ch/delphi/MCprod/lyon/bdkrc02/v98e/188.6/bdkrc02_eemm_188.6_41161.xsdst ! RUN = 41161 ! NEVT = 7000
FILE = /castor/cern.ch/delphi/MCprod/lyon/bdkrc02/v98e/188.6/bdkrc02_eemm_188.6_41162.xsdst ! RUN = 41162 ! NEVT = 7000
FILE = /castor/cern.ch/delphi/MCprod/lyon/bdkrc02/v98e/188.6/bdkrc02_eemm_188.6_41163.xsdst ! RUN = 41163 ! NEVT = 7000
FILE = /castor/cern.ch/delphi/MCprod/lyon/bdkrc02/v98e/188.6/bdkrc02_eemm_188.6_41164.xsdst ! RUN = 41164 ! NEVT = 7000
FILE = /castor/cern.ch/delphi/MCprod/lyon/bdkrc02/v98e/188.6/bdkrc02_eemm_188.6_41165.xsdst ! RUN = 41165 ! NEVT = 7000
FILE = /castor/cern.ch/delphi/MCprod/lyon/bdkrc02/v98e/188.6/bdkrc02_eemm_188.6_41166.xsdst ! RUN = 41166 ! NEVT = 7000
FILE = /castor/cern.ch/delphi/MCprod/lyon/bdkrc02/v98e/188.6/bdkrc02_eemm_188.6_41167.xsdst ! RUN = 41167 ! NEVT = 7000
FILE = /castor/cern.ch/delphi/MCprod/lyon/bdkrc02/v98e/188.6/bdkrc02_eemm_188.6_41168.xsdst ! RUN = 41168 ! NEVT = 7000
FILE = /castor/cern.ch/delphi/MCprod/lyon/bdkrc02/v98e/188.6/bdkrc02_eemm_188.6_41169.xsdst ! RUN = 41169 ! NEVT = 7000
FILE = /castor/cern.ch/delphi/MCprod/lyon/bdkrc02/v98e/188.6/bdkrc02_eemm_188.6_41170.xsdst ! RUN = 41170 ! NEVT = 7000
FILE = /castor/cern.ch/delphi/MCprod/lyon/bdkrc02/v98e/188.6/bdkrc02_eemm_188.6_41171.xsdst ! RUN = 41171 ! NEVT = 7000
FILE = /castor/cern.ch/delphi/MCprod/lyon/bdkrc02/v98e/188.6/bdkrc02_eemm_188.6_41172.xsdst ! RUN = 41172 ! NEVT = 7000
FILE = /castor/cern.ch/delphi/MCprod/lyon/bdkrc02/v98e/188.6/bdkrc02_eemm_188.6_41173.xsdst ! RUN = 41173 ! NEVT = 7000
FILE = /castor/cern.ch/delphi/MCprod/lyon/bdkrc02/v98e/188.6/bdkrc02_eemm_188.6_41174.xsdst ! RUN = 41174 ! NEVT = 7000
FILE = /castor/cern.ch/delphi/MCprod/lyon/bdkrc02/v98e/188.6/bdkrc02_eemm_188.6_41175.xsdst ! RUN = 41175 ! NEVT = 7000
FILE = /castor/cern.ch/delphi/MCprod/lyon/bdkrc02/v98e/188.6/bdkrc02_eemm_188.6_41176.xsdst ! RUN = 41176 ! NEVT = 7000
FILE = /castor/cern.ch/delphi/MCprod/lyon/bdkrc02/v98e/188.6/bdkrc02_eemm_188.6_41177.xsdst ! RUN = 41177 ! NEVT = 7000
FILE = /castor/cern.ch/delphi/MCprod/lyon/bdkrc02/v98e/188.6/bdkrc02_eemm_188.6_41178.xsdst ! RUN = 41178 ! NEVT = 7000
FILE = /castor/cern.ch/delphi/MCprod/lyon/bdkrc02/v98e/188.6/bdkrc02_eemm_188.6_41179.xsdst ! RUN = 41179 ! NEVT = 7000
FILE = /castor/cern.ch/delphi/MCprod/lyon/bdkrc02/v98e/188.6/bdkrc02_eemm_188.6_41180.xsdst ! RUN = 41180 ! NEVT = 7000
FILE = /castor/cern.ch/delphi/MCprod/lyon/bdkrc02/v98e/188.6/bdkrc02_eemm_188.6_41181.xsdst ! RUN = 41181 ! NEVT = 7000
FILE = /castor/cern.ch/delphi/MCprod/lyon/bdkrc02/v98e/188.6/bdkrc02_eemm_188.6_41182.xsdst ! RUN = 41182 ! NEVT = 7000
FILE = /castor/cern.ch/delphi/MCprod/lyon/bdkrc02/v98e/188.6/bdkrc02_eemm_188.6_41183.xsdst ! RUN = 41183 ! NEVT = 7000
FILE = /castor/cern.ch/delphi/MCprod/lyon/bdkrc02/v98e/188.6/bdkrc02_eemm_188.6_41184.xsdst ! RUN = 41184 ! NEVT = 7000
FILE = /castor/cern.ch/delphi/MCprod/lyon/bdkrc02/v98e/188.6/bdkrc02_eemm_188.6_41185.xsdst ! RUN = 41185 ! NEVT = 7000
FILE = /castor/cern.ch/delphi/MCprod/lyon/bdkrc02/v98e/188.6/bdkrc02_eemm_188.6_41186.xsdst ! RUN = 41186 ! NEVT = 7000
FILE = /castor/cern.ch/delphi/MCprod/lyon/bdkrc02/v98e/188.6/bdkrc02_eemm_188.6_41187.xsdst ! RUN = 41187 ! NEVT = 7000
FILE = /castor/cern.ch/delphi/MCprod/lyon/bdkrc02/v98e/188.6/bdkrc02_eemm_188.6_41188.xsdst ! RUN = 41188 ! NEVT = 7000
FILE = /castor/cern.ch/delphi/MCprod/lyon/bdkrc02/v98e/188.6/bdkrc02_eemm_188.6_41189.xsdst ! RUN = 41189 ! NEVT = 7000
FILE = /castor/cern.ch/delphi/MCprod/lyon/bdkrc02/v98e/188.6/bdkrc02_eemm_188.6_41190.xsdst ! RUN = 41190 ! NEVT = 7000
FILE = /castor/cern.ch/delphi/MCprod/lyon/bdkrc02/v98e/188.6/bdkrc02_eemm_188.6_41191.xsdst ! RUN = 41191 ! NEVT = 7000
FILE = /castor/cern.ch/delphi/MCprod/lyon/bdkrc02/v98e/188.6/bdkrc02_eemm_188.6_41192.xsdst ! RUN = 41192 ! NEVT = 7000
FILE = /castor/cern.ch/delphi/MCprod/lyon/bdkrc02/v98e/188.6/bdkrc02_eemm_188.6_41193.xsdst ! RUN = 41193 ! NEVT = 7000
FILE = /castor/cern.ch/delphi/MCprod/lyon/bdkrc02/v98e/188.6/bdkrc02_eemm_188.6_41194.xsdst ! RUN = 41194 ! NEVT = 7000
FILE = /castor/cern.ch/delphi/MCprod/lyon/bdkrc02/v98e/188.6/bdkrc02_eemm_188.6_41195.xsdst ! RUN = 41195 ! NEVT = 7000
FILE = /castor/cern.ch/delphi/MCprod/lyon/bdkrc02/v98e/188.6/bdkrc02_eemm_188.6_41196.xsdst ! RUN = 41196 ! NEVT = 7000
FILE = /castor/cern.ch/delphi/MCprod/lyon/bdkrc02/v98e/188.6/bdkrc02_eemm_188.6_41197.xsdst ! RUN = 41197 ! NEVT = 7000
FILE = /castor/cern.ch/delphi/MCprod/lyon/bdkrc02/v98e/188.6/bdkrc02_eemm_188.6_41198.xsdst ! RUN = 41198 ! NEVT = 7000
FILE = /castor/cern.ch/delphi/MCprod/lyon/bdkrc02/v98e/188.6/bdkrc02_eemm_188.6_41199.xsdst ! RUN = 41199 ! NEVT = 7000
FILE = /castor/cern.ch/delphi/MCprod/lyon/bdkrc02/v98e/188.6/bdkrc02_eemm_188.6_41200.xsdst ! RUN = 41200 ! NEVT = 7000
FILE = /castor/cern.ch/delphi/MCprod/lyon/bdkrc02/v98e/188.6/bdkrc02_eemm_188.6_41201.xsdst ! RUN = 41201 ! NEVT = 7000
FILE = /castor/cern.ch/delphi/MCprod/lyon/bdkrc02/v98e/188.6/bdkrc02_eemm_188.6_41202.xsdst ! RUN = 41202 ! NEVT = 7000
FILE = /castor/cern.ch/delphi/MCprod/lyon/bdkrc02/v98e/188.6/bdkrc02_eemm_188.6_41203.xsdst ! RUN = 41203 ! NEVT = 7000
FILE = /castor/cern.ch/delphi/MCprod/lyon/bdkrc02/v98e/188.6/bdkrc02_eemm_188.6_41204.xsdst ! RUN = 41204 ! NEVT = 7000
FILE = /castor/cern.ch/delphi/MCprod/lyon/bdkrc02/v98e/188.6/bdkrc02_eemm_188.6_41205.xsdst ! RUN = 41205 ! NEVT = 7000
FILE = /castor/cern.ch/delphi/MCprod/lyon/bdkrc02/v98e/188.6/bdkrc02_eemm_188.6_41206.xsdst ! RUN = 41206 ! NEVT = 7000
FILE = /castor/cern.ch/delphi/MCprod/lyon/bdkrc02/v98e/188.6/bdkrc02_eemm_188.6_41207.xsdst ! RUN = 41207 ! NEVT = 7000
FILE = /castor/cern.ch/delphi/MCprod/lyon/bdkrc02/v98e/188.6/bdkrc02_eemm_188.6_41208.xsdst ! RUN = 41208 ! NEVT = 7000
FILE = /castor/cern.ch/delphi/MCprod/lyon/bdkrc02/v98e/188.6/bdkrc02_eemm_188.6_41209.xsdst ! RUN = 41209 ! NEVT = 7000
FILE = /castor/cern.ch/delphi/MCprod/lyon/bdkrc02/v98e/188.6/bdkrc02_eemm_188.6_41210.xsdst ! RUN = 41210 ! NEVT = 7000
FILE = /castor/cern.ch/delphi/MCprod/lyon/bdkrc02/v98e/188.6/bdkrc02_eemm_188.6_41211.xsdst ! RUN = 41211 ! NEVT = 7000
FILE = /castor/cern.ch/delphi/MCprod/lyon/bdkrc02/v98e/188.6/bdkrc02_eemm_188.6_41212.xsdst ! RUN = 41212 ! NEVT = 7000
FILE = /castor/cern.ch/delphi/MCprod/lyon/bdkrc02/v98e/188.6/bdkrc02_eemm_188.6_41213.xsdst ! RUN = 41213 ! NEVT = 7000
FILE = /castor/cern.ch/delphi/MCprod/lyon/bdkrc02/v98e/188.6/bdkrc02_eemm_188.6_41214.xsdst ! RUN = 41214 ! NEVT = 7000
FILE = /castor/cern.ch/delphi/MCprod/lyon/bdkrc02/v98e/188.6/bdkrc02_eemm_188.6_41215.xsdst ! RUN = 41215 ! NEVT = 7000
FILE = /castor/cern.ch/delphi/MCprod/lyon/bdkrc02/v98e/188.6/bdkrc02_eemm_188.6_41216.xsdst ! RUN = 41216 ! NEVT = 7000
FILE = /castor/cern.ch/delphi/MCprod/lyon/bdkrc02/v98e/188.6/bdkrc02_eemm_188.6_41217.xsdst ! RUN = 41217 ! NEVT = 7000
FILE = /castor/cern.ch/delphi/MCprod/lyon/bdkrc02/v98e/188.6/bdkrc02_eemm_188.6_41218.xsdst ! RUN = 41218 ! NEVT = 7000
FILE = /castor/cern.ch/delphi/MCprod/lyon/bdkrc02/v98e/188.6/bdkrc02_eemm_188.6_41219.xsdst ! RUN = 41219 ! NEVT = 7000
FILE = /castor/cern.ch/delphi/MCprod/lyon/bdkrc02/v98e/188.6/bdkrc02_eemm_188.6_41220.xsdst ! RUN = 41220 ! NEVT = 7000
FILE = /castor/cern.ch/delphi/MCprod/lyon/bdkrc02/v98e/188.6/bdkrc02_eemm_188.6_41221.xsdst ! RUN = 41221 ! NEVT = 839
FILE = /castor/cern.ch/delphi/MCprod/lyon/bdkrc02/v98e/188.6/bdkrc02_eemm_188.6_41222.xsdst ! RUN = 41222 ! NEVT = 7000
FILE = /castor/cern.ch/delphi/MCprod/lyon/bdkrc02/v98e/188.6/bdkrc02_eemm_188.6_41223.xsdst ! RUN = 41223 ! NEVT = 7000
FILE = /castor/cern.ch/delphi/MCprod/lyon/bdkrc02/v98e/188.6/bdkrc02_eemm_188.6_41224.xsdst ! RUN = 41224 ! NEVT = 7000
FILE = /castor/cern.ch/delphi/MCprod/lyon/bdkrc02/v98e/188.6/bdkrc02_eemm_188.6_41225.xsdst ! RUN = 41225 ! NEVT = 7000
FILE = /castor/cern.ch/delphi/MCprod/lyon/bdkrc02/v98e/188.6/bdkrc02_eemm_188.6_41226.xsdst ! RUN = 41226 ! NEVT = 7000
FILE = /castor/cern.ch/delphi/MCprod/lyon/bdkrc02/v98e/188.6/bdkrc02_eemm_188.6_41227.xsdst ! RUN = 41227 ! NEVT = 7000
FILE = /castor/cern.ch/delphi/MCprod/lyon/bdkrc02/v98e/188.6/bdkrc02_eemm_188.6_41228.xsdst ! RUN = 41228 ! NEVT = 7000
FILE = /castor/cern.ch/delphi/MCprod/lyon/bdkrc02/v98e/188.6/bdkrc02_eemm_188.6_41229.xsdst ! RUN = 41229 ! NEVT = 7000
FILE = /castor/cern.ch/delphi/MCprod/lyon/bdkrc02/v98e/188.6/bdkrc02_eemm_188.6_41230.xsdst ! RUN = 41230 ! NEVT = 7000
FILE = /castor/cern.ch/delphi/MCprod/lyon/bdkrc02/v98e/188.6/bdkrc02_eemm_188.6_41231.xsdst ! RUN = 41231 ! NEVT = 7000
FILE = /castor/cern.ch/delphi/MCprod/lyon/bdkrc02/v98e/188.6/bdkrc02_eemm_188.6_41232.xsdst ! RUN = 41232 ! NEVT = 7000
FILE = /castor/cern.ch/delphi/MCprod/lyon/bdkrc02/v98e/188.6/bdkrc02_eemm_188.6_41233.xsdst ! RUN = 41233 ! NEVT = 7000
FILE = /castor/cern.ch/delphi/MCprod/lyon/bdkrc02/v98e/188.6/bdkrc02_eemm_188.6_41234.xsdst ! RUN = 41234 ! NEVT = 7000
FILE = /castor/cern.ch/delphi/MCprod/lyon/bdkrc02/v98e/188.6/bdkrc02_eemm_188.6_41235.xsdst ! RUN = 41235 ! NEVT = 7000
FILE = /castor/cern.ch/delphi/MCprod/lyon/bdkrc02/v98e/188.6/bdkrc02_eemm_188.6_41236.xsdst ! RUN = 41236 ! NEVT = 7000
FILE = /castor/cern.ch/delphi/MCprod/lyon/bdkrc02/v98e/188.6/bdkrc02_eemm_188.6_41237.xsdst ! RUN = 41237 ! NEVT = 7000
FILE = /castor/cern.ch/delphi/MCprod/lyon/bdkrc02/v98e/188.6/bdkrc02_eemm_188.6_41238.xsdst ! RUN = 41238 ! NEVT = 2819
FILE = /castor/cern.ch/delphi/MCprod/lyon/bdkrc02/v98e/188.6/bdkrc02_eemm_188.6_41239.xsdst ! RUN = 41239 ! NEVT = 7000
FILE = /castor/cern.ch/delphi/MCprod/lyon/bdkrc02/v98e/188.6/bdkrc02_eemm_188.6_41240.xsdst ! RUN = 41240 ! NEVT = 7000
FILE = /castor/cern.ch/delphi/MCprod/lyon/bdkrc02/v98e/188.6/bdkrc02_eemm_188.6_41241.xsdst ! RUN = 41241 ! NEVT = 7000
FILE = /castor/cern.ch/delphi/MCprod/lyon/bdkrc02/v98e/188.6/bdkrc02_eemm_188.6_41242.xsdst ! RUN = 41242 ! NEVT = 7000
FILE = /castor/cern.ch/delphi/MCprod/lyon/bdkrc02/v98e/188.6/bdkrc02_eemm_188.6_41243.xsdst ! RUN = 41243 ! NEVT = 7000
FILE = /castor/cern.ch/delphi/MCprod/lyon/bdkrc02/v98e/188.6/bdkrc02_eemm_188.6_41244.xsdst ! RUN = 41244 ! NEVT = 7000
FILE = /castor/cern.ch/delphi/MCprod/lyon/bdkrc02/v98e/188.6/bdkrc02_eemm_188.6_41245.xsdst ! RUN = 41245 ! NEVT = 7000
FILE = /castor/cern.ch/delphi/MCprod/lyon/bdkrc02/v98e/188.6/bdkrc02_eemm_188.6_41246.xsdst ! RUN = 41246 ! NEVT = 7000
FILE = /castor/cern.ch/delphi/MCprod/lyon/bdkrc02/v98e/188.6/bdkrc02_eemm_188.6_41247.xsdst ! RUN = 41247 ! NEVT = 7000
FILE = /castor/cern.ch/delphi/MCprod/lyon/bdkrc02/v98e/188.6/bdkrc02_eemm_188.6_41248.xsdst ! RUN = 41248 ! NEVT = 7000
FILE = /castor/cern.ch/delphi/MCprod/lyon/bdkrc02/v98e/188.6/bdkrc02_eemm_188.6_41249.xsdst ! RUN = 41249 ! NEVT = 7000
FILE = /castor/cern.ch/delphi/MCprod/lyon/bdkrc02/v98e/188.6/bdkrc02_eemm_188.6_41250.xsdst ! RUN = 41250 ! NEVT = 7000
FILE = /castor/cern.ch/delphi/MCprod/lyon/bdkrc02/v98e/188.6/bdkrc02_eemm_188.6_41251.xsdst ! RUN = 41251 ! NEVT = 7000
FILE = /castor/cern.ch/delphi/MCprod/lyon/bdkrc02/v98e/188.6/bdkrc02_eemm_188.6_41252.xsdst ! RUN = 41252 ! NEVT = 7000
FILE = /castor/cern.ch/delphi/MCprod/lyon/bdkrc02/v98e/188.6/bdkrc02_eemm_188.6_41253.xsdst ! RUN = 41253 ! NEVT = 7000
FILE = /castor/cern.ch/delphi/MCprod/lyon/bdkrc02/v98e/188.6/bdkrc02_eemm_188.6_41254.xsdst ! RUN = 41254 ! NEVT = 7000
FILE = /castor/cern.ch/delphi/MCprod/lyon/bdkrc02/v98e/188.6/bdkrc02_eemm_188.6_41255.xsdst ! RUN = 41255 ! NEVT = 7000
FILE = /castor/cern.ch/delphi/MCprod/lyon/bdkrc02/v98e/188.6/bdkrc02_eemm_188.6_41256.xsdst ! RUN = 41256 ! NEVT = 7000
FILE = /castor/cern.ch/delphi/MCprod/lyon/bdkrc02/v98e/188.6/bdkrc02_eemm_188.6_41257.xsdst ! RUN = 41257 ! NEVT = 7000
FILE = /castor/cern.ch/delphi/MCprod/lyon/bdkrc02/v98e/188.6/bdkrc02_eemm_188.6_41258.xsdst ! RUN = 41258 ! NEVT = 7000
FILE = /castor/cern.ch/delphi/MCprod/lyon/bdkrc02/v98e/188.6/bdkrc02_eemm_188.6_41259.xsdst ! RUN = 41259 ! NEVT = 7000
FILE = /castor/cern.ch/delphi/MCprod/lyon/bdkrc02/v98e/188.6/bdkrc02_eemm_188.6_41260.xsdst ! RUN = 41260 ! NEVT = 7000
FILE = /castor/cern.ch/delphi/MCprod/lyon/bdkrc02/v98e/188.6/bdkrc02_eemm_188.6_41261.xsdst ! RUN = 41261 ! NEVT = 7000
FILE = /castor/cern.ch/delphi/MCprod/lyon/bdkrc02/v98e/188.6/bdkrc02_eemm_188.6_41262.xsdst ! RUN = 41262 ! NEVT = 7000
FILE = /castor/cern.ch/delphi/MCprod/lyon/bdkrc02/v98e/188.6/bdkrc02_eemm_188.6_41263.xsdst ! RUN = 41263 ! NEVT = 7000
FILE = /castor/cern.ch/delphi/MCprod/lyon/bdkrc02/v98e/188.6/bdkrc02_eemm_188.6_41264.xsdst ! RUN = 41264 ! NEVT = 7000
FILE = /castor/cern.ch/delphi/MCprod/lyon/bdkrc02/v98e/188.6/bdkrc02_eemm_188.6_41265.xsdst ! RUN = 41265 ! NEVT = 7000
FILE = /castor/cern.ch/delphi/MCprod/lyon/bdkrc02/v98e/188.6/bdkrc02_eemm_188.6_41266.xsdst ! RUN = 41266 ! NEVT = 7000
FILE = /castor/cern.ch/delphi/MCprod/lyon/bdkrc02/v98e/188.6/bdkrc02_eemm_188.6_41267.xsdst ! RUN = 41267 ! NEVT = 7000
FILE = /castor/cern.ch/delphi/MCprod/lyon/bdkrc02/v98e/188.6/bdkrc02_eemm_188.6_41268.xsdst ! RUN = 41268 ! NEVT = 7000
FILE = /castor/cern.ch/delphi/MCprod/lyon/bdkrc02/v98e/188.6/bdkrc02_eemm_188.6_41269.xsdst ! RUN = 41269 ! NEVT = 7000
FILE = /castor/cern.ch/delphi/MCprod/lyon/bdkrc02/v98e/188.6/bdkrc02_eemm_188.6_41270.xsdst ! RUN = 41270 ! NEVT = 7000
FILE = /castor/cern.ch/delphi/MCprod/lyon/bdkrc02/v98e/188.6/bdkrc02_eemm_188.6_41271.xsdst ! RUN = 41271 ! NEVT = 7000
FILE = /castor/cern.ch/delphi/MCprod/lyon/bdkrc02/v98e/188.6/bdkrc02_eemm_188.6_41272.xsdst ! RUN = 41272 ! NEVT = 7000
FILE = /castor/cern.ch/delphi/MCprod/lyon/bdkrc02/v98e/188.6/bdkrc02_eemm_188.6_41273.xsdst ! RUN = 41273 ! NEVT = 7000
FILE = /castor/cern.ch/delphi/MCprod/lyon/bdkrc02/v98e/188.6/bdkrc02_eemm_188.6_41274.xsdst ! RUN = 41274 ! NEVT = 7000
FILE = /castor/cern.ch/delphi/MCprod/lyon/bdkrc02/v98e/188.6/bdkrc02_eemm_188.6_41275.xsdst ! RUN = 41275 ! NEVT = 2517
FILE = /castor/cern.ch/delphi/MCprod/lyon/bdkrc02/v98e/188.6/bdkrc02_eemm_188.6_41276.xsdst ! RUN = 41276 ! NEVT = 7000
FILE = /castor/cern.ch/delphi/MCprod/lyon/bdkrc02/v98e/188.6/bdkrc02_eemm_188.6_41277.xsdst ! RUN = 41277 ! NEVT = 7000
FILE = /castor/cern.ch/delphi/MCprod/lyon/bdkrc02/v98e/188.6/bdkrc02_eemm_188.6_41278.xsdst ! RUN = 41278 ! NEVT = 7000
FILE = /castor/cern.ch/delphi/MCprod/lyon/bdkrc02/v98e/188.6/bdkrc02_eemm_188.6_41279.xsdst ! RUN = 41279 ! NEVT = 7000
FILE = /castor/cern.ch/delphi/MCprod/lyon/bdkrc02/v98e/188.6/bdkrc02_eemm_188.6_41280.xsdst ! RUN = 41280 ! NEVT = 7000
FILE = /castor/cern.ch/delphi/MCprod/lyon/bdkrc02/v98e/188.6/bdkrc02_eemm_188.6_41281.xsdst ! RUN = 41281 ! NEVT = 7000
FILE = /castor/cern.ch/delphi/MCprod/lyon/bdkrc02/v98e/188.6/bdkrc02_eemm_188.6_41282.xsdst ! RUN = 41282 ! NEVT = 7000
FILE = /castor/cern.ch/delphi/MCprod/lyon/bdkrc02/v98e/188.6/bdkrc02_eemm_188.6_41283.xsdst ! RUN = 41283 ! NEVT = 7000
FILE = /castor/cern.ch/delphi/MCprod/lyon/bdkrc02/v98e/188.6/bdkrc02_eemm_188.6_41284.xsdst ! RUN = 41284 ! NEVT = 7000
FILE = /castor/cern.ch/delphi/MCprod/lyon/bdkrc02/v98e/188.6/bdkrc02_eemm_188.6_41285.xsdst ! RUN = 41285 ! NEVT = 7000
FILE = /castor/cern.ch/delphi/MCprod/lyon/bdkrc02/v98e/188.6/bdkrc02_eemm_188.6_41286.xsdst ! RUN = 41286 ! NEVT = 7000
FILE = /castor/cern.ch/delphi/MCprod/lyon/bdkrc02/v98e/188.6/bdkrc02_eemm_188.6_41288.xsdst ! RUN = 41288 ! NEVT = 7000
FILE = /castor/cern.ch/delphi/MCprod/lyon/bdkrc02/v98e/188.6/bdkrc02_eemm_188.6_41289.xsdst ! RUN = 41289 ! NEVT = 7000
FILE = /castor/cern.ch/delphi/MCprod/lyon/bdkrc02/v98e/188.6/bdkrc02_eemm_188.6_41290.xsdst ! RUN = 41290 ! NEVT = 7000
FILE = /castor/cern.ch/delphi/MCprod/lyon/bdkrc02/v98e/188.6/bdkrc02_eemm_188.6_41291.xsdst ! RUN = 41291 ! NEVT = 7000
FILE = /castor/cern.ch/delphi/MCprod/lyon/bdkrc02/v98e/188.6/bdkrc02_eemm_188.6_41292.xsdst ! RUN = 41292 ! NEVT = 7000
FILE = /castor/cern.ch/delphi/MCprod/lyon/bdkrc02/v98e/188.6/bdkrc02_eemm_188.6_41293.xsdst ! RUN = 41293 ! NEVT = 7000
FILE = /castor/cern.ch/delphi/MCprod/lyon/bdkrc02/v98e/188.6/bdkrc02_eemm_188.6_41294.xsdst ! RUN = 41294 ! NEVT = 7000
FILE = /castor/cern.ch/delphi/MCprod/lyon/bdkrc02/v98e/188.6/bdkrc02_eemm_188.6_41295.xsdst ! RUN = 41295 ! NEVT = 7000
FILE = /castor/cern.ch/delphi/MCprod/lyon/bdkrc02/v98e/188.6/bdkrc02_eemm_188.6_41296.xsdst ! RUN = 41296 ! NEVT = 7000
FILE = /castor/cern.ch/delphi/MCprod/lyon/bdkrc02/v98e/188.6/bdkrc02_eemm_188.6_41297.xsdst ! RUN = 41297 ! NEVT = 438
FILE = /castor/cern.ch/delphi/MCprod/lyon/bdkrc02/v98e/188.6/bdkrc02_eemm_188.6_41298.xsdst ! RUN = 41298 ! NEVT = 7000
FILE = /castor/cern.ch/delphi/MCprod/lyon/bdkrc02/v98e/188.6/bdkrc02_eemm_188.6_41299.xsdst ! RUN = 41299 ! NEVT = 7000
FILE = /castor/cern.ch/delphi/MCprod/lyon/bdkrc02/v98e/188.6/bdkrc02_eemm_188.6_41300.xsdst ! RUN = 41300 ! NEVT = 7000
FILE = /castor/cern.ch/delphi/MCprod/lyon/bdkrc02/v98e/188.6/bdkrc02_eemm_188.6_41301.xsdst ! RUN = 41301 ! NEVT = 7000
FILE = /castor/cern.ch/delphi/MCprod/lyon/bdkrc02/v98e/188.6/bdkrc02_eemm_188.6_41302.xsdst ! RUN = 41302 ! NEVT = 7000
FILE = /castor/cern.ch/delphi/MCprod/lyon/bdkrc02/v98e/188.6/bdkrc02_eemm_188.6_41303.xsdst ! RUN = 41303 ! NEVT = 7000
FILE = /castor/cern.ch/delphi/MCprod/lyon/bdkrc02/v98e/188.6/bdkrc02_eemm_188.6_41304.xsdst ! RUN = 41304 ! NEVT = 7000
FILE = /castor/cern.ch/delphi/MCprod/lyon/bdkrc02/v98e/188.6/bdkrc02_eemm_188.6_41305.xsdst ! RUN = 41305 ! NEVT = 7000
FILE = /castor/cern.ch/delphi/MCprod/lyon/bdkrc02/v98e/188.6/bdkrc02_eemm_188.6_41306.xsdst ! RUN = 41306 ! NEVT = 7000
FILE = /castor/cern.ch/delphi/MCprod/lyon/bdkrc02/v98e/188.6/bdkrc02_eemm_188.6_41307.xsdst ! RUN = 41307 ! NEVT = 7000
FILE = /castor/cern.ch/delphi/MCprod/lyon/bdkrc02/v98e/188.6/bdkrc02_eemm_188.6_41308.xsdst ! RUN = 41308 ! NEVT = 7000
FILE = /castor/cern.ch/delphi/MCprod/lyon/bdkrc02/v98e/188.6/bdkrc02_eemm_188.6_41309.xsdst ! RUN = 41309 ! NEVT = 7000
FILE = /castor/cern.ch/delphi/MCprod/lyon/bdkrc02/v98e/188.6/bdkrc02_eemm_188.6_41310.xsdst ! RUN = 41310 ! NEVT = 7000
FILE = /castor/cern.ch/delphi/MCprod/lyon/bdkrc02/v98e/188.6/bdkrc02_eemm_188.6_41311.xsdst ! RUN = 41311 ! NEVT = 7000
FILE = /castor/cern.ch/delphi/MCprod/lyon/bdkrc02/v98e/188.6/bdkrc02_eemm_188.6_41312.xsdst ! RUN = 41312 ! NEVT = 7000
FILE = /castor/cern.ch/delphi/MCprod/lyon/bdkrc02/v98e/188.6/bdkrc02_eemm_188.6_41313.xsdst ! RUN = 41313 ! NEVT = 7000
FILE = /castor/cern.ch/delphi/MCprod/lyon/bdkrc02/v98e/188.6/bdkrc02_eemm_188.6_41314.xsdst ! RUN = 41314 ! NEVT = 7000
FILE = /castor/cern.ch/delphi/MCprod/lyon/bdkrc02/v98e/188.6/bdkrc02_eemm_188.6_41315.xsdst ! RUN = 41315 ! NEVT = 6999
FILE = /castor/cern.ch/delphi/MCprod/lyon/bdkrc02/v98e/188.6/bdkrc02_eemm_188.6_41316.xsdst ! RUN = 41316 ! NEVT = 7000
FILE = /castor/cern.ch/delphi/MCprod/lyon/bdkrc02/v98e/188.6/bdkrc02_eemm_188.6_41318.xsdst ! RUN = 41318 ! NEVT = 7000
FILE = /castor/cern.ch/delphi/MCprod/lyon/bdkrc02/v98e/188.6/bdkrc02_eemm_188.6_41319.xsdst ! RUN = 41319 ! NEVT = 7000
FILE = /castor/cern.ch/delphi/MCprod/lyon/bdkrc02/v98e/188.6/bdkrc02_eemm_188.6_41320.xsdst ! RUN = 41320 ! NEVT = 7000
FILE = /castor/cern.ch/delphi/MCprod/lyon/bdkrc02/v98e/188.6/bdkrc02_eemm_188.6_41321.xsdst ! RUN = 41321 ! NEVT = 7000
FILE = /castor/cern.ch/delphi/MCprod/lyon/bdkrc02/v98e/188.6/bdkrc02_eemm_188.6_41322.xsdst ! RUN = 41322 ! NEVT = 7000
FILE = /castor/cern.ch/delphi/MCprod/lyon/bdkrc02/v98e/188.6/bdkrc02_eemm_188.6_41323.xsdst ! RUN = 41323 ! NEVT = 7000
FILE = /castor/cern.ch/delphi/MCprod/lyon/bdkrc02/v98e/188.6/bdkrc02_eemm_188.6_41324.xsdst ! RUN = 41324 ! NEVT = 7000
FILE = /castor/cern.ch/delphi/MCprod/lyon/bdkrc02/v98e/188.6/bdkrc02_eemm_188.6_41325.xsdst ! RUN = 41325 ! NEVT = 7000
FILE = /castor/cern.ch/delphi/MCprod/lyon/bdkrc02/v98e/188.6/bdkrc02_eemm_188.6_41326.xsdst ! RUN = 41326 ! NEVT = 7000
FILE = /castor/cern.ch/delphi/MCprod/lyon/bdkrc02/v98e/188.6/bdkrc02_eemm_188.6_41327.xsdst ! RUN = 41327 ! NEVT = 7000
FILE = /castor/cern.ch/delphi/MCprod/lyon/bdkrc02/v98e/188.6/bdkrc02_eemm_188.6_41328.xsdst ! RUN = 41328 ! NEVT = 7000
FILE = /castor/cern.ch/delphi/MCprod/lyon/bdkrc02/v98e/188.6/bdkrc02_eemm_188.6_41329.xsdst ! RUN = 41329 ! NEVT = 7000
FILE = /castor/cern.ch/delphi/MCprod/lyon/bdkrc02/v98e/188.6/bdkrc02_eemm_188.6_41330.xsdst ! RUN = 41330 ! NEVT = 7000
FILE = /castor/cern.ch/delphi/MCprod/lyon/bdkrc02/v98e/188.6/bdkrc02_eemm_188.6_41331.xsdst ! RUN = 41331 ! NEVT = 7000
FILE = /castor/cern.ch/delphi/MCprod/lyon/bdkrc02/v98e/188.6/bdkrc02_eemm_188.6_41332.xsdst ! RUN = 41332 ! NEVT = 7000
FILE = /castor/cern.ch/delphi/MCprod/lyon/bdkrc02/v98e/188.6/bdkrc02_eemm_188.6_41333.xsdst ! RUN = 41333 ! NEVT = 7000
FILE = /castor/cern.ch/delphi/MCprod/lyon/bdkrc02/v98e/188.6/bdkrc02_eemm_188.6_41334.xsdst ! RUN = 41334 ! NEVT = 7000
FILE = /castor/cern.ch/delphi/MCprod/lyon/bdkrc02/v98e/188.6/bdkrc02_eemm_188.6_41336.xsdst ! RUN = 41336 ! NEVT = 7000
FILE = /castor/cern.ch/delphi/MCprod/lyon/bdkrc02/v98e/188.6/bdkrc02_eemm_188.6_41337.xsdst ! RUN = 41337 ! NEVT = 7000
FILE = /castor/cern.ch/delphi/MCprod/lyon/bdkrc02/v98e/188.6/bdkrc02_eemm_188.6_41338.xsdst ! RUN = 41338 ! NEVT = 7000
FILE = /castor/cern.ch/delphi/MCprod/lyon/bdkrc02/v98e/188.6/bdkrc02_eemm_188.6_41339.xsdst ! RUN = 41339 ! NEVT = 7000
FILE = /castor/cern.ch/delphi/MCprod/lyon/bdkrc02/v98e/188.6/bdkrc02_eemm_188.6_41340.xsdst ! RUN = 41340 ! NEVT = 7000
FILE = /castor/cern.ch/delphi/MCprod/lyon/bdkrc02/v98e/188.6/bdkrc02_eemm_188.6_41341.xsdst ! RUN = 41341 ! NEVT = 7000
FILE = /castor/cern.ch/delphi/MCprod/lyon/bdkrc02/v98e/188.6/bdkrc02_eemm_188.6_41342.xsdst ! RUN = 41342 ! NEVT = 7000
FILE = /castor/cern.ch/delphi/MCprod/lyon/bdkrc02/v98e/188.6/bdkrc02_eemm_188.6_41343.xsdst ! RUN = 41343 ! NEVT = 7000
FILE = /castor/cern.ch/delphi/MCprod/lyon/bdkrc02/v98e/188.6/bdkrc02_eemm_188.6_41344.xsdst ! RUN = 41344 ! NEVT = 7000
FILE = /castor/cern.ch/delphi/MCprod/lyon/bdkrc02/v98e/188.6/bdkrc02_eemm_188.6_41345.xsdst ! RUN = 41345 ! NEVT = 7000
FILE = /castor/cern.ch/delphi/MCprod/lyon/bdkrc02/v98e/188.6/bdkrc02_eemm_188.6_41346.xsdst ! RUN = 41346 ! NEVT = 7000
FILE = /castor/cern.ch/delphi/MCprod/lyon/bdkrc02/v98e/188.6/bdkrc02_eemm_188.6_41347.xsdst ! RUN = 41347 ! NEVT = 7000
FILE = /castor/cern.ch/delphi/MCprod/lyon/bdkrc02/v98e/188.6/bdkrc02_eemm_188.6_41348.xsdst ! RUN = 41348 ! NEVT = 7000
FILE = /castor/cern.ch/delphi/MCprod/lyon/bdkrc02/v98e/188.6/bdkrc02_eemm_188.6_41349.xsdst ! RUN = 41349 ! NEVT = 7000
FILE = /castor/cern.ch/delphi/MCprod/lyon/bdkrc02/v98e/188.6/bdkrc02_eemm_188.6_41350.xsdst ! RUN = 41350 ! NEVT = 7000
FILE = /castor/cern.ch/delphi/MCprod/lyon/bdkrc02/v98e/188.6/bdkrc02_eemm_188.6_41351.xsdst ! RUN = 41351 ! NEVT = 7000
FILE = /castor/cern.ch/delphi/MCprod/lyon/bdkrc02/v98e/188.6/bdkrc02_eemm_188.6_41352.xsdst ! RUN = 41352 ! NEVT = 7000
FILE = /castor/cern.ch/delphi/MCprod/lyon/bdkrc02/v98e/188.6/bdkrc02_eemm_188.6_41353.xsdst ! RUN = 41353 ! NEVT = 7000
FILE = /castor/cern.ch/delphi/MCprod/lyon/bdkrc02/v98e/188.6/bdkrc02_eemm_188.6_41354.xsdst ! RUN = 41354 ! NEVT = 7000
FILE = /castor/cern.ch/delphi/MCprod/lyon/bdkrc02/v98e/188.6/bdkrc02_eemm_188.6_41355.xsdst ! RUN = 41355 ! NEVT = 7000
FILE = /castor/cern.ch/delphi/MCprod/lyon/bdkrc02/v98e/188.6/bdkrc02_eemm_188.6_41356.xsdst ! RUN = 41356 ! NEVT = 7000
FILE = /castor/cern.ch/delphi/MCprod/lyon/bdkrc02/v98e/188.6/bdkrc02_eemm_188.6_41357.xsdst ! RUN = 41357 ! NEVT = 7000
FILE = /castor/cern.ch/delphi/MCprod/lyon/bdkrc02/v98e/188.6/bdkrc02_eemm_188.6_41358.xsdst ! RUN = 41358 ! NEVT = 7000
FILE = /castor/cern.ch/delphi/MCprod/lyon/bdkrc02/v98e/188.6/bdkrc02_eemm_188.6_41359.xsdst ! RUN = 41359 ! NEVT = 7000
FILE = /castor/cern.ch/delphi/MCprod/lyon/bdkrc02/v98e/188.6/bdkrc02_eemm_188.6_41360.xsdst ! RUN = 41360 ! NEVT = 7000
FILE = /castor/cern.ch/delphi/MCprod/lyon/bdkrc02/v98e/188.6/bdkrc02_eemm_188.6_41361.xsdst ! RUN = 41361 ! NEVT = 7000
FILE = /castor/cern.ch/delphi/MCprod/lyon/bdkrc02/v98e/188.6/bdkrc02_eemm_188.6_41362.xsdst ! RUN = 41362 ! NEVT = 7000
FILE = /castor/cern.ch/delphi/MCprod/lyon/bdkrc02/v98e/188.6/bdkrc02_eemm_188.6_41363.xsdst ! RUN = 41363 ! NEVT = 7000
FILE = /castor/cern.ch/delphi/MCprod/lyon/bdkrc02/v98e/188.6/bdkrc02_eemm_188.6_41364.xsdst ! RUN = 41364 ! NEVT = 7000
FILE = /castor/cern.ch/delphi/MCprod/lyon/bdkrc02/v98e/188.6/bdkrc02_eemm_188.6_41365.xsdst ! RUN = 41365 ! NEVT = 7000
FILE = /castor/cern.ch/delphi/MCprod/lyon/bdkrc02/v98e/188.6/bdkrc02_eemm_188.6_41366.xsdst ! RUN = 41366 ! NEVT = 7000
FILE = /castor/cern.ch/delphi/MCprod/lyon/bdkrc02/v98e/188.6/bdkrc02_eemm_188.6_41367.xsdst ! RUN = 41367 ! NEVT = 7000
FILE = /castor/cern.ch/delphi/MCprod/lyon/bdkrc02/v98e/188.6/bdkrc02_eemm_188.6_41368.xsdst ! RUN = 41368 ! NEVT = 7000
FILE = /castor/cern.ch/delphi/MCprod/lyon/bdkrc02/v98e/188.6/bdkrc02_eemm_188.6_41369.xsdst ! RUN = 41369 ! NEVT = 7000
FILE = /castor/cern.ch/delphi/MCprod/lyon/bdkrc02/v98e/188.6/bdkrc02_eemm_188.6_41370.xsdst ! RUN = 41370 ! NEVT = 7000
FILE = /castor/cern.ch/delphi/MCprod/lyon/bdkrc02/v98e/188.6/bdkrc02_eemm_188.6_41371.xsdst ! RUN = 41371 ! NEVT = 7000
FILE = /castor/cern.ch/delphi/MCprod/lyon/bdkrc02/v98e/188.6/bdkrc02_eemm_188.6_41372.xsdst ! RUN = 41372 ! NEVT = 7000
FILE = /castor/cern.ch/delphi/MCprod/lyon/bdkrc02/v98e/188.6/bdkrc02_eemm_188.6_41373.xsdst ! RUN = 41373 ! NEVT = 7000
FILE = /castor/cern.ch/delphi/MCprod/lyon/bdkrc02/v98e/188.6/bdkrc02_eemm_188.6_41374.xsdst ! RUN = 41374 ! NEVT = 7000
FILE = /castor/cern.ch/delphi/MCprod/lyon/bdkrc02/v98e/188.6/bdkrc02_eemm_188.6_41375.xsdst ! RUN = 41375 ! NEVT = 7000
FILE = /castor/cern.ch/delphi/MCprod/lyon/bdkrc02/v98e/188.6/bdkrc02_eemm_188.6_41376.xsdst ! RUN = 41376 ! NEVT = 7000
FILE = /castor/cern.ch/delphi/MCprod/lyon/bdkrc02/v98e/188.6/bdkrc02_eemm_188.6_41377.xsdst ! RUN = 41377 ! NEVT = 7000
FILE = /castor/cern.ch/delphi/MCprod/lyon/bdkrc02/v98e/188.6/bdkrc02_eemm_188.6_41378.xsdst ! RUN = 41378 ! NEVT = 7000
FILE = /castor/cern.ch/delphi/MCprod/lyon/bdkrc02/v98e/188.6/bdkrc02_eemm_188.6_41379.xsdst ! RUN = 41379 ! NEVT = 7000
FILE = /castor/cern.ch/delphi/MCprod/lyon/bdkrc02/v98e/188.6/bdkrc02_eemm_188.6_41380.xsdst ! RUN = 41380 ! NEVT = 7000
FILE = /castor/cern.ch/delphi/MCprod/lyon/bdkrc02/v98e/188.6/bdkrc02_eemm_188.6_41381.xsdst ! RUN = 41381 ! NEVT = 7000
FILE = /castor/cern.ch/delphi/MCprod/lyon/bdkrc02/v98e/188.6/bdkrc02_eemm_188.6_41382.xsdst ! RUN = 41382 ! NEVT = 7000
FILE = /castor/cern.ch/delphi/MCprod/lyon/bdkrc02/v98e/188.6/bdkrc02_eemm_188.6_41383.xsdst ! RUN = 41383 ! NEVT = 7000
FILE = /castor/cern.ch/delphi/MCprod/lyon/bdkrc02/v98e/188.6/bdkrc02_eemm_188.6_41385.xsdst ! RUN = 41385 ! NEVT = 7000
FILE = /castor/cern.ch/delphi/MCprod/lyon/bdkrc02/v98e/188.6/bdkrc02_eemm_188.6_41386.xsdst ! RUN = 41386 ! NEVT = 7000
FILE = /castor/cern.ch/delphi/MCprod/lyon/bdkrc02/v98e/188.6/bdkrc02_eemm_188.6_41387.xsdst ! RUN = 41387 ! NEVT = 7000
FILE = /castor/cern.ch/delphi/MCprod/lyon/bdkrc02/v98e/188.6/bdkrc02_eemm_188.6_41388.xsdst ! RUN = 41388 ! NEVT = 7000
FILE = /castor/cern.ch/delphi/MCprod/lyon/bdkrc02/v98e/188.6/bdkrc02_eemm_188.6_41389.xsdst ! RUN = 41389 ! NEVT = 7000
FILE = /castor/cern.ch/delphi/MCprod/lyon/bdkrc02/v98e/188.6/bdkrc02_eemm_188.6_41390.xsdst ! RUN = 41390 ! NEVT = 7000
FILE = /castor/cern.ch/delphi/MCprod/lyon/bdkrc02/v98e/188.6/bdkrc02_eemm_188.6_41391.xsdst ! RUN = 41391 ! NEVT = 7000
FILE = /castor/cern.ch/delphi/MCprod/lyon/bdkrc02/v98e/188.6/bdkrc02_eemm_188.6_41392.xsdst ! RUN = 41392 ! NEVT = 7000
FILE = /castor/cern.ch/delphi/MCprod/lyon/bdkrc02/v98e/188.6/bdkrc02_eemm_188.6_41393.xsdst ! RUN = 41393 ! NEVT = 7000
FILE = /castor/cern.ch/delphi/MCprod/lyon/bdkrc02/v98e/188.6/bdkrc02_eemm_188.6_41394.xsdst ! RUN = 41394 ! NEVT = 7000
FILE = /castor/cern.ch/delphi/MCprod/lyon/bdkrc02/v98e/188.6/bdkrc02_eemm_188.6_41395.xsdst ! RUN = 41395 ! NEVT = 7000
FILE = /castor/cern.ch/delphi/MCprod/lyon/bdkrc02/v98e/188.6/bdkrc02_eemm_188.6_41396.xsdst ! RUN = 41396 ! NEVT = 7000
FILE = /castor/cern.ch/delphi/MCprod/lyon/bdkrc02/v98e/188.6/bdkrc02_eemm_188.6_41397.xsdst ! RUN = 41397 ! NEVT = 7000
FILE = /castor/cern.ch/delphi/MCprod/lyon/bdkrc02/v98e/188.6/bdkrc02_eemm_188.6_41398.xsdst ! RUN = 41398 ! NEVT = 7000
FILE = /castor/cern.ch/delphi/MCprod/lyon/bdkrc02/v98e/188.6/bdkrc02_eemm_188.6_41399.xsdst ! RUN = 41399 ! NEVT = 7000
FILE = /castor/cern.ch/delphi/MCprod/lyon/bdkrc02/v98e/188.6/bdkrc02_eemm_188.6_41400.xsdst ! RUN = 41400 ! NEVT = 7000
FILE = /castor/cern.ch/delphi/MCprod/lyon/bdkrc02/v98e/188.6/bdkrc02_eemm_188.6_41401.xsdst ! RUN = 41401 ! NEVT = 7000
FILE = /castor/cern.ch/delphi/MCprod/lyon/bdkrc02/v98e/188.6/bdkrc02_eemm_188.6_41402.xsdst ! RUN = 41402 ! NEVT = 7000
FILE = /castor/cern.ch/delphi/MCprod/lyon/bdkrc02/v98e/188.6/bdkrc02_eemm_188.6_41403.xsdst ! RUN = 41403 ! NEVT = 7000
FILE = /castor/cern.ch/delphi/MCprod/lyon/bdkrc02/v98e/188.6/bdkrc02_eemm_188.6_41404.xsdst ! RUN = 41404 ! NEVT = 7000
FILE = /castor/cern.ch/delphi/MCprod/lyon/bdkrc02/v98e/188.6/bdkrc02_eemm_188.6_41405.xsdst ! RUN = 41405 ! NEVT = 7000
FILE = /castor/cern.ch/delphi/MCprod/lyon/bdkrc02/v98e/188.6/bdkrc02_eemm_188.6_41406.xsdst ! RUN = 41406 ! NEVT = 2114
FILE = /castor/cern.ch/delphi/MCprod/lyon/bdkrc02/v98e/188.6/bdkrc02_eemm_188.6_41407.xsdst ! RUN = 41407 ! NEVT = 7000
FILE = /castor/cern.ch/delphi/MCprod/lyon/bdkrc02/v98e/188.6/bdkrc02_eemm_188.6_41408.xsdst ! RUN = 41408 ! NEVT = 7000
FILE = /castor/cern.ch/delphi/MCprod/lyon/bdkrc02/v98e/188.6/bdkrc02_eemm_188.6_41409.xsdst ! RUN = 41409 ! NEVT = 7000
FILE = /castor/cern.ch/delphi/MCprod/lyon/bdkrc02/v98e/188.6/bdkrc02_eemm_188.6_41410.xsdst ! RUN = 41410 ! NEVT = 7000
FILE = /castor/cern.ch/delphi/MCprod/lyon/bdkrc02/v98e/188.6/bdkrc02_eemm_188.6_41411.xsdst ! RUN = 41411 ! NEVT = 7000
FILE = /castor/cern.ch/delphi/MCprod/lyon/bdkrc02/v98e/188.6/bdkrc02_eemm_188.6_41412.xsdst ! RUN = 41412 ! NEVT = 1471
FILE = /castor/cern.ch/delphi/MCprod/lyon/bdkrc02/v98e/188.6/bdkrc02_eemm_188.6_41413.xsdst ! RUN = 41413 ! NEVT = 7000
FILE = /castor/cern.ch/delphi/MCprod/lyon/bdkrc02/v98e/188.6/bdkrc02_eemm_188.6_41414.xsdst ! RUN = 41414 ! NEVT = 7000
FILE = /castor/cern.ch/delphi/MCprod/lyon/bdkrc02/v98e/188.6/bdkrc02_eemm_188.6_41415.xsdst ! RUN = 41415 ! NEVT = 7000
FILE = /castor/cern.ch/delphi/MCprod/lyon/bdkrc02/v98e/188.6/bdkrc02_eemm_188.6_41416.xsdst ! RUN = 41416 ! NEVT = 7000
FILE = /castor/cern.ch/delphi/MCprod/lyon/bdkrc02/v98e/188.6/bdkrc02_eemm_188.6_41417.xsdst ! RUN = 41417 ! NEVT = 7000
FILE = /castor/cern.ch/delphi/MCprod/lyon/bdkrc02/v98e/188.6/bdkrc02_eemm_188.6_41418.xsdst ! RUN = 41418 ! NEVT = 7000
FILE = /castor/cern.ch/delphi/MCprod/lyon/bdkrc02/v98e/188.6/bdkrc02_eemm_188.6_41419.xsdst ! RUN = 41419 ! NEVT = 7000
FILE = /castor/cern.ch/delphi/MCprod/lyon/bdkrc02/v98e/188.6/bdkrc02_eemm_188.6_41420.xsdst ! RUN = 41420 ! NEVT = 7000
FILE = /castor/cern.ch/delphi/MCprod/lyon/bdkrc02/v98e/188.6/bdkrc02_eemm_188.6_41421.xsdst ! RUN = 41421 ! NEVT = 7000
FILE = /castor/cern.ch/delphi/MCprod/lyon/bdkrc02/v98e/188.6/bdkrc02_eemm_188.6_41422.xsdst ! RUN = 41422 ! NEVT = 7000
FILE = /castor/cern.ch/delphi/MCprod/lyon/bdkrc02/v98e/188.6/bdkrc02_eemm_188.6_41423.xsdst ! RUN = 41423 ! NEVT = 7000
FILE = /castor/cern.ch/delphi/MCprod/lyon/bdkrc02/v98e/188.6/bdkrc02_eemm_188.6_41424.xsdst ! RUN = 41424 ! NEVT = 7000
FILE = /castor/cern.ch/delphi/MCprod/lyon/bdkrc02/v98e/188.6/bdkrc02_eemm_188.6_41425.xsdst ! RUN = 41425 ! NEVT = 7000
FILE = /castor/cern.ch/delphi/MCprod/lyon/bdkrc02/v98e/188.6/bdkrc02_eemm_188.6_41426.xsdst ! RUN = 41426 ! NEVT = 7000
FILE = /castor/cern.ch/delphi/MCprod/lyon/bdkrc02/v98e/188.6/bdkrc02_eemm_188.6_41427.xsdst ! RUN = 41427 ! NEVT = 7000
FILE = /castor/cern.ch/delphi/MCprod/lyon/bdkrc02/v98e/188.6/bdkrc02_eemm_188.6_41428.xsdst ! RUN = 41428 ! NEVT = 7000
FILE = /castor/cern.ch/delphi/MCprod/lyon/bdkrc02/v98e/188.6/bdkrc02_eemm_188.6_41429.xsdst ! RUN = 41429 ! NEVT = 7000
FILE = /castor/cern.ch/delphi/MCprod/lyon/bdkrc02/v98e/188.6/bdkrc02_eemm_188.6_41430.xsdst ! RUN = 41430 ! NEVT = 7000
FILE = /castor/cern.ch/delphi/MCprod/lyon/bdkrc02/v98e/188.6/bdkrc02_eemm_188.6_41431.xsdst ! RUN = 41431 ! NEVT = 7000
FILE = /castor/cern.ch/delphi/MCprod/lyon/bdkrc02/v98e/188.6/bdkrc02_eemm_188.6_41432.xsdst ! RUN = 41432 ! NEVT = 7000
FILE = /castor/cern.ch/delphi/MCprod/lyon/bdkrc02/v98e/188.6/bdkrc02_eemm_188.6_41433.xsdst ! RUN = 41433 ! NEVT = 7000
FILE = /castor/cern.ch/delphi/MCprod/lyon/bdkrc02/v98e/188.6/bdkrc02_eemm_188.6_41434.xsdst ! RUN = 41434 ! NEVT = 7000
FILE = /castor/cern.ch/delphi/MCprod/lyon/bdkrc02/v98e/188.6/bdkrc02_eemm_188.6_41435.xsdst ! RUN = 41435 ! NEVT = 7000
FILE = /castor/cern.ch/delphi/MCprod/lyon/bdkrc02/v98e/188.6/bdkrc02_eemm_188.6_41436.xsdst ! RUN = 41436 ! NEVT = 7000
FILE = /castor/cern.ch/delphi/MCprod/lyon/bdkrc02/v98e/188.6/bdkrc02_eemm_188.6_41437.xsdst ! RUN = 41437 ! NEVT = 7000
FILE = /castor/cern.ch/delphi/MCprod/lyon/bdkrc02/v98e/188.6/bdkrc02_eemm_188.6_41438.xsdst ! RUN = 41438 ! NEVT = 7000
FILE = /castor/cern.ch/delphi/MCprod/lyon/bdkrc02/v98e/188.6/bdkrc02_eemm_188.6_41439.xsdst ! RUN = 41439 ! NEVT = 7000
FILE = /castor/cern.ch/delphi/MCprod/lyon/bdkrc02/v98e/188.6/bdkrc02_eemm_188.6_41440.xsdst ! RUN = 41440 ! NEVT = 7000
FILE = /castor/cern.ch/delphi/MCprod/lyon/bdkrc02/v98e/188.6/bdkrc02_eemm_188.6_41441.xsdst ! RUN = 41441 ! NEVT = 7000
FILE = /castor/cern.ch/delphi/MCprod/lyon/bdkrc02/v98e/188.6/bdkrc02_eemm_188.6_41442.xsdst ! RUN = 41442 ! NEVT = 7000
FILE = /castor/cern.ch/delphi/MCprod/lyon/bdkrc02/v98e/188.6/bdkrc02_eemm_188.6_41443.xsdst ! RUN = 41443 ! NEVT = 7000
FILE = /castor/cern.ch/delphi/MCprod/lyon/bdkrc02/v98e/188.6/bdkrc02_eemm_188.6_41444.xsdst ! RUN = 41444 ! NEVT = 7000
FILE = /castor/cern.ch/delphi/MCprod/lyon/bdkrc02/v98e/188.6/bdkrc02_eemm_188.6_41445.xsdst ! RUN = 41445 ! NEVT = 7000
FILE = /castor/cern.ch/delphi/MCprod/lyon/bdkrc02/v98e/188.6/bdkrc02_eemm_188.6_41446.xsdst ! RUN = 41446 ! NEVT = 7000
FILE = /castor/cern.ch/delphi/MCprod/lyon/bdkrc02/v98e/188.6/bdkrc02_eemm_188.6_41447.xsdst ! RUN = 41447 ! NEVT = 7000
FILE = /castor/cern.ch/delphi/MCprod/lyon/bdkrc02/v98e/188.6/bdkrc02_eemm_188.6_41448.xsdst ! RUN = 41448 ! NEVT = 7000
FILE = /castor/cern.ch/delphi/MCprod/lyon/bdkrc02/v98e/188.6/bdkrc02_eemm_188.6_41449.xsdst ! RUN = 41449 ! NEVT = 7000
FILE = /castor/cern.ch/delphi/MCprod/lyon/bdkrc02/v98e/188.6/bdkrc02_eemm_188.6_41450.xsdst ! RUN = 41450 ! NEVT = 7000
FILE = /castor/cern.ch/delphi/MCprod/lyon/bdkrc02/v98e/188.6/bdkrc02_eemm_188.6_41451.xsdst ! RUN = 41451 ! NEVT = 7000
FILE = /castor/cern.ch/delphi/MCprod/lyon/bdkrc02/v98e/188.6/bdkrc02_eemm_188.6_41452.xsdst ! RUN = 41452 ! NEVT = 7000
FILE = /castor/cern.ch/delphi/MCprod/lyon/bdkrc02/v98e/188.6/bdkrc02_eemm_188.6_41453.xsdst ! RUN = 41453 ! NEVT = 7000
FILE = /castor/cern.ch/delphi/MCprod/lyon/bdkrc02/v98e/188.6/bdkrc02_eemm_188.6_41454.xsdst ! RUN = 41454 ! NEVT = 7000
FILE = /castor/cern.ch/delphi/MCprod/lyon/bdkrc02/v98e/188.6/bdkrc02_eemm_188.6_41455.xsdst ! RUN = 41455 ! NEVT = 7000
FILE = /castor/cern.ch/delphi/MCprod/lyon/bdkrc02/v98e/188.6/bdkrc02_eemm_188.6_41456.xsdst ! RUN = 41456 ! NEVT = 7000
FILE = /castor/cern.ch/delphi/MCprod/lyon/bdkrc02/v98e/188.6/bdkrc02_eemm_188.6_41457.xsdst ! RUN = 41457 ! NEVT = 7000
FILE = /castor/cern.ch/delphi/MCprod/lyon/bdkrc02/v98e/188.6/bdkrc02_eemm_188.6_41458.xsdst ! RUN = 41458 ! NEVT = 7000
FILE = /castor/cern.ch/delphi/MCprod/lyon/bdkrc02/v98e/188.6/bdkrc02_eemm_188.6_41459.xsdst ! RUN = 41459 ! NEVT = 7000
FILE = /castor/cern.ch/delphi/MCprod/lyon/bdkrc02/v98e/188.6/bdkrc02_eemm_188.6_41460.xsdst ! RUN = 41460 ! NEVT = 7000
FILE = /castor/cern.ch/delphi/MCprod/lyon/bdkrc02/v98e/188.6/bdkrc02_eemm_188.6_41461.xsdst ! RUN = 41461 ! NEVT = 7000
FILE = /castor/cern.ch/delphi/MCprod/lyon/bdkrc02/v98e/188.6/bdkrc02_eemm_188.6_41462.xsdst ! RUN = 41462 ! NEVT = 7000
FILE = /castor/cern.ch/delphi/MCprod/lyon/bdkrc02/v98e/188.6/bdkrc02_eemm_188.6_41463.xsdst ! RUN = 41463 ! NEVT = 7000
FILE = /castor/cern.ch/delphi/MCprod/lyon/bdkrc02/v98e/188.6/bdkrc02_eemm_188.6_41464.xsdst ! RUN = 41464 ! NEVT = 7000
FILE = /castor/cern.ch/delphi/MCprod/lyon/bdkrc02/v98e/188.6/bdkrc02_eemm_188.6_41465.xsdst ! RUN = 41465 ! NEVT = 7000
FILE = /castor/cern.ch/delphi/MCprod/lyon/bdkrc02/v98e/188.6/bdkrc02_eemm_188.6_41466.xsdst ! RUN = 41466 ! NEVT = 7000
FILE = /castor/cern.ch/delphi/MCprod/lyon/bdkrc02/v98e/188.6/bdkrc02_eemm_188.6_41467.xsdst ! RUN = 41467 ! NEVT = 7000
FILE = /castor/cern.ch/delphi/MCprod/lyon/bdkrc02/v98e/188.6/bdkrc02_eemm_188.6_41468.xsdst ! RUN = 41468 ! NEVT = 7000
FILE = /castor/cern.ch/delphi/MCprod/lyon/bdkrc02/v98e/188.6/bdkrc02_eemm_188.6_41469.xsdst ! RUN = 41469 ! NEVT = 7000
FILE = /castor/cern.ch/delphi/MCprod/lyon/bdkrc02/v98e/188.6/bdkrc02_eemm_188.6_41470.xsdst ! RUN = 41470 ! NEVT = 7000
FILE = /castor/cern.ch/delphi/MCprod/lyon/bdkrc02/v98e/188.6/bdkrc02_eemm_188.6_41471.xsdst ! RUN = 41471 ! NEVT = 7000
FILE = /castor/cern.ch/delphi/MCprod/lyon/bdkrc02/v98e/188.6/bdkrc02_eemm_188.6_41472.xsdst ! RUN = 41472 ! NEVT = 7000
FILE = /castor/cern.ch/delphi/MCprod/lyon/bdkrc02/v98e/188.6/bdkrc02_eemm_188.6_41473.xsdst ! RUN = 41473 ! NEVT = 7000
FILE = /castor/cern.ch/delphi/MCprod/lyon/bdkrc02/v98e/188.6/bdkrc02_eemm_188.6_41474.xsdst ! RUN = 41474 ! NEVT = 7000
FILE = /castor/cern.ch/delphi/MCprod/lyon/bdkrc02/v98e/188.6/bdkrc02_eemm_188.6_41475.xsdst ! RUN = 41475 ! NEVT = 7000
FILE = /castor/cern.ch/delphi/MCprod/lyon/bdkrc02/v98e/188.6/bdkrc02_eemm_188.6_41476.xsdst ! RUN = 41476 ! NEVT = 7000
FILE = /castor/cern.ch/delphi/MCprod/lyon/bdkrc02/v98e/188.6/bdkrc02_eemm_188.6_41477.xsdst ! RUN = 41477 ! NEVT = 7000
FILE = /castor/cern.ch/delphi/MCprod/lyon/bdkrc02/v98e/188.6/bdkrc02_eemm_188.6_41478.xsdst ! RUN = 41478 ! NEVT = 7000
FILE = /castor/cern.ch/delphi/MCprod/lyon/bdkrc02/v98e/188.6/bdkrc02_eemm_188.6_41479.xsdst ! RUN = 41479 ! NEVT = 7000
FILE = /castor/cern.ch/delphi/MCprod/lyon/bdkrc02/v98e/188.6/bdkrc02_eemm_188.6_41480.xsdst ! RUN = 41480 ! NEVT = 7000
FILE = /castor/cern.ch/delphi/MCprod/lyon/bdkrc02/v98e/188.6/bdkrc02_eemm_188.6_41481.xsdst ! RUN = 41481 ! NEVT = 7000
FILE = /castor/cern.ch/delphi/MCprod/lyon/bdkrc02/v98e/188.6/bdkrc02_eemm_188.6_41482.xsdst ! RUN = 41482 ! NEVT = 7000
FILE = /castor/cern.ch/delphi/MCprod/lyon/bdkrc02/v98e/188.6/bdkrc02_eemm_188.6_41483.xsdst ! RUN = 41483 ! NEVT = 7000
FILE = /castor/cern.ch/delphi/MCprod/lyon/bdkrc02/v98e/188.6/bdkrc02_eemm_188.6_41484.xsdst ! RUN = 41484 ! NEVT = 7000
FILE = /castor/cern.ch/delphi/MCprod/lyon/bdkrc02/v98e/188.6/bdkrc02_eemm_188.6_41485.xsdst ! RUN = 41485 ! NEVT = 7000
FILE = /castor/cern.ch/delphi/MCprod/lyon/bdkrc02/v98e/188.6/bdkrc02_eemm_188.6_41486.xsdst ! RUN = 41486 ! NEVT = 7000
FILE = /castor/cern.ch/delphi/MCprod/lyon/bdkrc02/v98e/188.6/bdkrc02_eemm_188.6_41487.xsdst ! RUN = 41487 ! NEVT = 7000
FILE = /castor/cern.ch/delphi/MCprod/lyon/bdkrc02/v98e/188.6/bdkrc02_eemm_188.6_41488.xsdst ! RUN = 41488 ! NEVT = 7000
FILE = /castor/cern.ch/delphi/MCprod/lyon/bdkrc02/v98e/188.6/bdkrc02_eemm_188.6_41489.xsdst ! RUN = 41489 ! NEVT = 7000
FILE = /castor/cern.ch/delphi/MCprod/lyon/bdkrc02/v98e/188.6/bdkrc02_eemm_188.6_41490.xsdst ! RUN = 41490 ! NEVT = 7000
FILE = /castor/cern.ch/delphi/MCprod/lyon/bdkrc02/v98e/188.6/bdkrc02_eemm_188.6_41491.xsdst ! RUN = 41491 ! NEVT = 7000
FILE = /castor/cern.ch/delphi/MCprod/lyon/bdkrc02/v98e/188.6/bdkrc02_eemm_188.6_41492.xsdst ! RUN = 41492 ! NEVT = 7000
FILE = /castor/cern.ch/delphi/MCprod/lyon/bdkrc02/v98e/188.6/bdkrc02_eemm_188.6_41493.xsdst ! RUN = 41493 ! NEVT = 7000
FILE = /castor/cern.ch/delphi/MCprod/lyon/bdkrc02/v98e/188.6/bdkrc02_eemm_188.6_41494.xsdst ! RUN = 41494 ! NEVT = 7000
FILE = /castor/cern.ch/delphi/MCprod/lyon/bdkrc02/v98e/188.6/bdkrc02_eemm_188.6_41495.xsdst ! RUN = 41495 ! NEVT = 7000
FILE = /castor/cern.ch/delphi/MCprod/lyon/bdkrc02/v98e/188.6/bdkrc02_eemm_188.6_41496.xsdst ! RUN = 41496 ! NEVT = 7000
FILE = /castor/cern.ch/delphi/MCprod/lyon/bdkrc02/v98e/188.6/bdkrc02_eemm_188.6_41497.xsdst ! RUN = 41497 ! NEVT = 7000
FILE = /castor/cern.ch/delphi/MCprod/lyon/bdkrc02/v98e/188.6/bdkrc02_eemm_188.6_41498.xsdst ! RUN = 41498 ! NEVT = 7000
FILE = /castor/cern.ch/delphi/MCprod/lyon/bdkrc02/v98e/188.6/bdkrc02_eemm_188.6_41499.xsdst ! RUN = 41499 ! NEVT = 7000
FILE = /castor/cern.ch/delphi/MCprod/lyon/bdkrc02/v98e/188.6/bdkrc02_eemm_188.6_41500.xsdst ! RUN = 41500 ! NEVT = 7000
FILE = /castor/cern.ch/delphi/MCprod/lyon/bdkrc02/v98e/188.6/bdkrc02_eemm_188.6_41501.xsdst ! RUN = 41501 ! NEVT = 7000
FILE = /castor/cern.ch/delphi/MCprod/lyon/bdkrc02/v98e/188.6/bdkrc02_eemm_188.6_41502.xsdst ! RUN = 41502 ! NEVT = 7000
FILE = /castor/cern.ch/delphi/MCprod/lyon/bdkrc02/v98e/188.6/bdkrc02_eemm_188.6_41503.xsdst ! RUN = 41503 ! NEVT = 7000
FILE = /castor/cern.ch/delphi/MCprod/lyon/bdkrc02/v98e/188.6/bdkrc02_eemm_188.6_41504.xsdst ! RUN = 41504 ! NEVT = 7000
FILE = /castor/cern.ch/delphi/MCprod/lyon/bdkrc02/v98e/188.6/bdkrc02_eemm_188.6_41505.xsdst ! RUN = 41505 ! NEVT = 7000
FILE = /castor/cern.ch/delphi/MCprod/lyon/bdkrc02/v98e/188.6/bdkrc02_eemm_188.6_41506.xsdst ! RUN = 41506 ! NEVT = 7000
FILE = /castor/cern.ch/delphi/MCprod/lyon/bdkrc02/v98e/188.6/bdkrc02_eemm_188.6_41507.xsdst ! RUN = 41507 ! NEVT = 7000
FILE = /castor/cern.ch/delphi/MCprod/lyon/bdkrc02/v98e/188.6/bdkrc02_eemm_188.6_41508.xsdst ! RUN = 41508 ! NEVT = 7000
FILE = /castor/cern.ch/delphi/MCprod/lyon/bdkrc02/v98e/188.6/bdkrc02_eemm_188.6_41509.xsdst ! RUN = 41509 ! NEVT = 7000
FILE = /castor/cern.ch/delphi/MCprod/lyon/bdkrc02/v98e/188.6/bdkrc02_eemm_188.6_41510.xsdst ! RUN = 41510 ! NEVT = 7000
FILE = /castor/cern.ch/delphi/MCprod/lyon/bdkrc02/v98e/188.6/bdkrc02_eemm_188.6_41511.xsdst ! RUN = 41511 ! NEVT = 7000
FILE = /castor/cern.ch/delphi/MCprod/lyon/bdkrc02/v98e/188.6/bdkrc02_eemm_188.6_41512.xsdst ! RUN = 41512 ! NEVT = 7000
FILE = /castor/cern.ch/delphi/MCprod/lyon/bdkrc02/v98e/188.6/bdkrc02_eemm_188.6_41513.xsdst ! RUN = 41513 ! NEVT = 7000
FILE = /castor/cern.ch/delphi/MCprod/lyon/bdkrc02/v98e/188.6/bdkrc02_eemm_188.6_41514.xsdst ! RUN = 41514 ! NEVT = 7000
FILE = /castor/cern.ch/delphi/MCprod/lyon/bdkrc02/v98e/188.6/bdkrc02_eemm_188.6_41515.xsdst ! RUN = 41515 ! NEVT = 7000
FILE = /castor/cern.ch/delphi/MCprod/lyon/bdkrc02/v98e/188.6/bdkrc02_eemm_188.6_41516.xsdst ! RUN = 41516 ! NEVT = 7000
FILE = /castor/cern.ch/delphi/MCprod/lyon/bdkrc02/v98e/188.6/bdkrc02_eemm_188.6_41517.xsdst ! RUN = 41517 ! NEVT = 7000
FILE = /castor/cern.ch/delphi/MCprod/lyon/bdkrc02/v98e/188.6/bdkrc02_eemm_188.6_41518.xsdst ! RUN = 41518 ! NEVT = 7000
FILE = /castor/cern.ch/delphi/MCprod/lyon/bdkrc02/v98e/188.6/bdkrc02_eemm_188.6_41519.xsdst ! RUN = 41519 ! NEVT = 7000
FILE = /castor/cern.ch/delphi/MCprod/lyon/bdkrc02/v98e/188.6/bdkrc02_eemm_188.6_41520.xsdst ! RUN = 41520 ! NEVT = 7000
FILE = /castor/cern.ch/delphi/MCprod/lyon/bdkrc02/v98e/188.6/bdkrc02_eemm_188.6_41521.xsdst ! RUN = 41521 ! NEVT = 7000
FILE = /castor/cern.ch/delphi/MCprod/lyon/bdkrc02/v98e/188.6/bdkrc02_eemm_188.6_41522.xsdst ! RUN = 41522 ! NEVT = 7000
FILE = /castor/cern.ch/delphi/MCprod/lyon/bdkrc02/v98e/188.6/bdkrc02_eemm_188.6_41523.xsdst ! RUN = 41523 ! NEVT = 7000
FILE = /castor/cern.ch/delphi/MCprod/lyon/bdkrc02/v98e/188.6/bdkrc02_eemm_188.6_41524.xsdst ! RUN = 41524 ! NEVT = 7000
FILE = /castor/cern.ch/delphi/MCprod/lyon/bdkrc02/v98e/188.6/bdkrc02_eemm_188.6_41525.xsdst ! RUN = 41525 ! NEVT = 7000
FILE = /castor/cern.ch/delphi/MCprod/lyon/bdkrc02/v98e/188.6/bdkrc02_eemm_188.6_41538.xsdst ! RUN = 41538 ! NEVT = 7000
FILE = /castor/cern.ch/delphi/MCprod/lyon/bdkrc02/v98e/188.6/bdkrc02_eemm_188.6_41540.xsdst ! RUN = 41540 ! NEVT = 7000
FILE = /castor/cern.ch/delphi/MCprod/lyon/bdkrc02/v98e/188.6/bdkrc02_eemm_188.6_41548.xsdst ! RUN = 41548 ! NEVT = 7000
FILE = /castor/cern.ch/delphi/MCprod/lyon/bdkrc02/v98e/188.6/bdkrc02_eemm_188.6_41551.xsdst ! RUN = 41551 ! NEVT = 7000
FILE = /castor/cern.ch/delphi/MCprod/lyon/bdkrc02/v98e/188.6/bdkrc02_eemm_188.6_41553.xsdst ! RUN = 41553 ! NEVT = 7000
FILE = /castor/cern.ch/delphi/MCprod/lyon/bdkrc02/v98e/188.6/bdkrc02_eemm_188.6_41555.xsdst ! RUN = 41555 ! NEVT = 7000
FILE = /castor/cern.ch/delphi/MCprod/lyon/bdkrc02/v98e/188.6/bdkrc02_eemm_188.6_41558.xsdst ! RUN = 41558 ! NEVT = 7000
FILE = /castor/cern.ch/delphi/MCprod/lyon/bdkrc02/v98e/188.6/bdkrc02_eemm_188.6_41564.xsdst ! RUN = 41564 ! NEVT = 7000
FILE = /castor/cern.ch/delphi/MCprod/lyon/bdkrc02/v98e/188.6/bdkrc02_eemm_188.6_41566.xsdst ! RUN = 41566 ! NEVT = 7000
FILE = /castor/cern.ch/delphi/MCprod/lyon/bdkrc02/v98e/188.6/bdkrc02_eemm_188.6_41568.xsdst ! RUN = 41568 ! NEVT = 7000
FILE = /castor/cern.ch/delphi/MCprod/lyon/bdkrc02/v98e/188.6/bdkrc02_eemm_188.6_41572.xsdst ! RUN = 41572 ! NEVT = 7000
FILE = /castor/cern.ch/delphi/MCprod/lyon/bdkrc02/v98e/188.6/bdkrc02_eemm_188.6_41575.xsdst ! RUN = 41575 ! NEVT = 7000
FILE = /castor/cern.ch/delphi/MCprod/lyon/bdkrc02/v98e/188.6/bdkrc02_eemm_188.6_41577.xsdst ! RUN = 41577 ! NEVT = 7000
FILE = /castor/cern.ch/delphi/MCprod/lyon/bdkrc02/v98e/188.6/bdkrc02_eemm_188.6_41578.xsdst ! RUN = 41578 ! NEVT = 7000
FILE = /castor/cern.ch/delphi/MCprod/lyon/bdkrc02/v98e/188.6/bdkrc02_eemm_188.6_41579.xsdst ! RUN = 41579 ! NEVT = 7000
FILE = /castor/cern.ch/delphi/MCprod/lyon/bdkrc02/v98e/188.6/bdkrc02_eemm_188.6_41580.xsdst ! RUN = 41580 ! NEVT = 7000
FILE = /castor/cern.ch/delphi/MCprod/lyon/bdkrc02/v98e/188.6/bdkrc02_eemm_188.6_41581.xsdst ! RUN = 41581 ! NEVT = 7000
FILE = /castor/cern.ch/delphi/MCprod/lyon/bdkrc02/v98e/188.6/bdkrc02_eemm_188.6_41582.xsdst ! RUN = 41582 ! NEVT = 7000
FILE = /castor/cern.ch/delphi/MCprod/lyon/bdkrc02/v98e/188.6/bdkrc02_eemm_188.6_41583.xsdst ! RUN = 41583 ! NEVT = 7000
FILE = /castor/cern.ch/delphi/MCprod/lyon/bdkrc02/v98e/188.6/bdkrc02_eemm_188.6_41584.xsdst ! RUN = 41584 ! NEVT = 7000
FILE = /castor/cern.ch/delphi/MCprod/lyon/bdkrc02/v98e/188.6/bdkrc02_eemm_188.6_41585.xsdst ! RUN = 41585 ! NEVT = 7000
FILE = /castor/cern.ch/delphi/MCprod/lyon/bdkrc02/v98e/188.6/bdkrc02_eemm_188.6_41586.xsdst ! RUN = 41586 ! NEVT = 7000
FILE = /castor/cern.ch/delphi/MCprod/lyon/bdkrc02/v98e/188.6/bdkrc02_eemm_188.6_41587.xsdst ! RUN = 41587 ! NEVT = 7000
FILE = /castor/cern.ch/delphi/MCprod/lyon/bdkrc02/v98e/188.6/bdkrc02_eemm_188.6_41588.xsdst ! RUN = 41588 ! NEVT = 7000
FILE = /castor/cern.ch/delphi/MCprod/lyon/bdkrc02/v98e/188.6/bdkrc02_eemm_188.6_41589.xsdst ! RUN = 41589 ! NEVT = 7000
FILE = /castor/cern.ch/delphi/MCprod/lyon/bdkrc02/v98e/188.6/bdkrc02_eemm_188.6_41590.xsdst ! RUN = 41590 ! NEVT = 7000
FILE = /castor/cern.ch/delphi/MCprod/lyon/bdkrc02/v98e/188.6/bdkrc02_eemm_188.6_41591.xsdst ! RUN = 41591 ! NEVT = 7000
FILE = /castor/cern.ch/delphi/MCprod/lyon/bdkrc02/v98e/188.6/bdkrc02_eemm_188.6_41592.xsdst ! RUN = 41592 ! NEVT = 7000
FILE = /castor/cern.ch/delphi/MCprod/lyon/bdkrc02/v98e/188.6/bdkrc02_eemm_188.6_41593.xsdst ! RUN = 41593 ! NEVT = 7000
FILE = /castor/cern.ch/delphi/MCprod/lyon/bdkrc02/v98e/188.6/bdkrc02_eemm_188.6_41594.xsdst ! RUN = 41594 ! NEVT = 336
FILE = /castor/cern.ch/delphi/MCprod/lyon/bdkrc02/v98e/188.6/bdkrc02_eemm_188.6_41610.xsdst ! RUN = 41610 ! NEVT = 7000
FILE = /castor/cern.ch/delphi/MCprod/lyon/bdkrc02/v98e/188.6/bdkrc02_eemm_188.6_41611.xsdst ! RUN = 41611 ! NEVT = 7000
FILE = /castor/cern.ch/delphi/MCprod/lyon/bdkrc02/v98e/188.6/bdkrc02_eemm_188.6_41612.xsdst ! RUN = 41612 ! NEVT = 7000
FILE = /castor/cern.ch/delphi/MCprod/lyon/bdkrc02/v98e/188.6/bdkrc02_eemm_188.6_41613.xsdst ! RUN = 41613 ! NEVT = 7000
FILE = /castor/cern.ch/delphi/MCprod/lyon/bdkrc02/v98e/188.6/bdkrc02_eemm_188.6_41614.xsdst ! RUN = 41614 ! NEVT = 7000
FILE = /castor/cern.ch/delphi/MCprod/lyon/bdkrc02/v98e/188.6/bdkrc02_eemm_188.6_41615.xsdst ! RUN = 41615 ! NEVT = 7000
FILE = /castor/cern.ch/delphi/MCprod/lyon/bdkrc02/v98e/188.6/bdkrc02_eemm_188.6_41616.xsdst ! RUN = 41616 ! NEVT = 7000
FILE = /castor/cern.ch/delphi/MCprod/lyon/bdkrc02/v98e/188.6/bdkrc02_eemm_188.6_41617.xsdst ! RUN = 41617 ! NEVT = 7000
FILE = /castor/cern.ch/delphi/MCprod/lyon/bdkrc02/v98e/188.6/bdkrc02_eemm_188.6_41618.xsdst ! RUN = 41618 ! NEVT = 7000
FILE = /castor/cern.ch/delphi/MCprod/lyon/bdkrc02/v98e/188.6/bdkrc02_eemm_188.6_41619.xsdst ! RUN = 41619 ! NEVT = 7000
FILE = /castor/cern.ch/delphi/MCprod/lyon/bdkrc02/v98e/188.6/bdkrc02_eemm_188.6_41620.xsdst ! RUN = 41620 ! NEVT = 7000
FILE = /castor/cern.ch/delphi/MCprod/lyon/bdkrc02/v98e/188.6/bdkrc02_eemm_188.6_41661.xsdst ! RUN = 41661 ! NEVT = 7000
FILE = /castor/cern.ch/delphi/MCprod/lyon/bdkrc02/v98e/188.6/bdkrc02_eemm_188.6_41662.xsdst ! RUN = 41662 ! NEVT = 7000
FILE = /castor/cern.ch/delphi/MCprod/lyon/bdkrc02/v98e/188.6/bdkrc02_eemm_188.6_41663.xsdst ! RUN = 41663 ! NEVT = 7000
FILE = /castor/cern.ch/delphi/MCprod/lyon/bdkrc02/v98e/188.6/bdkrc02_eemm_188.6_41664.xsdst ! RUN = 41664 ! NEVT = 7000
FILE = /castor/cern.ch/delphi/MCprod/lyon/bdkrc02/v98e/188.6/bdkrc02_eemm_188.6_41666.xsdst ! RUN = 41666 ! NEVT = 7000
FILE = /castor/cern.ch/delphi/MCprod/lyon/bdkrc02/v98e/188.6/bdkrc02_eemm_188.6_41667.xsdst ! RUN = 41667 ! NEVT = 7000
FILE = /castor/cern.ch/delphi/MCprod/lyon/bdkrc02/v98e/188.6/bdkrc02_eemm_188.6_41669.xsdst ! RUN = 41669 ! NEVT = 7000
FILE = /castor/cern.ch/delphi/MCprod/lyon/bdkrc02/v98e/188.6/bdkrc02_eemm_188.6_41671.xsdst ! RUN = 41671 ! NEVT = 7000
FILE = /castor/cern.ch/delphi/MCprod/lyon/bdkrc02/v98e/188.6/bdkrc02_eemm_188.6_41672.xsdst ! RUN = 41672 ! NEVT = 7000
FILE = /castor/cern.ch/delphi/MCprod/lyon/bdkrc02/v98e/188.6/bdkrc02_eemm_188.6_41673.xsdst ! RUN = 41673 ! NEVT = 7000
FILE = /castor/cern.ch/delphi/MCprod/lyon/bdkrc02/v98e/188.6/bdkrc02_eemm_188.6_41674.xsdst ! RUN = 41674 ! NEVT = 7000
FILE = /castor/cern.ch/delphi/MCprod/lyon/bdkrc02/v98e/188.6/bdkrc02_eemm_188.6_41675.xsdst ! RUN = 41675 ! NEVT = 7000
FILE = /castor/cern.ch/delphi/MCprod/lyon/bdkrc02/v98e/188.6/bdkrc02_eemm_188.6_41676.xsdst ! RUN = 41676 ! NEVT = 7000
FILE = /castor/cern.ch/delphi/MCprod/lyon/bdkrc02/v98e/188.6/bdkrc02_eemm_188.6_41677.xsdst ! RUN = 41677 ! NEVT = 7000
FILE = /castor/cern.ch/delphi/MCprod/lyon/bdkrc02/v98e/188.6/bdkrc02_eemm_188.6_41679.xsdst ! RUN = 41679 ! NEVT = 7000
FILE = /castor/cern.ch/delphi/MCprod/lyon/bdkrc02/v98e/188.6/bdkrc02_eemm_188.6_41680.xsdst ! RUN = 41680 ! NEVT = 7000
FILE = /castor/cern.ch/delphi/MCprod/lyon/bdkrc02/v98e/188.6/bdkrc02_eemm_188.6_41681.xsdst ! RUN = 41681 ! NEVT = 7000
FILE = /castor/cern.ch/delphi/MCprod/lyon/bdkrc02/v98e/188.6/bdkrc02_eemm_188.6_41682.xsdst ! RUN = 41682 ! NEVT = 7000
FILE = /castor/cern.ch/delphi/MCprod/lyon/bdkrc02/v98e/188.6/bdkrc02_eemm_188.6_41683.xsdst ! RUN = 41683 ! NEVT = 7000
FILE = /castor/cern.ch/delphi/MCprod/lyon/bdkrc02/v98e/188.6/bdkrc02_eemm_188.6_41684.xsdst ! RUN = 41684 ! NEVT = 7000
FILE = /castor/cern.ch/delphi/MCprod/lyon/bdkrc02/v98e/188.6/bdkrc02_eemm_188.6_41685.xsdst ! RUN = 41685 ! NEVT = 7000
FILE = /castor/cern.ch/delphi/MCprod/lyon/bdkrc02/v98e/188.6/bdkrc02_eemm_188.6_41686.xsdst ! RUN = 41686 ! NEVT = 7000
FILE = /castor/cern.ch/delphi/MCprod/lyon/bdkrc02/v98e/188.6/bdkrc02_eemm_188.6_41687.xsdst ! RUN = 41687 ! NEVT = 7000
FILE = /castor/cern.ch/delphi/MCprod/lyon/bdkrc02/v98e/188.6/bdkrc02_eemm_188.6_41688.xsdst ! RUN = 41688 ! NEVT = 7000
FILE = /castor/cern.ch/delphi/MCprod/lyon/bdkrc02/v98e/188.6/bdkrc02_eemm_188.6_41689.xsdst ! RUN = 41689 ! NEVT = 7000
FILE = /castor/cern.ch/delphi/MCprod/lyon/bdkrc02/v98e/188.6/bdkrc02_eemm_188.6_41690.xsdst ! RUN = 41690 ! NEVT = 7000
FILE = /castor/cern.ch/delphi/MCprod/lyon/bdkrc02/v98e/188.6/bdkrc02_eemm_188.6_41691.xsdst ! RUN = 41691 ! NEVT = 7000
FILE = /castor/cern.ch/delphi/MCprod/lyon/bdkrc02/v98e/188.6/bdkrc02_eemm_188.6_41692.xsdst ! RUN = 41692 ! NEVT = 7000
FILE = /castor/cern.ch/delphi/MCprod/lyon/bdkrc02/v98e/188.6/bdkrc02_eemm_188.6_41693.xsdst ! RUN = 41693 ! NEVT = 7000
FILE = /castor/cern.ch/delphi/MCprod/lyon/bdkrc02/v98e/188.6/bdkrc02_eemm_188.6_41694.xsdst ! RUN = 41694 ! NEVT = 7000
FILE = /castor/cern.ch/delphi/MCprod/lyon/bdkrc02/v98e/188.6/bdkrc02_eemm_188.6_41695.xsdst ! RUN = 41695 ! NEVT = 7000
FILE = /castor/cern.ch/delphi/MCprod/lyon/bdkrc02/v98e/188.6/bdkrc02_eemm_188.6_41696.xsdst ! RUN = 41696 ! NEVT = 7000
FILE = /castor/cern.ch/delphi/MCprod/lyon/bdkrc02/v98e/188.6/bdkrc02_eemm_188.6_41697.xsdst ! RUN = 41697 ! NEVT = 7000
FILE = /castor/cern.ch/delphi/MCprod/lyon/bdkrc02/v98e/188.6/bdkrc02_eemm_188.6_41698.xsdst ! RUN = 41698 ! NEVT = 7000
FILE = /castor/cern.ch/delphi/MCprod/lyon/bdkrc02/v98e/188.6/bdkrc02_eemm_188.6_41699.xsdst ! RUN = 41699 ! NEVT = 7000
FILE = /castor/cern.ch/delphi/MCprod/lyon/bdkrc02/v98e/188.6/bdkrc02_eemm_188.6_41700.xsdst ! RUN = 41700 ! NEVT = 7000
