*
*   Nickname     : xs_bdkeeeelt1gev_e188.6_c98_1l_e1
*   Generic Name : //CERN/DELPHI/P02_SIMD/XSDST/BDKEEEELT1GEV/E188.6/CERN/SUMT/C001-30
*   Description  :  Extended Short DST simulation 98_e1 done at ecms=188.6 , CERN
*---
*   Comments     : in total 145662 events in 30 files time stamp: Fri Feb  8 01:22:05 2002
*---
*
*
*
*
*
FILE = /castor/cern.ch/delphi/MCprod/cern/bdk/v98e/188.6/bdk_eeee_lt1gev_e188.6_60211.xsdst ! RUN = 60211 ! NEVT = 5000
FILE = /castor/cern.ch/delphi/MCprod/cern/bdk/v98e/188.6/bdk_eeee_lt1gev_e188.6_60212.xsdst ! RUN = 60212 ! NEVT = 5000
FILE = /castor/cern.ch/delphi/MCprod/cern/bdk/v98e/188.6/bdk_eeee_lt1gev_e188.6_60213.xsdst ! RUN = 60213 ! NEVT = 5000
FILE = /castor/cern.ch/delphi/MCprod/cern/bdk/v98e/188.6/bdk_eeee_lt1gev_e188.6_60214.xsdst ! RUN = 60214 ! NEVT = 5000
FILE = /castor/cern.ch/delphi/MCprod/cern/bdk/v98e/188.6/bdk_eeee_lt1gev_e188.6_60215.xsdst ! RUN = 60215 ! NEVT = 5000
FILE = /castor/cern.ch/delphi/MCprod/cern/bdk/v98e/188.6/bdk_eeee_lt1gev_e188.6_60216.xsdst ! RUN = 60216 ! NEVT = 5000
FILE = /castor/cern.ch/delphi/MCprod/cern/bdk/v98e/188.6/bdk_eeee_lt1gev_e188.6_60217.xsdst ! RUN = 60217 ! NEVT = 5000
FILE = /castor/cern.ch/delphi/MCprod/cern/bdk/v98e/188.6/bdk_eeee_lt1gev_e188.6_60218.xsdst ! RUN = 60218 ! NEVT = 5000
FILE = /castor/cern.ch/delphi/MCprod/cern/bdk/v98e/188.6/bdk_eeee_lt1gev_e188.6_60219.xsdst ! RUN = 60219 ! NEVT = 4468
FILE = /castor/cern.ch/delphi/MCprod/cern/bdk/v98e/188.6/bdk_eeee_lt1gev_e188.6_60220.xsdst ! RUN = 60220 ! NEVT = 5000
FILE = /castor/cern.ch/delphi/MCprod/cern/bdk/v98e/188.6/bdk_eeee_lt1gev_e188.6_60221.xsdst ! RUN = 60221 ! NEVT = 5000
FILE = /castor/cern.ch/delphi/MCprod/cern/bdk/v98e/188.6/bdk_eeee_lt1gev_e188.6_60222.xsdst ! RUN = 60222 ! NEVT = 5000
FILE = /castor/cern.ch/delphi/MCprod/cern/bdk/v98e/188.6/bdk_eeee_lt1gev_e188.6_60223.xsdst ! RUN = 60223 ! NEVT = 5000
FILE = /castor/cern.ch/delphi/MCprod/cern/bdk/v98e/188.6/bdk_eeee_lt1gev_e188.6_60224.xsdst ! RUN = 60224 ! NEVT = 5000
FILE = /castor/cern.ch/delphi/MCprod/cern/bdk/v98e/188.6/bdk_eeee_lt1gev_e188.6_60225.xsdst ! RUN = 60225 ! NEVT = 5000
FILE = /castor/cern.ch/delphi/MCprod/cern/bdk/v98e/188.6/bdk_eeee_lt1gev_e188.6_60226.xsdst ! RUN = 60226 ! NEVT = 5000
FILE = /castor/cern.ch/delphi/MCprod/cern/bdk/v98e/188.6/bdk_eeee_lt1gev_e188.6_60227.xsdst ! RUN = 60227 ! NEVT = 5000
FILE = /castor/cern.ch/delphi/MCprod/cern/bdk/v98e/188.6/bdk_eeee_lt1gev_e188.6_60228.xsdst ! RUN = 60228 ! NEVT = 5000
FILE = /castor/cern.ch/delphi/MCprod/cern/bdk/v98e/188.6/bdk_eeee_lt1gev_e188.6_60229.xsdst ! RUN = 60229 ! NEVT = 5000
FILE = /castor/cern.ch/delphi/MCprod/cern/bdk/v98e/188.6/bdk_eeee_lt1gev_e188.6_60230.xsdst ! RUN = 60230 ! NEVT = 5000
FILE = /castor/cern.ch/delphi/MCprod/cern/bdk/v98e/188.6/bdk_eeee_lt1gev_e188.6_60231.xsdst ! RUN = 60231 ! NEVT = 5000
FILE = /castor/cern.ch/delphi/MCprod/cern/bdk/v98e/188.6/bdk_eeee_lt1gev_e188.6_60232.xsdst ! RUN = 60232 ! NEVT = 5000
FILE = /castor/cern.ch/delphi/MCprod/cern/bdk/v98e/188.6/bdk_eeee_lt1gev_e188.6_60233.xsdst ! RUN = 60233 ! NEVT = 5000
FILE = /castor/cern.ch/delphi/MCprod/cern/bdk/v98e/188.6/bdk_eeee_lt1gev_e188.6_60234.xsdst ! RUN = 60234 ! NEVT = 5000
FILE = /castor/cern.ch/delphi/MCprod/cern/bdk/v98e/188.6/bdk_eeee_lt1gev_e188.6_60235.xsdst ! RUN = 60235 ! NEVT = 5000
FILE = /castor/cern.ch/delphi/MCprod/cern/bdk/v98e/188.6/bdk_eeee_lt1gev_e188.6_60236.xsdst ! RUN = 60236 ! NEVT = 5000
FILE = /castor/cern.ch/delphi/MCprod/cern/bdk/v98e/188.6/bdk_eeee_lt1gev_e188.6_60237.xsdst ! RUN = 60237 ! NEVT = 5000
FILE = /castor/cern.ch/delphi/MCprod/cern/bdk/v98e/188.6/bdk_eeee_lt1gev_e188.6_60238.xsdst ! RUN = 60238 ! NEVT = 5000
FILE = /castor/cern.ch/delphi/MCprod/cern/bdk/v98e/188.6/bdk_eeee_lt1gev_e188.6_60239.xsdst ! RUN = 60239 ! NEVT = 5000
FILE = /castor/cern.ch/delphi/MCprod/cern/bdk/v98e/188.6/bdk_eeee_lt1gev_e188.6_60240.xsdst ! RUN = 60240 ! NEVT = 1194
