*
*   Nickname     : xs_bdk01eeee_e188.6_r98_1l_e1
*   Generic Name : //CERN/DELPHI/P02_SIMD/XSDST/BDK01EEEE/E188.6/RAL/SUMT/C001-250
*   Description  :  Extended Short DST simulation 98_e1 done at ecms=188.6 , RAL
*---
*   Comments     : in total 499999 events in 250 files time stamp: Thu Oct 25 18:11:13 2001
*---
*
*
*
*
*
FILE = /castor/cern.ch/delphi/MCprod/ral/bdk01/v98e/188.6/bdk01_eeee_188.6_41001.xsdst ! RUN = 41001 ! NEVT = 2000
FILE = /castor/cern.ch/delphi/MCprod/ral/bdk01/v98e/188.6/bdk01_eeee_188.6_41002.xsdst ! RUN = 41002 ! NEVT = 2000
FILE = /castor/cern.ch/delphi/MCprod/ral/bdk01/v98e/188.6/bdk01_eeee_188.6_41003.xsdst ! RUN = 41003 ! NEVT = 2000
FILE = /castor/cern.ch/delphi/MCprod/ral/bdk01/v98e/188.6/bdk01_eeee_188.6_41004.xsdst ! RUN = 41004 ! NEVT = 2000
FILE = /castor/cern.ch/delphi/MCprod/ral/bdk01/v98e/188.6/bdk01_eeee_188.6_41005.xsdst ! RUN = 41005 ! NEVT = 2000
FILE = /castor/cern.ch/delphi/MCprod/ral/bdk01/v98e/188.6/bdk01_eeee_188.6_41006.xsdst ! RUN = 41006 ! NEVT = 2000
FILE = /castor/cern.ch/delphi/MCprod/ral/bdk01/v98e/188.6/bdk01_eeee_188.6_41007.xsdst ! RUN = 41007 ! NEVT = 2000
FILE = /castor/cern.ch/delphi/MCprod/ral/bdk01/v98e/188.6/bdk01_eeee_188.6_41008.xsdst ! RUN = 41008 ! NEVT = 2000
FILE = /castor/cern.ch/delphi/MCprod/ral/bdk01/v98e/188.6/bdk01_eeee_188.6_41009.xsdst ! RUN = 41009 ! NEVT = 2000
FILE = /castor/cern.ch/delphi/MCprod/ral/bdk01/v98e/188.6/bdk01_eeee_188.6_41010.xsdst ! RUN = 41010 ! NEVT = 2000
FILE = /castor/cern.ch/delphi/MCprod/ral/bdk01/v98e/188.6/bdk01_eeee_188.6_41011.xsdst ! RUN = 41011 ! NEVT = 2000
FILE = /castor/cern.ch/delphi/MCprod/ral/bdk01/v98e/188.6/bdk01_eeee_188.6_41012.xsdst ! RUN = 41012 ! NEVT = 2000
FILE = /castor/cern.ch/delphi/MCprod/ral/bdk01/v98e/188.6/bdk01_eeee_188.6_41013.xsdst ! RUN = 41013 ! NEVT = 2000
FILE = /castor/cern.ch/delphi/MCprod/ral/bdk01/v98e/188.6/bdk01_eeee_188.6_41014.xsdst ! RUN = 41014 ! NEVT = 2000
FILE = /castor/cern.ch/delphi/MCprod/ral/bdk01/v98e/188.6/bdk01_eeee_188.6_41015.xsdst ! RUN = 41015 ! NEVT = 2000
FILE = /castor/cern.ch/delphi/MCprod/ral/bdk01/v98e/188.6/bdk01_eeee_188.6_41016.xsdst ! RUN = 41016 ! NEVT = 2000
FILE = /castor/cern.ch/delphi/MCprod/ral/bdk01/v98e/188.6/bdk01_eeee_188.6_41017.xsdst ! RUN = 41017 ! NEVT = 2000
FILE = /castor/cern.ch/delphi/MCprod/ral/bdk01/v98e/188.6/bdk01_eeee_188.6_41018.xsdst ! RUN = 41018 ! NEVT = 2000
FILE = /castor/cern.ch/delphi/MCprod/ral/bdk01/v98e/188.6/bdk01_eeee_188.6_41019.xsdst ! RUN = 41019 ! NEVT = 2000
FILE = /castor/cern.ch/delphi/MCprod/ral/bdk01/v98e/188.6/bdk01_eeee_188.6_41020.xsdst ! RUN = 41020 ! NEVT = 2000
FILE = /castor/cern.ch/delphi/MCprod/ral/bdk01/v98e/188.6/bdk01_eeee_188.6_41021.xsdst ! RUN = 41021 ! NEVT = 2000
FILE = /castor/cern.ch/delphi/MCprod/ral/bdk01/v98e/188.6/bdk01_eeee_188.6_41022.xsdst ! RUN = 41022 ! NEVT = 2000
FILE = /castor/cern.ch/delphi/MCprod/ral/bdk01/v98e/188.6/bdk01_eeee_188.6_41023.xsdst ! RUN = 41023 ! NEVT = 2000
FILE = /castor/cern.ch/delphi/MCprod/ral/bdk01/v98e/188.6/bdk01_eeee_188.6_41024.xsdst ! RUN = 41024 ! NEVT = 2000
FILE = /castor/cern.ch/delphi/MCprod/ral/bdk01/v98e/188.6/bdk01_eeee_188.6_41025.xsdst ! RUN = 41025 ! NEVT = 1999
FILE = /castor/cern.ch/delphi/MCprod/ral/bdk01/v98e/188.6/bdk01_eeee_188.6_41026.xsdst ! RUN = 41026 ! NEVT = 2000
FILE = /castor/cern.ch/delphi/MCprod/ral/bdk01/v98e/188.6/bdk01_eeee_188.6_41027.xsdst ! RUN = 41027 ! NEVT = 2000
FILE = /castor/cern.ch/delphi/MCprod/ral/bdk01/v98e/188.6/bdk01_eeee_188.6_41028.xsdst ! RUN = 41028 ! NEVT = 2000
FILE = /castor/cern.ch/delphi/MCprod/ral/bdk01/v98e/188.6/bdk01_eeee_188.6_41029.xsdst ! RUN = 41029 ! NEVT = 2000
FILE = /castor/cern.ch/delphi/MCprod/ral/bdk01/v98e/188.6/bdk01_eeee_188.6_41030.xsdst ! RUN = 41030 ! NEVT = 2000
FILE = /castor/cern.ch/delphi/MCprod/ral/bdk01/v98e/188.6/bdk01_eeee_188.6_41031.xsdst ! RUN = 41031 ! NEVT = 2000
FILE = /castor/cern.ch/delphi/MCprod/ral/bdk01/v98e/188.6/bdk01_eeee_188.6_41032.xsdst ! RUN = 41032 ! NEVT = 2000
FILE = /castor/cern.ch/delphi/MCprod/ral/bdk01/v98e/188.6/bdk01_eeee_188.6_41033.xsdst ! RUN = 41033 ! NEVT = 2000
FILE = /castor/cern.ch/delphi/MCprod/ral/bdk01/v98e/188.6/bdk01_eeee_188.6_41034.xsdst ! RUN = 41034 ! NEVT = 2000
FILE = /castor/cern.ch/delphi/MCprod/ral/bdk01/v98e/188.6/bdk01_eeee_188.6_41035.xsdst ! RUN = 41035 ! NEVT = 2000
FILE = /castor/cern.ch/delphi/MCprod/ral/bdk01/v98e/188.6/bdk01_eeee_188.6_41036.xsdst ! RUN = 41036 ! NEVT = 2000
FILE = /castor/cern.ch/delphi/MCprod/ral/bdk01/v98e/188.6/bdk01_eeee_188.6_41037.xsdst ! RUN = 41037 ! NEVT = 2000
FILE = /castor/cern.ch/delphi/MCprod/ral/bdk01/v98e/188.6/bdk01_eeee_188.6_41038.xsdst ! RUN = 41038 ! NEVT = 2000
FILE = /castor/cern.ch/delphi/MCprod/ral/bdk01/v98e/188.6/bdk01_eeee_188.6_41039.xsdst ! RUN = 41039 ! NEVT = 2000
FILE = /castor/cern.ch/delphi/MCprod/ral/bdk01/v98e/188.6/bdk01_eeee_188.6_41040.xsdst ! RUN = 41040 ! NEVT = 2000
FILE = /castor/cern.ch/delphi/MCprod/ral/bdk01/v98e/188.6/bdk01_eeee_188.6_41041.xsdst ! RUN = 41041 ! NEVT = 2000
FILE = /castor/cern.ch/delphi/MCprod/ral/bdk01/v98e/188.6/bdk01_eeee_188.6_41042.xsdst ! RUN = 41042 ! NEVT = 2000
FILE = /castor/cern.ch/delphi/MCprod/ral/bdk01/v98e/188.6/bdk01_eeee_188.6_41043.xsdst ! RUN = 41043 ! NEVT = 2000
FILE = /castor/cern.ch/delphi/MCprod/ral/bdk01/v98e/188.6/bdk01_eeee_188.6_41044.xsdst ! RUN = 41044 ! NEVT = 2000
FILE = /castor/cern.ch/delphi/MCprod/ral/bdk01/v98e/188.6/bdk01_eeee_188.6_41045.xsdst ! RUN = 41045 ! NEVT = 2000
FILE = /castor/cern.ch/delphi/MCprod/ral/bdk01/v98e/188.6/bdk01_eeee_188.6_41046.xsdst ! RUN = 41046 ! NEVT = 2000
FILE = /castor/cern.ch/delphi/MCprod/ral/bdk01/v98e/188.6/bdk01_eeee_188.6_41047.xsdst ! RUN = 41047 ! NEVT = 2000
FILE = /castor/cern.ch/delphi/MCprod/ral/bdk01/v98e/188.6/bdk01_eeee_188.6_41048.xsdst ! RUN = 41048 ! NEVT = 2000
FILE = /castor/cern.ch/delphi/MCprod/ral/bdk01/v98e/188.6/bdk01_eeee_188.6_41049.xsdst ! RUN = 41049 ! NEVT = 2000
FILE = /castor/cern.ch/delphi/MCprod/ral/bdk01/v98e/188.6/bdk01_eeee_188.6_41050.xsdst ! RUN = 41050 ! NEVT = 2000
FILE = /castor/cern.ch/delphi/MCprod/ral/bdk01/v98e/188.6/bdk01_eeee_188.6_41051.xsdst ! RUN = 41051 ! NEVT = 2000
FILE = /castor/cern.ch/delphi/MCprod/ral/bdk01/v98e/188.6/bdk01_eeee_188.6_41052.xsdst ! RUN = 41052 ! NEVT = 2000
FILE = /castor/cern.ch/delphi/MCprod/ral/bdk01/v98e/188.6/bdk01_eeee_188.6_41053.xsdst ! RUN = 41053 ! NEVT = 2000
FILE = /castor/cern.ch/delphi/MCprod/ral/bdk01/v98e/188.6/bdk01_eeee_188.6_41054.xsdst ! RUN = 41054 ! NEVT = 2000
FILE = /castor/cern.ch/delphi/MCprod/ral/bdk01/v98e/188.6/bdk01_eeee_188.6_41055.xsdst ! RUN = 41055 ! NEVT = 2000
FILE = /castor/cern.ch/delphi/MCprod/ral/bdk01/v98e/188.6/bdk01_eeee_188.6_41056.xsdst ! RUN = 41056 ! NEVT = 2000
FILE = /castor/cern.ch/delphi/MCprod/ral/bdk01/v98e/188.6/bdk01_eeee_188.6_41057.xsdst ! RUN = 41057 ! NEVT = 2000
FILE = /castor/cern.ch/delphi/MCprod/ral/bdk01/v98e/188.6/bdk01_eeee_188.6_41058.xsdst ! RUN = 41058 ! NEVT = 2000
FILE = /castor/cern.ch/delphi/MCprod/ral/bdk01/v98e/188.6/bdk01_eeee_188.6_41059.xsdst ! RUN = 41059 ! NEVT = 2000
FILE = /castor/cern.ch/delphi/MCprod/ral/bdk01/v98e/188.6/bdk01_eeee_188.6_41060.xsdst ! RUN = 41060 ! NEVT = 2000
FILE = /castor/cern.ch/delphi/MCprod/ral/bdk01/v98e/188.6/bdk01_eeee_188.6_41061.xsdst ! RUN = 41061 ! NEVT = 2000
FILE = /castor/cern.ch/delphi/MCprod/ral/bdk01/v98e/188.6/bdk01_eeee_188.6_41062.xsdst ! RUN = 41062 ! NEVT = 2000
FILE = /castor/cern.ch/delphi/MCprod/ral/bdk01/v98e/188.6/bdk01_eeee_188.6_41063.xsdst ! RUN = 41063 ! NEVT = 2000
FILE = /castor/cern.ch/delphi/MCprod/ral/bdk01/v98e/188.6/bdk01_eeee_188.6_41064.xsdst ! RUN = 41064 ! NEVT = 2000
FILE = /castor/cern.ch/delphi/MCprod/ral/bdk01/v98e/188.6/bdk01_eeee_188.6_41065.xsdst ! RUN = 41065 ! NEVT = 2000
FILE = /castor/cern.ch/delphi/MCprod/ral/bdk01/v98e/188.6/bdk01_eeee_188.6_41066.xsdst ! RUN = 41066 ! NEVT = 2000
FILE = /castor/cern.ch/delphi/MCprod/ral/bdk01/v98e/188.6/bdk01_eeee_188.6_41067.xsdst ! RUN = 41067 ! NEVT = 2000
FILE = /castor/cern.ch/delphi/MCprod/ral/bdk01/v98e/188.6/bdk01_eeee_188.6_41068.xsdst ! RUN = 41068 ! NEVT = 2000
FILE = /castor/cern.ch/delphi/MCprod/ral/bdk01/v98e/188.6/bdk01_eeee_188.6_41069.xsdst ! RUN = 41069 ! NEVT = 2000
FILE = /castor/cern.ch/delphi/MCprod/ral/bdk01/v98e/188.6/bdk01_eeee_188.6_41070.xsdst ! RUN = 41070 ! NEVT = 2000
FILE = /castor/cern.ch/delphi/MCprod/ral/bdk01/v98e/188.6/bdk01_eeee_188.6_41071.xsdst ! RUN = 41071 ! NEVT = 2000
FILE = /castor/cern.ch/delphi/MCprod/ral/bdk01/v98e/188.6/bdk01_eeee_188.6_41072.xsdst ! RUN = 41072 ! NEVT = 2000
FILE = /castor/cern.ch/delphi/MCprod/ral/bdk01/v98e/188.6/bdk01_eeee_188.6_41073.xsdst ! RUN = 41073 ! NEVT = 2000
FILE = /castor/cern.ch/delphi/MCprod/ral/bdk01/v98e/188.6/bdk01_eeee_188.6_41074.xsdst ! RUN = 41074 ! NEVT = 2000
FILE = /castor/cern.ch/delphi/MCprod/ral/bdk01/v98e/188.6/bdk01_eeee_188.6_41075.xsdst ! RUN = 41075 ! NEVT = 2000
FILE = /castor/cern.ch/delphi/MCprod/ral/bdk01/v98e/188.6/bdk01_eeee_188.6_41076.xsdst ! RUN = 41076 ! NEVT = 2000
FILE = /castor/cern.ch/delphi/MCprod/ral/bdk01/v98e/188.6/bdk01_eeee_188.6_41077.xsdst ! RUN = 41077 ! NEVT = 2000
FILE = /castor/cern.ch/delphi/MCprod/ral/bdk01/v98e/188.6/bdk01_eeee_188.6_41078.xsdst ! RUN = 41078 ! NEVT = 2000
FILE = /castor/cern.ch/delphi/MCprod/ral/bdk01/v98e/188.6/bdk01_eeee_188.6_41079.xsdst ! RUN = 41079 ! NEVT = 2000
FILE = /castor/cern.ch/delphi/MCprod/ral/bdk01/v98e/188.6/bdk01_eeee_188.6_41080.xsdst ! RUN = 41080 ! NEVT = 2000
FILE = /castor/cern.ch/delphi/MCprod/ral/bdk01/v98e/188.6/bdk01_eeee_188.6_41081.xsdst ! RUN = 41081 ! NEVT = 2000
FILE = /castor/cern.ch/delphi/MCprod/ral/bdk01/v98e/188.6/bdk01_eeee_188.6_41082.xsdst ! RUN = 41082 ! NEVT = 2000
FILE = /castor/cern.ch/delphi/MCprod/ral/bdk01/v98e/188.6/bdk01_eeee_188.6_41083.xsdst ! RUN = 41083 ! NEVT = 2000
FILE = /castor/cern.ch/delphi/MCprod/ral/bdk01/v98e/188.6/bdk01_eeee_188.6_41084.xsdst ! RUN = 41084 ! NEVT = 2000
FILE = /castor/cern.ch/delphi/MCprod/ral/bdk01/v98e/188.6/bdk01_eeee_188.6_41085.xsdst ! RUN = 41085 ! NEVT = 2000
FILE = /castor/cern.ch/delphi/MCprod/ral/bdk01/v98e/188.6/bdk01_eeee_188.6_41086.xsdst ! RUN = 41086 ! NEVT = 2000
FILE = /castor/cern.ch/delphi/MCprod/ral/bdk01/v98e/188.6/bdk01_eeee_188.6_41087.xsdst ! RUN = 41087 ! NEVT = 2000
FILE = /castor/cern.ch/delphi/MCprod/ral/bdk01/v98e/188.6/bdk01_eeee_188.6_41088.xsdst ! RUN = 41088 ! NEVT = 2000
FILE = /castor/cern.ch/delphi/MCprod/ral/bdk01/v98e/188.6/bdk01_eeee_188.6_41089.xsdst ! RUN = 41089 ! NEVT = 2000
FILE = /castor/cern.ch/delphi/MCprod/ral/bdk01/v98e/188.6/bdk01_eeee_188.6_41090.xsdst ! RUN = 41090 ! NEVT = 2000
FILE = /castor/cern.ch/delphi/MCprod/ral/bdk01/v98e/188.6/bdk01_eeee_188.6_41091.xsdst ! RUN = 41091 ! NEVT = 2000
FILE = /castor/cern.ch/delphi/MCprod/ral/bdk01/v98e/188.6/bdk01_eeee_188.6_41092.xsdst ! RUN = 41092 ! NEVT = 2000
FILE = /castor/cern.ch/delphi/MCprod/ral/bdk01/v98e/188.6/bdk01_eeee_188.6_41093.xsdst ! RUN = 41093 ! NEVT = 2000
FILE = /castor/cern.ch/delphi/MCprod/ral/bdk01/v98e/188.6/bdk01_eeee_188.6_41094.xsdst ! RUN = 41094 ! NEVT = 2000
FILE = /castor/cern.ch/delphi/MCprod/ral/bdk01/v98e/188.6/bdk01_eeee_188.6_41095.xsdst ! RUN = 41095 ! NEVT = 2000
FILE = /castor/cern.ch/delphi/MCprod/ral/bdk01/v98e/188.6/bdk01_eeee_188.6_41096.xsdst ! RUN = 41096 ! NEVT = 2000
FILE = /castor/cern.ch/delphi/MCprod/ral/bdk01/v98e/188.6/bdk01_eeee_188.6_41097.xsdst ! RUN = 41097 ! NEVT = 2000
FILE = /castor/cern.ch/delphi/MCprod/ral/bdk01/v98e/188.6/bdk01_eeee_188.6_41098.xsdst ! RUN = 41098 ! NEVT = 2000
FILE = /castor/cern.ch/delphi/MCprod/ral/bdk01/v98e/188.6/bdk01_eeee_188.6_41099.xsdst ! RUN = 41099 ! NEVT = 2000
FILE = /castor/cern.ch/delphi/MCprod/ral/bdk01/v98e/188.6/bdk01_eeee_188.6_41100.xsdst ! RUN = 41100 ! NEVT = 2000
FILE = /castor/cern.ch/delphi/MCprod/ral/bdk01/v98e/188.6/bdk01_eeee_188.6_41101.xsdst ! RUN = 41101 ! NEVT = 2000
FILE = /castor/cern.ch/delphi/MCprod/ral/bdk01/v98e/188.6/bdk01_eeee_188.6_41102.xsdst ! RUN = 41102 ! NEVT = 2000
FILE = /castor/cern.ch/delphi/MCprod/ral/bdk01/v98e/188.6/bdk01_eeee_188.6_41103.xsdst ! RUN = 41103 ! NEVT = 2000
FILE = /castor/cern.ch/delphi/MCprod/ral/bdk01/v98e/188.6/bdk01_eeee_188.6_41104.xsdst ! RUN = 41104 ! NEVT = 2000
FILE = /castor/cern.ch/delphi/MCprod/ral/bdk01/v98e/188.6/bdk01_eeee_188.6_41105.xsdst ! RUN = 41105 ! NEVT = 2000
FILE = /castor/cern.ch/delphi/MCprod/ral/bdk01/v98e/188.6/bdk01_eeee_188.6_41106.xsdst ! RUN = 41106 ! NEVT = 2000
FILE = /castor/cern.ch/delphi/MCprod/ral/bdk01/v98e/188.6/bdk01_eeee_188.6_41107.xsdst ! RUN = 41107 ! NEVT = 2000
FILE = /castor/cern.ch/delphi/MCprod/ral/bdk01/v98e/188.6/bdk01_eeee_188.6_41108.xsdst ! RUN = 41108 ! NEVT = 2000
FILE = /castor/cern.ch/delphi/MCprod/ral/bdk01/v98e/188.6/bdk01_eeee_188.6_41109.xsdst ! RUN = 41109 ! NEVT = 2000
FILE = /castor/cern.ch/delphi/MCprod/ral/bdk01/v98e/188.6/bdk01_eeee_188.6_41110.xsdst ! RUN = 41110 ! NEVT = 2000
FILE = /castor/cern.ch/delphi/MCprod/ral/bdk01/v98e/188.6/bdk01_eeee_188.6_41111.xsdst ! RUN = 41111 ! NEVT = 2000
FILE = /castor/cern.ch/delphi/MCprod/ral/bdk01/v98e/188.6/bdk01_eeee_188.6_41112.xsdst ! RUN = 41112 ! NEVT = 2000
FILE = /castor/cern.ch/delphi/MCprod/ral/bdk01/v98e/188.6/bdk01_eeee_188.6_41113.xsdst ! RUN = 41113 ! NEVT = 2000
FILE = /castor/cern.ch/delphi/MCprod/ral/bdk01/v98e/188.6/bdk01_eeee_188.6_41114.xsdst ! RUN = 41114 ! NEVT = 2000
FILE = /castor/cern.ch/delphi/MCprod/ral/bdk01/v98e/188.6/bdk01_eeee_188.6_41115.xsdst ! RUN = 41115 ! NEVT = 2000
FILE = /castor/cern.ch/delphi/MCprod/ral/bdk01/v98e/188.6/bdk01_eeee_188.6_41116.xsdst ! RUN = 41116 ! NEVT = 2000
FILE = /castor/cern.ch/delphi/MCprod/ral/bdk01/v98e/188.6/bdk01_eeee_188.6_41117.xsdst ! RUN = 41117 ! NEVT = 2000
FILE = /castor/cern.ch/delphi/MCprod/ral/bdk01/v98e/188.6/bdk01_eeee_188.6_41118.xsdst ! RUN = 41118 ! NEVT = 2000
FILE = /castor/cern.ch/delphi/MCprod/ral/bdk01/v98e/188.6/bdk01_eeee_188.6_41119.xsdst ! RUN = 41119 ! NEVT = 2000
FILE = /castor/cern.ch/delphi/MCprod/ral/bdk01/v98e/188.6/bdk01_eeee_188.6_41120.xsdst ! RUN = 41120 ! NEVT = 2000
FILE = /castor/cern.ch/delphi/MCprod/ral/bdk01/v98e/188.6/bdk01_eeee_188.6_41121.xsdst ! RUN = 41121 ! NEVT = 2000
FILE = /castor/cern.ch/delphi/MCprod/ral/bdk01/v98e/188.6/bdk01_eeee_188.6_41122.xsdst ! RUN = 41122 ! NEVT = 2000
FILE = /castor/cern.ch/delphi/MCprod/ral/bdk01/v98e/188.6/bdk01_eeee_188.6_41123.xsdst ! RUN = 41123 ! NEVT = 2000
FILE = /castor/cern.ch/delphi/MCprod/ral/bdk01/v98e/188.6/bdk01_eeee_188.6_41124.xsdst ! RUN = 41124 ! NEVT = 2000
FILE = /castor/cern.ch/delphi/MCprod/ral/bdk01/v98e/188.6/bdk01_eeee_188.6_41125.xsdst ! RUN = 41125 ! NEVT = 2000
FILE = /castor/cern.ch/delphi/MCprod/ral/bdk01/v98e/188.6/bdk01_eeee_188.6_41126.xsdst ! RUN = 41126 ! NEVT = 2000
FILE = /castor/cern.ch/delphi/MCprod/ral/bdk01/v98e/188.6/bdk01_eeee_188.6_41127.xsdst ! RUN = 41127 ! NEVT = 2000
FILE = /castor/cern.ch/delphi/MCprod/ral/bdk01/v98e/188.6/bdk01_eeee_188.6_41128.xsdst ! RUN = 41128 ! NEVT = 2000
FILE = /castor/cern.ch/delphi/MCprod/ral/bdk01/v98e/188.6/bdk01_eeee_188.6_41129.xsdst ! RUN = 41129 ! NEVT = 2000
FILE = /castor/cern.ch/delphi/MCprod/ral/bdk01/v98e/188.6/bdk01_eeee_188.6_41130.xsdst ! RUN = 41130 ! NEVT = 2000
FILE = /castor/cern.ch/delphi/MCprod/ral/bdk01/v98e/188.6/bdk01_eeee_188.6_41131.xsdst ! RUN = 41131 ! NEVT = 2000
FILE = /castor/cern.ch/delphi/MCprod/ral/bdk01/v98e/188.6/bdk01_eeee_188.6_41132.xsdst ! RUN = 41132 ! NEVT = 2000
FILE = /castor/cern.ch/delphi/MCprod/ral/bdk01/v98e/188.6/bdk01_eeee_188.6_41133.xsdst ! RUN = 41133 ! NEVT = 2000
FILE = /castor/cern.ch/delphi/MCprod/ral/bdk01/v98e/188.6/bdk01_eeee_188.6_41134.xsdst ! RUN = 41134 ! NEVT = 2000
FILE = /castor/cern.ch/delphi/MCprod/ral/bdk01/v98e/188.6/bdk01_eeee_188.6_41135.xsdst ! RUN = 41135 ! NEVT = 2000
FILE = /castor/cern.ch/delphi/MCprod/ral/bdk01/v98e/188.6/bdk01_eeee_188.6_41136.xsdst ! RUN = 41136 ! NEVT = 2000
FILE = /castor/cern.ch/delphi/MCprod/ral/bdk01/v98e/188.6/bdk01_eeee_188.6_41137.xsdst ! RUN = 41137 ! NEVT = 2000
FILE = /castor/cern.ch/delphi/MCprod/ral/bdk01/v98e/188.6/bdk01_eeee_188.6_41138.xsdst ! RUN = 41138 ! NEVT = 2000
FILE = /castor/cern.ch/delphi/MCprod/ral/bdk01/v98e/188.6/bdk01_eeee_188.6_41139.xsdst ! RUN = 41139 ! NEVT = 2000
FILE = /castor/cern.ch/delphi/MCprod/ral/bdk01/v98e/188.6/bdk01_eeee_188.6_41140.xsdst ! RUN = 41140 ! NEVT = 2000
FILE = /castor/cern.ch/delphi/MCprod/ral/bdk01/v98e/188.6/bdk01_eeee_188.6_41141.xsdst ! RUN = 41141 ! NEVT = 2000
FILE = /castor/cern.ch/delphi/MCprod/ral/bdk01/v98e/188.6/bdk01_eeee_188.6_41142.xsdst ! RUN = 41142 ! NEVT = 2000
FILE = /castor/cern.ch/delphi/MCprod/ral/bdk01/v98e/188.6/bdk01_eeee_188.6_41143.xsdst ! RUN = 41143 ! NEVT = 2000
FILE = /castor/cern.ch/delphi/MCprod/ral/bdk01/v98e/188.6/bdk01_eeee_188.6_41144.xsdst ! RUN = 41144 ! NEVT = 2000
FILE = /castor/cern.ch/delphi/MCprod/ral/bdk01/v98e/188.6/bdk01_eeee_188.6_41145.xsdst ! RUN = 41145 ! NEVT = 2000
FILE = /castor/cern.ch/delphi/MCprod/ral/bdk01/v98e/188.6/bdk01_eeee_188.6_41146.xsdst ! RUN = 41146 ! NEVT = 2000
FILE = /castor/cern.ch/delphi/MCprod/ral/bdk01/v98e/188.6/bdk01_eeee_188.6_41147.xsdst ! RUN = 41147 ! NEVT = 2000
FILE = /castor/cern.ch/delphi/MCprod/ral/bdk01/v98e/188.6/bdk01_eeee_188.6_41148.xsdst ! RUN = 41148 ! NEVT = 2000
FILE = /castor/cern.ch/delphi/MCprod/ral/bdk01/v98e/188.6/bdk01_eeee_188.6_41149.xsdst ! RUN = 41149 ! NEVT = 2000
FILE = /castor/cern.ch/delphi/MCprod/ral/bdk01/v98e/188.6/bdk01_eeee_188.6_41150.xsdst ! RUN = 41150 ! NEVT = 2000
FILE = /castor/cern.ch/delphi/MCprod/ral/bdk01/v98e/188.6/bdk01_eeee_188.6_41151.xsdst ! RUN = 41151 ! NEVT = 2000
FILE = /castor/cern.ch/delphi/MCprod/ral/bdk01/v98e/188.6/bdk01_eeee_188.6_41152.xsdst ! RUN = 41152 ! NEVT = 2000
FILE = /castor/cern.ch/delphi/MCprod/ral/bdk01/v98e/188.6/bdk01_eeee_188.6_41153.xsdst ! RUN = 41153 ! NEVT = 2000
FILE = /castor/cern.ch/delphi/MCprod/ral/bdk01/v98e/188.6/bdk01_eeee_188.6_41154.xsdst ! RUN = 41154 ! NEVT = 2000
FILE = /castor/cern.ch/delphi/MCprod/ral/bdk01/v98e/188.6/bdk01_eeee_188.6_41155.xsdst ! RUN = 41155 ! NEVT = 2000
FILE = /castor/cern.ch/delphi/MCprod/ral/bdk01/v98e/188.6/bdk01_eeee_188.6_41156.xsdst ! RUN = 41156 ! NEVT = 2000
FILE = /castor/cern.ch/delphi/MCprod/ral/bdk01/v98e/188.6/bdk01_eeee_188.6_41157.xsdst ! RUN = 41157 ! NEVT = 2000
FILE = /castor/cern.ch/delphi/MCprod/ral/bdk01/v98e/188.6/bdk01_eeee_188.6_41158.xsdst ! RUN = 41158 ! NEVT = 2000
FILE = /castor/cern.ch/delphi/MCprod/ral/bdk01/v98e/188.6/bdk01_eeee_188.6_41159.xsdst ! RUN = 41159 ! NEVT = 2000
FILE = /castor/cern.ch/delphi/MCprod/ral/bdk01/v98e/188.6/bdk01_eeee_188.6_41160.xsdst ! RUN = 41160 ! NEVT = 2000
FILE = /castor/cern.ch/delphi/MCprod/ral/bdk01/v98e/188.6/bdk01_eeee_188.6_41161.xsdst ! RUN = 41161 ! NEVT = 2000
FILE = /castor/cern.ch/delphi/MCprod/ral/bdk01/v98e/188.6/bdk01_eeee_188.6_41162.xsdst ! RUN = 41162 ! NEVT = 2000
FILE = /castor/cern.ch/delphi/MCprod/ral/bdk01/v98e/188.6/bdk01_eeee_188.6_41163.xsdst ! RUN = 41163 ! NEVT = 2000
FILE = /castor/cern.ch/delphi/MCprod/ral/bdk01/v98e/188.6/bdk01_eeee_188.6_41164.xsdst ! RUN = 41164 ! NEVT = 2000
FILE = /castor/cern.ch/delphi/MCprod/ral/bdk01/v98e/188.6/bdk01_eeee_188.6_41165.xsdst ! RUN = 41165 ! NEVT = 2000
FILE = /castor/cern.ch/delphi/MCprod/ral/bdk01/v98e/188.6/bdk01_eeee_188.6_41166.xsdst ! RUN = 41166 ! NEVT = 2000
FILE = /castor/cern.ch/delphi/MCprod/ral/bdk01/v98e/188.6/bdk01_eeee_188.6_41167.xsdst ! RUN = 41167 ! NEVT = 2000
FILE = /castor/cern.ch/delphi/MCprod/ral/bdk01/v98e/188.6/bdk01_eeee_188.6_41168.xsdst ! RUN = 41168 ! NEVT = 2000
FILE = /castor/cern.ch/delphi/MCprod/ral/bdk01/v98e/188.6/bdk01_eeee_188.6_41169.xsdst ! RUN = 41169 ! NEVT = 2000
FILE = /castor/cern.ch/delphi/MCprod/ral/bdk01/v98e/188.6/bdk01_eeee_188.6_41170.xsdst ! RUN = 41170 ! NEVT = 2000
FILE = /castor/cern.ch/delphi/MCprod/ral/bdk01/v98e/188.6/bdk01_eeee_188.6_41171.xsdst ! RUN = 41171 ! NEVT = 2000
FILE = /castor/cern.ch/delphi/MCprod/ral/bdk01/v98e/188.6/bdk01_eeee_188.6_41172.xsdst ! RUN = 41172 ! NEVT = 2000
FILE = /castor/cern.ch/delphi/MCprod/ral/bdk01/v98e/188.6/bdk01_eeee_188.6_41173.xsdst ! RUN = 41173 ! NEVT = 2000
FILE = /castor/cern.ch/delphi/MCprod/ral/bdk01/v98e/188.6/bdk01_eeee_188.6_41174.xsdst ! RUN = 41174 ! NEVT = 2000
FILE = /castor/cern.ch/delphi/MCprod/ral/bdk01/v98e/188.6/bdk01_eeee_188.6_41175.xsdst ! RUN = 41175 ! NEVT = 2000
FILE = /castor/cern.ch/delphi/MCprod/ral/bdk01/v98e/188.6/bdk01_eeee_188.6_41176.xsdst ! RUN = 41176 ! NEVT = 2000
FILE = /castor/cern.ch/delphi/MCprod/ral/bdk01/v98e/188.6/bdk01_eeee_188.6_41177.xsdst ! RUN = 41177 ! NEVT = 2000
FILE = /castor/cern.ch/delphi/MCprod/ral/bdk01/v98e/188.6/bdk01_eeee_188.6_41178.xsdst ! RUN = 41178 ! NEVT = 2000
FILE = /castor/cern.ch/delphi/MCprod/ral/bdk01/v98e/188.6/bdk01_eeee_188.6_41179.xsdst ! RUN = 41179 ! NEVT = 2000
FILE = /castor/cern.ch/delphi/MCprod/ral/bdk01/v98e/188.6/bdk01_eeee_188.6_41180.xsdst ! RUN = 41180 ! NEVT = 2000
FILE = /castor/cern.ch/delphi/MCprod/ral/bdk01/v98e/188.6/bdk01_eeee_188.6_41181.xsdst ! RUN = 41181 ! NEVT = 2000
FILE = /castor/cern.ch/delphi/MCprod/ral/bdk01/v98e/188.6/bdk01_eeee_188.6_41182.xsdst ! RUN = 41182 ! NEVT = 2000
FILE = /castor/cern.ch/delphi/MCprod/ral/bdk01/v98e/188.6/bdk01_eeee_188.6_41183.xsdst ! RUN = 41183 ! NEVT = 2000
FILE = /castor/cern.ch/delphi/MCprod/ral/bdk01/v98e/188.6/bdk01_eeee_188.6_41184.xsdst ! RUN = 41184 ! NEVT = 2000
FILE = /castor/cern.ch/delphi/MCprod/ral/bdk01/v98e/188.6/bdk01_eeee_188.6_41185.xsdst ! RUN = 41185 ! NEVT = 2000
FILE = /castor/cern.ch/delphi/MCprod/ral/bdk01/v98e/188.6/bdk01_eeee_188.6_41186.xsdst ! RUN = 41186 ! NEVT = 2000
FILE = /castor/cern.ch/delphi/MCprod/ral/bdk01/v98e/188.6/bdk01_eeee_188.6_41187.xsdst ! RUN = 41187 ! NEVT = 2000
FILE = /castor/cern.ch/delphi/MCprod/ral/bdk01/v98e/188.6/bdk01_eeee_188.6_41188.xsdst ! RUN = 41188 ! NEVT = 2000
FILE = /castor/cern.ch/delphi/MCprod/ral/bdk01/v98e/188.6/bdk01_eeee_188.6_41189.xsdst ! RUN = 41189 ! NEVT = 2000
FILE = /castor/cern.ch/delphi/MCprod/ral/bdk01/v98e/188.6/bdk01_eeee_188.6_41190.xsdst ! RUN = 41190 ! NEVT = 2000
FILE = /castor/cern.ch/delphi/MCprod/ral/bdk01/v98e/188.6/bdk01_eeee_188.6_41191.xsdst ! RUN = 41191 ! NEVT = 2000
FILE = /castor/cern.ch/delphi/MCprod/ral/bdk01/v98e/188.6/bdk01_eeee_188.6_41192.xsdst ! RUN = 41192 ! NEVT = 2000
FILE = /castor/cern.ch/delphi/MCprod/ral/bdk01/v98e/188.6/bdk01_eeee_188.6_41193.xsdst ! RUN = 41193 ! NEVT = 2000
FILE = /castor/cern.ch/delphi/MCprod/ral/bdk01/v98e/188.6/bdk01_eeee_188.6_41194.xsdst ! RUN = 41194 ! NEVT = 2000
FILE = /castor/cern.ch/delphi/MCprod/ral/bdk01/v98e/188.6/bdk01_eeee_188.6_41195.xsdst ! RUN = 41195 ! NEVT = 2000
FILE = /castor/cern.ch/delphi/MCprod/ral/bdk01/v98e/188.6/bdk01_eeee_188.6_41196.xsdst ! RUN = 41196 ! NEVT = 2000
FILE = /castor/cern.ch/delphi/MCprod/ral/bdk01/v98e/188.6/bdk01_eeee_188.6_41197.xsdst ! RUN = 41197 ! NEVT = 2000
FILE = /castor/cern.ch/delphi/MCprod/ral/bdk01/v98e/188.6/bdk01_eeee_188.6_41198.xsdst ! RUN = 41198 ! NEVT = 2000
FILE = /castor/cern.ch/delphi/MCprod/ral/bdk01/v98e/188.6/bdk01_eeee_188.6_41199.xsdst ! RUN = 41199 ! NEVT = 2000
FILE = /castor/cern.ch/delphi/MCprod/ral/bdk01/v98e/188.6/bdk01_eeee_188.6_41200.xsdst ! RUN = 41200 ! NEVT = 2000
FILE = /castor/cern.ch/delphi/MCprod/ral/bdk01/v98e/188.6/bdk01_eeee_188.6_41201.xsdst ! RUN = 41201 ! NEVT = 2000
FILE = /castor/cern.ch/delphi/MCprod/ral/bdk01/v98e/188.6/bdk01_eeee_188.6_41202.xsdst ! RUN = 41202 ! NEVT = 2000
FILE = /castor/cern.ch/delphi/MCprod/ral/bdk01/v98e/188.6/bdk01_eeee_188.6_41203.xsdst ! RUN = 41203 ! NEVT = 2000
FILE = /castor/cern.ch/delphi/MCprod/ral/bdk01/v98e/188.6/bdk01_eeee_188.6_41204.xsdst ! RUN = 41204 ! NEVT = 2000
FILE = /castor/cern.ch/delphi/MCprod/ral/bdk01/v98e/188.6/bdk01_eeee_188.6_41205.xsdst ! RUN = 41205 ! NEVT = 2000
FILE = /castor/cern.ch/delphi/MCprod/ral/bdk01/v98e/188.6/bdk01_eeee_188.6_41206.xsdst ! RUN = 41206 ! NEVT = 2000
FILE = /castor/cern.ch/delphi/MCprod/ral/bdk01/v98e/188.6/bdk01_eeee_188.6_41207.xsdst ! RUN = 41207 ! NEVT = 2000
FILE = /castor/cern.ch/delphi/MCprod/ral/bdk01/v98e/188.6/bdk01_eeee_188.6_41208.xsdst ! RUN = 41208 ! NEVT = 2000
FILE = /castor/cern.ch/delphi/MCprod/ral/bdk01/v98e/188.6/bdk01_eeee_188.6_41209.xsdst ! RUN = 41209 ! NEVT = 2000
FILE = /castor/cern.ch/delphi/MCprod/ral/bdk01/v98e/188.6/bdk01_eeee_188.6_41210.xsdst ! RUN = 41210 ! NEVT = 2000
FILE = /castor/cern.ch/delphi/MCprod/ral/bdk01/v98e/188.6/bdk01_eeee_188.6_41211.xsdst ! RUN = 41211 ! NEVT = 2000
FILE = /castor/cern.ch/delphi/MCprod/ral/bdk01/v98e/188.6/bdk01_eeee_188.6_41212.xsdst ! RUN = 41212 ! NEVT = 2000
FILE = /castor/cern.ch/delphi/MCprod/ral/bdk01/v98e/188.6/bdk01_eeee_188.6_41213.xsdst ! RUN = 41213 ! NEVT = 2000
FILE = /castor/cern.ch/delphi/MCprod/ral/bdk01/v98e/188.6/bdk01_eeee_188.6_41214.xsdst ! RUN = 41214 ! NEVT = 2000
FILE = /castor/cern.ch/delphi/MCprod/ral/bdk01/v98e/188.6/bdk01_eeee_188.6_41215.xsdst ! RUN = 41215 ! NEVT = 2000
FILE = /castor/cern.ch/delphi/MCprod/ral/bdk01/v98e/188.6/bdk01_eeee_188.6_41216.xsdst ! RUN = 41216 ! NEVT = 2000
FILE = /castor/cern.ch/delphi/MCprod/ral/bdk01/v98e/188.6/bdk01_eeee_188.6_41217.xsdst ! RUN = 41217 ! NEVT = 2000
FILE = /castor/cern.ch/delphi/MCprod/ral/bdk01/v98e/188.6/bdk01_eeee_188.6_41218.xsdst ! RUN = 41218 ! NEVT = 2000
FILE = /castor/cern.ch/delphi/MCprod/ral/bdk01/v98e/188.6/bdk01_eeee_188.6_41219.xsdst ! RUN = 41219 ! NEVT = 2000
FILE = /castor/cern.ch/delphi/MCprod/ral/bdk01/v98e/188.6/bdk01_eeee_188.6_41220.xsdst ! RUN = 41220 ! NEVT = 2000
FILE = /castor/cern.ch/delphi/MCprod/ral/bdk01/v98e/188.6/bdk01_eeee_188.6_41221.xsdst ! RUN = 41221 ! NEVT = 2000
FILE = /castor/cern.ch/delphi/MCprod/ral/bdk01/v98e/188.6/bdk01_eeee_188.6_41222.xsdst ! RUN = 41222 ! NEVT = 2000
FILE = /castor/cern.ch/delphi/MCprod/ral/bdk01/v98e/188.6/bdk01_eeee_188.6_41223.xsdst ! RUN = 41223 ! NEVT = 2000
FILE = /castor/cern.ch/delphi/MCprod/ral/bdk01/v98e/188.6/bdk01_eeee_188.6_41224.xsdst ! RUN = 41224 ! NEVT = 2000
FILE = /castor/cern.ch/delphi/MCprod/ral/bdk01/v98e/188.6/bdk01_eeee_188.6_41225.xsdst ! RUN = 41225 ! NEVT = 2000
FILE = /castor/cern.ch/delphi/MCprod/ral/bdk01/v98e/188.6/bdk01_eeee_188.6_41226.xsdst ! RUN = 41226 ! NEVT = 2000
FILE = /castor/cern.ch/delphi/MCprod/ral/bdk01/v98e/188.6/bdk01_eeee_188.6_41227.xsdst ! RUN = 41227 ! NEVT = 2000
FILE = /castor/cern.ch/delphi/MCprod/ral/bdk01/v98e/188.6/bdk01_eeee_188.6_41228.xsdst ! RUN = 41228 ! NEVT = 2000
FILE = /castor/cern.ch/delphi/MCprod/ral/bdk01/v98e/188.6/bdk01_eeee_188.6_41229.xsdst ! RUN = 41229 ! NEVT = 2000
FILE = /castor/cern.ch/delphi/MCprod/ral/bdk01/v98e/188.6/bdk01_eeee_188.6_41230.xsdst ! RUN = 41230 ! NEVT = 2000
FILE = /castor/cern.ch/delphi/MCprod/ral/bdk01/v98e/188.6/bdk01_eeee_188.6_41231.xsdst ! RUN = 41231 ! NEVT = 2000
FILE = /castor/cern.ch/delphi/MCprod/ral/bdk01/v98e/188.6/bdk01_eeee_188.6_41232.xsdst ! RUN = 41232 ! NEVT = 2000
FILE = /castor/cern.ch/delphi/MCprod/ral/bdk01/v98e/188.6/bdk01_eeee_188.6_41233.xsdst ! RUN = 41233 ! NEVT = 2000
FILE = /castor/cern.ch/delphi/MCprod/ral/bdk01/v98e/188.6/bdk01_eeee_188.6_41234.xsdst ! RUN = 41234 ! NEVT = 2000
FILE = /castor/cern.ch/delphi/MCprod/ral/bdk01/v98e/188.6/bdk01_eeee_188.6_41235.xsdst ! RUN = 41235 ! NEVT = 2000
FILE = /castor/cern.ch/delphi/MCprod/ral/bdk01/v98e/188.6/bdk01_eeee_188.6_41236.xsdst ! RUN = 41236 ! NEVT = 2000
FILE = /castor/cern.ch/delphi/MCprod/ral/bdk01/v98e/188.6/bdk01_eeee_188.6_41237.xsdst ! RUN = 41237 ! NEVT = 2000
FILE = /castor/cern.ch/delphi/MCprod/ral/bdk01/v98e/188.6/bdk01_eeee_188.6_41238.xsdst ! RUN = 41238 ! NEVT = 2000
FILE = /castor/cern.ch/delphi/MCprod/ral/bdk01/v98e/188.6/bdk01_eeee_188.6_41239.xsdst ! RUN = 41239 ! NEVT = 2000
FILE = /castor/cern.ch/delphi/MCprod/ral/bdk01/v98e/188.6/bdk01_eeee_188.6_41240.xsdst ! RUN = 41240 ! NEVT = 2000
FILE = /castor/cern.ch/delphi/MCprod/ral/bdk01/v98e/188.6/bdk01_eeee_188.6_41241.xsdst ! RUN = 41241 ! NEVT = 2000
FILE = /castor/cern.ch/delphi/MCprod/ral/bdk01/v98e/188.6/bdk01_eeee_188.6_41242.xsdst ! RUN = 41242 ! NEVT = 2000
FILE = /castor/cern.ch/delphi/MCprod/ral/bdk01/v98e/188.6/bdk01_eeee_188.6_41243.xsdst ! RUN = 41243 ! NEVT = 2000
FILE = /castor/cern.ch/delphi/MCprod/ral/bdk01/v98e/188.6/bdk01_eeee_188.6_41244.xsdst ! RUN = 41244 ! NEVT = 2000
FILE = /castor/cern.ch/delphi/MCprod/ral/bdk01/v98e/188.6/bdk01_eeee_188.6_41245.xsdst ! RUN = 41245 ! NEVT = 2000
FILE = /castor/cern.ch/delphi/MCprod/ral/bdk01/v98e/188.6/bdk01_eeee_188.6_41246.xsdst ! RUN = 41246 ! NEVT = 2000
FILE = /castor/cern.ch/delphi/MCprod/ral/bdk01/v98e/188.6/bdk01_eeee_188.6_41247.xsdst ! RUN = 41247 ! NEVT = 2000
FILE = /castor/cern.ch/delphi/MCprod/ral/bdk01/v98e/188.6/bdk01_eeee_188.6_41248.xsdst ! RUN = 41248 ! NEVT = 2000
FILE = /castor/cern.ch/delphi/MCprod/ral/bdk01/v98e/188.6/bdk01_eeee_188.6_41249.xsdst ! RUN = 41249 ! NEVT = 2000
FILE = /castor/cern.ch/delphi/MCprod/ral/bdk01/v98e/188.6/bdk01_eeee_188.6_41250.xsdst ! RUN = 41250 ! NEVT = 2000
