*   Nickname :     xs_racoonww13scud_e188.6_m80.4_c98_1l_e1
*   Generic Name : //CERN/DELPHI/P02_SIMD/XSDST/RACOONWW13SCUD/E188.6/CERN/SUMT/C001-493
*   Description :   Extended Short DST simulation 98e  done at ecm=188.6 GeV , CERN
*   Comments :     in total XXXXXX events in 493 files, time stamp: Tue Apr 6 12:9:10 2004
*
*
*
FILE = /castor/cern.ch/delphi/MCprod/cern/racoonww13/v98e/188.6/racoonww13_scud_188.6_80.4_1001.xsdst
FILE = /castor/cern.ch/delphi/MCprod/cern/racoonww13/v98e/188.6/racoonww13_scud_188.6_80.4_1002.xsdst
FILE = /castor/cern.ch/delphi/MCprod/cern/racoonww13/v98e/188.6/racoonww13_scud_188.6_80.4_1003.xsdst
FILE = /castor/cern.ch/delphi/MCprod/cern/racoonww13/v98e/188.6/racoonww13_scud_188.6_80.4_1004.xsdst
FILE = /castor/cern.ch/delphi/MCprod/cern/racoonww13/v98e/188.6/racoonww13_scud_188.6_80.4_1005.xsdst
FILE = /castor/cern.ch/delphi/MCprod/cern/racoonww13/v98e/188.6/racoonww13_scud_188.6_80.4_1006.xsdst
FILE = /castor/cern.ch/delphi/MCprod/cern/racoonww13/v98e/188.6/racoonww13_scud_188.6_80.4_1007.xsdst
FILE = /castor/cern.ch/delphi/MCprod/cern/racoonww13/v98e/188.6/racoonww13_scud_188.6_80.4_1008.xsdst
FILE = /castor/cern.ch/delphi/MCprod/cern/racoonww13/v98e/188.6/racoonww13_scud_188.6_80.4_1009.xsdst
FILE = /castor/cern.ch/delphi/MCprod/cern/racoonww13/v98e/188.6/racoonww13_scud_188.6_80.4_1010.xsdst
FILE = /castor/cern.ch/delphi/MCprod/cern/racoonww13/v98e/188.6/racoonww13_scud_188.6_80.4_1011.xsdst
FILE = /castor/cern.ch/delphi/MCprod/cern/racoonww13/v98e/188.6/racoonww13_scud_188.6_80.4_1012.xsdst
FILE = /castor/cern.ch/delphi/MCprod/cern/racoonww13/v98e/188.6/racoonww13_scud_188.6_80.4_1013.xsdst
FILE = /castor/cern.ch/delphi/MCprod/cern/racoonww13/v98e/188.6/racoonww13_scud_188.6_80.4_1014.xsdst
FILE = /castor/cern.ch/delphi/MCprod/cern/racoonww13/v98e/188.6/racoonww13_scud_188.6_80.4_1015.xsdst
FILE = /castor/cern.ch/delphi/MCprod/cern/racoonww13/v98e/188.6/racoonww13_scud_188.6_80.4_1016.xsdst
FILE = /castor/cern.ch/delphi/MCprod/cern/racoonww13/v98e/188.6/racoonww13_scud_188.6_80.4_1017.xsdst
FILE = /castor/cern.ch/delphi/MCprod/cern/racoonww13/v98e/188.6/racoonww13_scud_188.6_80.4_1018.xsdst
FILE = /castor/cern.ch/delphi/MCprod/cern/racoonww13/v98e/188.6/racoonww13_scud_188.6_80.4_1019.xsdst
FILE = /castor/cern.ch/delphi/MCprod/cern/racoonww13/v98e/188.6/racoonww13_scud_188.6_80.4_1020.xsdst
FILE = /castor/cern.ch/delphi/MCprod/cern/racoonww13/v98e/188.6/racoonww13_scud_188.6_80.4_1021.xsdst
FILE = /castor/cern.ch/delphi/MCprod/cern/racoonww13/v98e/188.6/racoonww13_scud_188.6_80.4_1022.xsdst
FILE = /castor/cern.ch/delphi/MCprod/cern/racoonww13/v98e/188.6/racoonww13_scud_188.6_80.4_1023.xsdst
FILE = /castor/cern.ch/delphi/MCprod/cern/racoonww13/v98e/188.6/racoonww13_scud_188.6_80.4_1024.xsdst
FILE = /castor/cern.ch/delphi/MCprod/cern/racoonww13/v98e/188.6/racoonww13_scud_188.6_80.4_1025.xsdst
FILE = /castor/cern.ch/delphi/MCprod/cern/racoonww13/v98e/188.6/racoonww13_scud_188.6_80.4_1026.xsdst
FILE = /castor/cern.ch/delphi/MCprod/cern/racoonww13/v98e/188.6/racoonww13_scud_188.6_80.4_1027.xsdst
FILE = /castor/cern.ch/delphi/MCprod/cern/racoonww13/v98e/188.6/racoonww13_scud_188.6_80.4_1028.xsdst
FILE = /castor/cern.ch/delphi/MCprod/cern/racoonww13/v98e/188.6/racoonww13_scud_188.6_80.4_1029.xsdst
FILE = /castor/cern.ch/delphi/MCprod/cern/racoonww13/v98e/188.6/racoonww13_scud_188.6_80.4_1030.xsdst
FILE = /castor/cern.ch/delphi/MCprod/cern/racoonww13/v98e/188.6/racoonww13_scud_188.6_80.4_1031.xsdst
FILE = /castor/cern.ch/delphi/MCprod/cern/racoonww13/v98e/188.6/racoonww13_scud_188.6_80.4_1032.xsdst
FILE = /castor/cern.ch/delphi/MCprod/cern/racoonww13/v98e/188.6/racoonww13_scud_188.6_80.4_1033.xsdst
FILE = /castor/cern.ch/delphi/MCprod/cern/racoonww13/v98e/188.6/racoonww13_scud_188.6_80.4_1034.xsdst
FILE = /castor/cern.ch/delphi/MCprod/cern/racoonww13/v98e/188.6/racoonww13_scud_188.6_80.4_1035.xsdst
FILE = /castor/cern.ch/delphi/MCprod/cern/racoonww13/v98e/188.6/racoonww13_scud_188.6_80.4_1037.xsdst
FILE = /castor/cern.ch/delphi/MCprod/cern/racoonww13/v98e/188.6/racoonww13_scud_188.6_80.4_1038.xsdst
FILE = /castor/cern.ch/delphi/MCprod/cern/racoonww13/v98e/188.6/racoonww13_scud_188.6_80.4_1039.xsdst
FILE = /castor/cern.ch/delphi/MCprod/cern/racoonww13/v98e/188.6/racoonww13_scud_188.6_80.4_1040.xsdst
FILE = /castor/cern.ch/delphi/MCprod/cern/racoonww13/v98e/188.6/racoonww13_scud_188.6_80.4_1041.xsdst
FILE = /castor/cern.ch/delphi/MCprod/cern/racoonww13/v98e/188.6/racoonww13_scud_188.6_80.4_1042.xsdst
FILE = /castor/cern.ch/delphi/MCprod/cern/racoonww13/v98e/188.6/racoonww13_scud_188.6_80.4_1043.xsdst
FILE = /castor/cern.ch/delphi/MCprod/cern/racoonww13/v98e/188.6/racoonww13_scud_188.6_80.4_1044.xsdst
FILE = /castor/cern.ch/delphi/MCprod/cern/racoonww13/v98e/188.6/racoonww13_scud_188.6_80.4_1045.xsdst
FILE = /castor/cern.ch/delphi/MCprod/cern/racoonww13/v98e/188.6/racoonww13_scud_188.6_80.4_1046.xsdst
FILE = /castor/cern.ch/delphi/MCprod/cern/racoonww13/v98e/188.6/racoonww13_scud_188.6_80.4_1047.xsdst
FILE = /castor/cern.ch/delphi/MCprod/cern/racoonww13/v98e/188.6/racoonww13_scud_188.6_80.4_1048.xsdst
FILE = /castor/cern.ch/delphi/MCprod/cern/racoonww13/v98e/188.6/racoonww13_scud_188.6_80.4_1049.xsdst
FILE = /castor/cern.ch/delphi/MCprod/cern/racoonww13/v98e/188.6/racoonww13_scud_188.6_80.4_1050.xsdst
FILE = /castor/cern.ch/delphi/MCprod/cern/racoonww13/v98e/188.6/racoonww13_scud_188.6_80.4_1051.xsdst
FILE = /castor/cern.ch/delphi/MCprod/cern/racoonww13/v98e/188.6/racoonww13_scud_188.6_80.4_1052.xsdst
FILE = /castor/cern.ch/delphi/MCprod/cern/racoonww13/v98e/188.6/racoonww13_scud_188.6_80.4_1053.xsdst
FILE = /castor/cern.ch/delphi/MCprod/cern/racoonww13/v98e/188.6/racoonww13_scud_188.6_80.4_1055.xsdst
FILE = /castor/cern.ch/delphi/MCprod/cern/racoonww13/v98e/188.6/racoonww13_scud_188.6_80.4_1056.xsdst
FILE = /castor/cern.ch/delphi/MCprod/cern/racoonww13/v98e/188.6/racoonww13_scud_188.6_80.4_1057.xsdst
FILE = /castor/cern.ch/delphi/MCprod/cern/racoonww13/v98e/188.6/racoonww13_scud_188.6_80.4_1058.xsdst
FILE = /castor/cern.ch/delphi/MCprod/cern/racoonww13/v98e/188.6/racoonww13_scud_188.6_80.4_1059.xsdst
FILE = /castor/cern.ch/delphi/MCprod/cern/racoonww13/v98e/188.6/racoonww13_scud_188.6_80.4_1060.xsdst
FILE = /castor/cern.ch/delphi/MCprod/cern/racoonww13/v98e/188.6/racoonww13_scud_188.6_80.4_1061.xsdst
FILE = /castor/cern.ch/delphi/MCprod/cern/racoonww13/v98e/188.6/racoonww13_scud_188.6_80.4_1063.xsdst
FILE = /castor/cern.ch/delphi/MCprod/cern/racoonww13/v98e/188.6/racoonww13_scud_188.6_80.4_1064.xsdst
FILE = /castor/cern.ch/delphi/MCprod/cern/racoonww13/v98e/188.6/racoonww13_scud_188.6_80.4_1065.xsdst
FILE = /castor/cern.ch/delphi/MCprod/cern/racoonww13/v98e/188.6/racoonww13_scud_188.6_80.4_1066.xsdst
FILE = /castor/cern.ch/delphi/MCprod/cern/racoonww13/v98e/188.6/racoonww13_scud_188.6_80.4_1067.xsdst
FILE = /castor/cern.ch/delphi/MCprod/cern/racoonww13/v98e/188.6/racoonww13_scud_188.6_80.4_1068.xsdst
FILE = /castor/cern.ch/delphi/MCprod/cern/racoonww13/v98e/188.6/racoonww13_scud_188.6_80.4_1069.xsdst
FILE = /castor/cern.ch/delphi/MCprod/cern/racoonww13/v98e/188.6/racoonww13_scud_188.6_80.4_1070.xsdst
FILE = /castor/cern.ch/delphi/MCprod/cern/racoonww13/v98e/188.6/racoonww13_scud_188.6_80.4_1071.xsdst
FILE = /castor/cern.ch/delphi/MCprod/cern/racoonww13/v98e/188.6/racoonww13_scud_188.6_80.4_1072.xsdst
FILE = /castor/cern.ch/delphi/MCprod/cern/racoonww13/v98e/188.6/racoonww13_scud_188.6_80.4_1073.xsdst
FILE = /castor/cern.ch/delphi/MCprod/cern/racoonww13/v98e/188.6/racoonww13_scud_188.6_80.4_1074.xsdst
FILE = /castor/cern.ch/delphi/MCprod/cern/racoonww13/v98e/188.6/racoonww13_scud_188.6_80.4_1075.xsdst
FILE = /castor/cern.ch/delphi/MCprod/cern/racoonww13/v98e/188.6/racoonww13_scud_188.6_80.4_1076.xsdst
FILE = /castor/cern.ch/delphi/MCprod/cern/racoonww13/v98e/188.6/racoonww13_scud_188.6_80.4_1077.xsdst
FILE = /castor/cern.ch/delphi/MCprod/cern/racoonww13/v98e/188.6/racoonww13_scud_188.6_80.4_1078.xsdst
FILE = /castor/cern.ch/delphi/MCprod/cern/racoonww13/v98e/188.6/racoonww13_scud_188.6_80.4_1079.xsdst
FILE = /castor/cern.ch/delphi/MCprod/cern/racoonww13/v98e/188.6/racoonww13_scud_188.6_80.4_1080.xsdst
FILE = /castor/cern.ch/delphi/MCprod/cern/racoonww13/v98e/188.6/racoonww13_scud_188.6_80.4_1081.xsdst
FILE = /castor/cern.ch/delphi/MCprod/cern/racoonww13/v98e/188.6/racoonww13_scud_188.6_80.4_1082.xsdst
FILE = /castor/cern.ch/delphi/MCprod/cern/racoonww13/v98e/188.6/racoonww13_scud_188.6_80.4_1083.xsdst
FILE = /castor/cern.ch/delphi/MCprod/cern/racoonww13/v98e/188.6/racoonww13_scud_188.6_80.4_1084.xsdst
FILE = /castor/cern.ch/delphi/MCprod/cern/racoonww13/v98e/188.6/racoonww13_scud_188.6_80.4_1085.xsdst
FILE = /castor/cern.ch/delphi/MCprod/cern/racoonww13/v98e/188.6/racoonww13_scud_188.6_80.4_1086.xsdst
FILE = /castor/cern.ch/delphi/MCprod/cern/racoonww13/v98e/188.6/racoonww13_scud_188.6_80.4_1087.xsdst
FILE = /castor/cern.ch/delphi/MCprod/cern/racoonww13/v98e/188.6/racoonww13_scud_188.6_80.4_1088.xsdst
FILE = /castor/cern.ch/delphi/MCprod/cern/racoonww13/v98e/188.6/racoonww13_scud_188.6_80.4_1089.xsdst
FILE = /castor/cern.ch/delphi/MCprod/cern/racoonww13/v98e/188.6/racoonww13_scud_188.6_80.4_1090.xsdst
FILE = /castor/cern.ch/delphi/MCprod/cern/racoonww13/v98e/188.6/racoonww13_scud_188.6_80.4_1091.xsdst
FILE = /castor/cern.ch/delphi/MCprod/cern/racoonww13/v98e/188.6/racoonww13_scud_188.6_80.4_1092.xsdst
FILE = /castor/cern.ch/delphi/MCprod/cern/racoonww13/v98e/188.6/racoonww13_scud_188.6_80.4_1093.xsdst
FILE = /castor/cern.ch/delphi/MCprod/cern/racoonww13/v98e/188.6/racoonww13_scud_188.6_80.4_1094.xsdst
FILE = /castor/cern.ch/delphi/MCprod/cern/racoonww13/v98e/188.6/racoonww13_scud_188.6_80.4_1095.xsdst
FILE = /castor/cern.ch/delphi/MCprod/cern/racoonww13/v98e/188.6/racoonww13_scud_188.6_80.4_1096.xsdst
FILE = /castor/cern.ch/delphi/MCprod/cern/racoonww13/v98e/188.6/racoonww13_scud_188.6_80.4_1097.xsdst
FILE = /castor/cern.ch/delphi/MCprod/cern/racoonww13/v98e/188.6/racoonww13_scud_188.6_80.4_1098.xsdst
FILE = /castor/cern.ch/delphi/MCprod/cern/racoonww13/v98e/188.6/racoonww13_scud_188.6_80.4_1099.xsdst
FILE = /castor/cern.ch/delphi/MCprod/cern/racoonww13/v98e/188.6/racoonww13_scud_188.6_80.4_1100.xsdst
FILE = /castor/cern.ch/delphi/MCprod/cern/racoonww13/v98e/188.6/racoonww13_scud_188.6_80.4_1101.xsdst
FILE = /castor/cern.ch/delphi/MCprod/cern/racoonww13/v98e/188.6/racoonww13_scud_188.6_80.4_1102.xsdst
FILE = /castor/cern.ch/delphi/MCprod/cern/racoonww13/v98e/188.6/racoonww13_scud_188.6_80.4_1103.xsdst
FILE = /castor/cern.ch/delphi/MCprod/cern/racoonww13/v98e/188.6/racoonww13_scud_188.6_80.4_1104.xsdst
FILE = /castor/cern.ch/delphi/MCprod/cern/racoonww13/v98e/188.6/racoonww13_scud_188.6_80.4_1105.xsdst
FILE = /castor/cern.ch/delphi/MCprod/cern/racoonww13/v98e/188.6/racoonww13_scud_188.6_80.4_1106.xsdst
FILE = /castor/cern.ch/delphi/MCprod/cern/racoonww13/v98e/188.6/racoonww13_scud_188.6_80.4_1107.xsdst
FILE = /castor/cern.ch/delphi/MCprod/cern/racoonww13/v98e/188.6/racoonww13_scud_188.6_80.4_1108.xsdst
FILE = /castor/cern.ch/delphi/MCprod/cern/racoonww13/v98e/188.6/racoonww13_scud_188.6_80.4_1109.xsdst
FILE = /castor/cern.ch/delphi/MCprod/cern/racoonww13/v98e/188.6/racoonww13_scud_188.6_80.4_1110.xsdst
FILE = /castor/cern.ch/delphi/MCprod/cern/racoonww13/v98e/188.6/racoonww13_scud_188.6_80.4_1111.xsdst
FILE = /castor/cern.ch/delphi/MCprod/cern/racoonww13/v98e/188.6/racoonww13_scud_188.6_80.4_1112.xsdst
FILE = /castor/cern.ch/delphi/MCprod/cern/racoonww13/v98e/188.6/racoonww13_scud_188.6_80.4_1113.xsdst
FILE = /castor/cern.ch/delphi/MCprod/cern/racoonww13/v98e/188.6/racoonww13_scud_188.6_80.4_1114.xsdst
FILE = /castor/cern.ch/delphi/MCprod/cern/racoonww13/v98e/188.6/racoonww13_scud_188.6_80.4_1115.xsdst
FILE = /castor/cern.ch/delphi/MCprod/cern/racoonww13/v98e/188.6/racoonww13_scud_188.6_80.4_1116.xsdst
FILE = /castor/cern.ch/delphi/MCprod/cern/racoonww13/v98e/188.6/racoonww13_scud_188.6_80.4_1117.xsdst
FILE = /castor/cern.ch/delphi/MCprod/cern/racoonww13/v98e/188.6/racoonww13_scud_188.6_80.4_1118.xsdst
FILE = /castor/cern.ch/delphi/MCprod/cern/racoonww13/v98e/188.6/racoonww13_scud_188.6_80.4_1119.xsdst
FILE = /castor/cern.ch/delphi/MCprod/cern/racoonww13/v98e/188.6/racoonww13_scud_188.6_80.4_1120.xsdst
FILE = /castor/cern.ch/delphi/MCprod/cern/racoonww13/v98e/188.6/racoonww13_scud_188.6_80.4_1121.xsdst
FILE = /castor/cern.ch/delphi/MCprod/cern/racoonww13/v98e/188.6/racoonww13_scud_188.6_80.4_1122.xsdst
FILE = /castor/cern.ch/delphi/MCprod/cern/racoonww13/v98e/188.6/racoonww13_scud_188.6_80.4_1123.xsdst
FILE = /castor/cern.ch/delphi/MCprod/cern/racoonww13/v98e/188.6/racoonww13_scud_188.6_80.4_1124.xsdst
FILE = /castor/cern.ch/delphi/MCprod/cern/racoonww13/v98e/188.6/racoonww13_scud_188.6_80.4_1125.xsdst
FILE = /castor/cern.ch/delphi/MCprod/cern/racoonww13/v98e/188.6/racoonww13_scud_188.6_80.4_1126.xsdst
FILE = /castor/cern.ch/delphi/MCprod/cern/racoonww13/v98e/188.6/racoonww13_scud_188.6_80.4_1127.xsdst
FILE = /castor/cern.ch/delphi/MCprod/cern/racoonww13/v98e/188.6/racoonww13_scud_188.6_80.4_1128.xsdst
FILE = /castor/cern.ch/delphi/MCprod/cern/racoonww13/v98e/188.6/racoonww13_scud_188.6_80.4_1129.xsdst
FILE = /castor/cern.ch/delphi/MCprod/cern/racoonww13/v98e/188.6/racoonww13_scud_188.6_80.4_1130.xsdst
FILE = /castor/cern.ch/delphi/MCprod/cern/racoonww13/v98e/188.6/racoonww13_scud_188.6_80.4_1131.xsdst
FILE = /castor/cern.ch/delphi/MCprod/cern/racoonww13/v98e/188.6/racoonww13_scud_188.6_80.4_1132.xsdst
FILE = /castor/cern.ch/delphi/MCprod/cern/racoonww13/v98e/188.6/racoonww13_scud_188.6_80.4_1133.xsdst
FILE = /castor/cern.ch/delphi/MCprod/cern/racoonww13/v98e/188.6/racoonww13_scud_188.6_80.4_1134.xsdst
FILE = /castor/cern.ch/delphi/MCprod/cern/racoonww13/v98e/188.6/racoonww13_scud_188.6_80.4_1135.xsdst
FILE = /castor/cern.ch/delphi/MCprod/cern/racoonww13/v98e/188.6/racoonww13_scud_188.6_80.4_1136.xsdst
FILE = /castor/cern.ch/delphi/MCprod/cern/racoonww13/v98e/188.6/racoonww13_scud_188.6_80.4_1137.xsdst
FILE = /castor/cern.ch/delphi/MCprod/cern/racoonww13/v98e/188.6/racoonww13_scud_188.6_80.4_1138.xsdst
FILE = /castor/cern.ch/delphi/MCprod/cern/racoonww13/v98e/188.6/racoonww13_scud_188.6_80.4_1139.xsdst
FILE = /castor/cern.ch/delphi/MCprod/cern/racoonww13/v98e/188.6/racoonww13_scud_188.6_80.4_1140.xsdst
FILE = /castor/cern.ch/delphi/MCprod/cern/racoonww13/v98e/188.6/racoonww13_scud_188.6_80.4_1141.xsdst
FILE = /castor/cern.ch/delphi/MCprod/cern/racoonww13/v98e/188.6/racoonww13_scud_188.6_80.4_1142.xsdst
FILE = /castor/cern.ch/delphi/MCprod/cern/racoonww13/v98e/188.6/racoonww13_scud_188.6_80.4_1143.xsdst
FILE = /castor/cern.ch/delphi/MCprod/cern/racoonww13/v98e/188.6/racoonww13_scud_188.6_80.4_1144.xsdst
FILE = /castor/cern.ch/delphi/MCprod/cern/racoonww13/v98e/188.6/racoonww13_scud_188.6_80.4_1145.xsdst
FILE = /castor/cern.ch/delphi/MCprod/cern/racoonww13/v98e/188.6/racoonww13_scud_188.6_80.4_1146.xsdst
FILE = /castor/cern.ch/delphi/MCprod/cern/racoonww13/v98e/188.6/racoonww13_scud_188.6_80.4_1147.xsdst
FILE = /castor/cern.ch/delphi/MCprod/cern/racoonww13/v98e/188.6/racoonww13_scud_188.6_80.4_1148.xsdst
FILE = /castor/cern.ch/delphi/MCprod/cern/racoonww13/v98e/188.6/racoonww13_scud_188.6_80.4_1149.xsdst
FILE = /castor/cern.ch/delphi/MCprod/cern/racoonww13/v98e/188.6/racoonww13_scud_188.6_80.4_1150.xsdst
FILE = /castor/cern.ch/delphi/MCprod/cern/racoonww13/v98e/188.6/racoonww13_scud_188.6_80.4_1151.xsdst
FILE = /castor/cern.ch/delphi/MCprod/cern/racoonww13/v98e/188.6/racoonww13_scud_188.6_80.4_1152.xsdst
FILE = /castor/cern.ch/delphi/MCprod/cern/racoonww13/v98e/188.6/racoonww13_scud_188.6_80.4_1153.xsdst
FILE = /castor/cern.ch/delphi/MCprod/cern/racoonww13/v98e/188.6/racoonww13_scud_188.6_80.4_1154.xsdst
FILE = /castor/cern.ch/delphi/MCprod/cern/racoonww13/v98e/188.6/racoonww13_scud_188.6_80.4_1155.xsdst
FILE = /castor/cern.ch/delphi/MCprod/cern/racoonww13/v98e/188.6/racoonww13_scud_188.6_80.4_1156.xsdst
FILE = /castor/cern.ch/delphi/MCprod/cern/racoonww13/v98e/188.6/racoonww13_scud_188.6_80.4_1157.xsdst
FILE = /castor/cern.ch/delphi/MCprod/cern/racoonww13/v98e/188.6/racoonww13_scud_188.6_80.4_1158.xsdst
FILE = /castor/cern.ch/delphi/MCprod/cern/racoonww13/v98e/188.6/racoonww13_scud_188.6_80.4_1159.xsdst
FILE = /castor/cern.ch/delphi/MCprod/cern/racoonww13/v98e/188.6/racoonww13_scud_188.6_80.4_1160.xsdst
FILE = /castor/cern.ch/delphi/MCprod/cern/racoonww13/v98e/188.6/racoonww13_scud_188.6_80.4_1161.xsdst
FILE = /castor/cern.ch/delphi/MCprod/cern/racoonww13/v98e/188.6/racoonww13_scud_188.6_80.4_1162.xsdst
FILE = /castor/cern.ch/delphi/MCprod/cern/racoonww13/v98e/188.6/racoonww13_scud_188.6_80.4_1163.xsdst
FILE = /castor/cern.ch/delphi/MCprod/cern/racoonww13/v98e/188.6/racoonww13_scud_188.6_80.4_1164.xsdst
FILE = /castor/cern.ch/delphi/MCprod/cern/racoonww13/v98e/188.6/racoonww13_scud_188.6_80.4_1165.xsdst
FILE = /castor/cern.ch/delphi/MCprod/cern/racoonww13/v98e/188.6/racoonww13_scud_188.6_80.4_1166.xsdst
FILE = /castor/cern.ch/delphi/MCprod/cern/racoonww13/v98e/188.6/racoonww13_scud_188.6_80.4_1167.xsdst
FILE = /castor/cern.ch/delphi/MCprod/cern/racoonww13/v98e/188.6/racoonww13_scud_188.6_80.4_1168.xsdst
FILE = /castor/cern.ch/delphi/MCprod/cern/racoonww13/v98e/188.6/racoonww13_scud_188.6_80.4_1169.xsdst
FILE = /castor/cern.ch/delphi/MCprod/cern/racoonww13/v98e/188.6/racoonww13_scud_188.6_80.4_1170.xsdst
FILE = /castor/cern.ch/delphi/MCprod/cern/racoonww13/v98e/188.6/racoonww13_scud_188.6_80.4_1171.xsdst
FILE = /castor/cern.ch/delphi/MCprod/cern/racoonww13/v98e/188.6/racoonww13_scud_188.6_80.4_1173.xsdst
FILE = /castor/cern.ch/delphi/MCprod/cern/racoonww13/v98e/188.6/racoonww13_scud_188.6_80.4_1174.xsdst
FILE = /castor/cern.ch/delphi/MCprod/cern/racoonww13/v98e/188.6/racoonww13_scud_188.6_80.4_1175.xsdst
FILE = /castor/cern.ch/delphi/MCprod/cern/racoonww13/v98e/188.6/racoonww13_scud_188.6_80.4_1176.xsdst
FILE = /castor/cern.ch/delphi/MCprod/cern/racoonww13/v98e/188.6/racoonww13_scud_188.6_80.4_1177.xsdst
FILE = /castor/cern.ch/delphi/MCprod/cern/racoonww13/v98e/188.6/racoonww13_scud_188.6_80.4_1178.xsdst
FILE = /castor/cern.ch/delphi/MCprod/cern/racoonww13/v98e/188.6/racoonww13_scud_188.6_80.4_1179.xsdst
FILE = /castor/cern.ch/delphi/MCprod/cern/racoonww13/v98e/188.6/racoonww13_scud_188.6_80.4_1180.xsdst
FILE = /castor/cern.ch/delphi/MCprod/cern/racoonww13/v98e/188.6/racoonww13_scud_188.6_80.4_1181.xsdst
FILE = /castor/cern.ch/delphi/MCprod/cern/racoonww13/v98e/188.6/racoonww13_scud_188.6_80.4_1182.xsdst
FILE = /castor/cern.ch/delphi/MCprod/cern/racoonww13/v98e/188.6/racoonww13_scud_188.6_80.4_1183.xsdst
FILE = /castor/cern.ch/delphi/MCprod/cern/racoonww13/v98e/188.6/racoonww13_scud_188.6_80.4_1184.xsdst
FILE = /castor/cern.ch/delphi/MCprod/cern/racoonww13/v98e/188.6/racoonww13_scud_188.6_80.4_1185.xsdst
FILE = /castor/cern.ch/delphi/MCprod/cern/racoonww13/v98e/188.6/racoonww13_scud_188.6_80.4_1186.xsdst
FILE = /castor/cern.ch/delphi/MCprod/cern/racoonww13/v98e/188.6/racoonww13_scud_188.6_80.4_1187.xsdst
FILE = /castor/cern.ch/delphi/MCprod/cern/racoonww13/v98e/188.6/racoonww13_scud_188.6_80.4_1188.xsdst
FILE = /castor/cern.ch/delphi/MCprod/cern/racoonww13/v98e/188.6/racoonww13_scud_188.6_80.4_1189.xsdst
FILE = /castor/cern.ch/delphi/MCprod/cern/racoonww13/v98e/188.6/racoonww13_scud_188.6_80.4_1190.xsdst
FILE = /castor/cern.ch/delphi/MCprod/cern/racoonww13/v98e/188.6/racoonww13_scud_188.6_80.4_1191.xsdst
FILE = /castor/cern.ch/delphi/MCprod/cern/racoonww13/v98e/188.6/racoonww13_scud_188.6_80.4_1192.xsdst
FILE = /castor/cern.ch/delphi/MCprod/cern/racoonww13/v98e/188.6/racoonww13_scud_188.6_80.4_1193.xsdst
FILE = /castor/cern.ch/delphi/MCprod/cern/racoonww13/v98e/188.6/racoonww13_scud_188.6_80.4_1194.xsdst
FILE = /castor/cern.ch/delphi/MCprod/cern/racoonww13/v98e/188.6/racoonww13_scud_188.6_80.4_1195.xsdst
FILE = /castor/cern.ch/delphi/MCprod/cern/racoonww13/v98e/188.6/racoonww13_scud_188.6_80.4_1196.xsdst
FILE = /castor/cern.ch/delphi/MCprod/cern/racoonww13/v98e/188.6/racoonww13_scud_188.6_80.4_1197.xsdst
FILE = /castor/cern.ch/delphi/MCprod/cern/racoonww13/v98e/188.6/racoonww13_scud_188.6_80.4_1198.xsdst
FILE = /castor/cern.ch/delphi/MCprod/cern/racoonww13/v98e/188.6/racoonww13_scud_188.6_80.4_1199.xsdst
FILE = /castor/cern.ch/delphi/MCprod/cern/racoonww13/v98e/188.6/racoonww13_scud_188.6_80.4_1200.xsdst
FILE = /castor/cern.ch/delphi/MCprod/cern/racoonww13/v98e/188.6/racoonww13_scud_188.6_80.4_1201.xsdst
FILE = /castor/cern.ch/delphi/MCprod/cern/racoonww13/v98e/188.6/racoonww13_scud_188.6_80.4_1202.xsdst
FILE = /castor/cern.ch/delphi/MCprod/cern/racoonww13/v98e/188.6/racoonww13_scud_188.6_80.4_1203.xsdst
FILE = /castor/cern.ch/delphi/MCprod/cern/racoonww13/v98e/188.6/racoonww13_scud_188.6_80.4_1204.xsdst
FILE = /castor/cern.ch/delphi/MCprod/cern/racoonww13/v98e/188.6/racoonww13_scud_188.6_80.4_1205.xsdst
FILE = /castor/cern.ch/delphi/MCprod/cern/racoonww13/v98e/188.6/racoonww13_scud_188.6_80.4_1206.xsdst
FILE = /castor/cern.ch/delphi/MCprod/cern/racoonww13/v98e/188.6/racoonww13_scud_188.6_80.4_1207.xsdst
FILE = /castor/cern.ch/delphi/MCprod/cern/racoonww13/v98e/188.6/racoonww13_scud_188.6_80.4_1208.xsdst
FILE = /castor/cern.ch/delphi/MCprod/cern/racoonww13/v98e/188.6/racoonww13_scud_188.6_80.4_1209.xsdst
FILE = /castor/cern.ch/delphi/MCprod/cern/racoonww13/v98e/188.6/racoonww13_scud_188.6_80.4_1210.xsdst
FILE = /castor/cern.ch/delphi/MCprod/cern/racoonww13/v98e/188.6/racoonww13_scud_188.6_80.4_1211.xsdst
FILE = /castor/cern.ch/delphi/MCprod/cern/racoonww13/v98e/188.6/racoonww13_scud_188.6_80.4_1212.xsdst
FILE = /castor/cern.ch/delphi/MCprod/cern/racoonww13/v98e/188.6/racoonww13_scud_188.6_80.4_1213.xsdst
FILE = /castor/cern.ch/delphi/MCprod/cern/racoonww13/v98e/188.6/racoonww13_scud_188.6_80.4_1214.xsdst
FILE = /castor/cern.ch/delphi/MCprod/cern/racoonww13/v98e/188.6/racoonww13_scud_188.6_80.4_1215.xsdst
FILE = /castor/cern.ch/delphi/MCprod/cern/racoonww13/v98e/188.6/racoonww13_scud_188.6_80.4_1216.xsdst
FILE = /castor/cern.ch/delphi/MCprod/cern/racoonww13/v98e/188.6/racoonww13_scud_188.6_80.4_1217.xsdst
FILE = /castor/cern.ch/delphi/MCprod/cern/racoonww13/v98e/188.6/racoonww13_scud_188.6_80.4_1218.xsdst
FILE = /castor/cern.ch/delphi/MCprod/cern/racoonww13/v98e/188.6/racoonww13_scud_188.6_80.4_1219.xsdst
FILE = /castor/cern.ch/delphi/MCprod/cern/racoonww13/v98e/188.6/racoonww13_scud_188.6_80.4_1220.xsdst
FILE = /castor/cern.ch/delphi/MCprod/cern/racoonww13/v98e/188.6/racoonww13_scud_188.6_80.4_1221.xsdst
FILE = /castor/cern.ch/delphi/MCprod/cern/racoonww13/v98e/188.6/racoonww13_scud_188.6_80.4_1222.xsdst
FILE = /castor/cern.ch/delphi/MCprod/cern/racoonww13/v98e/188.6/racoonww13_scud_188.6_80.4_1223.xsdst
FILE = /castor/cern.ch/delphi/MCprod/cern/racoonww13/v98e/188.6/racoonww13_scud_188.6_80.4_1224.xsdst
FILE = /castor/cern.ch/delphi/MCprod/cern/racoonww13/v98e/188.6/racoonww13_scud_188.6_80.4_1225.xsdst
FILE = /castor/cern.ch/delphi/MCprod/cern/racoonww13/v98e/188.6/racoonww13_scud_188.6_80.4_1226.xsdst
FILE = /castor/cern.ch/delphi/MCprod/cern/racoonww13/v98e/188.6/racoonww13_scud_188.6_80.4_1227.xsdst
FILE = /castor/cern.ch/delphi/MCprod/cern/racoonww13/v98e/188.6/racoonww13_scud_188.6_80.4_1228.xsdst
FILE = /castor/cern.ch/delphi/MCprod/cern/racoonww13/v98e/188.6/racoonww13_scud_188.6_80.4_1229.xsdst
FILE = /castor/cern.ch/delphi/MCprod/cern/racoonww13/v98e/188.6/racoonww13_scud_188.6_80.4_1230.xsdst
FILE = /castor/cern.ch/delphi/MCprod/cern/racoonww13/v98e/188.6/racoonww13_scud_188.6_80.4_1231.xsdst
FILE = /castor/cern.ch/delphi/MCprod/cern/racoonww13/v98e/188.6/racoonww13_scud_188.6_80.4_1232.xsdst
FILE = /castor/cern.ch/delphi/MCprod/cern/racoonww13/v98e/188.6/racoonww13_scud_188.6_80.4_1233.xsdst
FILE = /castor/cern.ch/delphi/MCprod/cern/racoonww13/v98e/188.6/racoonww13_scud_188.6_80.4_1234.xsdst
FILE = /castor/cern.ch/delphi/MCprod/cern/racoonww13/v98e/188.6/racoonww13_scud_188.6_80.4_1235.xsdst
FILE = /castor/cern.ch/delphi/MCprod/cern/racoonww13/v98e/188.6/racoonww13_scud_188.6_80.4_1237.xsdst
FILE = /castor/cern.ch/delphi/MCprod/cern/racoonww13/v98e/188.6/racoonww13_scud_188.6_80.4_1238.xsdst
FILE = /castor/cern.ch/delphi/MCprod/cern/racoonww13/v98e/188.6/racoonww13_scud_188.6_80.4_1239.xsdst
FILE = /castor/cern.ch/delphi/MCprod/cern/racoonww13/v98e/188.6/racoonww13_scud_188.6_80.4_1240.xsdst
FILE = /castor/cern.ch/delphi/MCprod/cern/racoonww13/v98e/188.6/racoonww13_scud_188.6_80.4_1241.xsdst
FILE = /castor/cern.ch/delphi/MCprod/cern/racoonww13/v98e/188.6/racoonww13_scud_188.6_80.4_1242.xsdst
FILE = /castor/cern.ch/delphi/MCprod/cern/racoonww13/v98e/188.6/racoonww13_scud_188.6_80.4_1243.xsdst
FILE = /castor/cern.ch/delphi/MCprod/cern/racoonww13/v98e/188.6/racoonww13_scud_188.6_80.4_1244.xsdst
FILE = /castor/cern.ch/delphi/MCprod/cern/racoonww13/v98e/188.6/racoonww13_scud_188.6_80.4_1245.xsdst
FILE = /castor/cern.ch/delphi/MCprod/cern/racoonww13/v98e/188.6/racoonww13_scud_188.6_80.4_1246.xsdst
FILE = /castor/cern.ch/delphi/MCprod/cern/racoonww13/v98e/188.6/racoonww13_scud_188.6_80.4_1247.xsdst
FILE = /castor/cern.ch/delphi/MCprod/cern/racoonww13/v98e/188.6/racoonww13_scud_188.6_80.4_1248.xsdst
FILE = /castor/cern.ch/delphi/MCprod/cern/racoonww13/v98e/188.6/racoonww13_scud_188.6_80.4_1249.xsdst
FILE = /castor/cern.ch/delphi/MCprod/cern/racoonww13/v98e/188.6/racoonww13_scud_188.6_80.4_1250.xsdst
FILE = /castor/cern.ch/delphi/MCprod/cern/racoonww13/v98e/188.6/racoonww13_scud_188.6_80.4_1251.xsdst
FILE = /castor/cern.ch/delphi/MCprod/cern/racoonww13/v98e/188.6/racoonww13_scud_188.6_80.4_1252.xsdst
FILE = /castor/cern.ch/delphi/MCprod/cern/racoonww13/v98e/188.6/racoonww13_scud_188.6_80.4_1253.xsdst
FILE = /castor/cern.ch/delphi/MCprod/cern/racoonww13/v98e/188.6/racoonww13_scud_188.6_80.4_1254.xsdst
FILE = /castor/cern.ch/delphi/MCprod/cern/racoonww13/v98e/188.6/racoonww13_scud_188.6_80.4_1255.xsdst
FILE = /castor/cern.ch/delphi/MCprod/cern/racoonww13/v98e/188.6/racoonww13_scud_188.6_80.4_1256.xsdst
FILE = /castor/cern.ch/delphi/MCprod/cern/racoonww13/v98e/188.6/racoonww13_scud_188.6_80.4_1257.xsdst
FILE = /castor/cern.ch/delphi/MCprod/cern/racoonww13/v98e/188.6/racoonww13_scud_188.6_80.4_1258.xsdst
FILE = /castor/cern.ch/delphi/MCprod/cern/racoonww13/v98e/188.6/racoonww13_scud_188.6_80.4_1259.xsdst
FILE = /castor/cern.ch/delphi/MCprod/cern/racoonww13/v98e/188.6/racoonww13_scud_188.6_80.4_1260.xsdst
FILE = /castor/cern.ch/delphi/MCprod/cern/racoonww13/v98e/188.6/racoonww13_scud_188.6_80.4_1261.xsdst
FILE = /castor/cern.ch/delphi/MCprod/cern/racoonww13/v98e/188.6/racoonww13_scud_188.6_80.4_1262.xsdst
FILE = /castor/cern.ch/delphi/MCprod/cern/racoonww13/v98e/188.6/racoonww13_scud_188.6_80.4_1263.xsdst
FILE = /castor/cern.ch/delphi/MCprod/cern/racoonww13/v98e/188.6/racoonww13_scud_188.6_80.4_1264.xsdst
FILE = /castor/cern.ch/delphi/MCprod/cern/racoonww13/v98e/188.6/racoonww13_scud_188.6_80.4_1265.xsdst
FILE = /castor/cern.ch/delphi/MCprod/cern/racoonww13/v98e/188.6/racoonww13_scud_188.6_80.4_1266.xsdst
FILE = /castor/cern.ch/delphi/MCprod/cern/racoonww13/v98e/188.6/racoonww13_scud_188.6_80.4_1267.xsdst
FILE = /castor/cern.ch/delphi/MCprod/cern/racoonww13/v98e/188.6/racoonww13_scud_188.6_80.4_1268.xsdst
FILE = /castor/cern.ch/delphi/MCprod/cern/racoonww13/v98e/188.6/racoonww13_scud_188.6_80.4_1269.xsdst
FILE = /castor/cern.ch/delphi/MCprod/cern/racoonww13/v98e/188.6/racoonww13_scud_188.6_80.4_1270.xsdst
FILE = /castor/cern.ch/delphi/MCprod/cern/racoonww13/v98e/188.6/racoonww13_scud_188.6_80.4_1271.xsdst
FILE = /castor/cern.ch/delphi/MCprod/cern/racoonww13/v98e/188.6/racoonww13_scud_188.6_80.4_1272.xsdst
FILE = /castor/cern.ch/delphi/MCprod/cern/racoonww13/v98e/188.6/racoonww13_scud_188.6_80.4_1273.xsdst
FILE = /castor/cern.ch/delphi/MCprod/cern/racoonww13/v98e/188.6/racoonww13_scud_188.6_80.4_1274.xsdst
FILE = /castor/cern.ch/delphi/MCprod/cern/racoonww13/v98e/188.6/racoonww13_scud_188.6_80.4_1275.xsdst
FILE = /castor/cern.ch/delphi/MCprod/cern/racoonww13/v98e/188.6/racoonww13_scud_188.6_80.4_1276.xsdst
FILE = /castor/cern.ch/delphi/MCprod/cern/racoonww13/v98e/188.6/racoonww13_scud_188.6_80.4_1277.xsdst
FILE = /castor/cern.ch/delphi/MCprod/cern/racoonww13/v98e/188.6/racoonww13_scud_188.6_80.4_1278.xsdst
FILE = /castor/cern.ch/delphi/MCprod/cern/racoonww13/v98e/188.6/racoonww13_scud_188.6_80.4_1279.xsdst
FILE = /castor/cern.ch/delphi/MCprod/cern/racoonww13/v98e/188.6/racoonww13_scud_188.6_80.4_1280.xsdst
FILE = /castor/cern.ch/delphi/MCprod/cern/racoonww13/v98e/188.6/racoonww13_scud_188.6_80.4_1281.xsdst
FILE = /castor/cern.ch/delphi/MCprod/cern/racoonww13/v98e/188.6/racoonww13_scud_188.6_80.4_1282.xsdst
FILE = /castor/cern.ch/delphi/MCprod/cern/racoonww13/v98e/188.6/racoonww13_scud_188.6_80.4_1283.xsdst
FILE = /castor/cern.ch/delphi/MCprod/cern/racoonww13/v98e/188.6/racoonww13_scud_188.6_80.4_1284.xsdst
FILE = /castor/cern.ch/delphi/MCprod/cern/racoonww13/v98e/188.6/racoonww13_scud_188.6_80.4_1285.xsdst
FILE = /castor/cern.ch/delphi/MCprod/cern/racoonww13/v98e/188.6/racoonww13_scud_188.6_80.4_1286.xsdst
FILE = /castor/cern.ch/delphi/MCprod/cern/racoonww13/v98e/188.6/racoonww13_scud_188.6_80.4_1287.xsdst
FILE = /castor/cern.ch/delphi/MCprod/cern/racoonww13/v98e/188.6/racoonww13_scud_188.6_80.4_1288.xsdst
FILE = /castor/cern.ch/delphi/MCprod/cern/racoonww13/v98e/188.6/racoonww13_scud_188.6_80.4_1289.xsdst
FILE = /castor/cern.ch/delphi/MCprod/cern/racoonww13/v98e/188.6/racoonww13_scud_188.6_80.4_1290.xsdst
FILE = /castor/cern.ch/delphi/MCprod/cern/racoonww13/v98e/188.6/racoonww13_scud_188.6_80.4_1291.xsdst
FILE = /castor/cern.ch/delphi/MCprod/cern/racoonww13/v98e/188.6/racoonww13_scud_188.6_80.4_1292.xsdst
FILE = /castor/cern.ch/delphi/MCprod/cern/racoonww13/v98e/188.6/racoonww13_scud_188.6_80.4_1293.xsdst
FILE = /castor/cern.ch/delphi/MCprod/cern/racoonww13/v98e/188.6/racoonww13_scud_188.6_80.4_1294.xsdst
FILE = /castor/cern.ch/delphi/MCprod/cern/racoonww13/v98e/188.6/racoonww13_scud_188.6_80.4_1295.xsdst
FILE = /castor/cern.ch/delphi/MCprod/cern/racoonww13/v98e/188.6/racoonww13_scud_188.6_80.4_1296.xsdst
FILE = /castor/cern.ch/delphi/MCprod/cern/racoonww13/v98e/188.6/racoonww13_scud_188.6_80.4_1297.xsdst
FILE = /castor/cern.ch/delphi/MCprod/cern/racoonww13/v98e/188.6/racoonww13_scud_188.6_80.4_1298.xsdst
FILE = /castor/cern.ch/delphi/MCprod/cern/racoonww13/v98e/188.6/racoonww13_scud_188.6_80.4_1299.xsdst
FILE = /castor/cern.ch/delphi/MCprod/cern/racoonww13/v98e/188.6/racoonww13_scud_188.6_80.4_1300.xsdst
FILE = /castor/cern.ch/delphi/MCprod/cern/racoonww13/v98e/188.6/racoonww13_scud_188.6_80.4_1301.xsdst
FILE = /castor/cern.ch/delphi/MCprod/cern/racoonww13/v98e/188.6/racoonww13_scud_188.6_80.4_1302.xsdst
FILE = /castor/cern.ch/delphi/MCprod/cern/racoonww13/v98e/188.6/racoonww13_scud_188.6_80.4_1303.xsdst
FILE = /castor/cern.ch/delphi/MCprod/cern/racoonww13/v98e/188.6/racoonww13_scud_188.6_80.4_1304.xsdst
FILE = /castor/cern.ch/delphi/MCprod/cern/racoonww13/v98e/188.6/racoonww13_scud_188.6_80.4_1305.xsdst
FILE = /castor/cern.ch/delphi/MCprod/cern/racoonww13/v98e/188.6/racoonww13_scud_188.6_80.4_1306.xsdst
FILE = /castor/cern.ch/delphi/MCprod/cern/racoonww13/v98e/188.6/racoonww13_scud_188.6_80.4_1307.xsdst
FILE = /castor/cern.ch/delphi/MCprod/cern/racoonww13/v98e/188.6/racoonww13_scud_188.6_80.4_1308.xsdst
FILE = /castor/cern.ch/delphi/MCprod/cern/racoonww13/v98e/188.6/racoonww13_scud_188.6_80.4_1309.xsdst
FILE = /castor/cern.ch/delphi/MCprod/cern/racoonww13/v98e/188.6/racoonww13_scud_188.6_80.4_1310.xsdst
FILE = /castor/cern.ch/delphi/MCprod/cern/racoonww13/v98e/188.6/racoonww13_scud_188.6_80.4_1311.xsdst
FILE = /castor/cern.ch/delphi/MCprod/cern/racoonww13/v98e/188.6/racoonww13_scud_188.6_80.4_1312.xsdst
FILE = /castor/cern.ch/delphi/MCprod/cern/racoonww13/v98e/188.6/racoonww13_scud_188.6_80.4_1313.xsdst
FILE = /castor/cern.ch/delphi/MCprod/cern/racoonww13/v98e/188.6/racoonww13_scud_188.6_80.4_1314.xsdst
FILE = /castor/cern.ch/delphi/MCprod/cern/racoonww13/v98e/188.6/racoonww13_scud_188.6_80.4_1315.xsdst
FILE = /castor/cern.ch/delphi/MCprod/cern/racoonww13/v98e/188.6/racoonww13_scud_188.6_80.4_1316.xsdst
FILE = /castor/cern.ch/delphi/MCprod/cern/racoonww13/v98e/188.6/racoonww13_scud_188.6_80.4_1317.xsdst
FILE = /castor/cern.ch/delphi/MCprod/cern/racoonww13/v98e/188.6/racoonww13_scud_188.6_80.4_1318.xsdst
FILE = /castor/cern.ch/delphi/MCprod/cern/racoonww13/v98e/188.6/racoonww13_scud_188.6_80.4_1319.xsdst
FILE = /castor/cern.ch/delphi/MCprod/cern/racoonww13/v98e/188.6/racoonww13_scud_188.6_80.4_1320.xsdst
FILE = /castor/cern.ch/delphi/MCprod/cern/racoonww13/v98e/188.6/racoonww13_scud_188.6_80.4_1321.xsdst
FILE = /castor/cern.ch/delphi/MCprod/cern/racoonww13/v98e/188.6/racoonww13_scud_188.6_80.4_1322.xsdst
FILE = /castor/cern.ch/delphi/MCprod/cern/racoonww13/v98e/188.6/racoonww13_scud_188.6_80.4_1323.xsdst
FILE = /castor/cern.ch/delphi/MCprod/cern/racoonww13/v98e/188.6/racoonww13_scud_188.6_80.4_1324.xsdst
FILE = /castor/cern.ch/delphi/MCprod/cern/racoonww13/v98e/188.6/racoonww13_scud_188.6_80.4_1325.xsdst
FILE = /castor/cern.ch/delphi/MCprod/cern/racoonww13/v98e/188.6/racoonww13_scud_188.6_80.4_1326.xsdst
FILE = /castor/cern.ch/delphi/MCprod/cern/racoonww13/v98e/188.6/racoonww13_scud_188.6_80.4_1327.xsdst
FILE = /castor/cern.ch/delphi/MCprod/cern/racoonww13/v98e/188.6/racoonww13_scud_188.6_80.4_1328.xsdst
FILE = /castor/cern.ch/delphi/MCprod/cern/racoonww13/v98e/188.6/racoonww13_scud_188.6_80.4_1329.xsdst
FILE = /castor/cern.ch/delphi/MCprod/cern/racoonww13/v98e/188.6/racoonww13_scud_188.6_80.4_1330.xsdst
FILE = /castor/cern.ch/delphi/MCprod/cern/racoonww13/v98e/188.6/racoonww13_scud_188.6_80.4_1331.xsdst
FILE = /castor/cern.ch/delphi/MCprod/cern/racoonww13/v98e/188.6/racoonww13_scud_188.6_80.4_1332.xsdst
FILE = /castor/cern.ch/delphi/MCprod/cern/racoonww13/v98e/188.6/racoonww13_scud_188.6_80.4_1333.xsdst
FILE = /castor/cern.ch/delphi/MCprod/cern/racoonww13/v98e/188.6/racoonww13_scud_188.6_80.4_1334.xsdst
FILE = /castor/cern.ch/delphi/MCprod/cern/racoonww13/v98e/188.6/racoonww13_scud_188.6_80.4_1335.xsdst
FILE = /castor/cern.ch/delphi/MCprod/cern/racoonww13/v98e/188.6/racoonww13_scud_188.6_80.4_1336.xsdst
FILE = /castor/cern.ch/delphi/MCprod/cern/racoonww13/v98e/188.6/racoonww13_scud_188.6_80.4_1337.xsdst
FILE = /castor/cern.ch/delphi/MCprod/cern/racoonww13/v98e/188.6/racoonww13_scud_188.6_80.4_1338.xsdst
FILE = /castor/cern.ch/delphi/MCprod/cern/racoonww13/v98e/188.6/racoonww13_scud_188.6_80.4_1339.xsdst
FILE = /castor/cern.ch/delphi/MCprod/cern/racoonww13/v98e/188.6/racoonww13_scud_188.6_80.4_1340.xsdst
FILE = /castor/cern.ch/delphi/MCprod/cern/racoonww13/v98e/188.6/racoonww13_scud_188.6_80.4_1341.xsdst
FILE = /castor/cern.ch/delphi/MCprod/cern/racoonww13/v98e/188.6/racoonww13_scud_188.6_80.4_1342.xsdst
FILE = /castor/cern.ch/delphi/MCprod/cern/racoonww13/v98e/188.6/racoonww13_scud_188.6_80.4_1343.xsdst
FILE = /castor/cern.ch/delphi/MCprod/cern/racoonww13/v98e/188.6/racoonww13_scud_188.6_80.4_1344.xsdst
FILE = /castor/cern.ch/delphi/MCprod/cern/racoonww13/v98e/188.6/racoonww13_scud_188.6_80.4_1345.xsdst
FILE = /castor/cern.ch/delphi/MCprod/cern/racoonww13/v98e/188.6/racoonww13_scud_188.6_80.4_1346.xsdst
FILE = /castor/cern.ch/delphi/MCprod/cern/racoonww13/v98e/188.6/racoonww13_scud_188.6_80.4_1347.xsdst
FILE = /castor/cern.ch/delphi/MCprod/cern/racoonww13/v98e/188.6/racoonww13_scud_188.6_80.4_1348.xsdst
FILE = /castor/cern.ch/delphi/MCprod/cern/racoonww13/v98e/188.6/racoonww13_scud_188.6_80.4_1349.xsdst
FILE = /castor/cern.ch/delphi/MCprod/cern/racoonww13/v98e/188.6/racoonww13_scud_188.6_80.4_1350.xsdst
FILE = /castor/cern.ch/delphi/MCprod/cern/racoonww13/v98e/188.6/racoonww13_scud_188.6_80.4_1351.xsdst
FILE = /castor/cern.ch/delphi/MCprod/cern/racoonww13/v98e/188.6/racoonww13_scud_188.6_80.4_1352.xsdst
FILE = /castor/cern.ch/delphi/MCprod/cern/racoonww13/v98e/188.6/racoonww13_scud_188.6_80.4_1353.xsdst
FILE = /castor/cern.ch/delphi/MCprod/cern/racoonww13/v98e/188.6/racoonww13_scud_188.6_80.4_1354.xsdst
FILE = /castor/cern.ch/delphi/MCprod/cern/racoonww13/v98e/188.6/racoonww13_scud_188.6_80.4_1355.xsdst
FILE = /castor/cern.ch/delphi/MCprod/cern/racoonww13/v98e/188.6/racoonww13_scud_188.6_80.4_1356.xsdst
FILE = /castor/cern.ch/delphi/MCprod/cern/racoonww13/v98e/188.6/racoonww13_scud_188.6_80.4_1357.xsdst
FILE = /castor/cern.ch/delphi/MCprod/cern/racoonww13/v98e/188.6/racoonww13_scud_188.6_80.4_1358.xsdst
FILE = /castor/cern.ch/delphi/MCprod/cern/racoonww13/v98e/188.6/racoonww13_scud_188.6_80.4_1359.xsdst
FILE = /castor/cern.ch/delphi/MCprod/cern/racoonww13/v98e/188.6/racoonww13_scud_188.6_80.4_1360.xsdst
FILE = /castor/cern.ch/delphi/MCprod/cern/racoonww13/v98e/188.6/racoonww13_scud_188.6_80.4_1361.xsdst
FILE = /castor/cern.ch/delphi/MCprod/cern/racoonww13/v98e/188.6/racoonww13_scud_188.6_80.4_1363.xsdst
FILE = /castor/cern.ch/delphi/MCprod/cern/racoonww13/v98e/188.6/racoonww13_scud_188.6_80.4_1364.xsdst
FILE = /castor/cern.ch/delphi/MCprod/cern/racoonww13/v98e/188.6/racoonww13_scud_188.6_80.4_1365.xsdst
FILE = /castor/cern.ch/delphi/MCprod/cern/racoonww13/v98e/188.6/racoonww13_scud_188.6_80.4_1366.xsdst
FILE = /castor/cern.ch/delphi/MCprod/cern/racoonww13/v98e/188.6/racoonww13_scud_188.6_80.4_1367.xsdst
FILE = /castor/cern.ch/delphi/MCprod/cern/racoonww13/v98e/188.6/racoonww13_scud_188.6_80.4_1368.xsdst
FILE = /castor/cern.ch/delphi/MCprod/cern/racoonww13/v98e/188.6/racoonww13_scud_188.6_80.4_1369.xsdst
FILE = /castor/cern.ch/delphi/MCprod/cern/racoonww13/v98e/188.6/racoonww13_scud_188.6_80.4_1370.xsdst
FILE = /castor/cern.ch/delphi/MCprod/cern/racoonww13/v98e/188.6/racoonww13_scud_188.6_80.4_1371.xsdst
FILE = /castor/cern.ch/delphi/MCprod/cern/racoonww13/v98e/188.6/racoonww13_scud_188.6_80.4_1373.xsdst
FILE = /castor/cern.ch/delphi/MCprod/cern/racoonww13/v98e/188.6/racoonww13_scud_188.6_80.4_1374.xsdst
FILE = /castor/cern.ch/delphi/MCprod/cern/racoonww13/v98e/188.6/racoonww13_scud_188.6_80.4_1375.xsdst
FILE = /castor/cern.ch/delphi/MCprod/cern/racoonww13/v98e/188.6/racoonww13_scud_188.6_80.4_1376.xsdst
FILE = /castor/cern.ch/delphi/MCprod/cern/racoonww13/v98e/188.6/racoonww13_scud_188.6_80.4_1377.xsdst
FILE = /castor/cern.ch/delphi/MCprod/cern/racoonww13/v98e/188.6/racoonww13_scud_188.6_80.4_1378.xsdst
FILE = /castor/cern.ch/delphi/MCprod/cern/racoonww13/v98e/188.6/racoonww13_scud_188.6_80.4_1379.xsdst
FILE = /castor/cern.ch/delphi/MCprod/cern/racoonww13/v98e/188.6/racoonww13_scud_188.6_80.4_1380.xsdst
FILE = /castor/cern.ch/delphi/MCprod/cern/racoonww13/v98e/188.6/racoonww13_scud_188.6_80.4_1381.xsdst
FILE = /castor/cern.ch/delphi/MCprod/cern/racoonww13/v98e/188.6/racoonww13_scud_188.6_80.4_1382.xsdst
FILE = /castor/cern.ch/delphi/MCprod/cern/racoonww13/v98e/188.6/racoonww13_scud_188.6_80.4_1383.xsdst
FILE = /castor/cern.ch/delphi/MCprod/cern/racoonww13/v98e/188.6/racoonww13_scud_188.6_80.4_1384.xsdst
FILE = /castor/cern.ch/delphi/MCprod/cern/racoonww13/v98e/188.6/racoonww13_scud_188.6_80.4_1385.xsdst
FILE = /castor/cern.ch/delphi/MCprod/cern/racoonww13/v98e/188.6/racoonww13_scud_188.6_80.4_1386.xsdst
FILE = /castor/cern.ch/delphi/MCprod/cern/racoonww13/v98e/188.6/racoonww13_scud_188.6_80.4_1387.xsdst
FILE = /castor/cern.ch/delphi/MCprod/cern/racoonww13/v98e/188.6/racoonww13_scud_188.6_80.4_1388.xsdst
FILE = /castor/cern.ch/delphi/MCprod/cern/racoonww13/v98e/188.6/racoonww13_scud_188.6_80.4_1389.xsdst
FILE = /castor/cern.ch/delphi/MCprod/cern/racoonww13/v98e/188.6/racoonww13_scud_188.6_80.4_1390.xsdst
FILE = /castor/cern.ch/delphi/MCprod/cern/racoonww13/v98e/188.6/racoonww13_scud_188.6_80.4_1391.xsdst
FILE = /castor/cern.ch/delphi/MCprod/cern/racoonww13/v98e/188.6/racoonww13_scud_188.6_80.4_1392.xsdst
FILE = /castor/cern.ch/delphi/MCprod/cern/racoonww13/v98e/188.6/racoonww13_scud_188.6_80.4_1393.xsdst
FILE = /castor/cern.ch/delphi/MCprod/cern/racoonww13/v98e/188.6/racoonww13_scud_188.6_80.4_1394.xsdst
FILE = /castor/cern.ch/delphi/MCprod/cern/racoonww13/v98e/188.6/racoonww13_scud_188.6_80.4_1395.xsdst
FILE = /castor/cern.ch/delphi/MCprod/cern/racoonww13/v98e/188.6/racoonww13_scud_188.6_80.4_1396.xsdst
FILE = /castor/cern.ch/delphi/MCprod/cern/racoonww13/v98e/188.6/racoonww13_scud_188.6_80.4_1397.xsdst
FILE = /castor/cern.ch/delphi/MCprod/cern/racoonww13/v98e/188.6/racoonww13_scud_188.6_80.4_1398.xsdst
FILE = /castor/cern.ch/delphi/MCprod/cern/racoonww13/v98e/188.6/racoonww13_scud_188.6_80.4_1399.xsdst
FILE = /castor/cern.ch/delphi/MCprod/cern/racoonww13/v98e/188.6/racoonww13_scud_188.6_80.4_1400.xsdst
FILE = /castor/cern.ch/delphi/MCprod/cern/racoonww13/v98e/188.6/racoonww13_scud_188.6_80.4_1401.xsdst
FILE = /castor/cern.ch/delphi/MCprod/cern/racoonww13/v98e/188.6/racoonww13_scud_188.6_80.4_1402.xsdst
FILE = /castor/cern.ch/delphi/MCprod/cern/racoonww13/v98e/188.6/racoonww13_scud_188.6_80.4_1403.xsdst
FILE = /castor/cern.ch/delphi/MCprod/cern/racoonww13/v98e/188.6/racoonww13_scud_188.6_80.4_1404.xsdst
FILE = /castor/cern.ch/delphi/MCprod/cern/racoonww13/v98e/188.6/racoonww13_scud_188.6_80.4_1405.xsdst
FILE = /castor/cern.ch/delphi/MCprod/cern/racoonww13/v98e/188.6/racoonww13_scud_188.6_80.4_1406.xsdst
FILE = /castor/cern.ch/delphi/MCprod/cern/racoonww13/v98e/188.6/racoonww13_scud_188.6_80.4_1407.xsdst
FILE = /castor/cern.ch/delphi/MCprod/cern/racoonww13/v98e/188.6/racoonww13_scud_188.6_80.4_1408.xsdst
FILE = /castor/cern.ch/delphi/MCprod/cern/racoonww13/v98e/188.6/racoonww13_scud_188.6_80.4_1409.xsdst
FILE = /castor/cern.ch/delphi/MCprod/cern/racoonww13/v98e/188.6/racoonww13_scud_188.6_80.4_1410.xsdst
FILE = /castor/cern.ch/delphi/MCprod/cern/racoonww13/v98e/188.6/racoonww13_scud_188.6_80.4_1411.xsdst
FILE = /castor/cern.ch/delphi/MCprod/cern/racoonww13/v98e/188.6/racoonww13_scud_188.6_80.4_1412.xsdst
FILE = /castor/cern.ch/delphi/MCprod/cern/racoonww13/v98e/188.6/racoonww13_scud_188.6_80.4_1413.xsdst
FILE = /castor/cern.ch/delphi/MCprod/cern/racoonww13/v98e/188.6/racoonww13_scud_188.6_80.4_1414.xsdst
FILE = /castor/cern.ch/delphi/MCprod/cern/racoonww13/v98e/188.6/racoonww13_scud_188.6_80.4_1415.xsdst
FILE = /castor/cern.ch/delphi/MCprod/cern/racoonww13/v98e/188.6/racoonww13_scud_188.6_80.4_1416.xsdst
FILE = /castor/cern.ch/delphi/MCprod/cern/racoonww13/v98e/188.6/racoonww13_scud_188.6_80.4_1417.xsdst
FILE = /castor/cern.ch/delphi/MCprod/cern/racoonww13/v98e/188.6/racoonww13_scud_188.6_80.4_1418.xsdst
FILE = /castor/cern.ch/delphi/MCprod/cern/racoonww13/v98e/188.6/racoonww13_scud_188.6_80.4_1419.xsdst
FILE = /castor/cern.ch/delphi/MCprod/cern/racoonww13/v98e/188.6/racoonww13_scud_188.6_80.4_1420.xsdst
FILE = /castor/cern.ch/delphi/MCprod/cern/racoonww13/v98e/188.6/racoonww13_scud_188.6_80.4_1421.xsdst
FILE = /castor/cern.ch/delphi/MCprod/cern/racoonww13/v98e/188.6/racoonww13_scud_188.6_80.4_1422.xsdst
FILE = /castor/cern.ch/delphi/MCprod/cern/racoonww13/v98e/188.6/racoonww13_scud_188.6_80.4_1423.xsdst
FILE = /castor/cern.ch/delphi/MCprod/cern/racoonww13/v98e/188.6/racoonww13_scud_188.6_80.4_1424.xsdst
FILE = /castor/cern.ch/delphi/MCprod/cern/racoonww13/v98e/188.6/racoonww13_scud_188.6_80.4_1425.xsdst
FILE = /castor/cern.ch/delphi/MCprod/cern/racoonww13/v98e/188.6/racoonww13_scud_188.6_80.4_1426.xsdst
FILE = /castor/cern.ch/delphi/MCprod/cern/racoonww13/v98e/188.6/racoonww13_scud_188.6_80.4_1427.xsdst
FILE = /castor/cern.ch/delphi/MCprod/cern/racoonww13/v98e/188.6/racoonww13_scud_188.6_80.4_1428.xsdst
FILE = /castor/cern.ch/delphi/MCprod/cern/racoonww13/v98e/188.6/racoonww13_scud_188.6_80.4_1429.xsdst
FILE = /castor/cern.ch/delphi/MCprod/cern/racoonww13/v98e/188.6/racoonww13_scud_188.6_80.4_1430.xsdst
FILE = /castor/cern.ch/delphi/MCprod/cern/racoonww13/v98e/188.6/racoonww13_scud_188.6_80.4_1431.xsdst
FILE = /castor/cern.ch/delphi/MCprod/cern/racoonww13/v98e/188.6/racoonww13_scud_188.6_80.4_1432.xsdst
FILE = /castor/cern.ch/delphi/MCprod/cern/racoonww13/v98e/188.6/racoonww13_scud_188.6_80.4_1433.xsdst
FILE = /castor/cern.ch/delphi/MCprod/cern/racoonww13/v98e/188.6/racoonww13_scud_188.6_80.4_1434.xsdst
FILE = /castor/cern.ch/delphi/MCprod/cern/racoonww13/v98e/188.6/racoonww13_scud_188.6_80.4_1435.xsdst
FILE = /castor/cern.ch/delphi/MCprod/cern/racoonww13/v98e/188.6/racoonww13_scud_188.6_80.4_1436.xsdst
FILE = /castor/cern.ch/delphi/MCprod/cern/racoonww13/v98e/188.6/racoonww13_scud_188.6_80.4_1437.xsdst
FILE = /castor/cern.ch/delphi/MCprod/cern/racoonww13/v98e/188.6/racoonww13_scud_188.6_80.4_1438.xsdst
FILE = /castor/cern.ch/delphi/MCprod/cern/racoonww13/v98e/188.6/racoonww13_scud_188.6_80.4_1439.xsdst
FILE = /castor/cern.ch/delphi/MCprod/cern/racoonww13/v98e/188.6/racoonww13_scud_188.6_80.4_1440.xsdst
FILE = /castor/cern.ch/delphi/MCprod/cern/racoonww13/v98e/188.6/racoonww13_scud_188.6_80.4_1441.xsdst
FILE = /castor/cern.ch/delphi/MCprod/cern/racoonww13/v98e/188.6/racoonww13_scud_188.6_80.4_1442.xsdst
FILE = /castor/cern.ch/delphi/MCprod/cern/racoonww13/v98e/188.6/racoonww13_scud_188.6_80.4_1443.xsdst
FILE = /castor/cern.ch/delphi/MCprod/cern/racoonww13/v98e/188.6/racoonww13_scud_188.6_80.4_1444.xsdst
FILE = /castor/cern.ch/delphi/MCprod/cern/racoonww13/v98e/188.6/racoonww13_scud_188.6_80.4_1445.xsdst
FILE = /castor/cern.ch/delphi/MCprod/cern/racoonww13/v98e/188.6/racoonww13_scud_188.6_80.4_1446.xsdst
FILE = /castor/cern.ch/delphi/MCprod/cern/racoonww13/v98e/188.6/racoonww13_scud_188.6_80.4_1447.xsdst
FILE = /castor/cern.ch/delphi/MCprod/cern/racoonww13/v98e/188.6/racoonww13_scud_188.6_80.4_1448.xsdst
FILE = /castor/cern.ch/delphi/MCprod/cern/racoonww13/v98e/188.6/racoonww13_scud_188.6_80.4_1449.xsdst
FILE = /castor/cern.ch/delphi/MCprod/cern/racoonww13/v98e/188.6/racoonww13_scud_188.6_80.4_1450.xsdst
FILE = /castor/cern.ch/delphi/MCprod/cern/racoonww13/v98e/188.6/racoonww13_scud_188.6_80.4_1451.xsdst
FILE = /castor/cern.ch/delphi/MCprod/cern/racoonww13/v98e/188.6/racoonww13_scud_188.6_80.4_1452.xsdst
FILE = /castor/cern.ch/delphi/MCprod/cern/racoonww13/v98e/188.6/racoonww13_scud_188.6_80.4_1453.xsdst
FILE = /castor/cern.ch/delphi/MCprod/cern/racoonww13/v98e/188.6/racoonww13_scud_188.6_80.4_1454.xsdst
FILE = /castor/cern.ch/delphi/MCprod/cern/racoonww13/v98e/188.6/racoonww13_scud_188.6_80.4_1455.xsdst
FILE = /castor/cern.ch/delphi/MCprod/cern/racoonww13/v98e/188.6/racoonww13_scud_188.6_80.4_1456.xsdst
FILE = /castor/cern.ch/delphi/MCprod/cern/racoonww13/v98e/188.6/racoonww13_scud_188.6_80.4_1457.xsdst
FILE = /castor/cern.ch/delphi/MCprod/cern/racoonww13/v98e/188.6/racoonww13_scud_188.6_80.4_1458.xsdst
FILE = /castor/cern.ch/delphi/MCprod/cern/racoonww13/v98e/188.6/racoonww13_scud_188.6_80.4_1459.xsdst
FILE = /castor/cern.ch/delphi/MCprod/cern/racoonww13/v98e/188.6/racoonww13_scud_188.6_80.4_1460.xsdst
FILE = /castor/cern.ch/delphi/MCprod/cern/racoonww13/v98e/188.6/racoonww13_scud_188.6_80.4_1461.xsdst
FILE = /castor/cern.ch/delphi/MCprod/cern/racoonww13/v98e/188.6/racoonww13_scud_188.6_80.4_1462.xsdst
FILE = /castor/cern.ch/delphi/MCprod/cern/racoonww13/v98e/188.6/racoonww13_scud_188.6_80.4_1463.xsdst
FILE = /castor/cern.ch/delphi/MCprod/cern/racoonww13/v98e/188.6/racoonww13_scud_188.6_80.4_1464.xsdst
FILE = /castor/cern.ch/delphi/MCprod/cern/racoonww13/v98e/188.6/racoonww13_scud_188.6_80.4_1465.xsdst
FILE = /castor/cern.ch/delphi/MCprod/cern/racoonww13/v98e/188.6/racoonww13_scud_188.6_80.4_1466.xsdst
FILE = /castor/cern.ch/delphi/MCprod/cern/racoonww13/v98e/188.6/racoonww13_scud_188.6_80.4_1467.xsdst
FILE = /castor/cern.ch/delphi/MCprod/cern/racoonww13/v98e/188.6/racoonww13_scud_188.6_80.4_1468.xsdst
FILE = /castor/cern.ch/delphi/MCprod/cern/racoonww13/v98e/188.6/racoonww13_scud_188.6_80.4_1469.xsdst
FILE = /castor/cern.ch/delphi/MCprod/cern/racoonww13/v98e/188.6/racoonww13_scud_188.6_80.4_1470.xsdst
FILE = /castor/cern.ch/delphi/MCprod/cern/racoonww13/v98e/188.6/racoonww13_scud_188.6_80.4_1471.xsdst
FILE = /castor/cern.ch/delphi/MCprod/cern/racoonww13/v98e/188.6/racoonww13_scud_188.6_80.4_1472.xsdst
FILE = /castor/cern.ch/delphi/MCprod/cern/racoonww13/v98e/188.6/racoonww13_scud_188.6_80.4_1473.xsdst
FILE = /castor/cern.ch/delphi/MCprod/cern/racoonww13/v98e/188.6/racoonww13_scud_188.6_80.4_1474.xsdst
FILE = /castor/cern.ch/delphi/MCprod/cern/racoonww13/v98e/188.6/racoonww13_scud_188.6_80.4_1475.xsdst
FILE = /castor/cern.ch/delphi/MCprod/cern/racoonww13/v98e/188.6/racoonww13_scud_188.6_80.4_1476.xsdst
FILE = /castor/cern.ch/delphi/MCprod/cern/racoonww13/v98e/188.6/racoonww13_scud_188.6_80.4_1477.xsdst
FILE = /castor/cern.ch/delphi/MCprod/cern/racoonww13/v98e/188.6/racoonww13_scud_188.6_80.4_1478.xsdst
FILE = /castor/cern.ch/delphi/MCprod/cern/racoonww13/v98e/188.6/racoonww13_scud_188.6_80.4_1479.xsdst
FILE = /castor/cern.ch/delphi/MCprod/cern/racoonww13/v98e/188.6/racoonww13_scud_188.6_80.4_1480.xsdst
FILE = /castor/cern.ch/delphi/MCprod/cern/racoonww13/v98e/188.6/racoonww13_scud_188.6_80.4_1481.xsdst
FILE = /castor/cern.ch/delphi/MCprod/cern/racoonww13/v98e/188.6/racoonww13_scud_188.6_80.4_1482.xsdst
FILE = /castor/cern.ch/delphi/MCprod/cern/racoonww13/v98e/188.6/racoonww13_scud_188.6_80.4_1483.xsdst
FILE = /castor/cern.ch/delphi/MCprod/cern/racoonww13/v98e/188.6/racoonww13_scud_188.6_80.4_1484.xsdst
FILE = /castor/cern.ch/delphi/MCprod/cern/racoonww13/v98e/188.6/racoonww13_scud_188.6_80.4_1485.xsdst
FILE = /castor/cern.ch/delphi/MCprod/cern/racoonww13/v98e/188.6/racoonww13_scud_188.6_80.4_1486.xsdst
FILE = /castor/cern.ch/delphi/MCprod/cern/racoonww13/v98e/188.6/racoonww13_scud_188.6_80.4_1487.xsdst
FILE = /castor/cern.ch/delphi/MCprod/cern/racoonww13/v98e/188.6/racoonww13_scud_188.6_80.4_1488.xsdst
FILE = /castor/cern.ch/delphi/MCprod/cern/racoonww13/v98e/188.6/racoonww13_scud_188.6_80.4_1489.xsdst
FILE = /castor/cern.ch/delphi/MCprod/cern/racoonww13/v98e/188.6/racoonww13_scud_188.6_80.4_1490.xsdst
FILE = /castor/cern.ch/delphi/MCprod/cern/racoonww13/v98e/188.6/racoonww13_scud_188.6_80.4_1491.xsdst
FILE = /castor/cern.ch/delphi/MCprod/cern/racoonww13/v98e/188.6/racoonww13_scud_188.6_80.4_1492.xsdst
FILE = /castor/cern.ch/delphi/MCprod/cern/racoonww13/v98e/188.6/racoonww13_scud_188.6_80.4_1493.xsdst
FILE = /castor/cern.ch/delphi/MCprod/cern/racoonww13/v98e/188.6/racoonww13_scud_188.6_80.4_1494.xsdst
FILE = /castor/cern.ch/delphi/MCprod/cern/racoonww13/v98e/188.6/racoonww13_scud_188.6_80.4_1495.xsdst
FILE = /castor/cern.ch/delphi/MCprod/cern/racoonww13/v98e/188.6/racoonww13_scud_188.6_80.4_1496.xsdst
FILE = /castor/cern.ch/delphi/MCprod/cern/racoonww13/v98e/188.6/racoonww13_scud_188.6_80.4_1497.xsdst
FILE = /castor/cern.ch/delphi/MCprod/cern/racoonww13/v98e/188.6/racoonww13_scud_188.6_80.4_1498.xsdst
FILE = /castor/cern.ch/delphi/MCprod/cern/racoonww13/v98e/188.6/racoonww13_scud_188.6_80.4_1499.xsdst
FILE = /castor/cern.ch/delphi/MCprod/cern/racoonww13/v98e/188.6/racoonww13_scud_188.6_80.4_1500.xsdst
