*
*   Nickname     : xs_wphact22cc_e188.6_m80.4_l98_1l_e1
*   Generic Name : //CERN/DELPHI/P02_SIMD/XSDST/WPHACT22CC/E188.6/LYON/SUMT/C001-497
*   Description  :  Extended Short DST simulation 98_e1 done at ecms=188.6 , Lyon
*---
*   Comments     : in total 970826 events in 497 files time stamp: Wed Feb 27 22:24:09 2002
*---
*
*
*
*
*
FILE = /castor/cern.ch/delphi/MCprod/lyon/wphact22/v98e/188.6/wphact22_cc_188.6_80.4_60001.xsdst ! RUN = 60001 ! NEVT = 1999
FILE = /castor/cern.ch/delphi/MCprod/lyon/wphact22/v98e/188.6/wphact22_cc_188.6_80.4_60002.xsdst ! RUN = 60002 ! NEVT = 1999
FILE = /castor/cern.ch/delphi/MCprod/lyon/wphact22/v98e/188.6/wphact22_cc_188.6_80.4_60003.xsdst ! RUN = 60003 ! NEVT = 1999
FILE = /castor/cern.ch/delphi/MCprod/lyon/wphact22/v98e/188.6/wphact22_cc_188.6_80.4_60004.xsdst ! RUN = 60004 ! NEVT = 1999
FILE = /castor/cern.ch/delphi/MCprod/lyon/wphact22/v98e/188.6/wphact22_cc_188.6_80.4_60005.xsdst ! RUN = 60005 ! NEVT = 1998
FILE = /castor/cern.ch/delphi/MCprod/lyon/wphact22/v98e/188.6/wphact22_cc_188.6_80.4_60006.xsdst ! RUN = 60006 ! NEVT = 1998
FILE = /castor/cern.ch/delphi/MCprod/lyon/wphact22/v98e/188.6/wphact22_cc_188.6_80.4_60007.xsdst ! RUN = 60007 ! NEVT = 1998
FILE = /castor/cern.ch/delphi/MCprod/lyon/wphact22/v98e/188.6/wphact22_cc_188.6_80.4_60008.xsdst ! RUN = 60008 ! NEVT = 2000
FILE = /castor/cern.ch/delphi/MCprod/lyon/wphact22/v98e/188.6/wphact22_cc_188.6_80.4_60009.xsdst ! RUN = 60009 ! NEVT = 2000
FILE = /castor/cern.ch/delphi/MCprod/lyon/wphact22/v98e/188.6/wphact22_cc_188.6_80.4_60010.xsdst ! RUN = 60010 ! NEVT = 2000
FILE = /castor/cern.ch/delphi/MCprod/lyon/wphact22/v98e/188.6/wphact22_cc_188.6_80.4_60012.xsdst ! RUN = 60012 ! NEVT = 1998
FILE = /castor/cern.ch/delphi/MCprod/lyon/wphact22/v98e/188.6/wphact22_cc_188.6_80.4_60013.xsdst ! RUN = 60013 ! NEVT = 2000
FILE = /castor/cern.ch/delphi/MCprod/lyon/wphact22/v98e/188.6/wphact22_cc_188.6_80.4_60014.xsdst ! RUN = 60014 ! NEVT = 2000
FILE = /castor/cern.ch/delphi/MCprod/lyon/wphact22/v98e/188.6/wphact22_cc_188.6_80.4_60015.xsdst ! RUN = 60015 ! NEVT = 1999
FILE = /castor/cern.ch/delphi/MCprod/lyon/wphact22/v98e/188.6/wphact22_cc_188.6_80.4_60016.xsdst ! RUN = 60016 ! NEVT = 1997
FILE = /castor/cern.ch/delphi/MCprod/lyon/wphact22/v98e/188.6/wphact22_cc_188.6_80.4_60017.xsdst ! RUN = 60017 ! NEVT = 2000
FILE = /castor/cern.ch/delphi/MCprod/lyon/wphact22/v98e/188.6/wphact22_cc_188.6_80.4_60019.xsdst ! RUN = 60019 ! NEVT = 1999
FILE = /castor/cern.ch/delphi/MCprod/lyon/wphact22/v98e/188.6/wphact22_cc_188.6_80.4_60020.xsdst ! RUN = 60020 ! NEVT = 2000
FILE = /castor/cern.ch/delphi/MCprod/lyon/wphact22/v98e/188.6/wphact22_cc_188.6_80.4_60021.xsdst ! RUN = 60021 ! NEVT = 2000
FILE = /castor/cern.ch/delphi/MCprod/lyon/wphact22/v98e/188.6/wphact22_cc_188.6_80.4_60022.xsdst ! RUN = 60022 ! NEVT = 2000
FILE = /castor/cern.ch/delphi/MCprod/lyon/wphact22/v98e/188.6/wphact22_cc_188.6_80.4_60023.xsdst ! RUN = 60023 ! NEVT = 1998
FILE = /castor/cern.ch/delphi/MCprod/lyon/wphact22/v98e/188.6/wphact22_cc_188.6_80.4_60024.xsdst ! RUN = 60024 ! NEVT = 1999
FILE = /castor/cern.ch/delphi/MCprod/lyon/wphact22/v98e/188.6/wphact22_cc_188.6_80.4_60025.xsdst ! RUN = 60025 ! NEVT = 2000
FILE = /castor/cern.ch/delphi/MCprod/lyon/wphact22/v98e/188.6/wphact22_cc_188.6_80.4_60026.xsdst ! RUN = 60026 ! NEVT = 1999
FILE = /castor/cern.ch/delphi/MCprod/lyon/wphact22/v98e/188.6/wphact22_cc_188.6_80.4_60027.xsdst ! RUN = 60027 ! NEVT = 1999
FILE = /castor/cern.ch/delphi/MCprod/lyon/wphact22/v98e/188.6/wphact22_cc_188.6_80.4_60028.xsdst ! RUN = 60028 ! NEVT = 1998
FILE = /castor/cern.ch/delphi/MCprod/lyon/wphact22/v98e/188.6/wphact22_cc_188.6_80.4_60029.xsdst ! RUN = 60029 ! NEVT = 2000
FILE = /castor/cern.ch/delphi/MCprod/lyon/wphact22/v98e/188.6/wphact22_cc_188.6_80.4_60030.xsdst ! RUN = 60030 ! NEVT = 1999
FILE = /castor/cern.ch/delphi/MCprod/lyon/wphact22/v98e/188.6/wphact22_cc_188.6_80.4_60031.xsdst ! RUN = 60031 ! NEVT = 1999
FILE = /castor/cern.ch/delphi/MCprod/lyon/wphact22/v98e/188.6/wphact22_cc_188.6_80.4_60032.xsdst ! RUN = 60032 ! NEVT = 1998
FILE = /castor/cern.ch/delphi/MCprod/lyon/wphact22/v98e/188.6/wphact22_cc_188.6_80.4_60034.xsdst ! RUN = 60034 ! NEVT = 1998
FILE = /castor/cern.ch/delphi/MCprod/lyon/wphact22/v98e/188.6/wphact22_cc_188.6_80.4_60035.xsdst ! RUN = 60035 ! NEVT = 2000
FILE = /castor/cern.ch/delphi/MCprod/lyon/wphact22/v98e/188.6/wphact22_cc_188.6_80.4_60036.xsdst ! RUN = 60036 ! NEVT = 1999
FILE = /castor/cern.ch/delphi/MCprod/lyon/wphact22/v98e/188.6/wphact22_cc_188.6_80.4_60037.xsdst ! RUN = 60037 ! NEVT = 1999
FILE = /castor/cern.ch/delphi/MCprod/lyon/wphact22/v98e/188.6/wphact22_cc_188.6_80.4_60038.xsdst ! RUN = 60038 ! NEVT = 1999
FILE = /castor/cern.ch/delphi/MCprod/lyon/wphact22/v98e/188.6/wphact22_cc_188.6_80.4_60039.xsdst ! RUN = 60039 ! NEVT = 1999
FILE = /castor/cern.ch/delphi/MCprod/lyon/wphact22/v98e/188.6/wphact22_cc_188.6_80.4_60040.xsdst ! RUN = 60040 ! NEVT = 2000
FILE = /castor/cern.ch/delphi/MCprod/lyon/wphact22/v98e/188.6/wphact22_cc_188.6_80.4_60041.xsdst ! RUN = 60041 ! NEVT = 2000
FILE = /castor/cern.ch/delphi/MCprod/lyon/wphact22/v98e/188.6/wphact22_cc_188.6_80.4_60042.xsdst ! RUN = 60042 ! NEVT = 2000
FILE = /castor/cern.ch/delphi/MCprod/lyon/wphact22/v98e/188.6/wphact22_cc_188.6_80.4_60043.xsdst ! RUN = 60043 ! NEVT = 1999
FILE = /castor/cern.ch/delphi/MCprod/lyon/wphact22/v98e/188.6/wphact22_cc_188.6_80.4_60044.xsdst ! RUN = 60044 ! NEVT = 2000
FILE = /castor/cern.ch/delphi/MCprod/lyon/wphact22/v98e/188.6/wphact22_cc_188.6_80.4_60045.xsdst ! RUN = 60045 ! NEVT = 2000
FILE = /castor/cern.ch/delphi/MCprod/lyon/wphact22/v98e/188.6/wphact22_cc_188.6_80.4_60046.xsdst ! RUN = 60046 ! NEVT = 2000
FILE = /castor/cern.ch/delphi/MCprod/lyon/wphact22/v98e/188.6/wphact22_cc_188.6_80.4_60047.xsdst ! RUN = 60047 ! NEVT = 2000
FILE = /castor/cern.ch/delphi/MCprod/lyon/wphact22/v98e/188.6/wphact22_cc_188.6_80.4_60048.xsdst ! RUN = 60048 ! NEVT = 1999
FILE = /castor/cern.ch/delphi/MCprod/lyon/wphact22/v98e/188.6/wphact22_cc_188.6_80.4_60049.xsdst ! RUN = 60049 ! NEVT = 2000
FILE = /castor/cern.ch/delphi/MCprod/lyon/wphact22/v98e/188.6/wphact22_cc_188.6_80.4_60050.xsdst ! RUN = 60050 ! NEVT = 2000
FILE = /castor/cern.ch/delphi/MCprod/lyon/wphact22/v98e/188.6/wphact22_cc_188.6_80.4_60051.xsdst ! RUN = 60051 ! NEVT = 2000
FILE = /castor/cern.ch/delphi/MCprod/lyon/wphact22/v98e/188.6/wphact22_cc_188.6_80.4_60052.xsdst ! RUN = 60052 ! NEVT = 1524
FILE = /castor/cern.ch/delphi/MCprod/lyon/wphact22/v98e/188.6/wphact22_cc_188.6_80.4_60053.xsdst ! RUN = 60053 ! NEVT = 1998
FILE = /castor/cern.ch/delphi/MCprod/lyon/wphact22/v98e/188.6/wphact22_cc_188.6_80.4_60054.xsdst ! RUN = 60054 ! NEVT = 1999
FILE = /castor/cern.ch/delphi/MCprod/lyon/wphact22/v98e/188.6/wphact22_cc_188.6_80.4_60055.xsdst ! RUN = 60055 ! NEVT = 1999
FILE = /castor/cern.ch/delphi/MCprod/lyon/wphact22/v98e/188.6/wphact22_cc_188.6_80.4_60056.xsdst ! RUN = 60056 ! NEVT = 2000
FILE = /castor/cern.ch/delphi/MCprod/lyon/wphact22/v98e/188.6/wphact22_cc_188.6_80.4_60057.xsdst ! RUN = 60057 ! NEVT = 1999
FILE = /castor/cern.ch/delphi/MCprod/lyon/wphact22/v98e/188.6/wphact22_cc_188.6_80.4_60058.xsdst ! RUN = 60058 ! NEVT = 1999
FILE = /castor/cern.ch/delphi/MCprod/lyon/wphact22/v98e/188.6/wphact22_cc_188.6_80.4_60059.xsdst ! RUN = 60059 ! NEVT = 1998
FILE = /castor/cern.ch/delphi/MCprod/lyon/wphact22/v98e/188.6/wphact22_cc_188.6_80.4_60060.xsdst ! RUN = 60060 ! NEVT = 2000
FILE = /castor/cern.ch/delphi/MCprod/lyon/wphact22/v98e/188.6/wphact22_cc_188.6_80.4_60061.xsdst ! RUN = 60061 ! NEVT = 2000
FILE = /castor/cern.ch/delphi/MCprod/lyon/wphact22/v98e/188.6/wphact22_cc_188.6_80.4_60062.xsdst ! RUN = 60062 ! NEVT = 1999
FILE = /castor/cern.ch/delphi/MCprod/lyon/wphact22/v98e/188.6/wphact22_cc_188.6_80.4_60063.xsdst ! RUN = 60063 ! NEVT = 1998
FILE = /castor/cern.ch/delphi/MCprod/lyon/wphact22/v98e/188.6/wphact22_cc_188.6_80.4_60064.xsdst ! RUN = 60064 ! NEVT = 1999
FILE = /castor/cern.ch/delphi/MCprod/lyon/wphact22/v98e/188.6/wphact22_cc_188.6_80.4_60065.xsdst ! RUN = 60065 ! NEVT = 2000
FILE = /castor/cern.ch/delphi/MCprod/lyon/wphact22/v98e/188.6/wphact22_cc_188.6_80.4_60066.xsdst ! RUN = 60066 ! NEVT = 1685
FILE = /castor/cern.ch/delphi/MCprod/lyon/wphact22/v98e/188.6/wphact22_cc_188.6_80.4_60067.xsdst ! RUN = 60067 ! NEVT = 1837
FILE = /castor/cern.ch/delphi/MCprod/lyon/wphact22/v98e/188.6/wphact22_cc_188.6_80.4_60068.xsdst ! RUN = 60068 ! NEVT = 1999
FILE = /castor/cern.ch/delphi/MCprod/lyon/wphact22/v98e/188.6/wphact22_cc_188.6_80.4_60069.xsdst ! RUN = 60069 ! NEVT = 2000
FILE = /castor/cern.ch/delphi/MCprod/lyon/wphact22/v98e/188.6/wphact22_cc_188.6_80.4_60070.xsdst ! RUN = 60070 ! NEVT = 1999
FILE = /castor/cern.ch/delphi/MCprod/lyon/wphact22/v98e/188.6/wphact22_cc_188.6_80.4_60071.xsdst ! RUN = 60071 ! NEVT = 1356
FILE = /castor/cern.ch/delphi/MCprod/lyon/wphact22/v98e/188.6/wphact22_cc_188.6_80.4_60072.xsdst ! RUN = 60072 ! NEVT = 2000
FILE = /castor/cern.ch/delphi/MCprod/lyon/wphact22/v98e/188.6/wphact22_cc_188.6_80.4_60073.xsdst ! RUN = 60073 ! NEVT = 1973
FILE = /castor/cern.ch/delphi/MCprod/lyon/wphact22/v98e/188.6/wphact22_cc_188.6_80.4_60074.xsdst ! RUN = 60074 ! NEVT = 1999
FILE = /castor/cern.ch/delphi/MCprod/lyon/wphact22/v98e/188.6/wphact22_cc_188.6_80.4_60075.xsdst ! RUN = 60075 ! NEVT = 2000
FILE = /castor/cern.ch/delphi/MCprod/lyon/wphact22/v98e/188.6/wphact22_cc_188.6_80.4_60076.xsdst ! RUN = 60076 ! NEVT = 1999
FILE = /castor/cern.ch/delphi/MCprod/lyon/wphact22/v98e/188.6/wphact22_cc_188.6_80.4_60077.xsdst ! RUN = 60077 ! NEVT = 2000
FILE = /castor/cern.ch/delphi/MCprod/lyon/wphact22/v98e/188.6/wphact22_cc_188.6_80.4_60078.xsdst ! RUN = 60078 ! NEVT = 1999
FILE = /castor/cern.ch/delphi/MCprod/lyon/wphact22/v98e/188.6/wphact22_cc_188.6_80.4_60079.xsdst ! RUN = 60079 ! NEVT = 2000
FILE = /castor/cern.ch/delphi/MCprod/lyon/wphact22/v98e/188.6/wphact22_cc_188.6_80.4_60080.xsdst ! RUN = 60080 ! NEVT = 649
FILE = /castor/cern.ch/delphi/MCprod/lyon/wphact22/v98e/188.6/wphact22_cc_188.6_80.4_60081.xsdst ! RUN = 60081 ! NEVT = 2000
FILE = /castor/cern.ch/delphi/MCprod/lyon/wphact22/v98e/188.6/wphact22_cc_188.6_80.4_60082.xsdst ! RUN = 60082 ! NEVT = 1999
FILE = /castor/cern.ch/delphi/MCprod/lyon/wphact22/v98e/188.6/wphact22_cc_188.6_80.4_60083.xsdst ! RUN = 60083 ! NEVT = 1999
FILE = /castor/cern.ch/delphi/MCprod/lyon/wphact22/v98e/188.6/wphact22_cc_188.6_80.4_60084.xsdst ! RUN = 60084 ! NEVT = 1997
FILE = /castor/cern.ch/delphi/MCprod/lyon/wphact22/v98e/188.6/wphact22_cc_188.6_80.4_60085.xsdst ! RUN = 60085 ! NEVT = 2000
FILE = /castor/cern.ch/delphi/MCprod/lyon/wphact22/v98e/188.6/wphact22_cc_188.6_80.4_60086.xsdst ! RUN = 60086 ! NEVT = 2000
FILE = /castor/cern.ch/delphi/MCprod/lyon/wphact22/v98e/188.6/wphact22_cc_188.6_80.4_60087.xsdst ! RUN = 60087 ! NEVT = 2000
FILE = /castor/cern.ch/delphi/MCprod/lyon/wphact22/v98e/188.6/wphact22_cc_188.6_80.4_60088.xsdst ! RUN = 60088 ! NEVT = 1999
FILE = /castor/cern.ch/delphi/MCprod/lyon/wphact22/v98e/188.6/wphact22_cc_188.6_80.4_60089.xsdst ! RUN = 60089 ! NEVT = 1999
FILE = /castor/cern.ch/delphi/MCprod/lyon/wphact22/v98e/188.6/wphact22_cc_188.6_80.4_60090.xsdst ! RUN = 60090 ! NEVT = 1999
FILE = /castor/cern.ch/delphi/MCprod/lyon/wphact22/v98e/188.6/wphact22_cc_188.6_80.4_60091.xsdst ! RUN = 60091 ! NEVT = 1999
FILE = /castor/cern.ch/delphi/MCprod/lyon/wphact22/v98e/188.6/wphact22_cc_188.6_80.4_60092.xsdst ! RUN = 60092 ! NEVT = 1664
FILE = /castor/cern.ch/delphi/MCprod/lyon/wphact22/v98e/188.6/wphact22_cc_188.6_80.4_60093.xsdst ! RUN = 60093 ! NEVT = 1999
FILE = /castor/cern.ch/delphi/MCprod/lyon/wphact22/v98e/188.6/wphact22_cc_188.6_80.4_60094.xsdst ! RUN = 60094 ! NEVT = 1999
FILE = /castor/cern.ch/delphi/MCprod/lyon/wphact22/v98e/188.6/wphact22_cc_188.6_80.4_60095.xsdst ! RUN = 60095 ! NEVT = 1828
FILE = /castor/cern.ch/delphi/MCprod/lyon/wphact22/v98e/188.6/wphact22_cc_188.6_80.4_60096.xsdst ! RUN = 60096 ! NEVT = 1996
FILE = /castor/cern.ch/delphi/MCprod/lyon/wphact22/v98e/188.6/wphact22_cc_188.6_80.4_60097.xsdst ! RUN = 60097 ! NEVT = 2000
FILE = /castor/cern.ch/delphi/MCprod/lyon/wphact22/v98e/188.6/wphact22_cc_188.6_80.4_60098.xsdst ! RUN = 60098 ! NEVT = 1999
FILE = /castor/cern.ch/delphi/MCprod/lyon/wphact22/v98e/188.6/wphact22_cc_188.6_80.4_60099.xsdst ! RUN = 60099 ! NEVT = 2000
FILE = /castor/cern.ch/delphi/MCprod/lyon/wphact22/v98e/188.6/wphact22_cc_188.6_80.4_60100.xsdst ! RUN = 60100 ! NEVT = 1999
FILE = /castor/cern.ch/delphi/MCprod/lyon/wphact22/v98e/188.6/wphact22_cc_188.6_80.4_60101.xsdst ! RUN = 60101 ! NEVT = 1999
FILE = /castor/cern.ch/delphi/MCprod/lyon/wphact22/v98e/188.6/wphact22_cc_188.6_80.4_60102.xsdst ! RUN = 60102 ! NEVT = 2000
FILE = /castor/cern.ch/delphi/MCprod/lyon/wphact22/v98e/188.6/wphact22_cc_188.6_80.4_60103.xsdst ! RUN = 60103 ! NEVT = 1998
FILE = /castor/cern.ch/delphi/MCprod/lyon/wphact22/v98e/188.6/wphact22_cc_188.6_80.4_60104.xsdst ! RUN = 60104 ! NEVT = 1999
FILE = /castor/cern.ch/delphi/MCprod/lyon/wphact22/v98e/188.6/wphact22_cc_188.6_80.4_60105.xsdst ! RUN = 60105 ! NEVT = 1543
FILE = /castor/cern.ch/delphi/MCprod/lyon/wphact22/v98e/188.6/wphact22_cc_188.6_80.4_60106.xsdst ! RUN = 60106 ! NEVT = 1998
FILE = /castor/cern.ch/delphi/MCprod/lyon/wphact22/v98e/188.6/wphact22_cc_188.6_80.4_60107.xsdst ! RUN = 60107 ! NEVT = 2000
FILE = /castor/cern.ch/delphi/MCprod/lyon/wphact22/v98e/188.6/wphact22_cc_188.6_80.4_60108.xsdst ! RUN = 60108 ! NEVT = 1035
FILE = /castor/cern.ch/delphi/MCprod/lyon/wphact22/v98e/188.6/wphact22_cc_188.6_80.4_60109.xsdst ! RUN = 60109 ! NEVT = 1057
FILE = /castor/cern.ch/delphi/MCprod/lyon/wphact22/v98e/188.6/wphact22_cc_188.6_80.4_60110.xsdst ! RUN = 60110 ! NEVT = 1998
FILE = /castor/cern.ch/delphi/MCprod/lyon/wphact22/v98e/188.6/wphact22_cc_188.6_80.4_60111.xsdst ! RUN = 60111 ! NEVT = 2000
FILE = /castor/cern.ch/delphi/MCprod/lyon/wphact22/v98e/188.6/wphact22_cc_188.6_80.4_60112.xsdst ! RUN = 60112 ! NEVT = 2000
FILE = /castor/cern.ch/delphi/MCprod/lyon/wphact22/v98e/188.6/wphact22_cc_188.6_80.4_60113.xsdst ! RUN = 60113 ! NEVT = 1999
FILE = /castor/cern.ch/delphi/MCprod/lyon/wphact22/v98e/188.6/wphact22_cc_188.6_80.4_60114.xsdst ! RUN = 60114 ! NEVT = 1696
FILE = /castor/cern.ch/delphi/MCprod/lyon/wphact22/v98e/188.6/wphact22_cc_188.6_80.4_60115.xsdst ! RUN = 60115 ! NEVT = 2000
FILE = /castor/cern.ch/delphi/MCprod/lyon/wphact22/v98e/188.6/wphact22_cc_188.6_80.4_60116.xsdst ! RUN = 60116 ! NEVT = 1623
FILE = /castor/cern.ch/delphi/MCprod/lyon/wphact22/v98e/188.6/wphact22_cc_188.6_80.4_60117.xsdst ! RUN = 60117 ! NEVT = 1999
FILE = /castor/cern.ch/delphi/MCprod/lyon/wphact22/v98e/188.6/wphact22_cc_188.6_80.4_60118.xsdst ! RUN = 60118 ! NEVT = 1999
FILE = /castor/cern.ch/delphi/MCprod/lyon/wphact22/v98e/188.6/wphact22_cc_188.6_80.4_60119.xsdst ! RUN = 60119 ! NEVT = 2000
FILE = /castor/cern.ch/delphi/MCprod/lyon/wphact22/v98e/188.6/wphact22_cc_188.6_80.4_60120.xsdst ! RUN = 60120 ! NEVT = 1999
FILE = /castor/cern.ch/delphi/MCprod/lyon/wphact22/v98e/188.6/wphact22_cc_188.6_80.4_60121.xsdst ! RUN = 60121 ! NEVT = 1998
FILE = /castor/cern.ch/delphi/MCprod/lyon/wphact22/v98e/188.6/wphact22_cc_188.6_80.4_60122.xsdst ! RUN = 60122 ! NEVT = 1956
FILE = /castor/cern.ch/delphi/MCprod/lyon/wphact22/v98e/188.6/wphact22_cc_188.6_80.4_60123.xsdst ! RUN = 60123 ! NEVT = 1998
FILE = /castor/cern.ch/delphi/MCprod/lyon/wphact22/v98e/188.6/wphact22_cc_188.6_80.4_60124.xsdst ! RUN = 60124 ! NEVT = 2000
FILE = /castor/cern.ch/delphi/MCprod/lyon/wphact22/v98e/188.6/wphact22_cc_188.6_80.4_60125.xsdst ! RUN = 60125 ! NEVT = 2000
FILE = /castor/cern.ch/delphi/MCprod/lyon/wphact22/v98e/188.6/wphact22_cc_188.6_80.4_60126.xsdst ! RUN = 60126 ! NEVT = 1999
FILE = /castor/cern.ch/delphi/MCprod/lyon/wphact22/v98e/188.6/wphact22_cc_188.6_80.4_60127.xsdst ! RUN = 60127 ! NEVT = 2000
FILE = /castor/cern.ch/delphi/MCprod/lyon/wphact22/v98e/188.6/wphact22_cc_188.6_80.4_60128.xsdst ! RUN = 60128 ! NEVT = 2000
FILE = /castor/cern.ch/delphi/MCprod/lyon/wphact22/v98e/188.6/wphact22_cc_188.6_80.4_60129.xsdst ! RUN = 60129 ! NEVT = 2000
FILE = /castor/cern.ch/delphi/MCprod/lyon/wphact22/v98e/188.6/wphact22_cc_188.6_80.4_60130.xsdst ! RUN = 60130 ! NEVT = 2000
FILE = /castor/cern.ch/delphi/MCprod/lyon/wphact22/v98e/188.6/wphact22_cc_188.6_80.4_60131.xsdst ! RUN = 60131 ! NEVT = 883
FILE = /castor/cern.ch/delphi/MCprod/lyon/wphact22/v98e/188.6/wphact22_cc_188.6_80.4_60132.xsdst ! RUN = 60132 ! NEVT = 1999
FILE = /castor/cern.ch/delphi/MCprod/lyon/wphact22/v98e/188.6/wphact22_cc_188.6_80.4_60133.xsdst ! RUN = 60133 ! NEVT = 2000
FILE = /castor/cern.ch/delphi/MCprod/lyon/wphact22/v98e/188.6/wphact22_cc_188.6_80.4_60134.xsdst ! RUN = 60134 ! NEVT = 1999
FILE = /castor/cern.ch/delphi/MCprod/lyon/wphact22/v98e/188.6/wphact22_cc_188.6_80.4_60135.xsdst ! RUN = 60135 ! NEVT = 1999
FILE = /castor/cern.ch/delphi/MCprod/lyon/wphact22/v98e/188.6/wphact22_cc_188.6_80.4_60136.xsdst ! RUN = 60136 ! NEVT = 2000
FILE = /castor/cern.ch/delphi/MCprod/lyon/wphact22/v98e/188.6/wphact22_cc_188.6_80.4_60137.xsdst ! RUN = 60137 ! NEVT = 2000
FILE = /castor/cern.ch/delphi/MCprod/lyon/wphact22/v98e/188.6/wphact22_cc_188.6_80.4_60138.xsdst ! RUN = 60138 ! NEVT = 1999
FILE = /castor/cern.ch/delphi/MCprod/lyon/wphact22/v98e/188.6/wphact22_cc_188.6_80.4_60139.xsdst ! RUN = 60139 ! NEVT = 1999
FILE = /castor/cern.ch/delphi/MCprod/lyon/wphact22/v98e/188.6/wphact22_cc_188.6_80.4_60140.xsdst ! RUN = 60140 ! NEVT = 2000
FILE = /castor/cern.ch/delphi/MCprod/lyon/wphact22/v98e/188.6/wphact22_cc_188.6_80.4_60141.xsdst ! RUN = 60141 ! NEVT = 1999
FILE = /castor/cern.ch/delphi/MCprod/lyon/wphact22/v98e/188.6/wphact22_cc_188.6_80.4_60142.xsdst ! RUN = 60142 ! NEVT = 2000
FILE = /castor/cern.ch/delphi/MCprod/lyon/wphact22/v98e/188.6/wphact22_cc_188.6_80.4_60143.xsdst ! RUN = 60143 ! NEVT = 1999
FILE = /castor/cern.ch/delphi/MCprod/lyon/wphact22/v98e/188.6/wphact22_cc_188.6_80.4_60144.xsdst ! RUN = 60144 ! NEVT = 1998
FILE = /castor/cern.ch/delphi/MCprod/lyon/wphact22/v98e/188.6/wphact22_cc_188.6_80.4_60145.xsdst ! RUN = 60145 ! NEVT = 1240
FILE = /castor/cern.ch/delphi/MCprod/lyon/wphact22/v98e/188.6/wphact22_cc_188.6_80.4_60146.xsdst ! RUN = 60146 ! NEVT = 1999
FILE = /castor/cern.ch/delphi/MCprod/lyon/wphact22/v98e/188.6/wphact22_cc_188.6_80.4_60147.xsdst ! RUN = 60147 ! NEVT = 2000
FILE = /castor/cern.ch/delphi/MCprod/lyon/wphact22/v98e/188.6/wphact22_cc_188.6_80.4_60148.xsdst ! RUN = 60148 ! NEVT = 1998
FILE = /castor/cern.ch/delphi/MCprod/lyon/wphact22/v98e/188.6/wphact22_cc_188.6_80.4_60149.xsdst ! RUN = 60149 ! NEVT = 1999
FILE = /castor/cern.ch/delphi/MCprod/lyon/wphact22/v98e/188.6/wphact22_cc_188.6_80.4_60150.xsdst ! RUN = 60150 ! NEVT = 2000
FILE = /castor/cern.ch/delphi/MCprod/lyon/wphact22/v98e/188.6/wphact22_cc_188.6_80.4_60151.xsdst ! RUN = 60151 ! NEVT = 1999
FILE = /castor/cern.ch/delphi/MCprod/lyon/wphact22/v98e/188.6/wphact22_cc_188.6_80.4_60152.xsdst ! RUN = 60152 ! NEVT = 2000
FILE = /castor/cern.ch/delphi/MCprod/lyon/wphact22/v98e/188.6/wphact22_cc_188.6_80.4_60153.xsdst ! RUN = 60153 ! NEVT = 1999
FILE = /castor/cern.ch/delphi/MCprod/lyon/wphact22/v98e/188.6/wphact22_cc_188.6_80.4_60154.xsdst ! RUN = 60154 ! NEVT = 2000
FILE = /castor/cern.ch/delphi/MCprod/lyon/wphact22/v98e/188.6/wphact22_cc_188.6_80.4_60155.xsdst ! RUN = 60155 ! NEVT = 2000
FILE = /castor/cern.ch/delphi/MCprod/lyon/wphact22/v98e/188.6/wphact22_cc_188.6_80.4_60156.xsdst ! RUN = 60156 ! NEVT = 1999
FILE = /castor/cern.ch/delphi/MCprod/lyon/wphact22/v98e/188.6/wphact22_cc_188.6_80.4_60157.xsdst ! RUN = 60157 ! NEVT = 2000
FILE = /castor/cern.ch/delphi/MCprod/lyon/wphact22/v98e/188.6/wphact22_cc_188.6_80.4_60158.xsdst ! RUN = 60158 ! NEVT = 1999
FILE = /castor/cern.ch/delphi/MCprod/lyon/wphact22/v98e/188.6/wphact22_cc_188.6_80.4_60159.xsdst ! RUN = 60159 ! NEVT = 1999
FILE = /castor/cern.ch/delphi/MCprod/lyon/wphact22/v98e/188.6/wphact22_cc_188.6_80.4_60160.xsdst ! RUN = 60160 ! NEVT = 1961
FILE = /castor/cern.ch/delphi/MCprod/lyon/wphact22/v98e/188.6/wphact22_cc_188.6_80.4_60161.xsdst ! RUN = 60161 ! NEVT = 1999
FILE = /castor/cern.ch/delphi/MCprod/lyon/wphact22/v98e/188.6/wphact22_cc_188.6_80.4_60162.xsdst ! RUN = 60162 ! NEVT = 1140
FILE = /castor/cern.ch/delphi/MCprod/lyon/wphact22/v98e/188.6/wphact22_cc_188.6_80.4_60163.xsdst ! RUN = 60163 ! NEVT = 2000
FILE = /castor/cern.ch/delphi/MCprod/lyon/wphact22/v98e/188.6/wphact22_cc_188.6_80.4_60164.xsdst ! RUN = 60164 ! NEVT = 2000
FILE = /castor/cern.ch/delphi/MCprod/lyon/wphact22/v98e/188.6/wphact22_cc_188.6_80.4_60165.xsdst ! RUN = 60165 ! NEVT = 2000
FILE = /castor/cern.ch/delphi/MCprod/lyon/wphact22/v98e/188.6/wphact22_cc_188.6_80.4_60166.xsdst ! RUN = 60166 ! NEVT = 1999
FILE = /castor/cern.ch/delphi/MCprod/lyon/wphact22/v98e/188.6/wphact22_cc_188.6_80.4_60167.xsdst ! RUN = 60167 ! NEVT = 1999
FILE = /castor/cern.ch/delphi/MCprod/lyon/wphact22/v98e/188.6/wphact22_cc_188.6_80.4_60168.xsdst ! RUN = 60168 ! NEVT = 2000
FILE = /castor/cern.ch/delphi/MCprod/lyon/wphact22/v98e/188.6/wphact22_cc_188.6_80.4_60169.xsdst ! RUN = 60169 ! NEVT = 1476
FILE = /castor/cern.ch/delphi/MCprod/lyon/wphact22/v98e/188.6/wphact22_cc_188.6_80.4_60170.xsdst ! RUN = 60170 ! NEVT = 2000
FILE = /castor/cern.ch/delphi/MCprod/lyon/wphact22/v98e/188.6/wphact22_cc_188.6_80.4_60171.xsdst ! RUN = 60171 ! NEVT = 367
FILE = /castor/cern.ch/delphi/MCprod/lyon/wphact22/v98e/188.6/wphact22_cc_188.6_80.4_60172.xsdst ! RUN = 60172 ! NEVT = 1999
FILE = /castor/cern.ch/delphi/MCprod/lyon/wphact22/v98e/188.6/wphact22_cc_188.6_80.4_60173.xsdst ! RUN = 60173 ! NEVT = 1999
FILE = /castor/cern.ch/delphi/MCprod/lyon/wphact22/v98e/188.6/wphact22_cc_188.6_80.4_60174.xsdst ! RUN = 60174 ! NEVT = 1302
FILE = /castor/cern.ch/delphi/MCprod/lyon/wphact22/v98e/188.6/wphact22_cc_188.6_80.4_60175.xsdst ! RUN = 60175 ! NEVT = 2000
FILE = /castor/cern.ch/delphi/MCprod/lyon/wphact22/v98e/188.6/wphact22_cc_188.6_80.4_60176.xsdst ! RUN = 60176 ! NEVT = 1999
FILE = /castor/cern.ch/delphi/MCprod/lyon/wphact22/v98e/188.6/wphact22_cc_188.6_80.4_60177.xsdst ! RUN = 60177 ! NEVT = 1998
FILE = /castor/cern.ch/delphi/MCprod/lyon/wphact22/v98e/188.6/wphact22_cc_188.6_80.4_60178.xsdst ! RUN = 60178 ! NEVT = 1998
FILE = /castor/cern.ch/delphi/MCprod/lyon/wphact22/v98e/188.6/wphact22_cc_188.6_80.4_60179.xsdst ! RUN = 60179 ! NEVT = 2000
FILE = /castor/cern.ch/delphi/MCprod/lyon/wphact22/v98e/188.6/wphact22_cc_188.6_80.4_60180.xsdst ! RUN = 60180 ! NEVT = 2000
FILE = /castor/cern.ch/delphi/MCprod/lyon/wphact22/v98e/188.6/wphact22_cc_188.6_80.4_60181.xsdst ! RUN = 60181 ! NEVT = 2000
FILE = /castor/cern.ch/delphi/MCprod/lyon/wphact22/v98e/188.6/wphact22_cc_188.6_80.4_60182.xsdst ! RUN = 60182 ! NEVT = 1999
FILE = /castor/cern.ch/delphi/MCprod/lyon/wphact22/v98e/188.6/wphact22_cc_188.6_80.4_60183.xsdst ! RUN = 60183 ! NEVT = 1999
FILE = /castor/cern.ch/delphi/MCprod/lyon/wphact22/v98e/188.6/wphact22_cc_188.6_80.4_60184.xsdst ! RUN = 60184 ! NEVT = 1999
FILE = /castor/cern.ch/delphi/MCprod/lyon/wphact22/v98e/188.6/wphact22_cc_188.6_80.4_60185.xsdst ! RUN = 60185 ! NEVT = 1999
FILE = /castor/cern.ch/delphi/MCprod/lyon/wphact22/v98e/188.6/wphact22_cc_188.6_80.4_60186.xsdst ! RUN = 60186 ! NEVT = 2000
FILE = /castor/cern.ch/delphi/MCprod/lyon/wphact22/v98e/188.6/wphact22_cc_188.6_80.4_60187.xsdst ! RUN = 60187 ! NEVT = 2000
FILE = /castor/cern.ch/delphi/MCprod/lyon/wphact22/v98e/188.6/wphact22_cc_188.6_80.4_60188.xsdst ! RUN = 60188 ! NEVT = 2000
FILE = /castor/cern.ch/delphi/MCprod/lyon/wphact22/v98e/188.6/wphact22_cc_188.6_80.4_60189.xsdst ! RUN = 60189 ! NEVT = 2000
FILE = /castor/cern.ch/delphi/MCprod/lyon/wphact22/v98e/188.6/wphact22_cc_188.6_80.4_60190.xsdst ! RUN = 60190 ! NEVT = 2000
FILE = /castor/cern.ch/delphi/MCprod/lyon/wphact22/v98e/188.6/wphact22_cc_188.6_80.4_60191.xsdst ! RUN = 60191 ! NEVT = 2000
FILE = /castor/cern.ch/delphi/MCprod/lyon/wphact22/v98e/188.6/wphact22_cc_188.6_80.4_60192.xsdst ! RUN = 60192 ! NEVT = 2000
FILE = /castor/cern.ch/delphi/MCprod/lyon/wphact22/v98e/188.6/wphact22_cc_188.6_80.4_60193.xsdst ! RUN = 60193 ! NEVT = 2000
FILE = /castor/cern.ch/delphi/MCprod/lyon/wphact22/v98e/188.6/wphact22_cc_188.6_80.4_60194.xsdst ! RUN = 60194 ! NEVT = 2000
FILE = /castor/cern.ch/delphi/MCprod/lyon/wphact22/v98e/188.6/wphact22_cc_188.6_80.4_60195.xsdst ! RUN = 60195 ! NEVT = 2000
FILE = /castor/cern.ch/delphi/MCprod/lyon/wphact22/v98e/188.6/wphact22_cc_188.6_80.4_60196.xsdst ! RUN = 60196 ! NEVT = 1997
FILE = /castor/cern.ch/delphi/MCprod/lyon/wphact22/v98e/188.6/wphact22_cc_188.6_80.4_60197.xsdst ! RUN = 60197 ! NEVT = 2000
FILE = /castor/cern.ch/delphi/MCprod/lyon/wphact22/v98e/188.6/wphact22_cc_188.6_80.4_60198.xsdst ! RUN = 60198 ! NEVT = 1668
FILE = /castor/cern.ch/delphi/MCprod/lyon/wphact22/v98e/188.6/wphact22_cc_188.6_80.4_60199.xsdst ! RUN = 60199 ! NEVT = 1999
FILE = /castor/cern.ch/delphi/MCprod/lyon/wphact22/v98e/188.6/wphact22_cc_188.6_80.4_60200.xsdst ! RUN = 60200 ! NEVT = 1998
FILE = /castor/cern.ch/delphi/MCprod/lyon/wphact22/v98e/188.6/wphact22_cc_188.6_80.4_60201.xsdst ! RUN = 60201 ! NEVT = 1998
FILE = /castor/cern.ch/delphi/MCprod/lyon/wphact22/v98e/188.6/wphact22_cc_188.6_80.4_60202.xsdst ! RUN = 60202 ! NEVT = 1999
FILE = /castor/cern.ch/delphi/MCprod/lyon/wphact22/v98e/188.6/wphact22_cc_188.6_80.4_60203.xsdst ! RUN = 60203 ! NEVT = 1998
FILE = /castor/cern.ch/delphi/MCprod/lyon/wphact22/v98e/188.6/wphact22_cc_188.6_80.4_60204.xsdst ! RUN = 60204 ! NEVT = 2000
FILE = /castor/cern.ch/delphi/MCprod/lyon/wphact22/v98e/188.6/wphact22_cc_188.6_80.4_60205.xsdst ! RUN = 60205 ! NEVT = 1998
FILE = /castor/cern.ch/delphi/MCprod/lyon/wphact22/v98e/188.6/wphact22_cc_188.6_80.4_60206.xsdst ! RUN = 60206 ! NEVT = 1905
FILE = /castor/cern.ch/delphi/MCprod/lyon/wphact22/v98e/188.6/wphact22_cc_188.6_80.4_60207.xsdst ! RUN = 60207 ! NEVT = 2000
FILE = /castor/cern.ch/delphi/MCprod/lyon/wphact22/v98e/188.6/wphact22_cc_188.6_80.4_60208.xsdst ! RUN = 60208 ! NEVT = 1999
FILE = /castor/cern.ch/delphi/MCprod/lyon/wphact22/v98e/188.6/wphact22_cc_188.6_80.4_60209.xsdst ! RUN = 60209 ! NEVT = 1999
FILE = /castor/cern.ch/delphi/MCprod/lyon/wphact22/v98e/188.6/wphact22_cc_188.6_80.4_60210.xsdst ! RUN = 60210 ! NEVT = 2000
FILE = /castor/cern.ch/delphi/MCprod/lyon/wphact22/v98e/188.6/wphact22_cc_188.6_80.4_60211.xsdst ! RUN = 60211 ! NEVT = 1999
FILE = /castor/cern.ch/delphi/MCprod/lyon/wphact22/v98e/188.6/wphact22_cc_188.6_80.4_60212.xsdst ! RUN = 60212 ! NEVT = 1999
FILE = /castor/cern.ch/delphi/MCprod/lyon/wphact22/v98e/188.6/wphact22_cc_188.6_80.4_60213.xsdst ! RUN = 60213 ! NEVT = 1998
FILE = /castor/cern.ch/delphi/MCprod/lyon/wphact22/v98e/188.6/wphact22_cc_188.6_80.4_60214.xsdst ! RUN = 60214 ! NEVT = 1999
FILE = /castor/cern.ch/delphi/MCprod/lyon/wphact22/v98e/188.6/wphact22_cc_188.6_80.4_60215.xsdst ! RUN = 60215 ! NEVT = 1999
FILE = /castor/cern.ch/delphi/MCprod/lyon/wphact22/v98e/188.6/wphact22_cc_188.6_80.4_60216.xsdst ! RUN = 60216 ! NEVT = 2000
FILE = /castor/cern.ch/delphi/MCprod/lyon/wphact22/v98e/188.6/wphact22_cc_188.6_80.4_60217.xsdst ! RUN = 60217 ! NEVT = 1999
FILE = /castor/cern.ch/delphi/MCprod/lyon/wphact22/v98e/188.6/wphact22_cc_188.6_80.4_60218.xsdst ! RUN = 60218 ! NEVT = 1998
FILE = /castor/cern.ch/delphi/MCprod/lyon/wphact22/v98e/188.6/wphact22_cc_188.6_80.4_60219.xsdst ! RUN = 60219 ! NEVT = 1996
FILE = /castor/cern.ch/delphi/MCprod/lyon/wphact22/v98e/188.6/wphact22_cc_188.6_80.4_60220.xsdst ! RUN = 60220 ! NEVT = 1998
FILE = /castor/cern.ch/delphi/MCprod/lyon/wphact22/v98e/188.6/wphact22_cc_188.6_80.4_60221.xsdst ! RUN = 60221 ! NEVT = 2000
FILE = /castor/cern.ch/delphi/MCprod/lyon/wphact22/v98e/188.6/wphact22_cc_188.6_80.4_60222.xsdst ! RUN = 60222 ! NEVT = 1998
FILE = /castor/cern.ch/delphi/MCprod/lyon/wphact22/v98e/188.6/wphact22_cc_188.6_80.4_60223.xsdst ! RUN = 60223 ! NEVT = 2000
FILE = /castor/cern.ch/delphi/MCprod/lyon/wphact22/v98e/188.6/wphact22_cc_188.6_80.4_60224.xsdst ! RUN = 60224 ! NEVT = 2000
FILE = /castor/cern.ch/delphi/MCprod/lyon/wphact22/v98e/188.6/wphact22_cc_188.6_80.4_60225.xsdst ! RUN = 60225 ! NEVT = 1999
FILE = /castor/cern.ch/delphi/MCprod/lyon/wphact22/v98e/188.6/wphact22_cc_188.6_80.4_60226.xsdst ! RUN = 60226 ! NEVT = 2000
FILE = /castor/cern.ch/delphi/MCprod/lyon/wphact22/v98e/188.6/wphact22_cc_188.6_80.4_60227.xsdst ! RUN = 60227 ! NEVT = 1999
FILE = /castor/cern.ch/delphi/MCprod/lyon/wphact22/v98e/188.6/wphact22_cc_188.6_80.4_60228.xsdst ! RUN = 60228 ! NEVT = 2000
FILE = /castor/cern.ch/delphi/MCprod/lyon/wphact22/v98e/188.6/wphact22_cc_188.6_80.4_60229.xsdst ! RUN = 60229 ! NEVT = 2000
FILE = /castor/cern.ch/delphi/MCprod/lyon/wphact22/v98e/188.6/wphact22_cc_188.6_80.4_60230.xsdst ! RUN = 60230 ! NEVT = 1998
FILE = /castor/cern.ch/delphi/MCprod/lyon/wphact22/v98e/188.6/wphact22_cc_188.6_80.4_60231.xsdst ! RUN = 60231 ! NEVT = 2000
FILE = /castor/cern.ch/delphi/MCprod/lyon/wphact22/v98e/188.6/wphact22_cc_188.6_80.4_60232.xsdst ! RUN = 60232 ! NEVT = 2000
FILE = /castor/cern.ch/delphi/MCprod/lyon/wphact22/v98e/188.6/wphact22_cc_188.6_80.4_60233.xsdst ! RUN = 60233 ! NEVT = 2000
FILE = /castor/cern.ch/delphi/MCprod/lyon/wphact22/v98e/188.6/wphact22_cc_188.6_80.4_60234.xsdst ! RUN = 60234 ! NEVT = 2000
FILE = /castor/cern.ch/delphi/MCprod/lyon/wphact22/v98e/188.6/wphact22_cc_188.6_80.4_60235.xsdst ! RUN = 60235 ! NEVT = 2000
FILE = /castor/cern.ch/delphi/MCprod/lyon/wphact22/v98e/188.6/wphact22_cc_188.6_80.4_60236.xsdst ! RUN = 60236 ! NEVT = 1997
FILE = /castor/cern.ch/delphi/MCprod/lyon/wphact22/v98e/188.6/wphact22_cc_188.6_80.4_60237.xsdst ! RUN = 60237 ! NEVT = 2000
FILE = /castor/cern.ch/delphi/MCprod/lyon/wphact22/v98e/188.6/wphact22_cc_188.6_80.4_60238.xsdst ! RUN = 60238 ! NEVT = 1999
FILE = /castor/cern.ch/delphi/MCprod/lyon/wphact22/v98e/188.6/wphact22_cc_188.6_80.4_60239.xsdst ! RUN = 60239 ! NEVT = 1999
FILE = /castor/cern.ch/delphi/MCprod/lyon/wphact22/v98e/188.6/wphact22_cc_188.6_80.4_60240.xsdst ! RUN = 60240 ! NEVT = 1999
FILE = /castor/cern.ch/delphi/MCprod/lyon/wphact22/v98e/188.6/wphact22_cc_188.6_80.4_60241.xsdst ! RUN = 60241 ! NEVT = 1998
FILE = /castor/cern.ch/delphi/MCprod/lyon/wphact22/v98e/188.6/wphact22_cc_188.6_80.4_60242.xsdst ! RUN = 60242 ! NEVT = 1999
FILE = /castor/cern.ch/delphi/MCprod/lyon/wphact22/v98e/188.6/wphact22_cc_188.6_80.4_60243.xsdst ! RUN = 60243 ! NEVT = 1997
FILE = /castor/cern.ch/delphi/MCprod/lyon/wphact22/v98e/188.6/wphact22_cc_188.6_80.4_60244.xsdst ! RUN = 60244 ! NEVT = 2000
FILE = /castor/cern.ch/delphi/MCprod/lyon/wphact22/v98e/188.6/wphact22_cc_188.6_80.4_60245.xsdst ! RUN = 60245 ! NEVT = 1999
FILE = /castor/cern.ch/delphi/MCprod/lyon/wphact22/v98e/188.6/wphact22_cc_188.6_80.4_60246.xsdst ! RUN = 60246 ! NEVT = 1999
FILE = /castor/cern.ch/delphi/MCprod/lyon/wphact22/v98e/188.6/wphact22_cc_188.6_80.4_60247.xsdst ! RUN = 60247 ! NEVT = 1999
FILE = /castor/cern.ch/delphi/MCprod/lyon/wphact22/v98e/188.6/wphact22_cc_188.6_80.4_60248.xsdst ! RUN = 60248 ! NEVT = 2000
FILE = /castor/cern.ch/delphi/MCprod/lyon/wphact22/v98e/188.6/wphact22_cc_188.6_80.4_60249.xsdst ! RUN = 60249 ! NEVT = 1522
FILE = /castor/cern.ch/delphi/MCprod/lyon/wphact22/v98e/188.6/wphact22_cc_188.6_80.4_60250.xsdst ! RUN = 60250 ! NEVT = 1999
FILE = /castor/cern.ch/delphi/MCprod/lyon/wphact22/v98e/188.6/wphact22_cc_188.6_80.4_60251.xsdst ! RUN = 60251 ! NEVT = 1999
FILE = /castor/cern.ch/delphi/MCprod/lyon/wphact22/v98e/188.6/wphact22_cc_188.6_80.4_60252.xsdst ! RUN = 60252 ! NEVT = 2000
FILE = /castor/cern.ch/delphi/MCprod/lyon/wphact22/v98e/188.6/wphact22_cc_188.6_80.4_60253.xsdst ! RUN = 60253 ! NEVT = 2000
FILE = /castor/cern.ch/delphi/MCprod/lyon/wphact22/v98e/188.6/wphact22_cc_188.6_80.4_60254.xsdst ! RUN = 60254 ! NEVT = 2000
FILE = /castor/cern.ch/delphi/MCprod/lyon/wphact22/v98e/188.6/wphact22_cc_188.6_80.4_60255.xsdst ! RUN = 60255 ! NEVT = 1999
FILE = /castor/cern.ch/delphi/MCprod/lyon/wphact22/v98e/188.6/wphact22_cc_188.6_80.4_60256.xsdst ! RUN = 60256 ! NEVT = 2000
FILE = /castor/cern.ch/delphi/MCprod/lyon/wphact22/v98e/188.6/wphact22_cc_188.6_80.4_60257.xsdst ! RUN = 60257 ! NEVT = 1999
FILE = /castor/cern.ch/delphi/MCprod/lyon/wphact22/v98e/188.6/wphact22_cc_188.6_80.4_60258.xsdst ! RUN = 60258 ! NEVT = 1999
FILE = /castor/cern.ch/delphi/MCprod/lyon/wphact22/v98e/188.6/wphact22_cc_188.6_80.4_60259.xsdst ! RUN = 60259 ! NEVT = 1999
FILE = /castor/cern.ch/delphi/MCprod/lyon/wphact22/v98e/188.6/wphact22_cc_188.6_80.4_60260.xsdst ! RUN = 60260 ! NEVT = 2000
FILE = /castor/cern.ch/delphi/MCprod/lyon/wphact22/v98e/188.6/wphact22_cc_188.6_80.4_60261.xsdst ! RUN = 60261 ! NEVT = 1998
FILE = /castor/cern.ch/delphi/MCprod/lyon/wphact22/v98e/188.6/wphact22_cc_188.6_80.4_60262.xsdst ! RUN = 60262 ! NEVT = 2000
FILE = /castor/cern.ch/delphi/MCprod/lyon/wphact22/v98e/188.6/wphact22_cc_188.6_80.4_60263.xsdst ! RUN = 60263 ! NEVT = 2000
FILE = /castor/cern.ch/delphi/MCprod/lyon/wphact22/v98e/188.6/wphact22_cc_188.6_80.4_60264.xsdst ! RUN = 60264 ! NEVT = 1999
FILE = /castor/cern.ch/delphi/MCprod/lyon/wphact22/v98e/188.6/wphact22_cc_188.6_80.4_60265.xsdst ! RUN = 60265 ! NEVT = 2000
FILE = /castor/cern.ch/delphi/MCprod/lyon/wphact22/v98e/188.6/wphact22_cc_188.6_80.4_60266.xsdst ! RUN = 60266 ! NEVT = 1999
FILE = /castor/cern.ch/delphi/MCprod/lyon/wphact22/v98e/188.6/wphact22_cc_188.6_80.4_60267.xsdst ! RUN = 60267 ! NEVT = 1999
FILE = /castor/cern.ch/delphi/MCprod/lyon/wphact22/v98e/188.6/wphact22_cc_188.6_80.4_60268.xsdst ! RUN = 60268 ! NEVT = 1998
FILE = /castor/cern.ch/delphi/MCprod/lyon/wphact22/v98e/188.6/wphact22_cc_188.6_80.4_60269.xsdst ! RUN = 60269 ! NEVT = 1999
FILE = /castor/cern.ch/delphi/MCprod/lyon/wphact22/v98e/188.6/wphact22_cc_188.6_80.4_60270.xsdst ! RUN = 60270 ! NEVT = 1999
FILE = /castor/cern.ch/delphi/MCprod/lyon/wphact22/v98e/188.6/wphact22_cc_188.6_80.4_60271.xsdst ! RUN = 60271 ! NEVT = 2000
FILE = /castor/cern.ch/delphi/MCprod/lyon/wphact22/v98e/188.6/wphact22_cc_188.6_80.4_60272.xsdst ! RUN = 60272 ! NEVT = 2000
FILE = /castor/cern.ch/delphi/MCprod/lyon/wphact22/v98e/188.6/wphact22_cc_188.6_80.4_60273.xsdst ! RUN = 60273 ! NEVT = 2000
FILE = /castor/cern.ch/delphi/MCprod/lyon/wphact22/v98e/188.6/wphact22_cc_188.6_80.4_60274.xsdst ! RUN = 60274 ! NEVT = 1998
FILE = /castor/cern.ch/delphi/MCprod/lyon/wphact22/v98e/188.6/wphact22_cc_188.6_80.4_60275.xsdst ! RUN = 60275 ! NEVT = 1999
FILE = /castor/cern.ch/delphi/MCprod/lyon/wphact22/v98e/188.6/wphact22_cc_188.6_80.4_60276.xsdst ! RUN = 60276 ! NEVT = 2000
FILE = /castor/cern.ch/delphi/MCprod/lyon/wphact22/v98e/188.6/wphact22_cc_188.6_80.4_60277.xsdst ! RUN = 60277 ! NEVT = 2000
FILE = /castor/cern.ch/delphi/MCprod/lyon/wphact22/v98e/188.6/wphact22_cc_188.6_80.4_60278.xsdst ! RUN = 60278 ! NEVT = 2000
FILE = /castor/cern.ch/delphi/MCprod/lyon/wphact22/v98e/188.6/wphact22_cc_188.6_80.4_60279.xsdst ! RUN = 60279 ! NEVT = 1998
FILE = /castor/cern.ch/delphi/MCprod/lyon/wphact22/v98e/188.6/wphact22_cc_188.6_80.4_60280.xsdst ! RUN = 60280 ! NEVT = 2000
FILE = /castor/cern.ch/delphi/MCprod/lyon/wphact22/v98e/188.6/wphact22_cc_188.6_80.4_60281.xsdst ! RUN = 60281 ! NEVT = 1998
FILE = /castor/cern.ch/delphi/MCprod/lyon/wphact22/v98e/188.6/wphact22_cc_188.6_80.4_60282.xsdst ! RUN = 60282 ! NEVT = 1811
FILE = /castor/cern.ch/delphi/MCprod/lyon/wphact22/v98e/188.6/wphact22_cc_188.6_80.4_60283.xsdst ! RUN = 60283 ! NEVT = 1999
FILE = /castor/cern.ch/delphi/MCprod/lyon/wphact22/v98e/188.6/wphact22_cc_188.6_80.4_60284.xsdst ! RUN = 60284 ! NEVT = 2000
FILE = /castor/cern.ch/delphi/MCprod/lyon/wphact22/v98e/188.6/wphact22_cc_188.6_80.4_60285.xsdst ! RUN = 60285 ! NEVT = 1998
FILE = /castor/cern.ch/delphi/MCprod/lyon/wphact22/v98e/188.6/wphact22_cc_188.6_80.4_60286.xsdst ! RUN = 60286 ! NEVT = 2000
FILE = /castor/cern.ch/delphi/MCprod/lyon/wphact22/v98e/188.6/wphact22_cc_188.6_80.4_60287.xsdst ! RUN = 60287 ! NEVT = 2000
FILE = /castor/cern.ch/delphi/MCprod/lyon/wphact22/v98e/188.6/wphact22_cc_188.6_80.4_60288.xsdst ! RUN = 60288 ! NEVT = 1999
FILE = /castor/cern.ch/delphi/MCprod/lyon/wphact22/v98e/188.6/wphact22_cc_188.6_80.4_60289.xsdst ! RUN = 60289 ! NEVT = 2000
FILE = /castor/cern.ch/delphi/MCprod/lyon/wphact22/v98e/188.6/wphact22_cc_188.6_80.4_60290.xsdst ! RUN = 60290 ! NEVT = 1998
FILE = /castor/cern.ch/delphi/MCprod/lyon/wphact22/v98e/188.6/wphact22_cc_188.6_80.4_60291.xsdst ! RUN = 60291 ! NEVT = 2000
FILE = /castor/cern.ch/delphi/MCprod/lyon/wphact22/v98e/188.6/wphact22_cc_188.6_80.4_60292.xsdst ! RUN = 60292 ! NEVT = 1999
FILE = /castor/cern.ch/delphi/MCprod/lyon/wphact22/v98e/188.6/wphact22_cc_188.6_80.4_60293.xsdst ! RUN = 60293 ! NEVT = 1998
FILE = /castor/cern.ch/delphi/MCprod/lyon/wphact22/v98e/188.6/wphact22_cc_188.6_80.4_60294.xsdst ! RUN = 60294 ! NEVT = 2000
FILE = /castor/cern.ch/delphi/MCprod/lyon/wphact22/v98e/188.6/wphact22_cc_188.6_80.4_60295.xsdst ! RUN = 60295 ! NEVT = 1227
FILE = /castor/cern.ch/delphi/MCprod/lyon/wphact22/v98e/188.6/wphact22_cc_188.6_80.4_60296.xsdst ! RUN = 60296 ! NEVT = 1998
FILE = /castor/cern.ch/delphi/MCprod/lyon/wphact22/v98e/188.6/wphact22_cc_188.6_80.4_60297.xsdst ! RUN = 60297 ! NEVT = 1999
FILE = /castor/cern.ch/delphi/MCprod/lyon/wphact22/v98e/188.6/wphact22_cc_188.6_80.4_60298.xsdst ! RUN = 60298 ! NEVT = 1999
FILE = /castor/cern.ch/delphi/MCprod/lyon/wphact22/v98e/188.6/wphact22_cc_188.6_80.4_60299.xsdst ! RUN = 60299 ! NEVT = 1999
FILE = /castor/cern.ch/delphi/MCprod/lyon/wphact22/v98e/188.6/wphact22_cc_188.6_80.4_60300.xsdst ! RUN = 60300 ! NEVT = 2000
FILE = /castor/cern.ch/delphi/MCprod/lyon/wphact22/v98e/188.6/wphact22_cc_188.6_80.4_60301.xsdst ! RUN = 60301 ! NEVT = 2000
FILE = /castor/cern.ch/delphi/MCprod/lyon/wphact22/v98e/188.6/wphact22_cc_188.6_80.4_60302.xsdst ! RUN = 60302 ! NEVT = 1999
FILE = /castor/cern.ch/delphi/MCprod/lyon/wphact22/v98e/188.6/wphact22_cc_188.6_80.4_60303.xsdst ! RUN = 60303 ! NEVT = 1806
FILE = /castor/cern.ch/delphi/MCprod/lyon/wphact22/v98e/188.6/wphact22_cc_188.6_80.4_60304.xsdst ! RUN = 60304 ! NEVT = 1999
FILE = /castor/cern.ch/delphi/MCprod/lyon/wphact22/v98e/188.6/wphact22_cc_188.6_80.4_60305.xsdst ! RUN = 60305 ! NEVT = 2000
FILE = /castor/cern.ch/delphi/MCprod/lyon/wphact22/v98e/188.6/wphact22_cc_188.6_80.4_60306.xsdst ! RUN = 60306 ! NEVT = 2000
FILE = /castor/cern.ch/delphi/MCprod/lyon/wphact22/v98e/188.6/wphact22_cc_188.6_80.4_60307.xsdst ! RUN = 60307 ! NEVT = 1999
FILE = /castor/cern.ch/delphi/MCprod/lyon/wphact22/v98e/188.6/wphact22_cc_188.6_80.4_60308.xsdst ! RUN = 60308 ! NEVT = 1999
FILE = /castor/cern.ch/delphi/MCprod/lyon/wphact22/v98e/188.6/wphact22_cc_188.6_80.4_60309.xsdst ! RUN = 60309 ! NEVT = 1998
FILE = /castor/cern.ch/delphi/MCprod/lyon/wphact22/v98e/188.6/wphact22_cc_188.6_80.4_60310.xsdst ! RUN = 60310 ! NEVT = 1998
FILE = /castor/cern.ch/delphi/MCprod/lyon/wphact22/v98e/188.6/wphact22_cc_188.6_80.4_60311.xsdst ! RUN = 60311 ! NEVT = 1999
FILE = /castor/cern.ch/delphi/MCprod/lyon/wphact22/v98e/188.6/wphact22_cc_188.6_80.4_60312.xsdst ! RUN = 60312 ! NEVT = 2000
FILE = /castor/cern.ch/delphi/MCprod/lyon/wphact22/v98e/188.6/wphact22_cc_188.6_80.4_60313.xsdst ! RUN = 60313 ! NEVT = 2000
FILE = /castor/cern.ch/delphi/MCprod/lyon/wphact22/v98e/188.6/wphact22_cc_188.6_80.4_60314.xsdst ! RUN = 60314 ! NEVT = 2000
FILE = /castor/cern.ch/delphi/MCprod/lyon/wphact22/v98e/188.6/wphact22_cc_188.6_80.4_60315.xsdst ! RUN = 60315 ! NEVT = 1999
FILE = /castor/cern.ch/delphi/MCprod/lyon/wphact22/v98e/188.6/wphact22_cc_188.6_80.4_60316.xsdst ! RUN = 60316 ! NEVT = 1999
FILE = /castor/cern.ch/delphi/MCprod/lyon/wphact22/v98e/188.6/wphact22_cc_188.6_80.4_60317.xsdst ! RUN = 60317 ! NEVT = 2000
FILE = /castor/cern.ch/delphi/MCprod/lyon/wphact22/v98e/188.6/wphact22_cc_188.6_80.4_60318.xsdst ! RUN = 60318 ! NEVT = 1999
FILE = /castor/cern.ch/delphi/MCprod/lyon/wphact22/v98e/188.6/wphact22_cc_188.6_80.4_60319.xsdst ! RUN = 60319 ! NEVT = 1999
FILE = /castor/cern.ch/delphi/MCprod/lyon/wphact22/v98e/188.6/wphact22_cc_188.6_80.4_60320.xsdst ! RUN = 60320 ! NEVT = 2000
FILE = /castor/cern.ch/delphi/MCprod/lyon/wphact22/v98e/188.6/wphact22_cc_188.6_80.4_60321.xsdst ! RUN = 60321 ! NEVT = 1999
FILE = /castor/cern.ch/delphi/MCprod/lyon/wphact22/v98e/188.6/wphact22_cc_188.6_80.4_60322.xsdst ! RUN = 60322 ! NEVT = 1998
FILE = /castor/cern.ch/delphi/MCprod/lyon/wphact22/v98e/188.6/wphact22_cc_188.6_80.4_60323.xsdst ! RUN = 60323 ! NEVT = 1999
FILE = /castor/cern.ch/delphi/MCprod/lyon/wphact22/v98e/188.6/wphact22_cc_188.6_80.4_60324.xsdst ! RUN = 60324 ! NEVT = 1998
FILE = /castor/cern.ch/delphi/MCprod/lyon/wphact22/v98e/188.6/wphact22_cc_188.6_80.4_60325.xsdst ! RUN = 60325 ! NEVT = 1999
FILE = /castor/cern.ch/delphi/MCprod/lyon/wphact22/v98e/188.6/wphact22_cc_188.6_80.4_60326.xsdst ! RUN = 60326 ! NEVT = 1999
FILE = /castor/cern.ch/delphi/MCprod/lyon/wphact22/v98e/188.6/wphact22_cc_188.6_80.4_60327.xsdst ! RUN = 60327 ! NEVT = 1999
FILE = /castor/cern.ch/delphi/MCprod/lyon/wphact22/v98e/188.6/wphact22_cc_188.6_80.4_60328.xsdst ! RUN = 60328 ! NEVT = 1999
FILE = /castor/cern.ch/delphi/MCprod/lyon/wphact22/v98e/188.6/wphact22_cc_188.6_80.4_60329.xsdst ! RUN = 60329 ! NEVT = 1999
FILE = /castor/cern.ch/delphi/MCprod/lyon/wphact22/v98e/188.6/wphact22_cc_188.6_80.4_60330.xsdst ! RUN = 60330 ! NEVT = 1999
FILE = /castor/cern.ch/delphi/MCprod/lyon/wphact22/v98e/188.6/wphact22_cc_188.6_80.4_60331.xsdst ! RUN = 60331 ! NEVT = 2000
FILE = /castor/cern.ch/delphi/MCprod/lyon/wphact22/v98e/188.6/wphact22_cc_188.6_80.4_60332.xsdst ! RUN = 60332 ! NEVT = 1999
FILE = /castor/cern.ch/delphi/MCprod/lyon/wphact22/v98e/188.6/wphact22_cc_188.6_80.4_60333.xsdst ! RUN = 60333 ! NEVT = 1999
FILE = /castor/cern.ch/delphi/MCprod/lyon/wphact22/v98e/188.6/wphact22_cc_188.6_80.4_60334.xsdst ! RUN = 60334 ! NEVT = 2000
FILE = /castor/cern.ch/delphi/MCprod/lyon/wphact22/v98e/188.6/wphact22_cc_188.6_80.4_60335.xsdst ! RUN = 60335 ! NEVT = 1999
FILE = /castor/cern.ch/delphi/MCprod/lyon/wphact22/v98e/188.6/wphact22_cc_188.6_80.4_60336.xsdst ! RUN = 60336 ! NEVT = 2000
FILE = /castor/cern.ch/delphi/MCprod/lyon/wphact22/v98e/188.6/wphact22_cc_188.6_80.4_60337.xsdst ! RUN = 60337 ! NEVT = 1999
FILE = /castor/cern.ch/delphi/MCprod/lyon/wphact22/v98e/188.6/wphact22_cc_188.6_80.4_60338.xsdst ! RUN = 60338 ! NEVT = 2000
FILE = /castor/cern.ch/delphi/MCprod/lyon/wphact22/v98e/188.6/wphact22_cc_188.6_80.4_60339.xsdst ! RUN = 60339 ! NEVT = 2000
FILE = /castor/cern.ch/delphi/MCprod/lyon/wphact22/v98e/188.6/wphact22_cc_188.6_80.4_60340.xsdst ! RUN = 60340 ! NEVT = 2000
FILE = /castor/cern.ch/delphi/MCprod/lyon/wphact22/v98e/188.6/wphact22_cc_188.6_80.4_60341.xsdst ! RUN = 60341 ! NEVT = 2000
FILE = /castor/cern.ch/delphi/MCprod/lyon/wphact22/v98e/188.6/wphact22_cc_188.6_80.4_60342.xsdst ! RUN = 60342 ! NEVT = 1999
FILE = /castor/cern.ch/delphi/MCprod/lyon/wphact22/v98e/188.6/wphact22_cc_188.6_80.4_60343.xsdst ! RUN = 60343 ! NEVT = 1999
FILE = /castor/cern.ch/delphi/MCprod/lyon/wphact22/v98e/188.6/wphact22_cc_188.6_80.4_60344.xsdst ! RUN = 60344 ! NEVT = 2000
FILE = /castor/cern.ch/delphi/MCprod/lyon/wphact22/v98e/188.6/wphact22_cc_188.6_80.4_60345.xsdst ! RUN = 60345 ! NEVT = 2000
FILE = /castor/cern.ch/delphi/MCprod/lyon/wphact22/v98e/188.6/wphact22_cc_188.6_80.4_60346.xsdst ! RUN = 60346 ! NEVT = 1998
FILE = /castor/cern.ch/delphi/MCprod/lyon/wphact22/v98e/188.6/wphact22_cc_188.6_80.4_60347.xsdst ! RUN = 60347 ! NEVT = 1998
FILE = /castor/cern.ch/delphi/MCprod/lyon/wphact22/v98e/188.6/wphact22_cc_188.6_80.4_60348.xsdst ! RUN = 60348 ! NEVT = 1998
FILE = /castor/cern.ch/delphi/MCprod/lyon/wphact22/v98e/188.6/wphact22_cc_188.6_80.4_60349.xsdst ! RUN = 60349 ! NEVT = 1999
FILE = /castor/cern.ch/delphi/MCprod/lyon/wphact22/v98e/188.6/wphact22_cc_188.6_80.4_60350.xsdst ! RUN = 60350 ! NEVT = 1999
FILE = /castor/cern.ch/delphi/MCprod/lyon/wphact22/v98e/188.6/wphact22_cc_188.6_80.4_60351.xsdst ! RUN = 60351 ! NEVT = 2000
FILE = /castor/cern.ch/delphi/MCprod/lyon/wphact22/v98e/188.6/wphact22_cc_188.6_80.4_60352.xsdst ! RUN = 60352 ! NEVT = 1996
FILE = /castor/cern.ch/delphi/MCprod/lyon/wphact22/v98e/188.6/wphact22_cc_188.6_80.4_60353.xsdst ! RUN = 60353 ! NEVT = 2000
FILE = /castor/cern.ch/delphi/MCprod/lyon/wphact22/v98e/188.6/wphact22_cc_188.6_80.4_60354.xsdst ! RUN = 60354 ! NEVT = 2000
FILE = /castor/cern.ch/delphi/MCprod/lyon/wphact22/v98e/188.6/wphact22_cc_188.6_80.4_60355.xsdst ! RUN = 60355 ! NEVT = 1999
FILE = /castor/cern.ch/delphi/MCprod/lyon/wphact22/v98e/188.6/wphact22_cc_188.6_80.4_60356.xsdst ! RUN = 60356 ! NEVT = 2000
FILE = /castor/cern.ch/delphi/MCprod/lyon/wphact22/v98e/188.6/wphact22_cc_188.6_80.4_60357.xsdst ! RUN = 60357 ! NEVT = 1999
FILE = /castor/cern.ch/delphi/MCprod/lyon/wphact22/v98e/188.6/wphact22_cc_188.6_80.4_60358.xsdst ! RUN = 60358 ! NEVT = 1999
FILE = /castor/cern.ch/delphi/MCprod/lyon/wphact22/v98e/188.6/wphact22_cc_188.6_80.4_60359.xsdst ! RUN = 60359 ! NEVT = 2000
FILE = /castor/cern.ch/delphi/MCprod/lyon/wphact22/v98e/188.6/wphact22_cc_188.6_80.4_60360.xsdst ! RUN = 60360 ! NEVT = 2000
FILE = /castor/cern.ch/delphi/MCprod/lyon/wphact22/v98e/188.6/wphact22_cc_188.6_80.4_60361.xsdst ! RUN = 60361 ! NEVT = 1999
FILE = /castor/cern.ch/delphi/MCprod/lyon/wphact22/v98e/188.6/wphact22_cc_188.6_80.4_60362.xsdst ! RUN = 60362 ! NEVT = 2000
FILE = /castor/cern.ch/delphi/MCprod/lyon/wphact22/v98e/188.6/wphact22_cc_188.6_80.4_60363.xsdst ! RUN = 60363 ! NEVT = 2000
FILE = /castor/cern.ch/delphi/MCprod/lyon/wphact22/v98e/188.6/wphact22_cc_188.6_80.4_60364.xsdst ! RUN = 60364 ! NEVT = 1998
FILE = /castor/cern.ch/delphi/MCprod/lyon/wphact22/v98e/188.6/wphact22_cc_188.6_80.4_60365.xsdst ! RUN = 60365 ! NEVT = 2000
FILE = /castor/cern.ch/delphi/MCprod/lyon/wphact22/v98e/188.6/wphact22_cc_188.6_80.4_60366.xsdst ! RUN = 60366 ! NEVT = 2000
FILE = /castor/cern.ch/delphi/MCprod/lyon/wphact22/v98e/188.6/wphact22_cc_188.6_80.4_60367.xsdst ! RUN = 60367 ! NEVT = 2000
FILE = /castor/cern.ch/delphi/MCprod/lyon/wphact22/v98e/188.6/wphact22_cc_188.6_80.4_60368.xsdst ! RUN = 60368 ! NEVT = 1999
FILE = /castor/cern.ch/delphi/MCprod/lyon/wphact22/v98e/188.6/wphact22_cc_188.6_80.4_60369.xsdst ! RUN = 60369 ! NEVT = 2000
FILE = /castor/cern.ch/delphi/MCprod/lyon/wphact22/v98e/188.6/wphact22_cc_188.6_80.4_60370.xsdst ! RUN = 60370 ! NEVT = 2000
FILE = /castor/cern.ch/delphi/MCprod/lyon/wphact22/v98e/188.6/wphact22_cc_188.6_80.4_60371.xsdst ! RUN = 60371 ! NEVT = 1999
FILE = /castor/cern.ch/delphi/MCprod/lyon/wphact22/v98e/188.6/wphact22_cc_188.6_80.4_60372.xsdst ! RUN = 60372 ! NEVT = 1997
FILE = /castor/cern.ch/delphi/MCprod/lyon/wphact22/v98e/188.6/wphact22_cc_188.6_80.4_60373.xsdst ! RUN = 60373 ! NEVT = 2000
FILE = /castor/cern.ch/delphi/MCprod/lyon/wphact22/v98e/188.6/wphact22_cc_188.6_80.4_60374.xsdst ! RUN = 60374 ! NEVT = 1999
FILE = /castor/cern.ch/delphi/MCprod/lyon/wphact22/v98e/188.6/wphact22_cc_188.6_80.4_60375.xsdst ! RUN = 60375 ! NEVT = 2000
FILE = /castor/cern.ch/delphi/MCprod/lyon/wphact22/v98e/188.6/wphact22_cc_188.6_80.4_60376.xsdst ! RUN = 60376 ! NEVT = 1999
FILE = /castor/cern.ch/delphi/MCprod/lyon/wphact22/v98e/188.6/wphact22_cc_188.6_80.4_60377.xsdst ! RUN = 60377 ! NEVT = 1999
FILE = /castor/cern.ch/delphi/MCprod/lyon/wphact22/v98e/188.6/wphact22_cc_188.6_80.4_60378.xsdst ! RUN = 60378 ! NEVT = 1999
FILE = /castor/cern.ch/delphi/MCprod/lyon/wphact22/v98e/188.6/wphact22_cc_188.6_80.4_60379.xsdst ! RUN = 60379 ! NEVT = 1998
FILE = /castor/cern.ch/delphi/MCprod/lyon/wphact22/v98e/188.6/wphact22_cc_188.6_80.4_60380.xsdst ! RUN = 60380 ! NEVT = 1999
FILE = /castor/cern.ch/delphi/MCprod/lyon/wphact22/v98e/188.6/wphact22_cc_188.6_80.4_60381.xsdst ! RUN = 60381 ! NEVT = 2000
FILE = /castor/cern.ch/delphi/MCprod/lyon/wphact22/v98e/188.6/wphact22_cc_188.6_80.4_60382.xsdst ! RUN = 60382 ! NEVT = 2000
FILE = /castor/cern.ch/delphi/MCprod/lyon/wphact22/v98e/188.6/wphact22_cc_188.6_80.4_60383.xsdst ! RUN = 60383 ! NEVT = 1999
FILE = /castor/cern.ch/delphi/MCprod/lyon/wphact22/v98e/188.6/wphact22_cc_188.6_80.4_60384.xsdst ! RUN = 60384 ! NEVT = 1996
FILE = /castor/cern.ch/delphi/MCprod/lyon/wphact22/v98e/188.6/wphact22_cc_188.6_80.4_60385.xsdst ! RUN = 60385 ! NEVT = 1999
FILE = /castor/cern.ch/delphi/MCprod/lyon/wphact22/v98e/188.6/wphact22_cc_188.6_80.4_60386.xsdst ! RUN = 60386 ! NEVT = 1998
FILE = /castor/cern.ch/delphi/MCprod/lyon/wphact22/v98e/188.6/wphact22_cc_188.6_80.4_60387.xsdst ! RUN = 60387 ! NEVT = 2000
FILE = /castor/cern.ch/delphi/MCprod/lyon/wphact22/v98e/188.6/wphact22_cc_188.6_80.4_60388.xsdst ! RUN = 60388 ! NEVT = 2000
FILE = /castor/cern.ch/delphi/MCprod/lyon/wphact22/v98e/188.6/wphact22_cc_188.6_80.4_60389.xsdst ! RUN = 60389 ! NEVT = 1999
FILE = /castor/cern.ch/delphi/MCprod/lyon/wphact22/v98e/188.6/wphact22_cc_188.6_80.4_60390.xsdst ! RUN = 60390 ! NEVT = 1999
FILE = /castor/cern.ch/delphi/MCprod/lyon/wphact22/v98e/188.6/wphact22_cc_188.6_80.4_60391.xsdst ! RUN = 60391 ! NEVT = 2000
FILE = /castor/cern.ch/delphi/MCprod/lyon/wphact22/v98e/188.6/wphact22_cc_188.6_80.4_60392.xsdst ! RUN = 60392 ! NEVT = 1999
FILE = /castor/cern.ch/delphi/MCprod/lyon/wphact22/v98e/188.6/wphact22_cc_188.6_80.4_60393.xsdst ! RUN = 60393 ! NEVT = 2000
FILE = /castor/cern.ch/delphi/MCprod/lyon/wphact22/v98e/188.6/wphact22_cc_188.6_80.4_60394.xsdst ! RUN = 60394 ! NEVT = 2000
FILE = /castor/cern.ch/delphi/MCprod/lyon/wphact22/v98e/188.6/wphact22_cc_188.6_80.4_60395.xsdst ! RUN = 60395 ! NEVT = 1998
FILE = /castor/cern.ch/delphi/MCprod/lyon/wphact22/v98e/188.6/wphact22_cc_188.6_80.4_60396.xsdst ! RUN = 60396 ! NEVT = 1999
FILE = /castor/cern.ch/delphi/MCprod/lyon/wphact22/v98e/188.6/wphact22_cc_188.6_80.4_60397.xsdst ! RUN = 60397 ! NEVT = 1999
FILE = /castor/cern.ch/delphi/MCprod/lyon/wphact22/v98e/188.6/wphact22_cc_188.6_80.4_60398.xsdst ! RUN = 60398 ! NEVT = 2000
FILE = /castor/cern.ch/delphi/MCprod/lyon/wphact22/v98e/188.6/wphact22_cc_188.6_80.4_60399.xsdst ! RUN = 60399 ! NEVT = 1999
FILE = /castor/cern.ch/delphi/MCprod/lyon/wphact22/v98e/188.6/wphact22_cc_188.6_80.4_60400.xsdst ! RUN = 60400 ! NEVT = 1998
FILE = /castor/cern.ch/delphi/MCprod/lyon/wphact22/v98e/188.6/wphact22_cc_188.6_80.4_60401.xsdst ! RUN = 60401 ! NEVT = 2000
FILE = /castor/cern.ch/delphi/MCprod/lyon/wphact22/v98e/188.6/wphact22_cc_188.6_80.4_60402.xsdst ! RUN = 60402 ! NEVT = 2000
FILE = /castor/cern.ch/delphi/MCprod/lyon/wphact22/v98e/188.6/wphact22_cc_188.6_80.4_60403.xsdst ! RUN = 60403 ! NEVT = 2000
FILE = /castor/cern.ch/delphi/MCprod/lyon/wphact22/v98e/188.6/wphact22_cc_188.6_80.4_60404.xsdst ! RUN = 60404 ! NEVT = 2000
FILE = /castor/cern.ch/delphi/MCprod/lyon/wphact22/v98e/188.6/wphact22_cc_188.6_80.4_60405.xsdst ! RUN = 60405 ! NEVT = 2000
FILE = /castor/cern.ch/delphi/MCprod/lyon/wphact22/v98e/188.6/wphact22_cc_188.6_80.4_60406.xsdst ! RUN = 60406 ! NEVT = 2000
FILE = /castor/cern.ch/delphi/MCprod/lyon/wphact22/v98e/188.6/wphact22_cc_188.6_80.4_60407.xsdst ! RUN = 60407 ! NEVT = 2000
FILE = /castor/cern.ch/delphi/MCprod/lyon/wphact22/v98e/188.6/wphact22_cc_188.6_80.4_60408.xsdst ! RUN = 60408 ! NEVT = 2000
FILE = /castor/cern.ch/delphi/MCprod/lyon/wphact22/v98e/188.6/wphact22_cc_188.6_80.4_60409.xsdst ! RUN = 60409 ! NEVT = 357
FILE = /castor/cern.ch/delphi/MCprod/lyon/wphact22/v98e/188.6/wphact22_cc_188.6_80.4_60410.xsdst ! RUN = 60410 ! NEVT = 2000
FILE = /castor/cern.ch/delphi/MCprod/lyon/wphact22/v98e/188.6/wphact22_cc_188.6_80.4_60411.xsdst ! RUN = 60411 ! NEVT = 1999
FILE = /castor/cern.ch/delphi/MCprod/lyon/wphact22/v98e/188.6/wphact22_cc_188.6_80.4_60412.xsdst ! RUN = 60412 ! NEVT = 1999
FILE = /castor/cern.ch/delphi/MCprod/lyon/wphact22/v98e/188.6/wphact22_cc_188.6_80.4_60413.xsdst ! RUN = 60413 ! NEVT = 1988
FILE = /castor/cern.ch/delphi/MCprod/lyon/wphact22/v98e/188.6/wphact22_cc_188.6_80.4_60414.xsdst ! RUN = 60414 ! NEVT = 2000
FILE = /castor/cern.ch/delphi/MCprod/lyon/wphact22/v98e/188.6/wphact22_cc_188.6_80.4_60415.xsdst ! RUN = 60415 ! NEVT = 2000
FILE = /castor/cern.ch/delphi/MCprod/lyon/wphact22/v98e/188.6/wphact22_cc_188.6_80.4_60416.xsdst ! RUN = 60416 ! NEVT = 2000
FILE = /castor/cern.ch/delphi/MCprod/lyon/wphact22/v98e/188.6/wphact22_cc_188.6_80.4_60417.xsdst ! RUN = 60417 ! NEVT = 1998
FILE = /castor/cern.ch/delphi/MCprod/lyon/wphact22/v98e/188.6/wphact22_cc_188.6_80.4_60418.xsdst ! RUN = 60418 ! NEVT = 1999
FILE = /castor/cern.ch/delphi/MCprod/lyon/wphact22/v98e/188.6/wphact22_cc_188.6_80.4_60419.xsdst ! RUN = 60419 ! NEVT = 1999
FILE = /castor/cern.ch/delphi/MCprod/lyon/wphact22/v98e/188.6/wphact22_cc_188.6_80.4_60420.xsdst ! RUN = 60420 ! NEVT = 1999
FILE = /castor/cern.ch/delphi/MCprod/lyon/wphact22/v98e/188.6/wphact22_cc_188.6_80.4_60421.xsdst ! RUN = 60421 ! NEVT = 1999
FILE = /castor/cern.ch/delphi/MCprod/lyon/wphact22/v98e/188.6/wphact22_cc_188.6_80.4_60422.xsdst ! RUN = 60422 ! NEVT = 1999
FILE = /castor/cern.ch/delphi/MCprod/lyon/wphact22/v98e/188.6/wphact22_cc_188.6_80.4_60423.xsdst ! RUN = 60423 ! NEVT = 2000
FILE = /castor/cern.ch/delphi/MCprod/lyon/wphact22/v98e/188.6/wphact22_cc_188.6_80.4_60424.xsdst ! RUN = 60424 ! NEVT = 218
FILE = /castor/cern.ch/delphi/MCprod/lyon/wphact22/v98e/188.6/wphact22_cc_188.6_80.4_60425.xsdst ! RUN = 60425 ! NEVT = 1998
FILE = /castor/cern.ch/delphi/MCprod/lyon/wphact22/v98e/188.6/wphact22_cc_188.6_80.4_60426.xsdst ! RUN = 60426 ! NEVT = 1998
FILE = /castor/cern.ch/delphi/MCprod/lyon/wphact22/v98e/188.6/wphact22_cc_188.6_80.4_60427.xsdst ! RUN = 60427 ! NEVT = 1849
FILE = /castor/cern.ch/delphi/MCprod/lyon/wphact22/v98e/188.6/wphact22_cc_188.6_80.4_60428.xsdst ! RUN = 60428 ! NEVT = 1998
FILE = /castor/cern.ch/delphi/MCprod/lyon/wphact22/v98e/188.6/wphact22_cc_188.6_80.4_60429.xsdst ! RUN = 60429 ! NEVT = 1998
FILE = /castor/cern.ch/delphi/MCprod/lyon/wphact22/v98e/188.6/wphact22_cc_188.6_80.4_60430.xsdst ! RUN = 60430 ! NEVT = 1999
FILE = /castor/cern.ch/delphi/MCprod/lyon/wphact22/v98e/188.6/wphact22_cc_188.6_80.4_60431.xsdst ! RUN = 60431 ! NEVT = 1999
FILE = /castor/cern.ch/delphi/MCprod/lyon/wphact22/v98e/188.6/wphact22_cc_188.6_80.4_60432.xsdst ! RUN = 60432 ! NEVT = 1998
FILE = /castor/cern.ch/delphi/MCprod/lyon/wphact22/v98e/188.6/wphact22_cc_188.6_80.4_60433.xsdst ! RUN = 60433 ! NEVT = 2000
FILE = /castor/cern.ch/delphi/MCprod/lyon/wphact22/v98e/188.6/wphact22_cc_188.6_80.4_60434.xsdst ! RUN = 60434 ! NEVT = 1999
FILE = /castor/cern.ch/delphi/MCprod/lyon/wphact22/v98e/188.6/wphact22_cc_188.6_80.4_60435.xsdst ! RUN = 60435 ! NEVT = 2000
FILE = /castor/cern.ch/delphi/MCprod/lyon/wphact22/v98e/188.6/wphact22_cc_188.6_80.4_60436.xsdst ! RUN = 60436 ! NEVT = 1999
FILE = /castor/cern.ch/delphi/MCprod/lyon/wphact22/v98e/188.6/wphact22_cc_188.6_80.4_60437.xsdst ! RUN = 60437 ! NEVT = 686
FILE = /castor/cern.ch/delphi/MCprod/lyon/wphact22/v98e/188.6/wphact22_cc_188.6_80.4_60438.xsdst ! RUN = 60438 ! NEVT = 1999
FILE = /castor/cern.ch/delphi/MCprod/lyon/wphact22/v98e/188.6/wphact22_cc_188.6_80.4_60439.xsdst ! RUN = 60439 ! NEVT = 1998
FILE = /castor/cern.ch/delphi/MCprod/lyon/wphact22/v98e/188.6/wphact22_cc_188.6_80.4_60440.xsdst ! RUN = 60440 ! NEVT = 2000
FILE = /castor/cern.ch/delphi/MCprod/lyon/wphact22/v98e/188.6/wphact22_cc_188.6_80.4_60441.xsdst ! RUN = 60441 ! NEVT = 2000
FILE = /castor/cern.ch/delphi/MCprod/lyon/wphact22/v98e/188.6/wphact22_cc_188.6_80.4_60442.xsdst ! RUN = 60442 ! NEVT = 2000
FILE = /castor/cern.ch/delphi/MCprod/lyon/wphact22/v98e/188.6/wphact22_cc_188.6_80.4_60443.xsdst ! RUN = 60443 ! NEVT = 1998
FILE = /castor/cern.ch/delphi/MCprod/lyon/wphact22/v98e/188.6/wphact22_cc_188.6_80.4_60444.xsdst ! RUN = 60444 ! NEVT = 1998
FILE = /castor/cern.ch/delphi/MCprod/lyon/wphact22/v98e/188.6/wphact22_cc_188.6_80.4_60445.xsdst ! RUN = 60445 ! NEVT = 1999
FILE = /castor/cern.ch/delphi/MCprod/lyon/wphact22/v98e/188.6/wphact22_cc_188.6_80.4_60446.xsdst ! RUN = 60446 ! NEVT = 2000
FILE = /castor/cern.ch/delphi/MCprod/lyon/wphact22/v98e/188.6/wphact22_cc_188.6_80.4_60447.xsdst ! RUN = 60447 ! NEVT = 2000
FILE = /castor/cern.ch/delphi/MCprod/lyon/wphact22/v98e/188.6/wphact22_cc_188.6_80.4_60448.xsdst ! RUN = 60448 ! NEVT = 2000
FILE = /castor/cern.ch/delphi/MCprod/lyon/wphact22/v98e/188.6/wphact22_cc_188.6_80.4_60449.xsdst ! RUN = 60449 ! NEVT = 2000
FILE = /castor/cern.ch/delphi/MCprod/lyon/wphact22/v98e/188.6/wphact22_cc_188.6_80.4_60450.xsdst ! RUN = 60450 ! NEVT = 2000
FILE = /castor/cern.ch/delphi/MCprod/lyon/wphact22/v98e/188.6/wphact22_cc_188.6_80.4_60451.xsdst ! RUN = 60451 ! NEVT = 1999
FILE = /castor/cern.ch/delphi/MCprod/lyon/wphact22/v98e/188.6/wphact22_cc_188.6_80.4_60452.xsdst ! RUN = 60452 ! NEVT = 2000
FILE = /castor/cern.ch/delphi/MCprod/lyon/wphact22/v98e/188.6/wphact22_cc_188.6_80.4_60453.xsdst ! RUN = 60453 ! NEVT = 1999
FILE = /castor/cern.ch/delphi/MCprod/lyon/wphact22/v98e/188.6/wphact22_cc_188.6_80.4_60454.xsdst ! RUN = 60454 ! NEVT = 2000
FILE = /castor/cern.ch/delphi/MCprod/lyon/wphact22/v98e/188.6/wphact22_cc_188.6_80.4_60455.xsdst ! RUN = 60455 ! NEVT = 2000
FILE = /castor/cern.ch/delphi/MCprod/lyon/wphact22/v98e/188.6/wphact22_cc_188.6_80.4_60456.xsdst ! RUN = 60456 ! NEVT = 2000
FILE = /castor/cern.ch/delphi/MCprod/lyon/wphact22/v98e/188.6/wphact22_cc_188.6_80.4_60457.xsdst ! RUN = 60457 ! NEVT = 2000
FILE = /castor/cern.ch/delphi/MCprod/lyon/wphact22/v98e/188.6/wphact22_cc_188.6_80.4_60458.xsdst ! RUN = 60458 ! NEVT = 2000
FILE = /castor/cern.ch/delphi/MCprod/lyon/wphact22/v98e/188.6/wphact22_cc_188.6_80.4_60459.xsdst ! RUN = 60459 ! NEVT = 58
FILE = /castor/cern.ch/delphi/MCprod/lyon/wphact22/v98e/188.6/wphact22_cc_188.6_80.4_60460.xsdst ! RUN = 60460 ! NEVT = 2000
FILE = /castor/cern.ch/delphi/MCprod/lyon/wphact22/v98e/188.6/wphact22_cc_188.6_80.4_60461.xsdst ! RUN = 60461 ! NEVT = 2000
FILE = /castor/cern.ch/delphi/MCprod/lyon/wphact22/v98e/188.6/wphact22_cc_188.6_80.4_60462.xsdst ! RUN = 60462 ! NEVT = 2000
FILE = /castor/cern.ch/delphi/MCprod/lyon/wphact22/v98e/188.6/wphact22_cc_188.6_80.4_60463.xsdst ! RUN = 60463 ! NEVT = 1999
FILE = /castor/cern.ch/delphi/MCprod/lyon/wphact22/v98e/188.6/wphact22_cc_188.6_80.4_60464.xsdst ! RUN = 60464 ! NEVT = 1999
FILE = /castor/cern.ch/delphi/MCprod/lyon/wphact22/v98e/188.6/wphact22_cc_188.6_80.4_60465.xsdst ! RUN = 60465 ! NEVT = 1999
FILE = /castor/cern.ch/delphi/MCprod/lyon/wphact22/v98e/188.6/wphact22_cc_188.6_80.4_60466.xsdst ! RUN = 60466 ! NEVT = 2000
FILE = /castor/cern.ch/delphi/MCprod/lyon/wphact22/v98e/188.6/wphact22_cc_188.6_80.4_60467.xsdst ! RUN = 60467 ! NEVT = 1998
FILE = /castor/cern.ch/delphi/MCprod/lyon/wphact22/v98e/188.6/wphact22_cc_188.6_80.4_60468.xsdst ! RUN = 60468 ! NEVT = 1998
FILE = /castor/cern.ch/delphi/MCprod/lyon/wphact22/v98e/188.6/wphact22_cc_188.6_80.4_60469.xsdst ! RUN = 60469 ! NEVT = 1999
FILE = /castor/cern.ch/delphi/MCprod/lyon/wphact22/v98e/188.6/wphact22_cc_188.6_80.4_60470.xsdst ! RUN = 60470 ! NEVT = 2000
FILE = /castor/cern.ch/delphi/MCprod/lyon/wphact22/v98e/188.6/wphact22_cc_188.6_80.4_60471.xsdst ! RUN = 60471 ! NEVT = 2000
FILE = /castor/cern.ch/delphi/MCprod/lyon/wphact22/v98e/188.6/wphact22_cc_188.6_80.4_60472.xsdst ! RUN = 60472 ! NEVT = 1999
FILE = /castor/cern.ch/delphi/MCprod/lyon/wphact22/v98e/188.6/wphact22_cc_188.6_80.4_60473.xsdst ! RUN = 60473 ! NEVT = 284
FILE = /castor/cern.ch/delphi/MCprod/lyon/wphact22/v98e/188.6/wphact22_cc_188.6_80.4_60474.xsdst ! RUN = 60474 ! NEVT = 1999
FILE = /castor/cern.ch/delphi/MCprod/lyon/wphact22/v98e/188.6/wphact22_cc_188.6_80.4_60475.xsdst ! RUN = 60475 ! NEVT = 2000
FILE = /castor/cern.ch/delphi/MCprod/lyon/wphact22/v98e/188.6/wphact22_cc_188.6_80.4_60476.xsdst ! RUN = 60476 ! NEVT = 2000
FILE = /castor/cern.ch/delphi/MCprod/lyon/wphact22/v98e/188.6/wphact22_cc_188.6_80.4_60477.xsdst ! RUN = 60477 ! NEVT = 2000
FILE = /castor/cern.ch/delphi/MCprod/lyon/wphact22/v98e/188.6/wphact22_cc_188.6_80.4_60478.xsdst ! RUN = 60478 ! NEVT = 2000
FILE = /castor/cern.ch/delphi/MCprod/lyon/wphact22/v98e/188.6/wphact22_cc_188.6_80.4_60479.xsdst ! RUN = 60479 ! NEVT = 2000
FILE = /castor/cern.ch/delphi/MCprod/lyon/wphact22/v98e/188.6/wphact22_cc_188.6_80.4_60480.xsdst ! RUN = 60480 ! NEVT = 2000
FILE = /castor/cern.ch/delphi/MCprod/lyon/wphact22/v98e/188.6/wphact22_cc_188.6_80.4_60481.xsdst ! RUN = 60481 ! NEVT = 1999
FILE = /castor/cern.ch/delphi/MCprod/lyon/wphact22/v98e/188.6/wphact22_cc_188.6_80.4_60482.xsdst ! RUN = 60482 ! NEVT = 2000
FILE = /castor/cern.ch/delphi/MCprod/lyon/wphact22/v98e/188.6/wphact22_cc_188.6_80.4_60483.xsdst ! RUN = 60483 ! NEVT = 2000
FILE = /castor/cern.ch/delphi/MCprod/lyon/wphact22/v98e/188.6/wphact22_cc_188.6_80.4_60484.xsdst ! RUN = 60484 ! NEVT = 2000
FILE = /castor/cern.ch/delphi/MCprod/lyon/wphact22/v98e/188.6/wphact22_cc_188.6_80.4_60485.xsdst ! RUN = 60485 ! NEVT = 2000
FILE = /castor/cern.ch/delphi/MCprod/lyon/wphact22/v98e/188.6/wphact22_cc_188.6_80.4_60486.xsdst ! RUN = 60486 ! NEVT = 1997
FILE = /castor/cern.ch/delphi/MCprod/lyon/wphact22/v98e/188.6/wphact22_cc_188.6_80.4_60487.xsdst ! RUN = 60487 ! NEVT = 1999
FILE = /castor/cern.ch/delphi/MCprod/lyon/wphact22/v98e/188.6/wphact22_cc_188.6_80.4_60488.xsdst ! RUN = 60488 ! NEVT = 2000
FILE = /castor/cern.ch/delphi/MCprod/lyon/wphact22/v98e/188.6/wphact22_cc_188.6_80.4_60489.xsdst ! RUN = 60489 ! NEVT = 2000
FILE = /castor/cern.ch/delphi/MCprod/lyon/wphact22/v98e/188.6/wphact22_cc_188.6_80.4_60490.xsdst ! RUN = 60490 ! NEVT = 2000
FILE = /castor/cern.ch/delphi/MCprod/lyon/wphact22/v98e/188.6/wphact22_cc_188.6_80.4_60491.xsdst ! RUN = 60491 ! NEVT = 1999
FILE = /castor/cern.ch/delphi/MCprod/lyon/wphact22/v98e/188.6/wphact22_cc_188.6_80.4_60492.xsdst ! RUN = 60492 ! NEVT = 1999
FILE = /castor/cern.ch/delphi/MCprod/lyon/wphact22/v98e/188.6/wphact22_cc_188.6_80.4_60493.xsdst ! RUN = 60493 ! NEVT = 2000
FILE = /castor/cern.ch/delphi/MCprod/lyon/wphact22/v98e/188.6/wphact22_cc_188.6_80.4_60494.xsdst ! RUN = 60494 ! NEVT = 1998
FILE = /castor/cern.ch/delphi/MCprod/lyon/wphact22/v98e/188.6/wphact22_cc_188.6_80.4_60495.xsdst ! RUN = 60495 ! NEVT = 1997
FILE = /castor/cern.ch/delphi/MCprod/lyon/wphact22/v98e/188.6/wphact22_cc_188.6_80.4_60496.xsdst ! RUN = 60496 ! NEVT = 1999
FILE = /castor/cern.ch/delphi/MCprod/lyon/wphact22/v98e/188.6/wphact22_cc_188.6_80.4_60497.xsdst ! RUN = 60497 ! NEVT = 1997
FILE = /castor/cern.ch/delphi/MCprod/lyon/wphact22/v98e/188.6/wphact22_cc_188.6_80.4_60498.xsdst ! RUN = 60498 ! NEVT = 2000
FILE = /castor/cern.ch/delphi/MCprod/lyon/wphact22/v98e/188.6/wphact22_cc_188.6_80.4_60499.xsdst ! RUN = 60499 ! NEVT = 1998
FILE = /castor/cern.ch/delphi/MCprod/lyon/wphact22/v98e/188.6/wphact22_cc_188.6_80.4_60500.xsdst ! RUN = 60500 ! NEVT = 1998
