*
*   Nickname     : xs_wphact21nc4f_e188.6_m80.4_c98_1l_e1
*   Generic Name : //CERN/DELPHI/P02_SIMD/XSDST/WPHACT21NC4F/E188.6/CERN/SUMT/C001-474
*   Description  :  Extended Short DST simulation 98_e1 done at ecms=188.6 , CERN
*---
*   Comments     : in total 473422 events in 474 files time stamp: Wed Nov 14 20:10:20 2001
*---
*
*
*
*
*
FILE = /castor/cern.ch/delphi/MCprod/cern/wphact21/v98e/188.6/wphact21_nc4f_188.6_80.4_21001.xsdst ! RUN = 21001 ! NEVT = 999
FILE = /castor/cern.ch/delphi/MCprod/cern/wphact21/v98e/188.6/wphact21_nc4f_188.6_80.4_21002.xsdst ! RUN = 21002 ! NEVT = 1000
FILE = /castor/cern.ch/delphi/MCprod/cern/wphact21/v98e/188.6/wphact21_nc4f_188.6_80.4_21003.xsdst ! RUN = 21003 ! NEVT = 998
FILE = /castor/cern.ch/delphi/MCprod/cern/wphact21/v98e/188.6/wphact21_nc4f_188.6_80.4_21004.xsdst ! RUN = 21004 ! NEVT = 1000
FILE = /castor/cern.ch/delphi/MCprod/cern/wphact21/v98e/188.6/wphact21_nc4f_188.6_80.4_21005.xsdst ! RUN = 21005 ! NEVT = 1000
FILE = /castor/cern.ch/delphi/MCprod/cern/wphact21/v98e/188.6/wphact21_nc4f_188.6_80.4_21006.xsdst ! RUN = 21006 ! NEVT = 1000
FILE = /castor/cern.ch/delphi/MCprod/cern/wphact21/v98e/188.6/wphact21_nc4f_188.6_80.4_21007.xsdst ! RUN = 21007 ! NEVT = 1000
FILE = /castor/cern.ch/delphi/MCprod/cern/wphact21/v98e/188.6/wphact21_nc4f_188.6_80.4_21008.xsdst ! RUN = 21008 ! NEVT = 1000
FILE = /castor/cern.ch/delphi/MCprod/cern/wphact21/v98e/188.6/wphact21_nc4f_188.6_80.4_21009.xsdst ! RUN = 21009 ! NEVT = 999
FILE = /castor/cern.ch/delphi/MCprod/cern/wphact21/v98e/188.6/wphact21_nc4f_188.6_80.4_21010.xsdst ! RUN = 21010 ! NEVT = 1000
FILE = /castor/cern.ch/delphi/MCprod/cern/wphact21/v98e/188.6/wphact21_nc4f_188.6_80.4_21011.xsdst ! RUN = 21011 ! NEVT = 1000
FILE = /castor/cern.ch/delphi/MCprod/cern/wphact21/v98e/188.6/wphact21_nc4f_188.6_80.4_21012.xsdst ! RUN = 21012 ! NEVT = 1000
FILE = /castor/cern.ch/delphi/MCprod/cern/wphact21/v98e/188.6/wphact21_nc4f_188.6_80.4_21013.xsdst ! RUN = 21013 ! NEVT = 1000
FILE = /castor/cern.ch/delphi/MCprod/cern/wphact21/v98e/188.6/wphact21_nc4f_188.6_80.4_21014.xsdst ! RUN = 21014 ! NEVT = 1000
FILE = /castor/cern.ch/delphi/MCprod/cern/wphact21/v98e/188.6/wphact21_nc4f_188.6_80.4_21015.xsdst ! RUN = 21015 ! NEVT = 1000
FILE = /castor/cern.ch/delphi/MCprod/cern/wphact21/v98e/188.6/wphact21_nc4f_188.6_80.4_21016.xsdst ! RUN = 21016 ! NEVT = 999
FILE = /castor/cern.ch/delphi/MCprod/cern/wphact21/v98e/188.6/wphact21_nc4f_188.6_80.4_21017.xsdst ! RUN = 21017 ! NEVT = 1000
FILE = /castor/cern.ch/delphi/MCprod/cern/wphact21/v98e/188.6/wphact21_nc4f_188.6_80.4_21018.xsdst ! RUN = 21018 ! NEVT = 1000
FILE = /castor/cern.ch/delphi/MCprod/cern/wphact21/v98e/188.6/wphact21_nc4f_188.6_80.4_21019.xsdst ! RUN = 21019 ! NEVT = 999
FILE = /castor/cern.ch/delphi/MCprod/cern/wphact21/v98e/188.6/wphact21_nc4f_188.6_80.4_21020.xsdst ! RUN = 21020 ! NEVT = 1000
FILE = /castor/cern.ch/delphi/MCprod/cern/wphact21/v98e/188.6/wphact21_nc4f_188.6_80.4_21021.xsdst ! RUN = 21021 ! NEVT = 1000
FILE = /castor/cern.ch/delphi/MCprod/cern/wphact21/v98e/188.6/wphact21_nc4f_188.6_80.4_21022.xsdst ! RUN = 21022 ! NEVT = 1000
FILE = /castor/cern.ch/delphi/MCprod/cern/wphact21/v98e/188.6/wphact21_nc4f_188.6_80.4_21023.xsdst ! RUN = 21023 ! NEVT = 1000
FILE = /castor/cern.ch/delphi/MCprod/cern/wphact21/v98e/188.6/wphact21_nc4f_188.6_80.4_21024.xsdst ! RUN = 21024 ! NEVT = 1000
FILE = /castor/cern.ch/delphi/MCprod/cern/wphact21/v98e/188.6/wphact21_nc4f_188.6_80.4_21025.xsdst ! RUN = 21025 ! NEVT = 1000
FILE = /castor/cern.ch/delphi/MCprod/cern/wphact21/v98e/188.6/wphact21_nc4f_188.6_80.4_21026.xsdst ! RUN = 21026 ! NEVT = 1000
FILE = /castor/cern.ch/delphi/MCprod/cern/wphact21/v98e/188.6/wphact21_nc4f_188.6_80.4_21027.xsdst ! RUN = 21027 ! NEVT = 999
FILE = /castor/cern.ch/delphi/MCprod/cern/wphact21/v98e/188.6/wphact21_nc4f_188.6_80.4_21028.xsdst ! RUN = 21028 ! NEVT = 1000
FILE = /castor/cern.ch/delphi/MCprod/cern/wphact21/v98e/188.6/wphact21_nc4f_188.6_80.4_21029.xsdst ! RUN = 21029 ! NEVT = 1000
FILE = /castor/cern.ch/delphi/MCprod/cern/wphact21/v98e/188.6/wphact21_nc4f_188.6_80.4_21030.xsdst ! RUN = 21030 ! NEVT = 1000
FILE = /castor/cern.ch/delphi/MCprod/cern/wphact21/v98e/188.6/wphact21_nc4f_188.6_80.4_21031.xsdst ! RUN = 21031 ! NEVT = 1000
FILE = /castor/cern.ch/delphi/MCprod/cern/wphact21/v98e/188.6/wphact21_nc4f_188.6_80.4_21032.xsdst ! RUN = 21032 ! NEVT = 1000
FILE = /castor/cern.ch/delphi/MCprod/cern/wphact21/v98e/188.6/wphact21_nc4f_188.6_80.4_21033.xsdst ! RUN = 21033 ! NEVT = 999
FILE = /castor/cern.ch/delphi/MCprod/cern/wphact21/v98e/188.6/wphact21_nc4f_188.6_80.4_21034.xsdst ! RUN = 21034 ! NEVT = 1000
FILE = /castor/cern.ch/delphi/MCprod/cern/wphact21/v98e/188.6/wphact21_nc4f_188.6_80.4_21035.xsdst ! RUN = 21035 ! NEVT = 1000
FILE = /castor/cern.ch/delphi/MCprod/cern/wphact21/v98e/188.6/wphact21_nc4f_188.6_80.4_21036.xsdst ! RUN = 21036 ! NEVT = 1000
FILE = /castor/cern.ch/delphi/MCprod/cern/wphact21/v98e/188.6/wphact21_nc4f_188.6_80.4_21037.xsdst ! RUN = 21037 ! NEVT = 1000
FILE = /castor/cern.ch/delphi/MCprod/cern/wphact21/v98e/188.6/wphact21_nc4f_188.6_80.4_21038.xsdst ! RUN = 21038 ! NEVT = 1000
FILE = /castor/cern.ch/delphi/MCprod/cern/wphact21/v98e/188.6/wphact21_nc4f_188.6_80.4_21039.xsdst ! RUN = 21039 ! NEVT = 1000
FILE = /castor/cern.ch/delphi/MCprod/cern/wphact21/v98e/188.6/wphact21_nc4f_188.6_80.4_21040.xsdst ! RUN = 21040 ! NEVT = 1000
FILE = /castor/cern.ch/delphi/MCprod/cern/wphact21/v98e/188.6/wphact21_nc4f_188.6_80.4_21041.xsdst ! RUN = 21041 ! NEVT = 1000
FILE = /castor/cern.ch/delphi/MCprod/cern/wphact21/v98e/188.6/wphact21_nc4f_188.6_80.4_21042.xsdst ! RUN = 21042 ! NEVT = 1000
FILE = /castor/cern.ch/delphi/MCprod/cern/wphact21/v98e/188.6/wphact21_nc4f_188.6_80.4_21043.xsdst ! RUN = 21043 ! NEVT = 1000
FILE = /castor/cern.ch/delphi/MCprod/cern/wphact21/v98e/188.6/wphact21_nc4f_188.6_80.4_21044.xsdst ! RUN = 21044 ! NEVT = 1000
FILE = /castor/cern.ch/delphi/MCprod/cern/wphact21/v98e/188.6/wphact21_nc4f_188.6_80.4_21045.xsdst ! RUN = 21045 ! NEVT = 1000
FILE = /castor/cern.ch/delphi/MCprod/cern/wphact21/v98e/188.6/wphact21_nc4f_188.6_80.4_21046.xsdst ! RUN = 21046 ! NEVT = 1000
FILE = /castor/cern.ch/delphi/MCprod/cern/wphact21/v98e/188.6/wphact21_nc4f_188.6_80.4_21047.xsdst ! RUN = 21047 ! NEVT = 1000
FILE = /castor/cern.ch/delphi/MCprod/cern/wphact21/v98e/188.6/wphact21_nc4f_188.6_80.4_21048.xsdst ! RUN = 21048 ! NEVT = 1000
FILE = /castor/cern.ch/delphi/MCprod/cern/wphact21/v98e/188.6/wphact21_nc4f_188.6_80.4_21049.xsdst ! RUN = 21049 ! NEVT = 1000
FILE = /castor/cern.ch/delphi/MCprod/cern/wphact21/v98e/188.6/wphact21_nc4f_188.6_80.4_21050.xsdst ! RUN = 21050 ! NEVT = 1000
FILE = /castor/cern.ch/delphi/MCprod/cern/wphact21/v98e/188.6/wphact21_nc4f_188.6_80.4_21051.xsdst ! RUN = 21051 ! NEVT = 1000
FILE = /castor/cern.ch/delphi/MCprod/cern/wphact21/v98e/188.6/wphact21_nc4f_188.6_80.4_21052.xsdst ! RUN = 21052 ! NEVT = 999
FILE = /castor/cern.ch/delphi/MCprod/cern/wphact21/v98e/188.6/wphact21_nc4f_188.6_80.4_21053.xsdst ! RUN = 21053 ! NEVT = 1000
FILE = /castor/cern.ch/delphi/MCprod/cern/wphact21/v98e/188.6/wphact21_nc4f_188.6_80.4_21054.xsdst ! RUN = 21054 ! NEVT = 1000
FILE = /castor/cern.ch/delphi/MCprod/cern/wphact21/v98e/188.6/wphact21_nc4f_188.6_80.4_21055.xsdst ! RUN = 21055 ! NEVT = 1000
FILE = /castor/cern.ch/delphi/MCprod/cern/wphact21/v98e/188.6/wphact21_nc4f_188.6_80.4_21056.xsdst ! RUN = 21056 ! NEVT = 1000
FILE = /castor/cern.ch/delphi/MCprod/cern/wphact21/v98e/188.6/wphact21_nc4f_188.6_80.4_21057.xsdst ! RUN = 21057 ! NEVT = 1000
FILE = /castor/cern.ch/delphi/MCprod/cern/wphact21/v98e/188.6/wphact21_nc4f_188.6_80.4_21058.xsdst ! RUN = 21058 ! NEVT = 1000
FILE = /castor/cern.ch/delphi/MCprod/cern/wphact21/v98e/188.6/wphact21_nc4f_188.6_80.4_21059.xsdst ! RUN = 21059 ! NEVT = 1000
FILE = /castor/cern.ch/delphi/MCprod/cern/wphact21/v98e/188.6/wphact21_nc4f_188.6_80.4_21060.xsdst ! RUN = 21060 ! NEVT = 1000
FILE = /castor/cern.ch/delphi/MCprod/cern/wphact21/v98e/188.6/wphact21_nc4f_188.6_80.4_21061.xsdst ! RUN = 21061 ! NEVT = 998
FILE = /castor/cern.ch/delphi/MCprod/cern/wphact21/v98e/188.6/wphact21_nc4f_188.6_80.4_21062.xsdst ! RUN = 21062 ! NEVT = 1000
FILE = /castor/cern.ch/delphi/MCprod/cern/wphact21/v98e/188.6/wphact21_nc4f_188.6_80.4_21063.xsdst ! RUN = 21063 ! NEVT = 1000
FILE = /castor/cern.ch/delphi/MCprod/cern/wphact21/v98e/188.6/wphact21_nc4f_188.6_80.4_21065.xsdst ! RUN = 21065 ! NEVT = 1000
FILE = /castor/cern.ch/delphi/MCprod/cern/wphact21/v98e/188.6/wphact21_nc4f_188.6_80.4_21066.xsdst ! RUN = 21066 ! NEVT = 999
FILE = /castor/cern.ch/delphi/MCprod/cern/wphact21/v98e/188.6/wphact21_nc4f_188.6_80.4_21067.xsdst ! RUN = 21067 ! NEVT = 998
FILE = /castor/cern.ch/delphi/MCprod/cern/wphact21/v98e/188.6/wphact21_nc4f_188.6_80.4_21068.xsdst ! RUN = 21068 ! NEVT = 1000
FILE = /castor/cern.ch/delphi/MCprod/cern/wphact21/v98e/188.6/wphact21_nc4f_188.6_80.4_21069.xsdst ! RUN = 21069 ! NEVT = 1000
FILE = /castor/cern.ch/delphi/MCprod/cern/wphact21/v98e/188.6/wphact21_nc4f_188.6_80.4_21070.xsdst ! RUN = 21070 ! NEVT = 1000
FILE = /castor/cern.ch/delphi/MCprod/cern/wphact21/v98e/188.6/wphact21_nc4f_188.6_80.4_21071.xsdst ! RUN = 21071 ! NEVT = 1000
FILE = /castor/cern.ch/delphi/MCprod/cern/wphact21/v98e/188.6/wphact21_nc4f_188.6_80.4_21072.xsdst ! RUN = 21072 ! NEVT = 1000
FILE = /castor/cern.ch/delphi/MCprod/cern/wphact21/v98e/188.6/wphact21_nc4f_188.6_80.4_21073.xsdst ! RUN = 21073 ! NEVT = 999
FILE = /castor/cern.ch/delphi/MCprod/cern/wphact21/v98e/188.6/wphact21_nc4f_188.6_80.4_21074.xsdst ! RUN = 21074 ! NEVT = 999
FILE = /castor/cern.ch/delphi/MCprod/cern/wphact21/v98e/188.6/wphact21_nc4f_188.6_80.4_21075.xsdst ! RUN = 21075 ! NEVT = 1000
FILE = /castor/cern.ch/delphi/MCprod/cern/wphact21/v98e/188.6/wphact21_nc4f_188.6_80.4_21076.xsdst ! RUN = 21076 ! NEVT = 1000
FILE = /castor/cern.ch/delphi/MCprod/cern/wphact21/v98e/188.6/wphact21_nc4f_188.6_80.4_21077.xsdst ! RUN = 21077 ! NEVT = 1000
FILE = /castor/cern.ch/delphi/MCprod/cern/wphact21/v98e/188.6/wphact21_nc4f_188.6_80.4_21078.xsdst ! RUN = 21078 ! NEVT = 999
FILE = /castor/cern.ch/delphi/MCprod/cern/wphact21/v98e/188.6/wphact21_nc4f_188.6_80.4_21079.xsdst ! RUN = 21079 ! NEVT = 999
FILE = /castor/cern.ch/delphi/MCprod/cern/wphact21/v98e/188.6/wphact21_nc4f_188.6_80.4_21080.xsdst ! RUN = 21080 ! NEVT = 1000
FILE = /castor/cern.ch/delphi/MCprod/cern/wphact21/v98e/188.6/wphact21_nc4f_188.6_80.4_21081.xsdst ! RUN = 21081 ! NEVT = 999
FILE = /castor/cern.ch/delphi/MCprod/cern/wphact21/v98e/188.6/wphact21_nc4f_188.6_80.4_21082.xsdst ! RUN = 21082 ! NEVT = 1000
FILE = /castor/cern.ch/delphi/MCprod/cern/wphact21/v98e/188.6/wphact21_nc4f_188.6_80.4_21083.xsdst ! RUN = 21083 ! NEVT = 1000
FILE = /castor/cern.ch/delphi/MCprod/cern/wphact21/v98e/188.6/wphact21_nc4f_188.6_80.4_21084.xsdst ! RUN = 21084 ! NEVT = 1000
FILE = /castor/cern.ch/delphi/MCprod/cern/wphact21/v98e/188.6/wphact21_nc4f_188.6_80.4_21085.xsdst ! RUN = 21085 ! NEVT = 1000
FILE = /castor/cern.ch/delphi/MCprod/cern/wphact21/v98e/188.6/wphact21_nc4f_188.6_80.4_21086.xsdst ! RUN = 21086 ! NEVT = 1000
FILE = /castor/cern.ch/delphi/MCprod/cern/wphact21/v98e/188.6/wphact21_nc4f_188.6_80.4_21087.xsdst ! RUN = 21087 ! NEVT = 1000
FILE = /castor/cern.ch/delphi/MCprod/cern/wphact21/v98e/188.6/wphact21_nc4f_188.6_80.4_21088.xsdst ! RUN = 21088 ! NEVT = 999
FILE = /castor/cern.ch/delphi/MCprod/cern/wphact21/v98e/188.6/wphact21_nc4f_188.6_80.4_21089.xsdst ! RUN = 21089 ! NEVT = 1000
FILE = /castor/cern.ch/delphi/MCprod/cern/wphact21/v98e/188.6/wphact21_nc4f_188.6_80.4_21090.xsdst ! RUN = 21090 ! NEVT = 1000
FILE = /castor/cern.ch/delphi/MCprod/cern/wphact21/v98e/188.6/wphact21_nc4f_188.6_80.4_21091.xsdst ! RUN = 21091 ! NEVT = 1000
FILE = /castor/cern.ch/delphi/MCprod/cern/wphact21/v98e/188.6/wphact21_nc4f_188.6_80.4_21092.xsdst ! RUN = 21092 ! NEVT = 1000
FILE = /castor/cern.ch/delphi/MCprod/cern/wphact21/v98e/188.6/wphact21_nc4f_188.6_80.4_21093.xsdst ! RUN = 21093 ! NEVT = 1000
FILE = /castor/cern.ch/delphi/MCprod/cern/wphact21/v98e/188.6/wphact21_nc4f_188.6_80.4_21094.xsdst ! RUN = 21094 ! NEVT = 1000
FILE = /castor/cern.ch/delphi/MCprod/cern/wphact21/v98e/188.6/wphact21_nc4f_188.6_80.4_21095.xsdst ! RUN = 21095 ! NEVT = 1000
FILE = /castor/cern.ch/delphi/MCprod/cern/wphact21/v98e/188.6/wphact21_nc4f_188.6_80.4_21096.xsdst ! RUN = 21096 ! NEVT = 1000
FILE = /castor/cern.ch/delphi/MCprod/cern/wphact21/v98e/188.6/wphact21_nc4f_188.6_80.4_21099.xsdst ! RUN = 21099 ! NEVT = 999
FILE = /castor/cern.ch/delphi/MCprod/cern/wphact21/v98e/188.6/wphact21_nc4f_188.6_80.4_21100.xsdst ! RUN = 21100 ! NEVT = 999
FILE = /castor/cern.ch/delphi/MCprod/cern/wphact21/v98e/188.6/wphact21_nc4f_188.6_80.4_21102.xsdst ! RUN = 21102 ! NEVT = 999
FILE = /castor/cern.ch/delphi/MCprod/cern/wphact21/v98e/188.6/wphact21_nc4f_188.6_80.4_21103.xsdst ! RUN = 21103 ! NEVT = 1000
FILE = /castor/cern.ch/delphi/MCprod/cern/wphact21/v98e/188.6/wphact21_nc4f_188.6_80.4_21104.xsdst ! RUN = 21104 ! NEVT = 1000
FILE = /castor/cern.ch/delphi/MCprod/cern/wphact21/v98e/188.6/wphact21_nc4f_188.6_80.4_21106.xsdst ! RUN = 21106 ! NEVT = 1000
FILE = /castor/cern.ch/delphi/MCprod/cern/wphact21/v98e/188.6/wphact21_nc4f_188.6_80.4_21107.xsdst ! RUN = 21107 ! NEVT = 1000
FILE = /castor/cern.ch/delphi/MCprod/cern/wphact21/v98e/188.6/wphact21_nc4f_188.6_80.4_21108.xsdst ! RUN = 21108 ! NEVT = 999
FILE = /castor/cern.ch/delphi/MCprod/cern/wphact21/v98e/188.6/wphact21_nc4f_188.6_80.4_21109.xsdst ! RUN = 21109 ! NEVT = 1000
FILE = /castor/cern.ch/delphi/MCprod/cern/wphact21/v98e/188.6/wphact21_nc4f_188.6_80.4_21110.xsdst ! RUN = 21110 ! NEVT = 999
FILE = /castor/cern.ch/delphi/MCprod/cern/wphact21/v98e/188.6/wphact21_nc4f_188.6_80.4_21111.xsdst ! RUN = 21111 ! NEVT = 999
FILE = /castor/cern.ch/delphi/MCprod/cern/wphact21/v98e/188.6/wphact21_nc4f_188.6_80.4_21112.xsdst ! RUN = 21112 ! NEVT = 1000
FILE = /castor/cern.ch/delphi/MCprod/cern/wphact21/v98e/188.6/wphact21_nc4f_188.6_80.4_21113.xsdst ! RUN = 21113 ! NEVT = 1000
FILE = /castor/cern.ch/delphi/MCprod/cern/wphact21/v98e/188.6/wphact21_nc4f_188.6_80.4_21114.xsdst ! RUN = 21114 ! NEVT = 1000
FILE = /castor/cern.ch/delphi/MCprod/cern/wphact21/v98e/188.6/wphact21_nc4f_188.6_80.4_21115.xsdst ! RUN = 21115 ! NEVT = 999
FILE = /castor/cern.ch/delphi/MCprod/cern/wphact21/v98e/188.6/wphact21_nc4f_188.6_80.4_21116.xsdst ! RUN = 21116 ! NEVT = 1000
FILE = /castor/cern.ch/delphi/MCprod/cern/wphact21/v98e/188.6/wphact21_nc4f_188.6_80.4_21117.xsdst ! RUN = 21117 ! NEVT = 1000
FILE = /castor/cern.ch/delphi/MCprod/cern/wphact21/v98e/188.6/wphact21_nc4f_188.6_80.4_21118.xsdst ! RUN = 21118 ! NEVT = 1000
FILE = /castor/cern.ch/delphi/MCprod/cern/wphact21/v98e/188.6/wphact21_nc4f_188.6_80.4_21119.xsdst ! RUN = 21119 ! NEVT = 1000
FILE = /castor/cern.ch/delphi/MCprod/cern/wphact21/v98e/188.6/wphact21_nc4f_188.6_80.4_21120.xsdst ! RUN = 21120 ! NEVT = 1000
FILE = /castor/cern.ch/delphi/MCprod/cern/wphact21/v98e/188.6/wphact21_nc4f_188.6_80.4_21122.xsdst ! RUN = 21122 ! NEVT = 1000
FILE = /castor/cern.ch/delphi/MCprod/cern/wphact21/v98e/188.6/wphact21_nc4f_188.6_80.4_21123.xsdst ! RUN = 21123 ! NEVT = 1000
FILE = /castor/cern.ch/delphi/MCprod/cern/wphact21/v98e/188.6/wphact21_nc4f_188.6_80.4_21124.xsdst ! RUN = 21124 ! NEVT = 1000
FILE = /castor/cern.ch/delphi/MCprod/cern/wphact21/v98e/188.6/wphact21_nc4f_188.6_80.4_21125.xsdst ! RUN = 21125 ! NEVT = 1000
FILE = /castor/cern.ch/delphi/MCprod/cern/wphact21/v98e/188.6/wphact21_nc4f_188.6_80.4_21126.xsdst ! RUN = 21126 ! NEVT = 1000
FILE = /castor/cern.ch/delphi/MCprod/cern/wphact21/v98e/188.6/wphact21_nc4f_188.6_80.4_21127.xsdst ! RUN = 21127 ! NEVT = 1000
FILE = /castor/cern.ch/delphi/MCprod/cern/wphact21/v98e/188.6/wphact21_nc4f_188.6_80.4_21128.xsdst ! RUN = 21128 ! NEVT = 1000
FILE = /castor/cern.ch/delphi/MCprod/cern/wphact21/v98e/188.6/wphact21_nc4f_188.6_80.4_21129.xsdst ! RUN = 21129 ! NEVT = 1000
FILE = /castor/cern.ch/delphi/MCprod/cern/wphact21/v98e/188.6/wphact21_nc4f_188.6_80.4_21130.xsdst ! RUN = 21130 ! NEVT = 1000
FILE = /castor/cern.ch/delphi/MCprod/cern/wphact21/v98e/188.6/wphact21_nc4f_188.6_80.4_21131.xsdst ! RUN = 21131 ! NEVT = 999
FILE = /castor/cern.ch/delphi/MCprod/cern/wphact21/v98e/188.6/wphact21_nc4f_188.6_80.4_21132.xsdst ! RUN = 21132 ! NEVT = 1000
FILE = /castor/cern.ch/delphi/MCprod/cern/wphact21/v98e/188.6/wphact21_nc4f_188.6_80.4_21133.xsdst ! RUN = 21133 ! NEVT = 1000
FILE = /castor/cern.ch/delphi/MCprod/cern/wphact21/v98e/188.6/wphact21_nc4f_188.6_80.4_21134.xsdst ! RUN = 21134 ! NEVT = 1000
FILE = /castor/cern.ch/delphi/MCprod/cern/wphact21/v98e/188.6/wphact21_nc4f_188.6_80.4_21135.xsdst ! RUN = 21135 ! NEVT = 999
FILE = /castor/cern.ch/delphi/MCprod/cern/wphact21/v98e/188.6/wphact21_nc4f_188.6_80.4_21136.xsdst ! RUN = 21136 ! NEVT = 1000
FILE = /castor/cern.ch/delphi/MCprod/cern/wphact21/v98e/188.6/wphact21_nc4f_188.6_80.4_21137.xsdst ! RUN = 21137 ! NEVT = 1000
FILE = /castor/cern.ch/delphi/MCprod/cern/wphact21/v98e/188.6/wphact21_nc4f_188.6_80.4_21138.xsdst ! RUN = 21138 ! NEVT = 1000
FILE = /castor/cern.ch/delphi/MCprod/cern/wphact21/v98e/188.6/wphact21_nc4f_188.6_80.4_21139.xsdst ! RUN = 21139 ! NEVT = 1000
FILE = /castor/cern.ch/delphi/MCprod/cern/wphact21/v98e/188.6/wphact21_nc4f_188.6_80.4_21140.xsdst ! RUN = 21140 ! NEVT = 1000
FILE = /castor/cern.ch/delphi/MCprod/cern/wphact21/v98e/188.6/wphact21_nc4f_188.6_80.4_21141.xsdst ! RUN = 21141 ! NEVT = 999
FILE = /castor/cern.ch/delphi/MCprod/cern/wphact21/v98e/188.6/wphact21_nc4f_188.6_80.4_21142.xsdst ! RUN = 21142 ! NEVT = 999
FILE = /castor/cern.ch/delphi/MCprod/cern/wphact21/v98e/188.6/wphact21_nc4f_188.6_80.4_21143.xsdst ! RUN = 21143 ! NEVT = 1000
FILE = /castor/cern.ch/delphi/MCprod/cern/wphact21/v98e/188.6/wphact21_nc4f_188.6_80.4_21144.xsdst ! RUN = 21144 ! NEVT = 1000
FILE = /castor/cern.ch/delphi/MCprod/cern/wphact21/v98e/188.6/wphact21_nc4f_188.6_80.4_21145.xsdst ! RUN = 21145 ! NEVT = 1000
FILE = /castor/cern.ch/delphi/MCprod/cern/wphact21/v98e/188.6/wphact21_nc4f_188.6_80.4_21146.xsdst ! RUN = 21146 ! NEVT = 1000
FILE = /castor/cern.ch/delphi/MCprod/cern/wphact21/v98e/188.6/wphact21_nc4f_188.6_80.4_21147.xsdst ! RUN = 21147 ! NEVT = 1000
FILE = /castor/cern.ch/delphi/MCprod/cern/wphact21/v98e/188.6/wphact21_nc4f_188.6_80.4_21148.xsdst ! RUN = 21148 ! NEVT = 999
FILE = /castor/cern.ch/delphi/MCprod/cern/wphact21/v98e/188.6/wphact21_nc4f_188.6_80.4_21149.xsdst ! RUN = 21149 ! NEVT = 1000
FILE = /castor/cern.ch/delphi/MCprod/cern/wphact21/v98e/188.6/wphact21_nc4f_188.6_80.4_21150.xsdst ! RUN = 21150 ! NEVT = 1000
FILE = /castor/cern.ch/delphi/MCprod/cern/wphact21/v98e/188.6/wphact21_nc4f_188.6_80.4_21151.xsdst ! RUN = 21151 ! NEVT = 1000
FILE = /castor/cern.ch/delphi/MCprod/cern/wphact21/v98e/188.6/wphact21_nc4f_188.6_80.4_21152.xsdst ! RUN = 21152 ! NEVT = 1000
FILE = /castor/cern.ch/delphi/MCprod/cern/wphact21/v98e/188.6/wphact21_nc4f_188.6_80.4_21153.xsdst ! RUN = 21153 ! NEVT = 999
FILE = /castor/cern.ch/delphi/MCprod/cern/wphact21/v98e/188.6/wphact21_nc4f_188.6_80.4_21154.xsdst ! RUN = 21154 ! NEVT = 1000
FILE = /castor/cern.ch/delphi/MCprod/cern/wphact21/v98e/188.6/wphact21_nc4f_188.6_80.4_21155.xsdst ! RUN = 21155 ! NEVT = 1000
FILE = /castor/cern.ch/delphi/MCprod/cern/wphact21/v98e/188.6/wphact21_nc4f_188.6_80.4_21156.xsdst ! RUN = 21156 ! NEVT = 1000
FILE = /castor/cern.ch/delphi/MCprod/cern/wphact21/v98e/188.6/wphact21_nc4f_188.6_80.4_21157.xsdst ! RUN = 21157 ! NEVT = 1000
FILE = /castor/cern.ch/delphi/MCprod/cern/wphact21/v98e/188.6/wphact21_nc4f_188.6_80.4_21158.xsdst ! RUN = 21158 ! NEVT = 1000
FILE = /castor/cern.ch/delphi/MCprod/cern/wphact21/v98e/188.6/wphact21_nc4f_188.6_80.4_21159.xsdst ! RUN = 21159 ! NEVT = 999
FILE = /castor/cern.ch/delphi/MCprod/cern/wphact21/v98e/188.6/wphact21_nc4f_188.6_80.4_21160.xsdst ! RUN = 21160 ! NEVT = 999
FILE = /castor/cern.ch/delphi/MCprod/cern/wphact21/v98e/188.6/wphact21_nc4f_188.6_80.4_21161.xsdst ! RUN = 21161 ! NEVT = 999
FILE = /castor/cern.ch/delphi/MCprod/cern/wphact21/v98e/188.6/wphact21_nc4f_188.6_80.4_21162.xsdst ! RUN = 21162 ! NEVT = 1000
FILE = /castor/cern.ch/delphi/MCprod/cern/wphact21/v98e/188.6/wphact21_nc4f_188.6_80.4_21163.xsdst ! RUN = 21163 ! NEVT = 1000
FILE = /castor/cern.ch/delphi/MCprod/cern/wphact21/v98e/188.6/wphact21_nc4f_188.6_80.4_21164.xsdst ! RUN = 21164 ! NEVT = 1000
FILE = /castor/cern.ch/delphi/MCprod/cern/wphact21/v98e/188.6/wphact21_nc4f_188.6_80.4_21165.xsdst ! RUN = 21165 ! NEVT = 1000
FILE = /castor/cern.ch/delphi/MCprod/cern/wphact21/v98e/188.6/wphact21_nc4f_188.6_80.4_21166.xsdst ! RUN = 21166 ! NEVT = 1000
FILE = /castor/cern.ch/delphi/MCprod/cern/wphact21/v98e/188.6/wphact21_nc4f_188.6_80.4_21167.xsdst ! RUN = 21167 ! NEVT = 1000
FILE = /castor/cern.ch/delphi/MCprod/cern/wphact21/v98e/188.6/wphact21_nc4f_188.6_80.4_21168.xsdst ! RUN = 21168 ! NEVT = 1000
FILE = /castor/cern.ch/delphi/MCprod/cern/wphact21/v98e/188.6/wphact21_nc4f_188.6_80.4_21169.xsdst ! RUN = 21169 ! NEVT = 1000
FILE = /castor/cern.ch/delphi/MCprod/cern/wphact21/v98e/188.6/wphact21_nc4f_188.6_80.4_21170.xsdst ! RUN = 21170 ! NEVT = 1000
FILE = /castor/cern.ch/delphi/MCprod/cern/wphact21/v98e/188.6/wphact21_nc4f_188.6_80.4_21171.xsdst ! RUN = 21171 ! NEVT = 1000
FILE = /castor/cern.ch/delphi/MCprod/cern/wphact21/v98e/188.6/wphact21_nc4f_188.6_80.4_21172.xsdst ! RUN = 21172 ! NEVT = 999
FILE = /castor/cern.ch/delphi/MCprod/cern/wphact21/v98e/188.6/wphact21_nc4f_188.6_80.4_21173.xsdst ! RUN = 21173 ! NEVT = 1000
FILE = /castor/cern.ch/delphi/MCprod/cern/wphact21/v98e/188.6/wphact21_nc4f_188.6_80.4_21174.xsdst ! RUN = 21174 ! NEVT = 999
FILE = /castor/cern.ch/delphi/MCprod/cern/wphact21/v98e/188.6/wphact21_nc4f_188.6_80.4_21175.xsdst ! RUN = 21175 ! NEVT = 1000
FILE = /castor/cern.ch/delphi/MCprod/cern/wphact21/v98e/188.6/wphact21_nc4f_188.6_80.4_21176.xsdst ! RUN = 21176 ! NEVT = 1000
FILE = /castor/cern.ch/delphi/MCprod/cern/wphact21/v98e/188.6/wphact21_nc4f_188.6_80.4_21177.xsdst ! RUN = 21177 ! NEVT = 1000
FILE = /castor/cern.ch/delphi/MCprod/cern/wphact21/v98e/188.6/wphact21_nc4f_188.6_80.4_21178.xsdst ! RUN = 21178 ! NEVT = 1000
FILE = /castor/cern.ch/delphi/MCprod/cern/wphact21/v98e/188.6/wphact21_nc4f_188.6_80.4_21179.xsdst ! RUN = 21179 ! NEVT = 1000
FILE = /castor/cern.ch/delphi/MCprod/cern/wphact21/v98e/188.6/wphact21_nc4f_188.6_80.4_21180.xsdst ! RUN = 21180 ! NEVT = 1000
FILE = /castor/cern.ch/delphi/MCprod/cern/wphact21/v98e/188.6/wphact21_nc4f_188.6_80.4_21181.xsdst ! RUN = 21181 ! NEVT = 1000
FILE = /castor/cern.ch/delphi/MCprod/cern/wphact21/v98e/188.6/wphact21_nc4f_188.6_80.4_21182.xsdst ! RUN = 21182 ! NEVT = 1000
FILE = /castor/cern.ch/delphi/MCprod/cern/wphact21/v98e/188.6/wphact21_nc4f_188.6_80.4_21183.xsdst ! RUN = 21183 ! NEVT = 1000
FILE = /castor/cern.ch/delphi/MCprod/cern/wphact21/v98e/188.6/wphact21_nc4f_188.6_80.4_21184.xsdst ! RUN = 21184 ! NEVT = 999
FILE = /castor/cern.ch/delphi/MCprod/cern/wphact21/v98e/188.6/wphact21_nc4f_188.6_80.4_21185.xsdst ! RUN = 21185 ! NEVT = 1000
FILE = /castor/cern.ch/delphi/MCprod/cern/wphact21/v98e/188.6/wphact21_nc4f_188.6_80.4_21186.xsdst ! RUN = 21186 ! NEVT = 1000
FILE = /castor/cern.ch/delphi/MCprod/cern/wphact21/v98e/188.6/wphact21_nc4f_188.6_80.4_21187.xsdst ! RUN = 21187 ! NEVT = 1000
FILE = /castor/cern.ch/delphi/MCprod/cern/wphact21/v98e/188.6/wphact21_nc4f_188.6_80.4_21188.xsdst ! RUN = 21188 ! NEVT = 1000
FILE = /castor/cern.ch/delphi/MCprod/cern/wphact21/v98e/188.6/wphact21_nc4f_188.6_80.4_21189.xsdst ! RUN = 21189 ! NEVT = 1000
FILE = /castor/cern.ch/delphi/MCprod/cern/wphact21/v98e/188.6/wphact21_nc4f_188.6_80.4_21190.xsdst ! RUN = 21190 ! NEVT = 1000
FILE = /castor/cern.ch/delphi/MCprod/cern/wphact21/v98e/188.6/wphact21_nc4f_188.6_80.4_21191.xsdst ! RUN = 21191 ! NEVT = 1000
FILE = /castor/cern.ch/delphi/MCprod/cern/wphact21/v98e/188.6/wphact21_nc4f_188.6_80.4_21192.xsdst ! RUN = 21192 ! NEVT = 1000
FILE = /castor/cern.ch/delphi/MCprod/cern/wphact21/v98e/188.6/wphact21_nc4f_188.6_80.4_21193.xsdst ! RUN = 21193 ! NEVT = 999
FILE = /castor/cern.ch/delphi/MCprod/cern/wphact21/v98e/188.6/wphact21_nc4f_188.6_80.4_21194.xsdst ! RUN = 21194 ! NEVT = 1000
FILE = /castor/cern.ch/delphi/MCprod/cern/wphact21/v98e/188.6/wphact21_nc4f_188.6_80.4_21195.xsdst ! RUN = 21195 ! NEVT = 999
FILE = /castor/cern.ch/delphi/MCprod/cern/wphact21/v98e/188.6/wphact21_nc4f_188.6_80.4_21196.xsdst ! RUN = 21196 ! NEVT = 1000
FILE = /castor/cern.ch/delphi/MCprod/cern/wphact21/v98e/188.6/wphact21_nc4f_188.6_80.4_21197.xsdst ! RUN = 21197 ! NEVT = 1000
FILE = /castor/cern.ch/delphi/MCprod/cern/wphact21/v98e/188.6/wphact21_nc4f_188.6_80.4_21198.xsdst ! RUN = 21198 ! NEVT = 1000
FILE = /castor/cern.ch/delphi/MCprod/cern/wphact21/v98e/188.6/wphact21_nc4f_188.6_80.4_21199.xsdst ! RUN = 21199 ! NEVT = 999
FILE = /castor/cern.ch/delphi/MCprod/cern/wphact21/v98e/188.6/wphact21_nc4f_188.6_80.4_21200.xsdst ! RUN = 21200 ! NEVT = 1000
FILE = /castor/cern.ch/delphi/MCprod/cern/wphact21/v98e/188.6/wphact21_nc4f_188.6_80.4_21201.xsdst ! RUN = 21201 ! NEVT = 1000
FILE = /castor/cern.ch/delphi/MCprod/cern/wphact21/v98e/188.6/wphact21_nc4f_188.6_80.4_21202.xsdst ! RUN = 21202 ! NEVT = 1000
FILE = /castor/cern.ch/delphi/MCprod/cern/wphact21/v98e/188.6/wphact21_nc4f_188.6_80.4_21203.xsdst ! RUN = 21203 ! NEVT = 1000
FILE = /castor/cern.ch/delphi/MCprod/cern/wphact21/v98e/188.6/wphact21_nc4f_188.6_80.4_21204.xsdst ! RUN = 21204 ! NEVT = 999
FILE = /castor/cern.ch/delphi/MCprod/cern/wphact21/v98e/188.6/wphact21_nc4f_188.6_80.4_21205.xsdst ! RUN = 21205 ! NEVT = 999
FILE = /castor/cern.ch/delphi/MCprod/cern/wphact21/v98e/188.6/wphact21_nc4f_188.6_80.4_21206.xsdst ! RUN = 21206 ! NEVT = 1000
FILE = /castor/cern.ch/delphi/MCprod/cern/wphact21/v98e/188.6/wphact21_nc4f_188.6_80.4_21207.xsdst ! RUN = 21207 ! NEVT = 1000
FILE = /castor/cern.ch/delphi/MCprod/cern/wphact21/v98e/188.6/wphact21_nc4f_188.6_80.4_21208.xsdst ! RUN = 21208 ! NEVT = 1000
FILE = /castor/cern.ch/delphi/MCprod/cern/wphact21/v98e/188.6/wphact21_nc4f_188.6_80.4_21209.xsdst ! RUN = 21209 ! NEVT = 1000
FILE = /castor/cern.ch/delphi/MCprod/cern/wphact21/v98e/188.6/wphact21_nc4f_188.6_80.4_21210.xsdst ! RUN = 21210 ! NEVT = 1000
FILE = /castor/cern.ch/delphi/MCprod/cern/wphact21/v98e/188.6/wphact21_nc4f_188.6_80.4_21211.xsdst ! RUN = 21211 ! NEVT = 1000
FILE = /castor/cern.ch/delphi/MCprod/cern/wphact21/v98e/188.6/wphact21_nc4f_188.6_80.4_21212.xsdst ! RUN = 21212 ! NEVT = 1000
FILE = /castor/cern.ch/delphi/MCprod/cern/wphact21/v98e/188.6/wphact21_nc4f_188.6_80.4_21213.xsdst ! RUN = 21213 ! NEVT = 1000
FILE = /castor/cern.ch/delphi/MCprod/cern/wphact21/v98e/188.6/wphact21_nc4f_188.6_80.4_21214.xsdst ! RUN = 21214 ! NEVT = 999
FILE = /castor/cern.ch/delphi/MCprod/cern/wphact21/v98e/188.6/wphact21_nc4f_188.6_80.4_21215.xsdst ! RUN = 21215 ! NEVT = 1000
FILE = /castor/cern.ch/delphi/MCprod/cern/wphact21/v98e/188.6/wphact21_nc4f_188.6_80.4_21216.xsdst ! RUN = 21216 ! NEVT = 1000
FILE = /castor/cern.ch/delphi/MCprod/cern/wphact21/v98e/188.6/wphact21_nc4f_188.6_80.4_21217.xsdst ! RUN = 21217 ! NEVT = 1000
FILE = /castor/cern.ch/delphi/MCprod/cern/wphact21/v98e/188.6/wphact21_nc4f_188.6_80.4_21218.xsdst ! RUN = 21218 ! NEVT = 1000
FILE = /castor/cern.ch/delphi/MCprod/cern/wphact21/v98e/188.6/wphact21_nc4f_188.6_80.4_21219.xsdst ! RUN = 21219 ! NEVT = 1000
FILE = /castor/cern.ch/delphi/MCprod/cern/wphact21/v98e/188.6/wphact21_nc4f_188.6_80.4_21220.xsdst ! RUN = 21220 ! NEVT = 1000
FILE = /castor/cern.ch/delphi/MCprod/cern/wphact21/v98e/188.6/wphact21_nc4f_188.6_80.4_21221.xsdst ! RUN = 21221 ! NEVT = 998
FILE = /castor/cern.ch/delphi/MCprod/cern/wphact21/v98e/188.6/wphact21_nc4f_188.6_80.4_21222.xsdst ! RUN = 21222 ! NEVT = 1000
FILE = /castor/cern.ch/delphi/MCprod/cern/wphact21/v98e/188.6/wphact21_nc4f_188.6_80.4_21223.xsdst ! RUN = 21223 ! NEVT = 1000
FILE = /castor/cern.ch/delphi/MCprod/cern/wphact21/v98e/188.6/wphact21_nc4f_188.6_80.4_21224.xsdst ! RUN = 21224 ! NEVT = 1000
FILE = /castor/cern.ch/delphi/MCprod/cern/wphact21/v98e/188.6/wphact21_nc4f_188.6_80.4_21225.xsdst ! RUN = 21225 ! NEVT = 1000
FILE = /castor/cern.ch/delphi/MCprod/cern/wphact21/v98e/188.6/wphact21_nc4f_188.6_80.4_21226.xsdst ! RUN = 21226 ! NEVT = 1000
FILE = /castor/cern.ch/delphi/MCprod/cern/wphact21/v98e/188.6/wphact21_nc4f_188.6_80.4_21227.xsdst ! RUN = 21227 ! NEVT = 1000
FILE = /castor/cern.ch/delphi/MCprod/cern/wphact21/v98e/188.6/wphact21_nc4f_188.6_80.4_21228.xsdst ! RUN = 21228 ! NEVT = 1000
FILE = /castor/cern.ch/delphi/MCprod/cern/wphact21/v98e/188.6/wphact21_nc4f_188.6_80.4_21229.xsdst ! RUN = 21229 ! NEVT = 1000
FILE = /castor/cern.ch/delphi/MCprod/cern/wphact21/v98e/188.6/wphact21_nc4f_188.6_80.4_21230.xsdst ! RUN = 21230 ! NEVT = 999
FILE = /castor/cern.ch/delphi/MCprod/cern/wphact21/v98e/188.6/wphact21_nc4f_188.6_80.4_21231.xsdst ! RUN = 21231 ! NEVT = 1000
FILE = /castor/cern.ch/delphi/MCprod/cern/wphact21/v98e/188.6/wphact21_nc4f_188.6_80.4_21232.xsdst ! RUN = 21232 ! NEVT = 1000
FILE = /castor/cern.ch/delphi/MCprod/cern/wphact21/v98e/188.6/wphact21_nc4f_188.6_80.4_21233.xsdst ! RUN = 21233 ! NEVT = 1000
FILE = /castor/cern.ch/delphi/MCprod/cern/wphact21/v98e/188.6/wphact21_nc4f_188.6_80.4_21234.xsdst ! RUN = 21234 ! NEVT = 1000
FILE = /castor/cern.ch/delphi/MCprod/cern/wphact21/v98e/188.6/wphact21_nc4f_188.6_80.4_21235.xsdst ! RUN = 21235 ! NEVT = 1000
FILE = /castor/cern.ch/delphi/MCprod/cern/wphact21/v98e/188.6/wphact21_nc4f_188.6_80.4_21236.xsdst ! RUN = 21236 ! NEVT = 999
FILE = /castor/cern.ch/delphi/MCprod/cern/wphact21/v98e/188.6/wphact21_nc4f_188.6_80.4_21237.xsdst ! RUN = 21237 ! NEVT = 999
FILE = /castor/cern.ch/delphi/MCprod/cern/wphact21/v98e/188.6/wphact21_nc4f_188.6_80.4_21238.xsdst ! RUN = 21238 ! NEVT = 1000
FILE = /castor/cern.ch/delphi/MCprod/cern/wphact21/v98e/188.6/wphact21_nc4f_188.6_80.4_21239.xsdst ! RUN = 21239 ! NEVT = 1000
FILE = /castor/cern.ch/delphi/MCprod/cern/wphact21/v98e/188.6/wphact21_nc4f_188.6_80.4_21240.xsdst ! RUN = 21240 ! NEVT = 1000
FILE = /castor/cern.ch/delphi/MCprod/cern/wphact21/v98e/188.6/wphact21_nc4f_188.6_80.4_21241.xsdst ! RUN = 21241 ! NEVT = 1000
FILE = /castor/cern.ch/delphi/MCprod/cern/wphact21/v98e/188.6/wphact21_nc4f_188.6_80.4_21242.xsdst ! RUN = 21242 ! NEVT = 998
FILE = /castor/cern.ch/delphi/MCprod/cern/wphact21/v98e/188.6/wphact21_nc4f_188.6_80.4_21243.xsdst ! RUN = 21243 ! NEVT = 1000
FILE = /castor/cern.ch/delphi/MCprod/cern/wphact21/v98e/188.6/wphact21_nc4f_188.6_80.4_21244.xsdst ! RUN = 21244 ! NEVT = 999
FILE = /castor/cern.ch/delphi/MCprod/cern/wphact21/v98e/188.6/wphact21_nc4f_188.6_80.4_21245.xsdst ! RUN = 21245 ! NEVT = 999
FILE = /castor/cern.ch/delphi/MCprod/cern/wphact21/v98e/188.6/wphact21_nc4f_188.6_80.4_21246.xsdst ! RUN = 21246 ! NEVT = 1000
FILE = /castor/cern.ch/delphi/MCprod/cern/wphact21/v98e/188.6/wphact21_nc4f_188.6_80.4_21247.xsdst ! RUN = 21247 ! NEVT = 1000
FILE = /castor/cern.ch/delphi/MCprod/cern/wphact21/v98e/188.6/wphact21_nc4f_188.6_80.4_21248.xsdst ! RUN = 21248 ! NEVT = 999
FILE = /castor/cern.ch/delphi/MCprod/cern/wphact21/v98e/188.6/wphact21_nc4f_188.6_80.4_21249.xsdst ! RUN = 21249 ! NEVT = 1000
FILE = /castor/cern.ch/delphi/MCprod/cern/wphact21/v98e/188.6/wphact21_nc4f_188.6_80.4_21250.xsdst ! RUN = 21250 ! NEVT = 1000
FILE = /castor/cern.ch/delphi/MCprod/cern/wphact21/v98e/188.6/wphact21_nc4f_188.6_80.4_21251.xsdst ! RUN = 21251 ! NEVT = 1000
FILE = /castor/cern.ch/delphi/MCprod/cern/wphact21/v98e/188.6/wphact21_nc4f_188.6_80.4_21252.xsdst ! RUN = 21252 ! NEVT = 1000
FILE = /castor/cern.ch/delphi/MCprod/cern/wphact21/v98e/188.6/wphact21_nc4f_188.6_80.4_21253.xsdst ! RUN = 21253 ! NEVT = 1000
FILE = /castor/cern.ch/delphi/MCprod/cern/wphact21/v98e/188.6/wphact21_nc4f_188.6_80.4_21254.xsdst ! RUN = 21254 ! NEVT = 1000
FILE = /castor/cern.ch/delphi/MCprod/cern/wphact21/v98e/188.6/wphact21_nc4f_188.6_80.4_21255.xsdst ! RUN = 21255 ! NEVT = 1000
FILE = /castor/cern.ch/delphi/MCprod/cern/wphact21/v98e/188.6/wphact21_nc4f_188.6_80.4_21256.xsdst ! RUN = 21256 ! NEVT = 999
FILE = /castor/cern.ch/delphi/MCprod/cern/wphact21/v98e/188.6/wphact21_nc4f_188.6_80.4_21257.xsdst ! RUN = 21257 ! NEVT = 1000
FILE = /castor/cern.ch/delphi/MCprod/cern/wphact21/v98e/188.6/wphact21_nc4f_188.6_80.4_21258.xsdst ! RUN = 21258 ! NEVT = 1000
FILE = /castor/cern.ch/delphi/MCprod/cern/wphact21/v98e/188.6/wphact21_nc4f_188.6_80.4_21259.xsdst ! RUN = 21259 ! NEVT = 1000
FILE = /castor/cern.ch/delphi/MCprod/cern/wphact21/v98e/188.6/wphact21_nc4f_188.6_80.4_21260.xsdst ! RUN = 21260 ! NEVT = 1000
FILE = /castor/cern.ch/delphi/MCprod/cern/wphact21/v98e/188.6/wphact21_nc4f_188.6_80.4_21261.xsdst ! RUN = 21261 ! NEVT = 1000
FILE = /castor/cern.ch/delphi/MCprod/cern/wphact21/v98e/188.6/wphact21_nc4f_188.6_80.4_21262.xsdst ! RUN = 21262 ! NEVT = 1000
FILE = /castor/cern.ch/delphi/MCprod/cern/wphact21/v98e/188.6/wphact21_nc4f_188.6_80.4_21263.xsdst ! RUN = 21263 ! NEVT = 1000
FILE = /castor/cern.ch/delphi/MCprod/cern/wphact21/v98e/188.6/wphact21_nc4f_188.6_80.4_21264.xsdst ! RUN = 21264 ! NEVT = 1000
FILE = /castor/cern.ch/delphi/MCprod/cern/wphact21/v98e/188.6/wphact21_nc4f_188.6_80.4_21265.xsdst ! RUN = 21265 ! NEVT = 999
FILE = /castor/cern.ch/delphi/MCprod/cern/wphact21/v98e/188.6/wphact21_nc4f_188.6_80.4_21266.xsdst ! RUN = 21266 ! NEVT = 1000
FILE = /castor/cern.ch/delphi/MCprod/cern/wphact21/v98e/188.6/wphact21_nc4f_188.6_80.4_21267.xsdst ! RUN = 21267 ! NEVT = 1000
FILE = /castor/cern.ch/delphi/MCprod/cern/wphact21/v98e/188.6/wphact21_nc4f_188.6_80.4_21268.xsdst ! RUN = 21268 ! NEVT = 999
FILE = /castor/cern.ch/delphi/MCprod/cern/wphact21/v98e/188.6/wphact21_nc4f_188.6_80.4_21269.xsdst ! RUN = 21269 ! NEVT = 1000
FILE = /castor/cern.ch/delphi/MCprod/cern/wphact21/v98e/188.6/wphact21_nc4f_188.6_80.4_21270.xsdst ! RUN = 21270 ! NEVT = 1000
FILE = /castor/cern.ch/delphi/MCprod/cern/wphact21/v98e/188.6/wphact21_nc4f_188.6_80.4_21271.xsdst ! RUN = 21271 ! NEVT = 1000
FILE = /castor/cern.ch/delphi/MCprod/cern/wphact21/v98e/188.6/wphact21_nc4f_188.6_80.4_21272.xsdst ! RUN = 21272 ! NEVT = 1000
FILE = /castor/cern.ch/delphi/MCprod/cern/wphact21/v98e/188.6/wphact21_nc4f_188.6_80.4_21273.xsdst ! RUN = 21273 ! NEVT = 999
FILE = /castor/cern.ch/delphi/MCprod/cern/wphact21/v98e/188.6/wphact21_nc4f_188.6_80.4_21274.xsdst ! RUN = 21274 ! NEVT = 1000
FILE = /castor/cern.ch/delphi/MCprod/cern/wphact21/v98e/188.6/wphact21_nc4f_188.6_80.4_21275.xsdst ! RUN = 21275 ! NEVT = 1000
FILE = /castor/cern.ch/delphi/MCprod/cern/wphact21/v98e/188.6/wphact21_nc4f_188.6_80.4_21276.xsdst ! RUN = 21276 ! NEVT = 1000
FILE = /castor/cern.ch/delphi/MCprod/cern/wphact21/v98e/188.6/wphact21_nc4f_188.6_80.4_21277.xsdst ! RUN = 21277 ! NEVT = 1000
FILE = /castor/cern.ch/delphi/MCprod/cern/wphact21/v98e/188.6/wphact21_nc4f_188.6_80.4_21278.xsdst ! RUN = 21278 ! NEVT = 1000
FILE = /castor/cern.ch/delphi/MCprod/cern/wphact21/v98e/188.6/wphact21_nc4f_188.6_80.4_21279.xsdst ! RUN = 21279 ! NEVT = 1000
FILE = /castor/cern.ch/delphi/MCprod/cern/wphact21/v98e/188.6/wphact21_nc4f_188.6_80.4_21280.xsdst ! RUN = 21280 ! NEVT = 1000
FILE = /castor/cern.ch/delphi/MCprod/cern/wphact21/v98e/188.6/wphact21_nc4f_188.6_80.4_21281.xsdst ! RUN = 21281 ! NEVT = 1000
FILE = /castor/cern.ch/delphi/MCprod/cern/wphact21/v98e/188.6/wphact21_nc4f_188.6_80.4_21282.xsdst ! RUN = 21282 ! NEVT = 1000
FILE = /castor/cern.ch/delphi/MCprod/cern/wphact21/v98e/188.6/wphact21_nc4f_188.6_80.4_21283.xsdst ! RUN = 21283 ! NEVT = 1000
FILE = /castor/cern.ch/delphi/MCprod/cern/wphact21/v98e/188.6/wphact21_nc4f_188.6_80.4_21284.xsdst ! RUN = 21284 ! NEVT = 1000
FILE = /castor/cern.ch/delphi/MCprod/cern/wphact21/v98e/188.6/wphact21_nc4f_188.6_80.4_21285.xsdst ! RUN = 21285 ! NEVT = 1000
FILE = /castor/cern.ch/delphi/MCprod/cern/wphact21/v98e/188.6/wphact21_nc4f_188.6_80.4_21287.xsdst ! RUN = 21287 ! NEVT = 1000
FILE = /castor/cern.ch/delphi/MCprod/cern/wphact21/v98e/188.6/wphact21_nc4f_188.6_80.4_21288.xsdst ! RUN = 21288 ! NEVT = 1000
FILE = /castor/cern.ch/delphi/MCprod/cern/wphact21/v98e/188.6/wphact21_nc4f_188.6_80.4_21289.xsdst ! RUN = 21289 ! NEVT = 998
FILE = /castor/cern.ch/delphi/MCprod/cern/wphact21/v98e/188.6/wphact21_nc4f_188.6_80.4_21291.xsdst ! RUN = 21291 ! NEVT = 999
FILE = /castor/cern.ch/delphi/MCprod/cern/wphact21/v98e/188.6/wphact21_nc4f_188.6_80.4_21293.xsdst ! RUN = 21293 ! NEVT = 1000
FILE = /castor/cern.ch/delphi/MCprod/cern/wphact21/v98e/188.6/wphact21_nc4f_188.6_80.4_21294.xsdst ! RUN = 21294 ! NEVT = 1000
FILE = /castor/cern.ch/delphi/MCprod/cern/wphact21/v98e/188.6/wphact21_nc4f_188.6_80.4_21295.xsdst ! RUN = 21295 ! NEVT = 1000
FILE = /castor/cern.ch/delphi/MCprod/cern/wphact21/v98e/188.6/wphact21_nc4f_188.6_80.4_21297.xsdst ! RUN = 21297 ! NEVT = 1000
FILE = /castor/cern.ch/delphi/MCprod/cern/wphact21/v98e/188.6/wphact21_nc4f_188.6_80.4_21298.xsdst ! RUN = 21298 ! NEVT = 999
FILE = /castor/cern.ch/delphi/MCprod/cern/wphact21/v98e/188.6/wphact21_nc4f_188.6_80.4_21299.xsdst ! RUN = 21299 ! NEVT = 1000
FILE = /castor/cern.ch/delphi/MCprod/cern/wphact21/v98e/188.6/wphact21_nc4f_188.6_80.4_21300.xsdst ! RUN = 21300 ! NEVT = 1000
FILE = /castor/cern.ch/delphi/MCprod/cern/wphact21/v98e/188.6/wphact21_nc4f_188.6_80.4_21301.xsdst ! RUN = 21301 ! NEVT = 1000
FILE = /castor/cern.ch/delphi/MCprod/cern/wphact21/v98e/188.6/wphact21_nc4f_188.6_80.4_21302.xsdst ! RUN = 21302 ! NEVT = 1000
FILE = /castor/cern.ch/delphi/MCprod/cern/wphact21/v98e/188.6/wphact21_nc4f_188.6_80.4_21303.xsdst ! RUN = 21303 ! NEVT = 1000
FILE = /castor/cern.ch/delphi/MCprod/cern/wphact21/v98e/188.6/wphact21_nc4f_188.6_80.4_21305.xsdst ! RUN = 21305 ! NEVT = 999
FILE = /castor/cern.ch/delphi/MCprod/cern/wphact21/v98e/188.6/wphact21_nc4f_188.6_80.4_21306.xsdst ! RUN = 21306 ! NEVT = 1000
FILE = /castor/cern.ch/delphi/MCprod/cern/wphact21/v98e/188.6/wphact21_nc4f_188.6_80.4_21307.xsdst ! RUN = 21307 ! NEVT = 1000
FILE = /castor/cern.ch/delphi/MCprod/cern/wphact21/v98e/188.6/wphact21_nc4f_188.6_80.4_21309.xsdst ! RUN = 21309 ! NEVT = 999
FILE = /castor/cern.ch/delphi/MCprod/cern/wphact21/v98e/188.6/wphact21_nc4f_188.6_80.4_21310.xsdst ! RUN = 21310 ! NEVT = 1000
FILE = /castor/cern.ch/delphi/MCprod/cern/wphact21/v98e/188.6/wphact21_nc4f_188.6_80.4_21311.xsdst ! RUN = 21311 ! NEVT = 1000
FILE = /castor/cern.ch/delphi/MCprod/cern/wphact21/v98e/188.6/wphact21_nc4f_188.6_80.4_21312.xsdst ! RUN = 21312 ! NEVT = 1000
FILE = /castor/cern.ch/delphi/MCprod/cern/wphact21/v98e/188.6/wphact21_nc4f_188.6_80.4_21313.xsdst ! RUN = 21313 ! NEVT = 1000
FILE = /castor/cern.ch/delphi/MCprod/cern/wphact21/v98e/188.6/wphact21_nc4f_188.6_80.4_21314.xsdst ! RUN = 21314 ! NEVT = 1000
FILE = /castor/cern.ch/delphi/MCprod/cern/wphact21/v98e/188.6/wphact21_nc4f_188.6_80.4_21315.xsdst ! RUN = 21315 ! NEVT = 999
FILE = /castor/cern.ch/delphi/MCprod/cern/wphact21/v98e/188.6/wphact21_nc4f_188.6_80.4_21316.xsdst ! RUN = 21316 ! NEVT = 1000
FILE = /castor/cern.ch/delphi/MCprod/cern/wphact21/v98e/188.6/wphact21_nc4f_188.6_80.4_21317.xsdst ! RUN = 21317 ! NEVT = 1000
FILE = /castor/cern.ch/delphi/MCprod/cern/wphact21/v98e/188.6/wphact21_nc4f_188.6_80.4_21319.xsdst ! RUN = 21319 ! NEVT = 1000
FILE = /castor/cern.ch/delphi/MCprod/cern/wphact21/v98e/188.6/wphact21_nc4f_188.6_80.4_21321.xsdst ! RUN = 21321 ! NEVT = 1000
FILE = /castor/cern.ch/delphi/MCprod/cern/wphact21/v98e/188.6/wphact21_nc4f_188.6_80.4_21323.xsdst ! RUN = 21323 ! NEVT = 1000
FILE = /castor/cern.ch/delphi/MCprod/cern/wphact21/v98e/188.6/wphact21_nc4f_188.6_80.4_21324.xsdst ! RUN = 21324 ! NEVT = 1000
FILE = /castor/cern.ch/delphi/MCprod/cern/wphact21/v98e/188.6/wphact21_nc4f_188.6_80.4_21325.xsdst ! RUN = 21325 ! NEVT = 526
FILE = /castor/cern.ch/delphi/MCprod/cern/wphact21/v98e/188.6/wphact21_nc4f_188.6_80.4_21326.xsdst ! RUN = 21326 ! NEVT = 1000
FILE = /castor/cern.ch/delphi/MCprod/cern/wphact21/v98e/188.6/wphact21_nc4f_188.6_80.4_21327.xsdst ! RUN = 21327 ! NEVT = 1000
FILE = /castor/cern.ch/delphi/MCprod/cern/wphact21/v98e/188.6/wphact21_nc4f_188.6_80.4_21330.xsdst ! RUN = 21330 ! NEVT = 1000
FILE = /castor/cern.ch/delphi/MCprod/cern/wphact21/v98e/188.6/wphact21_nc4f_188.6_80.4_21331.xsdst ! RUN = 21331 ! NEVT = 1000
FILE = /castor/cern.ch/delphi/MCprod/cern/wphact21/v98e/188.6/wphact21_nc4f_188.6_80.4_21332.xsdst ! RUN = 21332 ! NEVT = 999
FILE = /castor/cern.ch/delphi/MCprod/cern/wphact21/v98e/188.6/wphact21_nc4f_188.6_80.4_21333.xsdst ! RUN = 21333 ! NEVT = 1000
FILE = /castor/cern.ch/delphi/MCprod/cern/wphact21/v98e/188.6/wphact21_nc4f_188.6_80.4_21334.xsdst ! RUN = 21334 ! NEVT = 1000
FILE = /castor/cern.ch/delphi/MCprod/cern/wphact21/v98e/188.6/wphact21_nc4f_188.6_80.4_21335.xsdst ! RUN = 21335 ! NEVT = 1000
FILE = /castor/cern.ch/delphi/MCprod/cern/wphact21/v98e/188.6/wphact21_nc4f_188.6_80.4_21336.xsdst ! RUN = 21336 ! NEVT = 1000
FILE = /castor/cern.ch/delphi/MCprod/cern/wphact21/v98e/188.6/wphact21_nc4f_188.6_80.4_21338.xsdst ! RUN = 21338 ! NEVT = 1000
FILE = /castor/cern.ch/delphi/MCprod/cern/wphact21/v98e/188.6/wphact21_nc4f_188.6_80.4_21339.xsdst ! RUN = 21339 ! NEVT = 1000
FILE = /castor/cern.ch/delphi/MCprod/cern/wphact21/v98e/188.6/wphact21_nc4f_188.6_80.4_21341.xsdst ! RUN = 21341 ! NEVT = 999
FILE = /castor/cern.ch/delphi/MCprod/cern/wphact21/v98e/188.6/wphact21_nc4f_188.6_80.4_21342.xsdst ! RUN = 21342 ! NEVT = 1000
FILE = /castor/cern.ch/delphi/MCprod/cern/wphact21/v98e/188.6/wphact21_nc4f_188.6_80.4_21343.xsdst ! RUN = 21343 ! NEVT = 999
FILE = /castor/cern.ch/delphi/MCprod/cern/wphact21/v98e/188.6/wphact21_nc4f_188.6_80.4_21344.xsdst ! RUN = 21344 ! NEVT = 999
FILE = /castor/cern.ch/delphi/MCprod/cern/wphact21/v98e/188.6/wphact21_nc4f_188.6_80.4_21345.xsdst ! RUN = 21345 ! NEVT = 1000
FILE = /castor/cern.ch/delphi/MCprod/cern/wphact21/v98e/188.6/wphact21_nc4f_188.6_80.4_21346.xsdst ! RUN = 21346 ! NEVT = 999
FILE = /castor/cern.ch/delphi/MCprod/cern/wphact21/v98e/188.6/wphact21_nc4f_188.6_80.4_21347.xsdst ! RUN = 21347 ! NEVT = 1000
FILE = /castor/cern.ch/delphi/MCprod/cern/wphact21/v98e/188.6/wphact21_nc4f_188.6_80.4_21348.xsdst ! RUN = 21348 ! NEVT = 999
FILE = /castor/cern.ch/delphi/MCprod/cern/wphact21/v98e/188.6/wphact21_nc4f_188.6_80.4_21349.xsdst ! RUN = 21349 ! NEVT = 1000
FILE = /castor/cern.ch/delphi/MCprod/cern/wphact21/v98e/188.6/wphact21_nc4f_188.6_80.4_21350.xsdst ! RUN = 21350 ! NEVT = 1000
FILE = /castor/cern.ch/delphi/MCprod/cern/wphact21/v98e/188.6/wphact21_nc4f_188.6_80.4_21351.xsdst ! RUN = 21351 ! NEVT = 1000
FILE = /castor/cern.ch/delphi/MCprod/cern/wphact21/v98e/188.6/wphact21_nc4f_188.6_80.4_21352.xsdst ! RUN = 21352 ! NEVT = 1000
FILE = /castor/cern.ch/delphi/MCprod/cern/wphact21/v98e/188.6/wphact21_nc4f_188.6_80.4_21353.xsdst ! RUN = 21353 ! NEVT = 998
FILE = /castor/cern.ch/delphi/MCprod/cern/wphact21/v98e/188.6/wphact21_nc4f_188.6_80.4_21354.xsdst ! RUN = 21354 ! NEVT = 1000
FILE = /castor/cern.ch/delphi/MCprod/cern/wphact21/v98e/188.6/wphact21_nc4f_188.6_80.4_21355.xsdst ! RUN = 21355 ! NEVT = 1000
FILE = /castor/cern.ch/delphi/MCprod/cern/wphact21/v98e/188.6/wphact21_nc4f_188.6_80.4_21356.xsdst ! RUN = 21356 ! NEVT = 1000
FILE = /castor/cern.ch/delphi/MCprod/cern/wphact21/v98e/188.6/wphact21_nc4f_188.6_80.4_21357.xsdst ! RUN = 21357 ! NEVT = 1000
FILE = /castor/cern.ch/delphi/MCprod/cern/wphact21/v98e/188.6/wphact21_nc4f_188.6_80.4_21358.xsdst ! RUN = 21358 ! NEVT = 1000
FILE = /castor/cern.ch/delphi/MCprod/cern/wphact21/v98e/188.6/wphact21_nc4f_188.6_80.4_21359.xsdst ! RUN = 21359 ! NEVT = 1000
FILE = /castor/cern.ch/delphi/MCprod/cern/wphact21/v98e/188.6/wphact21_nc4f_188.6_80.4_21360.xsdst ! RUN = 21360 ! NEVT = 1000
FILE = /castor/cern.ch/delphi/MCprod/cern/wphact21/v98e/188.6/wphact21_nc4f_188.6_80.4_21361.xsdst ! RUN = 21361 ! NEVT = 999
FILE = /castor/cern.ch/delphi/MCprod/cern/wphact21/v98e/188.6/wphact21_nc4f_188.6_80.4_21362.xsdst ! RUN = 21362 ! NEVT = 1000
FILE = /castor/cern.ch/delphi/MCprod/cern/wphact21/v98e/188.6/wphact21_nc4f_188.6_80.4_21363.xsdst ! RUN = 21363 ! NEVT = 1000
FILE = /castor/cern.ch/delphi/MCprod/cern/wphact21/v98e/188.6/wphact21_nc4f_188.6_80.4_21364.xsdst ! RUN = 21364 ! NEVT = 1000
FILE = /castor/cern.ch/delphi/MCprod/cern/wphact21/v98e/188.6/wphact21_nc4f_188.6_80.4_21365.xsdst ! RUN = 21365 ! NEVT = 1000
FILE = /castor/cern.ch/delphi/MCprod/cern/wphact21/v98e/188.6/wphact21_nc4f_188.6_80.4_21366.xsdst ! RUN = 21366 ! NEVT = 1000
FILE = /castor/cern.ch/delphi/MCprod/cern/wphact21/v98e/188.6/wphact21_nc4f_188.6_80.4_21367.xsdst ! RUN = 21367 ! NEVT = 1000
FILE = /castor/cern.ch/delphi/MCprod/cern/wphact21/v98e/188.6/wphact21_nc4f_188.6_80.4_21368.xsdst ! RUN = 21368 ! NEVT = 1000
FILE = /castor/cern.ch/delphi/MCprod/cern/wphact21/v98e/188.6/wphact21_nc4f_188.6_80.4_21369.xsdst ! RUN = 21369 ! NEVT = 1000
FILE = /castor/cern.ch/delphi/MCprod/cern/wphact21/v98e/188.6/wphact21_nc4f_188.6_80.4_21370.xsdst ! RUN = 21370 ! NEVT = 999
FILE = /castor/cern.ch/delphi/MCprod/cern/wphact21/v98e/188.6/wphact21_nc4f_188.6_80.4_21371.xsdst ! RUN = 21371 ! NEVT = 1000
FILE = /castor/cern.ch/delphi/MCprod/cern/wphact21/v98e/188.6/wphact21_nc4f_188.6_80.4_21372.xsdst ! RUN = 21372 ! NEVT = 999
FILE = /castor/cern.ch/delphi/MCprod/cern/wphact21/v98e/188.6/wphact21_nc4f_188.6_80.4_21373.xsdst ! RUN = 21373 ! NEVT = 999
FILE = /castor/cern.ch/delphi/MCprod/cern/wphact21/v98e/188.6/wphact21_nc4f_188.6_80.4_21374.xsdst ! RUN = 21374 ! NEVT = 999
FILE = /castor/cern.ch/delphi/MCprod/cern/wphact21/v98e/188.6/wphact21_nc4f_188.6_80.4_21375.xsdst ! RUN = 21375 ! NEVT = 1000
FILE = /castor/cern.ch/delphi/MCprod/cern/wphact21/v98e/188.6/wphact21_nc4f_188.6_80.4_21376.xsdst ! RUN = 21376 ! NEVT = 1000
FILE = /castor/cern.ch/delphi/MCprod/cern/wphact21/v98e/188.6/wphact21_nc4f_188.6_80.4_21377.xsdst ! RUN = 21377 ! NEVT = 1000
FILE = /castor/cern.ch/delphi/MCprod/cern/wphact21/v98e/188.6/wphact21_nc4f_188.6_80.4_21378.xsdst ! RUN = 21378 ! NEVT = 1000
FILE = /castor/cern.ch/delphi/MCprod/cern/wphact21/v98e/188.6/wphact21_nc4f_188.6_80.4_21379.xsdst ! RUN = 21379 ! NEVT = 1000
FILE = /castor/cern.ch/delphi/MCprod/cern/wphact21/v98e/188.6/wphact21_nc4f_188.6_80.4_21380.xsdst ! RUN = 21380 ! NEVT = 1000
FILE = /castor/cern.ch/delphi/MCprod/cern/wphact21/v98e/188.6/wphact21_nc4f_188.6_80.4_21381.xsdst ! RUN = 21381 ! NEVT = 1000
FILE = /castor/cern.ch/delphi/MCprod/cern/wphact21/v98e/188.6/wphact21_nc4f_188.6_80.4_21382.xsdst ! RUN = 21382 ! NEVT = 1000
FILE = /castor/cern.ch/delphi/MCprod/cern/wphact21/v98e/188.6/wphact21_nc4f_188.6_80.4_21383.xsdst ! RUN = 21383 ! NEVT = 1000
FILE = /castor/cern.ch/delphi/MCprod/cern/wphact21/v98e/188.6/wphact21_nc4f_188.6_80.4_21384.xsdst ! RUN = 21384 ! NEVT = 1000
FILE = /castor/cern.ch/delphi/MCprod/cern/wphact21/v98e/188.6/wphact21_nc4f_188.6_80.4_21385.xsdst ! RUN = 21385 ! NEVT = 1000
FILE = /castor/cern.ch/delphi/MCprod/cern/wphact21/v98e/188.6/wphact21_nc4f_188.6_80.4_21386.xsdst ! RUN = 21386 ! NEVT = 999
FILE = /castor/cern.ch/delphi/MCprod/cern/wphact21/v98e/188.6/wphact21_nc4f_188.6_80.4_21387.xsdst ! RUN = 21387 ! NEVT = 1000
FILE = /castor/cern.ch/delphi/MCprod/cern/wphact21/v98e/188.6/wphact21_nc4f_188.6_80.4_21388.xsdst ! RUN = 21388 ! NEVT = 999
FILE = /castor/cern.ch/delphi/MCprod/cern/wphact21/v98e/188.6/wphact21_nc4f_188.6_80.4_21389.xsdst ! RUN = 21389 ! NEVT = 999
FILE = /castor/cern.ch/delphi/MCprod/cern/wphact21/v98e/188.6/wphact21_nc4f_188.6_80.4_21390.xsdst ! RUN = 21390 ! NEVT = 1000
FILE = /castor/cern.ch/delphi/MCprod/cern/wphact21/v98e/188.6/wphact21_nc4f_188.6_80.4_21391.xsdst ! RUN = 21391 ! NEVT = 999
FILE = /castor/cern.ch/delphi/MCprod/cern/wphact21/v98e/188.6/wphact21_nc4f_188.6_80.4_21392.xsdst ! RUN = 21392 ! NEVT = 1000
FILE = /castor/cern.ch/delphi/MCprod/cern/wphact21/v98e/188.6/wphact21_nc4f_188.6_80.4_21393.xsdst ! RUN = 21393 ! NEVT = 1000
FILE = /castor/cern.ch/delphi/MCprod/cern/wphact21/v98e/188.6/wphact21_nc4f_188.6_80.4_21394.xsdst ! RUN = 21394 ! NEVT = 1000
FILE = /castor/cern.ch/delphi/MCprod/cern/wphact21/v98e/188.6/wphact21_nc4f_188.6_80.4_21395.xsdst ! RUN = 21395 ! NEVT = 1000
FILE = /castor/cern.ch/delphi/MCprod/cern/wphact21/v98e/188.6/wphact21_nc4f_188.6_80.4_21396.xsdst ! RUN = 21396 ! NEVT = 1000
FILE = /castor/cern.ch/delphi/MCprod/cern/wphact21/v98e/188.6/wphact21_nc4f_188.6_80.4_21397.xsdst ! RUN = 21397 ! NEVT = 1000
FILE = /castor/cern.ch/delphi/MCprod/cern/wphact21/v98e/188.6/wphact21_nc4f_188.6_80.4_21398.xsdst ! RUN = 21398 ! NEVT = 1000
FILE = /castor/cern.ch/delphi/MCprod/cern/wphact21/v98e/188.6/wphact21_nc4f_188.6_80.4_21399.xsdst ! RUN = 21399 ! NEVT = 1000
FILE = /castor/cern.ch/delphi/MCprod/cern/wphact21/v98e/188.6/wphact21_nc4f_188.6_80.4_21400.xsdst ! RUN = 21400 ! NEVT = 1000
FILE = /castor/cern.ch/delphi/MCprod/cern/wphact21/v98e/188.6/wphact21_nc4f_188.6_80.4_21401.xsdst ! RUN = 21401 ! NEVT = 1000
FILE = /castor/cern.ch/delphi/MCprod/cern/wphact21/v98e/188.6/wphact21_nc4f_188.6_80.4_21402.xsdst ! RUN = 21402 ! NEVT = 999
FILE = /castor/cern.ch/delphi/MCprod/cern/wphact21/v98e/188.6/wphact21_nc4f_188.6_80.4_21403.xsdst ! RUN = 21403 ! NEVT = 1000
FILE = /castor/cern.ch/delphi/MCprod/cern/wphact21/v98e/188.6/wphact21_nc4f_188.6_80.4_21404.xsdst ! RUN = 21404 ! NEVT = 1000
FILE = /castor/cern.ch/delphi/MCprod/cern/wphact21/v98e/188.6/wphact21_nc4f_188.6_80.4_21405.xsdst ! RUN = 21405 ! NEVT = 1000
FILE = /castor/cern.ch/delphi/MCprod/cern/wphact21/v98e/188.6/wphact21_nc4f_188.6_80.4_21406.xsdst ! RUN = 21406 ! NEVT = 999
FILE = /castor/cern.ch/delphi/MCprod/cern/wphact21/v98e/188.6/wphact21_nc4f_188.6_80.4_21407.xsdst ! RUN = 21407 ! NEVT = 1000
FILE = /castor/cern.ch/delphi/MCprod/cern/wphact21/v98e/188.6/wphact21_nc4f_188.6_80.4_21408.xsdst ! RUN = 21408 ! NEVT = 1000
FILE = /castor/cern.ch/delphi/MCprod/cern/wphact21/v98e/188.6/wphact21_nc4f_188.6_80.4_21409.xsdst ! RUN = 21409 ! NEVT = 999
FILE = /castor/cern.ch/delphi/MCprod/cern/wphact21/v98e/188.6/wphact21_nc4f_188.6_80.4_21410.xsdst ! RUN = 21410 ! NEVT = 1000
FILE = /castor/cern.ch/delphi/MCprod/cern/wphact21/v98e/188.6/wphact21_nc4f_188.6_80.4_21411.xsdst ! RUN = 21411 ! NEVT = 1000
FILE = /castor/cern.ch/delphi/MCprod/cern/wphact21/v98e/188.6/wphact21_nc4f_188.6_80.4_21412.xsdst ! RUN = 21412 ! NEVT = 1000
FILE = /castor/cern.ch/delphi/MCprod/cern/wphact21/v98e/188.6/wphact21_nc4f_188.6_80.4_21413.xsdst ! RUN = 21413 ! NEVT = 999
FILE = /castor/cern.ch/delphi/MCprod/cern/wphact21/v98e/188.6/wphact21_nc4f_188.6_80.4_21414.xsdst ! RUN = 21414 ! NEVT = 1000
FILE = /castor/cern.ch/delphi/MCprod/cern/wphact21/v98e/188.6/wphact21_nc4f_188.6_80.4_21415.xsdst ! RUN = 21415 ! NEVT = 999
FILE = /castor/cern.ch/delphi/MCprod/cern/wphact21/v98e/188.6/wphact21_nc4f_188.6_80.4_21416.xsdst ! RUN = 21416 ! NEVT = 1000
FILE = /castor/cern.ch/delphi/MCprod/cern/wphact21/v98e/188.6/wphact21_nc4f_188.6_80.4_21417.xsdst ! RUN = 21417 ! NEVT = 999
FILE = /castor/cern.ch/delphi/MCprod/cern/wphact21/v98e/188.6/wphact21_nc4f_188.6_80.4_21418.xsdst ! RUN = 21418 ! NEVT = 1000
FILE = /castor/cern.ch/delphi/MCprod/cern/wphact21/v98e/188.6/wphact21_nc4f_188.6_80.4_21419.xsdst ! RUN = 21419 ! NEVT = 1000
FILE = /castor/cern.ch/delphi/MCprod/cern/wphact21/v98e/188.6/wphact21_nc4f_188.6_80.4_21420.xsdst ! RUN = 21420 ! NEVT = 1000
FILE = /castor/cern.ch/delphi/MCprod/cern/wphact21/v98e/188.6/wphact21_nc4f_188.6_80.4_21421.xsdst ! RUN = 21421 ! NEVT = 1000
FILE = /castor/cern.ch/delphi/MCprod/cern/wphact21/v98e/188.6/wphact21_nc4f_188.6_80.4_21422.xsdst ! RUN = 21422 ! NEVT = 1000
FILE = /castor/cern.ch/delphi/MCprod/cern/wphact21/v98e/188.6/wphact21_nc4f_188.6_80.4_21423.xsdst ! RUN = 21423 ! NEVT = 1000
FILE = /castor/cern.ch/delphi/MCprod/cern/wphact21/v98e/188.6/wphact21_nc4f_188.6_80.4_21424.xsdst ! RUN = 21424 ! NEVT = 1000
FILE = /castor/cern.ch/delphi/MCprod/cern/wphact21/v98e/188.6/wphact21_nc4f_188.6_80.4_21425.xsdst ! RUN = 21425 ! NEVT = 1000
FILE = /castor/cern.ch/delphi/MCprod/cern/wphact21/v98e/188.6/wphact21_nc4f_188.6_80.4_21426.xsdst ! RUN = 21426 ! NEVT = 1000
FILE = /castor/cern.ch/delphi/MCprod/cern/wphact21/v98e/188.6/wphact21_nc4f_188.6_80.4_21427.xsdst ! RUN = 21427 ! NEVT = 1000
FILE = /castor/cern.ch/delphi/MCprod/cern/wphact21/v98e/188.6/wphact21_nc4f_188.6_80.4_21428.xsdst ! RUN = 21428 ! NEVT = 1000
FILE = /castor/cern.ch/delphi/MCprod/cern/wphact21/v98e/188.6/wphact21_nc4f_188.6_80.4_21429.xsdst ! RUN = 21429 ! NEVT = 1000
FILE = /castor/cern.ch/delphi/MCprod/cern/wphact21/v98e/188.6/wphact21_nc4f_188.6_80.4_21430.xsdst ! RUN = 21430 ! NEVT = 999
FILE = /castor/cern.ch/delphi/MCprod/cern/wphact21/v98e/188.6/wphact21_nc4f_188.6_80.4_21431.xsdst ! RUN = 21431 ! NEVT = 1000
FILE = /castor/cern.ch/delphi/MCprod/cern/wphact21/v98e/188.6/wphact21_nc4f_188.6_80.4_21432.xsdst ! RUN = 21432 ! NEVT = 1000
FILE = /castor/cern.ch/delphi/MCprod/cern/wphact21/v98e/188.6/wphact21_nc4f_188.6_80.4_21433.xsdst ! RUN = 21433 ! NEVT = 1000
FILE = /castor/cern.ch/delphi/MCprod/cern/wphact21/v98e/188.6/wphact21_nc4f_188.6_80.4_21434.xsdst ! RUN = 21434 ! NEVT = 1000
FILE = /castor/cern.ch/delphi/MCprod/cern/wphact21/v98e/188.6/wphact21_nc4f_188.6_80.4_21435.xsdst ! RUN = 21435 ! NEVT = 1000
FILE = /castor/cern.ch/delphi/MCprod/cern/wphact21/v98e/188.6/wphact21_nc4f_188.6_80.4_21436.xsdst ! RUN = 21436 ! NEVT = 998
FILE = /castor/cern.ch/delphi/MCprod/cern/wphact21/v98e/188.6/wphact21_nc4f_188.6_80.4_21437.xsdst ! RUN = 21437 ! NEVT = 999
FILE = /castor/cern.ch/delphi/MCprod/cern/wphact21/v98e/188.6/wphact21_nc4f_188.6_80.4_21438.xsdst ! RUN = 21438 ! NEVT = 1000
FILE = /castor/cern.ch/delphi/MCprod/cern/wphact21/v98e/188.6/wphact21_nc4f_188.6_80.4_21439.xsdst ! RUN = 21439 ! NEVT = 1000
FILE = /castor/cern.ch/delphi/MCprod/cern/wphact21/v98e/188.6/wphact21_nc4f_188.6_80.4_21440.xsdst ! RUN = 21440 ! NEVT = 1000
FILE = /castor/cern.ch/delphi/MCprod/cern/wphact21/v98e/188.6/wphact21_nc4f_188.6_80.4_21441.xsdst ! RUN = 21441 ! NEVT = 1000
FILE = /castor/cern.ch/delphi/MCprod/cern/wphact21/v98e/188.6/wphact21_nc4f_188.6_80.4_21442.xsdst ! RUN = 21442 ! NEVT = 1000
FILE = /castor/cern.ch/delphi/MCprod/cern/wphact21/v98e/188.6/wphact21_nc4f_188.6_80.4_21443.xsdst ! RUN = 21443 ! NEVT = 1000
FILE = /castor/cern.ch/delphi/MCprod/cern/wphact21/v98e/188.6/wphact21_nc4f_188.6_80.4_21444.xsdst ! RUN = 21444 ! NEVT = 1000
FILE = /castor/cern.ch/delphi/MCprod/cern/wphact21/v98e/188.6/wphact21_nc4f_188.6_80.4_21445.xsdst ! RUN = 21445 ! NEVT = 1000
FILE = /castor/cern.ch/delphi/MCprod/cern/wphact21/v98e/188.6/wphact21_nc4f_188.6_80.4_21446.xsdst ! RUN = 21446 ! NEVT = 999
FILE = /castor/cern.ch/delphi/MCprod/cern/wphact21/v98e/188.6/wphact21_nc4f_188.6_80.4_21447.xsdst ! RUN = 21447 ! NEVT = 1000
FILE = /castor/cern.ch/delphi/MCprod/cern/wphact21/v98e/188.6/wphact21_nc4f_188.6_80.4_21448.xsdst ! RUN = 21448 ! NEVT = 1000
FILE = /castor/cern.ch/delphi/MCprod/cern/wphact21/v98e/188.6/wphact21_nc4f_188.6_80.4_21449.xsdst ! RUN = 21449 ! NEVT = 1000
FILE = /castor/cern.ch/delphi/MCprod/cern/wphact21/v98e/188.6/wphact21_nc4f_188.6_80.4_21450.xsdst ! RUN = 21450 ! NEVT = 1000
FILE = /castor/cern.ch/delphi/MCprod/cern/wphact21/v98e/188.6/wphact21_nc4f_188.6_80.4_21451.xsdst ! RUN = 21451 ! NEVT = 1000
FILE = /castor/cern.ch/delphi/MCprod/cern/wphact21/v98e/188.6/wphact21_nc4f_188.6_80.4_21452.xsdst ! RUN = 21452 ! NEVT = 1000
FILE = /castor/cern.ch/delphi/MCprod/cern/wphact21/v98e/188.6/wphact21_nc4f_188.6_80.4_21453.xsdst ! RUN = 21453 ! NEVT = 999
FILE = /castor/cern.ch/delphi/MCprod/cern/wphact21/v98e/188.6/wphact21_nc4f_188.6_80.4_21454.xsdst ! RUN = 21454 ! NEVT = 1000
FILE = /castor/cern.ch/delphi/MCprod/cern/wphact21/v98e/188.6/wphact21_nc4f_188.6_80.4_21455.xsdst ! RUN = 21455 ! NEVT = 1000
FILE = /castor/cern.ch/delphi/MCprod/cern/wphact21/v98e/188.6/wphact21_nc4f_188.6_80.4_21456.xsdst ! RUN = 21456 ! NEVT = 1000
FILE = /castor/cern.ch/delphi/MCprod/cern/wphact21/v98e/188.6/wphact21_nc4f_188.6_80.4_21457.xsdst ! RUN = 21457 ! NEVT = 1000
FILE = /castor/cern.ch/delphi/MCprod/cern/wphact21/v98e/188.6/wphact21_nc4f_188.6_80.4_21458.xsdst ! RUN = 21458 ! NEVT = 1000
FILE = /castor/cern.ch/delphi/MCprod/cern/wphact21/v98e/188.6/wphact21_nc4f_188.6_80.4_21459.xsdst ! RUN = 21459 ! NEVT = 1000
FILE = /castor/cern.ch/delphi/MCprod/cern/wphact21/v98e/188.6/wphact21_nc4f_188.6_80.4_21460.xsdst ! RUN = 21460 ! NEVT = 1000
FILE = /castor/cern.ch/delphi/MCprod/cern/wphact21/v98e/188.6/wphact21_nc4f_188.6_80.4_21461.xsdst ! RUN = 21461 ! NEVT = 999
FILE = /castor/cern.ch/delphi/MCprod/cern/wphact21/v98e/188.6/wphact21_nc4f_188.6_80.4_21462.xsdst ! RUN = 21462 ! NEVT = 1000
FILE = /castor/cern.ch/delphi/MCprod/cern/wphact21/v98e/188.6/wphact21_nc4f_188.6_80.4_21463.xsdst ! RUN = 21463 ! NEVT = 1000
FILE = /castor/cern.ch/delphi/MCprod/cern/wphact21/v98e/188.6/wphact21_nc4f_188.6_80.4_21464.xsdst ! RUN = 21464 ! NEVT = 1000
FILE = /castor/cern.ch/delphi/MCprod/cern/wphact21/v98e/188.6/wphact21_nc4f_188.6_80.4_21465.xsdst ! RUN = 21465 ! NEVT = 1000
FILE = /castor/cern.ch/delphi/MCprod/cern/wphact21/v98e/188.6/wphact21_nc4f_188.6_80.4_21466.xsdst ! RUN = 21466 ! NEVT = 998
FILE = /castor/cern.ch/delphi/MCprod/cern/wphact21/v98e/188.6/wphact21_nc4f_188.6_80.4_21467.xsdst ! RUN = 21467 ! NEVT = 999
FILE = /castor/cern.ch/delphi/MCprod/cern/wphact21/v98e/188.6/wphact21_nc4f_188.6_80.4_21468.xsdst ! RUN = 21468 ! NEVT = 1000
FILE = /castor/cern.ch/delphi/MCprod/cern/wphact21/v98e/188.6/wphact21_nc4f_188.6_80.4_21469.xsdst ! RUN = 21469 ! NEVT = 1000
FILE = /castor/cern.ch/delphi/MCprod/cern/wphact21/v98e/188.6/wphact21_nc4f_188.6_80.4_21470.xsdst ! RUN = 21470 ! NEVT = 1000
FILE = /castor/cern.ch/delphi/MCprod/cern/wphact21/v98e/188.6/wphact21_nc4f_188.6_80.4_21471.xsdst ! RUN = 21471 ! NEVT = 1000
FILE = /castor/cern.ch/delphi/MCprod/cern/wphact21/v98e/188.6/wphact21_nc4f_188.6_80.4_21472.xsdst ! RUN = 21472 ! NEVT = 999
FILE = /castor/cern.ch/delphi/MCprod/cern/wphact21/v98e/188.6/wphact21_nc4f_188.6_80.4_21473.xsdst ! RUN = 21473 ! NEVT = 1000
FILE = /castor/cern.ch/delphi/MCprod/cern/wphact21/v98e/188.6/wphact21_nc4f_188.6_80.4_21474.xsdst ! RUN = 21474 ! NEVT = 999
FILE = /castor/cern.ch/delphi/MCprod/cern/wphact21/v98e/188.6/wphact21_nc4f_188.6_80.4_21475.xsdst ! RUN = 21475 ! NEVT = 1000
FILE = /castor/cern.ch/delphi/MCprod/cern/wphact21/v98e/188.6/wphact21_nc4f_188.6_80.4_21476.xsdst ! RUN = 21476 ! NEVT = 1000
FILE = /castor/cern.ch/delphi/MCprod/cern/wphact21/v98e/188.6/wphact21_nc4f_188.6_80.4_21477.xsdst ! RUN = 21477 ! NEVT = 1000
FILE = /castor/cern.ch/delphi/MCprod/cern/wphact21/v98e/188.6/wphact21_nc4f_188.6_80.4_21478.xsdst ! RUN = 21478 ! NEVT = 1000
FILE = /castor/cern.ch/delphi/MCprod/cern/wphact21/v98e/188.6/wphact21_nc4f_188.6_80.4_21479.xsdst ! RUN = 21479 ! NEVT = 1000
FILE = /castor/cern.ch/delphi/MCprod/cern/wphact21/v98e/188.6/wphact21_nc4f_188.6_80.4_21482.xsdst ! RUN = 21482 ! NEVT = 1000
FILE = /castor/cern.ch/delphi/MCprod/cern/wphact21/v98e/188.6/wphact21_nc4f_188.6_80.4_21483.xsdst ! RUN = 21483 ! NEVT = 999
FILE = /castor/cern.ch/delphi/MCprod/cern/wphact21/v98e/188.6/wphact21_nc4f_188.6_80.4_21485.xsdst ! RUN = 21485 ! NEVT = 1000
FILE = /castor/cern.ch/delphi/MCprod/cern/wphact21/v98e/188.6/wphact21_nc4f_188.6_80.4_21486.xsdst ! RUN = 21486 ! NEVT = 1000
FILE = /castor/cern.ch/delphi/MCprod/cern/wphact21/v98e/188.6/wphact21_nc4f_188.6_80.4_21487.xsdst ! RUN = 21487 ! NEVT = 999
FILE = /castor/cern.ch/delphi/MCprod/cern/wphact21/v98e/188.6/wphact21_nc4f_188.6_80.4_21488.xsdst ! RUN = 21488 ! NEVT = 1000
FILE = /castor/cern.ch/delphi/MCprod/cern/wphact21/v98e/188.6/wphact21_nc4f_188.6_80.4_21489.xsdst ! RUN = 21489 ! NEVT = 1000
FILE = /castor/cern.ch/delphi/MCprod/cern/wphact21/v98e/188.6/wphact21_nc4f_188.6_80.4_21490.xsdst ! RUN = 21490 ! NEVT = 1000
FILE = /castor/cern.ch/delphi/MCprod/cern/wphact21/v98e/188.6/wphact21_nc4f_188.6_80.4_21492.xsdst ! RUN = 21492 ! NEVT = 1000
FILE = /castor/cern.ch/delphi/MCprod/cern/wphact21/v98e/188.6/wphact21_nc4f_188.6_80.4_21493.xsdst ! RUN = 21493 ! NEVT = 1000
FILE = /castor/cern.ch/delphi/MCprod/cern/wphact21/v98e/188.6/wphact21_nc4f_188.6_80.4_21494.xsdst ! RUN = 21494 ! NEVT = 1000
FILE = /castor/cern.ch/delphi/MCprod/cern/wphact21/v98e/188.6/wphact21_nc4f_188.6_80.4_21498.xsdst ! RUN = 21498 ! NEVT = 1000
FILE = /castor/cern.ch/delphi/MCprod/cern/wphact21/v98e/188.6/wphact21_nc4f_188.6_80.4_21499.xsdst ! RUN = 21499 ! NEVT = 1000
FILE = /castor/cern.ch/delphi/MCprod/cern/wphact21/v98e/188.6/wphact21_nc4f_188.6_80.4_21500.xsdst ! RUN = 21500 ! NEVT = 999
