*   Nickname :     xs_wphact24cc_e188.6_m80.4_c98_1l_e1
*   Generic Name : //CERN/DELPHI/P02_SIMD/XSDST/WPHACT24CC/E188.6/CERN/SUMT/C001-492
*   Description :   Extended Short DST simulation 98e  done at ecm=188.6 GeV , CERN
*   Comments :     in total 975325 events in 492 files, time stamp: Thu Jul 3 21:14:3 2003
*
*
*
FILE = /castor/cern.ch/delphi/MCprod/cern/wphact24/v98e/188.6/wphact24_cc_188.6_80.4_200501.xsdst ! RUN = 200501 ! NEVT = 1999
FILE = /castor/cern.ch/delphi/MCprod/cern/wphact24/v98e/188.6/wphact24_cc_188.6_80.4_200502.xsdst ! RUN = 200502 ! NEVT = 2000
FILE = /castor/cern.ch/delphi/MCprod/cern/wphact24/v98e/188.6/wphact24_cc_188.6_80.4_200503.xsdst ! RUN = 200503 ! NEVT = 1998
FILE = /castor/cern.ch/delphi/MCprod/cern/wphact24/v98e/188.6/wphact24_cc_188.6_80.4_200504.xsdst ! RUN = 200504 ! NEVT = 1998
FILE = /castor/cern.ch/delphi/MCprod/cern/wphact24/v98e/188.6/wphact24_cc_188.6_80.4_200505.xsdst ! RUN = 200505 ! NEVT = 1998
FILE = /castor/cern.ch/delphi/MCprod/cern/wphact24/v98e/188.6/wphact24_cc_188.6_80.4_200506.xsdst ! RUN = 200506 ! NEVT = 2000
FILE = /castor/cern.ch/delphi/MCprod/cern/wphact24/v98e/188.6/wphact24_cc_188.6_80.4_200507.xsdst ! RUN = 200507 ! NEVT = 2000
FILE = /castor/cern.ch/delphi/MCprod/cern/wphact24/v98e/188.6/wphact24_cc_188.6_80.4_200508.xsdst ! RUN = 200508 ! NEVT = 1999
FILE = /castor/cern.ch/delphi/MCprod/cern/wphact24/v98e/188.6/wphact24_cc_188.6_80.4_200509.xsdst ! RUN = 200509 ! NEVT = 2000
FILE = /castor/cern.ch/delphi/MCprod/cern/wphact24/v98e/188.6/wphact24_cc_188.6_80.4_200510.xsdst ! RUN = 200510 ! NEVT = 1998
FILE = /castor/cern.ch/delphi/MCprod/cern/wphact24/v98e/188.6/wphact24_cc_188.6_80.4_200511.xsdst ! RUN = 200511 ! NEVT = 1999
FILE = /castor/cern.ch/delphi/MCprod/cern/wphact24/v98e/188.6/wphact24_cc_188.6_80.4_200512.xsdst ! RUN = 200512 ! NEVT = 2000
FILE = /castor/cern.ch/delphi/MCprod/cern/wphact24/v98e/188.6/wphact24_cc_188.6_80.4_200513.xsdst ! RUN = 200513 ! NEVT = 1999
FILE = /castor/cern.ch/delphi/MCprod/cern/wphact24/v98e/188.6/wphact24_cc_188.6_80.4_200514.xsdst ! RUN = 200514 ! NEVT = 1999
FILE = /castor/cern.ch/delphi/MCprod/cern/wphact24/v98e/188.6/wphact24_cc_188.6_80.4_200515.xsdst ! RUN = 200515 ! NEVT = 2000
FILE = /castor/cern.ch/delphi/MCprod/cern/wphact24/v98e/188.6/wphact24_cc_188.6_80.4_200516.xsdst ! RUN = 200516 ! NEVT = 2000
FILE = /castor/cern.ch/delphi/MCprod/cern/wphact24/v98e/188.6/wphact24_cc_188.6_80.4_200517.xsdst ! RUN = 200517 ! NEVT = 1998
FILE = /castor/cern.ch/delphi/MCprod/cern/wphact24/v98e/188.6/wphact24_cc_188.6_80.4_200518.xsdst ! RUN = 200518 ! NEVT = 1998
FILE = /castor/cern.ch/delphi/MCprod/cern/wphact24/v98e/188.6/wphact24_cc_188.6_80.4_200519.xsdst ! RUN = 200519 ! NEVT = 2000
FILE = /castor/cern.ch/delphi/MCprod/cern/wphact24/v98e/188.6/wphact24_cc_188.6_80.4_200520.xsdst ! RUN = 200520 ! NEVT = 1998
FILE = /castor/cern.ch/delphi/MCprod/cern/wphact24/v98e/188.6/wphact24_cc_188.6_80.4_200521.xsdst ! RUN = 200521 ! NEVT = 2000
FILE = /castor/cern.ch/delphi/MCprod/cern/wphact24/v98e/188.6/wphact24_cc_188.6_80.4_200522.xsdst ! RUN = 200522 ! NEVT = 2000
FILE = /castor/cern.ch/delphi/MCprod/cern/wphact24/v98e/188.6/wphact24_cc_188.6_80.4_200523.xsdst ! RUN = 200523 ! NEVT = 1998
FILE = /castor/cern.ch/delphi/MCprod/cern/wphact24/v98e/188.6/wphact24_cc_188.6_80.4_200524.xsdst ! RUN = 200524 ! NEVT = 2000
FILE = /castor/cern.ch/delphi/MCprod/cern/wphact24/v98e/188.6/wphact24_cc_188.6_80.4_200525.xsdst ! RUN = 200525 ! NEVT = 2000
FILE = /castor/cern.ch/delphi/MCprod/cern/wphact24/v98e/188.6/wphact24_cc_188.6_80.4_200526.xsdst ! RUN = 200526 ! NEVT = 2000
FILE = /castor/cern.ch/delphi/MCprod/cern/wphact24/v98e/188.6/wphact24_cc_188.6_80.4_200527.xsdst ! RUN = 200527 ! NEVT = 2000
FILE = /castor/cern.ch/delphi/MCprod/cern/wphact24/v98e/188.6/wphact24_cc_188.6_80.4_200528.xsdst ! RUN = 200528 ! NEVT = 1999
FILE = /castor/cern.ch/delphi/MCprod/cern/wphact24/v98e/188.6/wphact24_cc_188.6_80.4_200529.xsdst ! RUN = 200529 ! NEVT = 2000
FILE = /castor/cern.ch/delphi/MCprod/cern/wphact24/v98e/188.6/wphact24_cc_188.6_80.4_200530.xsdst ! RUN = 200530 ! NEVT = 2000
FILE = /castor/cern.ch/delphi/MCprod/cern/wphact24/v98e/188.6/wphact24_cc_188.6_80.4_200531.xsdst ! RUN = 200531 ! NEVT = 1999
FILE = /castor/cern.ch/delphi/MCprod/cern/wphact24/v98e/188.6/wphact24_cc_188.6_80.4_200532.xsdst ! RUN = 200532 ! NEVT = 2000
FILE = /castor/cern.ch/delphi/MCprod/cern/wphact24/v98e/188.6/wphact24_cc_188.6_80.4_200533.xsdst ! RUN = 200533 ! NEVT = 1999
FILE = /castor/cern.ch/delphi/MCprod/cern/wphact24/v98e/188.6/wphact24_cc_188.6_80.4_200534.xsdst ! RUN = 200534 ! NEVT = 1999
FILE = /castor/cern.ch/delphi/MCprod/cern/wphact24/v98e/188.6/wphact24_cc_188.6_80.4_200535.xsdst ! RUN = 200535 ! NEVT = 1998
FILE = /castor/cern.ch/delphi/MCprod/cern/wphact24/v98e/188.6/wphact24_cc_188.6_80.4_200536.xsdst ! RUN = 200536 ! NEVT = 1999
FILE = /castor/cern.ch/delphi/MCprod/cern/wphact24/v98e/188.6/wphact24_cc_188.6_80.4_200537.xsdst ! RUN = 200537 ! NEVT = 2000
FILE = /castor/cern.ch/delphi/MCprod/cern/wphact24/v98e/188.6/wphact24_cc_188.6_80.4_200538.xsdst ! RUN = 200538 ! NEVT = 1999
FILE = /castor/cern.ch/delphi/MCprod/cern/wphact24/v98e/188.6/wphact24_cc_188.6_80.4_200539.xsdst ! RUN = 200539 ! NEVT = 1999
FILE = /castor/cern.ch/delphi/MCprod/cern/wphact24/v98e/188.6/wphact24_cc_188.6_80.4_200540.xsdst ! RUN = 200540 ! NEVT = 2000
FILE = /castor/cern.ch/delphi/MCprod/cern/wphact24/v98e/188.6/wphact24_cc_188.6_80.4_200541.xsdst ! RUN = 200541 ! NEVT = 450
FILE = /castor/cern.ch/delphi/MCprod/cern/wphact24/v98e/188.6/wphact24_cc_188.6_80.4_200542.xsdst ! RUN = 200542 ! NEVT = 2000
FILE = /castor/cern.ch/delphi/MCprod/cern/wphact24/v98e/188.6/wphact24_cc_188.6_80.4_200543.xsdst ! RUN = 200543 ! NEVT = 2000
FILE = /castor/cern.ch/delphi/MCprod/cern/wphact24/v98e/188.6/wphact24_cc_188.6_80.4_200544.xsdst ! RUN = 200544 ! NEVT = 2000
FILE = /castor/cern.ch/delphi/MCprod/cern/wphact24/v98e/188.6/wphact24_cc_188.6_80.4_200545.xsdst ! RUN = 200545 ! NEVT = 1998
FILE = /castor/cern.ch/delphi/MCprod/cern/wphact24/v98e/188.6/wphact24_cc_188.6_80.4_200546.xsdst ! RUN = 200546 ! NEVT = 1999
FILE = /castor/cern.ch/delphi/MCprod/cern/wphact24/v98e/188.6/wphact24_cc_188.6_80.4_200547.xsdst ! RUN = 200547 ! NEVT = 1997
FILE = /castor/cern.ch/delphi/MCprod/cern/wphact24/v98e/188.6/wphact24_cc_188.6_80.4_200548.xsdst ! RUN = 200548 ! NEVT = 1999
FILE = /castor/cern.ch/delphi/MCprod/cern/wphact24/v98e/188.6/wphact24_cc_188.6_80.4_200549.xsdst ! RUN = 200549 ! NEVT = 1999
FILE = /castor/cern.ch/delphi/MCprod/cern/wphact24/v98e/188.6/wphact24_cc_188.6_80.4_200550.xsdst ! RUN = 200550 ! NEVT = 1999
FILE = /castor/cern.ch/delphi/MCprod/cern/wphact24/v98e/188.6/wphact24_cc_188.6_80.4_200551.xsdst ! RUN = 200551 ! NEVT = 2000
FILE = /castor/cern.ch/delphi/MCprod/cern/wphact24/v98e/188.6/wphact24_cc_188.6_80.4_200553.xsdst ! RUN = 200553 ! NEVT = 1998
FILE = /castor/cern.ch/delphi/MCprod/cern/wphact24/v98e/188.6/wphact24_cc_188.6_80.4_200554.xsdst ! RUN = 200554 ! NEVT = 1999
FILE = /castor/cern.ch/delphi/MCprod/cern/wphact24/v98e/188.6/wphact24_cc_188.6_80.4_200555.xsdst ! RUN = 200555 ! NEVT = 2000
FILE = /castor/cern.ch/delphi/MCprod/cern/wphact24/v98e/188.6/wphact24_cc_188.6_80.4_200556.xsdst ! RUN = 200556 ! NEVT = 1999
FILE = /castor/cern.ch/delphi/MCprod/cern/wphact24/v98e/188.6/wphact24_cc_188.6_80.4_200557.xsdst ! RUN = 200557 ! NEVT = 1999
FILE = /castor/cern.ch/delphi/MCprod/cern/wphact24/v98e/188.6/wphact24_cc_188.6_80.4_200558.xsdst ! RUN = 200558 ! NEVT = 1999
FILE = /castor/cern.ch/delphi/MCprod/cern/wphact24/v98e/188.6/wphact24_cc_188.6_80.4_200559.xsdst ! RUN = 200559 ! NEVT = 2000
FILE = /castor/cern.ch/delphi/MCprod/cern/wphact24/v98e/188.6/wphact24_cc_188.6_80.4_200560.xsdst ! RUN = 200560 ! NEVT = 1999
FILE = /castor/cern.ch/delphi/MCprod/cern/wphact24/v98e/188.6/wphact24_cc_188.6_80.4_200561.xsdst ! RUN = 200561 ! NEVT = 2000
FILE = /castor/cern.ch/delphi/MCprod/cern/wphact24/v98e/188.6/wphact24_cc_188.6_80.4_200562.xsdst ! RUN = 200562 ! NEVT = 1998
FILE = /castor/cern.ch/delphi/MCprod/cern/wphact24/v98e/188.6/wphact24_cc_188.6_80.4_200563.xsdst ! RUN = 200563 ! NEVT = 2000
FILE = /castor/cern.ch/delphi/MCprod/cern/wphact24/v98e/188.6/wphact24_cc_188.6_80.4_200564.xsdst ! RUN = 200564 ! NEVT = 2000
FILE = /castor/cern.ch/delphi/MCprod/cern/wphact24/v98e/188.6/wphact24_cc_188.6_80.4_200565.xsdst ! RUN = 200565 ! NEVT = 1999
FILE = /castor/cern.ch/delphi/MCprod/cern/wphact24/v98e/188.6/wphact24_cc_188.6_80.4_200566.xsdst ! RUN = 200566 ! NEVT = 2000
FILE = /castor/cern.ch/delphi/MCprod/cern/wphact24/v98e/188.6/wphact24_cc_188.6_80.4_200567.xsdst ! RUN = 200567 ! NEVT = 1999
FILE = /castor/cern.ch/delphi/MCprod/cern/wphact24/v98e/188.6/wphact24_cc_188.6_80.4_200568.xsdst ! RUN = 200568 ! NEVT = 2000
FILE = /castor/cern.ch/delphi/MCprod/cern/wphact24/v98e/188.6/wphact24_cc_188.6_80.4_200569.xsdst ! RUN = 200569 ! NEVT = 1998
FILE = /castor/cern.ch/delphi/MCprod/cern/wphact24/v98e/188.6/wphact24_cc_188.6_80.4_200570.xsdst ! RUN = 200570 ! NEVT = 2000
FILE = /castor/cern.ch/delphi/MCprod/cern/wphact24/v98e/188.6/wphact24_cc_188.6_80.4_200571.xsdst ! RUN = 200571 ! NEVT = 1999
FILE = /castor/cern.ch/delphi/MCprod/cern/wphact24/v98e/188.6/wphact24_cc_188.6_80.4_200572.xsdst ! RUN = 200572 ! NEVT = 1999
FILE = /castor/cern.ch/delphi/MCprod/cern/wphact24/v98e/188.6/wphact24_cc_188.6_80.4_200573.xsdst ! RUN = 200573 ! NEVT = 1999
FILE = /castor/cern.ch/delphi/MCprod/cern/wphact24/v98e/188.6/wphact24_cc_188.6_80.4_200574.xsdst ! RUN = 200574 ! NEVT = 2000
FILE = /castor/cern.ch/delphi/MCprod/cern/wphact24/v98e/188.6/wphact24_cc_188.6_80.4_200575.xsdst ! RUN = 200575 ! NEVT = 1999
FILE = /castor/cern.ch/delphi/MCprod/cern/wphact24/v98e/188.6/wphact24_cc_188.6_80.4_200576.xsdst ! RUN = 200576 ! NEVT = 2000
FILE = /castor/cern.ch/delphi/MCprod/cern/wphact24/v98e/188.6/wphact24_cc_188.6_80.4_200577.xsdst ! RUN = 200577 ! NEVT = 2000
FILE = /castor/cern.ch/delphi/MCprod/cern/wphact24/v98e/188.6/wphact24_cc_188.6_80.4_200578.xsdst ! RUN = 200578 ! NEVT = 1999
FILE = /castor/cern.ch/delphi/MCprod/cern/wphact24/v98e/188.6/wphact24_cc_188.6_80.4_200579.xsdst ! RUN = 200579 ! NEVT = 2000
FILE = /castor/cern.ch/delphi/MCprod/cern/wphact24/v98e/188.6/wphact24_cc_188.6_80.4_200580.xsdst ! RUN = 200580 ! NEVT = 1874
FILE = /castor/cern.ch/delphi/MCprod/cern/wphact24/v98e/188.6/wphact24_cc_188.6_80.4_200581.xsdst ! RUN = 200581 ! NEVT = 1999
FILE = /castor/cern.ch/delphi/MCprod/cern/wphact24/v98e/188.6/wphact24_cc_188.6_80.4_200582.xsdst ! RUN = 200582 ! NEVT = 2000
FILE = /castor/cern.ch/delphi/MCprod/cern/wphact24/v98e/188.6/wphact24_cc_188.6_80.4_200583.xsdst ! RUN = 200583 ! NEVT = 1999
FILE = /castor/cern.ch/delphi/MCprod/cern/wphact24/v98e/188.6/wphact24_cc_188.6_80.4_200584.xsdst ! RUN = 200584 ! NEVT = 2000
FILE = /castor/cern.ch/delphi/MCprod/cern/wphact24/v98e/188.6/wphact24_cc_188.6_80.4_200585.xsdst ! RUN = 200585 ! NEVT = 2000
FILE = /castor/cern.ch/delphi/MCprod/cern/wphact24/v98e/188.6/wphact24_cc_188.6_80.4_200586.xsdst ! RUN = 200586 ! NEVT = 1999
FILE = /castor/cern.ch/delphi/MCprod/cern/wphact24/v98e/188.6/wphact24_cc_188.6_80.4_200587.xsdst ! RUN = 200587 ! NEVT = 1999
FILE = /castor/cern.ch/delphi/MCprod/cern/wphact24/v98e/188.6/wphact24_cc_188.6_80.4_200588.xsdst ! RUN = 200588 ! NEVT = 2000
FILE = /castor/cern.ch/delphi/MCprod/cern/wphact24/v98e/188.6/wphact24_cc_188.6_80.4_200589.xsdst ! RUN = 200589 ! NEVT = 1999
FILE = /castor/cern.ch/delphi/MCprod/cern/wphact24/v98e/188.6/wphact24_cc_188.6_80.4_200590.xsdst ! RUN = 200590 ! NEVT = 2000
FILE = /castor/cern.ch/delphi/MCprod/cern/wphact24/v98e/188.6/wphact24_cc_188.6_80.4_200591.xsdst ! RUN = 200591 ! NEVT = 1999
FILE = /castor/cern.ch/delphi/MCprod/cern/wphact24/v98e/188.6/wphact24_cc_188.6_80.4_200592.xsdst ! RUN = 200592 ! NEVT = 2000
FILE = /castor/cern.ch/delphi/MCprod/cern/wphact24/v98e/188.6/wphact24_cc_188.6_80.4_200593.xsdst ! RUN = 200593 ! NEVT = 1999
FILE = /castor/cern.ch/delphi/MCprod/cern/wphact24/v98e/188.6/wphact24_cc_188.6_80.4_200594.xsdst ! RUN = 200594 ! NEVT = 1999
FILE = /castor/cern.ch/delphi/MCprod/cern/wphact24/v98e/188.6/wphact24_cc_188.6_80.4_200595.xsdst ! RUN = 200595 ! NEVT = 1999
FILE = /castor/cern.ch/delphi/MCprod/cern/wphact24/v98e/188.6/wphact24_cc_188.6_80.4_200596.xsdst ! RUN = 200596 ! NEVT = 1999
FILE = /castor/cern.ch/delphi/MCprod/cern/wphact24/v98e/188.6/wphact24_cc_188.6_80.4_200598.xsdst ! RUN = 200598 ! NEVT = 1999
FILE = /castor/cern.ch/delphi/MCprod/cern/wphact24/v98e/188.6/wphact24_cc_188.6_80.4_200599.xsdst ! RUN = 200599 ! NEVT = 1999
FILE = /castor/cern.ch/delphi/MCprod/cern/wphact24/v98e/188.6/wphact24_cc_188.6_80.4_200600.xsdst ! RUN = 200600 ! NEVT = 2000
FILE = /castor/cern.ch/delphi/MCprod/cern/wphact24/v98e/188.6/wphact24_cc_188.6_80.4_200601.xsdst ! RUN = 200601 ! NEVT = 1998
FILE = /castor/cern.ch/delphi/MCprod/cern/wphact24/v98e/188.6/wphact24_cc_188.6_80.4_200602.xsdst ! RUN = 200602 ! NEVT = 2000
FILE = /castor/cern.ch/delphi/MCprod/cern/wphact24/v98e/188.6/wphact24_cc_188.6_80.4_200603.xsdst ! RUN = 200603 ! NEVT = 2000
FILE = /castor/cern.ch/delphi/MCprod/cern/wphact24/v98e/188.6/wphact24_cc_188.6_80.4_200604.xsdst ! RUN = 200604 ! NEVT = 1999
FILE = /castor/cern.ch/delphi/MCprod/cern/wphact24/v98e/188.6/wphact24_cc_188.6_80.4_200605.xsdst ! RUN = 200605 ! NEVT = 2000
FILE = /castor/cern.ch/delphi/MCprod/cern/wphact24/v98e/188.6/wphact24_cc_188.6_80.4_200606.xsdst ! RUN = 200606 ! NEVT = 2000
FILE = /castor/cern.ch/delphi/MCprod/cern/wphact24/v98e/188.6/wphact24_cc_188.6_80.4_200607.xsdst ! RUN = 200607 ! NEVT = 2000
FILE = /castor/cern.ch/delphi/MCprod/cern/wphact24/v98e/188.6/wphact24_cc_188.6_80.4_200608.xsdst ! RUN = 200608 ! NEVT = 2000
FILE = /castor/cern.ch/delphi/MCprod/cern/wphact24/v98e/188.6/wphact24_cc_188.6_80.4_200609.xsdst ! RUN = 200609 ! NEVT = 2000
FILE = /castor/cern.ch/delphi/MCprod/cern/wphact24/v98e/188.6/wphact24_cc_188.6_80.4_200610.xsdst ! RUN = 200610 ! NEVT = 1999
FILE = /castor/cern.ch/delphi/MCprod/cern/wphact24/v98e/188.6/wphact24_cc_188.6_80.4_200611.xsdst ! RUN = 200611 ! NEVT = 1999
FILE = /castor/cern.ch/delphi/MCprod/cern/wphact24/v98e/188.6/wphact24_cc_188.6_80.4_200612.xsdst ! RUN = 200612 ! NEVT = 1998
FILE = /castor/cern.ch/delphi/MCprod/cern/wphact24/v98e/188.6/wphact24_cc_188.6_80.4_200613.xsdst ! RUN = 200613 ! NEVT = 2000
FILE = /castor/cern.ch/delphi/MCprod/cern/wphact24/v98e/188.6/wphact24_cc_188.6_80.4_200614.xsdst ! RUN = 200614 ! NEVT = 2000
FILE = /castor/cern.ch/delphi/MCprod/cern/wphact24/v98e/188.6/wphact24_cc_188.6_80.4_200615.xsdst ! RUN = 200615 ! NEVT = 2000
FILE = /castor/cern.ch/delphi/MCprod/cern/wphact24/v98e/188.6/wphact24_cc_188.6_80.4_200616.xsdst ! RUN = 200616 ! NEVT = 1999
FILE = /castor/cern.ch/delphi/MCprod/cern/wphact24/v98e/188.6/wphact24_cc_188.6_80.4_200617.xsdst ! RUN = 200617 ! NEVT = 1997
FILE = /castor/cern.ch/delphi/MCprod/cern/wphact24/v98e/188.6/wphact24_cc_188.6_80.4_200618.xsdst ! RUN = 200618 ! NEVT = 1998
FILE = /castor/cern.ch/delphi/MCprod/cern/wphact24/v98e/188.6/wphact24_cc_188.6_80.4_200619.xsdst ! RUN = 200619 ! NEVT = 2000
FILE = /castor/cern.ch/delphi/MCprod/cern/wphact24/v98e/188.6/wphact24_cc_188.6_80.4_200620.xsdst ! RUN = 200620 ! NEVT = 1999
FILE = /castor/cern.ch/delphi/MCprod/cern/wphact24/v98e/188.6/wphact24_cc_188.6_80.4_200621.xsdst ! RUN = 200621 ! NEVT = 2000
FILE = /castor/cern.ch/delphi/MCprod/cern/wphact24/v98e/188.6/wphact24_cc_188.6_80.4_200622.xsdst ! RUN = 200622 ! NEVT = 1998
FILE = /castor/cern.ch/delphi/MCprod/cern/wphact24/v98e/188.6/wphact24_cc_188.6_80.4_200623.xsdst ! RUN = 200623 ! NEVT = 976
FILE = /castor/cern.ch/delphi/MCprod/cern/wphact24/v98e/188.6/wphact24_cc_188.6_80.4_200624.xsdst ! RUN = 200624 ! NEVT = 2000
FILE = /castor/cern.ch/delphi/MCprod/cern/wphact24/v98e/188.6/wphact24_cc_188.6_80.4_200625.xsdst ! RUN = 200625 ! NEVT = 2000
FILE = /castor/cern.ch/delphi/MCprod/cern/wphact24/v98e/188.6/wphact24_cc_188.6_80.4_200626.xsdst ! RUN = 200626 ! NEVT = 2000
FILE = /castor/cern.ch/delphi/MCprod/cern/wphact24/v98e/188.6/wphact24_cc_188.6_80.4_200627.xsdst ! RUN = 200627 ! NEVT = 2000
FILE = /castor/cern.ch/delphi/MCprod/cern/wphact24/v98e/188.6/wphact24_cc_188.6_80.4_200628.xsdst ! RUN = 200628 ! NEVT = 2000
FILE = /castor/cern.ch/delphi/MCprod/cern/wphact24/v98e/188.6/wphact24_cc_188.6_80.4_200629.xsdst ! RUN = 200629 ! NEVT = 1999
FILE = /castor/cern.ch/delphi/MCprod/cern/wphact24/v98e/188.6/wphact24_cc_188.6_80.4_200630.xsdst ! RUN = 200630 ! NEVT = 1999
FILE = /castor/cern.ch/delphi/MCprod/cern/wphact24/v98e/188.6/wphact24_cc_188.6_80.4_200631.xsdst ! RUN = 200631 ! NEVT = 2000
FILE = /castor/cern.ch/delphi/MCprod/cern/wphact24/v98e/188.6/wphact24_cc_188.6_80.4_200632.xsdst ! RUN = 200632 ! NEVT = 1999
FILE = /castor/cern.ch/delphi/MCprod/cern/wphact24/v98e/188.6/wphact24_cc_188.6_80.4_200633.xsdst ! RUN = 200633 ! NEVT = 1997
FILE = /castor/cern.ch/delphi/MCprod/cern/wphact24/v98e/188.6/wphact24_cc_188.6_80.4_200634.xsdst ! RUN = 200634 ! NEVT = 1998
FILE = /castor/cern.ch/delphi/MCprod/cern/wphact24/v98e/188.6/wphact24_cc_188.6_80.4_200635.xsdst ! RUN = 200635 ! NEVT = 1999
FILE = /castor/cern.ch/delphi/MCprod/cern/wphact24/v98e/188.6/wphact24_cc_188.6_80.4_200636.xsdst ! RUN = 200636 ! NEVT = 2000
FILE = /castor/cern.ch/delphi/MCprod/cern/wphact24/v98e/188.6/wphact24_cc_188.6_80.4_200637.xsdst ! RUN = 200637 ! NEVT = 2000
FILE = /castor/cern.ch/delphi/MCprod/cern/wphact24/v98e/188.6/wphact24_cc_188.6_80.4_200638.xsdst ! RUN = 200638 ! NEVT = 2000
FILE = /castor/cern.ch/delphi/MCprod/cern/wphact24/v98e/188.6/wphact24_cc_188.6_80.4_200639.xsdst ! RUN = 200639 ! NEVT = 1998
FILE = /castor/cern.ch/delphi/MCprod/cern/wphact24/v98e/188.6/wphact24_cc_188.6_80.4_200640.xsdst ! RUN = 200640 ! NEVT = 1995
FILE = /castor/cern.ch/delphi/MCprod/cern/wphact24/v98e/188.6/wphact24_cc_188.6_80.4_200641.xsdst ! RUN = 200641 ! NEVT = 2000
FILE = /castor/cern.ch/delphi/MCprod/cern/wphact24/v98e/188.6/wphact24_cc_188.6_80.4_200642.xsdst ! RUN = 200642 ! NEVT = 1999
FILE = /castor/cern.ch/delphi/MCprod/cern/wphact24/v98e/188.6/wphact24_cc_188.6_80.4_200643.xsdst ! RUN = 200643 ! NEVT = 1999
FILE = /castor/cern.ch/delphi/MCprod/cern/wphact24/v98e/188.6/wphact24_cc_188.6_80.4_200644.xsdst ! RUN = 200644 ! NEVT = 2000
FILE = /castor/cern.ch/delphi/MCprod/cern/wphact24/v98e/188.6/wphact24_cc_188.6_80.4_200645.xsdst ! RUN = 200645 ! NEVT = 1999
FILE = /castor/cern.ch/delphi/MCprod/cern/wphact24/v98e/188.6/wphact24_cc_188.6_80.4_200646.xsdst ! RUN = 200646 ! NEVT = 1999
FILE = /castor/cern.ch/delphi/MCprod/cern/wphact24/v98e/188.6/wphact24_cc_188.6_80.4_200647.xsdst ! RUN = 200647 ! NEVT = 1999
FILE = /castor/cern.ch/delphi/MCprod/cern/wphact24/v98e/188.6/wphact24_cc_188.6_80.4_200648.xsdst ! RUN = 200648 ! NEVT = 2000
FILE = /castor/cern.ch/delphi/MCprod/cern/wphact24/v98e/188.6/wphact24_cc_188.6_80.4_200649.xsdst ! RUN = 200649 ! NEVT = 2000
FILE = /castor/cern.ch/delphi/MCprod/cern/wphact24/v98e/188.6/wphact24_cc_188.6_80.4_200650.xsdst ! RUN = 200650 ! NEVT = 1999
FILE = /castor/cern.ch/delphi/MCprod/cern/wphact24/v98e/188.6/wphact24_cc_188.6_80.4_200651.xsdst ! RUN = 200651 ! NEVT = 2000
FILE = /castor/cern.ch/delphi/MCprod/cern/wphact24/v98e/188.6/wphact24_cc_188.6_80.4_200652.xsdst ! RUN = 200652 ! NEVT = 1998
FILE = /castor/cern.ch/delphi/MCprod/cern/wphact24/v98e/188.6/wphact24_cc_188.6_80.4_200653.xsdst ! RUN = 200653 ! NEVT = 1999
FILE = /castor/cern.ch/delphi/MCprod/cern/wphact24/v98e/188.6/wphact24_cc_188.6_80.4_200654.xsdst ! RUN = 200654 ! NEVT = 1998
FILE = /castor/cern.ch/delphi/MCprod/cern/wphact24/v98e/188.6/wphact24_cc_188.6_80.4_200655.xsdst ! RUN = 200655 ! NEVT = 2000
FILE = /castor/cern.ch/delphi/MCprod/cern/wphact24/v98e/188.6/wphact24_cc_188.6_80.4_200656.xsdst ! RUN = 200656 ! NEVT = 2000
FILE = /castor/cern.ch/delphi/MCprod/cern/wphact24/v98e/188.6/wphact24_cc_188.6_80.4_200657.xsdst ! RUN = 200657 ! NEVT = 1999
FILE = /castor/cern.ch/delphi/MCprod/cern/wphact24/v98e/188.6/wphact24_cc_188.6_80.4_200658.xsdst ! RUN = 200658 ! NEVT = 1999
FILE = /castor/cern.ch/delphi/MCprod/cern/wphact24/v98e/188.6/wphact24_cc_188.6_80.4_200659.xsdst ! RUN = 200659 ! NEVT = 1999
FILE = /castor/cern.ch/delphi/MCprod/cern/wphact24/v98e/188.6/wphact24_cc_188.6_80.4_200660.xsdst ! RUN = 200660 ! NEVT = 2000
FILE = /castor/cern.ch/delphi/MCprod/cern/wphact24/v98e/188.6/wphact24_cc_188.6_80.4_200661.xsdst ! RUN = 200661 ! NEVT = 1998
FILE = /castor/cern.ch/delphi/MCprod/cern/wphact24/v98e/188.6/wphact24_cc_188.6_80.4_200662.xsdst ! RUN = 200662 ! NEVT = 2000
FILE = /castor/cern.ch/delphi/MCprod/cern/wphact24/v98e/188.6/wphact24_cc_188.6_80.4_200663.xsdst ! RUN = 200663 ! NEVT = 2000
FILE = /castor/cern.ch/delphi/MCprod/cern/wphact24/v98e/188.6/wphact24_cc_188.6_80.4_200664.xsdst ! RUN = 200664 ! NEVT = 2000
FILE = /castor/cern.ch/delphi/MCprod/cern/wphact24/v98e/188.6/wphact24_cc_188.6_80.4_200665.xsdst ! RUN = 200665 ! NEVT = 2000
FILE = /castor/cern.ch/delphi/MCprod/cern/wphact24/v98e/188.6/wphact24_cc_188.6_80.4_200666.xsdst ! RUN = 200666 ! NEVT = 1999
FILE = /castor/cern.ch/delphi/MCprod/cern/wphact24/v98e/188.6/wphact24_cc_188.6_80.4_200667.xsdst ! RUN = 200667 ! NEVT = 1999
FILE = /castor/cern.ch/delphi/MCprod/cern/wphact24/v98e/188.6/wphact24_cc_188.6_80.4_200668.xsdst ! RUN = 200668 ! NEVT = 1999
FILE = /castor/cern.ch/delphi/MCprod/cern/wphact24/v98e/188.6/wphact24_cc_188.6_80.4_200669.xsdst ! RUN = 200669 ! NEVT = 2000
FILE = /castor/cern.ch/delphi/MCprod/cern/wphact24/v98e/188.6/wphact24_cc_188.6_80.4_200670.xsdst ! RUN = 200670 ! NEVT = 1999
FILE = /castor/cern.ch/delphi/MCprod/cern/wphact24/v98e/188.6/wphact24_cc_188.6_80.4_200671.xsdst ! RUN = 200671 ! NEVT = 2000
FILE = /castor/cern.ch/delphi/MCprod/cern/wphact24/v98e/188.6/wphact24_cc_188.6_80.4_200672.xsdst ! RUN = 200672 ! NEVT = 2000
FILE = /castor/cern.ch/delphi/MCprod/cern/wphact24/v98e/188.6/wphact24_cc_188.6_80.4_200673.xsdst ! RUN = 200673 ! NEVT = 1996
FILE = /castor/cern.ch/delphi/MCprod/cern/wphact24/v98e/188.6/wphact24_cc_188.6_80.4_200674.xsdst ! RUN = 200674 ! NEVT = 1999
FILE = /castor/cern.ch/delphi/MCprod/cern/wphact24/v98e/188.6/wphact24_cc_188.6_80.4_200675.xsdst ! RUN = 200675 ! NEVT = 2000
FILE = /castor/cern.ch/delphi/MCprod/cern/wphact24/v98e/188.6/wphact24_cc_188.6_80.4_200676.xsdst ! RUN = 200676 ! NEVT = 1999
FILE = /castor/cern.ch/delphi/MCprod/cern/wphact24/v98e/188.6/wphact24_cc_188.6_80.4_200677.xsdst ! RUN = 200677 ! NEVT = 1999
FILE = /castor/cern.ch/delphi/MCprod/cern/wphact24/v98e/188.6/wphact24_cc_188.6_80.4_200678.xsdst ! RUN = 200678 ! NEVT = 2000
FILE = /castor/cern.ch/delphi/MCprod/cern/wphact24/v98e/188.6/wphact24_cc_188.6_80.4_200679.xsdst ! RUN = 200679 ! NEVT = 1999
FILE = /castor/cern.ch/delphi/MCprod/cern/wphact24/v98e/188.6/wphact24_cc_188.6_80.4_200680.xsdst ! RUN = 200680 ! NEVT = 1999
FILE = /castor/cern.ch/delphi/MCprod/cern/wphact24/v98e/188.6/wphact24_cc_188.6_80.4_200681.xsdst ! RUN = 200681 ! NEVT = 1997
FILE = /castor/cern.ch/delphi/MCprod/cern/wphact24/v98e/188.6/wphact24_cc_188.6_80.4_200682.xsdst ! RUN = 200682 ! NEVT = 1998
FILE = /castor/cern.ch/delphi/MCprod/cern/wphact24/v98e/188.6/wphact24_cc_188.6_80.4_200683.xsdst ! RUN = 200683 ! NEVT = 1999
FILE = /castor/cern.ch/delphi/MCprod/cern/wphact24/v98e/188.6/wphact24_cc_188.6_80.4_200684.xsdst ! RUN = 200684 ! NEVT = 1998
FILE = /castor/cern.ch/delphi/MCprod/cern/wphact24/v98e/188.6/wphact24_cc_188.6_80.4_200685.xsdst ! RUN = 200685 ! NEVT = 2000
FILE = /castor/cern.ch/delphi/MCprod/cern/wphact24/v98e/188.6/wphact24_cc_188.6_80.4_200686.xsdst ! RUN = 200686 ! NEVT = 2000
FILE = /castor/cern.ch/delphi/MCprod/cern/wphact24/v98e/188.6/wphact24_cc_188.6_80.4_200687.xsdst ! RUN = 200687 ! NEVT = 2000
FILE = /castor/cern.ch/delphi/MCprod/cern/wphact24/v98e/188.6/wphact24_cc_188.6_80.4_200688.xsdst ! RUN = 200688 ! NEVT = 2000
FILE = /castor/cern.ch/delphi/MCprod/cern/wphact24/v98e/188.6/wphact24_cc_188.6_80.4_200689.xsdst ! RUN = 200689 ! NEVT = 2000
FILE = /castor/cern.ch/delphi/MCprod/cern/wphact24/v98e/188.6/wphact24_cc_188.6_80.4_200690.xsdst ! RUN = 200690 ! NEVT = 1984
FILE = /castor/cern.ch/delphi/MCprod/cern/wphact24/v98e/188.6/wphact24_cc_188.6_80.4_200691.xsdst ! RUN = 200691 ! NEVT = 2000
FILE = /castor/cern.ch/delphi/MCprod/cern/wphact24/v98e/188.6/wphact24_cc_188.6_80.4_200692.xsdst ! RUN = 200692 ! NEVT = 2000
FILE = /castor/cern.ch/delphi/MCprod/cern/wphact24/v98e/188.6/wphact24_cc_188.6_80.4_200693.xsdst ! RUN = 200693 ! NEVT = 2000
FILE = /castor/cern.ch/delphi/MCprod/cern/wphact24/v98e/188.6/wphact24_cc_188.6_80.4_200694.xsdst ! RUN = 200694 ! NEVT = 2000
FILE = /castor/cern.ch/delphi/MCprod/cern/wphact24/v98e/188.6/wphact24_cc_188.6_80.4_200695.xsdst ! RUN = 200695 ! NEVT = 1999
FILE = /castor/cern.ch/delphi/MCprod/cern/wphact24/v98e/188.6/wphact24_cc_188.6_80.4_200696.xsdst ! RUN = 200696 ! NEVT = 2000
FILE = /castor/cern.ch/delphi/MCprod/cern/wphact24/v98e/188.6/wphact24_cc_188.6_80.4_200697.xsdst ! RUN = 200697 ! NEVT = 2000
FILE = /castor/cern.ch/delphi/MCprod/cern/wphact24/v98e/188.6/wphact24_cc_188.6_80.4_200698.xsdst ! RUN = 200698 ! NEVT = 1999
FILE = /castor/cern.ch/delphi/MCprod/cern/wphact24/v98e/188.6/wphact24_cc_188.6_80.4_200699.xsdst ! RUN = 200699 ! NEVT = 1999
FILE = /castor/cern.ch/delphi/MCprod/cern/wphact24/v98e/188.6/wphact24_cc_188.6_80.4_200700.xsdst ! RUN = 200700 ! NEVT = 2000
FILE = /castor/cern.ch/delphi/MCprod/cern/wphact24/v98e/188.6/wphact24_cc_188.6_80.4_200701.xsdst ! RUN = 200701 ! NEVT = 2000
FILE = /castor/cern.ch/delphi/MCprod/cern/wphact24/v98e/188.6/wphact24_cc_188.6_80.4_200702.xsdst ! RUN = 200702 ! NEVT = 2000
FILE = /castor/cern.ch/delphi/MCprod/cern/wphact24/v98e/188.6/wphact24_cc_188.6_80.4_200703.xsdst ! RUN = 200703 ! NEVT = 2000
FILE = /castor/cern.ch/delphi/MCprod/cern/wphact24/v98e/188.6/wphact24_cc_188.6_80.4_200704.xsdst ! RUN = 200704 ! NEVT = 2000
FILE = /castor/cern.ch/delphi/MCprod/cern/wphact24/v98e/188.6/wphact24_cc_188.6_80.4_200705.xsdst ! RUN = 200705 ! NEVT = 2000
FILE = /castor/cern.ch/delphi/MCprod/cern/wphact24/v98e/188.6/wphact24_cc_188.6_80.4_200706.xsdst ! RUN = 200706 ! NEVT = 1999
FILE = /castor/cern.ch/delphi/MCprod/cern/wphact24/v98e/188.6/wphact24_cc_188.6_80.4_200707.xsdst ! RUN = 200707 ! NEVT = 2000
FILE = /castor/cern.ch/delphi/MCprod/cern/wphact24/v98e/188.6/wphact24_cc_188.6_80.4_200708.xsdst ! RUN = 200708 ! NEVT = 1999
FILE = /castor/cern.ch/delphi/MCprod/cern/wphact24/v98e/188.6/wphact24_cc_188.6_80.4_200709.xsdst ! RUN = 200709 ! NEVT = 2000
FILE = /castor/cern.ch/delphi/MCprod/cern/wphact24/v98e/188.6/wphact24_cc_188.6_80.4_200710.xsdst ! RUN = 200710 ! NEVT = 1997
FILE = /castor/cern.ch/delphi/MCprod/cern/wphact24/v98e/188.6/wphact24_cc_188.6_80.4_200711.xsdst ! RUN = 200711 ! NEVT = 2000
FILE = /castor/cern.ch/delphi/MCprod/cern/wphact24/v98e/188.6/wphact24_cc_188.6_80.4_200712.xsdst ! RUN = 200712 ! NEVT = 1999
FILE = /castor/cern.ch/delphi/MCprod/cern/wphact24/v98e/188.6/wphact24_cc_188.6_80.4_200713.xsdst ! RUN = 200713 ! NEVT = 1998
FILE = /castor/cern.ch/delphi/MCprod/cern/wphact24/v98e/188.6/wphact24_cc_188.6_80.4_200714.xsdst ! RUN = 200714 ! NEVT = 1999
FILE = /castor/cern.ch/delphi/MCprod/cern/wphact24/v98e/188.6/wphact24_cc_188.6_80.4_200715.xsdst ! RUN = 200715 ! NEVT = 2000
FILE = /castor/cern.ch/delphi/MCprod/cern/wphact24/v98e/188.6/wphact24_cc_188.6_80.4_200716.xsdst ! RUN = 200716 ! NEVT = 2000
FILE = /castor/cern.ch/delphi/MCprod/cern/wphact24/v98e/188.6/wphact24_cc_188.6_80.4_200717.xsdst ! RUN = 200717 ! NEVT = 1998
FILE = /castor/cern.ch/delphi/MCprod/cern/wphact24/v98e/188.6/wphact24_cc_188.6_80.4_200718.xsdst ! RUN = 200718 ! NEVT = 1999
FILE = /castor/cern.ch/delphi/MCprod/cern/wphact24/v98e/188.6/wphact24_cc_188.6_80.4_200720.xsdst ! RUN = 200720 ! NEVT = 2000
FILE = /castor/cern.ch/delphi/MCprod/cern/wphact24/v98e/188.6/wphact24_cc_188.6_80.4_200721.xsdst ! RUN = 200721 ! NEVT = 1999
FILE = /castor/cern.ch/delphi/MCprod/cern/wphact24/v98e/188.6/wphact24_cc_188.6_80.4_200722.xsdst ! RUN = 200722 ! NEVT = 2000
FILE = /castor/cern.ch/delphi/MCprod/cern/wphact24/v98e/188.6/wphact24_cc_188.6_80.4_200723.xsdst ! RUN = 200723 ! NEVT = 1998
FILE = /castor/cern.ch/delphi/MCprod/cern/wphact24/v98e/188.6/wphact24_cc_188.6_80.4_200724.xsdst ! RUN = 200724 ! NEVT = 2000
FILE = /castor/cern.ch/delphi/MCprod/cern/wphact24/v98e/188.6/wphact24_cc_188.6_80.4_200725.xsdst ! RUN = 200725 ! NEVT = 1999
FILE = /castor/cern.ch/delphi/MCprod/cern/wphact24/v98e/188.6/wphact24_cc_188.6_80.4_200726.xsdst ! RUN = 200726 ! NEVT = 2000
FILE = /castor/cern.ch/delphi/MCprod/cern/wphact24/v98e/188.6/wphact24_cc_188.6_80.4_200727.xsdst ! RUN = 200727 ! NEVT = 1999
FILE = /castor/cern.ch/delphi/MCprod/cern/wphact24/v98e/188.6/wphact24_cc_188.6_80.4_200728.xsdst ! RUN = 200728 ! NEVT = 1998
FILE = /castor/cern.ch/delphi/MCprod/cern/wphact24/v98e/188.6/wphact24_cc_188.6_80.4_200729.xsdst ! RUN = 200729 ! NEVT = 1999
FILE = /castor/cern.ch/delphi/MCprod/cern/wphact24/v98e/188.6/wphact24_cc_188.6_80.4_200730.xsdst ! RUN = 200730 ! NEVT = 2000
FILE = /castor/cern.ch/delphi/MCprod/cern/wphact24/v98e/188.6/wphact24_cc_188.6_80.4_200731.xsdst ! RUN = 200731 ! NEVT = 1998
FILE = /castor/cern.ch/delphi/MCprod/cern/wphact24/v98e/188.6/wphact24_cc_188.6_80.4_200732.xsdst ! RUN = 200732 ! NEVT = 1999
FILE = /castor/cern.ch/delphi/MCprod/cern/wphact24/v98e/188.6/wphact24_cc_188.6_80.4_200733.xsdst ! RUN = 200733 ! NEVT = 2000
FILE = /castor/cern.ch/delphi/MCprod/cern/wphact24/v98e/188.6/wphact24_cc_188.6_80.4_200734.xsdst ! RUN = 200734 ! NEVT = 2000
FILE = /castor/cern.ch/delphi/MCprod/cern/wphact24/v98e/188.6/wphact24_cc_188.6_80.4_200735.xsdst ! RUN = 200735 ! NEVT = 1998
FILE = /castor/cern.ch/delphi/MCprod/cern/wphact24/v98e/188.6/wphact24_cc_188.6_80.4_200736.xsdst ! RUN = 200736 ! NEVT = 1999
FILE = /castor/cern.ch/delphi/MCprod/cern/wphact24/v98e/188.6/wphact24_cc_188.6_80.4_200737.xsdst ! RUN = 200737 ! NEVT = 2000
FILE = /castor/cern.ch/delphi/MCprod/cern/wphact24/v98e/188.6/wphact24_cc_188.6_80.4_200738.xsdst ! RUN = 200738 ! NEVT = 2000
FILE = /castor/cern.ch/delphi/MCprod/cern/wphact24/v98e/188.6/wphact24_cc_188.6_80.4_200739.xsdst ! RUN = 200739 ! NEVT = 1886
FILE = /castor/cern.ch/delphi/MCprod/cern/wphact24/v98e/188.6/wphact24_cc_188.6_80.4_200740.xsdst ! RUN = 200740 ! NEVT = 1999
FILE = /castor/cern.ch/delphi/MCprod/cern/wphact24/v98e/188.6/wphact24_cc_188.6_80.4_200741.xsdst ! RUN = 200741 ! NEVT = 2000
FILE = /castor/cern.ch/delphi/MCprod/cern/wphact24/v98e/188.6/wphact24_cc_188.6_80.4_200742.xsdst ! RUN = 200742 ! NEVT = 2000
FILE = /castor/cern.ch/delphi/MCprod/cern/wphact24/v98e/188.6/wphact24_cc_188.6_80.4_200743.xsdst ! RUN = 200743 ! NEVT = 2000
FILE = /castor/cern.ch/delphi/MCprod/cern/wphact24/v98e/188.6/wphact24_cc_188.6_80.4_200744.xsdst ! RUN = 200744 ! NEVT = 1999
FILE = /castor/cern.ch/delphi/MCprod/cern/wphact24/v98e/188.6/wphact24_cc_188.6_80.4_200745.xsdst ! RUN = 200745 ! NEVT = 1997
FILE = /castor/cern.ch/delphi/MCprod/cern/wphact24/v98e/188.6/wphact24_cc_188.6_80.4_200746.xsdst ! RUN = 200746 ! NEVT = 1999
FILE = /castor/cern.ch/delphi/MCprod/cern/wphact24/v98e/188.6/wphact24_cc_188.6_80.4_200747.xsdst ! RUN = 200747 ! NEVT = 1998
FILE = /castor/cern.ch/delphi/MCprod/cern/wphact24/v98e/188.6/wphact24_cc_188.6_80.4_200748.xsdst ! RUN = 200748 ! NEVT = 2000
FILE = /castor/cern.ch/delphi/MCprod/cern/wphact24/v98e/188.6/wphact24_cc_188.6_80.4_200749.xsdst ! RUN = 200749 ! NEVT = 1999
FILE = /castor/cern.ch/delphi/MCprod/cern/wphact24/v98e/188.6/wphact24_cc_188.6_80.4_200750.xsdst ! RUN = 200750 ! NEVT = 1999
FILE = /castor/cern.ch/delphi/MCprod/cern/wphact24/v98e/188.6/wphact24_cc_188.6_80.4_200751.xsdst ! RUN = 200751 ! NEVT = 2000
FILE = /castor/cern.ch/delphi/MCprod/cern/wphact24/v98e/188.6/wphact24_cc_188.6_80.4_200752.xsdst ! RUN = 200752 ! NEVT = 1997
FILE = /castor/cern.ch/delphi/MCprod/cern/wphact24/v98e/188.6/wphact24_cc_188.6_80.4_200753.xsdst ! RUN = 200753 ! NEVT = 2000
FILE = /castor/cern.ch/delphi/MCprod/cern/wphact24/v98e/188.6/wphact24_cc_188.6_80.4_200754.xsdst ! RUN = 200754 ! NEVT = 1999
FILE = /castor/cern.ch/delphi/MCprod/cern/wphact24/v98e/188.6/wphact24_cc_188.6_80.4_200755.xsdst ! RUN = 200755 ! NEVT = 2000
FILE = /castor/cern.ch/delphi/MCprod/cern/wphact24/v98e/188.6/wphact24_cc_188.6_80.4_200756.xsdst ! RUN = 200756 ! NEVT = 1999
FILE = /castor/cern.ch/delphi/MCprod/cern/wphact24/v98e/188.6/wphact24_cc_188.6_80.4_200757.xsdst ! RUN = 200757 ! NEVT = 1998
FILE = /castor/cern.ch/delphi/MCprod/cern/wphact24/v98e/188.6/wphact24_cc_188.6_80.4_200758.xsdst ! RUN = 200758 ! NEVT = 2000
FILE = /castor/cern.ch/delphi/MCprod/cern/wphact24/v98e/188.6/wphact24_cc_188.6_80.4_200759.xsdst ! RUN = 200759 ! NEVT = 1997
FILE = /castor/cern.ch/delphi/MCprod/cern/wphact24/v98e/188.6/wphact24_cc_188.6_80.4_200760.xsdst ! RUN = 200760 ! NEVT = 1998
FILE = /castor/cern.ch/delphi/MCprod/cern/wphact24/v98e/188.6/wphact24_cc_188.6_80.4_200761.xsdst ! RUN = 200761 ! NEVT = 1998
FILE = /castor/cern.ch/delphi/MCprod/cern/wphact24/v98e/188.6/wphact24_cc_188.6_80.4_200762.xsdst ! RUN = 200762 ! NEVT = 2000
FILE = /castor/cern.ch/delphi/MCprod/cern/wphact24/v98e/188.6/wphact24_cc_188.6_80.4_200763.xsdst ! RUN = 200763 ! NEVT = 2000
FILE = /castor/cern.ch/delphi/MCprod/cern/wphact24/v98e/188.6/wphact24_cc_188.6_80.4_200764.xsdst ! RUN = 200764 ! NEVT = 1999
FILE = /castor/cern.ch/delphi/MCprod/cern/wphact24/v98e/188.6/wphact24_cc_188.6_80.4_200765.xsdst ! RUN = 200765 ! NEVT = 2000
FILE = /castor/cern.ch/delphi/MCprod/cern/wphact24/v98e/188.6/wphact24_cc_188.6_80.4_200766.xsdst ! RUN = 200766 ! NEVT = 1999
FILE = /castor/cern.ch/delphi/MCprod/cern/wphact24/v98e/188.6/wphact24_cc_188.6_80.4_200767.xsdst ! RUN = 200767 ! NEVT = 2000
FILE = /castor/cern.ch/delphi/MCprod/cern/wphact24/v98e/188.6/wphact24_cc_188.6_80.4_200768.xsdst ! RUN = 200768 ! NEVT = 1999
FILE = /castor/cern.ch/delphi/MCprod/cern/wphact24/v98e/188.6/wphact24_cc_188.6_80.4_200769.xsdst ! RUN = 200769 ! NEVT = 1999
FILE = /castor/cern.ch/delphi/MCprod/cern/wphact24/v98e/188.6/wphact24_cc_188.6_80.4_200770.xsdst ! RUN = 200770 ! NEVT = 2000
FILE = /castor/cern.ch/delphi/MCprod/cern/wphact24/v98e/188.6/wphact24_cc_188.6_80.4_200771.xsdst ! RUN = 200771 ! NEVT = 1997
FILE = /castor/cern.ch/delphi/MCprod/cern/wphact24/v98e/188.6/wphact24_cc_188.6_80.4_200772.xsdst ! RUN = 200772 ! NEVT = 1999
FILE = /castor/cern.ch/delphi/MCprod/cern/wphact24/v98e/188.6/wphact24_cc_188.6_80.4_200773.xsdst ! RUN = 200773 ! NEVT = 1999
FILE = /castor/cern.ch/delphi/MCprod/cern/wphact24/v98e/188.6/wphact24_cc_188.6_80.4_200774.xsdst ! RUN = 200774 ! NEVT = 2000
FILE = /castor/cern.ch/delphi/MCprod/cern/wphact24/v98e/188.6/wphact24_cc_188.6_80.4_200775.xsdst ! RUN = 200775 ! NEVT = 1999
FILE = /castor/cern.ch/delphi/MCprod/cern/wphact24/v98e/188.6/wphact24_cc_188.6_80.4_200776.xsdst ! RUN = 200776 ! NEVT = 1999
FILE = /castor/cern.ch/delphi/MCprod/cern/wphact24/v98e/188.6/wphact24_cc_188.6_80.4_200777.xsdst ! RUN = 200777 ! NEVT = 1999
FILE = /castor/cern.ch/delphi/MCprod/cern/wphact24/v98e/188.6/wphact24_cc_188.6_80.4_200778.xsdst ! RUN = 200778 ! NEVT = 1999
FILE = /castor/cern.ch/delphi/MCprod/cern/wphact24/v98e/188.6/wphact24_cc_188.6_80.4_200779.xsdst ! RUN = 200779 ! NEVT = 1998
FILE = /castor/cern.ch/delphi/MCprod/cern/wphact24/v98e/188.6/wphact24_cc_188.6_80.4_200780.xsdst ! RUN = 200780 ! NEVT = 2000
FILE = /castor/cern.ch/delphi/MCprod/cern/wphact24/v98e/188.6/wphact24_cc_188.6_80.4_200781.xsdst ! RUN = 200781 ! NEVT = 1999
FILE = /castor/cern.ch/delphi/MCprod/cern/wphact24/v98e/188.6/wphact24_cc_188.6_80.4_200782.xsdst ! RUN = 200782 ! NEVT = 1999
FILE = /castor/cern.ch/delphi/MCprod/cern/wphact24/v98e/188.6/wphact24_cc_188.6_80.4_200783.xsdst ! RUN = 200783 ! NEVT = 2000
FILE = /castor/cern.ch/delphi/MCprod/cern/wphact24/v98e/188.6/wphact24_cc_188.6_80.4_200784.xsdst ! RUN = 200784 ! NEVT = 2000
FILE = /castor/cern.ch/delphi/MCprod/cern/wphact24/v98e/188.6/wphact24_cc_188.6_80.4_200785.xsdst ! RUN = 200785 ! NEVT = 1998
FILE = /castor/cern.ch/delphi/MCprod/cern/wphact24/v98e/188.6/wphact24_cc_188.6_80.4_200786.xsdst ! RUN = 200786 ! NEVT = 1999
FILE = /castor/cern.ch/delphi/MCprod/cern/wphact24/v98e/188.6/wphact24_cc_188.6_80.4_200787.xsdst ! RUN = 200787 ! NEVT = 2000
FILE = /castor/cern.ch/delphi/MCprod/cern/wphact24/v98e/188.6/wphact24_cc_188.6_80.4_200788.xsdst ! RUN = 200788 ! NEVT = 1999
FILE = /castor/cern.ch/delphi/MCprod/cern/wphact24/v98e/188.6/wphact24_cc_188.6_80.4_200789.xsdst ! RUN = 200789 ! NEVT = 1998
FILE = /castor/cern.ch/delphi/MCprod/cern/wphact24/v98e/188.6/wphact24_cc_188.6_80.4_200790.xsdst ! RUN = 200790 ! NEVT = 2000
FILE = /castor/cern.ch/delphi/MCprod/cern/wphact24/v98e/188.6/wphact24_cc_188.6_80.4_200791.xsdst ! RUN = 200791 ! NEVT = 1999
FILE = /castor/cern.ch/delphi/MCprod/cern/wphact24/v98e/188.6/wphact24_cc_188.6_80.4_200792.xsdst ! RUN = 200792 ! NEVT = 1999
FILE = /castor/cern.ch/delphi/MCprod/cern/wphact24/v98e/188.6/wphact24_cc_188.6_80.4_200793.xsdst ! RUN = 200793 ! NEVT = 1997
FILE = /castor/cern.ch/delphi/MCprod/cern/wphact24/v98e/188.6/wphact24_cc_188.6_80.4_200795.xsdst ! RUN = 200795 ! NEVT = 1999
FILE = /castor/cern.ch/delphi/MCprod/cern/wphact24/v98e/188.6/wphact24_cc_188.6_80.4_200796.xsdst ! RUN = 200796 ! NEVT = 1998
FILE = /castor/cern.ch/delphi/MCprod/cern/wphact24/v98e/188.6/wphact24_cc_188.6_80.4_200797.xsdst ! RUN = 200797 ! NEVT = 2000
FILE = /castor/cern.ch/delphi/MCprod/cern/wphact24/v98e/188.6/wphact24_cc_188.6_80.4_200798.xsdst ! RUN = 200798 ! NEVT = 1999
FILE = /castor/cern.ch/delphi/MCprod/cern/wphact24/v98e/188.6/wphact24_cc_188.6_80.4_200799.xsdst ! RUN = 200799 ! NEVT = 2000
FILE = /castor/cern.ch/delphi/MCprod/cern/wphact24/v98e/188.6/wphact24_cc_188.6_80.4_200800.xsdst ! RUN = 200800 ! NEVT = 1999
FILE = /castor/cern.ch/delphi/MCprod/cern/wphact24/v98e/188.6/wphact24_cc_188.6_80.4_200801.xsdst ! RUN = 200801 ! NEVT = 1998
FILE = /castor/cern.ch/delphi/MCprod/cern/wphact24/v98e/188.6/wphact24_cc_188.6_80.4_200802.xsdst ! RUN = 200802 ! NEVT = 1999
FILE = /castor/cern.ch/delphi/MCprod/cern/wphact24/v98e/188.6/wphact24_cc_188.6_80.4_200803.xsdst ! RUN = 200803 ! NEVT = 1999
FILE = /castor/cern.ch/delphi/MCprod/cern/wphact24/v98e/188.6/wphact24_cc_188.6_80.4_200804.xsdst ! RUN = 200804 ! NEVT = 2000
FILE = /castor/cern.ch/delphi/MCprod/cern/wphact24/v98e/188.6/wphact24_cc_188.6_80.4_200805.xsdst ! RUN = 200805 ! NEVT = 2000
FILE = /castor/cern.ch/delphi/MCprod/cern/wphact24/v98e/188.6/wphact24_cc_188.6_80.4_200806.xsdst ! RUN = 200806 ! NEVT = 1999
FILE = /castor/cern.ch/delphi/MCprod/cern/wphact24/v98e/188.6/wphact24_cc_188.6_80.4_200807.xsdst ! RUN = 200807 ! NEVT = 2000
FILE = /castor/cern.ch/delphi/MCprod/cern/wphact24/v98e/188.6/wphact24_cc_188.6_80.4_200808.xsdst ! RUN = 200808 ! NEVT = 1999
FILE = /castor/cern.ch/delphi/MCprod/cern/wphact24/v98e/188.6/wphact24_cc_188.6_80.4_200809.xsdst ! RUN = 200809 ! NEVT = 1999
FILE = /castor/cern.ch/delphi/MCprod/cern/wphact24/v98e/188.6/wphact24_cc_188.6_80.4_200810.xsdst ! RUN = 200810 ! NEVT = 2000
FILE = /castor/cern.ch/delphi/MCprod/cern/wphact24/v98e/188.6/wphact24_cc_188.6_80.4_200811.xsdst ! RUN = 200811 ! NEVT = 2000
FILE = /castor/cern.ch/delphi/MCprod/cern/wphact24/v98e/188.6/wphact24_cc_188.6_80.4_200812.xsdst ! RUN = 200812 ! NEVT = 1999
FILE = /castor/cern.ch/delphi/MCprod/cern/wphact24/v98e/188.6/wphact24_cc_188.6_80.4_200813.xsdst ! RUN = 200813 ! NEVT = 2000
FILE = /castor/cern.ch/delphi/MCprod/cern/wphact24/v98e/188.6/wphact24_cc_188.6_80.4_200814.xsdst ! RUN = 200814 ! NEVT = 1998
FILE = /castor/cern.ch/delphi/MCprod/cern/wphact24/v98e/188.6/wphact24_cc_188.6_80.4_200815.xsdst ! RUN = 200815 ! NEVT = 2000
FILE = /castor/cern.ch/delphi/MCprod/cern/wphact24/v98e/188.6/wphact24_cc_188.6_80.4_200816.xsdst ! RUN = 200816 ! NEVT = 1999
FILE = /castor/cern.ch/delphi/MCprod/cern/wphact24/v98e/188.6/wphact24_cc_188.6_80.4_200817.xsdst ! RUN = 200817 ! NEVT = 2000
FILE = /castor/cern.ch/delphi/MCprod/cern/wphact24/v98e/188.6/wphact24_cc_188.6_80.4_200818.xsdst ! RUN = 200818 ! NEVT = 2000
FILE = /castor/cern.ch/delphi/MCprod/cern/wphact24/v98e/188.6/wphact24_cc_188.6_80.4_200819.xsdst ! RUN = 200819 ! NEVT = 1999
FILE = /castor/cern.ch/delphi/MCprod/cern/wphact24/v98e/188.6/wphact24_cc_188.6_80.4_200821.xsdst ! RUN = 200821 ! NEVT = 1999
FILE = /castor/cern.ch/delphi/MCprod/cern/wphact24/v98e/188.6/wphact24_cc_188.6_80.4_200822.xsdst ! RUN = 200822 ! NEVT = 1998
FILE = /castor/cern.ch/delphi/MCprod/cern/wphact24/v98e/188.6/wphact24_cc_188.6_80.4_200823.xsdst ! RUN = 200823 ! NEVT = 1998
FILE = /castor/cern.ch/delphi/MCprod/cern/wphact24/v98e/188.6/wphact24_cc_188.6_80.4_200824.xsdst ! RUN = 200824 ! NEVT = 2000
FILE = /castor/cern.ch/delphi/MCprod/cern/wphact24/v98e/188.6/wphact24_cc_188.6_80.4_200825.xsdst ! RUN = 200825 ! NEVT = 2000
FILE = /castor/cern.ch/delphi/MCprod/cern/wphact24/v98e/188.6/wphact24_cc_188.6_80.4_200826.xsdst ! RUN = 200826 ! NEVT = 1999
FILE = /castor/cern.ch/delphi/MCprod/cern/wphact24/v98e/188.6/wphact24_cc_188.6_80.4_200827.xsdst ! RUN = 200827 ! NEVT = 1999
FILE = /castor/cern.ch/delphi/MCprod/cern/wphact24/v98e/188.6/wphact24_cc_188.6_80.4_200828.xsdst ! RUN = 200828 ! NEVT = 2000
FILE = /castor/cern.ch/delphi/MCprod/cern/wphact24/v98e/188.6/wphact24_cc_188.6_80.4_200829.xsdst ! RUN = 200829 ! NEVT = 2000
FILE = /castor/cern.ch/delphi/MCprod/cern/wphact24/v98e/188.6/wphact24_cc_188.6_80.4_200830.xsdst ! RUN = 200830 ! NEVT = 2000
FILE = /castor/cern.ch/delphi/MCprod/cern/wphact24/v98e/188.6/wphact24_cc_188.6_80.4_200831.xsdst ! RUN = 200831 ! NEVT = 2000
FILE = /castor/cern.ch/delphi/MCprod/cern/wphact24/v98e/188.6/wphact24_cc_188.6_80.4_200832.xsdst ! RUN = 200832 ! NEVT = 1997
FILE = /castor/cern.ch/delphi/MCprod/cern/wphact24/v98e/188.6/wphact24_cc_188.6_80.4_200833.xsdst ! RUN = 200833 ! NEVT = 1999
FILE = /castor/cern.ch/delphi/MCprod/cern/wphact24/v98e/188.6/wphact24_cc_188.6_80.4_200834.xsdst ! RUN = 200834 ! NEVT = 1999
FILE = /castor/cern.ch/delphi/MCprod/cern/wphact24/v98e/188.6/wphact24_cc_188.6_80.4_200835.xsdst ! RUN = 200835 ! NEVT = 2000
FILE = /castor/cern.ch/delphi/MCprod/cern/wphact24/v98e/188.6/wphact24_cc_188.6_80.4_200836.xsdst ! RUN = 200836 ! NEVT = 2000
FILE = /castor/cern.ch/delphi/MCprod/cern/wphact24/v98e/188.6/wphact24_cc_188.6_80.4_200837.xsdst ! RUN = 200837 ! NEVT = 2000
FILE = /castor/cern.ch/delphi/MCprod/cern/wphact24/v98e/188.6/wphact24_cc_188.6_80.4_200838.xsdst ! RUN = 200838 ! NEVT = 2000
FILE = /castor/cern.ch/delphi/MCprod/cern/wphact24/v98e/188.6/wphact24_cc_188.6_80.4_200840.xsdst ! RUN = 200840 ! NEVT = 1999
FILE = /castor/cern.ch/delphi/MCprod/cern/wphact24/v98e/188.6/wphact24_cc_188.6_80.4_200841.xsdst ! RUN = 200841 ! NEVT = 2000
FILE = /castor/cern.ch/delphi/MCprod/cern/wphact24/v98e/188.6/wphact24_cc_188.6_80.4_200842.xsdst ! RUN = 200842 ! NEVT = 1999
FILE = /castor/cern.ch/delphi/MCprod/cern/wphact24/v98e/188.6/wphact24_cc_188.6_80.4_200843.xsdst ! RUN = 200843 ! NEVT = 2000
FILE = /castor/cern.ch/delphi/MCprod/cern/wphact24/v98e/188.6/wphact24_cc_188.6_80.4_200844.xsdst ! RUN = 200844 ! NEVT = 1998
FILE = /castor/cern.ch/delphi/MCprod/cern/wphact24/v98e/188.6/wphact24_cc_188.6_80.4_200845.xsdst ! RUN = 200845 ! NEVT = 1999
FILE = /castor/cern.ch/delphi/MCprod/cern/wphact24/v98e/188.6/wphact24_cc_188.6_80.4_200846.xsdst ! RUN = 200846 ! NEVT = 1999
FILE = /castor/cern.ch/delphi/MCprod/cern/wphact24/v98e/188.6/wphact24_cc_188.6_80.4_200847.xsdst ! RUN = 200847 ! NEVT = 2000
FILE = /castor/cern.ch/delphi/MCprod/cern/wphact24/v98e/188.6/wphact24_cc_188.6_80.4_200848.xsdst ! RUN = 200848 ! NEVT = 1999
FILE = /castor/cern.ch/delphi/MCprod/cern/wphact24/v98e/188.6/wphact24_cc_188.6_80.4_200849.xsdst ! RUN = 200849 ! NEVT = 1998
FILE = /castor/cern.ch/delphi/MCprod/cern/wphact24/v98e/188.6/wphact24_cc_188.6_80.4_200850.xsdst ! RUN = 200850 ! NEVT = 2000
FILE = /castor/cern.ch/delphi/MCprod/cern/wphact24/v98e/188.6/wphact24_cc_188.6_80.4_200851.xsdst ! RUN = 200851 ! NEVT = 1999
FILE = /castor/cern.ch/delphi/MCprod/cern/wphact24/v98e/188.6/wphact24_cc_188.6_80.4_200852.xsdst ! RUN = 200852 ! NEVT = 1998
FILE = /castor/cern.ch/delphi/MCprod/cern/wphact24/v98e/188.6/wphact24_cc_188.6_80.4_200853.xsdst ! RUN = 200853 ! NEVT = 1999
FILE = /castor/cern.ch/delphi/MCprod/cern/wphact24/v98e/188.6/wphact24_cc_188.6_80.4_200854.xsdst ! RUN = 200854 ! NEVT = 1999
FILE = /castor/cern.ch/delphi/MCprod/cern/wphact24/v98e/188.6/wphact24_cc_188.6_80.4_200855.xsdst ! RUN = 200855 ! NEVT = 2000
FILE = /castor/cern.ch/delphi/MCprod/cern/wphact24/v98e/188.6/wphact24_cc_188.6_80.4_200856.xsdst ! RUN = 200856 ! NEVT = 1999
FILE = /castor/cern.ch/delphi/MCprod/cern/wphact24/v98e/188.6/wphact24_cc_188.6_80.4_200857.xsdst ! RUN = 200857 ! NEVT = 1998
FILE = /castor/cern.ch/delphi/MCprod/cern/wphact24/v98e/188.6/wphact24_cc_188.6_80.4_200858.xsdst ! RUN = 200858 ! NEVT = 2000
FILE = /castor/cern.ch/delphi/MCprod/cern/wphact24/v98e/188.6/wphact24_cc_188.6_80.4_200859.xsdst ! RUN = 200859 ! NEVT = 2000
FILE = /castor/cern.ch/delphi/MCprod/cern/wphact24/v98e/188.6/wphact24_cc_188.6_80.4_200860.xsdst ! RUN = 200860 ! NEVT = 1999
FILE = /castor/cern.ch/delphi/MCprod/cern/wphact24/v98e/188.6/wphact24_cc_188.6_80.4_200861.xsdst ! RUN = 200861 ! NEVT = 1997
FILE = /castor/cern.ch/delphi/MCprod/cern/wphact24/v98e/188.6/wphact24_cc_188.6_80.4_200862.xsdst ! RUN = 200862 ! NEVT = 1998
FILE = /castor/cern.ch/delphi/MCprod/cern/wphact24/v98e/188.6/wphact24_cc_188.6_80.4_200863.xsdst ! RUN = 200863 ! NEVT = 2000
FILE = /castor/cern.ch/delphi/MCprod/cern/wphact24/v98e/188.6/wphact24_cc_188.6_80.4_200864.xsdst ! RUN = 200864 ! NEVT = 1999
FILE = /castor/cern.ch/delphi/MCprod/cern/wphact24/v98e/188.6/wphact24_cc_188.6_80.4_200865.xsdst ! RUN = 200865 ! NEVT = 1998
FILE = /castor/cern.ch/delphi/MCprod/cern/wphact24/v98e/188.6/wphact24_cc_188.6_80.4_200866.xsdst ! RUN = 200866 ! NEVT = 1999
FILE = /castor/cern.ch/delphi/MCprod/cern/wphact24/v98e/188.6/wphact24_cc_188.6_80.4_200867.xsdst ! RUN = 200867 ! NEVT = 1998
FILE = /castor/cern.ch/delphi/MCprod/cern/wphact24/v98e/188.6/wphact24_cc_188.6_80.4_200868.xsdst ! RUN = 200868 ! NEVT = 2000
FILE = /castor/cern.ch/delphi/MCprod/cern/wphact24/v98e/188.6/wphact24_cc_188.6_80.4_200869.xsdst ! RUN = 200869 ! NEVT = 1999
FILE = /castor/cern.ch/delphi/MCprod/cern/wphact24/v98e/188.6/wphact24_cc_188.6_80.4_200870.xsdst ! RUN = 200870 ! NEVT = 2000
FILE = /castor/cern.ch/delphi/MCprod/cern/wphact24/v98e/188.6/wphact24_cc_188.6_80.4_200871.xsdst ! RUN = 200871 ! NEVT = 2000
FILE = /castor/cern.ch/delphi/MCprod/cern/wphact24/v98e/188.6/wphact24_cc_188.6_80.4_200872.xsdst ! RUN = 200872 ! NEVT = 1999
FILE = /castor/cern.ch/delphi/MCprod/cern/wphact24/v98e/188.6/wphact24_cc_188.6_80.4_200873.xsdst ! RUN = 200873 ! NEVT = 2000
FILE = /castor/cern.ch/delphi/MCprod/cern/wphact24/v98e/188.6/wphact24_cc_188.6_80.4_200874.xsdst ! RUN = 200874 ! NEVT = 2000
FILE = /castor/cern.ch/delphi/MCprod/cern/wphact24/v98e/188.6/wphact24_cc_188.6_80.4_200875.xsdst ! RUN = 200875 ! NEVT = 2000
FILE = /castor/cern.ch/delphi/MCprod/cern/wphact24/v98e/188.6/wphact24_cc_188.6_80.4_200876.xsdst ! RUN = 200876 ! NEVT = 2000
FILE = /castor/cern.ch/delphi/MCprod/cern/wphact24/v98e/188.6/wphact24_cc_188.6_80.4_200877.xsdst ! RUN = 200877 ! NEVT = 1999
FILE = /castor/cern.ch/delphi/MCprod/cern/wphact24/v98e/188.6/wphact24_cc_188.6_80.4_200878.xsdst ! RUN = 200878 ! NEVT = 1998
FILE = /castor/cern.ch/delphi/MCprod/cern/wphact24/v98e/188.6/wphact24_cc_188.6_80.4_200879.xsdst ! RUN = 200879 ! NEVT = 1999
FILE = /castor/cern.ch/delphi/MCprod/cern/wphact24/v98e/188.6/wphact24_cc_188.6_80.4_200880.xsdst ! RUN = 200880 ! NEVT = 1998
FILE = /castor/cern.ch/delphi/MCprod/cern/wphact24/v98e/188.6/wphact24_cc_188.6_80.4_200881.xsdst ! RUN = 200881 ! NEVT = 2000
FILE = /castor/cern.ch/delphi/MCprod/cern/wphact24/v98e/188.6/wphact24_cc_188.6_80.4_200882.xsdst ! RUN = 200882 ! NEVT = 2000
FILE = /castor/cern.ch/delphi/MCprod/cern/wphact24/v98e/188.6/wphact24_cc_188.6_80.4_200883.xsdst ! RUN = 200883 ! NEVT = 1999
FILE = /castor/cern.ch/delphi/MCprod/cern/wphact24/v98e/188.6/wphact24_cc_188.6_80.4_200884.xsdst ! RUN = 200884 ! NEVT = 1999
FILE = /castor/cern.ch/delphi/MCprod/cern/wphact24/v98e/188.6/wphact24_cc_188.6_80.4_200885.xsdst ! RUN = 200885 ! NEVT = 1999
FILE = /castor/cern.ch/delphi/MCprod/cern/wphact24/v98e/188.6/wphact24_cc_188.6_80.4_200886.xsdst ! RUN = 200886 ! NEVT = 1999
FILE = /castor/cern.ch/delphi/MCprod/cern/wphact24/v98e/188.6/wphact24_cc_188.6_80.4_200887.xsdst ! RUN = 200887 ! NEVT = 2000
FILE = /castor/cern.ch/delphi/MCprod/cern/wphact24/v98e/188.6/wphact24_cc_188.6_80.4_200888.xsdst ! RUN = 200888 ! NEVT = 1999
FILE = /castor/cern.ch/delphi/MCprod/cern/wphact24/v98e/188.6/wphact24_cc_188.6_80.4_200889.xsdst ! RUN = 200889 ! NEVT = 1999
FILE = /castor/cern.ch/delphi/MCprod/cern/wphact24/v98e/188.6/wphact24_cc_188.6_80.4_200890.xsdst ! RUN = 200890 ! NEVT = 2000
FILE = /castor/cern.ch/delphi/MCprod/cern/wphact24/v98e/188.6/wphact24_cc_188.6_80.4_200891.xsdst ! RUN = 200891 ! NEVT = 1999
FILE = /castor/cern.ch/delphi/MCprod/cern/wphact24/v98e/188.6/wphact24_cc_188.6_80.4_200892.xsdst ! RUN = 200892 ! NEVT = 1999
FILE = /castor/cern.ch/delphi/MCprod/cern/wphact24/v98e/188.6/wphact24_cc_188.6_80.4_200893.xsdst ! RUN = 200893 ! NEVT = 1999
FILE = /castor/cern.ch/delphi/MCprod/cern/wphact24/v98e/188.6/wphact24_cc_188.6_80.4_200894.xsdst ! RUN = 200894 ! NEVT = 2000
FILE = /castor/cern.ch/delphi/MCprod/cern/wphact24/v98e/188.6/wphact24_cc_188.6_80.4_200895.xsdst ! RUN = 200895 ! NEVT = 2000
FILE = /castor/cern.ch/delphi/MCprod/cern/wphact24/v98e/188.6/wphact24_cc_188.6_80.4_200896.xsdst ! RUN = 200896 ! NEVT = 2000
FILE = /castor/cern.ch/delphi/MCprod/cern/wphact24/v98e/188.6/wphact24_cc_188.6_80.4_200897.xsdst ! RUN = 200897 ! NEVT = 2000
FILE = /castor/cern.ch/delphi/MCprod/cern/wphact24/v98e/188.6/wphact24_cc_188.6_80.4_200898.xsdst ! RUN = 200898 ! NEVT = 1998
FILE = /castor/cern.ch/delphi/MCprod/cern/wphact24/v98e/188.6/wphact24_cc_188.6_80.4_200899.xsdst ! RUN = 200899 ! NEVT = 1999
FILE = /castor/cern.ch/delphi/MCprod/cern/wphact24/v98e/188.6/wphact24_cc_188.6_80.4_200900.xsdst ! RUN = 200900 ! NEVT = 1997
FILE = /castor/cern.ch/delphi/MCprod/cern/wphact24/v98e/188.6/wphact24_cc_188.6_80.4_200901.xsdst ! RUN = 200901 ! NEVT = 2000
FILE = /castor/cern.ch/delphi/MCprod/cern/wphact24/v98e/188.6/wphact24_cc_188.6_80.4_200902.xsdst ! RUN = 200902 ! NEVT = 1999
FILE = /castor/cern.ch/delphi/MCprod/cern/wphact24/v98e/188.6/wphact24_cc_188.6_80.4_200903.xsdst ! RUN = 200903 ! NEVT = 1999
FILE = /castor/cern.ch/delphi/MCprod/cern/wphact24/v98e/188.6/wphact24_cc_188.6_80.4_200904.xsdst ! RUN = 200904 ! NEVT = 1999
FILE = /castor/cern.ch/delphi/MCprod/cern/wphact24/v98e/188.6/wphact24_cc_188.6_80.4_200905.xsdst ! RUN = 200905 ! NEVT = 2000
FILE = /castor/cern.ch/delphi/MCprod/cern/wphact24/v98e/188.6/wphact24_cc_188.6_80.4_200906.xsdst ! RUN = 200906 ! NEVT = 1999
FILE = /castor/cern.ch/delphi/MCprod/cern/wphact24/v98e/188.6/wphact24_cc_188.6_80.4_200907.xsdst ! RUN = 200907 ! NEVT = 2000
FILE = /castor/cern.ch/delphi/MCprod/cern/wphact24/v98e/188.6/wphact24_cc_188.6_80.4_200908.xsdst ! RUN = 200908 ! NEVT = 2000
FILE = /castor/cern.ch/delphi/MCprod/cern/wphact24/v98e/188.6/wphact24_cc_188.6_80.4_200909.xsdst ! RUN = 200909 ! NEVT = 2000
FILE = /castor/cern.ch/delphi/MCprod/cern/wphact24/v98e/188.6/wphact24_cc_188.6_80.4_200910.xsdst ! RUN = 200910 ! NEVT = 2000
FILE = /castor/cern.ch/delphi/MCprod/cern/wphact24/v98e/188.6/wphact24_cc_188.6_80.4_200911.xsdst ! RUN = 200911 ! NEVT = 2000
FILE = /castor/cern.ch/delphi/MCprod/cern/wphact24/v98e/188.6/wphact24_cc_188.6_80.4_200912.xsdst ! RUN = 200912 ! NEVT = 2000
FILE = /castor/cern.ch/delphi/MCprod/cern/wphact24/v98e/188.6/wphact24_cc_188.6_80.4_200913.xsdst ! RUN = 200913 ! NEVT = 2000
FILE = /castor/cern.ch/delphi/MCprod/cern/wphact24/v98e/188.6/wphact24_cc_188.6_80.4_200914.xsdst ! RUN = 200914 ! NEVT = 1999
FILE = /castor/cern.ch/delphi/MCprod/cern/wphact24/v98e/188.6/wphact24_cc_188.6_80.4_200915.xsdst ! RUN = 200915 ! NEVT = 2000
FILE = /castor/cern.ch/delphi/MCprod/cern/wphact24/v98e/188.6/wphact24_cc_188.6_80.4_200916.xsdst ! RUN = 200916 ! NEVT = 2000
FILE = /castor/cern.ch/delphi/MCprod/cern/wphact24/v98e/188.6/wphact24_cc_188.6_80.4_200917.xsdst ! RUN = 200917 ! NEVT = 2000
FILE = /castor/cern.ch/delphi/MCprod/cern/wphact24/v98e/188.6/wphact24_cc_188.6_80.4_200918.xsdst ! RUN = 200918 ! NEVT = 2000
FILE = /castor/cern.ch/delphi/MCprod/cern/wphact24/v98e/188.6/wphact24_cc_188.6_80.4_200919.xsdst ! RUN = 200919 ! NEVT = 519
FILE = /castor/cern.ch/delphi/MCprod/cern/wphact24/v98e/188.6/wphact24_cc_188.6_80.4_200920.xsdst ! RUN = 200920 ! NEVT = 2000
FILE = /castor/cern.ch/delphi/MCprod/cern/wphact24/v98e/188.6/wphact24_cc_188.6_80.4_200921.xsdst ! RUN = 200921 ! NEVT = 2000
FILE = /castor/cern.ch/delphi/MCprod/cern/wphact24/v98e/188.6/wphact24_cc_188.6_80.4_200922.xsdst ! RUN = 200922 ! NEVT = 2000
FILE = /castor/cern.ch/delphi/MCprod/cern/wphact24/v98e/188.6/wphact24_cc_188.6_80.4_200923.xsdst ! RUN = 200923 ! NEVT = 2000
FILE = /castor/cern.ch/delphi/MCprod/cern/wphact24/v98e/188.6/wphact24_cc_188.6_80.4_200924.xsdst ! RUN = 200924 ! NEVT = 32
FILE = /castor/cern.ch/delphi/MCprod/cern/wphact24/v98e/188.6/wphact24_cc_188.6_80.4_200925.xsdst ! RUN = 200925 ! NEVT = 1999
FILE = /castor/cern.ch/delphi/MCprod/cern/wphact24/v98e/188.6/wphact24_cc_188.6_80.4_200926.xsdst ! RUN = 200926 ! NEVT = 2000
FILE = /castor/cern.ch/delphi/MCprod/cern/wphact24/v98e/188.6/wphact24_cc_188.6_80.4_200927.xsdst ! RUN = 200927 ! NEVT = 877
FILE = /castor/cern.ch/delphi/MCprod/cern/wphact24/v98e/188.6/wphact24_cc_188.6_80.4_200928.xsdst ! RUN = 200928 ! NEVT = 2000
FILE = /castor/cern.ch/delphi/MCprod/cern/wphact24/v98e/188.6/wphact24_cc_188.6_80.4_200929.xsdst ! RUN = 200929 ! NEVT = 1999
FILE = /castor/cern.ch/delphi/MCprod/cern/wphact24/v98e/188.6/wphact24_cc_188.6_80.4_200930.xsdst ! RUN = 200930 ! NEVT = 1092
FILE = /castor/cern.ch/delphi/MCprod/cern/wphact24/v98e/188.6/wphact24_cc_188.6_80.4_200931.xsdst ! RUN = 200931 ! NEVT = 2000
FILE = /castor/cern.ch/delphi/MCprod/cern/wphact24/v98e/188.6/wphact24_cc_188.6_80.4_200932.xsdst ! RUN = 200932 ! NEVT = 2000
FILE = /castor/cern.ch/delphi/MCprod/cern/wphact24/v98e/188.6/wphact24_cc_188.6_80.4_200933.xsdst ! RUN = 200933 ! NEVT = 1998
FILE = /castor/cern.ch/delphi/MCprod/cern/wphact24/v98e/188.6/wphact24_cc_188.6_80.4_200934.xsdst ! RUN = 200934 ! NEVT = 1999
FILE = /castor/cern.ch/delphi/MCprod/cern/wphact24/v98e/188.6/wphact24_cc_188.6_80.4_200935.xsdst ! RUN = 200935 ! NEVT = 1999
FILE = /castor/cern.ch/delphi/MCprod/cern/wphact24/v98e/188.6/wphact24_cc_188.6_80.4_200936.xsdst ! RUN = 200936 ! NEVT = 2000
FILE = /castor/cern.ch/delphi/MCprod/cern/wphact24/v98e/188.6/wphact24_cc_188.6_80.4_200937.xsdst ! RUN = 200937 ! NEVT = 1999
FILE = /castor/cern.ch/delphi/MCprod/cern/wphact24/v98e/188.6/wphact24_cc_188.6_80.4_200938.xsdst ! RUN = 200938 ! NEVT = 2000
FILE = /castor/cern.ch/delphi/MCprod/cern/wphact24/v98e/188.6/wphact24_cc_188.6_80.4_200939.xsdst ! RUN = 200939 ! NEVT = 1998
FILE = /castor/cern.ch/delphi/MCprod/cern/wphact24/v98e/188.6/wphact24_cc_188.6_80.4_200940.xsdst ! RUN = 200940 ! NEVT = 1999
FILE = /castor/cern.ch/delphi/MCprod/cern/wphact24/v98e/188.6/wphact24_cc_188.6_80.4_200941.xsdst ! RUN = 200941 ! NEVT = 1998
FILE = /castor/cern.ch/delphi/MCprod/cern/wphact24/v98e/188.6/wphact24_cc_188.6_80.4_200942.xsdst ! RUN = 200942 ! NEVT = 2000
FILE = /castor/cern.ch/delphi/MCprod/cern/wphact24/v98e/188.6/wphact24_cc_188.6_80.4_200943.xsdst ! RUN = 200943 ! NEVT = 1998
FILE = /castor/cern.ch/delphi/MCprod/cern/wphact24/v98e/188.6/wphact24_cc_188.6_80.4_200944.xsdst ! RUN = 200944 ! NEVT = 1997
FILE = /castor/cern.ch/delphi/MCprod/cern/wphact24/v98e/188.6/wphact24_cc_188.6_80.4_200945.xsdst ! RUN = 200945 ! NEVT = 2000
FILE = /castor/cern.ch/delphi/MCprod/cern/wphact24/v98e/188.6/wphact24_cc_188.6_80.4_200946.xsdst ! RUN = 200946 ! NEVT = 1999
FILE = /castor/cern.ch/delphi/MCprod/cern/wphact24/v98e/188.6/wphact24_cc_188.6_80.4_200947.xsdst ! RUN = 200947 ! NEVT = 1999
FILE = /castor/cern.ch/delphi/MCprod/cern/wphact24/v98e/188.6/wphact24_cc_188.6_80.4_200948.xsdst ! RUN = 200948 ! NEVT = 1999
FILE = /castor/cern.ch/delphi/MCprod/cern/wphact24/v98e/188.6/wphact24_cc_188.6_80.4_200949.xsdst ! RUN = 200949 ! NEVT = 1998
FILE = /castor/cern.ch/delphi/MCprod/cern/wphact24/v98e/188.6/wphact24_cc_188.6_80.4_200950.xsdst ! RUN = 200950 ! NEVT = 2000
FILE = /castor/cern.ch/delphi/MCprod/cern/wphact24/v98e/188.6/wphact24_cc_188.6_80.4_200951.xsdst ! RUN = 200951 ! NEVT = 1999
FILE = /castor/cern.ch/delphi/MCprod/cern/wphact24/v98e/188.6/wphact24_cc_188.6_80.4_200952.xsdst ! RUN = 200952 ! NEVT = 1998
FILE = /castor/cern.ch/delphi/MCprod/cern/wphact24/v98e/188.6/wphact24_cc_188.6_80.4_200953.xsdst ! RUN = 200953 ! NEVT = 1999
FILE = /castor/cern.ch/delphi/MCprod/cern/wphact24/v98e/188.6/wphact24_cc_188.6_80.4_200954.xsdst ! RUN = 200954 ! NEVT = 1999
FILE = /castor/cern.ch/delphi/MCprod/cern/wphact24/v98e/188.6/wphact24_cc_188.6_80.4_200955.xsdst ! RUN = 200955 ! NEVT = 1998
FILE = /castor/cern.ch/delphi/MCprod/cern/wphact24/v98e/188.6/wphact24_cc_188.6_80.4_200956.xsdst ! RUN = 200956 ! NEVT = 2000
FILE = /castor/cern.ch/delphi/MCprod/cern/wphact24/v98e/188.6/wphact24_cc_188.6_80.4_200957.xsdst ! RUN = 200957 ! NEVT = 2000
FILE = /castor/cern.ch/delphi/MCprod/cern/wphact24/v98e/188.6/wphact24_cc_188.6_80.4_200958.xsdst ! RUN = 200958 ! NEVT = 1998
FILE = /castor/cern.ch/delphi/MCprod/cern/wphact24/v98e/188.6/wphact24_cc_188.6_80.4_200959.xsdst ! RUN = 200959 ! NEVT = 2000
FILE = /castor/cern.ch/delphi/MCprod/cern/wphact24/v98e/188.6/wphact24_cc_188.6_80.4_200960.xsdst ! RUN = 200960 ! NEVT = 1999
FILE = /castor/cern.ch/delphi/MCprod/cern/wphact24/v98e/188.6/wphact24_cc_188.6_80.4_200961.xsdst ! RUN = 200961 ! NEVT = 2000
FILE = /castor/cern.ch/delphi/MCprod/cern/wphact24/v98e/188.6/wphact24_cc_188.6_80.4_200962.xsdst ! RUN = 200962 ! NEVT = 2000
FILE = /castor/cern.ch/delphi/MCprod/cern/wphact24/v98e/188.6/wphact24_cc_188.6_80.4_200963.xsdst ! RUN = 200963 ! NEVT = 2000
FILE = /castor/cern.ch/delphi/MCprod/cern/wphact24/v98e/188.6/wphact24_cc_188.6_80.4_200964.xsdst ! RUN = 200964 ! NEVT = 2000
FILE = /castor/cern.ch/delphi/MCprod/cern/wphact24/v98e/188.6/wphact24_cc_188.6_80.4_200965.xsdst ! RUN = 200965 ! NEVT = 1999
FILE = /castor/cern.ch/delphi/MCprod/cern/wphact24/v98e/188.6/wphact24_cc_188.6_80.4_200966.xsdst ! RUN = 200966 ! NEVT = 2000
FILE = /castor/cern.ch/delphi/MCprod/cern/wphact24/v98e/188.6/wphact24_cc_188.6_80.4_200967.xsdst ! RUN = 200967 ! NEVT = 2000
FILE = /castor/cern.ch/delphi/MCprod/cern/wphact24/v98e/188.6/wphact24_cc_188.6_80.4_200968.xsdst ! RUN = 200968 ! NEVT = 1999
FILE = /castor/cern.ch/delphi/MCprod/cern/wphact24/v98e/188.6/wphact24_cc_188.6_80.4_200969.xsdst ! RUN = 200969 ! NEVT = 2000
FILE = /castor/cern.ch/delphi/MCprod/cern/wphact24/v98e/188.6/wphact24_cc_188.6_80.4_200970.xsdst ! RUN = 200970 ! NEVT = 1997
FILE = /castor/cern.ch/delphi/MCprod/cern/wphact24/v98e/188.6/wphact24_cc_188.6_80.4_200971.xsdst ! RUN = 200971 ! NEVT = 1999
FILE = /castor/cern.ch/delphi/MCprod/cern/wphact24/v98e/188.6/wphact24_cc_188.6_80.4_200972.xsdst ! RUN = 200972 ! NEVT = 2000
FILE = /castor/cern.ch/delphi/MCprod/cern/wphact24/v98e/188.6/wphact24_cc_188.6_80.4_200973.xsdst ! RUN = 200973 ! NEVT = 2000
FILE = /castor/cern.ch/delphi/MCprod/cern/wphact24/v98e/188.6/wphact24_cc_188.6_80.4_200974.xsdst ! RUN = 200974 ! NEVT = 2000
FILE = /castor/cern.ch/delphi/MCprod/cern/wphact24/v98e/188.6/wphact24_cc_188.6_80.4_200975.xsdst ! RUN = 200975 ! NEVT = 1997
FILE = /castor/cern.ch/delphi/MCprod/cern/wphact24/v98e/188.6/wphact24_cc_188.6_80.4_200977.xsdst ! RUN = 200977 ! NEVT = 1999
FILE = /castor/cern.ch/delphi/MCprod/cern/wphact24/v98e/188.6/wphact24_cc_188.6_80.4_200978.xsdst ! RUN = 200978 ! NEVT = 2000
FILE = /castor/cern.ch/delphi/MCprod/cern/wphact24/v98e/188.6/wphact24_cc_188.6_80.4_200979.xsdst ! RUN = 200979 ! NEVT = 2000
FILE = /castor/cern.ch/delphi/MCprod/cern/wphact24/v98e/188.6/wphact24_cc_188.6_80.4_200980.xsdst ! RUN = 200980 ! NEVT = 1997
FILE = /castor/cern.ch/delphi/MCprod/cern/wphact24/v98e/188.6/wphact24_cc_188.6_80.4_200981.xsdst ! RUN = 200981 ! NEVT = 1999
FILE = /castor/cern.ch/delphi/MCprod/cern/wphact24/v98e/188.6/wphact24_cc_188.6_80.4_200982.xsdst ! RUN = 200982 ! NEVT = 1999
FILE = /castor/cern.ch/delphi/MCprod/cern/wphact24/v98e/188.6/wphact24_cc_188.6_80.4_200983.xsdst ! RUN = 200983 ! NEVT = 1999
FILE = /castor/cern.ch/delphi/MCprod/cern/wphact24/v98e/188.6/wphact24_cc_188.6_80.4_200985.xsdst ! RUN = 200985 ! NEVT = 2000
FILE = /castor/cern.ch/delphi/MCprod/cern/wphact24/v98e/188.6/wphact24_cc_188.6_80.4_200986.xsdst ! RUN = 200986 ! NEVT = 1999
FILE = /castor/cern.ch/delphi/MCprod/cern/wphact24/v98e/188.6/wphact24_cc_188.6_80.4_200987.xsdst ! RUN = 200987 ! NEVT = 1999
FILE = /castor/cern.ch/delphi/MCprod/cern/wphact24/v98e/188.6/wphact24_cc_188.6_80.4_200988.xsdst ! RUN = 200988 ! NEVT = 2000
FILE = /castor/cern.ch/delphi/MCprod/cern/wphact24/v98e/188.6/wphact24_cc_188.6_80.4_200989.xsdst ! RUN = 200989 ! NEVT = 1998
FILE = /castor/cern.ch/delphi/MCprod/cern/wphact24/v98e/188.6/wphact24_cc_188.6_80.4_200990.xsdst ! RUN = 200990 ! NEVT = 1999
FILE = /castor/cern.ch/delphi/MCprod/cern/wphact24/v98e/188.6/wphact24_cc_188.6_80.4_200991.xsdst ! RUN = 200991 ! NEVT = 2000
FILE = /castor/cern.ch/delphi/MCprod/cern/wphact24/v98e/188.6/wphact24_cc_188.6_80.4_200992.xsdst ! RUN = 200992 ! NEVT = 2000
FILE = /castor/cern.ch/delphi/MCprod/cern/wphact24/v98e/188.6/wphact24_cc_188.6_80.4_200993.xsdst ! RUN = 200993 ! NEVT = 2000
FILE = /castor/cern.ch/delphi/MCprod/cern/wphact24/v98e/188.6/wphact24_cc_188.6_80.4_200994.xsdst ! RUN = 200994 ! NEVT = 1998
FILE = /castor/cern.ch/delphi/MCprod/cern/wphact24/v98e/188.6/wphact24_cc_188.6_80.4_200995.xsdst ! RUN = 200995 ! NEVT = 1999
FILE = /castor/cern.ch/delphi/MCprod/cern/wphact24/v98e/188.6/wphact24_cc_188.6_80.4_200996.xsdst ! RUN = 200996 ! NEVT = 1999
FILE = /castor/cern.ch/delphi/MCprod/cern/wphact24/v98e/188.6/wphact24_cc_188.6_80.4_200997.xsdst ! RUN = 200997 ! NEVT = 1999
FILE = /castor/cern.ch/delphi/MCprod/cern/wphact24/v98e/188.6/wphact24_cc_188.6_80.4_200998.xsdst ! RUN = 200998 ! NEVT = 1999
FILE = /castor/cern.ch/delphi/MCprod/cern/wphact24/v98e/188.6/wphact24_cc_188.6_80.4_200999.xsdst ! RUN = 200999 ! NEVT = 1999
FILE = /castor/cern.ch/delphi/MCprod/cern/wphact24/v98e/188.6/wphact24_cc_188.6_80.4_201000.xsdst ! RUN = 201000 ! NEVT = 2000
