*
*   Nickname     : xs_wphact211ncgg_e188.6_m80.4_c98_1l_e1
*   Generic Name : //CERN/DELPHI/P02_SIMD/XSDST/WPHACT211NCGG/E188.6/CERN/SUMT/C001-120
*   Description  :  Extended Short DST simulation 98_e1 done at ecms=188.6 , CERN
*---
*   Comments     : in total 983163 events in 120 files time stamp: Sun Feb 24 12:19:20 2002
*---
*
*
*
*
*
FILE = /castor/cern.ch/delphi/MCprod/cern/wphact211/v98e/188.6/wphact211_ncgg_188.6_80.4_18001.xsdst ! RUN = 18001 ! NEVT = 8199
FILE = /castor/cern.ch/delphi/MCprod/cern/wphact211/v98e/188.6/wphact211_ncgg_188.6_80.4_18002.xsdst ! RUN = 18002 ! NEVT = 8200
FILE = /castor/cern.ch/delphi/MCprod/cern/wphact211/v98e/188.6/wphact211_ncgg_188.6_80.4_18003.xsdst ! RUN = 18003 ! NEVT = 8200
FILE = /castor/cern.ch/delphi/MCprod/cern/wphact211/v98e/188.6/wphact211_ncgg_188.6_80.4_18004.xsdst ! RUN = 18004 ! NEVT = 8200
FILE = /castor/cern.ch/delphi/MCprod/cern/wphact211/v98e/188.6/wphact211_ncgg_188.6_80.4_18005.xsdst ! RUN = 18005 ! NEVT = 8200
FILE = /castor/cern.ch/delphi/MCprod/cern/wphact211/v98e/188.6/wphact211_ncgg_188.6_80.4_18006.xsdst ! RUN = 18006 ! NEVT = 8200
FILE = /castor/cern.ch/delphi/MCprod/cern/wphact211/v98e/188.6/wphact211_ncgg_188.6_80.4_18007.xsdst ! RUN = 18007 ! NEVT = 8200
FILE = /castor/cern.ch/delphi/MCprod/cern/wphact211/v98e/188.6/wphact211_ncgg_188.6_80.4_18008.xsdst ! RUN = 18008 ! NEVT = 8199
FILE = /castor/cern.ch/delphi/MCprod/cern/wphact211/v98e/188.6/wphact211_ncgg_188.6_80.4_18009.xsdst ! RUN = 18009 ! NEVT = 8200
FILE = /castor/cern.ch/delphi/MCprod/cern/wphact211/v98e/188.6/wphact211_ncgg_188.6_80.4_18010.xsdst ! RUN = 18010 ! NEVT = 8200
FILE = /castor/cern.ch/delphi/MCprod/cern/wphact211/v98e/188.6/wphact211_ncgg_188.6_80.4_18011.xsdst ! RUN = 18011 ! NEVT = 8200
FILE = /castor/cern.ch/delphi/MCprod/cern/wphact211/v98e/188.6/wphact211_ncgg_188.6_80.4_18013.xsdst ! RUN = 18013 ! NEVT = 8200
FILE = /castor/cern.ch/delphi/MCprod/cern/wphact211/v98e/188.6/wphact211_ncgg_188.6_80.4_18014.xsdst ! RUN = 18014 ! NEVT = 8200
FILE = /castor/cern.ch/delphi/MCprod/cern/wphact211/v98e/188.6/wphact211_ncgg_188.6_80.4_18015.xsdst ! RUN = 18015 ! NEVT = 8200
FILE = /castor/cern.ch/delphi/MCprod/cern/wphact211/v98e/188.6/wphact211_ncgg_188.6_80.4_18016.xsdst ! RUN = 18016 ! NEVT = 8200
FILE = /castor/cern.ch/delphi/MCprod/cern/wphact211/v98e/188.6/wphact211_ncgg_188.6_80.4_18017.xsdst ! RUN = 18017 ! NEVT = 8200
FILE = /castor/cern.ch/delphi/MCprod/cern/wphact211/v98e/188.6/wphact211_ncgg_188.6_80.4_18018.xsdst ! RUN = 18018 ! NEVT = 8200
FILE = /castor/cern.ch/delphi/MCprod/cern/wphact211/v98e/188.6/wphact211_ncgg_188.6_80.4_18020.xsdst ! RUN = 18020 ! NEVT = 8199
FILE = /castor/cern.ch/delphi/MCprod/cern/wphact211/v98e/188.6/wphact211_ncgg_188.6_80.4_18021.xsdst ! RUN = 18021 ! NEVT = 8199
FILE = /castor/cern.ch/delphi/MCprod/cern/wphact211/v98e/188.6/wphact211_ncgg_188.6_80.4_18022.xsdst ! RUN = 18022 ! NEVT = 8200
FILE = /castor/cern.ch/delphi/MCprod/cern/wphact211/v98e/188.6/wphact211_ncgg_188.6_80.4_18023.xsdst ! RUN = 18023 ! NEVT = 8200
FILE = /castor/cern.ch/delphi/MCprod/cern/wphact211/v98e/188.6/wphact211_ncgg_188.6_80.4_18024.xsdst ! RUN = 18024 ! NEVT = 8200
FILE = /castor/cern.ch/delphi/MCprod/cern/wphact211/v98e/188.6/wphact211_ncgg_188.6_80.4_18025.xsdst ! RUN = 18025 ! NEVT = 8200
FILE = /castor/cern.ch/delphi/MCprod/cern/wphact211/v98e/188.6/wphact211_ncgg_188.6_80.4_18026.xsdst ! RUN = 18026 ! NEVT = 8200
FILE = /castor/cern.ch/delphi/MCprod/cern/wphact211/v98e/188.6/wphact211_ncgg_188.6_80.4_18027.xsdst ! RUN = 18027 ! NEVT = 8200
FILE = /castor/cern.ch/delphi/MCprod/cern/wphact211/v98e/188.6/wphact211_ncgg_188.6_80.4_18028.xsdst ! RUN = 18028 ! NEVT = 8200
FILE = /castor/cern.ch/delphi/MCprod/cern/wphact211/v98e/188.6/wphact211_ncgg_188.6_80.4_18029.xsdst ! RUN = 18029 ! NEVT = 8200
FILE = /castor/cern.ch/delphi/MCprod/cern/wphact211/v98e/188.6/wphact211_ncgg_188.6_80.4_18030.xsdst ! RUN = 18030 ! NEVT = 8200
FILE = /castor/cern.ch/delphi/MCprod/cern/wphact211/v98e/188.6/wphact211_ncgg_188.6_80.4_18031.xsdst ! RUN = 18031 ! NEVT = 8200
FILE = /castor/cern.ch/delphi/MCprod/cern/wphact211/v98e/188.6/wphact211_ncgg_188.6_80.4_18032.xsdst ! RUN = 18032 ! NEVT = 8200
FILE = /castor/cern.ch/delphi/MCprod/cern/wphact211/v98e/188.6/wphact211_ncgg_188.6_80.4_18033.xsdst ! RUN = 18033 ! NEVT = 8200
FILE = /castor/cern.ch/delphi/MCprod/cern/wphact211/v98e/188.6/wphact211_ncgg_188.6_80.4_18034.xsdst ! RUN = 18034 ! NEVT = 8200
FILE = /castor/cern.ch/delphi/MCprod/cern/wphact211/v98e/188.6/wphact211_ncgg_188.6_80.4_18035.xsdst ! RUN = 18035 ! NEVT = 8200
FILE = /castor/cern.ch/delphi/MCprod/cern/wphact211/v98e/188.6/wphact211_ncgg_188.6_80.4_18036.xsdst ! RUN = 18036 ! NEVT = 8200
FILE = /castor/cern.ch/delphi/MCprod/cern/wphact211/v98e/188.6/wphact211_ncgg_188.6_80.4_18037.xsdst ! RUN = 18037 ! NEVT = 8200
FILE = /castor/cern.ch/delphi/MCprod/cern/wphact211/v98e/188.6/wphact211_ncgg_188.6_80.4_18038.xsdst ! RUN = 18038 ! NEVT = 8200
FILE = /castor/cern.ch/delphi/MCprod/cern/wphact211/v98e/188.6/wphact211_ncgg_188.6_80.4_18039.xsdst ! RUN = 18039 ! NEVT = 8200
FILE = /castor/cern.ch/delphi/MCprod/cern/wphact211/v98e/188.6/wphact211_ncgg_188.6_80.4_18041.xsdst ! RUN = 18041 ! NEVT = 8200
FILE = /castor/cern.ch/delphi/MCprod/cern/wphact211/v98e/188.6/wphact211_ncgg_188.6_80.4_18042.xsdst ! RUN = 18042 ! NEVT = 8200
FILE = /castor/cern.ch/delphi/MCprod/cern/wphact211/v98e/188.6/wphact211_ncgg_188.6_80.4_18043.xsdst ! RUN = 18043 ! NEVT = 8200
FILE = /castor/cern.ch/delphi/MCprod/cern/wphact211/v98e/188.6/wphact211_ncgg_188.6_80.4_18044.xsdst ! RUN = 18044 ! NEVT = 8199
FILE = /castor/cern.ch/delphi/MCprod/cern/wphact211/v98e/188.6/wphact211_ncgg_188.6_80.4_18045.xsdst ! RUN = 18045 ! NEVT = 8200
FILE = /castor/cern.ch/delphi/MCprod/cern/wphact211/v98e/188.6/wphact211_ncgg_188.6_80.4_18046.xsdst ! RUN = 18046 ! NEVT = 8200
FILE = /castor/cern.ch/delphi/MCprod/cern/wphact211/v98e/188.6/wphact211_ncgg_188.6_80.4_18047.xsdst ! RUN = 18047 ! NEVT = 8200
FILE = /castor/cern.ch/delphi/MCprod/cern/wphact211/v98e/188.6/wphact211_ncgg_188.6_80.4_18048.xsdst ! RUN = 18048 ! NEVT = 8200
FILE = /castor/cern.ch/delphi/MCprod/cern/wphact211/v98e/188.6/wphact211_ncgg_188.6_80.4_18049.xsdst ! RUN = 18049 ! NEVT = 7378
FILE = /castor/cern.ch/delphi/MCprod/cern/wphact211/v98e/188.6/wphact211_ncgg_188.6_80.4_18050.xsdst ! RUN = 18050 ! NEVT = 8200
FILE = /castor/cern.ch/delphi/MCprod/cern/wphact211/v98e/188.6/wphact211_ncgg_188.6_80.4_18051.xsdst ! RUN = 18051 ! NEVT = 8200
FILE = /castor/cern.ch/delphi/MCprod/cern/wphact211/v98e/188.6/wphact211_ncgg_188.6_80.4_18052.xsdst ! RUN = 18052 ! NEVT = 8200
FILE = /castor/cern.ch/delphi/MCprod/cern/wphact211/v98e/188.6/wphact211_ncgg_188.6_80.4_18053.xsdst ! RUN = 18053 ! NEVT = 8200
FILE = /castor/cern.ch/delphi/MCprod/cern/wphact211/v98e/188.6/wphact211_ncgg_188.6_80.4_18054.xsdst ! RUN = 18054 ! NEVT = 8200
FILE = /castor/cern.ch/delphi/MCprod/cern/wphact211/v98e/188.6/wphact211_ncgg_188.6_80.4_18055.xsdst ! RUN = 18055 ! NEVT = 8200
FILE = /castor/cern.ch/delphi/MCprod/cern/wphact211/v98e/188.6/wphact211_ncgg_188.6_80.4_18056.xsdst ! RUN = 18056 ! NEVT = 8200
FILE = /castor/cern.ch/delphi/MCprod/cern/wphact211/v98e/188.6/wphact211_ncgg_188.6_80.4_18057.xsdst ! RUN = 18057 ! NEVT = 8200
FILE = /castor/cern.ch/delphi/MCprod/cern/wphact211/v98e/188.6/wphact211_ncgg_188.6_80.4_18058.xsdst ! RUN = 18058 ! NEVT = 8200
FILE = /castor/cern.ch/delphi/MCprod/cern/wphact211/v98e/188.6/wphact211_ncgg_188.6_80.4_18059.xsdst ! RUN = 18059 ! NEVT = 8199
FILE = /castor/cern.ch/delphi/MCprod/cern/wphact211/v98e/188.6/wphact211_ncgg_188.6_80.4_18060.xsdst ! RUN = 18060 ! NEVT = 8200
FILE = /castor/cern.ch/delphi/MCprod/cern/wphact211/v98e/188.6/wphact211_ncgg_188.6_80.4_18061.xsdst ! RUN = 18061 ! NEVT = 8200
FILE = /castor/cern.ch/delphi/MCprod/cern/wphact211/v98e/188.6/wphact211_ncgg_188.6_80.4_18062.xsdst ! RUN = 18062 ! NEVT = 8199
FILE = /castor/cern.ch/delphi/MCprod/cern/wphact211/v98e/188.6/wphact211_ncgg_188.6_80.4_18063.xsdst ! RUN = 18063 ! NEVT = 8200
FILE = /castor/cern.ch/delphi/MCprod/cern/wphact211/v98e/188.6/wphact211_ncgg_188.6_80.4_18064.xsdst ! RUN = 18064 ! NEVT = 8200
FILE = /castor/cern.ch/delphi/MCprod/cern/wphact211/v98e/188.6/wphact211_ncgg_188.6_80.4_18065.xsdst ! RUN = 18065 ! NEVT = 8200
FILE = /castor/cern.ch/delphi/MCprod/cern/wphact211/v98e/188.6/wphact211_ncgg_188.6_80.4_18066.xsdst ! RUN = 18066 ! NEVT = 8200
FILE = /castor/cern.ch/delphi/MCprod/cern/wphact211/v98e/188.6/wphact211_ncgg_188.6_80.4_18067.xsdst ! RUN = 18067 ! NEVT = 8200
FILE = /castor/cern.ch/delphi/MCprod/cern/wphact211/v98e/188.6/wphact211_ncgg_188.6_80.4_18068.xsdst ! RUN = 18068 ! NEVT = 8200
FILE = /castor/cern.ch/delphi/MCprod/cern/wphact211/v98e/188.6/wphact211_ncgg_188.6_80.4_18069.xsdst ! RUN = 18069 ! NEVT = 8199
FILE = /castor/cern.ch/delphi/MCprod/cern/wphact211/v98e/188.6/wphact211_ncgg_188.6_80.4_18070.xsdst ! RUN = 18070 ! NEVT = 8200
FILE = /castor/cern.ch/delphi/MCprod/cern/wphact211/v98e/188.6/wphact211_ncgg_188.6_80.4_18071.xsdst ! RUN = 18071 ! NEVT = 8200
FILE = /castor/cern.ch/delphi/MCprod/cern/wphact211/v98e/188.6/wphact211_ncgg_188.6_80.4_18072.xsdst ! RUN = 18072 ! NEVT = 8199
FILE = /castor/cern.ch/delphi/MCprod/cern/wphact211/v98e/188.6/wphact211_ncgg_188.6_80.4_18073.xsdst ! RUN = 18073 ! NEVT = 8199
FILE = /castor/cern.ch/delphi/MCprod/cern/wphact211/v98e/188.6/wphact211_ncgg_188.6_80.4_18074.xsdst ! RUN = 18074 ! NEVT = 8200
FILE = /castor/cern.ch/delphi/MCprod/cern/wphact211/v98e/188.6/wphact211_ncgg_188.6_80.4_18075.xsdst ! RUN = 18075 ! NEVT = 8200
FILE = /castor/cern.ch/delphi/MCprod/cern/wphact211/v98e/188.6/wphact211_ncgg_188.6_80.4_18076.xsdst ! RUN = 18076 ! NEVT = 8200
FILE = /castor/cern.ch/delphi/MCprod/cern/wphact211/v98e/188.6/wphact211_ncgg_188.6_80.4_18077.xsdst ! RUN = 18077 ! NEVT = 8199
FILE = /castor/cern.ch/delphi/MCprod/cern/wphact211/v98e/188.6/wphact211_ncgg_188.6_80.4_18078.xsdst ! RUN = 18078 ! NEVT = 8200
FILE = /castor/cern.ch/delphi/MCprod/cern/wphact211/v98e/188.6/wphact211_ncgg_188.6_80.4_18079.xsdst ! RUN = 18079 ! NEVT = 8200
FILE = /castor/cern.ch/delphi/MCprod/cern/wphact211/v98e/188.6/wphact211_ncgg_188.6_80.4_18080.xsdst ! RUN = 18080 ! NEVT = 8200
FILE = /castor/cern.ch/delphi/MCprod/cern/wphact211/v98e/188.6/wphact211_ncgg_188.6_80.4_18081.xsdst ! RUN = 18081 ! NEVT = 8200
FILE = /castor/cern.ch/delphi/MCprod/cern/wphact211/v98e/188.6/wphact211_ncgg_188.6_80.4_18082.xsdst ! RUN = 18082 ! NEVT = 8200
FILE = /castor/cern.ch/delphi/MCprod/cern/wphact211/v98e/188.6/wphact211_ncgg_188.6_80.4_18083.xsdst ! RUN = 18083 ! NEVT = 8200
FILE = /castor/cern.ch/delphi/MCprod/cern/wphact211/v98e/188.6/wphact211_ncgg_188.6_80.4_18084.xsdst ! RUN = 18084 ! NEVT = 8200
FILE = /castor/cern.ch/delphi/MCprod/cern/wphact211/v98e/188.6/wphact211_ncgg_188.6_80.4_18086.xsdst ! RUN = 18086 ! NEVT = 8200
FILE = /castor/cern.ch/delphi/MCprod/cern/wphact211/v98e/188.6/wphact211_ncgg_188.6_80.4_18087.xsdst ! RUN = 18087 ! NEVT = 8200
FILE = /castor/cern.ch/delphi/MCprod/cern/wphact211/v98e/188.6/wphact211_ncgg_188.6_80.4_18088.xsdst ! RUN = 18088 ! NEVT = 8200
FILE = /castor/cern.ch/delphi/MCprod/cern/wphact211/v98e/188.6/wphact211_ncgg_188.6_80.4_18090.xsdst ! RUN = 18090 ! NEVT = 8200
FILE = /castor/cern.ch/delphi/MCprod/cern/wphact211/v98e/188.6/wphact211_ncgg_188.6_80.4_18091.xsdst ! RUN = 18091 ! NEVT = 8200
FILE = /castor/cern.ch/delphi/MCprod/cern/wphact211/v98e/188.6/wphact211_ncgg_188.6_80.4_18092.xsdst ! RUN = 18092 ! NEVT = 8200
FILE = /castor/cern.ch/delphi/MCprod/cern/wphact211/v98e/188.6/wphact211_ncgg_188.6_80.4_18093.xsdst ! RUN = 18093 ! NEVT = 8200
FILE = /castor/cern.ch/delphi/MCprod/cern/wphact211/v98e/188.6/wphact211_ncgg_188.6_80.4_18094.xsdst ! RUN = 18094 ! NEVT = 8200
FILE = /castor/cern.ch/delphi/MCprod/cern/wphact211/v98e/188.6/wphact211_ncgg_188.6_80.4_18095.xsdst ! RUN = 18095 ! NEVT = 8200
FILE = /castor/cern.ch/delphi/MCprod/cern/wphact211/v98e/188.6/wphact211_ncgg_188.6_80.4_18096.xsdst ! RUN = 18096 ! NEVT = 8200
FILE = /castor/cern.ch/delphi/MCprod/cern/wphact211/v98e/188.6/wphact211_ncgg_188.6_80.4_18097.xsdst ! RUN = 18097 ! NEVT = 8200
FILE = /castor/cern.ch/delphi/MCprod/cern/wphact211/v98e/188.6/wphact211_ncgg_188.6_80.4_18098.xsdst ! RUN = 18098 ! NEVT = 8200
FILE = /castor/cern.ch/delphi/MCprod/cern/wphact211/v98e/188.6/wphact211_ncgg_188.6_80.4_18099.xsdst ! RUN = 18099 ! NEVT = 8199
FILE = /castor/cern.ch/delphi/MCprod/cern/wphact211/v98e/188.6/wphact211_ncgg_188.6_80.4_18100.xsdst ! RUN = 18100 ! NEVT = 8200
FILE = /castor/cern.ch/delphi/MCprod/cern/wphact211/v98e/188.6/wphact211_ncgg_188.6_80.4_18101.xsdst ! RUN = 18101 ! NEVT = 8200
FILE = /castor/cern.ch/delphi/MCprod/cern/wphact211/v98e/188.6/wphact211_ncgg_188.6_80.4_18102.xsdst ! RUN = 18102 ! NEVT = 8199
FILE = /castor/cern.ch/delphi/MCprod/cern/wphact211/v98e/188.6/wphact211_ncgg_188.6_80.4_18103.xsdst ! RUN = 18103 ! NEVT = 8200
FILE = /castor/cern.ch/delphi/MCprod/cern/wphact211/v98e/188.6/wphact211_ncgg_188.6_80.4_18104.xsdst ! RUN = 18104 ! NEVT = 8200
FILE = /castor/cern.ch/delphi/MCprod/cern/wphact211/v98e/188.6/wphact211_ncgg_188.6_80.4_18105.xsdst ! RUN = 18105 ! NEVT = 8200
FILE = /castor/cern.ch/delphi/MCprod/cern/wphact211/v98e/188.6/wphact211_ncgg_188.6_80.4_18106.xsdst ! RUN = 18106 ! NEVT = 8200
FILE = /castor/cern.ch/delphi/MCprod/cern/wphact211/v98e/188.6/wphact211_ncgg_188.6_80.4_18107.xsdst ! RUN = 18107 ! NEVT = 8200
FILE = /castor/cern.ch/delphi/MCprod/cern/wphact211/v98e/188.6/wphact211_ncgg_188.6_80.4_18108.xsdst ! RUN = 18108 ! NEVT = 8200
FILE = /castor/cern.ch/delphi/MCprod/cern/wphact211/v98e/188.6/wphact211_ncgg_188.6_80.4_18109.xsdst ! RUN = 18109 ! NEVT = 8200
FILE = /castor/cern.ch/delphi/MCprod/cern/wphact211/v98e/188.6/wphact211_ncgg_188.6_80.4_18110.xsdst ! RUN = 18110 ! NEVT = 8199
FILE = /castor/cern.ch/delphi/MCprod/cern/wphact211/v98e/188.6/wphact211_ncgg_188.6_80.4_18111.xsdst ! RUN = 18111 ! NEVT = 8200
FILE = /castor/cern.ch/delphi/MCprod/cern/wphact211/v98e/188.6/wphact211_ncgg_188.6_80.4_18112.xsdst ! RUN = 18112 ! NEVT = 8199
FILE = /castor/cern.ch/delphi/MCprod/cern/wphact211/v98e/188.6/wphact211_ncgg_188.6_80.4_18113.xsdst ! RUN = 18113 ! NEVT = 8200
FILE = /castor/cern.ch/delphi/MCprod/cern/wphact211/v98e/188.6/wphact211_ncgg_188.6_80.4_18114.xsdst ! RUN = 18114 ! NEVT = 8200
FILE = /castor/cern.ch/delphi/MCprod/cern/wphact211/v98e/188.6/wphact211_ncgg_188.6_80.4_18115.xsdst ! RUN = 18115 ! NEVT = 8200
FILE = /castor/cern.ch/delphi/MCprod/cern/wphact211/v98e/188.6/wphact211_ncgg_188.6_80.4_18116.xsdst ! RUN = 18116 ! NEVT = 8200
FILE = /castor/cern.ch/delphi/MCprod/cern/wphact211/v98e/188.6/wphact211_ncgg_188.6_80.4_18117.xsdst ! RUN = 18117 ! NEVT = 8200
FILE = /castor/cern.ch/delphi/MCprod/cern/wphact211/v98e/188.6/wphact211_ncgg_188.6_80.4_18118.xsdst ! RUN = 18118 ! NEVT = 8200
FILE = /castor/cern.ch/delphi/MCprod/cern/wphact211/v98e/188.6/wphact211_ncgg_188.6_80.4_18119.xsdst ! RUN = 18119 ! NEVT = 8200
FILE = /castor/cern.ch/delphi/MCprod/cern/wphact211/v98e/188.6/wphact211_ncgg_188.6_80.4_18120.xsdst ! RUN = 18120 ! NEVT = 8200
FILE = /castor/cern.ch/delphi/MCprod/cern/wphact211/v98e/188.6/wphact211_ncgg_188.6_80.4_18121.xsdst ! RUN = 18121 ! NEVT = 8200
FILE = /castor/cern.ch/delphi/MCprod/cern/wphact211/v98e/188.6/wphact211_ncgg_188.6_80.4_18122.xsdst ! RUN = 18122 ! NEVT = 8200
FILE = /castor/cern.ch/delphi/MCprod/cern/wphact211/v98e/188.6/wphact211_ncgg_188.6_80.4_18123.xsdst ! RUN = 18123 ! NEVT = 8200
FILE = /castor/cern.ch/delphi/MCprod/cern/wphact211/v98e/188.6/wphact211_ncgg_188.6_80.4_18124.xsdst ! RUN = 18124 ! NEVT = 8200
FILE = /castor/cern.ch/delphi/MCprod/cern/wphact211/v98e/188.6/wphact211_ncgg_188.6_80.4_18125.xsdst ! RUN = 18125 ! NEVT = 8200
