*   Nickname :     xs_wphact244qsk1_e188.6_m80.4_c98_1l_e1
*   Generic Name : //CERN/DELPHI/P02_SIMD/XSDST/WPHACT244QSK1/E188.6/CERN/SUMT/C001-485
*   Description :   Extended Short DST simulation 98e  done at ecm=188.6 GeV , CERN
*   Comments :     in total 928497 events in 485 files, time stamp: Sun Dec 21 4:12:33 2003
*
*
*
FILE = /castor/cern.ch/delphi/MCprod/cern/wphact24/v98e/188.6/wphact24_4qsk1_188.6_80.4_204501.xsdst ! RUN = 204501 ! NEVT = 2000
FILE = /castor/cern.ch/delphi/MCprod/cern/wphact24/v98e/188.6/wphact24_4qsk1_188.6_80.4_204502.xsdst ! RUN = 204502 ! NEVT = 2000
FILE = /castor/cern.ch/delphi/MCprod/cern/wphact24/v98e/188.6/wphact24_4qsk1_188.6_80.4_204503.xsdst ! RUN = 204503 ! NEVT = 2000
FILE = /castor/cern.ch/delphi/MCprod/cern/wphact24/v98e/188.6/wphact24_4qsk1_188.6_80.4_204504.xsdst ! RUN = 204504 ! NEVT = 1999
FILE = /castor/cern.ch/delphi/MCprod/cern/wphact24/v98e/188.6/wphact24_4qsk1_188.6_80.4_204505.xsdst ! RUN = 204505 ! NEVT = 1998
FILE = /castor/cern.ch/delphi/MCprod/cern/wphact24/v98e/188.6/wphact24_4qsk1_188.6_80.4_204506.xsdst ! RUN = 204506 ! NEVT = 1999
FILE = /castor/cern.ch/delphi/MCprod/cern/wphact24/v98e/188.6/wphact24_4qsk1_188.6_80.4_204507.xsdst ! RUN = 204507 ! NEVT = 1999
FILE = /castor/cern.ch/delphi/MCprod/cern/wphact24/v98e/188.6/wphact24_4qsk1_188.6_80.4_204508.xsdst ! RUN = 204508 ! NEVT = 1999
FILE = /castor/cern.ch/delphi/MCprod/cern/wphact24/v98e/188.6/wphact24_4qsk1_188.6_80.4_204509.xsdst ! RUN = 204509 ! NEVT = 2000
FILE = /castor/cern.ch/delphi/MCprod/cern/wphact24/v98e/188.6/wphact24_4qsk1_188.6_80.4_204510.xsdst ! RUN = 204510 ! NEVT = 1999
FILE = /castor/cern.ch/delphi/MCprod/cern/wphact24/v98e/188.6/wphact24_4qsk1_188.6_80.4_204511.xsdst ! RUN = 204511 ! NEVT = 1998
FILE = /castor/cern.ch/delphi/MCprod/cern/wphact24/v98e/188.6/wphact24_4qsk1_188.6_80.4_204512.xsdst ! RUN = 204512 ! NEVT = 2000
FILE = /castor/cern.ch/delphi/MCprod/cern/wphact24/v98e/188.6/wphact24_4qsk1_188.6_80.4_204513.xsdst ! RUN = 204513 ! NEVT = 1998
FILE = /castor/cern.ch/delphi/MCprod/cern/wphact24/v98e/188.6/wphact24_4qsk1_188.6_80.4_204514.xsdst ! RUN = 204514 ! NEVT = 2000
FILE = /castor/cern.ch/delphi/MCprod/cern/wphact24/v98e/188.6/wphact24_4qsk1_188.6_80.4_204515.xsdst ! RUN = 204515 ! NEVT = 1999
FILE = /castor/cern.ch/delphi/MCprod/cern/wphact24/v98e/188.6/wphact24_4qsk1_188.6_80.4_204516.xsdst ! RUN = 204516 ! NEVT = 1999
FILE = /castor/cern.ch/delphi/MCprod/cern/wphact24/v98e/188.6/wphact24_4qsk1_188.6_80.4_204517.xsdst ! RUN = 204517 ! NEVT = 1999
FILE = /castor/cern.ch/delphi/MCprod/cern/wphact24/v98e/188.6/wphact24_4qsk1_188.6_80.4_204518.xsdst ! RUN = 204518 ! NEVT = 1999
FILE = /castor/cern.ch/delphi/MCprod/cern/wphact24/v98e/188.6/wphact24_4qsk1_188.6_80.4_204519.xsdst ! RUN = 204519 ! NEVT = 1100
FILE = /castor/cern.ch/delphi/MCprod/cern/wphact24/v98e/188.6/wphact24_4qsk1_188.6_80.4_204520.xsdst ! RUN = 204520 ! NEVT = 1999
FILE = /castor/cern.ch/delphi/MCprod/cern/wphact24/v98e/188.6/wphact24_4qsk1_188.6_80.4_204521.xsdst ! RUN = 204521 ! NEVT = 1999
FILE = /castor/cern.ch/delphi/MCprod/cern/wphact24/v98e/188.6/wphact24_4qsk1_188.6_80.4_204522.xsdst ! RUN = 204522 ! NEVT = 2000
FILE = /castor/cern.ch/delphi/MCprod/cern/wphact24/v98e/188.6/wphact24_4qsk1_188.6_80.4_204523.xsdst ! RUN = 204523 ! NEVT = 2000
FILE = /castor/cern.ch/delphi/MCprod/cern/wphact24/v98e/188.6/wphact24_4qsk1_188.6_80.4_204524.xsdst ! RUN = 204524 ! NEVT = 1998
FILE = /castor/cern.ch/delphi/MCprod/cern/wphact24/v98e/188.6/wphact24_4qsk1_188.6_80.4_204525.xsdst ! RUN = 204525 ! NEVT = 1998
FILE = /castor/cern.ch/delphi/MCprod/cern/wphact24/v98e/188.6/wphact24_4qsk1_188.6_80.4_204526.xsdst ! RUN = 204526 ! NEVT = 1999
FILE = /castor/cern.ch/delphi/MCprod/cern/wphact24/v98e/188.6/wphact24_4qsk1_188.6_80.4_204527.xsdst ! RUN = 204527 ! NEVT = 2000
FILE = /castor/cern.ch/delphi/MCprod/cern/wphact24/v98e/188.6/wphact24_4qsk1_188.6_80.4_204528.xsdst ! RUN = 204528 ! NEVT = 2000
FILE = /castor/cern.ch/delphi/MCprod/cern/wphact24/v98e/188.6/wphact24_4qsk1_188.6_80.4_204529.xsdst ! RUN = 204529 ! NEVT = 11
FILE = /castor/cern.ch/delphi/MCprod/cern/wphact24/v98e/188.6/wphact24_4qsk1_188.6_80.4_204530.xsdst ! RUN = 204530 ! NEVT = 2000
FILE = /castor/cern.ch/delphi/MCprod/cern/wphact24/v98e/188.6/wphact24_4qsk1_188.6_80.4_204531.xsdst ! RUN = 204531 ! NEVT = 1999
FILE = /castor/cern.ch/delphi/MCprod/cern/wphact24/v98e/188.6/wphact24_4qsk1_188.6_80.4_204532.xsdst ! RUN = 204532 ! NEVT = 1999
FILE = /castor/cern.ch/delphi/MCprod/cern/wphact24/v98e/188.6/wphact24_4qsk1_188.6_80.4_204533.xsdst ! RUN = 204533 ! NEVT = 2000
FILE = /castor/cern.ch/delphi/MCprod/cern/wphact24/v98e/188.6/wphact24_4qsk1_188.6_80.4_204534.xsdst ! RUN = 204534 ! NEVT = 2000
FILE = /castor/cern.ch/delphi/MCprod/cern/wphact24/v98e/188.6/wphact24_4qsk1_188.6_80.4_204535.xsdst ! RUN = 204535 ! NEVT = 1998
FILE = /castor/cern.ch/delphi/MCprod/cern/wphact24/v98e/188.6/wphact24_4qsk1_188.6_80.4_204537.xsdst ! RUN = 204537 ! NEVT = 1999
FILE = /castor/cern.ch/delphi/MCprod/cern/wphact24/v98e/188.6/wphact24_4qsk1_188.6_80.4_204538.xsdst ! RUN = 204538 ! NEVT = 434
FILE = /castor/cern.ch/delphi/MCprod/cern/wphact24/v98e/188.6/wphact24_4qsk1_188.6_80.4_204539.xsdst ! RUN = 204539 ! NEVT = 2000
FILE = /castor/cern.ch/delphi/MCprod/cern/wphact24/v98e/188.6/wphact24_4qsk1_188.6_80.4_204540.xsdst ! RUN = 204540 ! NEVT = 2000
FILE = /castor/cern.ch/delphi/MCprod/cern/wphact24/v98e/188.6/wphact24_4qsk1_188.6_80.4_204541.xsdst ! RUN = 204541 ! NEVT = 2000
FILE = /castor/cern.ch/delphi/MCprod/cern/wphact24/v98e/188.6/wphact24_4qsk1_188.6_80.4_204542.xsdst ! RUN = 204542 ! NEVT = 1999
FILE = /castor/cern.ch/delphi/MCprod/cern/wphact24/v98e/188.6/wphact24_4qsk1_188.6_80.4_204543.xsdst ! RUN = 204543 ! NEVT = 1999
FILE = /castor/cern.ch/delphi/MCprod/cern/wphact24/v98e/188.6/wphact24_4qsk1_188.6_80.4_204544.xsdst ! RUN = 204544 ! NEVT = 1999
FILE = /castor/cern.ch/delphi/MCprod/cern/wphact24/v98e/188.6/wphact24_4qsk1_188.6_80.4_204545.xsdst ! RUN = 204545 ! NEVT = 1999
FILE = /castor/cern.ch/delphi/MCprod/cern/wphact24/v98e/188.6/wphact24_4qsk1_188.6_80.4_204546.xsdst ! RUN = 204546 ! NEVT = 2000
FILE = /castor/cern.ch/delphi/MCprod/cern/wphact24/v98e/188.6/wphact24_4qsk1_188.6_80.4_204547.xsdst ! RUN = 204547 ! NEVT = 1998
FILE = /castor/cern.ch/delphi/MCprod/cern/wphact24/v98e/188.6/wphact24_4qsk1_188.6_80.4_204548.xsdst ! RUN = 204548 ! NEVT = 1999
FILE = /castor/cern.ch/delphi/MCprod/cern/wphact24/v98e/188.6/wphact24_4qsk1_188.6_80.4_204549.xsdst ! RUN = 204549 ! NEVT = 2000
FILE = /castor/cern.ch/delphi/MCprod/cern/wphact24/v98e/188.6/wphact24_4qsk1_188.6_80.4_204550.xsdst ! RUN = 204550 ! NEVT = 1999
FILE = /castor/cern.ch/delphi/MCprod/cern/wphact24/v98e/188.6/wphact24_4qsk1_188.6_80.4_204551.xsdst ! RUN = 204551 ! NEVT = 1999
FILE = /castor/cern.ch/delphi/MCprod/cern/wphact24/v98e/188.6/wphact24_4qsk1_188.6_80.4_204552.xsdst ! RUN = 204552 ! NEVT = 1999
FILE = /castor/cern.ch/delphi/MCprod/cern/wphact24/v98e/188.6/wphact24_4qsk1_188.6_80.4_204553.xsdst ! RUN = 204553 ! NEVT = 1998
FILE = /castor/cern.ch/delphi/MCprod/cern/wphact24/v98e/188.6/wphact24_4qsk1_188.6_80.4_204554.xsdst ! RUN = 204554 ! NEVT = 1999
FILE = /castor/cern.ch/delphi/MCprod/cern/wphact24/v98e/188.6/wphact24_4qsk1_188.6_80.4_204555.xsdst ! RUN = 204555 ! NEVT = 664
FILE = /castor/cern.ch/delphi/MCprod/cern/wphact24/v98e/188.6/wphact24_4qsk1_188.6_80.4_204556.xsdst ! RUN = 204556 ! NEVT = 2000
FILE = /castor/cern.ch/delphi/MCprod/cern/wphact24/v98e/188.6/wphact24_4qsk1_188.6_80.4_204558.xsdst ! RUN = 204558 ! NEVT = 2000
FILE = /castor/cern.ch/delphi/MCprod/cern/wphact24/v98e/188.6/wphact24_4qsk1_188.6_80.4_204559.xsdst ! RUN = 204559 ! NEVT = 1999
FILE = /castor/cern.ch/delphi/MCprod/cern/wphact24/v98e/188.6/wphact24_4qsk1_188.6_80.4_204560.xsdst ! RUN = 204560 ! NEVT = 1999
FILE = /castor/cern.ch/delphi/MCprod/cern/wphact24/v98e/188.6/wphact24_4qsk1_188.6_80.4_204561.xsdst ! RUN = 204561 ! NEVT = 1999
FILE = /castor/cern.ch/delphi/MCprod/cern/wphact24/v98e/188.6/wphact24_4qsk1_188.6_80.4_204562.xsdst ! RUN = 204562 ! NEVT = 1998
FILE = /castor/cern.ch/delphi/MCprod/cern/wphact24/v98e/188.6/wphact24_4qsk1_188.6_80.4_204563.xsdst ! RUN = 204563 ! NEVT = 2000
FILE = /castor/cern.ch/delphi/MCprod/cern/wphact24/v98e/188.6/wphact24_4qsk1_188.6_80.4_204564.xsdst ! RUN = 204564 ! NEVT = 2000
FILE = /castor/cern.ch/delphi/MCprod/cern/wphact24/v98e/188.6/wphact24_4qsk1_188.6_80.4_204565.xsdst ! RUN = 204565 ! NEVT = 2000
FILE = /castor/cern.ch/delphi/MCprod/cern/wphact24/v98e/188.6/wphact24_4qsk1_188.6_80.4_204566.xsdst ! RUN = 204566 ! NEVT = 1998
FILE = /castor/cern.ch/delphi/MCprod/cern/wphact24/v98e/188.6/wphact24_4qsk1_188.6_80.4_204567.xsdst ! RUN = 204567 ! NEVT = 1997
FILE = /castor/cern.ch/delphi/MCprod/cern/wphact24/v98e/188.6/wphact24_4qsk1_188.6_80.4_204568.xsdst ! RUN = 204568 ! NEVT = 2000
FILE = /castor/cern.ch/delphi/MCprod/cern/wphact24/v98e/188.6/wphact24_4qsk1_188.6_80.4_204569.xsdst ! RUN = 204569 ! NEVT = 1998
FILE = /castor/cern.ch/delphi/MCprod/cern/wphact24/v98e/188.6/wphact24_4qsk1_188.6_80.4_204570.xsdst ! RUN = 204570 ! NEVT = 2000
FILE = /castor/cern.ch/delphi/MCprod/cern/wphact24/v98e/188.6/wphact24_4qsk1_188.6_80.4_204571.xsdst ! RUN = 204571 ! NEVT = 1999
FILE = /castor/cern.ch/delphi/MCprod/cern/wphact24/v98e/188.6/wphact24_4qsk1_188.6_80.4_204572.xsdst ! RUN = 204572 ! NEVT = 1999
FILE = /castor/cern.ch/delphi/MCprod/cern/wphact24/v98e/188.6/wphact24_4qsk1_188.6_80.4_204573.xsdst ! RUN = 204573 ! NEVT = 2000
FILE = /castor/cern.ch/delphi/MCprod/cern/wphact24/v98e/188.6/wphact24_4qsk1_188.6_80.4_204574.xsdst ! RUN = 204574 ! NEVT = 2000
FILE = /castor/cern.ch/delphi/MCprod/cern/wphact24/v98e/188.6/wphact24_4qsk1_188.6_80.4_204575.xsdst ! RUN = 204575 ! NEVT = 2000
FILE = /castor/cern.ch/delphi/MCprod/cern/wphact24/v98e/188.6/wphact24_4qsk1_188.6_80.4_204576.xsdst ! RUN = 204576 ! NEVT = 2000
FILE = /castor/cern.ch/delphi/MCprod/cern/wphact24/v98e/188.6/wphact24_4qsk1_188.6_80.4_204578.xsdst ! RUN = 204578 ! NEVT = 1999
FILE = /castor/cern.ch/delphi/MCprod/cern/wphact24/v98e/188.6/wphact24_4qsk1_188.6_80.4_204580.xsdst ! RUN = 204580 ! NEVT = 1999
FILE = /castor/cern.ch/delphi/MCprod/cern/wphact24/v98e/188.6/wphact24_4qsk1_188.6_80.4_204581.xsdst ! RUN = 204581 ! NEVT = 2000
FILE = /castor/cern.ch/delphi/MCprod/cern/wphact24/v98e/188.6/wphact24_4qsk1_188.6_80.4_204582.xsdst ! RUN = 204582 ! NEVT = 1999
FILE = /castor/cern.ch/delphi/MCprod/cern/wphact24/v98e/188.6/wphact24_4qsk1_188.6_80.4_204583.xsdst ! RUN = 204583 ! NEVT = 1997
FILE = /castor/cern.ch/delphi/MCprod/cern/wphact24/v98e/188.6/wphact24_4qsk1_188.6_80.4_204584.xsdst ! RUN = 204584 ! NEVT = 1999
FILE = /castor/cern.ch/delphi/MCprod/cern/wphact24/v98e/188.6/wphact24_4qsk1_188.6_80.4_204585.xsdst ! RUN = 204585 ! NEVT = 1999
FILE = /castor/cern.ch/delphi/MCprod/cern/wphact24/v98e/188.6/wphact24_4qsk1_188.6_80.4_204586.xsdst ! RUN = 204586 ! NEVT = 1999
FILE = /castor/cern.ch/delphi/MCprod/cern/wphact24/v98e/188.6/wphact24_4qsk1_188.6_80.4_204587.xsdst ! RUN = 204587 ! NEVT = 1999
FILE = /castor/cern.ch/delphi/MCprod/cern/wphact24/v98e/188.6/wphact24_4qsk1_188.6_80.4_204588.xsdst ! RUN = 204588 ! NEVT = 2000
FILE = /castor/cern.ch/delphi/MCprod/cern/wphact24/v98e/188.6/wphact24_4qsk1_188.6_80.4_204589.xsdst ! RUN = 204589 ! NEVT = 1999
FILE = /castor/cern.ch/delphi/MCprod/cern/wphact24/v98e/188.6/wphact24_4qsk1_188.6_80.4_204590.xsdst ! RUN = 204590 ! NEVT = 1999
FILE = /castor/cern.ch/delphi/MCprod/cern/wphact24/v98e/188.6/wphact24_4qsk1_188.6_80.4_204591.xsdst ! RUN = 204591 ! NEVT = 2000
FILE = /castor/cern.ch/delphi/MCprod/cern/wphact24/v98e/188.6/wphact24_4qsk1_188.6_80.4_204592.xsdst ! RUN = 204592 ! NEVT = 424
FILE = /castor/cern.ch/delphi/MCprod/cern/wphact24/v98e/188.6/wphact24_4qsk1_188.6_80.4_204593.xsdst ! RUN = 204593 ! NEVT = 2000
FILE = /castor/cern.ch/delphi/MCprod/cern/wphact24/v98e/188.6/wphact24_4qsk1_188.6_80.4_204594.xsdst ! RUN = 204594 ! NEVT = 1998
FILE = /castor/cern.ch/delphi/MCprod/cern/wphact24/v98e/188.6/wphact24_4qsk1_188.6_80.4_204595.xsdst ! RUN = 204595 ! NEVT = 2000
FILE = /castor/cern.ch/delphi/MCprod/cern/wphact24/v98e/188.6/wphact24_4qsk1_188.6_80.4_204596.xsdst ! RUN = 204596 ! NEVT = 2000
FILE = /castor/cern.ch/delphi/MCprod/cern/wphact24/v98e/188.6/wphact24_4qsk1_188.6_80.4_204597.xsdst ! RUN = 204597 ! NEVT = 2000
FILE = /castor/cern.ch/delphi/MCprod/cern/wphact24/v98e/188.6/wphact24_4qsk1_188.6_80.4_204598.xsdst ! RUN = 204598 ! NEVT = 1998
FILE = /castor/cern.ch/delphi/MCprod/cern/wphact24/v98e/188.6/wphact24_4qsk1_188.6_80.4_204599.xsdst ! RUN = 204599 ! NEVT = 1999
FILE = /castor/cern.ch/delphi/MCprod/cern/wphact24/v98e/188.6/wphact24_4qsk1_188.6_80.4_204600.xsdst ! RUN = 204600 ! NEVT = 1999
FILE = /castor/cern.ch/delphi/MCprod/cern/wphact24/v98e/188.6/wphact24_4qsk1_188.6_80.4_204601.xsdst ! RUN = 204601 ! NEVT = 1998
FILE = /castor/cern.ch/delphi/MCprod/cern/wphact24/v98e/188.6/wphact24_4qsk1_188.6_80.4_204602.xsdst ! RUN = 204602 ! NEVT = 1998
FILE = /castor/cern.ch/delphi/MCprod/cern/wphact24/v98e/188.6/wphact24_4qsk1_188.6_80.4_204603.xsdst ! RUN = 204603 ! NEVT = 1999
FILE = /castor/cern.ch/delphi/MCprod/cern/wphact24/v98e/188.6/wphact24_4qsk1_188.6_80.4_204604.xsdst ! RUN = 204604 ! NEVT = 1999
FILE = /castor/cern.ch/delphi/MCprod/cern/wphact24/v98e/188.6/wphact24_4qsk1_188.6_80.4_204605.xsdst ! RUN = 204605 ! NEVT = 2000
FILE = /castor/cern.ch/delphi/MCprod/cern/wphact24/v98e/188.6/wphact24_4qsk1_188.6_80.4_204606.xsdst ! RUN = 204606 ! NEVT = 1998
FILE = /castor/cern.ch/delphi/MCprod/cern/wphact24/v98e/188.6/wphact24_4qsk1_188.6_80.4_204607.xsdst ! RUN = 204607 ! NEVT = 2000
FILE = /castor/cern.ch/delphi/MCprod/cern/wphact24/v98e/188.6/wphact24_4qsk1_188.6_80.4_204609.xsdst ! RUN = 204609 ! NEVT = 1999
FILE = /castor/cern.ch/delphi/MCprod/cern/wphact24/v98e/188.6/wphact24_4qsk1_188.6_80.4_204610.xsdst ! RUN = 204610 ! NEVT = 2000
FILE = /castor/cern.ch/delphi/MCprod/cern/wphact24/v98e/188.6/wphact24_4qsk1_188.6_80.4_204611.xsdst ! RUN = 204611 ! NEVT = 1999
FILE = /castor/cern.ch/delphi/MCprod/cern/wphact24/v98e/188.6/wphact24_4qsk1_188.6_80.4_204612.xsdst ! RUN = 204612 ! NEVT = 1997
FILE = /castor/cern.ch/delphi/MCprod/cern/wphact24/v98e/188.6/wphact24_4qsk1_188.6_80.4_204613.xsdst ! RUN = 204613 ! NEVT = 1999
FILE = /castor/cern.ch/delphi/MCprod/cern/wphact24/v98e/188.6/wphact24_4qsk1_188.6_80.4_204614.xsdst ! RUN = 204614 ! NEVT = 1999
FILE = /castor/cern.ch/delphi/MCprod/cern/wphact24/v98e/188.6/wphact24_4qsk1_188.6_80.4_204615.xsdst ! RUN = 204615 ! NEVT = 2000
FILE = /castor/cern.ch/delphi/MCprod/cern/wphact24/v98e/188.6/wphact24_4qsk1_188.6_80.4_204616.xsdst ! RUN = 204616 ! NEVT = 2000
FILE = /castor/cern.ch/delphi/MCprod/cern/wphact24/v98e/188.6/wphact24_4qsk1_188.6_80.4_204617.xsdst ! RUN = 204617 ! NEVT = 1999
FILE = /castor/cern.ch/delphi/MCprod/cern/wphact24/v98e/188.6/wphact24_4qsk1_188.6_80.4_204618.xsdst ! RUN = 204618 ! NEVT = 1999
FILE = /castor/cern.ch/delphi/MCprod/cern/wphact24/v98e/188.6/wphact24_4qsk1_188.6_80.4_204619.xsdst ! RUN = 204619 ! NEVT = 1999
FILE = /castor/cern.ch/delphi/MCprod/cern/wphact24/v98e/188.6/wphact24_4qsk1_188.6_80.4_204620.xsdst ! RUN = 204620 ! NEVT = 2000
FILE = /castor/cern.ch/delphi/MCprod/cern/wphact24/v98e/188.6/wphact24_4qsk1_188.6_80.4_204621.xsdst ! RUN = 204621 ! NEVT = 1999
FILE = /castor/cern.ch/delphi/MCprod/cern/wphact24/v98e/188.6/wphact24_4qsk1_188.6_80.4_204622.xsdst ! RUN = 204622 ! NEVT = 1998
FILE = /castor/cern.ch/delphi/MCprod/cern/wphact24/v98e/188.6/wphact24_4qsk1_188.6_80.4_204623.xsdst ! RUN = 204623 ! NEVT = 2000
FILE = /castor/cern.ch/delphi/MCprod/cern/wphact24/v98e/188.6/wphact24_4qsk1_188.6_80.4_204624.xsdst ! RUN = 204624 ! NEVT = 1999
FILE = /castor/cern.ch/delphi/MCprod/cern/wphact24/v98e/188.6/wphact24_4qsk1_188.6_80.4_204625.xsdst ! RUN = 204625 ! NEVT = 1997
FILE = /castor/cern.ch/delphi/MCprod/cern/wphact24/v98e/188.6/wphact24_4qsk1_188.6_80.4_204626.xsdst ! RUN = 204626 ! NEVT = 1999
FILE = /castor/cern.ch/delphi/MCprod/cern/wphact24/v98e/188.6/wphact24_4qsk1_188.6_80.4_204627.xsdst ! RUN = 204627 ! NEVT = 1999
FILE = /castor/cern.ch/delphi/MCprod/cern/wphact24/v98e/188.6/wphact24_4qsk1_188.6_80.4_204628.xsdst ! RUN = 204628 ! NEVT = 2000
FILE = /castor/cern.ch/delphi/MCprod/cern/wphact24/v98e/188.6/wphact24_4qsk1_188.6_80.4_204629.xsdst ! RUN = 204629 ! NEVT = 2000
FILE = /castor/cern.ch/delphi/MCprod/cern/wphact24/v98e/188.6/wphact24_4qsk1_188.6_80.4_204630.xsdst ! RUN = 204630 ! NEVT = 1999
FILE = /castor/cern.ch/delphi/MCprod/cern/wphact24/v98e/188.6/wphact24_4qsk1_188.6_80.4_204631.xsdst ! RUN = 204631 ! NEVT = 2000
FILE = /castor/cern.ch/delphi/MCprod/cern/wphact24/v98e/188.6/wphact24_4qsk1_188.6_80.4_204632.xsdst ! RUN = 204632 ! NEVT = 1999
FILE = /castor/cern.ch/delphi/MCprod/cern/wphact24/v98e/188.6/wphact24_4qsk1_188.6_80.4_204633.xsdst ! RUN = 204633 ! NEVT = 1999
FILE = /castor/cern.ch/delphi/MCprod/cern/wphact24/v98e/188.6/wphact24_4qsk1_188.6_80.4_204634.xsdst ! RUN = 204634 ! NEVT = 1998
FILE = /castor/cern.ch/delphi/MCprod/cern/wphact24/v98e/188.6/wphact24_4qsk1_188.6_80.4_204635.xsdst ! RUN = 204635 ! NEVT = 1999
FILE = /castor/cern.ch/delphi/MCprod/cern/wphact24/v98e/188.6/wphact24_4qsk1_188.6_80.4_204636.xsdst ! RUN = 204636 ! NEVT = 2000
FILE = /castor/cern.ch/delphi/MCprod/cern/wphact24/v98e/188.6/wphact24_4qsk1_188.6_80.4_204637.xsdst ! RUN = 204637 ! NEVT = 1999
FILE = /castor/cern.ch/delphi/MCprod/cern/wphact24/v98e/188.6/wphact24_4qsk1_188.6_80.4_204638.xsdst ! RUN = 204638 ! NEVT = 1998
FILE = /castor/cern.ch/delphi/MCprod/cern/wphact24/v98e/188.6/wphact24_4qsk1_188.6_80.4_204639.xsdst ! RUN = 204639 ! NEVT = 2000
FILE = /castor/cern.ch/delphi/MCprod/cern/wphact24/v98e/188.6/wphact24_4qsk1_188.6_80.4_204640.xsdst ! RUN = 204640 ! NEVT = 1999
FILE = /castor/cern.ch/delphi/MCprod/cern/wphact24/v98e/188.6/wphact24_4qsk1_188.6_80.4_204641.xsdst ! RUN = 204641 ! NEVT = 1998
FILE = /castor/cern.ch/delphi/MCprod/cern/wphact24/v98e/188.6/wphact24_4qsk1_188.6_80.4_204642.xsdst ! RUN = 204642 ! NEVT = 2000
FILE = /castor/cern.ch/delphi/MCprod/cern/wphact24/v98e/188.6/wphact24_4qsk1_188.6_80.4_204643.xsdst ! RUN = 204643 ! NEVT = 1999
FILE = /castor/cern.ch/delphi/MCprod/cern/wphact24/v98e/188.6/wphact24_4qsk1_188.6_80.4_204644.xsdst ! RUN = 204644 ! NEVT = 1999
FILE = /castor/cern.ch/delphi/MCprod/cern/wphact24/v98e/188.6/wphact24_4qsk1_188.6_80.4_204645.xsdst ! RUN = 204645 ! NEVT = 1998
FILE = /castor/cern.ch/delphi/MCprod/cern/wphact24/v98e/188.6/wphact24_4qsk1_188.6_80.4_204646.xsdst ! RUN = 204646 ! NEVT = 2000
FILE = /castor/cern.ch/delphi/MCprod/cern/wphact24/v98e/188.6/wphact24_4qsk1_188.6_80.4_204647.xsdst ! RUN = 204647 ! NEVT = 1999
FILE = /castor/cern.ch/delphi/MCprod/cern/wphact24/v98e/188.6/wphact24_4qsk1_188.6_80.4_204648.xsdst ! RUN = 204648 ! NEVT = 1999
FILE = /castor/cern.ch/delphi/MCprod/cern/wphact24/v98e/188.6/wphact24_4qsk1_188.6_80.4_204649.xsdst ! RUN = 204649 ! NEVT = 1999
FILE = /castor/cern.ch/delphi/MCprod/cern/wphact24/v98e/188.6/wphact24_4qsk1_188.6_80.4_204650.xsdst ! RUN = 204650 ! NEVT = 2000
FILE = /castor/cern.ch/delphi/MCprod/cern/wphact24/v98e/188.6/wphact24_4qsk1_188.6_80.4_204651.xsdst ! RUN = 204651 ! NEVT = 2000
FILE = /castor/cern.ch/delphi/MCprod/cern/wphact24/v98e/188.6/wphact24_4qsk1_188.6_80.4_204652.xsdst ! RUN = 204652 ! NEVT = 1999
FILE = /castor/cern.ch/delphi/MCprod/cern/wphact24/v98e/188.6/wphact24_4qsk1_188.6_80.4_204653.xsdst ! RUN = 204653 ! NEVT = 1998
FILE = /castor/cern.ch/delphi/MCprod/cern/wphact24/v98e/188.6/wphact24_4qsk1_188.6_80.4_204654.xsdst ! RUN = 204654 ! NEVT = 1999
FILE = /castor/cern.ch/delphi/MCprod/cern/wphact24/v98e/188.6/wphact24_4qsk1_188.6_80.4_204655.xsdst ! RUN = 204655 ! NEVT = 1998
FILE = /castor/cern.ch/delphi/MCprod/cern/wphact24/v98e/188.6/wphact24_4qsk1_188.6_80.4_204656.xsdst ! RUN = 204656 ! NEVT = 1999
FILE = /castor/cern.ch/delphi/MCprod/cern/wphact24/v98e/188.6/wphact24_4qsk1_188.6_80.4_204657.xsdst ! RUN = 204657 ! NEVT = 2000
FILE = /castor/cern.ch/delphi/MCprod/cern/wphact24/v98e/188.6/wphact24_4qsk1_188.6_80.4_204658.xsdst ! RUN = 204658 ! NEVT = 2000
FILE = /castor/cern.ch/delphi/MCprod/cern/wphact24/v98e/188.6/wphact24_4qsk1_188.6_80.4_204659.xsdst ! RUN = 204659 ! NEVT = 1996
FILE = /castor/cern.ch/delphi/MCprod/cern/wphact24/v98e/188.6/wphact24_4qsk1_188.6_80.4_204660.xsdst ! RUN = 204660 ! NEVT = 1999
FILE = /castor/cern.ch/delphi/MCprod/cern/wphact24/v98e/188.6/wphact24_4qsk1_188.6_80.4_204661.xsdst ! RUN = 204661 ! NEVT = 1998
FILE = /castor/cern.ch/delphi/MCprod/cern/wphact24/v98e/188.6/wphact24_4qsk1_188.6_80.4_204662.xsdst ! RUN = 204662 ! NEVT = 2000
FILE = /castor/cern.ch/delphi/MCprod/cern/wphact24/v98e/188.6/wphact24_4qsk1_188.6_80.4_204663.xsdst ! RUN = 204663 ! NEVT = 1998
FILE = /castor/cern.ch/delphi/MCprod/cern/wphact24/v98e/188.6/wphact24_4qsk1_188.6_80.4_204664.xsdst ! RUN = 204664 ! NEVT = 4
FILE = /castor/cern.ch/delphi/MCprod/cern/wphact24/v98e/188.6/wphact24_4qsk1_188.6_80.4_204665.xsdst ! RUN = 204665 ! NEVT = 1999
FILE = /castor/cern.ch/delphi/MCprod/cern/wphact24/v98e/188.6/wphact24_4qsk1_188.6_80.4_204666.xsdst ! RUN = 204666 ! NEVT = 2000
FILE = /castor/cern.ch/delphi/MCprod/cern/wphact24/v98e/188.6/wphact24_4qsk1_188.6_80.4_204667.xsdst ! RUN = 204667 ! NEVT = 1999
FILE = /castor/cern.ch/delphi/MCprod/cern/wphact24/v98e/188.6/wphact24_4qsk1_188.6_80.4_204668.xsdst ! RUN = 204668 ! NEVT = 2000
FILE = /castor/cern.ch/delphi/MCprod/cern/wphact24/v98e/188.6/wphact24_4qsk1_188.6_80.4_204669.xsdst ! RUN = 204669 ! NEVT = 2000
FILE = /castor/cern.ch/delphi/MCprod/cern/wphact24/v98e/188.6/wphact24_4qsk1_188.6_80.4_204670.xsdst ! RUN = 204670 ! NEVT = 2000
FILE = /castor/cern.ch/delphi/MCprod/cern/wphact24/v98e/188.6/wphact24_4qsk1_188.6_80.4_204671.xsdst ! RUN = 204671 ! NEVT = 1999
FILE = /castor/cern.ch/delphi/MCprod/cern/wphact24/v98e/188.6/wphact24_4qsk1_188.6_80.4_204672.xsdst ! RUN = 204672 ! NEVT = 1997
FILE = /castor/cern.ch/delphi/MCprod/cern/wphact24/v98e/188.6/wphact24_4qsk1_188.6_80.4_204673.xsdst ! RUN = 204673 ! NEVT = 1998
FILE = /castor/cern.ch/delphi/MCprod/cern/wphact24/v98e/188.6/wphact24_4qsk1_188.6_80.4_204674.xsdst ! RUN = 204674 ! NEVT = 1999
FILE = /castor/cern.ch/delphi/MCprod/cern/wphact24/v98e/188.6/wphact24_4qsk1_188.6_80.4_204675.xsdst ! RUN = 204675 ! NEVT = 1999
FILE = /castor/cern.ch/delphi/MCprod/cern/wphact24/v98e/188.6/wphact24_4qsk1_188.6_80.4_204676.xsdst ! RUN = 204676 ! NEVT = 2000
FILE = /castor/cern.ch/delphi/MCprod/cern/wphact24/v98e/188.6/wphact24_4qsk1_188.6_80.4_204677.xsdst ! RUN = 204677 ! NEVT = 2000
FILE = /castor/cern.ch/delphi/MCprod/cern/wphact24/v98e/188.6/wphact24_4qsk1_188.6_80.4_204678.xsdst ! RUN = 204678 ! NEVT = 1999
FILE = /castor/cern.ch/delphi/MCprod/cern/wphact24/v98e/188.6/wphact24_4qsk1_188.6_80.4_204679.xsdst ! RUN = 204679 ! NEVT = 2000
FILE = /castor/cern.ch/delphi/MCprod/cern/wphact24/v98e/188.6/wphact24_4qsk1_188.6_80.4_204680.xsdst ! RUN = 204680 ! NEVT = 1999
FILE = /castor/cern.ch/delphi/MCprod/cern/wphact24/v98e/188.6/wphact24_4qsk1_188.6_80.4_204681.xsdst ! RUN = 204681 ! NEVT = 2000
FILE = /castor/cern.ch/delphi/MCprod/cern/wphact24/v98e/188.6/wphact24_4qsk1_188.6_80.4_204682.xsdst ! RUN = 204682 ! NEVT = 1999
FILE = /castor/cern.ch/delphi/MCprod/cern/wphact24/v98e/188.6/wphact24_4qsk1_188.6_80.4_204683.xsdst ! RUN = 204683 ! NEVT = 2000
FILE = /castor/cern.ch/delphi/MCprod/cern/wphact24/v98e/188.6/wphact24_4qsk1_188.6_80.4_204684.xsdst ! RUN = 204684 ! NEVT = 2000
FILE = /castor/cern.ch/delphi/MCprod/cern/wphact24/v98e/188.6/wphact24_4qsk1_188.6_80.4_204685.xsdst ! RUN = 204685 ! NEVT = 1998
FILE = /castor/cern.ch/delphi/MCprod/cern/wphact24/v98e/188.6/wphact24_4qsk1_188.6_80.4_204686.xsdst ! RUN = 204686 ! NEVT = 2000
FILE = /castor/cern.ch/delphi/MCprod/cern/wphact24/v98e/188.6/wphact24_4qsk1_188.6_80.4_204687.xsdst ! RUN = 204687 ! NEVT = 2000
FILE = /castor/cern.ch/delphi/MCprod/cern/wphact24/v98e/188.6/wphact24_4qsk1_188.6_80.4_204688.xsdst ! RUN = 204688 ! NEVT = 2000
FILE = /castor/cern.ch/delphi/MCprod/cern/wphact24/v98e/188.6/wphact24_4qsk1_188.6_80.4_204689.xsdst ! RUN = 204689 ! NEVT = 2000
FILE = /castor/cern.ch/delphi/MCprod/cern/wphact24/v98e/188.6/wphact24_4qsk1_188.6_80.4_204690.xsdst ! RUN = 204690 ! NEVT = 2000
FILE = /castor/cern.ch/delphi/MCprod/cern/wphact24/v98e/188.6/wphact24_4qsk1_188.6_80.4_204691.xsdst ! RUN = 204691 ! NEVT = 2000
FILE = /castor/cern.ch/delphi/MCprod/cern/wphact24/v98e/188.6/wphact24_4qsk1_188.6_80.4_204692.xsdst ! RUN = 204692 ! NEVT = 2000
FILE = /castor/cern.ch/delphi/MCprod/cern/wphact24/v98e/188.6/wphact24_4qsk1_188.6_80.4_204693.xsdst ! RUN = 204693 ! NEVT = 2000
FILE = /castor/cern.ch/delphi/MCprod/cern/wphact24/v98e/188.6/wphact24_4qsk1_188.6_80.4_204694.xsdst ! RUN = 204694 ! NEVT = 1999
FILE = /castor/cern.ch/delphi/MCprod/cern/wphact24/v98e/188.6/wphact24_4qsk1_188.6_80.4_204695.xsdst ! RUN = 204695 ! NEVT = 2000
FILE = /castor/cern.ch/delphi/MCprod/cern/wphact24/v98e/188.6/wphact24_4qsk1_188.6_80.4_204696.xsdst ! RUN = 204696 ! NEVT = 1998
FILE = /castor/cern.ch/delphi/MCprod/cern/wphact24/v98e/188.6/wphact24_4qsk1_188.6_80.4_204697.xsdst ! RUN = 204697 ! NEVT = 1999
FILE = /castor/cern.ch/delphi/MCprod/cern/wphact24/v98e/188.6/wphact24_4qsk1_188.6_80.4_204698.xsdst ! RUN = 204698 ! NEVT = 2000
FILE = /castor/cern.ch/delphi/MCprod/cern/wphact24/v98e/188.6/wphact24_4qsk1_188.6_80.4_204699.xsdst ! RUN = 204699 ! NEVT = 43
FILE = /castor/cern.ch/delphi/MCprod/cern/wphact24/v98e/188.6/wphact24_4qsk1_188.6_80.4_204700.xsdst ! RUN = 204700 ! NEVT = 1999
FILE = /castor/cern.ch/delphi/MCprod/cern/wphact24/v98e/188.6/wphact24_4qsk1_188.6_80.4_204701.xsdst ! RUN = 204701 ! NEVT = 1999
FILE = /castor/cern.ch/delphi/MCprod/cern/wphact24/v98e/188.6/wphact24_4qsk1_188.6_80.4_204702.xsdst ! RUN = 204702 ! NEVT = 2000
FILE = /castor/cern.ch/delphi/MCprod/cern/wphact24/v98e/188.6/wphact24_4qsk1_188.6_80.4_204703.xsdst ! RUN = 204703 ! NEVT = 1999
FILE = /castor/cern.ch/delphi/MCprod/cern/wphact24/v98e/188.6/wphact24_4qsk1_188.6_80.4_204704.xsdst ! RUN = 204704 ! NEVT = 2000
FILE = /castor/cern.ch/delphi/MCprod/cern/wphact24/v98e/188.6/wphact24_4qsk1_188.6_80.4_204705.xsdst ! RUN = 204705 ! NEVT = 1999
FILE = /castor/cern.ch/delphi/MCprod/cern/wphact24/v98e/188.6/wphact24_4qsk1_188.6_80.4_204706.xsdst ! RUN = 204706 ! NEVT = 2000
FILE = /castor/cern.ch/delphi/MCprod/cern/wphact24/v98e/188.6/wphact24_4qsk1_188.6_80.4_204707.xsdst ! RUN = 204707 ! NEVT = 1634
FILE = /castor/cern.ch/delphi/MCprod/cern/wphact24/v98e/188.6/wphact24_4qsk1_188.6_80.4_204708.xsdst ! RUN = 204708 ! NEVT = 1999
FILE = /castor/cern.ch/delphi/MCprod/cern/wphact24/v98e/188.6/wphact24_4qsk1_188.6_80.4_204709.xsdst ! RUN = 204709 ! NEVT = 2000
FILE = /castor/cern.ch/delphi/MCprod/cern/wphact24/v98e/188.6/wphact24_4qsk1_188.6_80.4_204710.xsdst ! RUN = 204710 ! NEVT = 2000
FILE = /castor/cern.ch/delphi/MCprod/cern/wphact24/v98e/188.6/wphact24_4qsk1_188.6_80.4_204711.xsdst ! RUN = 204711 ! NEVT = 1998
FILE = /castor/cern.ch/delphi/MCprod/cern/wphact24/v98e/188.6/wphact24_4qsk1_188.6_80.4_204712.xsdst ! RUN = 204712 ! NEVT = 2000
FILE = /castor/cern.ch/delphi/MCprod/cern/wphact24/v98e/188.6/wphact24_4qsk1_188.6_80.4_204713.xsdst ! RUN = 204713 ! NEVT = 1999
FILE = /castor/cern.ch/delphi/MCprod/cern/wphact24/v98e/188.6/wphact24_4qsk1_188.6_80.4_204714.xsdst ! RUN = 204714 ! NEVT = 2000
FILE = /castor/cern.ch/delphi/MCprod/cern/wphact24/v98e/188.6/wphact24_4qsk1_188.6_80.4_204715.xsdst ! RUN = 204715 ! NEVT = 2000
FILE = /castor/cern.ch/delphi/MCprod/cern/wphact24/v98e/188.6/wphact24_4qsk1_188.6_80.4_204716.xsdst ! RUN = 204716 ! NEVT = 1999
FILE = /castor/cern.ch/delphi/MCprod/cern/wphact24/v98e/188.6/wphact24_4qsk1_188.6_80.4_204717.xsdst ! RUN = 204717 ! NEVT = 2000
FILE = /castor/cern.ch/delphi/MCprod/cern/wphact24/v98e/188.6/wphact24_4qsk1_188.6_80.4_204718.xsdst ! RUN = 204718 ! NEVT = 771
FILE = /castor/cern.ch/delphi/MCprod/cern/wphact24/v98e/188.6/wphact24_4qsk1_188.6_80.4_204719.xsdst ! RUN = 204719 ! NEVT = 2000
FILE = /castor/cern.ch/delphi/MCprod/cern/wphact24/v98e/188.6/wphact24_4qsk1_188.6_80.4_204720.xsdst ! RUN = 204720 ! NEVT = 1999
FILE = /castor/cern.ch/delphi/MCprod/cern/wphact24/v98e/188.6/wphact24_4qsk1_188.6_80.4_204721.xsdst ! RUN = 204721 ! NEVT = 1999
FILE = /castor/cern.ch/delphi/MCprod/cern/wphact24/v98e/188.6/wphact24_4qsk1_188.6_80.4_204722.xsdst ! RUN = 204722 ! NEVT = 1999
FILE = /castor/cern.ch/delphi/MCprod/cern/wphact24/v98e/188.6/wphact24_4qsk1_188.6_80.4_204723.xsdst ! RUN = 204723 ! NEVT = 1999
FILE = /castor/cern.ch/delphi/MCprod/cern/wphact24/v98e/188.6/wphact24_4qsk1_188.6_80.4_204724.xsdst ! RUN = 204724 ! NEVT = 1999
FILE = /castor/cern.ch/delphi/MCprod/cern/wphact24/v98e/188.6/wphact24_4qsk1_188.6_80.4_204725.xsdst ! RUN = 204725 ! NEVT = 2000
FILE = /castor/cern.ch/delphi/MCprod/cern/wphact24/v98e/188.6/wphact24_4qsk1_188.6_80.4_204726.xsdst ! RUN = 204726 ! NEVT = 2000
FILE = /castor/cern.ch/delphi/MCprod/cern/wphact24/v98e/188.6/wphact24_4qsk1_188.6_80.4_204727.xsdst ! RUN = 204727 ! NEVT = 2000
FILE = /castor/cern.ch/delphi/MCprod/cern/wphact24/v98e/188.6/wphact24_4qsk1_188.6_80.4_204728.xsdst ! RUN = 204728 ! NEVT = 1261
FILE = /castor/cern.ch/delphi/MCprod/cern/wphact24/v98e/188.6/wphact24_4qsk1_188.6_80.4_204729.xsdst ! RUN = 204729 ! NEVT = 1998
FILE = /castor/cern.ch/delphi/MCprod/cern/wphact24/v98e/188.6/wphact24_4qsk1_188.6_80.4_204730.xsdst ! RUN = 204730 ! NEVT = 137
FILE = /castor/cern.ch/delphi/MCprod/cern/wphact24/v98e/188.6/wphact24_4qsk1_188.6_80.4_204731.xsdst ! RUN = 204731 ! NEVT = 1999
FILE = /castor/cern.ch/delphi/MCprod/cern/wphact24/v98e/188.6/wphact24_4qsk1_188.6_80.4_204732.xsdst ! RUN = 204732 ! NEVT = 1999
FILE = /castor/cern.ch/delphi/MCprod/cern/wphact24/v98e/188.6/wphact24_4qsk1_188.6_80.4_204733.xsdst ! RUN = 204733 ! NEVT = 2000
FILE = /castor/cern.ch/delphi/MCprod/cern/wphact24/v98e/188.6/wphact24_4qsk1_188.6_80.4_204734.xsdst ! RUN = 204734 ! NEVT = 2000
FILE = /castor/cern.ch/delphi/MCprod/cern/wphact24/v98e/188.6/wphact24_4qsk1_188.6_80.4_204735.xsdst ! RUN = 204735 ! NEVT = 2000
FILE = /castor/cern.ch/delphi/MCprod/cern/wphact24/v98e/188.6/wphact24_4qsk1_188.6_80.4_204736.xsdst ! RUN = 204736 ! NEVT = 33
FILE = /castor/cern.ch/delphi/MCprod/cern/wphact24/v98e/188.6/wphact24_4qsk1_188.6_80.4_204737.xsdst ! RUN = 204737 ! NEVT = 1999
FILE = /castor/cern.ch/delphi/MCprod/cern/wphact24/v98e/188.6/wphact24_4qsk1_188.6_80.4_204738.xsdst ! RUN = 204738 ! NEVT = 2000
FILE = /castor/cern.ch/delphi/MCprod/cern/wphact24/v98e/188.6/wphact24_4qsk1_188.6_80.4_204739.xsdst ! RUN = 204739 ! NEVT = 1997
FILE = /castor/cern.ch/delphi/MCprod/cern/wphact24/v98e/188.6/wphact24_4qsk1_188.6_80.4_204740.xsdst ! RUN = 204740 ! NEVT = 2000
FILE = /castor/cern.ch/delphi/MCprod/cern/wphact24/v98e/188.6/wphact24_4qsk1_188.6_80.4_204741.xsdst ! RUN = 204741 ! NEVT = 2000
FILE = /castor/cern.ch/delphi/MCprod/cern/wphact24/v98e/188.6/wphact24_4qsk1_188.6_80.4_204742.xsdst ! RUN = 204742 ! NEVT = 1999
FILE = /castor/cern.ch/delphi/MCprod/cern/wphact24/v98e/188.6/wphact24_4qsk1_188.6_80.4_204743.xsdst ! RUN = 204743 ! NEVT = 2000
FILE = /castor/cern.ch/delphi/MCprod/cern/wphact24/v98e/188.6/wphact24_4qsk1_188.6_80.4_204744.xsdst ! RUN = 204744 ! NEVT = 1996
FILE = /castor/cern.ch/delphi/MCprod/cern/wphact24/v98e/188.6/wphact24_4qsk1_188.6_80.4_204745.xsdst ! RUN = 204745 ! NEVT = 2000
FILE = /castor/cern.ch/delphi/MCprod/cern/wphact24/v98e/188.6/wphact24_4qsk1_188.6_80.4_204746.xsdst ! RUN = 204746 ! NEVT = 1999
FILE = /castor/cern.ch/delphi/MCprod/cern/wphact24/v98e/188.6/wphact24_4qsk1_188.6_80.4_204748.xsdst ! RUN = 204748 ! NEVT = 2000
FILE = /castor/cern.ch/delphi/MCprod/cern/wphact24/v98e/188.6/wphact24_4qsk1_188.6_80.4_204749.xsdst ! RUN = 204749 ! NEVT = 2000
FILE = /castor/cern.ch/delphi/MCprod/cern/wphact24/v98e/188.6/wphact24_4qsk1_188.6_80.4_204750.xsdst ! RUN = 204750 ! NEVT = 2000
FILE = /castor/cern.ch/delphi/MCprod/cern/wphact24/v98e/188.6/wphact24_4qsk1_188.6_80.4_205251.xsdst ! RUN = 205251 ! NEVT = 1999
FILE = /castor/cern.ch/delphi/MCprod/cern/wphact24/v98e/188.6/wphact24_4qsk1_188.6_80.4_205252.xsdst ! RUN = 205252 ! NEVT = 2000
FILE = /castor/cern.ch/delphi/MCprod/cern/wphact24/v98e/188.6/wphact24_4qsk1_188.6_80.4_205253.xsdst ! RUN = 205253 ! NEVT = 1999
FILE = /castor/cern.ch/delphi/MCprod/cern/wphact24/v98e/188.6/wphact24_4qsk1_188.6_80.4_205254.xsdst ! RUN = 205254 ! NEVT = 2000
FILE = /castor/cern.ch/delphi/MCprod/cern/wphact24/v98e/188.6/wphact24_4qsk1_188.6_80.4_205255.xsdst ! RUN = 205255 ! NEVT = 1999
FILE = /castor/cern.ch/delphi/MCprod/cern/wphact24/v98e/188.6/wphact24_4qsk1_188.6_80.4_205256.xsdst ! RUN = 205256 ! NEVT = 1999
FILE = /castor/cern.ch/delphi/MCprod/cern/wphact24/v98e/188.6/wphact24_4qsk1_188.6_80.4_205257.xsdst ! RUN = 205257 ! NEVT = 2000
FILE = /castor/cern.ch/delphi/MCprod/cern/wphact24/v98e/188.6/wphact24_4qsk1_188.6_80.4_205258.xsdst ! RUN = 205258 ! NEVT = 2000
FILE = /castor/cern.ch/delphi/MCprod/cern/wphact24/v98e/188.6/wphact24_4qsk1_188.6_80.4_205259.xsdst ! RUN = 205259 ! NEVT = 1059
FILE = /castor/cern.ch/delphi/MCprod/cern/wphact24/v98e/188.6/wphact24_4qsk1_188.6_80.4_205260.xsdst ! RUN = 205260 ! NEVT = 2000
FILE = /castor/cern.ch/delphi/MCprod/cern/wphact24/v98e/188.6/wphact24_4qsk1_188.6_80.4_205261.xsdst ! RUN = 205261 ! NEVT = 2000
FILE = /castor/cern.ch/delphi/MCprod/cern/wphact24/v98e/188.6/wphact24_4qsk1_188.6_80.4_205262.xsdst ! RUN = 205262 ! NEVT = 1999
FILE = /castor/cern.ch/delphi/MCprod/cern/wphact24/v98e/188.6/wphact24_4qsk1_188.6_80.4_205263.xsdst ! RUN = 205263 ! NEVT = 1997
FILE = /castor/cern.ch/delphi/MCprod/cern/wphact24/v98e/188.6/wphact24_4qsk1_188.6_80.4_205264.xsdst ! RUN = 205264 ! NEVT = 1998
FILE = /castor/cern.ch/delphi/MCprod/cern/wphact24/v98e/188.6/wphact24_4qsk1_188.6_80.4_205265.xsdst ! RUN = 205265 ! NEVT = 1998
FILE = /castor/cern.ch/delphi/MCprod/cern/wphact24/v98e/188.6/wphact24_4qsk1_188.6_80.4_205266.xsdst ! RUN = 205266 ! NEVT = 2000
FILE = /castor/cern.ch/delphi/MCprod/cern/wphact24/v98e/188.6/wphact24_4qsk1_188.6_80.4_205267.xsdst ! RUN = 205267 ! NEVT = 1998
FILE = /castor/cern.ch/delphi/MCprod/cern/wphact24/v98e/188.6/wphact24_4qsk1_188.6_80.4_205268.xsdst ! RUN = 205268 ! NEVT = 1999
FILE = /castor/cern.ch/delphi/MCprod/cern/wphact24/v98e/188.6/wphact24_4qsk1_188.6_80.4_205269.xsdst ! RUN = 205269 ! NEVT = 2000
FILE = /castor/cern.ch/delphi/MCprod/cern/wphact24/v98e/188.6/wphact24_4qsk1_188.6_80.4_205270.xsdst ! RUN = 205270 ! NEVT = 1998
FILE = /castor/cern.ch/delphi/MCprod/cern/wphact24/v98e/188.6/wphact24_4qsk1_188.6_80.4_205271.xsdst ! RUN = 205271 ! NEVT = 1157
FILE = /castor/cern.ch/delphi/MCprod/cern/wphact24/v98e/188.6/wphact24_4qsk1_188.6_80.4_205272.xsdst ! RUN = 205272 ! NEVT = 2000
FILE = /castor/cern.ch/delphi/MCprod/cern/wphact24/v98e/188.6/wphact24_4qsk1_188.6_80.4_205273.xsdst ! RUN = 205273 ! NEVT = 1998
FILE = /castor/cern.ch/delphi/MCprod/cern/wphact24/v98e/188.6/wphact24_4qsk1_188.6_80.4_205274.xsdst ! RUN = 205274 ! NEVT = 2000
FILE = /castor/cern.ch/delphi/MCprod/cern/wphact24/v98e/188.6/wphact24_4qsk1_188.6_80.4_205275.xsdst ! RUN = 205275 ! NEVT = 1998
FILE = /castor/cern.ch/delphi/MCprod/cern/wphact24/v98e/188.6/wphact24_4qsk1_188.6_80.4_205276.xsdst ! RUN = 205276 ! NEVT = 2000
FILE = /castor/cern.ch/delphi/MCprod/cern/wphact24/v98e/188.6/wphact24_4qsk1_188.6_80.4_205277.xsdst ! RUN = 205277 ! NEVT = 2000
FILE = /castor/cern.ch/delphi/MCprod/cern/wphact24/v98e/188.6/wphact24_4qsk1_188.6_80.4_205278.xsdst ! RUN = 205278 ! NEVT = 1999
FILE = /castor/cern.ch/delphi/MCprod/cern/wphact24/v98e/188.6/wphact24_4qsk1_188.6_80.4_205279.xsdst ! RUN = 205279 ! NEVT = 1998
FILE = /castor/cern.ch/delphi/MCprod/cern/wphact24/v98e/188.6/wphact24_4qsk1_188.6_80.4_205280.xsdst ! RUN = 205280 ! NEVT = 1999
FILE = /castor/cern.ch/delphi/MCprod/cern/wphact24/v98e/188.6/wphact24_4qsk1_188.6_80.4_205281.xsdst ! RUN = 205281 ! NEVT = 1999
FILE = /castor/cern.ch/delphi/MCprod/cern/wphact24/v98e/188.6/wphact24_4qsk1_188.6_80.4_205282.xsdst ! RUN = 205282 ! NEVT = 2000
FILE = /castor/cern.ch/delphi/MCprod/cern/wphact24/v98e/188.6/wphact24_4qsk1_188.6_80.4_205283.xsdst ! RUN = 205283 ! NEVT = 1195
FILE = /castor/cern.ch/delphi/MCprod/cern/wphact24/v98e/188.6/wphact24_4qsk1_188.6_80.4_205284.xsdst ! RUN = 205284 ! NEVT = 2000
FILE = /castor/cern.ch/delphi/MCprod/cern/wphact24/v98e/188.6/wphact24_4qsk1_188.6_80.4_205285.xsdst ! RUN = 205285 ! NEVT = 2000
FILE = /castor/cern.ch/delphi/MCprod/cern/wphact24/v98e/188.6/wphact24_4qsk1_188.6_80.4_205286.xsdst ! RUN = 205286 ! NEVT = 2000
FILE = /castor/cern.ch/delphi/MCprod/cern/wphact24/v98e/188.6/wphact24_4qsk1_188.6_80.4_205287.xsdst ! RUN = 205287 ! NEVT = 2000
FILE = /castor/cern.ch/delphi/MCprod/cern/wphact24/v98e/188.6/wphact24_4qsk1_188.6_80.4_205288.xsdst ! RUN = 205288 ! NEVT = 2000
FILE = /castor/cern.ch/delphi/MCprod/cern/wphact24/v98e/188.6/wphact24_4qsk1_188.6_80.4_205289.xsdst ! RUN = 205289 ! NEVT = 2000
FILE = /castor/cern.ch/delphi/MCprod/cern/wphact24/v98e/188.6/wphact24_4qsk1_188.6_80.4_205290.xsdst ! RUN = 205290 ! NEVT = 1999
FILE = /castor/cern.ch/delphi/MCprod/cern/wphact24/v98e/188.6/wphact24_4qsk1_188.6_80.4_205291.xsdst ! RUN = 205291 ! NEVT = 2000
FILE = /castor/cern.ch/delphi/MCprod/cern/wphact24/v98e/188.6/wphact24_4qsk1_188.6_80.4_205292.xsdst ! RUN = 205292 ! NEVT = 1999
FILE = /castor/cern.ch/delphi/MCprod/cern/wphact24/v98e/188.6/wphact24_4qsk1_188.6_80.4_205293.xsdst ! RUN = 205293 ! NEVT = 1999
FILE = /castor/cern.ch/delphi/MCprod/cern/wphact24/v98e/188.6/wphact24_4qsk1_188.6_80.4_205294.xsdst ! RUN = 205294 ! NEVT = 1999
FILE = /castor/cern.ch/delphi/MCprod/cern/wphact24/v98e/188.6/wphact24_4qsk1_188.6_80.4_205295.xsdst ! RUN = 205295 ! NEVT = 1998
FILE = /castor/cern.ch/delphi/MCprod/cern/wphact24/v98e/188.6/wphact24_4qsk1_188.6_80.4_205296.xsdst ! RUN = 205296 ! NEVT = 1999
FILE = /castor/cern.ch/delphi/MCprod/cern/wphact24/v98e/188.6/wphact24_4qsk1_188.6_80.4_205297.xsdst ! RUN = 205297 ! NEVT = 1998
FILE = /castor/cern.ch/delphi/MCprod/cern/wphact24/v98e/188.6/wphact24_4qsk1_188.6_80.4_205298.xsdst ! RUN = 205298 ! NEVT = 1998
FILE = /castor/cern.ch/delphi/MCprod/cern/wphact24/v98e/188.6/wphact24_4qsk1_188.6_80.4_205299.xsdst ! RUN = 205299 ! NEVT = 1999
FILE = /castor/cern.ch/delphi/MCprod/cern/wphact24/v98e/188.6/wphact24_4qsk1_188.6_80.4_205300.xsdst ! RUN = 205300 ! NEVT = 1998
FILE = /castor/cern.ch/delphi/MCprod/cern/wphact24/v98e/188.6/wphact24_4qsk1_188.6_80.4_205301.xsdst ! RUN = 205301 ! NEVT = 2000
FILE = /castor/cern.ch/delphi/MCprod/cern/wphact24/v98e/188.6/wphact24_4qsk1_188.6_80.4_205302.xsdst ! RUN = 205302 ! NEVT = 2000
FILE = /castor/cern.ch/delphi/MCprod/cern/wphact24/v98e/188.6/wphact24_4qsk1_188.6_80.4_205303.xsdst ! RUN = 205303 ! NEVT = 1999
FILE = /castor/cern.ch/delphi/MCprod/cern/wphact24/v98e/188.6/wphact24_4qsk1_188.6_80.4_205304.xsdst ! RUN = 205304 ! NEVT = 2000
FILE = /castor/cern.ch/delphi/MCprod/cern/wphact24/v98e/188.6/wphact24_4qsk1_188.6_80.4_205305.xsdst ! RUN = 205305 ! NEVT = 1999
FILE = /castor/cern.ch/delphi/MCprod/cern/wphact24/v98e/188.6/wphact24_4qsk1_188.6_80.4_205306.xsdst ! RUN = 205306 ! NEVT = 2000
FILE = /castor/cern.ch/delphi/MCprod/cern/wphact24/v98e/188.6/wphact24_4qsk1_188.6_80.4_205307.xsdst ! RUN = 205307 ! NEVT = 2000
FILE = /castor/cern.ch/delphi/MCprod/cern/wphact24/v98e/188.6/wphact24_4qsk1_188.6_80.4_205308.xsdst ! RUN = 205308 ! NEVT = 2000
FILE = /castor/cern.ch/delphi/MCprod/cern/wphact24/v98e/188.6/wphact24_4qsk1_188.6_80.4_205309.xsdst ! RUN = 205309 ! NEVT = 661
FILE = /castor/cern.ch/delphi/MCprod/cern/wphact24/v98e/188.6/wphact24_4qsk1_188.6_80.4_205310.xsdst ! RUN = 205310 ! NEVT = 1998
FILE = /castor/cern.ch/delphi/MCprod/cern/wphact24/v98e/188.6/wphact24_4qsk1_188.6_80.4_205311.xsdst ! RUN = 205311 ! NEVT = 1999
FILE = /castor/cern.ch/delphi/MCprod/cern/wphact24/v98e/188.6/wphact24_4qsk1_188.6_80.4_205312.xsdst ! RUN = 205312 ! NEVT = 817
FILE = /castor/cern.ch/delphi/MCprod/cern/wphact24/v98e/188.6/wphact24_4qsk1_188.6_80.4_205313.xsdst ! RUN = 205313 ! NEVT = 1999
FILE = /castor/cern.ch/delphi/MCprod/cern/wphact24/v98e/188.6/wphact24_4qsk1_188.6_80.4_205314.xsdst ! RUN = 205314 ! NEVT = 2000
FILE = /castor/cern.ch/delphi/MCprod/cern/wphact24/v98e/188.6/wphact24_4qsk1_188.6_80.4_205315.xsdst ! RUN = 205315 ! NEVT = 1999
FILE = /castor/cern.ch/delphi/MCprod/cern/wphact24/v98e/188.6/wphact24_4qsk1_188.6_80.4_205316.xsdst ! RUN = 205316 ! NEVT = 1997
FILE = /castor/cern.ch/delphi/MCprod/cern/wphact24/v98e/188.6/wphact24_4qsk1_188.6_80.4_205317.xsdst ! RUN = 205317 ! NEVT = 2000
FILE = /castor/cern.ch/delphi/MCprod/cern/wphact24/v98e/188.6/wphact24_4qsk1_188.6_80.4_205318.xsdst ! RUN = 205318 ! NEVT = 1999
FILE = /castor/cern.ch/delphi/MCprod/cern/wphact24/v98e/188.6/wphact24_4qsk1_188.6_80.4_205319.xsdst ! RUN = 205319 ! NEVT = 1999
FILE = /castor/cern.ch/delphi/MCprod/cern/wphact24/v98e/188.6/wphact24_4qsk1_188.6_80.4_205320.xsdst ! RUN = 205320 ! NEVT = 1997
FILE = /castor/cern.ch/delphi/MCprod/cern/wphact24/v98e/188.6/wphact24_4qsk1_188.6_80.4_205321.xsdst ! RUN = 205321 ! NEVT = 1999
FILE = /castor/cern.ch/delphi/MCprod/cern/wphact24/v98e/188.6/wphact24_4qsk1_188.6_80.4_205322.xsdst ! RUN = 205322 ! NEVT = 1999
FILE = /castor/cern.ch/delphi/MCprod/cern/wphact24/v98e/188.6/wphact24_4qsk1_188.6_80.4_205323.xsdst ! RUN = 205323 ! NEVT = 2000
FILE = /castor/cern.ch/delphi/MCprod/cern/wphact24/v98e/188.6/wphact24_4qsk1_188.6_80.4_205325.xsdst ! RUN = 205325 ! NEVT = 2000
FILE = /castor/cern.ch/delphi/MCprod/cern/wphact24/v98e/188.6/wphact24_4qsk1_188.6_80.4_205326.xsdst ! RUN = 205326 ! NEVT = 1999
FILE = /castor/cern.ch/delphi/MCprod/cern/wphact24/v98e/188.6/wphact24_4qsk1_188.6_80.4_205327.xsdst ! RUN = 205327 ! NEVT = 1999
FILE = /castor/cern.ch/delphi/MCprod/cern/wphact24/v98e/188.6/wphact24_4qsk1_188.6_80.4_205328.xsdst ! RUN = 205328 ! NEVT = 2000
FILE = /castor/cern.ch/delphi/MCprod/cern/wphact24/v98e/188.6/wphact24_4qsk1_188.6_80.4_205329.xsdst ! RUN = 205329 ! NEVT = 2000
FILE = /castor/cern.ch/delphi/MCprod/cern/wphact24/v98e/188.6/wphact24_4qsk1_188.6_80.4_205330.xsdst ! RUN = 205330 ! NEVT = 2000
FILE = /castor/cern.ch/delphi/MCprod/cern/wphact24/v98e/188.6/wphact24_4qsk1_188.6_80.4_205331.xsdst ! RUN = 205331 ! NEVT = 1999
FILE = /castor/cern.ch/delphi/MCprod/cern/wphact24/v98e/188.6/wphact24_4qsk1_188.6_80.4_205332.xsdst ! RUN = 205332 ! NEVT = 2000
FILE = /castor/cern.ch/delphi/MCprod/cern/wphact24/v98e/188.6/wphact24_4qsk1_188.6_80.4_205333.xsdst ! RUN = 205333 ! NEVT = 1999
FILE = /castor/cern.ch/delphi/MCprod/cern/wphact24/v98e/188.6/wphact24_4qsk1_188.6_80.4_205334.xsdst ! RUN = 205334 ! NEVT = 2000
FILE = /castor/cern.ch/delphi/MCprod/cern/wphact24/v98e/188.6/wphact24_4qsk1_188.6_80.4_205335.xsdst ! RUN = 205335 ! NEVT = 2000
FILE = /castor/cern.ch/delphi/MCprod/cern/wphact24/v98e/188.6/wphact24_4qsk1_188.6_80.4_205336.xsdst ! RUN = 205336 ! NEVT = 1230
FILE = /castor/cern.ch/delphi/MCprod/cern/wphact24/v98e/188.6/wphact24_4qsk1_188.6_80.4_205337.xsdst ! RUN = 205337 ! NEVT = 1999
FILE = /castor/cern.ch/delphi/MCprod/cern/wphact24/v98e/188.6/wphact24_4qsk1_188.6_80.4_205338.xsdst ! RUN = 205338 ! NEVT = 1997
FILE = /castor/cern.ch/delphi/MCprod/cern/wphact24/v98e/188.6/wphact24_4qsk1_188.6_80.4_205339.xsdst ! RUN = 205339 ! NEVT = 2000
FILE = /castor/cern.ch/delphi/MCprod/cern/wphact24/v98e/188.6/wphact24_4qsk1_188.6_80.4_205340.xsdst ! RUN = 205340 ! NEVT = 1999
FILE = /castor/cern.ch/delphi/MCprod/cern/wphact24/v98e/188.6/wphact24_4qsk1_188.6_80.4_205341.xsdst ! RUN = 205341 ! NEVT = 1670
FILE = /castor/cern.ch/delphi/MCprod/cern/wphact24/v98e/188.6/wphact24_4qsk1_188.6_80.4_205342.xsdst ! RUN = 205342 ! NEVT = 2000
FILE = /castor/cern.ch/delphi/MCprod/cern/wphact24/v98e/188.6/wphact24_4qsk1_188.6_80.4_205343.xsdst ! RUN = 205343 ! NEVT = 1998
FILE = /castor/cern.ch/delphi/MCprod/cern/wphact24/v98e/188.6/wphact24_4qsk1_188.6_80.4_205344.xsdst ! RUN = 205344 ! NEVT = 2000
FILE = /castor/cern.ch/delphi/MCprod/cern/wphact24/v98e/188.6/wphact24_4qsk1_188.6_80.4_205345.xsdst ! RUN = 205345 ! NEVT = 2000
FILE = /castor/cern.ch/delphi/MCprod/cern/wphact24/v98e/188.6/wphact24_4qsk1_188.6_80.4_205346.xsdst ! RUN = 205346 ! NEVT = 2000
FILE = /castor/cern.ch/delphi/MCprod/cern/wphact24/v98e/188.6/wphact24_4qsk1_188.6_80.4_205347.xsdst ! RUN = 205347 ! NEVT = 2000
FILE = /castor/cern.ch/delphi/MCprod/cern/wphact24/v98e/188.6/wphact24_4qsk1_188.6_80.4_205348.xsdst ! RUN = 205348 ! NEVT = 2000
FILE = /castor/cern.ch/delphi/MCprod/cern/wphact24/v98e/188.6/wphact24_4qsk1_188.6_80.4_205349.xsdst ! RUN = 205349 ! NEVT = 218
FILE = /castor/cern.ch/delphi/MCprod/cern/wphact24/v98e/188.6/wphact24_4qsk1_188.6_80.4_205350.xsdst ! RUN = 205350 ! NEVT = 1999
FILE = /castor/cern.ch/delphi/MCprod/cern/wphact24/v98e/188.6/wphact24_4qsk1_188.6_80.4_205351.xsdst ! RUN = 205351 ! NEVT = 2000
FILE = /castor/cern.ch/delphi/MCprod/cern/wphact24/v98e/188.6/wphact24_4qsk1_188.6_80.4_205352.xsdst ! RUN = 205352 ! NEVT = 1999
FILE = /castor/cern.ch/delphi/MCprod/cern/wphact24/v98e/188.6/wphact24_4qsk1_188.6_80.4_205354.xsdst ! RUN = 205354 ! NEVT = 2000
FILE = /castor/cern.ch/delphi/MCprod/cern/wphact24/v98e/188.6/wphact24_4qsk1_188.6_80.4_205355.xsdst ! RUN = 205355 ! NEVT = 1999
FILE = /castor/cern.ch/delphi/MCprod/cern/wphact24/v98e/188.6/wphact24_4qsk1_188.6_80.4_205356.xsdst ! RUN = 205356 ! NEVT = 1998
FILE = /castor/cern.ch/delphi/MCprod/cern/wphact24/v98e/188.6/wphact24_4qsk1_188.6_80.4_205357.xsdst ! RUN = 205357 ! NEVT = 2000
FILE = /castor/cern.ch/delphi/MCprod/cern/wphact24/v98e/188.6/wphact24_4qsk1_188.6_80.4_205358.xsdst ! RUN = 205358 ! NEVT = 1999
FILE = /castor/cern.ch/delphi/MCprod/cern/wphact24/v98e/188.6/wphact24_4qsk1_188.6_80.4_205359.xsdst ! RUN = 205359 ! NEVT = 1693
FILE = /castor/cern.ch/delphi/MCprod/cern/wphact24/v98e/188.6/wphact24_4qsk1_188.6_80.4_205360.xsdst ! RUN = 205360 ! NEVT = 1999
FILE = /castor/cern.ch/delphi/MCprod/cern/wphact24/v98e/188.6/wphact24_4qsk1_188.6_80.4_205361.xsdst ! RUN = 205361 ! NEVT = 2000
FILE = /castor/cern.ch/delphi/MCprod/cern/wphact24/v98e/188.6/wphact24_4qsk1_188.6_80.4_205362.xsdst ! RUN = 205362 ! NEVT = 1999
FILE = /castor/cern.ch/delphi/MCprod/cern/wphact24/v98e/188.6/wphact24_4qsk1_188.6_80.4_205363.xsdst ! RUN = 205363 ! NEVT = 2000
FILE = /castor/cern.ch/delphi/MCprod/cern/wphact24/v98e/188.6/wphact24_4qsk1_188.6_80.4_205364.xsdst ! RUN = 205364 ! NEVT = 1999
FILE = /castor/cern.ch/delphi/MCprod/cern/wphact24/v98e/188.6/wphact24_4qsk1_188.6_80.4_205365.xsdst ! RUN = 205365 ! NEVT = 1999
FILE = /castor/cern.ch/delphi/MCprod/cern/wphact24/v98e/188.6/wphact24_4qsk1_188.6_80.4_205366.xsdst ! RUN = 205366 ! NEVT = 1999
FILE = /castor/cern.ch/delphi/MCprod/cern/wphact24/v98e/188.6/wphact24_4qsk1_188.6_80.4_205367.xsdst ! RUN = 205367 ! NEVT = 1999
FILE = /castor/cern.ch/delphi/MCprod/cern/wphact24/v98e/188.6/wphact24_4qsk1_188.6_80.4_205368.xsdst ! RUN = 205368 ! NEVT = 2000
FILE = /castor/cern.ch/delphi/MCprod/cern/wphact24/v98e/188.6/wphact24_4qsk1_188.6_80.4_205369.xsdst ! RUN = 205369 ! NEVT = 1999
FILE = /castor/cern.ch/delphi/MCprod/cern/wphact24/v98e/188.6/wphact24_4qsk1_188.6_80.4_205370.xsdst ! RUN = 205370 ! NEVT = 1999
FILE = /castor/cern.ch/delphi/MCprod/cern/wphact24/v98e/188.6/wphact24_4qsk1_188.6_80.4_205371.xsdst ! RUN = 205371 ! NEVT = 2000
FILE = /castor/cern.ch/delphi/MCprod/cern/wphact24/v98e/188.6/wphact24_4qsk1_188.6_80.4_205372.xsdst ! RUN = 205372 ! NEVT = 1998
FILE = /castor/cern.ch/delphi/MCprod/cern/wphact24/v98e/188.6/wphact24_4qsk1_188.6_80.4_205375.xsdst ! RUN = 205375 ! NEVT = 2000
FILE = /castor/cern.ch/delphi/MCprod/cern/wphact24/v98e/188.6/wphact24_4qsk1_188.6_80.4_205376.xsdst ! RUN = 205376 ! NEVT = 1999
FILE = /castor/cern.ch/delphi/MCprod/cern/wphact24/v98e/188.6/wphact24_4qsk1_188.6_80.4_205377.xsdst ! RUN = 205377 ! NEVT = 2000
FILE = /castor/cern.ch/delphi/MCprod/cern/wphact24/v98e/188.6/wphact24_4qsk1_188.6_80.4_205378.xsdst ! RUN = 205378 ! NEVT = 2000
FILE = /castor/cern.ch/delphi/MCprod/cern/wphact24/v98e/188.6/wphact24_4qsk1_188.6_80.4_205379.xsdst ! RUN = 205379 ! NEVT = 2000
FILE = /castor/cern.ch/delphi/MCprod/cern/wphact24/v98e/188.6/wphact24_4qsk1_188.6_80.4_205380.xsdst ! RUN = 205380 ! NEVT = 2000
FILE = /castor/cern.ch/delphi/MCprod/cern/wphact24/v98e/188.6/wphact24_4qsk1_188.6_80.4_205381.xsdst ! RUN = 205381 ! NEVT = 1999
FILE = /castor/cern.ch/delphi/MCprod/cern/wphact24/v98e/188.6/wphact24_4qsk1_188.6_80.4_205382.xsdst ! RUN = 205382 ! NEVT = 2000
FILE = /castor/cern.ch/delphi/MCprod/cern/wphact24/v98e/188.6/wphact24_4qsk1_188.6_80.4_205383.xsdst ! RUN = 205383 ! NEVT = 1999
FILE = /castor/cern.ch/delphi/MCprod/cern/wphact24/v98e/188.6/wphact24_4qsk1_188.6_80.4_205384.xsdst ! RUN = 205384 ! NEVT = 1999
FILE = /castor/cern.ch/delphi/MCprod/cern/wphact24/v98e/188.6/wphact24_4qsk1_188.6_80.4_205385.xsdst ! RUN = 205385 ! NEVT = 1999
FILE = /castor/cern.ch/delphi/MCprod/cern/wphact24/v98e/188.6/wphact24_4qsk1_188.6_80.4_205387.xsdst ! RUN = 205387 ! NEVT = 1999
FILE = /castor/cern.ch/delphi/MCprod/cern/wphact24/v98e/188.6/wphact24_4qsk1_188.6_80.4_205388.xsdst ! RUN = 205388 ! NEVT = 1999
FILE = /castor/cern.ch/delphi/MCprod/cern/wphact24/v98e/188.6/wphact24_4qsk1_188.6_80.4_205389.xsdst ! RUN = 205389 ! NEVT = 1999
FILE = /castor/cern.ch/delphi/MCprod/cern/wphact24/v98e/188.6/wphact24_4qsk1_188.6_80.4_205390.xsdst ! RUN = 205390 ! NEVT = 1999
FILE = /castor/cern.ch/delphi/MCprod/cern/wphact24/v98e/188.6/wphact24_4qsk1_188.6_80.4_205391.xsdst ! RUN = 205391 ! NEVT = 1999
FILE = /castor/cern.ch/delphi/MCprod/cern/wphact24/v98e/188.6/wphact24_4qsk1_188.6_80.4_205392.xsdst ! RUN = 205392 ! NEVT = 1999
FILE = /castor/cern.ch/delphi/MCprod/cern/wphact24/v98e/188.6/wphact24_4qsk1_188.6_80.4_205393.xsdst ! RUN = 205393 ! NEVT = 1998
FILE = /castor/cern.ch/delphi/MCprod/cern/wphact24/v98e/188.6/wphact24_4qsk1_188.6_80.4_205394.xsdst ! RUN = 205394 ! NEVT = 2000
FILE = /castor/cern.ch/delphi/MCprod/cern/wphact24/v98e/188.6/wphact24_4qsk1_188.6_80.4_205395.xsdst ! RUN = 205395 ! NEVT = 2000
FILE = /castor/cern.ch/delphi/MCprod/cern/wphact24/v98e/188.6/wphact24_4qsk1_188.6_80.4_205396.xsdst ! RUN = 205396 ! NEVT = 2000
FILE = /castor/cern.ch/delphi/MCprod/cern/wphact24/v98e/188.6/wphact24_4qsk1_188.6_80.4_205397.xsdst ! RUN = 205397 ! NEVT = 2000
FILE = /castor/cern.ch/delphi/MCprod/cern/wphact24/v98e/188.6/wphact24_4qsk1_188.6_80.4_205399.xsdst ! RUN = 205399 ! NEVT = 2000
FILE = /castor/cern.ch/delphi/MCprod/cern/wphact24/v98e/188.6/wphact24_4qsk1_188.6_80.4_205400.xsdst ! RUN = 205400 ! NEVT = 1999
FILE = /castor/cern.ch/delphi/MCprod/cern/wphact24/v98e/188.6/wphact24_4qsk1_188.6_80.4_205401.xsdst ! RUN = 205401 ! NEVT = 1999
FILE = /castor/cern.ch/delphi/MCprod/cern/wphact24/v98e/188.6/wphact24_4qsk1_188.6_80.4_205402.xsdst ! RUN = 205402 ! NEVT = 1999
FILE = /castor/cern.ch/delphi/MCprod/cern/wphact24/v98e/188.6/wphact24_4qsk1_188.6_80.4_205403.xsdst ! RUN = 205403 ! NEVT = 686
FILE = /castor/cern.ch/delphi/MCprod/cern/wphact24/v98e/188.6/wphact24_4qsk1_188.6_80.4_205404.xsdst ! RUN = 205404 ! NEVT = 2000
FILE = /castor/cern.ch/delphi/MCprod/cern/wphact24/v98e/188.6/wphact24_4qsk1_188.6_80.4_205405.xsdst ! RUN = 205405 ! NEVT = 2000
FILE = /castor/cern.ch/delphi/MCprod/cern/wphact24/v98e/188.6/wphact24_4qsk1_188.6_80.4_205406.xsdst ! RUN = 205406 ! NEVT = 1998
FILE = /castor/cern.ch/delphi/MCprod/cern/wphact24/v98e/188.6/wphact24_4qsk1_188.6_80.4_205407.xsdst ! RUN = 205407 ! NEVT = 2000
FILE = /castor/cern.ch/delphi/MCprod/cern/wphact24/v98e/188.6/wphact24_4qsk1_188.6_80.4_205408.xsdst ! RUN = 205408 ! NEVT = 2000
FILE = /castor/cern.ch/delphi/MCprod/cern/wphact24/v98e/188.6/wphact24_4qsk1_188.6_80.4_205409.xsdst ! RUN = 205409 ! NEVT = 1999
FILE = /castor/cern.ch/delphi/MCprod/cern/wphact24/v98e/188.6/wphact24_4qsk1_188.6_80.4_205410.xsdst ! RUN = 205410 ! NEVT = 2000
FILE = /castor/cern.ch/delphi/MCprod/cern/wphact24/v98e/188.6/wphact24_4qsk1_188.6_80.4_205411.xsdst ! RUN = 205411 ! NEVT = 1999
FILE = /castor/cern.ch/delphi/MCprod/cern/wphact24/v98e/188.6/wphact24_4qsk1_188.6_80.4_205412.xsdst ! RUN = 205412 ! NEVT = 1997
FILE = /castor/cern.ch/delphi/MCprod/cern/wphact24/v98e/188.6/wphact24_4qsk1_188.6_80.4_205413.xsdst ! RUN = 205413 ! NEVT = 461
FILE = /castor/cern.ch/delphi/MCprod/cern/wphact24/v98e/188.6/wphact24_4qsk1_188.6_80.4_205414.xsdst ! RUN = 205414 ! NEVT = 1043
FILE = /castor/cern.ch/delphi/MCprod/cern/wphact24/v98e/188.6/wphact24_4qsk1_188.6_80.4_205415.xsdst ! RUN = 205415 ! NEVT = 2000
FILE = /castor/cern.ch/delphi/MCprod/cern/wphact24/v98e/188.6/wphact24_4qsk1_188.6_80.4_205416.xsdst ! RUN = 205416 ! NEVT = 1998
FILE = /castor/cern.ch/delphi/MCprod/cern/wphact24/v98e/188.6/wphact24_4qsk1_188.6_80.4_205417.xsdst ! RUN = 205417 ! NEVT = 1998
FILE = /castor/cern.ch/delphi/MCprod/cern/wphact24/v98e/188.6/wphact24_4qsk1_188.6_80.4_205418.xsdst ! RUN = 205418 ! NEVT = 1388
FILE = /castor/cern.ch/delphi/MCprod/cern/wphact24/v98e/188.6/wphact24_4qsk1_188.6_80.4_205419.xsdst ! RUN = 205419 ! NEVT = 1999
FILE = /castor/cern.ch/delphi/MCprod/cern/wphact24/v98e/188.6/wphact24_4qsk1_188.6_80.4_205420.xsdst ! RUN = 205420 ! NEVT = 2000
FILE = /castor/cern.ch/delphi/MCprod/cern/wphact24/v98e/188.6/wphact24_4qsk1_188.6_80.4_205421.xsdst ! RUN = 205421 ! NEVT = 1999
FILE = /castor/cern.ch/delphi/MCprod/cern/wphact24/v98e/188.6/wphact24_4qsk1_188.6_80.4_205422.xsdst ! RUN = 205422 ! NEVT = 1999
FILE = /castor/cern.ch/delphi/MCprod/cern/wphact24/v98e/188.6/wphact24_4qsk1_188.6_80.4_205423.xsdst ! RUN = 205423 ! NEVT = 1999
FILE = /castor/cern.ch/delphi/MCprod/cern/wphact24/v98e/188.6/wphact24_4qsk1_188.6_80.4_205424.xsdst ! RUN = 205424 ! NEVT = 895
FILE = /castor/cern.ch/delphi/MCprod/cern/wphact24/v98e/188.6/wphact24_4qsk1_188.6_80.4_205425.xsdst ! RUN = 205425 ! NEVT = 1999
FILE = /castor/cern.ch/delphi/MCprod/cern/wphact24/v98e/188.6/wphact24_4qsk1_188.6_80.4_205426.xsdst ! RUN = 205426 ! NEVT = 2000
FILE = /castor/cern.ch/delphi/MCprod/cern/wphact24/v98e/188.6/wphact24_4qsk1_188.6_80.4_205427.xsdst ! RUN = 205427 ! NEVT = 2000
FILE = /castor/cern.ch/delphi/MCprod/cern/wphact24/v98e/188.6/wphact24_4qsk1_188.6_80.4_205428.xsdst ! RUN = 205428 ! NEVT = 1999
FILE = /castor/cern.ch/delphi/MCprod/cern/wphact24/v98e/188.6/wphact24_4qsk1_188.6_80.4_205429.xsdst ! RUN = 205429 ! NEVT = 1999
FILE = /castor/cern.ch/delphi/MCprod/cern/wphact24/v98e/188.6/wphact24_4qsk1_188.6_80.4_205430.xsdst ! RUN = 205430 ! NEVT = 1999
FILE = /castor/cern.ch/delphi/MCprod/cern/wphact24/v98e/188.6/wphact24_4qsk1_188.6_80.4_205431.xsdst ! RUN = 205431 ! NEVT = 2000
FILE = /castor/cern.ch/delphi/MCprod/cern/wphact24/v98e/188.6/wphact24_4qsk1_188.6_80.4_205432.xsdst ! RUN = 205432 ! NEVT = 1999
FILE = /castor/cern.ch/delphi/MCprod/cern/wphact24/v98e/188.6/wphact24_4qsk1_188.6_80.4_205433.xsdst ! RUN = 205433 ! NEVT = 2000
FILE = /castor/cern.ch/delphi/MCprod/cern/wphact24/v98e/188.6/wphact24_4qsk1_188.6_80.4_205434.xsdst ! RUN = 205434 ! NEVT = 1998
FILE = /castor/cern.ch/delphi/MCprod/cern/wphact24/v98e/188.6/wphact24_4qsk1_188.6_80.4_205435.xsdst ! RUN = 205435 ! NEVT = 2000
FILE = /castor/cern.ch/delphi/MCprod/cern/wphact24/v98e/188.6/wphact24_4qsk1_188.6_80.4_205436.xsdst ! RUN = 205436 ! NEVT = 1999
FILE = /castor/cern.ch/delphi/MCprod/cern/wphact24/v98e/188.6/wphact24_4qsk1_188.6_80.4_205437.xsdst ! RUN = 205437 ! NEVT = 2000
FILE = /castor/cern.ch/delphi/MCprod/cern/wphact24/v98e/188.6/wphact24_4qsk1_188.6_80.4_205438.xsdst ! RUN = 205438 ! NEVT = 1999
FILE = /castor/cern.ch/delphi/MCprod/cern/wphact24/v98e/188.6/wphact24_4qsk1_188.6_80.4_205439.xsdst ! RUN = 205439 ! NEVT = 2000
FILE = /castor/cern.ch/delphi/MCprod/cern/wphact24/v98e/188.6/wphact24_4qsk1_188.6_80.4_205440.xsdst ! RUN = 205440 ! NEVT = 619
FILE = /castor/cern.ch/delphi/MCprod/cern/wphact24/v98e/188.6/wphact24_4qsk1_188.6_80.4_205441.xsdst ! RUN = 205441 ! NEVT = 1999
FILE = /castor/cern.ch/delphi/MCprod/cern/wphact24/v98e/188.6/wphact24_4qsk1_188.6_80.4_205442.xsdst ! RUN = 205442 ! NEVT = 1998
FILE = /castor/cern.ch/delphi/MCprod/cern/wphact24/v98e/188.6/wphact24_4qsk1_188.6_80.4_205443.xsdst ! RUN = 205443 ! NEVT = 155
FILE = /castor/cern.ch/delphi/MCprod/cern/wphact24/v98e/188.6/wphact24_4qsk1_188.6_80.4_205444.xsdst ! RUN = 205444 ! NEVT = 1999
FILE = /castor/cern.ch/delphi/MCprod/cern/wphact24/v98e/188.6/wphact24_4qsk1_188.6_80.4_205445.xsdst ! RUN = 205445 ! NEVT = 2000
FILE = /castor/cern.ch/delphi/MCprod/cern/wphact24/v98e/188.6/wphact24_4qsk1_188.6_80.4_205446.xsdst ! RUN = 205446 ! NEVT = 1243
FILE = /castor/cern.ch/delphi/MCprod/cern/wphact24/v98e/188.6/wphact24_4qsk1_188.6_80.4_205447.xsdst ! RUN = 205447 ! NEVT = 1997
FILE = /castor/cern.ch/delphi/MCprod/cern/wphact24/v98e/188.6/wphact24_4qsk1_188.6_80.4_205448.xsdst ! RUN = 205448 ! NEVT = 2000
FILE = /castor/cern.ch/delphi/MCprod/cern/wphact24/v98e/188.6/wphact24_4qsk1_188.6_80.4_205449.xsdst ! RUN = 205449 ! NEVT = 2000
FILE = /castor/cern.ch/delphi/MCprod/cern/wphact24/v98e/188.6/wphact24_4qsk1_188.6_80.4_205450.xsdst ! RUN = 205450 ! NEVT = 2000
FILE = /castor/cern.ch/delphi/MCprod/cern/wphact24/v98e/188.6/wphact24_4qsk1_188.6_80.4_205451.xsdst ! RUN = 205451 ! NEVT = 1999
FILE = /castor/cern.ch/delphi/MCprod/cern/wphact24/v98e/188.6/wphact24_4qsk1_188.6_80.4_205452.xsdst ! RUN = 205452 ! NEVT = 2000
FILE = /castor/cern.ch/delphi/MCprod/cern/wphact24/v98e/188.6/wphact24_4qsk1_188.6_80.4_205453.xsdst ! RUN = 205453 ! NEVT = 458
FILE = /castor/cern.ch/delphi/MCprod/cern/wphact24/v98e/188.6/wphact24_4qsk1_188.6_80.4_205454.xsdst ! RUN = 205454 ! NEVT = 1999
FILE = /castor/cern.ch/delphi/MCprod/cern/wphact24/v98e/188.6/wphact24_4qsk1_188.6_80.4_205455.xsdst ! RUN = 205455 ! NEVT = 2000
FILE = /castor/cern.ch/delphi/MCprod/cern/wphact24/v98e/188.6/wphact24_4qsk1_188.6_80.4_205456.xsdst ! RUN = 205456 ! NEVT = 2000
FILE = /castor/cern.ch/delphi/MCprod/cern/wphact24/v98e/188.6/wphact24_4qsk1_188.6_80.4_205457.xsdst ! RUN = 205457 ! NEVT = 1999
FILE = /castor/cern.ch/delphi/MCprod/cern/wphact24/v98e/188.6/wphact24_4qsk1_188.6_80.4_205458.xsdst ! RUN = 205458 ! NEVT = 2000
FILE = /castor/cern.ch/delphi/MCprod/cern/wphact24/v98e/188.6/wphact24_4qsk1_188.6_80.4_205459.xsdst ! RUN = 205459 ! NEVT = 20
FILE = /castor/cern.ch/delphi/MCprod/cern/wphact24/v98e/188.6/wphact24_4qsk1_188.6_80.4_205460.xsdst ! RUN = 205460 ! NEVT = 2000
FILE = /castor/cern.ch/delphi/MCprod/cern/wphact24/v98e/188.6/wphact24_4qsk1_188.6_80.4_205461.xsdst ! RUN = 205461 ! NEVT = 1999
FILE = /castor/cern.ch/delphi/MCprod/cern/wphact24/v98e/188.6/wphact24_4qsk1_188.6_80.4_205462.xsdst ! RUN = 205462 ! NEVT = 2000
FILE = /castor/cern.ch/delphi/MCprod/cern/wphact24/v98e/188.6/wphact24_4qsk1_188.6_80.4_205463.xsdst ! RUN = 205463 ! NEVT = 1999
FILE = /castor/cern.ch/delphi/MCprod/cern/wphact24/v98e/188.6/wphact24_4qsk1_188.6_80.4_205464.xsdst ! RUN = 205464 ! NEVT = 2000
FILE = /castor/cern.ch/delphi/MCprod/cern/wphact24/v98e/188.6/wphact24_4qsk1_188.6_80.4_205465.xsdst ! RUN = 205465 ! NEVT = 2000
FILE = /castor/cern.ch/delphi/MCprod/cern/wphact24/v98e/188.6/wphact24_4qsk1_188.6_80.4_205466.xsdst ! RUN = 205466 ! NEVT = 1998
FILE = /castor/cern.ch/delphi/MCprod/cern/wphact24/v98e/188.6/wphact24_4qsk1_188.6_80.4_205467.xsdst ! RUN = 205467 ! NEVT = 2000
FILE = /castor/cern.ch/delphi/MCprod/cern/wphact24/v98e/188.6/wphact24_4qsk1_188.6_80.4_205468.xsdst ! RUN = 205468 ! NEVT = 1998
FILE = /castor/cern.ch/delphi/MCprod/cern/wphact24/v98e/188.6/wphact24_4qsk1_188.6_80.4_205469.xsdst ! RUN = 205469 ! NEVT = 2000
FILE = /castor/cern.ch/delphi/MCprod/cern/wphact24/v98e/188.6/wphact24_4qsk1_188.6_80.4_205470.xsdst ! RUN = 205470 ! NEVT = 2000
FILE = /castor/cern.ch/delphi/MCprod/cern/wphact24/v98e/188.6/wphact24_4qsk1_188.6_80.4_205471.xsdst ! RUN = 205471 ! NEVT = 2000
FILE = /castor/cern.ch/delphi/MCprod/cern/wphact24/v98e/188.6/wphact24_4qsk1_188.6_80.4_205472.xsdst ! RUN = 205472 ! NEVT = 2000
FILE = /castor/cern.ch/delphi/MCprod/cern/wphact24/v98e/188.6/wphact24_4qsk1_188.6_80.4_205473.xsdst ! RUN = 205473 ! NEVT = 1999
FILE = /castor/cern.ch/delphi/MCprod/cern/wphact24/v98e/188.6/wphact24_4qsk1_188.6_80.4_205474.xsdst ! RUN = 205474 ! NEVT = 2000
FILE = /castor/cern.ch/delphi/MCprod/cern/wphact24/v98e/188.6/wphact24_4qsk1_188.6_80.4_205476.xsdst ! RUN = 205476 ! NEVT = 1999
FILE = /castor/cern.ch/delphi/MCprod/cern/wphact24/v98e/188.6/wphact24_4qsk1_188.6_80.4_205477.xsdst ! RUN = 205477 ! NEVT = 2000
FILE = /castor/cern.ch/delphi/MCprod/cern/wphact24/v98e/188.6/wphact24_4qsk1_188.6_80.4_205478.xsdst ! RUN = 205478 ! NEVT = 2000
FILE = /castor/cern.ch/delphi/MCprod/cern/wphact24/v98e/188.6/wphact24_4qsk1_188.6_80.4_205479.xsdst ! RUN = 205479 ! NEVT = 2000
FILE = /castor/cern.ch/delphi/MCprod/cern/wphact24/v98e/188.6/wphact24_4qsk1_188.6_80.4_205480.xsdst ! RUN = 205480 ! NEVT = 2000
FILE = /castor/cern.ch/delphi/MCprod/cern/wphact24/v98e/188.6/wphact24_4qsk1_188.6_80.4_205481.xsdst ! RUN = 205481 ! NEVT = 2000
FILE = /castor/cern.ch/delphi/MCprod/cern/wphact24/v98e/188.6/wphact24_4qsk1_188.6_80.4_205482.xsdst ! RUN = 205482 ! NEVT = 1998
FILE = /castor/cern.ch/delphi/MCprod/cern/wphact24/v98e/188.6/wphact24_4qsk1_188.6_80.4_205483.xsdst ! RUN = 205483 ! NEVT = 2000
FILE = /castor/cern.ch/delphi/MCprod/cern/wphact24/v98e/188.6/wphact24_4qsk1_188.6_80.4_205484.xsdst ! RUN = 205484 ! NEVT = 2000
FILE = /castor/cern.ch/delphi/MCprod/cern/wphact24/v98e/188.6/wphact24_4qsk1_188.6_80.4_205485.xsdst ! RUN = 205485 ! NEVT = 1999
FILE = /castor/cern.ch/delphi/MCprod/cern/wphact24/v98e/188.6/wphact24_4qsk1_188.6_80.4_205487.xsdst ! RUN = 205487 ! NEVT = 2000
FILE = /castor/cern.ch/delphi/MCprod/cern/wphact24/v98e/188.6/wphact24_4qsk1_188.6_80.4_205488.xsdst ! RUN = 205488 ! NEVT = 2000
FILE = /castor/cern.ch/delphi/MCprod/cern/wphact24/v98e/188.6/wphact24_4qsk1_188.6_80.4_205490.xsdst ! RUN = 205490 ! NEVT = 1999
FILE = /castor/cern.ch/delphi/MCprod/cern/wphact24/v98e/188.6/wphact24_4qsk1_188.6_80.4_205491.xsdst ! RUN = 205491 ! NEVT = 1999
FILE = /castor/cern.ch/delphi/MCprod/cern/wphact24/v98e/188.6/wphact24_4qsk1_188.6_80.4_205492.xsdst ! RUN = 205492 ! NEVT = 1999
FILE = /castor/cern.ch/delphi/MCprod/cern/wphact24/v98e/188.6/wphact24_4qsk1_188.6_80.4_205493.xsdst ! RUN = 205493 ! NEVT = 1997
FILE = /castor/cern.ch/delphi/MCprod/cern/wphact24/v98e/188.6/wphact24_4qsk1_188.6_80.4_205494.xsdst ! RUN = 205494 ! NEVT = 1999
FILE = /castor/cern.ch/delphi/MCprod/cern/wphact24/v98e/188.6/wphact24_4qsk1_188.6_80.4_205495.xsdst ! RUN = 205495 ! NEVT = 2000
FILE = /castor/cern.ch/delphi/MCprod/cern/wphact24/v98e/188.6/wphact24_4qsk1_188.6_80.4_205496.xsdst ! RUN = 205496 ! NEVT = 52
FILE = /castor/cern.ch/delphi/MCprod/cern/wphact24/v98e/188.6/wphact24_4qsk1_188.6_80.4_205497.xsdst ! RUN = 205497 ! NEVT = 2000
FILE = /castor/cern.ch/delphi/MCprod/cern/wphact24/v98e/188.6/wphact24_4qsk1_188.6_80.4_205498.xsdst ! RUN = 205498 ! NEVT = 1998
FILE = /castor/cern.ch/delphi/MCprod/cern/wphact24/v98e/188.6/wphact24_4qsk1_188.6_80.4_205499.xsdst ! RUN = 205499 ! NEVT = 1596
FILE = /castor/cern.ch/delphi/MCprod/cern/wphact24/v98e/188.6/wphact24_4qsk1_188.6_80.4_205500.xsdst ! RUN = 205500 ! NEVT = 2000
