*
*   Nickname     : xs_hzha03pyth6156ha50_e206.5_m95_ca0_1l_e1
*   Generic Name : //CERN/DELPHI/P02_SIMD/XSDST/HZHA03PYTH6156HA50/E206.5/CERN/SUMT/C001-10
*   Description  : XShortDst HZHA03  e+e- --> hA ->4b, tan beta = 50 Extended Short DST simulation a0_e1 done at ecms=206.5 , CERN
*---
*   Comments     : in total 4998 events in 10 files time stamp: Fri Aug 24 17:42:21 2001
*---
*
*
*
*
*
FILE = /castor/cern.ch/delphi/MCprod/cern/hzha03pyth6156/va0e/206.5/hzha03pyth6156_ha50_206.5_95_29501.xsdst ! RUN = 29501 ! NEVT = 500
FILE = /castor/cern.ch/delphi/MCprod/cern/hzha03pyth6156/va0e/206.5/hzha03pyth6156_ha50_206.5_95_29502.xsdst ! RUN = 29502 ! NEVT = 500
FILE = /castor/cern.ch/delphi/MCprod/cern/hzha03pyth6156/va0e/206.5/hzha03pyth6156_ha50_206.5_95_29503.xsdst ! RUN = 29503 ! NEVT = 500
FILE = /castor/cern.ch/delphi/MCprod/cern/hzha03pyth6156/va0e/206.5/hzha03pyth6156_ha50_206.5_95_29504.xsdst ! RUN = 29504 ! NEVT = 499
FILE = /castor/cern.ch/delphi/MCprod/cern/hzha03pyth6156/va0e/206.5/hzha03pyth6156_ha50_206.5_95_29505.xsdst ! RUN = 29505 ! NEVT = 500
FILE = /castor/cern.ch/delphi/MCprod/cern/hzha03pyth6156/va0e/206.5/hzha03pyth6156_ha50_206.5_95_29506.xsdst ! RUN = 29506 ! NEVT = 500
FILE = /castor/cern.ch/delphi/MCprod/cern/hzha03pyth6156/va0e/206.5/hzha03pyth6156_ha50_206.5_95_29507.xsdst ! RUN = 29507 ! NEVT = 500
FILE = /castor/cern.ch/delphi/MCprod/cern/hzha03pyth6156/va0e/206.5/hzha03pyth6156_ha50_206.5_95_29508.xsdst ! RUN = 29508 ! NEVT = 499
FILE = /castor/cern.ch/delphi/MCprod/cern/hzha03pyth6156/va0e/206.5/hzha03pyth6156_ha50_206.5_95_29509.xsdst ! RUN = 29509 ! NEVT = 500
FILE = /castor/cern.ch/delphi/MCprod/cern/hzha03pyth6156/va0e/206.5/hzha03pyth6156_ha50_206.5_95_29510.xsdst ! RUN = 29510 ! NEVT = 500
