*
*   Nickname     : dsto_zgpy6156bafix_e91.25_l99_1l_a
*   Generic Name : //CERN/DELPHI/P01_SIMD/DSTO/ZGPY6156BAFIX/E91.25/LYON/SUMT/C001-100
*   Description  :  Full DST/Delana output simulation 99_a done at ecms=91.25 , Lyon
*---
*   Comments     : in total 99991 events in 100 files time stamp: Sun Aug  5 20:15:00 2001
*---
*
*
*
*
*
FILE = /castor/cern.ch/delphi/MCprod/lyon/zgpy6156bafix/v99_4/91.25/zgpy6156bafix_91.25_13301.fadana ! RUN = 13301 ! NEVT = 1000
FILE = /castor/cern.ch/delphi/MCprod/lyon/zgpy6156bafix/v99_4/91.25/zgpy6156bafix_91.25_13302.fadana ! RUN = 13302 ! NEVT = 1000
FILE = /castor/cern.ch/delphi/MCprod/lyon/zgpy6156bafix/v99_4/91.25/zgpy6156bafix_91.25_13303.fadana ! RUN = 13303 ! NEVT = 1000
FILE = /castor/cern.ch/delphi/MCprod/lyon/zgpy6156bafix/v99_4/91.25/zgpy6156bafix_91.25_13304.fadana ! RUN = 13304 ! NEVT = 1000
FILE = /castor/cern.ch/delphi/MCprod/lyon/zgpy6156bafix/v99_4/91.25/zgpy6156bafix_91.25_13305.fadana ! RUN = 13305 ! NEVT = 1000
FILE = /castor/cern.ch/delphi/MCprod/lyon/zgpy6156bafix/v99_4/91.25/zgpy6156bafix_91.25_13306.fadana ! RUN = 13306 ! NEVT = 1000
FILE = /castor/cern.ch/delphi/MCprod/lyon/zgpy6156bafix/v99_4/91.25/zgpy6156bafix_91.25_13307.fadana ! RUN = 13307 ! NEVT = 1000
FILE = /castor/cern.ch/delphi/MCprod/lyon/zgpy6156bafix/v99_4/91.25/zgpy6156bafix_91.25_13308.fadana ! RUN = 13308 ! NEVT = 999
FILE = /castor/cern.ch/delphi/MCprod/lyon/zgpy6156bafix/v99_4/91.25/zgpy6156bafix_91.25_13309.fadana ! RUN = 13309 ! NEVT = 1000
FILE = /castor/cern.ch/delphi/MCprod/lyon/zgpy6156bafix/v99_4/91.25/zgpy6156bafix_91.25_13310.fadana ! RUN = 13310 ! NEVT = 1000
FILE = /castor/cern.ch/delphi/MCprod/lyon/zgpy6156bafix/v99_4/91.25/zgpy6156bafix_91.25_13311.fadana ! RUN = 13311 ! NEVT = 1000
FILE = /castor/cern.ch/delphi/MCprod/lyon/zgpy6156bafix/v99_4/91.25/zgpy6156bafix_91.25_13312.fadana ! RUN = 13312 ! NEVT = 1000
FILE = /castor/cern.ch/delphi/MCprod/lyon/zgpy6156bafix/v99_4/91.25/zgpy6156bafix_91.25_13313.fadana ! RUN = 13313 ! NEVT = 1000
FILE = /castor/cern.ch/delphi/MCprod/lyon/zgpy6156bafix/v99_4/91.25/zgpy6156bafix_91.25_13314.fadana ! RUN = 13314 ! NEVT = 1000
FILE = /castor/cern.ch/delphi/MCprod/lyon/zgpy6156bafix/v99_4/91.25/zgpy6156bafix_91.25_13315.fadana ! RUN = 13315 ! NEVT = 1000
FILE = /castor/cern.ch/delphi/MCprod/lyon/zgpy6156bafix/v99_4/91.25/zgpy6156bafix_91.25_13316.fadana ! RUN = 13316 ! NEVT = 1000
FILE = /castor/cern.ch/delphi/MCprod/lyon/zgpy6156bafix/v99_4/91.25/zgpy6156bafix_91.25_13317.fadana ! RUN = 13317 ! NEVT = 1000
FILE = /castor/cern.ch/delphi/MCprod/lyon/zgpy6156bafix/v99_4/91.25/zgpy6156bafix_91.25_13318.fadana ! RUN = 13318 ! NEVT = 1000
FILE = /castor/cern.ch/delphi/MCprod/lyon/zgpy6156bafix/v99_4/91.25/zgpy6156bafix_91.25_13319.fadana ! RUN = 13319 ! NEVT = 1000
FILE = /castor/cern.ch/delphi/MCprod/lyon/zgpy6156bafix/v99_4/91.25/zgpy6156bafix_91.25_13320.fadana ! RUN = 13320 ! NEVT = 998
FILE = /castor/cern.ch/delphi/MCprod/lyon/zgpy6156bafix/v99_4/91.25/zgpy6156bafix_91.25_13321.fadana ! RUN = 13321 ! NEVT = 1000
FILE = /castor/cern.ch/delphi/MCprod/lyon/zgpy6156bafix/v99_4/91.25/zgpy6156bafix_91.25_13322.fadana ! RUN = 13322 ! NEVT = 1000
FILE = /castor/cern.ch/delphi/MCprod/lyon/zgpy6156bafix/v99_4/91.25/zgpy6156bafix_91.25_13323.fadana ! RUN = 13323 ! NEVT = 1000
FILE = /castor/cern.ch/delphi/MCprod/lyon/zgpy6156bafix/v99_4/91.25/zgpy6156bafix_91.25_13324.fadana ! RUN = 13324 ! NEVT = 1000
FILE = /castor/cern.ch/delphi/MCprod/lyon/zgpy6156bafix/v99_4/91.25/zgpy6156bafix_91.25_13325.fadana ! RUN = 13325 ! NEVT = 1000
FILE = /castor/cern.ch/delphi/MCprod/lyon/zgpy6156bafix/v99_4/91.25/zgpy6156bafix_91.25_13326.fadana ! RUN = 13326 ! NEVT = 1000
FILE = /castor/cern.ch/delphi/MCprod/lyon/zgpy6156bafix/v99_4/91.25/zgpy6156bafix_91.25_13327.fadana ! RUN = 13327 ! NEVT = 1000
FILE = /castor/cern.ch/delphi/MCprod/lyon/zgpy6156bafix/v99_4/91.25/zgpy6156bafix_91.25_13328.fadana ! RUN = 13328 ! NEVT = 1000
FILE = /castor/cern.ch/delphi/MCprod/lyon/zgpy6156bafix/v99_4/91.25/zgpy6156bafix_91.25_13329.fadana ! RUN = 13329 ! NEVT = 1000
FILE = /castor/cern.ch/delphi/MCprod/lyon/zgpy6156bafix/v99_4/91.25/zgpy6156bafix_91.25_13330.fadana ! RUN = 13330 ! NEVT = 1000
FILE = /castor/cern.ch/delphi/MCprod/lyon/zgpy6156bafix/v99_4/91.25/zgpy6156bafix_91.25_13331.fadana ! RUN = 13331 ! NEVT = 1000
FILE = /castor/cern.ch/delphi/MCprod/lyon/zgpy6156bafix/v99_4/91.25/zgpy6156bafix_91.25_13332.fadana ! RUN = 13332 ! NEVT = 1000
FILE = /castor/cern.ch/delphi/MCprod/lyon/zgpy6156bafix/v99_4/91.25/zgpy6156bafix_91.25_13333.fadana ! RUN = 13333 ! NEVT = 1000
FILE = /castor/cern.ch/delphi/MCprod/lyon/zgpy6156bafix/v99_4/91.25/zgpy6156bafix_91.25_13334.fadana ! RUN = 13334 ! NEVT = 1000
FILE = /castor/cern.ch/delphi/MCprod/lyon/zgpy6156bafix/v99_4/91.25/zgpy6156bafix_91.25_13335.fadana ! RUN = 13335 ! NEVT = 1000
FILE = /castor/cern.ch/delphi/MCprod/lyon/zgpy6156bafix/v99_4/91.25/zgpy6156bafix_91.25_13336.fadana ! RUN = 13336 ! NEVT = 1000
FILE = /castor/cern.ch/delphi/MCprod/lyon/zgpy6156bafix/v99_4/91.25/zgpy6156bafix_91.25_13337.fadana ! RUN = 13337 ! NEVT = 1000
FILE = /castor/cern.ch/delphi/MCprod/lyon/zgpy6156bafix/v99_4/91.25/zgpy6156bafix_91.25_13338.fadana ! RUN = 13338 ! NEVT = 1000
FILE = /castor/cern.ch/delphi/MCprod/lyon/zgpy6156bafix/v99_4/91.25/zgpy6156bafix_91.25_13339.fadana ! RUN = 13339 ! NEVT = 1000
FILE = /castor/cern.ch/delphi/MCprod/lyon/zgpy6156bafix/v99_4/91.25/zgpy6156bafix_91.25_13340.fadana ! RUN = 13340 ! NEVT = 1000
FILE = /castor/cern.ch/delphi/MCprod/lyon/zgpy6156bafix/v99_4/91.25/zgpy6156bafix_91.25_13341.fadana ! RUN = 13341 ! NEVT = 1000
FILE = /castor/cern.ch/delphi/MCprod/lyon/zgpy6156bafix/v99_4/91.25/zgpy6156bafix_91.25_13342.fadana ! RUN = 13342 ! NEVT = 1000
FILE = /castor/cern.ch/delphi/MCprod/lyon/zgpy6156bafix/v99_4/91.25/zgpy6156bafix_91.25_13343.fadana ! RUN = 13343 ! NEVT = 1000
FILE = /castor/cern.ch/delphi/MCprod/lyon/zgpy6156bafix/v99_4/91.25/zgpy6156bafix_91.25_13344.fadana ! RUN = 13344 ! NEVT = 1000
FILE = /castor/cern.ch/delphi/MCprod/lyon/zgpy6156bafix/v99_4/91.25/zgpy6156bafix_91.25_13345.fadana ! RUN = 13345 ! NEVT = 1000
FILE = /castor/cern.ch/delphi/MCprod/lyon/zgpy6156bafix/v99_4/91.25/zgpy6156bafix_91.25_13346.fadana ! RUN = 13346 ! NEVT = 999
FILE = /castor/cern.ch/delphi/MCprod/lyon/zgpy6156bafix/v99_4/91.25/zgpy6156bafix_91.25_13347.fadana ! RUN = 13347 ! NEVT = 1000
FILE = /castor/cern.ch/delphi/MCprod/lyon/zgpy6156bafix/v99_4/91.25/zgpy6156bafix_91.25_13348.fadana ! RUN = 13348 ! NEVT = 1000
FILE = /castor/cern.ch/delphi/MCprod/lyon/zgpy6156bafix/v99_4/91.25/zgpy6156bafix_91.25_13349.fadana ! RUN = 13349 ! NEVT = 1000
FILE = /castor/cern.ch/delphi/MCprod/lyon/zgpy6156bafix/v99_4/91.25/zgpy6156bafix_91.25_13350.fadana ! RUN = 13350 ! NEVT = 1000
FILE = /castor/cern.ch/delphi/MCprod/lyon/zgpy6156bafix/v99_4/91.25/zgpy6156bafix_91.25_13351.fadana ! RUN = 13351 ! NEVT = 1000
FILE = /castor/cern.ch/delphi/MCprod/lyon/zgpy6156bafix/v99_4/91.25/zgpy6156bafix_91.25_13352.fadana ! RUN = 13352 ! NEVT = 999
FILE = /castor/cern.ch/delphi/MCprod/lyon/zgpy6156bafix/v99_4/91.25/zgpy6156bafix_91.25_13353.fadana ! RUN = 13353 ! NEVT = 999
FILE = /castor/cern.ch/delphi/MCprod/lyon/zgpy6156bafix/v99_4/91.25/zgpy6156bafix_91.25_13354.fadana ! RUN = 13354 ! NEVT = 1000
FILE = /castor/cern.ch/delphi/MCprod/lyon/zgpy6156bafix/v99_4/91.25/zgpy6156bafix_91.25_13355.fadana ! RUN = 13355 ! NEVT = 1000
FILE = /castor/cern.ch/delphi/MCprod/lyon/zgpy6156bafix/v99_4/91.25/zgpy6156bafix_91.25_13356.fadana ! RUN = 13356 ! NEVT = 1000
FILE = /castor/cern.ch/delphi/MCprod/lyon/zgpy6156bafix/v99_4/91.25/zgpy6156bafix_91.25_13357.fadana ! RUN = 13357 ! NEVT = 1000
FILE = /castor/cern.ch/delphi/MCprod/lyon/zgpy6156bafix/v99_4/91.25/zgpy6156bafix_91.25_13358.fadana ! RUN = 13358 ! NEVT = 1000
FILE = /castor/cern.ch/delphi/MCprod/lyon/zgpy6156bafix/v99_4/91.25/zgpy6156bafix_91.25_13359.fadana ! RUN = 13359 ! NEVT = 1000
FILE = /castor/cern.ch/delphi/MCprod/lyon/zgpy6156bafix/v99_4/91.25/zgpy6156bafix_91.25_13360.fadana ! RUN = 13360 ! NEVT = 999
FILE = /castor/cern.ch/delphi/MCprod/lyon/zgpy6156bafix/v99_4/91.25/zgpy6156bafix_91.25_13361.fadana ! RUN = 13361 ! NEVT = 1000
FILE = /castor/cern.ch/delphi/MCprod/lyon/zgpy6156bafix/v99_4/91.25/zgpy6156bafix_91.25_13362.fadana ! RUN = 13362 ! NEVT = 1000
FILE = /castor/cern.ch/delphi/MCprod/lyon/zgpy6156bafix/v99_4/91.25/zgpy6156bafix_91.25_13363.fadana ! RUN = 13363 ! NEVT = 1000
FILE = /castor/cern.ch/delphi/MCprod/lyon/zgpy6156bafix/v99_4/91.25/zgpy6156bafix_91.25_13364.fadana ! RUN = 13364 ! NEVT = 1000
FILE = /castor/cern.ch/delphi/MCprod/lyon/zgpy6156bafix/v99_4/91.25/zgpy6156bafix_91.25_13365.fadana ! RUN = 13365 ! NEVT = 999
FILE = /castor/cern.ch/delphi/MCprod/lyon/zgpy6156bafix/v99_4/91.25/zgpy6156bafix_91.25_13366.fadana ! RUN = 13366 ! NEVT = 1000
FILE = /castor/cern.ch/delphi/MCprod/lyon/zgpy6156bafix/v99_4/91.25/zgpy6156bafix_91.25_13367.fadana ! RUN = 13367 ! NEVT = 1000
FILE = /castor/cern.ch/delphi/MCprod/lyon/zgpy6156bafix/v99_4/91.25/zgpy6156bafix_91.25_13368.fadana ! RUN = 13368 ! NEVT = 1000
FILE = /castor/cern.ch/delphi/MCprod/lyon/zgpy6156bafix/v99_4/91.25/zgpy6156bafix_91.25_13369.fadana ! RUN = 13369 ! NEVT = 1000
FILE = /castor/cern.ch/delphi/MCprod/lyon/zgpy6156bafix/v99_4/91.25/zgpy6156bafix_91.25_13370.fadana ! RUN = 13370 ! NEVT = 1000
FILE = /castor/cern.ch/delphi/MCprod/lyon/zgpy6156bafix/v99_4/91.25/zgpy6156bafix_91.25_13371.fadana ! RUN = 13371 ! NEVT = 1000
FILE = /castor/cern.ch/delphi/MCprod/lyon/zgpy6156bafix/v99_4/91.25/zgpy6156bafix_91.25_13372.fadana ! RUN = 13372 ! NEVT = 1000
FILE = /castor/cern.ch/delphi/MCprod/lyon/zgpy6156bafix/v99_4/91.25/zgpy6156bafix_91.25_13373.fadana ! RUN = 13373 ! NEVT = 1000
FILE = /castor/cern.ch/delphi/MCprod/lyon/zgpy6156bafix/v99_4/91.25/zgpy6156bafix_91.25_13374.fadana ! RUN = 13374 ! NEVT = 1000
FILE = /castor/cern.ch/delphi/MCprod/lyon/zgpy6156bafix/v99_4/91.25/zgpy6156bafix_91.25_13375.fadana ! RUN = 13375 ! NEVT = 1000
FILE = /castor/cern.ch/delphi/MCprod/lyon/zgpy6156bafix/v99_4/91.25/zgpy6156bafix_91.25_13376.fadana ! RUN = 13376 ! NEVT = 1000
FILE = /castor/cern.ch/delphi/MCprod/lyon/zgpy6156bafix/v99_4/91.25/zgpy6156bafix_91.25_13377.fadana ! RUN = 13377 ! NEVT = 1000
FILE = /castor/cern.ch/delphi/MCprod/lyon/zgpy6156bafix/v99_4/91.25/zgpy6156bafix_91.25_13378.fadana ! RUN = 13378 ! NEVT = 1000
FILE = /castor/cern.ch/delphi/MCprod/lyon/zgpy6156bafix/v99_4/91.25/zgpy6156bafix_91.25_13379.fadana ! RUN = 13379 ! NEVT = 999
FILE = /castor/cern.ch/delphi/MCprod/lyon/zgpy6156bafix/v99_4/91.25/zgpy6156bafix_91.25_13380.fadana ! RUN = 13380 ! NEVT = 1000
FILE = /castor/cern.ch/delphi/MCprod/lyon/zgpy6156bafix/v99_4/91.25/zgpy6156bafix_91.25_13381.fadana ! RUN = 13381 ! NEVT = 1000
FILE = /castor/cern.ch/delphi/MCprod/lyon/zgpy6156bafix/v99_4/91.25/zgpy6156bafix_91.25_13382.fadana ! RUN = 13382 ! NEVT = 1000
FILE = /castor/cern.ch/delphi/MCprod/lyon/zgpy6156bafix/v99_4/91.25/zgpy6156bafix_91.25_13383.fadana ! RUN = 13383 ! NEVT = 1000
FILE = /castor/cern.ch/delphi/MCprod/lyon/zgpy6156bafix/v99_4/91.25/zgpy6156bafix_91.25_13384.fadana ! RUN = 13384 ! NEVT = 1000
FILE = /castor/cern.ch/delphi/MCprod/lyon/zgpy6156bafix/v99_4/91.25/zgpy6156bafix_91.25_13385.fadana ! RUN = 13385 ! NEVT = 1000
FILE = /castor/cern.ch/delphi/MCprod/lyon/zgpy6156bafix/v99_4/91.25/zgpy6156bafix_91.25_13386.fadana ! RUN = 13386 ! NEVT = 1000
FILE = /castor/cern.ch/delphi/MCprod/lyon/zgpy6156bafix/v99_4/91.25/zgpy6156bafix_91.25_13387.fadana ! RUN = 13387 ! NEVT = 1000
FILE = /castor/cern.ch/delphi/MCprod/lyon/zgpy6156bafix/v99_4/91.25/zgpy6156bafix_91.25_13388.fadana ! RUN = 13388 ! NEVT = 1000
FILE = /castor/cern.ch/delphi/MCprod/lyon/zgpy6156bafix/v99_4/91.25/zgpy6156bafix_91.25_13389.fadana ! RUN = 13389 ! NEVT = 1000
FILE = /castor/cern.ch/delphi/MCprod/lyon/zgpy6156bafix/v99_4/91.25/zgpy6156bafix_91.25_13390.fadana ! RUN = 13390 ! NEVT = 1000
FILE = /castor/cern.ch/delphi/MCprod/lyon/zgpy6156bafix/v99_4/91.25/zgpy6156bafix_91.25_13391.fadana ! RUN = 13391 ! NEVT = 1000
FILE = /castor/cern.ch/delphi/MCprod/lyon/zgpy6156bafix/v99_4/91.25/zgpy6156bafix_91.25_13392.fadana ! RUN = 13392 ! NEVT = 1000
FILE = /castor/cern.ch/delphi/MCprod/lyon/zgpy6156bafix/v99_4/91.25/zgpy6156bafix_91.25_13393.fadana ! RUN = 13393 ! NEVT = 1000
FILE = /castor/cern.ch/delphi/MCprod/lyon/zgpy6156bafix/v99_4/91.25/zgpy6156bafix_91.25_13394.fadana ! RUN = 13394 ! NEVT = 1000
FILE = /castor/cern.ch/delphi/MCprod/lyon/zgpy6156bafix/v99_4/91.25/zgpy6156bafix_91.25_13395.fadana ! RUN = 13395 ! NEVT = 1000
FILE = /castor/cern.ch/delphi/MCprod/lyon/zgpy6156bafix/v99_4/91.25/zgpy6156bafix_91.25_13396.fadana ! RUN = 13396 ! NEVT = 1000
FILE = /castor/cern.ch/delphi/MCprod/lyon/zgpy6156bafix/v99_4/91.25/zgpy6156bafix_91.25_13397.fadana ! RUN = 13397 ! NEVT = 1000
FILE = /castor/cern.ch/delphi/MCprod/lyon/zgpy6156bafix/v99_4/91.25/zgpy6156bafix_91.25_13398.fadana ! RUN = 13398 ! NEVT = 1000
FILE = /castor/cern.ch/delphi/MCprod/lyon/zgpy6156bafix/v99_4/91.25/zgpy6156bafix_91.25_13399.fadana ! RUN = 13399 ! NEVT = 1000
FILE = /castor/cern.ch/delphi/MCprod/lyon/zgpy6156bafix/v99_4/91.25/zgpy6156bafix_91.25_13400.fadana ! RUN = 13400 ! NEVT = 1000
