# index of html fragments. Provides additional information for sorting files. DO NOT REMOVE.
#File Name                                       year processing   category      files          events     energy       mass      mass2       labo
dsto_bhwide101_e200_c99_1l_a                    1999       v99a      2FERM        100          199996        200          -          -       cern
dsto_kk2f4143mumu_e200_c99_1l_a                 1999       v99a      2FERM          1            2000        200          -          -       cern
dsto_wphact20cc_e206.7_mxxx_c99_1l_a            2000       v99a      4FERM          2            3996      206.7      80.35          -       cern
dsto_wphact4btestcc_e206.7_mxxx_c99_1l_a        2000       v99a      4FERM         10           19994      206.7      80.35          -       cern
dsto_wphact4btestcc_e206.7_mxxx_r99_1l_a        2000       v99a      4FERM         50           99940      206.7      80.35          -       ruth
dsto_zgpy6156_e206.7_c99_1l_a                   2000       v99a      2FERM    3979704           10001          -          -          -       1994
dsto_zgpy6156_e91.25_c99_1l_a                   1999       v99a      2FERM     193984           12001          -          -          -         97
dsto_zgpy6156b3_e189_c99_1l_a                   1998       v99a      2FERM        100          199954        189          -          -       cern
dsto_zgpy6156b3_e200_c99_1l_a                   1999       v99a      2FERM        100          199964        200          -          -       cern
dsto_zgpy6156b3_e91.25_c99_1l_a                 1999       v99a      2FERM        100          199992      91.25          -          -       cern
dsto_zgpy6156bafix_e91.25_l99_1l_a              1999       v99a      2FERM        100          199982      91.25          -          -       lyon
dsto_zgpy6156l1test_e91.25_c99_1l_a             1999       v99a      2FERM         99          197992      91.25          -          -       cern
raw_qqps_e91.2_ca0_1l                           2000        raw      2FERM         30           60004       91.2          -          -       cern
raw_qqps_e91.2_test_ca0_1l                      2000        raw      2FERM         30           60004       91.2          -          -       cern
xs_bhwide101_e200_c99_1l_a1                     1999      v99a1      2FERM        100          199996        200          -          -       cern
xs_ex201taubbbb_e206.7_mxxx_c99_1l_a1           2000      v99a1      4FERM         19           18982      206.7      80.35          -       cern
xs_ex202taubbbb_e206.7_mxxx_c99_1l_a1           2000      v99a1      4FERM         20           19986      206.7      80.35          -       cern
xs_ex202taucorbbbb_e206.7_mxxx_c99_1l_a1        2000      v99a1      4FERM         20           19984      206.7      80.35          -       cern
xs_ggpy6156jpsinovdm_e200_c99_1l_a1             1999      v99a1      2FERM         25           59214        200          -          -       cern
xs_ggpy6156jpsinvdmmu_e200_c99_1l_a1            1999      v99a1      2FERM         49             400        200          -          -       cern
xs_ggpy6156jpsivdmmu_e200_c99_1l_a1             1999      v99a1      2FERM        100           10706        200          -          -       cern
xs_ggpy6156jpsivdmvdm_e200_c99_1l_a1            1999      v99a1      2FERM         39           78000        200          -          -       cern
xs_ggtwjpsiqpmmmu_e200_c99_1l_a1                1999      v99a1      4FERM         10           20000        200          -          -       cern
xs_gpym6156jpsivdm_e200_c99_1l_a1               1999      v99a1      4FERM        100           16122        200          -          -       cern
xs_kk2f4143mumu_e200_c99_1l_a1                  1999      v99a1      2FERM          1            2000        200          -          -       cern
xs_kk2f4143qq_e206.7_c99_1l_a1                  2000      v99a1      2FERM       1998         3992150      206.7          -          -       cern
xs_kk2f4143qq_e91.25_c99_1l_a1                  1999      v99a1      2FERM        100          199984      91.25          -          -       cern
xs_kk2f414qq_e206.7_c99_1l_a1                   2000      v99a1      2FERM       1109         2208024      206.7          -          -       cern
xs_kk2f414qq_e91.25_c99_1l_a1                   1999      v99a1      2FERM        100          199988      91.25          -          -       cern
xs_pyth6156hpphmml_e188.7_mxxx_snt99_1l_a1        1998      v99a1      HIGGS          6           11992      188.7          -          -       sant
xs_pyth6156hpphmml_e192.0_mxxx_snt99_1l_a1        1999      v99a1      HIGGS          2            3998      192.0          -          -       sant
xs_pyth6156hpphmml_e196.0_mxxx_snt99_1l_a1        1999      v99a1      HIGGS          2            4000      196.0          -          -       sant
xs_pyth6156hpphmml_e200.0_mxxx_snt99_1l_a1        1999      v99a1      HIGGS          3            5996      200.0          -          -       sant
xs_pyth6156hpphmml_e202.0_mxxx_snt99_1l_a1        1999      v99a1      HIGGS          3            5998      202.0          -          -       sant
xs_pyth6156hpphmml_e205.0_mxxx_snt99_1l_a1        2000      v99a1      HIGGS          4            7998      205.0        102          -       sant
xs_pyth6156hpphmml_e206.7_mxxx_snt99_1l_a1        2000      v99a1      HIGGS          8           15998      206.7        102          -       sant
xs_pyth6156hpphmml_e208.0_mxxx_snt99_1l_a1        2000      v99a1      HIGGS          4            7994      208.0        102          -       sant
xs_pyth6156hpphmmr_e188.7_mxxx_snt99_1l_a1        1998      v99a1      HIGGS          6           11996      188.7          -          -       sant
xs_pyth6156hpphmmr_e192.0_mxxx_snt99_1l_a1        1999      v99a1      HIGGS          2            3998      192.0          -          -       sant
xs_pyth6156hpphmmr_e196.0_mxxx_snt99_1l_a1        1999      v99a1      HIGGS          2            3996      196.0          -          -       sant
xs_pyth6156hpphmmr_e200.0_mxxx_snt99_1l_a1        1999      v99a1      HIGGS          3            5998      200.0          -          -       sant
xs_pyth6156hpphmmr_e202.0_mxxx_snt99_1l_a1        1999      v99a1      HIGGS          3            5988      202.0          -          -       sant
xs_pyth6156hpphmmr_e205.0_mxxx_snt99_1l_a1        2000      v99a1      HIGGS          4            7998      205.0          -          -       sant
xs_pyth6156hpphmmr_e206.7_mxxx_snt99_1l_a1        2000      v99a1      HIGGS          8           15990      206.7          -          -       sant
xs_pyth6156hpphmmr_e208.0_mxxx_snt99_1l_a1        2000      v99a1      HIGGS          4            7992      208.0          -          -       sant
xs_qqps_e91.25_c99_1l_a1                        1999      v99a1      2FERM         99          198000      91.25          -          -       cern
xs_qqps_e91.2_ca0_1l_e1                         2000      va0e1      2FERM         30           60000       91.2          -          -       cern
xs_qqps_e91.2_test_ca0_1l_e1                    2000      va0e1      2FERM         30           60000       91.2          -          -       cern
xs_wphact20bbbb_e206.7_mxxx_c99_1l_a1           2000      v99a1      4FERM         20           19992      206.7      80.35          -       cern
xs_wphact20cc_e206.7_mxxx_c99_1l_a1             2000      v99a1      4FERM        992         1982890      206.7      80.35          -       cern
xs_wphact20fwbbbb_e206.7_mxxx_c99_1l_a1         2000      v99a1      4FERM         20           19988      206.7      80.35          -       cern
xs_wphact211ncggtest_e206.5_mxxx_ca0_1l_e1        2000      va0e1      4FERM         40          397914      206.5       80.4          -       cern
xs_wphact4btestcc_e206.7_mxxx_c99_1l_a1         2000      v99a1      4FERM         10           19994      206.7      80.35          -       cern
xs_wphact4btestcc_e206.7_mxxx_r99_1l_a1         2000      v99a1      4FERM         50           99940      206.7      80.35          -       ruth
xs_wwex201tau_e206.7_c99_1l_a1                  2000      v99a1      4FERM        991         1978998      206.7          -          -       cern
xs_zgpy6125_e91.25_c99_1l_e1                    1999      v99e1      2FERM      65990           10001          -          -          -         33
xs_zgpy6156_e206.7_c99_1l_a1                    2000      v99a1      2FERM    3983596           10001          -          -          -       1996
xs_zgpy6156_e91.25_c99_1l_a1                    1999      v99a1      2FERM     193984           12001          -          -          -         97
xs_zgpy6156b3_e189_c99_1l_a1                    1998      v99a1      2FERM        100          199954        189          -          -       cern
xs_zgpy6156b3_e200_c99_1l_a1                    1999      v99a1      2FERM        100          199964        200          -          -       cern
xs_zgpy6156b3_e91.25_c99_1l_a1                  1999      v99a1      2FERM        100          199992      91.25          -          -       cern
xs_zgpy6156bafix_e91.25_l99_1l_a1               1999      v99a1      2FERM        100          199982      91.25          -          -       lyon
xs_zgpy6156l1test_e91.25_c99_1l_a1              1999      v99a1      2FERM         99          197992      91.25          -          -       cern
xs_zgpy6156l2test_e91.25_l99_1l_a1              1999      v99a1      2FERM        100          199990      91.25          -          -       lyon
xs_zgpy6156l3test_e91.25_c99_1l_a1              1999      v99a1      2FERM        190          379982      91.25          -          -       cern
