*
*   Nickname     : xs_pyth6156hpphmml_e188.7_m50_snt99_1l_a1
*   Generic Name : //CERN/DELPHI/P02_SIMD/XSDST/PYTH6156HPPHMML/E188.7/SANTANDER/SUMT/C001-1
*   Description  :  Extended Short DST simulation 99_a1 done at ecms=188.7 , Santander
*---
*   Comments     : in total 999 events in 1 files time stamp: Wed Jul  4 09:11:37 2001
*---
*
*
*
*
*
FILE = /castor/cern.ch/delphi/MCprod/sant/pyth6156/v99_4/188.7/pyth6156_hpphmm_l_188.7_50_66650.xsdst ! RUN = 66650 ! NEVT = 999
