*
*   Nickname     : xs_pyth6156hpphmml_e206.7_m90_snt99_1l_a1
*   Generic Name : //CERN/DELPHI/P02_SIMD/XSDST/PYTH6156HPPHMML/E206.7/SANTANDER/SUMT/C001-1
*   Description  :  Extended Short DST simulation 99_a1 done at ecms=206.7 , Santander
*---
*   Comments     : in total 1000 events in 1 files time stamp: Tue Jul  3 22:11:19 2001
*---
*
*
*
*
*
FILE = /castor/cern.ch/delphi/MCprod/sant/pyth6156/v99_4/206.7/pyth6156_hpphmm_l_206.7_90_66690.xsdst ! RUN = 66690 ! NEVT = 1000
