*
*   Nickname     : xs_pyth6156hpphmmr_e206.7_m102_snt99_1l_a1
*   Generic Name : //CERN/DELPHI/P02_SIMD/XSDST/PYTH6156HPPHMMR/E206.7/SANTANDER/SUMT/C001-1
*   Description  :  Extended Short DST simulation 99_a1 done at ecms=206.7 , Santander
*---
*   Comments     : in total 999 events in 1 files time stamp: Thu Jul 19 15:11:00 2001
*---
*
*
*
*
*
FILE = /castor/cern.ch/delphi/MCprod/sant/pyth6156/v99_4/206.7/pyth6156_hpphmm_r_206.7_102_666102.xsdst ! RUN = 666102 ! NEVT = 999
