*
*   Nickname     : xs_pyth6156hpphmmr_e205.0_m100_snt99_1l_a1
*   Generic Name : //CERN/DELPHI/P02_SIMD/XSDST/PYTH6156HPPHMMR/E205.0/SANTANDER/SUMT/C001-1
*   Description  :  Extended Short DST simulation 99_a1 done at ecms=205.0 , Santander
*---
*   Comments     : in total 1000 events in 1 files time stamp: Thu Jul 19 15:11:00 2001
*---
*
*
*
*
*
FILE = /castor/cern.ch/delphi/MCprod/sant/pyth6156/v99_4/205.0/pyth6156_hpphmm_r_205.0_100_666100.xsdst ! RUN = 666100 ! NEVT = 1000
