*
*   Nickname     : xs_pyth6156hpphmmr_e200.0_m99_snt99_1l_a1
*   Generic Name : //CERN/DELPHI/P02_SIMD/XSDST/PYTH6156HPPHMMR/E200.0/SANTANDER/SUMT/C001-1
*   Description  :  Extended Short DST simulation 99_a1 done at ecms=200.0 , Santander
*---
*   Comments     : in total 999 events in 1 files time stamp: Thu Jul 19 15:11:00 2001
*---
*
*
*
*
*
FILE = /castor/cern.ch/delphi/MCprod/sant/pyth6156/v99_4/200.0/pyth6156_hpphmm_r_200.0_99_66699.xsdst ! RUN = 66699 ! NEVT = 999
