*
*   Nickname     : xs_pyth6156hpphmml_e192.0_m90_snt99_1l_a1
*   Generic Name : //CERN/DELPHI/P02_SIMD/XSDST/PYTH6156HPPHMML/E192.0/SANTANDER/SUMT/C001-1
*   Description  :  Extended Short DST simulation 99_a1 done at ecms=192.0 , Santander
*---
*   Comments     : in total 1000 events in 1 files time stamp: Thu Jul 19 15:11:00 2001
*---
*
*
*
*
*
FILE = /castor/cern.ch/delphi/MCprod/sant/pyth6156/v99_4/192.0/pyth6156_hpphmm_l_192.0_90_66690.xsdst ! RUN = 66690 ! NEVT = 1000
