*
*   Nickname     : xs_pyth6156hpphmml_e208.0_m102_snt99_1l_a1
*   Generic Name : //CERN/DELPHI/P02_SIMD/XSDST/PYTH6156HPPHMML/E208.0/SANTANDER/SUMT/C001-1
*   Description  :  Extended Short DST simulation 99_a1 done at ecms=208.0 , Santander
*---
*   Comments     : in total 1000 events in 1 files time stamp: Thu Jul 19 15:10:59 2001
*---
*
*
*
*
*
FILE = /castor/cern.ch/delphi/MCprod/sant/pyth6156/v99_4/208.0/pyth6156_hpphmm_l_208.0_102_666102.xsdst ! RUN = 666102 ! NEVT = 1000
