*
*   Nickname     : xs_pyth6156hpphmml_e200.0_m95_snt99_1l_a1
*   Generic Name : //CERN/DELPHI/P02_SIMD/XSDST/PYTH6156HPPHMML/E200.0/SANTANDER/SUMT/C001-1
*   Description  :  Extended Short DST simulation 99_a1 done at ecms=200.0 , Santander
*---
*   Comments     : in total 999 events in 1 files time stamp: Thu Jul 19 15:10:59 2001
*---
*
*
*
*
*
FILE = /castor/cern.ch/delphi/MCprod/sant/pyth6156/v99_4/200.0/pyth6156_hpphmm_l_200.0_95_66695.xsdst ! RUN = 66695 ! NEVT = 999
