*
*   Nickname     : xs_pyth6156hpphmmr_e202.0_m95_snt99_1l_a1
*   Generic Name : //CERN/DELPHI/P02_SIMD/XSDST/PYTH6156HPPHMMR/E202.0/SANTANDER/SUMT/C001-1
*   Description  :  Extended Short DST simulation 99_a1 done at ecms=202.0 , Santander
*---
*   Comments     : in total 996 events in 1 files time stamp: Thu Jul 19 16:34:03 2001
*---
*
*
*
*
*
FILE = /castor/cern.ch/delphi/MCprod/sant/pyth6156/v99_4/202.0/pyth6156_hpphmm_r_202.0_95_66695.xsdst ! RUN = 66695 ! NEVT = 996
