*
*   Nickname     : xs_pyth6156hpphmmr_e206.7_m95_snt99_1l_a1
*   Generic Name : //CERN/DELPHI/P02_SIMD/XSDST/PYTH6156HPPHMMR/E206.7/SANTANDER/SUMT/C001-1
*   Description  :  Extended Short DST simulation 99_a1 done at ecms=206.7 , Santander
*---
*   Comments     : in total 1000 events in 1 files time stamp: Wed Jul  4 00:11:40 2001
*---
*
*
*
*
*
FILE = /castor/cern.ch/delphi/MCprod/sant/pyth6156/v99_4/206.7/pyth6156_hpphmm_r_206.7_95_66695.xsdst ! RUN = 66695 ! NEVT = 1000
