*
*   Nickname     : xs_wphact20bbbb_e206.7_m80.35_c99_1l_a1
*   Generic Name : //CERN/DELPHI/P02_SIMD/XSDST/WPHACT20BBBB/E206.7/CERN/SUMT/C001-20
*   Description  :  Extended Short DST simulation 99_a1 done at ecms=206.7 , CERN
*---
*   Comments     : in total 9996 events in 20 files time stamp: Sat Aug 18 10:21:43 2001
*---
*
*
*
*
*
FILE = /castor/cern.ch/delphi/MCprod/cern/wphact20/v99_4/206.7/wphact20_bbbb_206.7_80.35_1041.xsdst ! RUN = 1041 ! NEVT = 500
FILE = /castor/cern.ch/delphi/MCprod/cern/wphact20/v99_4/206.7/wphact20_bbbb_206.7_80.35_1042.xsdst ! RUN = 1042 ! NEVT = 499
FILE = /castor/cern.ch/delphi/MCprod/cern/wphact20/v99_4/206.7/wphact20_bbbb_206.7_80.35_1043.xsdst ! RUN = 1043 ! NEVT = 500
FILE = /castor/cern.ch/delphi/MCprod/cern/wphact20/v99_4/206.7/wphact20_bbbb_206.7_80.35_1044.xsdst ! RUN = 1044 ! NEVT = 500
FILE = /castor/cern.ch/delphi/MCprod/cern/wphact20/v99_4/206.7/wphact20_bbbb_206.7_80.35_1045.xsdst ! RUN = 1045 ! NEVT = 500
FILE = /castor/cern.ch/delphi/MCprod/cern/wphact20/v99_4/206.7/wphact20_bbbb_206.7_80.35_1046.xsdst ! RUN = 1046 ! NEVT = 500
FILE = /castor/cern.ch/delphi/MCprod/cern/wphact20/v99_4/206.7/wphact20_bbbb_206.7_80.35_1047.xsdst ! RUN = 1047 ! NEVT = 500
FILE = /castor/cern.ch/delphi/MCprod/cern/wphact20/v99_4/206.7/wphact20_bbbb_206.7_80.35_1048.xsdst ! RUN = 1048 ! NEVT = 500
FILE = /castor/cern.ch/delphi/MCprod/cern/wphact20/v99_4/206.7/wphact20_bbbb_206.7_80.35_1049.xsdst ! RUN = 1049 ! NEVT = 500
FILE = /castor/cern.ch/delphi/MCprod/cern/wphact20/v99_4/206.7/wphact20_bbbb_206.7_80.35_1050.xsdst ! RUN = 1050 ! NEVT = 500
FILE = /castor/cern.ch/delphi/MCprod/cern/wphact20/v99_4/206.7/wphact20_bbbb_206.7_80.35_1051.xsdst ! RUN = 1051 ! NEVT = 500
FILE = /castor/cern.ch/delphi/MCprod/cern/wphact20/v99_4/206.7/wphact20_bbbb_206.7_80.35_1052.xsdst ! RUN = 1052 ! NEVT = 500
FILE = /castor/cern.ch/delphi/MCprod/cern/wphact20/v99_4/206.7/wphact20_bbbb_206.7_80.35_1053.xsdst ! RUN = 1053 ! NEVT = 498
FILE = /castor/cern.ch/delphi/MCprod/cern/wphact20/v99_4/206.7/wphact20_bbbb_206.7_80.35_1054.xsdst ! RUN = 1054 ! NEVT = 500
FILE = /castor/cern.ch/delphi/MCprod/cern/wphact20/v99_4/206.7/wphact20_bbbb_206.7_80.35_1055.xsdst ! RUN = 1055 ! NEVT = 500
FILE = /castor/cern.ch/delphi/MCprod/cern/wphact20/v99_4/206.7/wphact20_bbbb_206.7_80.35_1056.xsdst ! RUN = 1056 ! NEVT = 499
FILE = /castor/cern.ch/delphi/MCprod/cern/wphact20/v99_4/206.7/wphact20_bbbb_206.7_80.35_1057.xsdst ! RUN = 1057 ! NEVT = 500
FILE = /castor/cern.ch/delphi/MCprod/cern/wphact20/v99_4/206.7/wphact20_bbbb_206.7_80.35_1058.xsdst ! RUN = 1058 ! NEVT = 500
FILE = /castor/cern.ch/delphi/MCprod/cern/wphact20/v99_4/206.7/wphact20_bbbb_206.7_80.35_1059.xsdst ! RUN = 1059 ! NEVT = 500
FILE = /castor/cern.ch/delphi/MCprod/cern/wphact20/v99_4/206.7/wphact20_bbbb_206.7_80.35_1060.xsdst ! RUN = 1060 ! NEVT = 500
