*
*   Nickname     : xs_zgpy6156bafix_e91.25_l99_1l_a1
*   Generic Name : //CERN/DELPHI/P01_SIMD/XSDST/ZGPY6156BAFIX/E91.25/LYON/SUMT/C001-100
*   Description  :  Extended Short DST simulation 99_a1 done at ecms=91.25 , Lyon
*---
*   Comments     : in total 99991 events in 100 files time stamp: Sun Aug  5 20:15:00 2001
*---
*
*
*
*
*
FILE = /castor/cern.ch/delphi/MCprod/lyon/zgpy6156bafix/v99_4/91.25/zgpy6156bafix_91.25_13301.xsdst ! RUN = 13301 ! NEVT = 1000
FILE = /castor/cern.ch/delphi/MCprod/lyon/zgpy6156bafix/v99_4/91.25/zgpy6156bafix_91.25_13302.xsdst ! RUN = 13302 ! NEVT = 1000
FILE = /castor/cern.ch/delphi/MCprod/lyon/zgpy6156bafix/v99_4/91.25/zgpy6156bafix_91.25_13303.xsdst ! RUN = 13303 ! NEVT = 1000
FILE = /castor/cern.ch/delphi/MCprod/lyon/zgpy6156bafix/v99_4/91.25/zgpy6156bafix_91.25_13304.xsdst ! RUN = 13304 ! NEVT = 1000
FILE = /castor/cern.ch/delphi/MCprod/lyon/zgpy6156bafix/v99_4/91.25/zgpy6156bafix_91.25_13305.xsdst ! RUN = 13305 ! NEVT = 1000
FILE = /castor/cern.ch/delphi/MCprod/lyon/zgpy6156bafix/v99_4/91.25/zgpy6156bafix_91.25_13306.xsdst ! RUN = 13306 ! NEVT = 1000
FILE = /castor/cern.ch/delphi/MCprod/lyon/zgpy6156bafix/v99_4/91.25/zgpy6156bafix_91.25_13307.xsdst ! RUN = 13307 ! NEVT = 1000
FILE = /castor/cern.ch/delphi/MCprod/lyon/zgpy6156bafix/v99_4/91.25/zgpy6156bafix_91.25_13308.xsdst ! RUN = 13308 ! NEVT = 999
FILE = /castor/cern.ch/delphi/MCprod/lyon/zgpy6156bafix/v99_4/91.25/zgpy6156bafix_91.25_13309.xsdst ! RUN = 13309 ! NEVT = 1000
FILE = /castor/cern.ch/delphi/MCprod/lyon/zgpy6156bafix/v99_4/91.25/zgpy6156bafix_91.25_13310.xsdst ! RUN = 13310 ! NEVT = 1000
FILE = /castor/cern.ch/delphi/MCprod/lyon/zgpy6156bafix/v99_4/91.25/zgpy6156bafix_91.25_13311.xsdst ! RUN = 13311 ! NEVT = 1000
FILE = /castor/cern.ch/delphi/MCprod/lyon/zgpy6156bafix/v99_4/91.25/zgpy6156bafix_91.25_13312.xsdst ! RUN = 13312 ! NEVT = 1000
FILE = /castor/cern.ch/delphi/MCprod/lyon/zgpy6156bafix/v99_4/91.25/zgpy6156bafix_91.25_13313.xsdst ! RUN = 13313 ! NEVT = 1000
FILE = /castor/cern.ch/delphi/MCprod/lyon/zgpy6156bafix/v99_4/91.25/zgpy6156bafix_91.25_13314.xsdst ! RUN = 13314 ! NEVT = 1000
FILE = /castor/cern.ch/delphi/MCprod/lyon/zgpy6156bafix/v99_4/91.25/zgpy6156bafix_91.25_13315.xsdst ! RUN = 13315 ! NEVT = 1000
FILE = /castor/cern.ch/delphi/MCprod/lyon/zgpy6156bafix/v99_4/91.25/zgpy6156bafix_91.25_13316.xsdst ! RUN = 13316 ! NEVT = 1000
FILE = /castor/cern.ch/delphi/MCprod/lyon/zgpy6156bafix/v99_4/91.25/zgpy6156bafix_91.25_13317.xsdst ! RUN = 13317 ! NEVT = 1000
FILE = /castor/cern.ch/delphi/MCprod/lyon/zgpy6156bafix/v99_4/91.25/zgpy6156bafix_91.25_13318.xsdst ! RUN = 13318 ! NEVT = 1000
FILE = /castor/cern.ch/delphi/MCprod/lyon/zgpy6156bafix/v99_4/91.25/zgpy6156bafix_91.25_13319.xsdst ! RUN = 13319 ! NEVT = 1000
FILE = /castor/cern.ch/delphi/MCprod/lyon/zgpy6156bafix/v99_4/91.25/zgpy6156bafix_91.25_13320.xsdst ! RUN = 13320 ! NEVT = 998
FILE = /castor/cern.ch/delphi/MCprod/lyon/zgpy6156bafix/v99_4/91.25/zgpy6156bafix_91.25_13321.xsdst ! RUN = 13321 ! NEVT = 1000
FILE = /castor/cern.ch/delphi/MCprod/lyon/zgpy6156bafix/v99_4/91.25/zgpy6156bafix_91.25_13322.xsdst ! RUN = 13322 ! NEVT = 1000
FILE = /castor/cern.ch/delphi/MCprod/lyon/zgpy6156bafix/v99_4/91.25/zgpy6156bafix_91.25_13323.xsdst ! RUN = 13323 ! NEVT = 1000
FILE = /castor/cern.ch/delphi/MCprod/lyon/zgpy6156bafix/v99_4/91.25/zgpy6156bafix_91.25_13324.xsdst ! RUN = 13324 ! NEVT = 1000
FILE = /castor/cern.ch/delphi/MCprod/lyon/zgpy6156bafix/v99_4/91.25/zgpy6156bafix_91.25_13325.xsdst ! RUN = 13325 ! NEVT = 1000
FILE = /castor/cern.ch/delphi/MCprod/lyon/zgpy6156bafix/v99_4/91.25/zgpy6156bafix_91.25_13326.xsdst ! RUN = 13326 ! NEVT = 1000
FILE = /castor/cern.ch/delphi/MCprod/lyon/zgpy6156bafix/v99_4/91.25/zgpy6156bafix_91.25_13327.xsdst ! RUN = 13327 ! NEVT = 1000
FILE = /castor/cern.ch/delphi/MCprod/lyon/zgpy6156bafix/v99_4/91.25/zgpy6156bafix_91.25_13328.xsdst ! RUN = 13328 ! NEVT = 1000
FILE = /castor/cern.ch/delphi/MCprod/lyon/zgpy6156bafix/v99_4/91.25/zgpy6156bafix_91.25_13329.xsdst ! RUN = 13329 ! NEVT = 1000
FILE = /castor/cern.ch/delphi/MCprod/lyon/zgpy6156bafix/v99_4/91.25/zgpy6156bafix_91.25_13330.xsdst ! RUN = 13330 ! NEVT = 1000
FILE = /castor/cern.ch/delphi/MCprod/lyon/zgpy6156bafix/v99_4/91.25/zgpy6156bafix_91.25_13331.xsdst ! RUN = 13331 ! NEVT = 1000
FILE = /castor/cern.ch/delphi/MCprod/lyon/zgpy6156bafix/v99_4/91.25/zgpy6156bafix_91.25_13332.xsdst ! RUN = 13332 ! NEVT = 1000
FILE = /castor/cern.ch/delphi/MCprod/lyon/zgpy6156bafix/v99_4/91.25/zgpy6156bafix_91.25_13333.xsdst ! RUN = 13333 ! NEVT = 1000
FILE = /castor/cern.ch/delphi/MCprod/lyon/zgpy6156bafix/v99_4/91.25/zgpy6156bafix_91.25_13334.xsdst ! RUN = 13334 ! NEVT = 1000
FILE = /castor/cern.ch/delphi/MCprod/lyon/zgpy6156bafix/v99_4/91.25/zgpy6156bafix_91.25_13335.xsdst ! RUN = 13335 ! NEVT = 1000
FILE = /castor/cern.ch/delphi/MCprod/lyon/zgpy6156bafix/v99_4/91.25/zgpy6156bafix_91.25_13336.xsdst ! RUN = 13336 ! NEVT = 1000
FILE = /castor/cern.ch/delphi/MCprod/lyon/zgpy6156bafix/v99_4/91.25/zgpy6156bafix_91.25_13337.xsdst ! RUN = 13337 ! NEVT = 1000
FILE = /castor/cern.ch/delphi/MCprod/lyon/zgpy6156bafix/v99_4/91.25/zgpy6156bafix_91.25_13338.xsdst ! RUN = 13338 ! NEVT = 1000
FILE = /castor/cern.ch/delphi/MCprod/lyon/zgpy6156bafix/v99_4/91.25/zgpy6156bafix_91.25_13339.xsdst ! RUN = 13339 ! NEVT = 1000
FILE = /castor/cern.ch/delphi/MCprod/lyon/zgpy6156bafix/v99_4/91.25/zgpy6156bafix_91.25_13340.xsdst ! RUN = 13340 ! NEVT = 1000
FILE = /castor/cern.ch/delphi/MCprod/lyon/zgpy6156bafix/v99_4/91.25/zgpy6156bafix_91.25_13341.xsdst ! RUN = 13341 ! NEVT = 1000
FILE = /castor/cern.ch/delphi/MCprod/lyon/zgpy6156bafix/v99_4/91.25/zgpy6156bafix_91.25_13342.xsdst ! RUN = 13342 ! NEVT = 1000
FILE = /castor/cern.ch/delphi/MCprod/lyon/zgpy6156bafix/v99_4/91.25/zgpy6156bafix_91.25_13343.xsdst ! RUN = 13343 ! NEVT = 1000
FILE = /castor/cern.ch/delphi/MCprod/lyon/zgpy6156bafix/v99_4/91.25/zgpy6156bafix_91.25_13344.xsdst ! RUN = 13344 ! NEVT = 1000
FILE = /castor/cern.ch/delphi/MCprod/lyon/zgpy6156bafix/v99_4/91.25/zgpy6156bafix_91.25_13345.xsdst ! RUN = 13345 ! NEVT = 1000
FILE = /castor/cern.ch/delphi/MCprod/lyon/zgpy6156bafix/v99_4/91.25/zgpy6156bafix_91.25_13346.xsdst ! RUN = 13346 ! NEVT = 999
FILE = /castor/cern.ch/delphi/MCprod/lyon/zgpy6156bafix/v99_4/91.25/zgpy6156bafix_91.25_13347.xsdst ! RUN = 13347 ! NEVT = 1000
FILE = /castor/cern.ch/delphi/MCprod/lyon/zgpy6156bafix/v99_4/91.25/zgpy6156bafix_91.25_13348.xsdst ! RUN = 13348 ! NEVT = 1000
FILE = /castor/cern.ch/delphi/MCprod/lyon/zgpy6156bafix/v99_4/91.25/zgpy6156bafix_91.25_13349.xsdst ! RUN = 13349 ! NEVT = 1000
FILE = /castor/cern.ch/delphi/MCprod/lyon/zgpy6156bafix/v99_4/91.25/zgpy6156bafix_91.25_13350.xsdst ! RUN = 13350 ! NEVT = 1000
FILE = /castor/cern.ch/delphi/MCprod/lyon/zgpy6156bafix/v99_4/91.25/zgpy6156bafix_91.25_13351.xsdst ! RUN = 13351 ! NEVT = 1000
FILE = /castor/cern.ch/delphi/MCprod/lyon/zgpy6156bafix/v99_4/91.25/zgpy6156bafix_91.25_13352.xsdst ! RUN = 13352 ! NEVT = 999
FILE = /castor/cern.ch/delphi/MCprod/lyon/zgpy6156bafix/v99_4/91.25/zgpy6156bafix_91.25_13353.xsdst ! RUN = 13353 ! NEVT = 999
FILE = /castor/cern.ch/delphi/MCprod/lyon/zgpy6156bafix/v99_4/91.25/zgpy6156bafix_91.25_13354.xsdst ! RUN = 13354 ! NEVT = 1000
FILE = /castor/cern.ch/delphi/MCprod/lyon/zgpy6156bafix/v99_4/91.25/zgpy6156bafix_91.25_13355.xsdst ! RUN = 13355 ! NEVT = 1000
FILE = /castor/cern.ch/delphi/MCprod/lyon/zgpy6156bafix/v99_4/91.25/zgpy6156bafix_91.25_13356.xsdst ! RUN = 13356 ! NEVT = 1000
FILE = /castor/cern.ch/delphi/MCprod/lyon/zgpy6156bafix/v99_4/91.25/zgpy6156bafix_91.25_13357.xsdst ! RUN = 13357 ! NEVT = 1000
FILE = /castor/cern.ch/delphi/MCprod/lyon/zgpy6156bafix/v99_4/91.25/zgpy6156bafix_91.25_13358.xsdst ! RUN = 13358 ! NEVT = 1000
FILE = /castor/cern.ch/delphi/MCprod/lyon/zgpy6156bafix/v99_4/91.25/zgpy6156bafix_91.25_13359.xsdst ! RUN = 13359 ! NEVT = 1000
FILE = /castor/cern.ch/delphi/MCprod/lyon/zgpy6156bafix/v99_4/91.25/zgpy6156bafix_91.25_13360.xsdst ! RUN = 13360 ! NEVT = 999
FILE = /castor/cern.ch/delphi/MCprod/lyon/zgpy6156bafix/v99_4/91.25/zgpy6156bafix_91.25_13361.xsdst ! RUN = 13361 ! NEVT = 1000
FILE = /castor/cern.ch/delphi/MCprod/lyon/zgpy6156bafix/v99_4/91.25/zgpy6156bafix_91.25_13362.xsdst ! RUN = 13362 ! NEVT = 1000
FILE = /castor/cern.ch/delphi/MCprod/lyon/zgpy6156bafix/v99_4/91.25/zgpy6156bafix_91.25_13363.xsdst ! RUN = 13363 ! NEVT = 1000
FILE = /castor/cern.ch/delphi/MCprod/lyon/zgpy6156bafix/v99_4/91.25/zgpy6156bafix_91.25_13364.xsdst ! RUN = 13364 ! NEVT = 1000
FILE = /castor/cern.ch/delphi/MCprod/lyon/zgpy6156bafix/v99_4/91.25/zgpy6156bafix_91.25_13365.xsdst ! RUN = 13365 ! NEVT = 999
FILE = /castor/cern.ch/delphi/MCprod/lyon/zgpy6156bafix/v99_4/91.25/zgpy6156bafix_91.25_13366.xsdst ! RUN = 13366 ! NEVT = 1000
FILE = /castor/cern.ch/delphi/MCprod/lyon/zgpy6156bafix/v99_4/91.25/zgpy6156bafix_91.25_13367.xsdst ! RUN = 13367 ! NEVT = 1000
FILE = /castor/cern.ch/delphi/MCprod/lyon/zgpy6156bafix/v99_4/91.25/zgpy6156bafix_91.25_13368.xsdst ! RUN = 13368 ! NEVT = 1000
FILE = /castor/cern.ch/delphi/MCprod/lyon/zgpy6156bafix/v99_4/91.25/zgpy6156bafix_91.25_13369.xsdst ! RUN = 13369 ! NEVT = 1000
FILE = /castor/cern.ch/delphi/MCprod/lyon/zgpy6156bafix/v99_4/91.25/zgpy6156bafix_91.25_13370.xsdst ! RUN = 13370 ! NEVT = 1000
FILE = /castor/cern.ch/delphi/MCprod/lyon/zgpy6156bafix/v99_4/91.25/zgpy6156bafix_91.25_13371.xsdst ! RUN = 13371 ! NEVT = 1000
FILE = /castor/cern.ch/delphi/MCprod/lyon/zgpy6156bafix/v99_4/91.25/zgpy6156bafix_91.25_13372.xsdst ! RUN = 13372 ! NEVT = 1000
FILE = /castor/cern.ch/delphi/MCprod/lyon/zgpy6156bafix/v99_4/91.25/zgpy6156bafix_91.25_13373.xsdst ! RUN = 13373 ! NEVT = 1000
FILE = /castor/cern.ch/delphi/MCprod/lyon/zgpy6156bafix/v99_4/91.25/zgpy6156bafix_91.25_13374.xsdst ! RUN = 13374 ! NEVT = 1000
FILE = /castor/cern.ch/delphi/MCprod/lyon/zgpy6156bafix/v99_4/91.25/zgpy6156bafix_91.25_13375.xsdst ! RUN = 13375 ! NEVT = 1000
FILE = /castor/cern.ch/delphi/MCprod/lyon/zgpy6156bafix/v99_4/91.25/zgpy6156bafix_91.25_13376.xsdst ! RUN = 13376 ! NEVT = 1000
FILE = /castor/cern.ch/delphi/MCprod/lyon/zgpy6156bafix/v99_4/91.25/zgpy6156bafix_91.25_13377.xsdst ! RUN = 13377 ! NEVT = 1000
FILE = /castor/cern.ch/delphi/MCprod/lyon/zgpy6156bafix/v99_4/91.25/zgpy6156bafix_91.25_13378.xsdst ! RUN = 13378 ! NEVT = 1000
FILE = /castor/cern.ch/delphi/MCprod/lyon/zgpy6156bafix/v99_4/91.25/zgpy6156bafix_91.25_13379.xsdst ! RUN = 13379 ! NEVT = 999
FILE = /castor/cern.ch/delphi/MCprod/lyon/zgpy6156bafix/v99_4/91.25/zgpy6156bafix_91.25_13380.xsdst ! RUN = 13380 ! NEVT = 1000
FILE = /castor/cern.ch/delphi/MCprod/lyon/zgpy6156bafix/v99_4/91.25/zgpy6156bafix_91.25_13381.xsdst ! RUN = 13381 ! NEVT = 1000
FILE = /castor/cern.ch/delphi/MCprod/lyon/zgpy6156bafix/v99_4/91.25/zgpy6156bafix_91.25_13382.xsdst ! RUN = 13382 ! NEVT = 1000
FILE = /castor/cern.ch/delphi/MCprod/lyon/zgpy6156bafix/v99_4/91.25/zgpy6156bafix_91.25_13383.xsdst ! RUN = 13383 ! NEVT = 1000
FILE = /castor/cern.ch/delphi/MCprod/lyon/zgpy6156bafix/v99_4/91.25/zgpy6156bafix_91.25_13384.xsdst ! RUN = 13384 ! NEVT = 1000
FILE = /castor/cern.ch/delphi/MCprod/lyon/zgpy6156bafix/v99_4/91.25/zgpy6156bafix_91.25_13385.xsdst ! RUN = 13385 ! NEVT = 1000
FILE = /castor/cern.ch/delphi/MCprod/lyon/zgpy6156bafix/v99_4/91.25/zgpy6156bafix_91.25_13386.xsdst ! RUN = 13386 ! NEVT = 1000
FILE = /castor/cern.ch/delphi/MCprod/lyon/zgpy6156bafix/v99_4/91.25/zgpy6156bafix_91.25_13387.xsdst ! RUN = 13387 ! NEVT = 1000
FILE = /castor/cern.ch/delphi/MCprod/lyon/zgpy6156bafix/v99_4/91.25/zgpy6156bafix_91.25_13388.xsdst ! RUN = 13388 ! NEVT = 1000
FILE = /castor/cern.ch/delphi/MCprod/lyon/zgpy6156bafix/v99_4/91.25/zgpy6156bafix_91.25_13389.xsdst ! RUN = 13389 ! NEVT = 1000
FILE = /castor/cern.ch/delphi/MCprod/lyon/zgpy6156bafix/v99_4/91.25/zgpy6156bafix_91.25_13390.xsdst ! RUN = 13390 ! NEVT = 1000
FILE = /castor/cern.ch/delphi/MCprod/lyon/zgpy6156bafix/v99_4/91.25/zgpy6156bafix_91.25_13391.xsdst ! RUN = 13391 ! NEVT = 1000
FILE = /castor/cern.ch/delphi/MCprod/lyon/zgpy6156bafix/v99_4/91.25/zgpy6156bafix_91.25_13392.xsdst ! RUN = 13392 ! NEVT = 1000
FILE = /castor/cern.ch/delphi/MCprod/lyon/zgpy6156bafix/v99_4/91.25/zgpy6156bafix_91.25_13393.xsdst ! RUN = 13393 ! NEVT = 1000
FILE = /castor/cern.ch/delphi/MCprod/lyon/zgpy6156bafix/v99_4/91.25/zgpy6156bafix_91.25_13394.xsdst ! RUN = 13394 ! NEVT = 1000
FILE = /castor/cern.ch/delphi/MCprod/lyon/zgpy6156bafix/v99_4/91.25/zgpy6156bafix_91.25_13395.xsdst ! RUN = 13395 ! NEVT = 1000
FILE = /castor/cern.ch/delphi/MCprod/lyon/zgpy6156bafix/v99_4/91.25/zgpy6156bafix_91.25_13396.xsdst ! RUN = 13396 ! NEVT = 1000
FILE = /castor/cern.ch/delphi/MCprod/lyon/zgpy6156bafix/v99_4/91.25/zgpy6156bafix_91.25_13397.xsdst ! RUN = 13397 ! NEVT = 1000
FILE = /castor/cern.ch/delphi/MCprod/lyon/zgpy6156bafix/v99_4/91.25/zgpy6156bafix_91.25_13398.xsdst ! RUN = 13398 ! NEVT = 1000
FILE = /castor/cern.ch/delphi/MCprod/lyon/zgpy6156bafix/v99_4/91.25/zgpy6156bafix_91.25_13399.xsdst ! RUN = 13399 ! NEVT = 1000
FILE = /castor/cern.ch/delphi/MCprod/lyon/zgpy6156bafix/v99_4/91.25/zgpy6156bafix_91.25_13400.xsdst ! RUN = 13400 ! NEVT = 1000
