*
*   Nickname     : xs_zgpy6156b3_e200_c99_1l_a1
*   Generic Name : //CERN/DELPHI/P02_SIMD/XSDST/ZGPY6156B3/CERN/SUMT/C001-100
*   Description  :  Extended Short DST simulation 99_a1 200 , CERN
*---
*   Comments     : in total 99982 events in 100 files time stamp: Sat Jun 16 08:10:45 2001
*---
*
*
*
*
*
FILE = /castor/cern.ch/delphi/MCprod/cern/zgpy6156b3/v99_4/200/zgpy6156b3_200_20101.xsdst ! RUN = 20101 ! NEVT = 1000
FILE = /castor/cern.ch/delphi/MCprod/cern/zgpy6156b3/v99_4/200/zgpy6156b3_200_20102.xsdst ! RUN = 20102 ! NEVT = 999
FILE = /castor/cern.ch/delphi/MCprod/cern/zgpy6156b3/v99_4/200/zgpy6156b3_200_20103.xsdst ! RUN = 20103 ! NEVT = 1000
FILE = /castor/cern.ch/delphi/MCprod/cern/zgpy6156b3/v99_4/200/zgpy6156b3_200_20104.xsdst ! RUN = 20104 ! NEVT = 1000
FILE = /castor/cern.ch/delphi/MCprod/cern/zgpy6156b3/v99_4/200/zgpy6156b3_200_20105.xsdst ! RUN = 20105 ! NEVT = 1000
FILE = /castor/cern.ch/delphi/MCprod/cern/zgpy6156b3/v99_4/200/zgpy6156b3_200_20106.xsdst ! RUN = 20106 ! NEVT = 1000
FILE = /castor/cern.ch/delphi/MCprod/cern/zgpy6156b3/v99_4/200/zgpy6156b3_200_20107.xsdst ! RUN = 20107 ! NEVT = 999
FILE = /castor/cern.ch/delphi/MCprod/cern/zgpy6156b3/v99_4/200/zgpy6156b3_200_20108.xsdst ! RUN = 20108 ! NEVT = 1000
FILE = /castor/cern.ch/delphi/MCprod/cern/zgpy6156b3/v99_4/200/zgpy6156b3_200_20109.xsdst ! RUN = 20109 ! NEVT = 1000
FILE = /castor/cern.ch/delphi/MCprod/cern/zgpy6156b3/v99_4/200/zgpy6156b3_200_20110.xsdst ! RUN = 20110 ! NEVT = 999
FILE = /castor/cern.ch/delphi/MCprod/cern/zgpy6156b3/v99_4/200/zgpy6156b3_200_20111.xsdst ! RUN = 20111 ! NEVT = 1000
FILE = /castor/cern.ch/delphi/MCprod/cern/zgpy6156b3/v99_4/200/zgpy6156b3_200_20112.xsdst ! RUN = 20112 ! NEVT = 1000
FILE = /castor/cern.ch/delphi/MCprod/cern/zgpy6156b3/v99_4/200/zgpy6156b3_200_20113.xsdst ! RUN = 20113 ! NEVT = 1000
FILE = /castor/cern.ch/delphi/MCprod/cern/zgpy6156b3/v99_4/200/zgpy6156b3_200_20114.xsdst ! RUN = 20114 ! NEVT = 1000
FILE = /castor/cern.ch/delphi/MCprod/cern/zgpy6156b3/v99_4/200/zgpy6156b3_200_20115.xsdst ! RUN = 20115 ! NEVT = 999
FILE = /castor/cern.ch/delphi/MCprod/cern/zgpy6156b3/v99_4/200/zgpy6156b3_200_20116.xsdst ! RUN = 20116 ! NEVT = 1000
FILE = /castor/cern.ch/delphi/MCprod/cern/zgpy6156b3/v99_4/200/zgpy6156b3_200_20117.xsdst ! RUN = 20117 ! NEVT = 1000
FILE = /castor/cern.ch/delphi/MCprod/cern/zgpy6156b3/v99_4/200/zgpy6156b3_200_20118.xsdst ! RUN = 20118 ! NEVT = 1000
FILE = /castor/cern.ch/delphi/MCprod/cern/zgpy6156b3/v99_4/200/zgpy6156b3_200_20119.xsdst ! RUN = 20119 ! NEVT = 999
FILE = /castor/cern.ch/delphi/MCprod/cern/zgpy6156b3/v99_4/200/zgpy6156b3_200_20120.xsdst ! RUN = 20120 ! NEVT = 1000
FILE = /castor/cern.ch/delphi/MCprod/cern/zgpy6156b3/v99_4/200/zgpy6156b3_200_20121.xsdst ! RUN = 20121 ! NEVT = 1000
FILE = /castor/cern.ch/delphi/MCprod/cern/zgpy6156b3/v99_4/200/zgpy6156b3_200_20122.xsdst ! RUN = 20122 ! NEVT = 1000
FILE = /castor/cern.ch/delphi/MCprod/cern/zgpy6156b3/v99_4/200/zgpy6156b3_200_20123.xsdst ! RUN = 20123 ! NEVT = 1000
FILE = /castor/cern.ch/delphi/MCprod/cern/zgpy6156b3/v99_4/200/zgpy6156b3_200_20124.xsdst ! RUN = 20124 ! NEVT = 999
FILE = /castor/cern.ch/delphi/MCprod/cern/zgpy6156b3/v99_4/200/zgpy6156b3_200_20125.xsdst ! RUN = 20125 ! NEVT = 1000
FILE = /castor/cern.ch/delphi/MCprod/cern/zgpy6156b3/v99_4/200/zgpy6156b3_200_20126.xsdst ! RUN = 20126 ! NEVT = 1000
FILE = /castor/cern.ch/delphi/MCprod/cern/zgpy6156b3/v99_4/200/zgpy6156b3_200_20127.xsdst ! RUN = 20127 ! NEVT = 1000
FILE = /castor/cern.ch/delphi/MCprod/cern/zgpy6156b3/v99_4/200/zgpy6156b3_200_20128.xsdst ! RUN = 20128 ! NEVT = 999
FILE = /castor/cern.ch/delphi/MCprod/cern/zgpy6156b3/v99_4/200/zgpy6156b3_200_20129.xsdst ! RUN = 20129 ! NEVT = 1000
FILE = /castor/cern.ch/delphi/MCprod/cern/zgpy6156b3/v99_4/200/zgpy6156b3_200_20130.xsdst ! RUN = 20130 ! NEVT = 1000
FILE = /castor/cern.ch/delphi/MCprod/cern/zgpy6156b3/v99_4/200/zgpy6156b3_200_20131.xsdst ! RUN = 20131 ! NEVT = 1000
FILE = /castor/cern.ch/delphi/MCprod/cern/zgpy6156b3/v99_4/200/zgpy6156b3_200_20132.xsdst ! RUN = 20132 ! NEVT = 1000
FILE = /castor/cern.ch/delphi/MCprod/cern/zgpy6156b3/v99_4/200/zgpy6156b3_200_20133.xsdst ! RUN = 20133 ! NEVT = 1000
FILE = /castor/cern.ch/delphi/MCprod/cern/zgpy6156b3/v99_4/200/zgpy6156b3_200_20134.xsdst ! RUN = 20134 ! NEVT = 1000
FILE = /castor/cern.ch/delphi/MCprod/cern/zgpy6156b3/v99_4/200/zgpy6156b3_200_20135.xsdst ! RUN = 20135 ! NEVT = 1000
FILE = /castor/cern.ch/delphi/MCprod/cern/zgpy6156b3/v99_4/200/zgpy6156b3_200_20136.xsdst ! RUN = 20136 ! NEVT = 1000
FILE = /castor/cern.ch/delphi/MCprod/cern/zgpy6156b3/v99_4/200/zgpy6156b3_200_20137.xsdst ! RUN = 20137 ! NEVT = 1000
FILE = /castor/cern.ch/delphi/MCprod/cern/zgpy6156b3/v99_4/200/zgpy6156b3_200_20138.xsdst ! RUN = 20138 ! NEVT = 1000
FILE = /castor/cern.ch/delphi/MCprod/cern/zgpy6156b3/v99_4/200/zgpy6156b3_200_20139.xsdst ! RUN = 20139 ! NEVT = 1000
FILE = /castor/cern.ch/delphi/MCprod/cern/zgpy6156b3/v99_4/200/zgpy6156b3_200_20140.xsdst ! RUN = 20140 ! NEVT = 1000
FILE = /castor/cern.ch/delphi/MCprod/cern/zgpy6156b3/v99_4/200/zgpy6156b3_200_20141.xsdst ! RUN = 20141 ! NEVT = 1000
FILE = /castor/cern.ch/delphi/MCprod/cern/zgpy6156b3/v99_4/200/zgpy6156b3_200_20142.xsdst ! RUN = 20142 ! NEVT = 1000
FILE = /castor/cern.ch/delphi/MCprod/cern/zgpy6156b3/v99_4/200/zgpy6156b3_200_20143.xsdst ! RUN = 20143 ! NEVT = 1000
FILE = /castor/cern.ch/delphi/MCprod/cern/zgpy6156b3/v99_4/200/zgpy6156b3_200_20144.xsdst ! RUN = 20144 ! NEVT = 999
FILE = /castor/cern.ch/delphi/MCprod/cern/zgpy6156b3/v99_4/200/zgpy6156b3_200_20145.xsdst ! RUN = 20145 ! NEVT = 1000
FILE = /castor/cern.ch/delphi/MCprod/cern/zgpy6156b3/v99_4/200/zgpy6156b3_200_20146.xsdst ! RUN = 20146 ! NEVT = 1000
FILE = /castor/cern.ch/delphi/MCprod/cern/zgpy6156b3/v99_4/200/zgpy6156b3_200_20147.xsdst ! RUN = 20147 ! NEVT = 1000
FILE = /castor/cern.ch/delphi/MCprod/cern/zgpy6156b3/v99_4/200/zgpy6156b3_200_20148.xsdst ! RUN = 20148 ! NEVT = 999
FILE = /castor/cern.ch/delphi/MCprod/cern/zgpy6156b3/v99_4/200/zgpy6156b3_200_20149.xsdst ! RUN = 20149 ! NEVT = 1000
FILE = /castor/cern.ch/delphi/MCprod/cern/zgpy6156b3/v99_4/200/zgpy6156b3_200_20150.xsdst ! RUN = 20150 ! NEVT = 1000
FILE = /castor/cern.ch/delphi/MCprod/cern/zgpy6156b3/v99_4/200/zgpy6156b3_200_20151.xsdst ! RUN = 20151 ! NEVT = 1000
FILE = /castor/cern.ch/delphi/MCprod/cern/zgpy6156b3/v99_4/200/zgpy6156b3_200_20152.xsdst ! RUN = 20152 ! NEVT = 1000
FILE = /castor/cern.ch/delphi/MCprod/cern/zgpy6156b3/v99_4/200/zgpy6156b3_200_20153.xsdst ! RUN = 20153 ! NEVT = 1000
FILE = /castor/cern.ch/delphi/MCprod/cern/zgpy6156b3/v99_4/200/zgpy6156b3_200_20154.xsdst ! RUN = 20154 ! NEVT = 1000
FILE = /castor/cern.ch/delphi/MCprod/cern/zgpy6156b3/v99_4/200/zgpy6156b3_200_20155.xsdst ! RUN = 20155 ! NEVT = 1000
FILE = /castor/cern.ch/delphi/MCprod/cern/zgpy6156b3/v99_4/200/zgpy6156b3_200_20156.xsdst ! RUN = 20156 ! NEVT = 1000
FILE = /castor/cern.ch/delphi/MCprod/cern/zgpy6156b3/v99_4/200/zgpy6156b3_200_20157.xsdst ! RUN = 20157 ! NEVT = 1000
FILE = /castor/cern.ch/delphi/MCprod/cern/zgpy6156b3/v99_4/200/zgpy6156b3_200_20158.xsdst ! RUN = 20158 ! NEVT = 999
FILE = /castor/cern.ch/delphi/MCprod/cern/zgpy6156b3/v99_4/200/zgpy6156b3_200_20159.xsdst ! RUN = 20159 ! NEVT = 1000
FILE = /castor/cern.ch/delphi/MCprod/cern/zgpy6156b3/v99_4/200/zgpy6156b3_200_20160.xsdst ! RUN = 20160 ! NEVT = 1000
FILE = /castor/cern.ch/delphi/MCprod/cern/zgpy6156b3/v99_4/200/zgpy6156b3_200_20161.xsdst ! RUN = 20161 ! NEVT = 1000
FILE = /castor/cern.ch/delphi/MCprod/cern/zgpy6156b3/v99_4/200/zgpy6156b3_200_20162.xsdst ! RUN = 20162 ! NEVT = 1000
FILE = /castor/cern.ch/delphi/MCprod/cern/zgpy6156b3/v99_4/200/zgpy6156b3_200_20163.xsdst ! RUN = 20163 ! NEVT = 1000
FILE = /castor/cern.ch/delphi/MCprod/cern/zgpy6156b3/v99_4/200/zgpy6156b3_200_20164.xsdst ! RUN = 20164 ! NEVT = 999
FILE = /castor/cern.ch/delphi/MCprod/cern/zgpy6156b3/v99_4/200/zgpy6156b3_200_20165.xsdst ! RUN = 20165 ! NEVT = 1000
FILE = /castor/cern.ch/delphi/MCprod/cern/zgpy6156b3/v99_4/200/zgpy6156b3_200_20166.xsdst ! RUN = 20166 ! NEVT = 1000
FILE = /castor/cern.ch/delphi/MCprod/cern/zgpy6156b3/v99_4/200/zgpy6156b3_200_20167.xsdst ! RUN = 20167 ! NEVT = 1000
FILE = /castor/cern.ch/delphi/MCprod/cern/zgpy6156b3/v99_4/200/zgpy6156b3_200_20168.xsdst ! RUN = 20168 ! NEVT = 1000
FILE = /castor/cern.ch/delphi/MCprod/cern/zgpy6156b3/v99_4/200/zgpy6156b3_200_20169.xsdst ! RUN = 20169 ! NEVT = 1000
FILE = /castor/cern.ch/delphi/MCprod/cern/zgpy6156b3/v99_4/200/zgpy6156b3_200_20170.xsdst ! RUN = 20170 ! NEVT = 1000
FILE = /castor/cern.ch/delphi/MCprod/cern/zgpy6156b3/v99_4/200/zgpy6156b3_200_20171.xsdst ! RUN = 20171 ! NEVT = 999
FILE = /castor/cern.ch/delphi/MCprod/cern/zgpy6156b3/v99_4/200/zgpy6156b3_200_20172.xsdst ! RUN = 20172 ! NEVT = 999
FILE = /castor/cern.ch/delphi/MCprod/cern/zgpy6156b3/v99_4/200/zgpy6156b3_200_20173.xsdst ! RUN = 20173 ! NEVT = 1000
FILE = /castor/cern.ch/delphi/MCprod/cern/zgpy6156b3/v99_4/200/zgpy6156b3_200_20174.xsdst ! RUN = 20174 ! NEVT = 999
FILE = /castor/cern.ch/delphi/MCprod/cern/zgpy6156b3/v99_4/200/zgpy6156b3_200_20175.xsdst ! RUN = 20175 ! NEVT = 1000
FILE = /castor/cern.ch/delphi/MCprod/cern/zgpy6156b3/v99_4/200/zgpy6156b3_200_20176.xsdst ! RUN = 20176 ! NEVT = 1000
FILE = /castor/cern.ch/delphi/MCprod/cern/zgpy6156b3/v99_4/200/zgpy6156b3_200_20177.xsdst ! RUN = 20177 ! NEVT = 1000
FILE = /castor/cern.ch/delphi/MCprod/cern/zgpy6156b3/v99_4/200/zgpy6156b3_200_20178.xsdst ! RUN = 20178 ! NEVT = 1000
FILE = /castor/cern.ch/delphi/MCprod/cern/zgpy6156b3/v99_4/200/zgpy6156b3_200_20179.xsdst ! RUN = 20179 ! NEVT = 1000
FILE = /castor/cern.ch/delphi/MCprod/cern/zgpy6156b3/v99_4/200/zgpy6156b3_200_20180.xsdst ! RUN = 20180 ! NEVT = 1000
FILE = /castor/cern.ch/delphi/MCprod/cern/zgpy6156b3/v99_4/200/zgpy6156b3_200_20181.xsdst ! RUN = 20181 ! NEVT = 1000
FILE = /castor/cern.ch/delphi/MCprod/cern/zgpy6156b3/v99_4/200/zgpy6156b3_200_20182.xsdst ! RUN = 20182 ! NEVT = 1000
FILE = /castor/cern.ch/delphi/MCprod/cern/zgpy6156b3/v99_4/200/zgpy6156b3_200_20183.xsdst ! RUN = 20183 ! NEVT = 1000
FILE = /castor/cern.ch/delphi/MCprod/cern/zgpy6156b3/v99_4/200/zgpy6156b3_200_20184.xsdst ! RUN = 20184 ! NEVT = 1000
FILE = /castor/cern.ch/delphi/MCprod/cern/zgpy6156b3/v99_4/200/zgpy6156b3_200_20185.xsdst ! RUN = 20185 ! NEVT = 1000
FILE = /castor/cern.ch/delphi/MCprod/cern/zgpy6156b3/v99_4/200/zgpy6156b3_200_20186.xsdst ! RUN = 20186 ! NEVT = 999
FILE = /castor/cern.ch/delphi/MCprod/cern/zgpy6156b3/v99_4/200/zgpy6156b3_200_20187.xsdst ! RUN = 20187 ! NEVT = 1000
FILE = /castor/cern.ch/delphi/MCprod/cern/zgpy6156b3/v99_4/200/zgpy6156b3_200_20188.xsdst ! RUN = 20188 ! NEVT = 1000
FILE = /castor/cern.ch/delphi/MCprod/cern/zgpy6156b3/v99_4/200/zgpy6156b3_200_20189.xsdst ! RUN = 20189 ! NEVT = 1000
FILE = /castor/cern.ch/delphi/MCprod/cern/zgpy6156b3/v99_4/200/zgpy6156b3_200_20190.xsdst ! RUN = 20190 ! NEVT = 1000
FILE = /castor/cern.ch/delphi/MCprod/cern/zgpy6156b3/v99_4/200/zgpy6156b3_200_20191.xsdst ! RUN = 20191 ! NEVT = 999
FILE = /castor/cern.ch/delphi/MCprod/cern/zgpy6156b3/v99_4/200/zgpy6156b3_200_20192.xsdst ! RUN = 20192 ! NEVT = 1000
FILE = /castor/cern.ch/delphi/MCprod/cern/zgpy6156b3/v99_4/200/zgpy6156b3_200_20193.xsdst ! RUN = 20193 ! NEVT = 1000
FILE = /castor/cern.ch/delphi/MCprod/cern/zgpy6156b3/v99_4/200/zgpy6156b3_200_20194.xsdst ! RUN = 20194 ! NEVT = 1000
FILE = /castor/cern.ch/delphi/MCprod/cern/zgpy6156b3/v99_4/200/zgpy6156b3_200_20195.xsdst ! RUN = 20195 ! NEVT = 999
FILE = /castor/cern.ch/delphi/MCprod/cern/zgpy6156b3/v99_4/200/zgpy6156b3_200_20196.xsdst ! RUN = 20196 ! NEVT = 1000
FILE = /castor/cern.ch/delphi/MCprod/cern/zgpy6156b3/v99_4/200/zgpy6156b3_200_20197.xsdst ! RUN = 20197 ! NEVT = 999
FILE = /castor/cern.ch/delphi/MCprod/cern/zgpy6156b3/v99_4/200/zgpy6156b3_200_20198.xsdst ! RUN = 20198 ! NEVT = 1000
FILE = /castor/cern.ch/delphi/MCprod/cern/zgpy6156b3/v99_4/200/zgpy6156b3_200_20199.xsdst ! RUN = 20199 ! NEVT = 1000
FILE = /castor/cern.ch/delphi/MCprod/cern/zgpy6156b3/v99_4/200/zgpy6156b3_200_20200.xsdst ! RUN = 20200 ! NEVT = 1000
