*
*   Nickname     : xs_kkmm414_e200_c99_1l_a1
*   Generic Name : //CERN/DELPHI/P02_SIMD/XSDST/KKMM414/CERN/SUMT
*   Description  :  Extended Short DST simulation 99_a1 200 , CERN
*---
*   Comments     :  time stamp: Fri May  4 15:37:00 2001
*---
*
*   Comments     : only short dst has been kept           
*
*
*
*
FILE = /castor/cern.ch/delphi/MCprod/cern/KKmm414/v99_4/200/run10001.xsdst ! RUN = 10001 ! NEVT = 1000
FILE = /castor/cern.ch/delphi/MCprod/cern/KKmm414/v99_4/200/run10002.xsdst ! RUN = 10002 ! NEVT = 1000
FILE = /castor/cern.ch/delphi/MCprod/cern/KKmm414/v99_4/200/run10003.xsdst ! RUN = 10003 ! NEVT = 1000
FILE = /castor/cern.ch/delphi/MCprod/cern/KKmm414/v99_4/200/run10004.xsdst ! RUN = 10004 ! NEVT = 1000
FILE = /castor/cern.ch/delphi/MCprod/cern/KKmm414/v99_4/200/run10005.xsdst ! RUN = 10005 ! NEVT = 1000
FILE = /castor/cern.ch/delphi/MCprod/cern/KKmm414/v99_4/200/run10006.xsdst ! RUN = 10006 ! NEVT = 1000
FILE = /castor/cern.ch/delphi/MCprod/cern/KKmm414/v99_4/200/run10007.xsdst ! RUN = 10007 ! NEVT = 1000
FILE = /castor/cern.ch/delphi/MCprod/cern/KKmm414/v99_4/200/run10008.xsdst ! RUN = 10008 ! NEVT = 1000
FILE = /castor/cern.ch/delphi/MCprod/cern/KKmm414/v99_4/200/run10009.xsdst ! RUN = 10009 ! NEVT = 1000
FILE = /castor/cern.ch/delphi/MCprod/cern/KKmm414/v99_4/200/run10010.xsdst ! RUN = 10010 ! NEVT = 1000
FILE = /castor/cern.ch/delphi/MCprod/cern/KKmm414/v99_4/200/run10011.xsdst ! RUN = 10011 ! NEVT = 1000
FILE = /castor/cern.ch/delphi/MCprod/cern/KKmm414/v99_4/200/run10012.xsdst ! RUN = 10012 ! NEVT = 1000
FILE = /castor/cern.ch/delphi/MCprod/cern/KKmm414/v99_4/200/run10013.xsdst ! RUN = 10013 ! NEVT = 1000
FILE = /castor/cern.ch/delphi/MCprod/cern/KKmm414/v99_4/200/run10014.xsdst ! RUN = 10014 ! NEVT = 1000
FILE = /castor/cern.ch/delphi/MCprod/cern/KKmm414/v99_4/200/run10015.xsdst ! RUN = 10015 ! NEVT = 1000
FILE = /castor/cern.ch/delphi/MCprod/cern/KKmm414/v99_4/200/run10016.xsdst ! RUN = 10016 ! NEVT = 1000
FILE = /castor/cern.ch/delphi/MCprod/cern/KKmm414/v99_4/200/run10017.xsdst ! RUN = 10017 ! NEVT = 1000
FILE = /castor/cern.ch/delphi/MCprod/cern/KKmm414/v99_4/200/run10018.xsdst ! RUN = 10018 ! NEVT = 1000
FILE = /castor/cern.ch/delphi/MCprod/cern/KKmm414/v99_4/200/run10019.xsdst ! RUN = 10019 ! NEVT = 1000
FILE = /castor/cern.ch/delphi/MCprod/cern/KKmm414/v99_4/200/run10020.xsdst ! RUN = 10020 ! NEVT = 1000
FILE = /castor/cern.ch/delphi/MCprod/cern/KKmm414/v99_4/200/run10021.xsdst ! RUN = 10021 ! NEVT = 1000
FILE = /castor/cern.ch/delphi/MCprod/cern/KKmm414/v99_4/200/run10022.xsdst ! RUN = 10022 ! NEVT = 1000
FILE = /castor/cern.ch/delphi/MCprod/cern/KKmm414/v99_4/200/run10023.xsdst ! RUN = 10023 ! NEVT = 1000
FILE = /castor/cern.ch/delphi/MCprod/cern/KKmm414/v99_4/200/run10024.xsdst ! RUN = 10024 ! NEVT = 1000
FILE = /castor/cern.ch/delphi/MCprod/cern/KKmm414/v99_4/200/run10025.xsdst ! RUN = 10025 ! NEVT = 1000
FILE = /castor/cern.ch/delphi/MCprod/cern/KKmm414/v99_4/200/run10026.xsdst ! RUN = 10026 ! NEVT = 1000
FILE = /castor/cern.ch/delphi/MCprod/cern/KKmm414/v99_4/200/run10027.xsdst ! RUN = 10027 ! NEVT = 1000
FILE = /castor/cern.ch/delphi/MCprod/cern/KKmm414/v99_4/200/run10028.xsdst ! RUN = 10028 ! NEVT = 1000
FILE = /castor/cern.ch/delphi/MCprod/cern/KKmm414/v99_4/200/run10029.xsdst ! RUN = 10029 ! NEVT = 1000
FILE = /castor/cern.ch/delphi/MCprod/cern/KKmm414/v99_4/200/run10030.xsdst ! RUN = 10030 ! NEVT = 1000
FILE = /castor/cern.ch/delphi/MCprod/cern/KKmm414/v99_4/200/run10031.xsdst ! RUN = 10031 ! NEVT = 1000
FILE = /castor/cern.ch/delphi/MCprod/cern/KKmm414/v99_4/200/run10032.xsdst ! RUN = 10032 ! NEVT = 1000
FILE = /castor/cern.ch/delphi/MCprod/cern/KKmm414/v99_4/200/run10033.xsdst ! RUN = 10033 ! NEVT = 1000
FILE = /castor/cern.ch/delphi/MCprod/cern/KKmm414/v99_4/200/run10034.xsdst ! RUN = 10034 ! NEVT = 1000
FILE = /castor/cern.ch/delphi/MCprod/cern/KKmm414/v99_4/200/run10035.xsdst ! RUN = 10035 ! NEVT = 1000
FILE = /castor/cern.ch/delphi/MCprod/cern/KKmm414/v99_4/200/run10036.xsdst ! RUN = 10036 ! NEVT = 1000
FILE = /castor/cern.ch/delphi/MCprod/cern/KKmm414/v99_4/200/run10037.xsdst ! RUN = 10037 ! NEVT = 1000
FILE = /castor/cern.ch/delphi/MCprod/cern/KKmm414/v99_4/200/run10038.xsdst ! RUN = 10038 ! NEVT = 1000
FILE = /castor/cern.ch/delphi/MCprod/cern/KKmm414/v99_4/200/run10039.xsdst ! RUN = 10039 ! NEVT = 1000
FILE = /castor/cern.ch/delphi/MCprod/cern/KKmm414/v99_4/200/run10040.xsdst ! RUN = 10040 ! NEVT = 1000
FILE = /castor/cern.ch/delphi/MCprod/cern/KKmm414/v99_4/200/run10041.xsdst ! RUN = 10041 ! NEVT = 1000
FILE = /castor/cern.ch/delphi/MCprod/cern/KKmm414/v99_4/200/run10042.xsdst ! RUN = 10042 ! NEVT = 1000
FILE = /castor/cern.ch/delphi/MCprod/cern/KKmm414/v99_4/200/run10043.xsdst ! RUN = 10043 ! NEVT = 1000
FILE = /castor/cern.ch/delphi/MCprod/cern/KKmm414/v99_4/200/run10044.xsdst ! RUN = 10044 ! NEVT = 1000
FILE = /castor/cern.ch/delphi/MCprod/cern/KKmm414/v99_4/200/run10045.xsdst ! RUN = 10045 ! NEVT = 1000
FILE = /castor/cern.ch/delphi/MCprod/cern/KKmm414/v99_4/200/run10046.xsdst ! RUN = 10046 ! NEVT = 1000
FILE = /castor/cern.ch/delphi/MCprod/cern/KKmm414/v99_4/200/run10047.xsdst ! RUN = 10047 ! NEVT = 1000
FILE = /castor/cern.ch/delphi/MCprod/cern/KKmm414/v99_4/200/run10048.xsdst ! RUN = 10048 ! NEVT = 1000
FILE = /castor/cern.ch/delphi/MCprod/cern/KKmm414/v99_4/200/run10049.xsdst ! RUN = 10049 ! NEVT = 1000
FILE = /castor/cern.ch/delphi/MCprod/cern/KKmm414/v99_4/200/run10050.xsdst ! RUN = 10050 ! NEVT = 1000
FILE = /castor/cern.ch/delphi/MCprod/cern/KKmm414/v99_4/200/run10051.xsdst ! RUN = 10051 ! NEVT = 1000
FILE = /castor/cern.ch/delphi/MCprod/cern/KKmm414/v99_4/200/run10052.xsdst ! RUN = 10052 ! NEVT = 1000
FILE = /castor/cern.ch/delphi/MCprod/cern/KKmm414/v99_4/200/run10053.xsdst ! RUN = 10053 ! NEVT = 1000
FILE = /castor/cern.ch/delphi/MCprod/cern/KKmm414/v99_4/200/run10054.xsdst ! RUN = 10054 ! NEVT = 1000
FILE = /castor/cern.ch/delphi/MCprod/cern/KKmm414/v99_4/200/run10055.xsdst ! RUN = 10055 ! NEVT = 1000
FILE = /castor/cern.ch/delphi/MCprod/cern/KKmm414/v99_4/200/run10056.xsdst ! RUN = 10056 ! NEVT = 1000
FILE = /castor/cern.ch/delphi/MCprod/cern/KKmm414/v99_4/200/run10057.xsdst ! RUN = 10057 ! NEVT = 1000
FILE = /castor/cern.ch/delphi/MCprod/cern/KKmm414/v99_4/200/run10058.xsdst ! RUN = 10058 ! NEVT = 1000
FILE = /castor/cern.ch/delphi/MCprod/cern/KKmm414/v99_4/200/run10059.xsdst ! RUN = 10059 ! NEVT = 1000
FILE = /castor/cern.ch/delphi/MCprod/cern/KKmm414/v99_4/200/run10060.xsdst ! RUN = 10060 ! NEVT = 1000
FILE = /castor/cern.ch/delphi/MCprod/cern/KKmm414/v99_4/200/run10061.xsdst ! RUN = 10061 ! NEVT = 1000
FILE = /castor/cern.ch/delphi/MCprod/cern/KKmm414/v99_4/200/run10062.xsdst ! RUN = 10062 ! NEVT = 1000
FILE = /castor/cern.ch/delphi/MCprod/cern/KKmm414/v99_4/200/run10063.xsdst ! RUN = 10063 ! NEVT = 1000
FILE = /castor/cern.ch/delphi/MCprod/cern/KKmm414/v99_4/200/run10064.xsdst ! RUN = 10064 ! NEVT = 1000
FILE = /castor/cern.ch/delphi/MCprod/cern/KKmm414/v99_4/200/run10065.xsdst ! RUN = 10065 ! NEVT = 1000
FILE = /castor/cern.ch/delphi/MCprod/cern/KKmm414/v99_4/200/run10066.xsdst ! RUN = 10066 ! NEVT = 1000
FILE = /castor/cern.ch/delphi/MCprod/cern/KKmm414/v99_4/200/run10067.xsdst ! RUN = 10067 ! NEVT = 999
FILE = /castor/cern.ch/delphi/MCprod/cern/KKmm414/v99_4/200/run10068.xsdst ! RUN = 10068 ! NEVT = 1000
FILE = /castor/cern.ch/delphi/MCprod/cern/KKmm414/v99_4/200/run10069.xsdst ! RUN = 10069 ! NEVT = 1000
FILE = /castor/cern.ch/delphi/MCprod/cern/KKmm414/v99_4/200/run10070.xsdst ! RUN = 10070 ! NEVT = 1000
FILE = /castor/cern.ch/delphi/MCprod/cern/KKmm414/v99_4/200/run10071.xsdst ! RUN = 10071 ! NEVT = 1000
FILE = /castor/cern.ch/delphi/MCprod/cern/KKmm414/v99_4/200/run10072.xsdst ! RUN = 10072 ! NEVT = 1000
FILE = /castor/cern.ch/delphi/MCprod/cern/KKmm414/v99_4/200/run10073.xsdst ! RUN = 10073 ! NEVT = 1000
FILE = /castor/cern.ch/delphi/MCprod/cern/KKmm414/v99_4/200/run10074.xsdst ! RUN = 10074 ! NEVT = 1000
FILE = /castor/cern.ch/delphi/MCprod/cern/KKmm414/v99_4/200/run10075.xsdst ! RUN = 10075 ! NEVT = 1000
FILE = /castor/cern.ch/delphi/MCprod/cern/KKmm414/v99_4/200/run10076.xsdst ! RUN = 10076 ! NEVT = 1000
FILE = /castor/cern.ch/delphi/MCprod/cern/KKmm414/v99_4/200/run10077.xsdst ! RUN = 10077 ! NEVT = 1000
FILE = /castor/cern.ch/delphi/MCprod/cern/KKmm414/v99_4/200/run10078.xsdst ! RUN = 10078 ! NEVT = 999
FILE = /castor/cern.ch/delphi/MCprod/cern/KKmm414/v99_4/200/run10079.xsdst ! RUN = 10079 ! NEVT = 1000
FILE = /castor/cern.ch/delphi/MCprod/cern/KKmm414/v99_4/200/run10080.xsdst ! RUN = 10080 ! NEVT = 1000
FILE = /castor/cern.ch/delphi/MCprod/cern/KKmm414/v99_4/200/run10081.xsdst ! RUN = 10081 ! NEVT = 1000
FILE = /castor/cern.ch/delphi/MCprod/cern/KKmm414/v99_4/200/run10082.xsdst ! RUN = 10082 ! NEVT = 1000
FILE = /castor/cern.ch/delphi/MCprod/cern/KKmm414/v99_4/200/run10083.xsdst ! RUN = 10083 ! NEVT = 1000
FILE = /castor/cern.ch/delphi/MCprod/cern/KKmm414/v99_4/200/run10084.xsdst ! RUN = 10084 ! NEVT = 1000
FILE = /castor/cern.ch/delphi/MCprod/cern/KKmm414/v99_4/200/run10085.xsdst ! RUN = 10085 ! NEVT = 1000
FILE = /castor/cern.ch/delphi/MCprod/cern/KKmm414/v99_4/200/run10086.xsdst ! RUN = 10086 ! NEVT = 1000
FILE = /castor/cern.ch/delphi/MCprod/cern/KKmm414/v99_4/200/run10087.xsdst ! RUN = 10087 ! NEVT = 1000
FILE = /castor/cern.ch/delphi/MCprod/cern/KKmm414/v99_4/200/run10088.xsdst ! RUN = 10088 ! NEVT = 1000
FILE = /castor/cern.ch/delphi/MCprod/cern/KKmm414/v99_4/200/run10089.xsdst ! RUN = 10089 ! NEVT = 1000
FILE = /castor/cern.ch/delphi/MCprod/cern/KKmm414/v99_4/200/run10090.xsdst ! RUN = 10090 ! NEVT = 1000
FILE = /castor/cern.ch/delphi/MCprod/cern/KKmm414/v99_4/200/run10091.xsdst ! RUN = 10091 ! NEVT = 1000
FILE = /castor/cern.ch/delphi/MCprod/cern/KKmm414/v99_4/200/run10092.xsdst ! RUN = 10092 ! NEVT = 1000
FILE = /castor/cern.ch/delphi/MCprod/cern/KKmm414/v99_4/200/run10093.xsdst ! RUN = 10093 ! NEVT = 1000
FILE = /castor/cern.ch/delphi/MCprod/cern/KKmm414/v99_4/200/run10094.xsdst ! RUN = 10094 ! NEVT = 1000
FILE = /castor/cern.ch/delphi/MCprod/cern/KKmm414/v99_4/200/run10095.xsdst ! RUN = 10095 ! NEVT = 1000
FILE = /castor/cern.ch/delphi/MCprod/cern/KKmm414/v99_4/200/run10096.xsdst ! RUN = 10096 ! NEVT = 1000
FILE = /castor/cern.ch/delphi/MCprod/cern/KKmm414/v99_4/200/run10097.xsdst ! RUN = 10097 ! NEVT = 1000
FILE = /castor/cern.ch/delphi/MCprod/cern/KKmm414/v99_4/200/run10098.xsdst ! RUN = 10098 ! NEVT = 1000
FILE = /castor/cern.ch/delphi/MCprod/cern/KKmm414/v99_4/200/run10099.xsdst ! RUN = 10099 ! NEVT = 999
FILE = /castor/cern.ch/delphi/MCprod/cern/KKmm414/v99_4/200/run10100.xsdst ! RUN = 10100 ! NEVT = 999
