*
*   Nickname     : xs_ha50_e191.6_m80_c99_1l_a1
*   Generic Name : //CERN/DELPHI/P02_SIMD/XSDST/HA50/E191.6/CERN/SUMT
*   Description  : ShortDST HZHA03  e+e- --> hA ->4b, tan beta = 50 Extended Short DST simulation 99_a1 done at ecms=191.6 , CERN
*---
*   Comments     :  time stamp: Mon Feb 12 19:29:00 2001
*---
*
*   Comments     : only short dst has been kept           
*
*
*
*
FILE = /castor/cern.ch/delphi/MCprod/cern/hzha03/v99_4/191.6/ha5080_191.6_38001.xsdst ! RUN = 38001 ! NEVT = 200
FILE = /castor/cern.ch/delphi/MCprod/cern/hzha03/v99_4/191.6/ha5080_191.6_38002.xsdst ! RUN = 38002 ! NEVT = 200
FILE = /castor/cern.ch/delphi/MCprod/cern/hzha03/v99_4/191.6/ha5080_191.6_38003.xsdst ! RUN = 38003 ! NEVT = 200
FILE = /castor/cern.ch/delphi/MCprod/cern/hzha03/v99_4/191.6/ha5080_191.6_38004.xsdst ! RUN = 38004 ! NEVT = 200
FILE = /castor/cern.ch/delphi/MCprod/cern/hzha03/v99_4/191.6/ha5080_191.6_38005.xsdst ! RUN = 38005 ! NEVT = 199
FILE = /castor/cern.ch/delphi/MCprod/cern/hzha03/v99_4/191.6/ha5080_191.6_38006.xsdst ! RUN = 38006 ! NEVT = 200
FILE = /castor/cern.ch/delphi/MCprod/cern/hzha03/v99_4/191.6/ha5080_191.6_38007.xsdst ! RUN = 38007 ! NEVT = 200
FILE = /castor/cern.ch/delphi/MCprod/cern/hzha03/v99_4/191.6/ha5080_191.6_38008.xsdst ! RUN = 38008 ! NEVT = 200
FILE = /castor/cern.ch/delphi/MCprod/cern/hzha03/v99_4/191.6/ha5080_191.6_38009.xsdst ! RUN = 38009 ! NEVT = 200
FILE = /castor/cern.ch/delphi/MCprod/cern/hzha03/v99_4/191.6/ha5080_191.6_38010.xsdst ! RUN = 38010 ! NEVT = 200
