*
*   Nickname     : xs_hzha03p6156gggg_e206_m150_c99_1l_a1
*   Generic Name : //CERN/DELPHI/P02_SIMD/XSDST/HZHA03P6156GGGG/CERN/SUMT
*   Description  : ShortDST HZHA03(Pythia 6.156)  e+e- --> hA ->4gluon, mh=150 GeV, different A  masses  Extended Short DST simulation 99_a1 206 , CERN
*---
*   Comments     :  time stamp: Mon Apr 23 13:48:37 2001
*---
*
*   Comments     : only short dst has been kept           
*
*
*
*
FILE = /castor/cern.ch/delphi/MCprod/cern/hzha03pyth6156/v99_4/206/hzha03pyth6156_hA_gggg_206_150_15_15152.out.xsdst ! RUN = 15152 ! NEVT = 500
FILE = /castor/cern.ch/delphi/MCprod/cern/hzha03pyth6156/v99_4/206/hzha03pyth6156_hA_gggg_206_150_15_15153.out.xsdst ! RUN = 15153 ! NEVT = 500
FILE = /castor/cern.ch/delphi/MCprod/cern/hzha03pyth6156/v99_4/206/hzha03pyth6156_hA_gggg_206_150_15_15154.out.xsdst ! RUN = 15154 ! NEVT = 500
FILE = /castor/cern.ch/delphi/MCprod/cern/hzha03pyth6156/v99_4/206/hzha03pyth6156_hA_gggg_206_150_15_15155.out.xsdst ! RUN = 15155 ! NEVT = 500
FILE = /castor/cern.ch/delphi/MCprod/cern/hzha03pyth6156/v99_4/206/hzha03pyth6156_hA_gggg_206_150_20_15202.out.xsdst ! RUN = 15202 ! NEVT = 499
FILE = /castor/cern.ch/delphi/MCprod/cern/hzha03pyth6156/v99_4/206/hzha03pyth6156_hA_gggg_206_150_20_15203.out.xsdst ! RUN = 15203 ! NEVT = 500
FILE = /castor/cern.ch/delphi/MCprod/cern/hzha03pyth6156/v99_4/206/hzha03pyth6156_hA_gggg_206_150_20_15204.out.xsdst ! RUN = 15204 ! NEVT = 500
FILE = /castor/cern.ch/delphi/MCprod/cern/hzha03pyth6156/v99_4/206/hzha03pyth6156_hA_gggg_206_150_20_15205.out.xsdst ! RUN = 15205 ! NEVT = 499
FILE = /castor/cern.ch/delphi/MCprod/cern/hzha03pyth6156/v99_4/206/hzha03pyth6156_hA_gggg_206_150_25_15252.out.xsdst ! RUN = 15252 ! NEVT = 500
FILE = /castor/cern.ch/delphi/MCprod/cern/hzha03pyth6156/v99_4/206/hzha03pyth6156_hA_gggg_206_150_25_15253.out.xsdst ! RUN = 15253 ! NEVT = 499
FILE = /castor/cern.ch/delphi/MCprod/cern/hzha03pyth6156/v99_4/206/hzha03pyth6156_hA_gggg_206_150_25_15254.out.xsdst ! RUN = 15254 ! NEVT = 500
FILE = /castor/cern.ch/delphi/MCprod/cern/hzha03pyth6156/v99_4/206/hzha03pyth6156_hA_gggg_206_150_25_15255.out.xsdst ! RUN = 15255 ! NEVT = 500
