*
*   Nickname     : xs_ha50ttbb_e191.6_m60_c99_1l_a1
*   Generic Name : //CERN/DELPHI/P02_SIMD/XSDST/HA50TTBB/E191.6/CERN/SUMT
*   Description  : ShortDST HZHA03  e+e- --> hA ->tautaubbbar, tan beta = 50 Extended Short DST simulation 99_a1 done at ecms=191.6 , CERN
*---
*   Comments     :  time stamp: Mon Feb 12 19:29:11 2001
*---
*
*   Comments     : only short dst has been kept           
*
*
*
*
FILE = /castor/cern.ch/delphi/MCprod/cern/hzha03/v99_4/191.6/ha50ttbb60_191.6_37001.xsdst ! RUN = 37001 ! NEVT = 200
FILE = /castor/cern.ch/delphi/MCprod/cern/hzha03/v99_4/191.6/ha50ttbb60_191.6_37002.xsdst ! RUN = 37002 ! NEVT = 200
FILE = /castor/cern.ch/delphi/MCprod/cern/hzha03/v99_4/191.6/ha50ttbb60_191.6_37003.xsdst ! RUN = 37003 ! NEVT = 200
FILE = /castor/cern.ch/delphi/MCprod/cern/hzha03/v99_4/191.6/ha50ttbb60_191.6_37004.xsdst ! RUN = 37004 ! NEVT = 200
FILE = /castor/cern.ch/delphi/MCprod/cern/hzha03/v99_4/191.6/ha50ttbb60_191.6_37005.xsdst ! RUN = 37005 ! NEVT = 200
FILE = /castor/cern.ch/delphi/MCprod/cern/hzha03/v99_4/191.6/ha50ttbb60_191.6_37006.xsdst ! RUN = 37006 ! NEVT = 200
FILE = /castor/cern.ch/delphi/MCprod/cern/hzha03/v99_4/191.6/ha50ttbb60_191.6_37007.xsdst ! RUN = 37007 ! NEVT = 200
FILE = /castor/cern.ch/delphi/MCprod/cern/hzha03/v99_4/191.6/ha50ttbb60_191.6_37008.xsdst ! RUN = 37008 ! NEVT = 200
FILE = /castor/cern.ch/delphi/MCprod/cern/hzha03/v99_4/191.6/ha50ttbb60_191.6_37009.xsdst ! RUN = 37009 ! NEVT = 200
FILE = /castor/cern.ch/delphi/MCprod/cern/hzha03/v99_4/191.6/ha50ttbb60_191.6_37010.xsdst ! RUN = 37010 ! NEVT = 200
