*
*   Nickname     : xs_ha02_e202_m50_c99_1l_a1
*   Generic Name : //CERN/DELPHI/P02_SIMD/XSDST/HA02/CERN/SUMT
*   Description  : ShortDST HZHA03  e+e- --> hA -> 4b, tan beta = 2 Extended Short DST simulation 99_a1 202 , CERN
*---
*   Comments     :  time stamp: Mon Feb 12 19:28:16 2001
*---
*
*   Comments     : only short dst has been kept           
*
*
*
*
FILE = /castor/cern.ch/delphi/MCprod/cern/hzha03/v99_4/202/ha0250_202_15031.xsdst ! RUN = 15031 ! NEVT = 200
FILE = /castor/cern.ch/delphi/MCprod/cern/hzha03/v99_4/202/ha0250_202_15032.xsdst ! RUN = 15032 ! NEVT = 200
FILE = /castor/cern.ch/delphi/MCprod/cern/hzha03/v99_4/202/ha0250_202_15033.xsdst ! RUN = 15033 ! NEVT = 200
FILE = /castor/cern.ch/delphi/MCprod/cern/hzha03/v99_4/202/ha0250_202_15034.xsdst ! RUN = 15034 ! NEVT = 200
FILE = /castor/cern.ch/delphi/MCprod/cern/hzha03/v99_4/202/ha0250_202_15035.xsdst ! RUN = 15035 ! NEVT = 200
FILE = /castor/cern.ch/delphi/MCprod/cern/hzha03/v99_4/202/ha0250_202_15036.xsdst ! RUN = 15036 ! NEVT = 200
FILE = /castor/cern.ch/delphi/MCprod/cern/hzha03/v99_4/202/ha0250_202_15037.xsdst ! RUN = 15037 ! NEVT = 200
FILE = /castor/cern.ch/delphi/MCprod/cern/hzha03/v99_4/202/ha0250_202_15038.xsdst ! RUN = 15038 ! NEVT = 200
FILE = /castor/cern.ch/delphi/MCprod/cern/hzha03/v99_4/202/ha0250_202_15039.xsdst ! RUN = 15039 ! NEVT = 200
FILE = /castor/cern.ch/delphi/MCprod/cern/hzha03/v99_4/202/ha0250_202_15040.xsdst ! RUN = 15040 ! NEVT = 200
