*
*   Nickname     : xs_ha02_e196_m30_c99_1l_a1
*   Generic Name : //CERN/DELPHI/P02_SIMD/XSDST/HA02/CERN/SUMT
*   Description  : ShortDST HZHA03  e+e- --> hA -> 4b, tan beta = 2 Extended Short DST simulation 99_a1 196 , CERN
*---
*   Comments     :  time stamp: Mon Feb 12 19:28:12 2001
*---
*
*   Comments     : only short dst has been kept           
*
*
*
*
FILE = /castor/cern.ch/delphi/MCprod/cern/hzha03/v99_4/196/ha0230_196_13011.xsdst ! RUN = 13011 ! NEVT = 200
FILE = /castor/cern.ch/delphi/MCprod/cern/hzha03/v99_4/196/ha0230_196_13012.xsdst ! RUN = 13012 ! NEVT = 200
FILE = /castor/cern.ch/delphi/MCprod/cern/hzha03/v99_4/196/ha0230_196_13013.xsdst ! RUN = 13013 ! NEVT = 200
FILE = /castor/cern.ch/delphi/MCprod/cern/hzha03/v99_4/196/ha0230_196_13014.xsdst ! RUN = 13014 ! NEVT = 200
FILE = /castor/cern.ch/delphi/MCprod/cern/hzha03/v99_4/196/ha0230_196_13015.xsdst ! RUN = 13015 ! NEVT = 200
FILE = /castor/cern.ch/delphi/MCprod/cern/hzha03/v99_4/196/ha0230_196_13016.xsdst ! RUN = 13016 ! NEVT = 200
FILE = /castor/cern.ch/delphi/MCprod/cern/hzha03/v99_4/196/ha0230_196_13017.xsdst ! RUN = 13017 ! NEVT = 200
FILE = /castor/cern.ch/delphi/MCprod/cern/hzha03/v99_4/196/ha0230_196_13018.xsdst ! RUN = 13018 ! NEVT = 200
FILE = /castor/cern.ch/delphi/MCprod/cern/hzha03/v99_4/196/ha0230_196_13019.xsdst ! RUN = 13019 ! NEVT = 200
FILE = /castor/cern.ch/delphi/MCprod/cern/hzha03/v99_4/196/ha0230_196_13020.xsdst ! RUN = 13020 ! NEVT = 200
