*
*   Nickname     : xs_zgpy_e200_c99_1l_a1
*   Generic Name : //CERN/DELPHI/P02_SIMD/XSDST/ZGPY/SUMT
*   Description  : XshortDST Z0Gamma (special QCD + BE tuning) PYTHIA6156 generator  Cern Extended Short DST simulation  200 
*---
*   Comments     :  time stamp: Thu Jan 18 09:04:56 2001
*---
*
*
*  Comments: produced Jan 2001, on Linux farms at Cern.
*
*  300 files, containing 299940 events
*
FILE = /castor/cern.ch/delphi/MCprod/cern/p6156/v99_4/200/run10001.xsdst ! NEVT =   1000
FILE = /castor/cern.ch/delphi/MCprod/cern/p6156/v99_4/200/run10002.xsdst ! NEVT =   1000
FILE = /castor/cern.ch/delphi/MCprod/cern/p6156/v99_4/200/run10003.xsdst ! NEVT =    999
FILE = /castor/cern.ch/delphi/MCprod/cern/p6156/v99_4/200/run10004.xsdst ! NEVT =   1000
FILE = /castor/cern.ch/delphi/MCprod/cern/p6156/v99_4/200/run10005.xsdst ! NEVT =   1000
FILE = /castor/cern.ch/delphi/MCprod/cern/p6156/v99_4/200/run10006.xsdst ! NEVT =   1000
FILE = /castor/cern.ch/delphi/MCprod/cern/p6156/v99_4/200/run10007.xsdst ! NEVT =   1000
FILE = /castor/cern.ch/delphi/MCprod/cern/p6156/v99_4/200/run10008.xsdst ! NEVT =   1000
FILE = /castor/cern.ch/delphi/MCprod/cern/p6156/v99_4/200/run10009.xsdst ! NEVT =   1000
FILE = /castor/cern.ch/delphi/MCprod/cern/p6156/v99_4/200/run10010.xsdst ! NEVT =   1000
FILE = /castor/cern.ch/delphi/MCprod/cern/p6156/v99_4/200/run10011.xsdst ! NEVT =   1000
FILE = /castor/cern.ch/delphi/MCprod/cern/p6156/v99_4/200/run10012.xsdst ! NEVT =   1000
FILE = /castor/cern.ch/delphi/MCprod/cern/p6156/v99_4/200/run10013.xsdst ! NEVT =   1000
FILE = /castor/cern.ch/delphi/MCprod/cern/p6156/v99_4/200/run10014.xsdst ! NEVT =   1000
FILE = /castor/cern.ch/delphi/MCprod/cern/p6156/v99_4/200/run10015.xsdst ! NEVT =   1000
FILE = /castor/cern.ch/delphi/MCprod/cern/p6156/v99_4/200/run10016.xsdst ! NEVT =   1000
FILE = /castor/cern.ch/delphi/MCprod/cern/p6156/v99_4/200/run10017.xsdst ! NEVT =   1000
FILE = /castor/cern.ch/delphi/MCprod/cern/p6156/v99_4/200/run10018.xsdst ! NEVT =   1000
FILE = /castor/cern.ch/delphi/MCprod/cern/p6156/v99_4/200/run10019.xsdst ! NEVT =   1000
FILE = /castor/cern.ch/delphi/MCprod/cern/p6156/v99_4/200/run10020.xsdst ! NEVT =   1000
FILE = /castor/cern.ch/delphi/MCprod/cern/p6156/v99_4/200/run10021.xsdst ! NEVT =   1000
FILE = /castor/cern.ch/delphi/MCprod/cern/p6156/v99_4/200/run10022.xsdst ! NEVT =   1000
FILE = /castor/cern.ch/delphi/MCprod/cern/p6156/v99_4/200/run10023.xsdst ! NEVT =   1000
FILE = /castor/cern.ch/delphi/MCprod/cern/p6156/v99_4/200/run10024.xsdst ! NEVT =    998
FILE = /castor/cern.ch/delphi/MCprod/cern/p6156/v99_4/200/run10025.xsdst ! NEVT =   1000
FILE = /castor/cern.ch/delphi/MCprod/cern/p6156/v99_4/200/run10026.xsdst ! NEVT =   1000
FILE = /castor/cern.ch/delphi/MCprod/cern/p6156/v99_4/200/run10027.xsdst ! NEVT =   1000
FILE = /castor/cern.ch/delphi/MCprod/cern/p6156/v99_4/200/run10028.xsdst ! NEVT =   1000
FILE = /castor/cern.ch/delphi/MCprod/cern/p6156/v99_4/200/run10029.xsdst ! NEVT =   1000
FILE = /castor/cern.ch/delphi/MCprod/cern/p6156/v99_4/200/run10030.xsdst ! NEVT =   1000
FILE = /castor/cern.ch/delphi/MCprod/cern/p6156/v99_4/200/run10031.xsdst ! NEVT =   1000
FILE = /castor/cern.ch/delphi/MCprod/cern/p6156/v99_4/200/run10032.xsdst ! NEVT =   1000
FILE = /castor/cern.ch/delphi/MCprod/cern/p6156/v99_4/200/run10033.xsdst ! NEVT =   1000
FILE = /castor/cern.ch/delphi/MCprod/cern/p6156/v99_4/200/run10034.xsdst ! NEVT =   1000
FILE = /castor/cern.ch/delphi/MCprod/cern/p6156/v99_4/200/run10035.xsdst ! NEVT =    999
FILE = /castor/cern.ch/delphi/MCprod/cern/p6156/v99_4/200/run10036.xsdst ! NEVT =    999
FILE = /castor/cern.ch/delphi/MCprod/cern/p6156/v99_4/200/run10037.xsdst ! NEVT =   1000
FILE = /castor/cern.ch/delphi/MCprod/cern/p6156/v99_4/200/run10038.xsdst ! NEVT =   1000
FILE = /castor/cern.ch/delphi/MCprod/cern/p6156/v99_4/200/run10039.xsdst ! NEVT =   1000
FILE = /castor/cern.ch/delphi/MCprod/cern/p6156/v99_4/200/run10040.xsdst ! NEVT =   1000
FILE = /castor/cern.ch/delphi/MCprod/cern/p6156/v99_4/200/run10041.xsdst ! NEVT =    999
FILE = /castor/cern.ch/delphi/MCprod/cern/p6156/v99_4/200/run10042.xsdst ! NEVT =   1000
FILE = /castor/cern.ch/delphi/MCprod/cern/p6156/v99_4/200/run10043.xsdst ! NEVT =   1000
FILE = /castor/cern.ch/delphi/MCprod/cern/p6156/v99_4/200/run10044.xsdst ! NEVT =   1000
FILE = /castor/cern.ch/delphi/MCprod/cern/p6156/v99_4/200/run10045.xsdst ! NEVT =   1000
FILE = /castor/cern.ch/delphi/MCprod/cern/p6156/v99_4/200/run10046.xsdst ! NEVT =   1000
FILE = /castor/cern.ch/delphi/MCprod/cern/p6156/v99_4/200/run10047.xsdst ! NEVT =   1000
FILE = /castor/cern.ch/delphi/MCprod/cern/p6156/v99_4/200/run10048.xsdst ! NEVT =   1000
FILE = /castor/cern.ch/delphi/MCprod/cern/p6156/v99_4/200/run10049.xsdst ! NEVT =    999
FILE = /castor/cern.ch/delphi/MCprod/cern/p6156/v99_4/200/run10050.xsdst ! NEVT =   1000
FILE = /castor/cern.ch/delphi/MCprod/cern/p6156/v99_4/200/run10051.xsdst ! NEVT =   1000
FILE = /castor/cern.ch/delphi/MCprod/cern/p6156/v99_4/200/run10052.xsdst ! NEVT =   1000
FILE = /castor/cern.ch/delphi/MCprod/cern/p6156/v99_4/200/run10053.xsdst ! NEVT =   1000
FILE = /castor/cern.ch/delphi/MCprod/cern/p6156/v99_4/200/run10054.xsdst ! NEVT =    999
FILE = /castor/cern.ch/delphi/MCprod/cern/p6156/v99_4/200/run10055.xsdst ! NEVT =   1000
FILE = /castor/cern.ch/delphi/MCprod/cern/p6156/v99_4/200/run10056.xsdst ! NEVT =   1000
FILE = /castor/cern.ch/delphi/MCprod/cern/p6156/v99_4/200/run10057.xsdst ! NEVT =    999
FILE = /castor/cern.ch/delphi/MCprod/cern/p6156/v99_4/200/run10058.xsdst ! NEVT =    999
FILE = /castor/cern.ch/delphi/MCprod/cern/p6156/v99_4/200/run10059.xsdst ! NEVT =   1000
FILE = /castor/cern.ch/delphi/MCprod/cern/p6156/v99_4/200/run10060.xsdst ! NEVT =   1000
FILE = /castor/cern.ch/delphi/MCprod/cern/p6156/v99_4/200/run10061.xsdst ! NEVT =   1000
FILE = /castor/cern.ch/delphi/MCprod/cern/p6156/v99_4/200/run10062.xsdst ! NEVT =   1000
FILE = /castor/cern.ch/delphi/MCprod/cern/p6156/v99_4/200/run10063.xsdst ! NEVT =   1000
FILE = /castor/cern.ch/delphi/MCprod/cern/p6156/v99_4/200/run10064.xsdst ! NEVT =    999
FILE = /castor/cern.ch/delphi/MCprod/cern/p6156/v99_4/200/run10065.xsdst ! NEVT =   1000
FILE = /castor/cern.ch/delphi/MCprod/cern/p6156/v99_4/200/run10066.xsdst ! NEVT =   1000
FILE = /castor/cern.ch/delphi/MCprod/cern/p6156/v99_4/200/run10067.xsdst ! NEVT =   1000
FILE = /castor/cern.ch/delphi/MCprod/cern/p6156/v99_4/200/run10068.xsdst ! NEVT =    999
FILE = /castor/cern.ch/delphi/MCprod/cern/p6156/v99_4/200/run10069.xsdst ! NEVT =   1000
FILE = /castor/cern.ch/delphi/MCprod/cern/p6156/v99_4/200/run10070.xsdst ! NEVT =    999
FILE = /castor/cern.ch/delphi/MCprod/cern/p6156/v99_4/200/run10071.xsdst ! NEVT =   1000
FILE = /castor/cern.ch/delphi/MCprod/cern/p6156/v99_4/200/run10072.xsdst ! NEVT =    999
FILE = /castor/cern.ch/delphi/MCprod/cern/p6156/v99_4/200/run10073.xsdst ! NEVT =   1000
FILE = /castor/cern.ch/delphi/MCprod/cern/p6156/v99_4/200/run10074.xsdst ! NEVT =   1000
FILE = /castor/cern.ch/delphi/MCprod/cern/p6156/v99_4/200/run10075.xsdst ! NEVT =   1000
FILE = /castor/cern.ch/delphi/MCprod/cern/p6156/v99_4/200/run10076.xsdst ! NEVT =   1000
FILE = /castor/cern.ch/delphi/MCprod/cern/p6156/v99_4/200/run10077.xsdst ! NEVT =    999
FILE = /castor/cern.ch/delphi/MCprod/cern/p6156/v99_4/200/run10078.xsdst ! NEVT =   1000
FILE = /castor/cern.ch/delphi/MCprod/cern/p6156/v99_4/200/run10079.xsdst ! NEVT =    999
FILE = /castor/cern.ch/delphi/MCprod/cern/p6156/v99_4/200/run10080.xsdst ! NEVT =   1000
FILE = /castor/cern.ch/delphi/MCprod/cern/p6156/v99_4/200/run10081.xsdst ! NEVT =   1000
FILE = /castor/cern.ch/delphi/MCprod/cern/p6156/v99_4/200/run10082.xsdst ! NEVT =   1000
FILE = /castor/cern.ch/delphi/MCprod/cern/p6156/v99_4/200/run10083.xsdst ! NEVT =   1000
FILE = /castor/cern.ch/delphi/MCprod/cern/p6156/v99_4/200/run10084.xsdst ! NEVT =   1000
FILE = /castor/cern.ch/delphi/MCprod/cern/p6156/v99_4/200/run10085.xsdst ! NEVT =    999
FILE = /castor/cern.ch/delphi/MCprod/cern/p6156/v99_4/200/run10086.xsdst ! NEVT =   1000
FILE = /castor/cern.ch/delphi/MCprod/cern/p6156/v99_4/200/run10087.xsdst ! NEVT =   1000
FILE = /castor/cern.ch/delphi/MCprod/cern/p6156/v99_4/200/run10088.xsdst ! NEVT =   1000
FILE = /castor/cern.ch/delphi/MCprod/cern/p6156/v99_4/200/run10089.xsdst ! NEVT =   1000
FILE = /castor/cern.ch/delphi/MCprod/cern/p6156/v99_4/200/run10090.xsdst ! NEVT =   1000
FILE = /castor/cern.ch/delphi/MCprod/cern/p6156/v99_4/200/run10091.xsdst ! NEVT =   1000
FILE = /castor/cern.ch/delphi/MCprod/cern/p6156/v99_4/200/run10092.xsdst ! NEVT =   1000
FILE = /castor/cern.ch/delphi/MCprod/cern/p6156/v99_4/200/run10093.xsdst ! NEVT =   1000
FILE = /castor/cern.ch/delphi/MCprod/cern/p6156/v99_4/200/run10094.xsdst ! NEVT =    999
FILE = /castor/cern.ch/delphi/MCprod/cern/p6156/v99_4/200/run10095.xsdst ! NEVT =   1000
FILE = /castor/cern.ch/delphi/MCprod/cern/p6156/v99_4/200/run10096.xsdst ! NEVT =    999
FILE = /castor/cern.ch/delphi/MCprod/cern/p6156/v99_4/200/run10097.xsdst ! NEVT =   1000
FILE = /castor/cern.ch/delphi/MCprod/cern/p6156/v99_4/200/run10098.xsdst ! NEVT =   1000
FILE = /castor/cern.ch/delphi/MCprod/cern/p6156/v99_4/200/run10099.xsdst ! NEVT =   1000
FILE = /castor/cern.ch/delphi/MCprod/cern/p6156/v99_4/200/run10100.xsdst ! NEVT =   1000
FILE = /castor/cern.ch/delphi/MCprod/cern/p6156/v99_4/200/run10101.xsdst ! NEVT =   1000
FILE = /castor/cern.ch/delphi/MCprod/cern/p6156/v99_4/200/run10102.xsdst ! NEVT =   1000
FILE = /castor/cern.ch/delphi/MCprod/cern/p6156/v99_4/200/run10103.xsdst ! NEVT =   1000
FILE = /castor/cern.ch/delphi/MCprod/cern/p6156/v99_4/200/run10104.xsdst ! NEVT =   1000
FILE = /castor/cern.ch/delphi/MCprod/cern/p6156/v99_4/200/run10105.xsdst ! NEVT =   1000
FILE = /castor/cern.ch/delphi/MCprod/cern/p6156/v99_4/200/run10106.xsdst ! NEVT =    999
FILE = /castor/cern.ch/delphi/MCprod/cern/p6156/v99_4/200/run10107.xsdst ! NEVT =   1000
FILE = /castor/cern.ch/delphi/MCprod/cern/p6156/v99_4/200/run10108.xsdst ! NEVT =   1000
FILE = /castor/cern.ch/delphi/MCprod/cern/p6156/v99_4/200/run10109.xsdst ! NEVT =   1000
FILE = /castor/cern.ch/delphi/MCprod/cern/p6156/v99_4/200/run10110.xsdst ! NEVT =    999
FILE = /castor/cern.ch/delphi/MCprod/cern/p6156/v99_4/200/run10111.xsdst ! NEVT =   1000
FILE = /castor/cern.ch/delphi/MCprod/cern/p6156/v99_4/200/run10112.xsdst ! NEVT =   1000
FILE = /castor/cern.ch/delphi/MCprod/cern/p6156/v99_4/200/run10113.xsdst ! NEVT =   1000
FILE = /castor/cern.ch/delphi/MCprod/cern/p6156/v99_4/200/run10114.xsdst ! NEVT =   1000
FILE = /castor/cern.ch/delphi/MCprod/cern/p6156/v99_4/200/run10115.xsdst ! NEVT =    998
FILE = /castor/cern.ch/delphi/MCprod/cern/p6156/v99_4/200/run10116.xsdst ! NEVT =   1000
FILE = /castor/cern.ch/delphi/MCprod/cern/p6156/v99_4/200/run10117.xsdst ! NEVT =   1000
FILE = /castor/cern.ch/delphi/MCprod/cern/p6156/v99_4/200/run10118.xsdst ! NEVT =   1000
FILE = /castor/cern.ch/delphi/MCprod/cern/p6156/v99_4/200/run10119.xsdst ! NEVT =   1000
FILE = /castor/cern.ch/delphi/MCprod/cern/p6156/v99_4/200/run10120.xsdst ! NEVT =   1000
FILE = /castor/cern.ch/delphi/MCprod/cern/p6156/v99_4/200/run10121.xsdst ! NEVT =   1000
FILE = /castor/cern.ch/delphi/MCprod/cern/p6156/v99_4/200/run10122.xsdst ! NEVT =   1000
FILE = /castor/cern.ch/delphi/MCprod/cern/p6156/v99_4/200/run10123.xsdst ! NEVT =    999
FILE = /castor/cern.ch/delphi/MCprod/cern/p6156/v99_4/200/run10124.xsdst ! NEVT =   1000
FILE = /castor/cern.ch/delphi/MCprod/cern/p6156/v99_4/200/run10125.xsdst ! NEVT =    999
FILE = /castor/cern.ch/delphi/MCprod/cern/p6156/v99_4/200/run10126.xsdst ! NEVT =    999
FILE = /castor/cern.ch/delphi/MCprod/cern/p6156/v99_4/200/run10127.xsdst ! NEVT =   1000
FILE = /castor/cern.ch/delphi/MCprod/cern/p6156/v99_4/200/run10128.xsdst ! NEVT =   1000
FILE = /castor/cern.ch/delphi/MCprod/cern/p6156/v99_4/200/run10129.xsdst ! NEVT =   1000
FILE = /castor/cern.ch/delphi/MCprod/cern/p6156/v99_4/200/run10130.xsdst ! NEVT =   1000
FILE = /castor/cern.ch/delphi/MCprod/cern/p6156/v99_4/200/run10131.xsdst ! NEVT =   1000
FILE = /castor/cern.ch/delphi/MCprod/cern/p6156/v99_4/200/run10132.xsdst ! NEVT =   1000
FILE = /castor/cern.ch/delphi/MCprod/cern/p6156/v99_4/200/run10133.xsdst ! NEVT =   1000
FILE = /castor/cern.ch/delphi/MCprod/cern/p6156/v99_4/200/run10134.xsdst ! NEVT =   1000
FILE = /castor/cern.ch/delphi/MCprod/cern/p6156/v99_4/200/run10135.xsdst ! NEVT =    999
FILE = /castor/cern.ch/delphi/MCprod/cern/p6156/v99_4/200/run10136.xsdst ! NEVT =    999
FILE = /castor/cern.ch/delphi/MCprod/cern/p6156/v99_4/200/run10137.xsdst ! NEVT =   1000
FILE = /castor/cern.ch/delphi/MCprod/cern/p6156/v99_4/200/run10138.xsdst ! NEVT =   1000
FILE = /castor/cern.ch/delphi/MCprod/cern/p6156/v99_4/200/run10139.xsdst ! NEVT =   1000
FILE = /castor/cern.ch/delphi/MCprod/cern/p6156/v99_4/200/run10140.xsdst ! NEVT =   1000
FILE = /castor/cern.ch/delphi/MCprod/cern/p6156/v99_4/200/run10141.xsdst ! NEVT =   1000
FILE = /castor/cern.ch/delphi/MCprod/cern/p6156/v99_4/200/run10142.xsdst ! NEVT =    998
FILE = /castor/cern.ch/delphi/MCprod/cern/p6156/v99_4/200/run10143.xsdst ! NEVT =   1000
FILE = /castor/cern.ch/delphi/MCprod/cern/p6156/v99_4/200/run10144.xsdst ! NEVT =   1000
FILE = /castor/cern.ch/delphi/MCprod/cern/p6156/v99_4/200/run10145.xsdst ! NEVT =   1000
FILE = /castor/cern.ch/delphi/MCprod/cern/p6156/v99_4/200/run10146.xsdst ! NEVT =    999
FILE = /castor/cern.ch/delphi/MCprod/cern/p6156/v99_4/200/run10147.xsdst ! NEVT =   1000
FILE = /castor/cern.ch/delphi/MCprod/cern/p6156/v99_4/200/run10148.xsdst ! NEVT =   1000
FILE = /castor/cern.ch/delphi/MCprod/cern/p6156/v99_4/200/run10149.xsdst ! NEVT =   1000
FILE = /castor/cern.ch/delphi/MCprod/cern/p6156/v99_4/200/run10150.xsdst ! NEVT =   1000
FILE = /castor/cern.ch/delphi/MCprod/cern/p6156/v99_4/200/run10151.xsdst ! NEVT =   1000
FILE = /castor/cern.ch/delphi/MCprod/cern/p6156/v99_4/200/run10152.xsdst ! NEVT =   1000
FILE = /castor/cern.ch/delphi/MCprod/cern/p6156/v99_4/200/run10153.xsdst ! NEVT =   1000
FILE = /castor/cern.ch/delphi/MCprod/cern/p6156/v99_4/200/run10154.xsdst ! NEVT =   1000
FILE = /castor/cern.ch/delphi/MCprod/cern/p6156/v99_4/200/run10155.xsdst ! NEVT =   1000
FILE = /castor/cern.ch/delphi/MCprod/cern/p6156/v99_4/200/run10156.xsdst ! NEVT =    999
FILE = /castor/cern.ch/delphi/MCprod/cern/p6156/v99_4/200/run10157.xsdst ! NEVT =   1000
FILE = /castor/cern.ch/delphi/MCprod/cern/p6156/v99_4/200/run10158.xsdst ! NEVT =    999
FILE = /castor/cern.ch/delphi/MCprod/cern/p6156/v99_4/200/run10159.xsdst ! NEVT =   1000
FILE = /castor/cern.ch/delphi/MCprod/cern/p6156/v99_4/200/run10160.xsdst ! NEVT =   1000
FILE = /castor/cern.ch/delphi/MCprod/cern/p6156/v99_4/200/run10161.xsdst ! NEVT =    999
FILE = /castor/cern.ch/delphi/MCprod/cern/p6156/v99_4/200/run10162.xsdst ! NEVT =   1000
FILE = /castor/cern.ch/delphi/MCprod/cern/p6156/v99_4/200/run10163.xsdst ! NEVT =   1000
FILE = /castor/cern.ch/delphi/MCprod/cern/p6156/v99_4/200/run10164.xsdst ! NEVT =   1000
FILE = /castor/cern.ch/delphi/MCprod/cern/p6156/v99_4/200/run10165.xsdst ! NEVT =   1000
FILE = /castor/cern.ch/delphi/MCprod/cern/p6156/v99_4/200/run10166.xsdst ! NEVT =   1000
FILE = /castor/cern.ch/delphi/MCprod/cern/p6156/v99_4/200/run10167.xsdst ! NEVT =    999
FILE = /castor/cern.ch/delphi/MCprod/cern/p6156/v99_4/200/run10168.xsdst ! NEVT =   1000
FILE = /castor/cern.ch/delphi/MCprod/cern/p6156/v99_4/200/run10169.xsdst ! NEVT =   1000
FILE = /castor/cern.ch/delphi/MCprod/cern/p6156/v99_4/200/run10170.xsdst ! NEVT =    999
FILE = /castor/cern.ch/delphi/MCprod/cern/p6156/v99_4/200/run10171.xsdst ! NEVT =   1000
FILE = /castor/cern.ch/delphi/MCprod/cern/p6156/v99_4/200/run10172.xsdst ! NEVT =   1000
FILE = /castor/cern.ch/delphi/MCprod/cern/p6156/v99_4/200/run10173.xsdst ! NEVT =   1000
FILE = /castor/cern.ch/delphi/MCprod/cern/p6156/v99_4/200/run10174.xsdst ! NEVT =   1000
FILE = /castor/cern.ch/delphi/MCprod/cern/p6156/v99_4/200/run10175.xsdst ! NEVT =   1000
FILE = /castor/cern.ch/delphi/MCprod/cern/p6156/v99_4/200/run10176.xsdst ! NEVT =   1000
FILE = /castor/cern.ch/delphi/MCprod/cern/p6156/v99_4/200/run10177.xsdst ! NEVT =    999
FILE = /castor/cern.ch/delphi/MCprod/cern/p6156/v99_4/200/run10178.xsdst ! NEVT =    999
FILE = /castor/cern.ch/delphi/MCprod/cern/p6156/v99_4/200/run10179.xsdst ! NEVT =   1000
FILE = /castor/cern.ch/delphi/MCprod/cern/p6156/v99_4/200/run10180.xsdst ! NEVT =   1000
FILE = /castor/cern.ch/delphi/MCprod/cern/p6156/v99_4/200/run10181.xsdst ! NEVT =   1000
FILE = /castor/cern.ch/delphi/MCprod/cern/p6156/v99_4/200/run10182.xsdst ! NEVT =    999
FILE = /castor/cern.ch/delphi/MCprod/cern/p6156/v99_4/200/run10183.xsdst ! NEVT =   1000
FILE = /castor/cern.ch/delphi/MCprod/cern/p6156/v99_4/200/run10184.xsdst ! NEVT =   1000
FILE = /castor/cern.ch/delphi/MCprod/cern/p6156/v99_4/200/run10185.xsdst ! NEVT =   1000
FILE = /castor/cern.ch/delphi/MCprod/cern/p6156/v99_4/200/run10186.xsdst ! NEVT =   1000
FILE = /castor/cern.ch/delphi/MCprod/cern/p6156/v99_4/200/run10187.xsdst ! NEVT =   1000
FILE = /castor/cern.ch/delphi/MCprod/cern/p6156/v99_4/200/run10188.xsdst ! NEVT =   1000
FILE = /castor/cern.ch/delphi/MCprod/cern/p6156/v99_4/200/run10189.xsdst ! NEVT =   1000
FILE = /castor/cern.ch/delphi/MCprod/cern/p6156/v99_4/200/run10190.xsdst ! NEVT =   1000
FILE = /castor/cern.ch/delphi/MCprod/cern/p6156/v99_4/200/run10191.xsdst ! NEVT =    999
FILE = /castor/cern.ch/delphi/MCprod/cern/p6156/v99_4/200/run10192.xsdst ! NEVT =   1000
FILE = /castor/cern.ch/delphi/MCprod/cern/p6156/v99_4/200/run10193.xsdst ! NEVT =    999
FILE = /castor/cern.ch/delphi/MCprod/cern/p6156/v99_4/200/run10194.xsdst ! NEVT =   1000
FILE = /castor/cern.ch/delphi/MCprod/cern/p6156/v99_4/200/run10195.xsdst ! NEVT =   1000
FILE = /castor/cern.ch/delphi/MCprod/cern/p6156/v99_4/200/run10196.xsdst ! NEVT =    999
FILE = /castor/cern.ch/delphi/MCprod/cern/p6156/v99_4/200/run10197.xsdst ! NEVT =    999
FILE = /castor/cern.ch/delphi/MCprod/cern/p6156/v99_4/200/run10198.xsdst ! NEVT =   1000
FILE = /castor/cern.ch/delphi/MCprod/cern/p6156/v99_4/200/run10199.xsdst ! NEVT =   1000
FILE = /castor/cern.ch/delphi/MCprod/cern/p6156/v99_4/200/run10200.xsdst ! NEVT =   1000
FILE = /castor/cern.ch/delphi/MCprod/cern/p6156/v99_4/200/run10201.xsdst ! NEVT =   1000
FILE = /castor/cern.ch/delphi/MCprod/cern/p6156/v99_4/200/run10202.xsdst ! NEVT =   1000
FILE = /castor/cern.ch/delphi/MCprod/cern/p6156/v99_4/200/run10203.xsdst ! NEVT =   1000
FILE = /castor/cern.ch/delphi/MCprod/cern/p6156/v99_4/200/run10204.xsdst ! NEVT =   1000
FILE = /castor/cern.ch/delphi/MCprod/cern/p6156/v99_4/200/run10205.xsdst ! NEVT =   1000
FILE = /castor/cern.ch/delphi/MCprod/cern/p6156/v99_4/200/run10206.xsdst ! NEVT =    999
FILE = /castor/cern.ch/delphi/MCprod/cern/p6156/v99_4/200/run10207.xsdst ! NEVT =   1000
FILE = /castor/cern.ch/delphi/MCprod/cern/p6156/v99_4/200/run10208.xsdst ! NEVT =   1000
FILE = /castor/cern.ch/delphi/MCprod/cern/p6156/v99_4/200/run10209.xsdst ! NEVT =   1000
FILE = /castor/cern.ch/delphi/MCprod/cern/p6156/v99_4/200/run10210.xsdst ! NEVT =    999
FILE = /castor/cern.ch/delphi/MCprod/cern/p6156/v99_4/200/run10211.xsdst ! NEVT =   1000
FILE = /castor/cern.ch/delphi/MCprod/cern/p6156/v99_4/200/run10212.xsdst ! NEVT =   1000
FILE = /castor/cern.ch/delphi/MCprod/cern/p6156/v99_4/200/run10213.xsdst ! NEVT =   1000
FILE = /castor/cern.ch/delphi/MCprod/cern/p6156/v99_4/200/run10214.xsdst ! NEVT =   1000
FILE = /castor/cern.ch/delphi/MCprod/cern/p6156/v99_4/200/run10215.xsdst ! NEVT =   1000
FILE = /castor/cern.ch/delphi/MCprod/cern/p6156/v99_4/200/run10216.xsdst ! NEVT =   1000
FILE = /castor/cern.ch/delphi/MCprod/cern/p6156/v99_4/200/run10217.xsdst ! NEVT =   1000
FILE = /castor/cern.ch/delphi/MCprod/cern/p6156/v99_4/200/run10218.xsdst ! NEVT =   1000
FILE = /castor/cern.ch/delphi/MCprod/cern/p6156/v99_4/200/run10219.xsdst ! NEVT =   1000
FILE = /castor/cern.ch/delphi/MCprod/cern/p6156/v99_4/200/run10220.xsdst ! NEVT =   1000
FILE = /castor/cern.ch/delphi/MCprod/cern/p6156/v99_4/200/run10221.xsdst ! NEVT =   1000
FILE = /castor/cern.ch/delphi/MCprod/cern/p6156/v99_4/200/run10222.xsdst ! NEVT =   1000
FILE = /castor/cern.ch/delphi/MCprod/cern/p6156/v99_4/200/run10223.xsdst ! NEVT =   1000
FILE = /castor/cern.ch/delphi/MCprod/cern/p6156/v99_4/200/run10224.xsdst ! NEVT =   1000
FILE = /castor/cern.ch/delphi/MCprod/cern/p6156/v99_4/200/run10225.xsdst ! NEVT =   1000
FILE = /castor/cern.ch/delphi/MCprod/cern/p6156/v99_4/200/run10226.xsdst ! NEVT =    999
FILE = /castor/cern.ch/delphi/MCprod/cern/p6156/v99_4/200/run10227.xsdst ! NEVT =   1000
FILE = /castor/cern.ch/delphi/MCprod/cern/p6156/v99_4/200/run10228.xsdst ! NEVT =   1000
FILE = /castor/cern.ch/delphi/MCprod/cern/p6156/v99_4/200/run10229.xsdst ! NEVT =   1000
FILE = /castor/cern.ch/delphi/MCprod/cern/p6156/v99_4/200/run10230.xsdst ! NEVT =   1000
FILE = /castor/cern.ch/delphi/MCprod/cern/p6156/v99_4/200/run10231.xsdst ! NEVT =   1000
FILE = /castor/cern.ch/delphi/MCprod/cern/p6156/v99_4/200/run10232.xsdst ! NEVT =   1000
FILE = /castor/cern.ch/delphi/MCprod/cern/p6156/v99_4/200/run10233.xsdst ! NEVT =    999
FILE = /castor/cern.ch/delphi/MCprod/cern/p6156/v99_4/200/run10234.xsdst ! NEVT =    999
FILE = /castor/cern.ch/delphi/MCprod/cern/p6156/v99_4/200/run10235.xsdst ! NEVT =   1000
FILE = /castor/cern.ch/delphi/MCprod/cern/p6156/v99_4/200/run10236.xsdst ! NEVT =   1000
FILE = /castor/cern.ch/delphi/MCprod/cern/p6156/v99_4/200/run10237.xsdst ! NEVT =   1000
FILE = /castor/cern.ch/delphi/MCprod/cern/p6156/v99_4/200/run10238.xsdst ! NEVT =   1000
FILE = /castor/cern.ch/delphi/MCprod/cern/p6156/v99_4/200/run10239.xsdst ! NEVT =   1000
FILE = /castor/cern.ch/delphi/MCprod/cern/p6156/v99_4/200/run10240.xsdst ! NEVT =   1000
FILE = /castor/cern.ch/delphi/MCprod/cern/p6156/v99_4/200/run10241.xsdst ! NEVT =   1000
FILE = /castor/cern.ch/delphi/MCprod/cern/p6156/v99_4/200/run10242.xsdst ! NEVT =    999
FILE = /castor/cern.ch/delphi/MCprod/cern/p6156/v99_4/200/run10243.xsdst ! NEVT =   1000
FILE = /castor/cern.ch/delphi/MCprod/cern/p6156/v99_4/200/run10244.xsdst ! NEVT =   1000
FILE = /castor/cern.ch/delphi/MCprod/cern/p6156/v99_4/200/run10245.xsdst ! NEVT =   1000
FILE = /castor/cern.ch/delphi/MCprod/cern/p6156/v99_4/200/run10246.xsdst ! NEVT =   1000
FILE = /castor/cern.ch/delphi/MCprod/cern/p6156/v99_4/200/run10247.xsdst ! NEVT =    999
FILE = /castor/cern.ch/delphi/MCprod/cern/p6156/v99_4/200/run10248.xsdst ! NEVT =    999
FILE = /castor/cern.ch/delphi/MCprod/cern/p6156/v99_4/200/run10249.xsdst ! NEVT =   1000
FILE = /castor/cern.ch/delphi/MCprod/cern/p6156/v99_4/200/run10250.xsdst ! NEVT =    999
FILE = /castor/cern.ch/delphi/MCprod/cern/p6156/v99_4/200/run10251.xsdst ! NEVT =   1000
FILE = /castor/cern.ch/delphi/MCprod/cern/p6156/v99_4/200/run10252.xsdst ! NEVT =   1000
FILE = /castor/cern.ch/delphi/MCprod/cern/p6156/v99_4/200/run10253.xsdst ! NEVT =   1000
FILE = /castor/cern.ch/delphi/MCprod/cern/p6156/v99_4/200/run10254.xsdst ! NEVT =   1000
FILE = /castor/cern.ch/delphi/MCprod/cern/p6156/v99_4/200/run10255.xsdst ! NEVT =   1000
FILE = /castor/cern.ch/delphi/MCprod/cern/p6156/v99_4/200/run10256.xsdst ! NEVT =   1000
FILE = /castor/cern.ch/delphi/MCprod/cern/p6156/v99_4/200/run10257.xsdst ! NEVT =   1000
FILE = /castor/cern.ch/delphi/MCprod/cern/p6156/v99_4/200/run10258.xsdst ! NEVT =   1000
FILE = /castor/cern.ch/delphi/MCprod/cern/p6156/v99_4/200/run10259.xsdst ! NEVT =    998
FILE = /castor/cern.ch/delphi/MCprod/cern/p6156/v99_4/200/run10260.xsdst ! NEVT =   1000
FILE = /castor/cern.ch/delphi/MCprod/cern/p6156/v99_4/200/run10261.xsdst ! NEVT =   1000
FILE = /castor/cern.ch/delphi/MCprod/cern/p6156/v99_4/200/run10262.xsdst ! NEVT =   1000
FILE = /castor/cern.ch/delphi/MCprod/cern/p6156/v99_4/200/run10263.xsdst ! NEVT =   1000
FILE = /castor/cern.ch/delphi/MCprod/cern/p6156/v99_4/200/run10264.xsdst ! NEVT =   1000
FILE = /castor/cern.ch/delphi/MCprod/cern/p6156/v99_4/200/run10265.xsdst ! NEVT =   1000
FILE = /castor/cern.ch/delphi/MCprod/cern/p6156/v99_4/200/run10266.xsdst ! NEVT =   1000
FILE = /castor/cern.ch/delphi/MCprod/cern/p6156/v99_4/200/run10267.xsdst ! NEVT =   1000
FILE = /castor/cern.ch/delphi/MCprod/cern/p6156/v99_4/200/run10268.xsdst ! NEVT =   1000
FILE = /castor/cern.ch/delphi/MCprod/cern/p6156/v99_4/200/run10269.xsdst ! NEVT =   1000
FILE = /castor/cern.ch/delphi/MCprod/cern/p6156/v99_4/200/run10270.xsdst ! NEVT =    998
FILE = /castor/cern.ch/delphi/MCprod/cern/p6156/v99_4/200/run10271.xsdst ! NEVT =   1000
FILE = /castor/cern.ch/delphi/MCprod/cern/p6156/v99_4/200/run10272.xsdst ! NEVT =    999
FILE = /castor/cern.ch/delphi/MCprod/cern/p6156/v99_4/200/run10273.xsdst ! NEVT =   1000
FILE = /castor/cern.ch/delphi/MCprod/cern/p6156/v99_4/200/run10274.xsdst ! NEVT =   1000
FILE = /castor/cern.ch/delphi/MCprod/cern/p6156/v99_4/200/run10275.xsdst ! NEVT =   1000
FILE = /castor/cern.ch/delphi/MCprod/cern/p6156/v99_4/200/run10276.xsdst ! NEVT =   1000
FILE = /castor/cern.ch/delphi/MCprod/cern/p6156/v99_4/200/run10277.xsdst ! NEVT =   1000
FILE = /castor/cern.ch/delphi/MCprod/cern/p6156/v99_4/200/run10278.xsdst ! NEVT =    999
FILE = /castor/cern.ch/delphi/MCprod/cern/p6156/v99_4/200/run10279.xsdst ! NEVT =   1000
FILE = /castor/cern.ch/delphi/MCprod/cern/p6156/v99_4/200/run10280.xsdst ! NEVT =   1000
FILE = /castor/cern.ch/delphi/MCprod/cern/p6156/v99_4/200/run10281.xsdst ! NEVT =    999
FILE = /castor/cern.ch/delphi/MCprod/cern/p6156/v99_4/200/run10282.xsdst ! NEVT =   1000
FILE = /castor/cern.ch/delphi/MCprod/cern/p6156/v99_4/200/run10283.xsdst ! NEVT =   1000
FILE = /castor/cern.ch/delphi/MCprod/cern/p6156/v99_4/200/run10284.xsdst ! NEVT =   1000
FILE = /castor/cern.ch/delphi/MCprod/cern/p6156/v99_4/200/run10285.xsdst ! NEVT =   1000
FILE = /castor/cern.ch/delphi/MCprod/cern/p6156/v99_4/200/run10286.xsdst ! NEVT =   1000
FILE = /castor/cern.ch/delphi/MCprod/cern/p6156/v99_4/200/run10287.xsdst ! NEVT =   1000
FILE = /castor/cern.ch/delphi/MCprod/cern/p6156/v99_4/200/run10288.xsdst ! NEVT =    999
FILE = /castor/cern.ch/delphi/MCprod/cern/p6156/v99_4/200/run10289.xsdst ! NEVT =   1000
FILE = /castor/cern.ch/delphi/MCprod/cern/p6156/v99_4/200/run10290.xsdst ! NEVT =   1000
FILE = /castor/cern.ch/delphi/MCprod/cern/p6156/v99_4/200/run10291.xsdst ! NEVT =   1000
FILE = /castor/cern.ch/delphi/MCprod/cern/p6156/v99_4/200/run10292.xsdst ! NEVT =   1000
FILE = /castor/cern.ch/delphi/MCprod/cern/p6156/v99_4/200/run10293.xsdst ! NEVT =   1000
FILE = /castor/cern.ch/delphi/MCprod/cern/p6156/v99_4/200/run10294.xsdst ! NEVT =   1000
FILE = /castor/cern.ch/delphi/MCprod/cern/p6156/v99_4/200/run10295.xsdst ! NEVT =   1000
FILE = /castor/cern.ch/delphi/MCprod/cern/p6156/v99_4/200/run10296.xsdst ! NEVT =   1000
FILE = /castor/cern.ch/delphi/MCprod/cern/p6156/v99_4/200/run10297.xsdst ! NEVT =   1000
FILE = /castor/cern.ch/delphi/MCprod/cern/p6156/v99_4/200/run10298.xsdst ! NEVT =   1000
FILE = /castor/cern.ch/delphi/MCprod/cern/p6156/v99_4/200/run10299.xsdst ! NEVT =   1000
FILE = /castor/cern.ch/delphi/MCprod/cern/p6156/v99_4/200/run10300.xsdst ! NEVT =   1000
