*
*   Nickname     : xs_hzha03pyth6156hattbb_e206.5_m70_m85_ca0_1l_e1
*   Generic Name : //CERN/DELPHI/P02_SIMD/XSDST/HZHA03PYTH6156HATTBB/E206.5/CERN/SUMT/C001-5
*   Description  :  Extended Short DST simulation a0_e1 done at ecms=206.5 , CERN
*---
*   Comments     : in total 2499 events in 5 files time stamp: Sat Oct  6 17:44:11 2001
*---
*
*
*
*
*
FILE = /castor/cern.ch/delphi/MCprod/cern/hzha03pyth6156/va0e/206.5/hzha03pyth6156_hattbb_206.5_70_85_12421.xsdst ! RUN = 12421 ! NEVT = 500
FILE = /castor/cern.ch/delphi/MCprod/cern/hzha03pyth6156/va0e/206.5/hzha03pyth6156_hattbb_206.5_70_85_12422.xsdst ! RUN = 12422 ! NEVT = 500
FILE = /castor/cern.ch/delphi/MCprod/cern/hzha03pyth6156/va0e/206.5/hzha03pyth6156_hattbb_206.5_70_85_12423.xsdst ! RUN = 12423 ! NEVT = 500
FILE = /castor/cern.ch/delphi/MCprod/cern/hzha03pyth6156/va0e/206.5/hzha03pyth6156_hattbb_206.5_70_85_12424.xsdst ! RUN = 12424 ! NEVT = 499
FILE = /castor/cern.ch/delphi/MCprod/cern/hzha03pyth6156/va0e/206.5/hzha03pyth6156_hattbb_206.5_70_85_12425.xsdst ! RUN = 12425 ! NEVT = 500
