*
*   Nickname     : xs_hzha03pyth6156habbtt_e206.5_m18_m18_ca0_1l_e1
*   Generic Name : //CERN/DELPHI/P02_SIMD/XSDST/HZHA03PYTH6156HABBTT/E206.5/CERN/SUMT/C001-5
*   Description  :  Extended Short DST simulation a0_e1 done at ecms=206.5 , CERN
*---
*   Comments     : in total 2498 events in 5 files time stamp: Sat Oct  6 00:30:04 2001
*---
*
*
*
*
*
FILE = /castor/cern.ch/delphi/MCprod/cern/hzha03pyth6156/va0e/206.5/hzha03pyth6156_habbtt_206.5_18_18_11111.xsdst ! RUN = 11111 ! NEVT = 499
FILE = /castor/cern.ch/delphi/MCprod/cern/hzha03pyth6156/va0e/206.5/hzha03pyth6156_habbtt_206.5_18_18_11112.xsdst ! RUN = 11112 ! NEVT = 500
FILE = /castor/cern.ch/delphi/MCprod/cern/hzha03pyth6156/va0e/206.5/hzha03pyth6156_habbtt_206.5_18_18_11113.xsdst ! RUN = 11113 ! NEVT = 500
FILE = /castor/cern.ch/delphi/MCprod/cern/hzha03pyth6156/va0e/206.5/hzha03pyth6156_habbtt_206.5_18_18_11114.xsdst ! RUN = 11114 ! NEVT = 500
FILE = /castor/cern.ch/delphi/MCprod/cern/hzha03pyth6156/va0e/206.5/hzha03pyth6156_habbtt_206.5_18_18_11115.xsdst ! RUN = 11115 ! NEVT = 499
