*
*   Nickname     : xs_hzha03pyth6156habbtt_e206.5_m85_m90_ca0_1l_e1
*   Generic Name : //CERN/DELPHI/P02_SIMD/XSDST/HZHA03PYTH6156HABBTT/E206.5/CERN/SUMT/C001-5
*   Description  :  Extended Short DST simulation a0_e1 done at ecms=206.5 , CERN
*---
*   Comments     : in total 2498 events in 5 files time stamp: Sat Oct  6 21:31:35 2001
*---
*
*
*
*
*
FILE = /castor/cern.ch/delphi/MCprod/cern/hzha03pyth6156/va0e/206.5/hzha03pyth6156_habbtt_206.5_85_90_11531.xsdst ! RUN = 11531 ! NEVT = 499
FILE = /castor/cern.ch/delphi/MCprod/cern/hzha03pyth6156/va0e/206.5/hzha03pyth6156_habbtt_206.5_85_90_11532.xsdst ! RUN = 11532 ! NEVT = 499
FILE = /castor/cern.ch/delphi/MCprod/cern/hzha03pyth6156/va0e/206.5/hzha03pyth6156_habbtt_206.5_85_90_11533.xsdst ! RUN = 11533 ! NEVT = 500
FILE = /castor/cern.ch/delphi/MCprod/cern/hzha03pyth6156/va0e/206.5/hzha03pyth6156_habbtt_206.5_85_90_11534.xsdst ! RUN = 11534 ! NEVT = 500
FILE = /castor/cern.ch/delphi/MCprod/cern/hzha03pyth6156/va0e/206.5/hzha03pyth6156_habbtt_206.5_85_90_11535.xsdst ! RUN = 11535 ! NEVT = 500
