*
*   Nickname     : xs_hzha03pyth6156hattbb_e203.7_m70_m110_ca0_1l_e1
*   Generic Name : //CERN/DELPHI/P02_SIMD/XSDST/HZHA03PYTH6156HATTBB/E203.7/CERN/SUMT/C001-5
*   Description  :  Extended Short DST simulation a0_e1 done at ecms=203.7 , CERN
*---
*   Comments     : in total 2497 events in 5 files time stamp: Thu Nov  8 13:15:55 2001
*---
*
*
*
*
*
FILE = /castor/cern.ch/delphi/MCprod/cern/hzha03pyth6156/va0e/203.7/hzha03pyth6156_hattbb_203.7_70_110_18421.xsdst ! RUN = 18421 ! NEVT = 500
FILE = /castor/cern.ch/delphi/MCprod/cern/hzha03pyth6156/va0e/203.7/hzha03pyth6156_hattbb_203.7_70_110_18422.xsdst ! RUN = 18422 ! NEVT = 499
FILE = /castor/cern.ch/delphi/MCprod/cern/hzha03pyth6156/va0e/203.7/hzha03pyth6156_hattbb_203.7_70_110_18423.xsdst ! RUN = 18423 ! NEVT = 499
FILE = /castor/cern.ch/delphi/MCprod/cern/hzha03pyth6156/va0e/203.7/hzha03pyth6156_hattbb_203.7_70_110_18424.xsdst ! RUN = 18424 ! NEVT = 499
FILE = /castor/cern.ch/delphi/MCprod/cern/hzha03pyth6156/va0e/203.7/hzha03pyth6156_hattbb_203.7_70_110_18425.xsdst ! RUN = 18425 ! NEVT = 500
