*   Nickname :     xs_hzha03pyth6156ha4t_e206.5_m50_m50_ca0_1l_e1
*   Generic Name : //CERN/DELPHI/P02_SIMD/XSDST/HZHA03PYTH6156HA4T/E206.5/CERN/SUMT/C001-2
*   Description :   Extended Short DST simulation a0e  done at ecm=206.5 GeV , CERN
*   Comments :     in total 2000 events in 2 files, time stamp: Tue Nov 12 4:16:37 2002
*
*
*
FILE = /castor/cern.ch/delphi/MCprod/cern/hzha03pyth6156/va0e/206.5/hzha03pyth6156_ha4t_206.5_50_50_5505.xsdst ! RUN = 5505 ! NEVT = 1000
FILE = /castor/cern.ch/delphi/MCprod/cern/hzha03pyth6156/va0e/206.5/hzha03pyth6156_ha4t_206.5_50_50_5506.xsdst ! RUN = 5506 ! NEVT = 1000
