*
*   Nickname     : xs_hzha03pyth6156habbtt_e206.5_m90_m100_ca0_1l_e1
*   Generic Name : //CERN/DELPHI/P02_SIMD/XSDST/HZHA03PYTH6156HABBTT/E206.5/CERN/SUMT/C001-5
*   Description  :  Extended Short DST simulation a0_e1 done at ecms=206.5 , CERN
*---
*   Comments     : in total 2498 events in 5 files time stamp: Sat Oct  6 23:26:58 2001
*---
*
*
*
*
*
FILE = /castor/cern.ch/delphi/MCprod/cern/hzha03pyth6156/va0e/206.5/hzha03pyth6156_habbtt_206.5_90_100_11571.xsdst ! RUN = 11571 ! NEVT = 500
FILE = /castor/cern.ch/delphi/MCprod/cern/hzha03pyth6156/va0e/206.5/hzha03pyth6156_habbtt_206.5_90_100_11572.xsdst ! RUN = 11572 ! NEVT = 500
FILE = /castor/cern.ch/delphi/MCprod/cern/hzha03pyth6156/va0e/206.5/hzha03pyth6156_habbtt_206.5_90_100_11573.xsdst ! RUN = 11573 ! NEVT = 500
FILE = /castor/cern.ch/delphi/MCprod/cern/hzha03pyth6156/va0e/206.5/hzha03pyth6156_habbtt_206.5_90_100_11574.xsdst ! RUN = 11574 ! NEVT = 499
FILE = /castor/cern.ch/delphi/MCprod/cern/hzha03pyth6156/va0e/206.5/hzha03pyth6156_habbtt_206.5_90_100_11575.xsdst ! RUN = 11575 ! NEVT = 499
