*
*   Nickname     : xs_hzha03pyth6156hattbb_e206.5_m18_m40_ca0_1l_e1
*   Generic Name : //CERN/DELPHI/P02_SIMD/XSDST/HZHA03PYTH6156HATTBB/E206.5/CERN/SUMT/C001-5
*   Description  :  Extended Short DST simulation a0_e1 done at ecms=206.5 , CERN
*---
*   Comments     : in total 2498 events in 5 files time stamp: Sat Oct  6 01:31:29 2001
*---
*
*
*
*
*
FILE = /castor/cern.ch/delphi/MCprod/cern/hzha03pyth6156/va0e/206.5/hzha03pyth6156_hattbb_206.5_18_40_12121.xsdst ! RUN = 12121 ! NEVT = 500
FILE = /castor/cern.ch/delphi/MCprod/cern/hzha03pyth6156/va0e/206.5/hzha03pyth6156_hattbb_206.5_18_40_12122.xsdst ! RUN = 12122 ! NEVT = 500
FILE = /castor/cern.ch/delphi/MCprod/cern/hzha03pyth6156/va0e/206.5/hzha03pyth6156_hattbb_206.5_18_40_12123.xsdst ! RUN = 12123 ! NEVT = 499
FILE = /castor/cern.ch/delphi/MCprod/cern/hzha03pyth6156/va0e/206.5/hzha03pyth6156_hattbb_206.5_18_40_12124.xsdst ! RUN = 12124 ! NEVT = 499
FILE = /castor/cern.ch/delphi/MCprod/cern/hzha03pyth6156/va0e/206.5/hzha03pyth6156_hattbb_206.5_18_40_12125.xsdst ! RUN = 12125 ! NEVT = 500
