*
*   Nickname     : xs_hzha03pyth6156hattbb_e206.5_m12_m150_ca0_1l_e1
*   Generic Name : //CERN/DELPHI/P02_SIMD/XSDST/HZHA03PYTH6156HATTBB/E206.5/CERN/SUMT/C001-5
*   Description  :  Extended Short DST simulation a0_e1 done at ecms=206.5 , CERN
*---
*   Comments     : in total 2494 events in 5 files time stamp: Sat Oct  6 01:31:57 2001
*---
*
*
*
*
*
FILE = /castor/cern.ch/delphi/MCprod/cern/hzha03pyth6156/va0e/206.5/hzha03pyth6156_hattbb_206.5_12_150_12071.xsdst ! RUN = 12071 ! NEVT = 499
FILE = /castor/cern.ch/delphi/MCprod/cern/hzha03pyth6156/va0e/206.5/hzha03pyth6156_hattbb_206.5_12_150_12072.xsdst ! RUN = 12072 ! NEVT = 499
FILE = /castor/cern.ch/delphi/MCprod/cern/hzha03pyth6156/va0e/206.5/hzha03pyth6156_hattbb_206.5_12_150_12073.xsdst ! RUN = 12073 ! NEVT = 499
FILE = /castor/cern.ch/delphi/MCprod/cern/hzha03pyth6156/va0e/206.5/hzha03pyth6156_hattbb_206.5_12_150_12074.xsdst ! RUN = 12074 ! NEVT = 499
FILE = /castor/cern.ch/delphi/MCprod/cern/hzha03pyth6156/va0e/206.5/hzha03pyth6156_hattbb_206.5_12_150_12075.xsdst ! RUN = 12075 ! NEVT = 498
