*
*   Nickname     : xs_hzha03pyth6156habbtt_e206.5_m60_m60_ca0_1l_e1
*   Generic Name : //CERN/DELPHI/P02_SIMD/XSDST/HZHA03PYTH6156HABBTT/E206.5/CERN/SUMT/C001-5
*   Description  :  Extended Short DST simulation a0_e1 done at ecms=206.5 , CERN
*---
*   Comments     : in total 2499 events in 5 files time stamp: Sat Oct  6 14:34:49 2001
*---
*
*
*
*
*
FILE = /castor/cern.ch/delphi/MCprod/cern/hzha03pyth6156/va0e/206.5/hzha03pyth6156_habbtt_206.5_60_60_11351.xsdst ! RUN = 11351 ! NEVT = 499
FILE = /castor/cern.ch/delphi/MCprod/cern/hzha03pyth6156/va0e/206.5/hzha03pyth6156_habbtt_206.5_60_60_11352.xsdst ! RUN = 11352 ! NEVT = 500
FILE = /castor/cern.ch/delphi/MCprod/cern/hzha03pyth6156/va0e/206.5/hzha03pyth6156_habbtt_206.5_60_60_11353.xsdst ! RUN = 11353 ! NEVT = 500
FILE = /castor/cern.ch/delphi/MCprod/cern/hzha03pyth6156/va0e/206.5/hzha03pyth6156_habbtt_206.5_60_60_11354.xsdst ! RUN = 11354 ! NEVT = 500
FILE = /castor/cern.ch/delphi/MCprod/cern/hzha03pyth6156/va0e/206.5/hzha03pyth6156_habbtt_206.5_60_60_11355.xsdst ! RUN = 11355 ! NEVT = 500
