*
*   Nickname     : xs_hzha03pyth6156habbtt_e206.5_m12_m12_ca0_1l_e1
*   Generic Name : //CERN/DELPHI/P02_SIMD/XSDST/HZHA03PYTH6156HABBTT/E206.5/CERN/SUMT/C001-5
*   Description  :  Extended Short DST simulation a0_e1 done at ecms=206.5 , CERN
*---
*   Comments     : in total 2499 events in 5 files time stamp: Fri Oct  5 19:29:24 2001
*---
*
*
*
*
*
FILE = /castor/cern.ch/delphi/MCprod/cern/hzha03pyth6156/va0e/206.5/hzha03pyth6156_habbtt_206.5_12_12_11001.xsdst ! RUN = 11001 ! NEVT = 499
FILE = /castor/cern.ch/delphi/MCprod/cern/hzha03pyth6156/va0e/206.5/hzha03pyth6156_habbtt_206.5_12_12_11002.xsdst ! RUN = 11002 ! NEVT = 500
FILE = /castor/cern.ch/delphi/MCprod/cern/hzha03pyth6156/va0e/206.5/hzha03pyth6156_habbtt_206.5_12_12_11003.xsdst ! RUN = 11003 ! NEVT = 500
FILE = /castor/cern.ch/delphi/MCprod/cern/hzha03pyth6156/va0e/206.5/hzha03pyth6156_habbtt_206.5_12_12_11004.xsdst ! RUN = 11004 ! NEVT = 500
FILE = /castor/cern.ch/delphi/MCprod/cern/hzha03pyth6156/va0e/206.5/hzha03pyth6156_habbtt_206.5_12_12_11005.xsdst ! RUN = 11005 ! NEVT = 500
