*
*   Nickname     : xs_hzha03pyth6156ha50bbtt_e205_m18_ra0_1l_e1
*   Generic Name : //CERN/DELPHI/P02_SIMD/XSDST/HZHA03PYTH6156HA50BBTT/RAL/SUMT/C001-10
*   Description  :  Extended Short DST simulation a0_e1 205 , RAL
*---
*   Comments     : in total 4999 events in 10 files time stamp: Tue Oct 30 18:24:58 2001
*---
*
*
*
*
*
FILE = /castor/cern.ch/delphi/MCprod/ral/hzha03pyth6156/va0e/205/hzha03pyth6156_ha50bbtt_205_18_51840.xsdst ! RUN = 51840 ! NEVT = 499
FILE = /castor/cern.ch/delphi/MCprod/ral/hzha03pyth6156/va0e/205/hzha03pyth6156_ha50bbtt_205_18_51841.xsdst ! RUN = 51841 ! NEVT = 500
FILE = /castor/cern.ch/delphi/MCprod/ral/hzha03pyth6156/va0e/205/hzha03pyth6156_ha50bbtt_205_18_51842.xsdst ! RUN = 51842 ! NEVT = 500
FILE = /castor/cern.ch/delphi/MCprod/ral/hzha03pyth6156/va0e/205/hzha03pyth6156_ha50bbtt_205_18_51843.xsdst ! RUN = 51843 ! NEVT = 500
FILE = /castor/cern.ch/delphi/MCprod/ral/hzha03pyth6156/va0e/205/hzha03pyth6156_ha50bbtt_205_18_51844.xsdst ! RUN = 51844 ! NEVT = 500
FILE = /castor/cern.ch/delphi/MCprod/ral/hzha03pyth6156/va0e/205/hzha03pyth6156_ha50bbtt_205_18_51845.xsdst ! RUN = 51845 ! NEVT = 500
FILE = /castor/cern.ch/delphi/MCprod/ral/hzha03pyth6156/va0e/205/hzha03pyth6156_ha50bbtt_205_18_51846.xsdst ! RUN = 51846 ! NEVT = 500
FILE = /castor/cern.ch/delphi/MCprod/ral/hzha03pyth6156/va0e/205/hzha03pyth6156_ha50bbtt_205_18_51847.xsdst ! RUN = 51847 ! NEVT = 500
FILE = /castor/cern.ch/delphi/MCprod/ral/hzha03pyth6156/va0e/205/hzha03pyth6156_ha50bbtt_205_18_51848.xsdst ! RUN = 51848 ! NEVT = 500
FILE = /castor/cern.ch/delphi/MCprod/ral/hzha03pyth6156/va0e/205/hzha03pyth6156_ha50bbtt_205_18_51849.xsdst ! RUN = 51849 ! NEVT = 500
