*
*   Nickname     : xs_hzha03pyth6156hwqqqqnn_e205_m107.5_ra0_1l_e1
*   Generic Name : //CERN/DELPHI/P02_SIMD/XSDST/HZHA03PYTH6156HWQQQQNN/RAL/SUMT/C001-10
*   Description  :  Extended Short DST simulation a0e1 205 , RAL
*---
*   Comments     : in total 5000 events in 10 files time stamp: Sun Aug  4 15:13:28 2002
*---
*
*
*
*
*
FILE = /castor/cern.ch/delphi/MCprod/ral/hzha03pyth6156/va0e/205/hzha03pyth6156_hwqqqqnn_205_107.5_104751.xsdst ! RUN = 104751 ! NEVT = 500
FILE = /castor/cern.ch/delphi/MCprod/ral/hzha03pyth6156/va0e/205/hzha03pyth6156_hwqqqqnn_205_107.5_104752.xsdst ! RUN = 104752 ! NEVT = 500
FILE = /castor/cern.ch/delphi/MCprod/ral/hzha03pyth6156/va0e/205/hzha03pyth6156_hwqqqqnn_205_107.5_104753.xsdst ! RUN = 104753 ! NEVT = 500
FILE = /castor/cern.ch/delphi/MCprod/ral/hzha03pyth6156/va0e/205/hzha03pyth6156_hwqqqqnn_205_107.5_104754.xsdst ! RUN = 104754 ! NEVT = 500
FILE = /castor/cern.ch/delphi/MCprod/ral/hzha03pyth6156/va0e/205/hzha03pyth6156_hwqqqqnn_205_107.5_104755.xsdst ! RUN = 104755 ! NEVT = 500
FILE = /castor/cern.ch/delphi/MCprod/ral/hzha03pyth6156/va0e/205/hzha03pyth6156_hwqqqqnn_205_107.5_104756.xsdst ! RUN = 104756 ! NEVT = 500
FILE = /castor/cern.ch/delphi/MCprod/ral/hzha03pyth6156/va0e/205/hzha03pyth6156_hwqqqqnn_205_107.5_104757.xsdst ! RUN = 104757 ! NEVT = 500
FILE = /castor/cern.ch/delphi/MCprod/ral/hzha03pyth6156/va0e/205/hzha03pyth6156_hwqqqqnn_205_107.5_104758.xsdst ! RUN = 104758 ! NEVT = 500
FILE = /castor/cern.ch/delphi/MCprod/ral/hzha03pyth6156/va0e/205/hzha03pyth6156_hwqqqqnn_205_107.5_104760.xsdst ! RUN = 104760 ! NEVT = 500
FILE = /castor/cern.ch/delphi/MCprod/ral/hzha03pyth6156/va0e/205/hzha03pyth6156_hwqqqqnn_205_107.5_104765.xsdst ! RUN = 104765 ! NEVT = 500
