*
*   Nickname     : xs_hzha03pyth6156hwqqlnqq_e205_m95.0_ra0_1l_e1
*   Generic Name : //CERN/DELPHI/P02_SIMD/XSDST/HZHA03PYTH6156HWQQLNQQ/RAL/SUMT/C001-11
*   Description  :  Extended Short DST simulation a0e1 205 , RAL
*---
*   Comments     : in total 5498 events in 11 files time stamp: Sun Aug  4 15:13:30 2002
*---
*
*
*
*
*
FILE = /castor/cern.ch/delphi/MCprod/ral/hzha03pyth6156/va0e/205/hzha03pyth6156_hwqqlnqq_205_95.0_104501.xsdst ! RUN = 104501 ! NEVT = 500
FILE = /castor/cern.ch/delphi/MCprod/ral/hzha03pyth6156/va0e/205/hzha03pyth6156_hwqqlnqq_205_95.0_104502.xsdst ! RUN = 104502 ! NEVT = 500
FILE = /castor/cern.ch/delphi/MCprod/ral/hzha03pyth6156/va0e/205/hzha03pyth6156_hwqqlnqq_205_95.0_104505.xsdst ! RUN = 104505 ! NEVT = 500
FILE = /castor/cern.ch/delphi/MCprod/ral/hzha03pyth6156/va0e/205/hzha03pyth6156_hwqqlnqq_205_95.0_104506.xsdst ! RUN = 104506 ! NEVT = 500
FILE = /castor/cern.ch/delphi/MCprod/ral/hzha03pyth6156/va0e/205/hzha03pyth6156_hwqqlnqq_205_95.0_104507.xsdst ! RUN = 104507 ! NEVT = 500
FILE = /castor/cern.ch/delphi/MCprod/ral/hzha03pyth6156/va0e/205/hzha03pyth6156_hwqqlnqq_205_95.0_104508.xsdst ! RUN = 104508 ! NEVT = 500
FILE = /castor/cern.ch/delphi/MCprod/ral/hzha03pyth6156/va0e/205/hzha03pyth6156_hwqqlnqq_205_95.0_104509.xsdst ! RUN = 104509 ! NEVT = 500
FILE = /castor/cern.ch/delphi/MCprod/ral/hzha03pyth6156/va0e/205/hzha03pyth6156_hwqqlnqq_205_95.0_104510.xsdst ! RUN = 104510 ! NEVT = 499
FILE = /castor/cern.ch/delphi/MCprod/ral/hzha03pyth6156/va0e/205/hzha03pyth6156_hwqqlnqq_205_95.0_104511.xsdst ! RUN = 104511 ! NEVT = 500
FILE = /castor/cern.ch/delphi/MCprod/ral/hzha03pyth6156/va0e/205/hzha03pyth6156_hwqqlnqq_205_95.0_104513.xsdst ! RUN = 104513 ! NEVT = 500
FILE = /castor/cern.ch/delphi/MCprod/ral/hzha03pyth6156/va0e/205/hzha03pyth6156_hwqqlnqq_205_95.0_104514.xsdst ! RUN = 104514 ! NEVT = 499
