*
*   Nickname     : xs_hzha03pyth6156hwqqqqnn_e205_m120.0_ra0_1l_e1
*   Generic Name : //CERN/DELPHI/P02_SIMD/XSDST/HZHA03PYTH6156HWQQQQNN/RAL/SUMT/C001-13
*   Description  :  Extended Short DST simulation a0e1 205 , RAL
*---
*   Comments     : in total 6499 events in 13 files time stamp: Sun Aug  4 15:13:31 2002
*---
*
*
*
*
*
FILE = /castor/cern.ch/delphi/MCprod/ral/hzha03pyth6156/va0e/205/hzha03pyth6156_hwqqqqnn_205_120.0_106001.xsdst ! RUN = 106001 ! NEVT = 500
FILE = /castor/cern.ch/delphi/MCprod/ral/hzha03pyth6156/va0e/205/hzha03pyth6156_hwqqqqnn_205_120.0_106002.xsdst ! RUN = 106002 ! NEVT = 500
FILE = /castor/cern.ch/delphi/MCprod/ral/hzha03pyth6156/va0e/205/hzha03pyth6156_hwqqqqnn_205_120.0_106003.xsdst ! RUN = 106003 ! NEVT = 500
FILE = /castor/cern.ch/delphi/MCprod/ral/hzha03pyth6156/va0e/205/hzha03pyth6156_hwqqqqnn_205_120.0_106006.xsdst ! RUN = 106006 ! NEVT = 500
FILE = /castor/cern.ch/delphi/MCprod/ral/hzha03pyth6156/va0e/205/hzha03pyth6156_hwqqqqnn_205_120.0_106007.xsdst ! RUN = 106007 ! NEVT = 499
FILE = /castor/cern.ch/delphi/MCprod/ral/hzha03pyth6156/va0e/205/hzha03pyth6156_hwqqqqnn_205_120.0_106008.xsdst ! RUN = 106008 ! NEVT = 500
FILE = /castor/cern.ch/delphi/MCprod/ral/hzha03pyth6156/va0e/205/hzha03pyth6156_hwqqqqnn_205_120.0_106009.xsdst ! RUN = 106009 ! NEVT = 500
FILE = /castor/cern.ch/delphi/MCprod/ral/hzha03pyth6156/va0e/205/hzha03pyth6156_hwqqqqnn_205_120.0_106010.xsdst ! RUN = 106010 ! NEVT = 500
FILE = /castor/cern.ch/delphi/MCprod/ral/hzha03pyth6156/va0e/205/hzha03pyth6156_hwqqqqnn_205_120.0_106011.xsdst ! RUN = 106011 ! NEVT = 500
FILE = /castor/cern.ch/delphi/MCprod/ral/hzha03pyth6156/va0e/205/hzha03pyth6156_hwqqqqnn_205_120.0_106012.xsdst ! RUN = 106012 ! NEVT = 500
FILE = /castor/cern.ch/delphi/MCprod/ral/hzha03pyth6156/va0e/205/hzha03pyth6156_hwqqqqnn_205_120.0_106013.xsdst ! RUN = 106013 ! NEVT = 500
FILE = /castor/cern.ch/delphi/MCprod/ral/hzha03pyth6156/va0e/205/hzha03pyth6156_hwqqqqnn_205_120.0_106014.xsdst ! RUN = 106014 ! NEVT = 500
FILE = /castor/cern.ch/delphi/MCprod/ral/hzha03pyth6156/va0e/205/hzha03pyth6156_hwqqqqnn_205_120.0_106015.xsdst ! RUN = 106015 ! NEVT = 500
