*
*   Nickname     : xs_hzha03pyth6156hwqqqqnn_e205_m105.0_ra0_1l_e1
*   Generic Name : //CERN/DELPHI/P02_SIMD/XSDST/HZHA03PYTH6156HWQQQQNN/RAL/SUMT/C001-9
*   Description  :  Extended Short DST simulation a0e1 205 , RAL
*---
*   Comments     : in total 4500 events in 9 files time stamp: Sun Aug  4 11:12:53 2002
*---
*
*
*
*
*
FILE = /castor/cern.ch/delphi/MCprod/ral/hzha03pyth6156/va0e/205/hzha03pyth6156_hwqqqqnn_205_105.0_104501.xsdst ! RUN = 104501 ! NEVT = 500
FILE = /castor/cern.ch/delphi/MCprod/ral/hzha03pyth6156/va0e/205/hzha03pyth6156_hwqqqqnn_205_105.0_104503.xsdst ! RUN = 104503 ! NEVT = 500
FILE = /castor/cern.ch/delphi/MCprod/ral/hzha03pyth6156/va0e/205/hzha03pyth6156_hwqqqqnn_205_105.0_104504.xsdst ! RUN = 104504 ! NEVT = 500
FILE = /castor/cern.ch/delphi/MCprod/ral/hzha03pyth6156/va0e/205/hzha03pyth6156_hwqqqqnn_205_105.0_104505.xsdst ! RUN = 104505 ! NEVT = 500
FILE = /castor/cern.ch/delphi/MCprod/ral/hzha03pyth6156/va0e/205/hzha03pyth6156_hwqqqqnn_205_105.0_104506.xsdst ! RUN = 104506 ! NEVT = 500
FILE = /castor/cern.ch/delphi/MCprod/ral/hzha03pyth6156/va0e/205/hzha03pyth6156_hwqqqqnn_205_105.0_104509.xsdst ! RUN = 104509 ! NEVT = 500
FILE = /castor/cern.ch/delphi/MCprod/ral/hzha03pyth6156/va0e/205/hzha03pyth6156_hwqqqqnn_205_105.0_104510.xsdst ! RUN = 104510 ! NEVT = 500
FILE = /castor/cern.ch/delphi/MCprod/ral/hzha03pyth6156/va0e/205/hzha03pyth6156_hwqqqqnn_205_105.0_104511.xsdst ! RUN = 104511 ! NEVT = 500
FILE = /castor/cern.ch/delphi/MCprod/ral/hzha03pyth6156/va0e/205/hzha03pyth6156_hwqqqqnn_205_105.0_104512.xsdst ! RUN = 104512 ! NEVT = 500
