*
*   Nickname     : xs_hzha03pyth6156hwqqqqqq_e205_m120.0_ra0_1l_e1
*   Generic Name : //CERN/DELPHI/P02_SIMD/XSDST/HZHA03PYTH6156HWQQQQQQ/RAL/SUMT/C001-12
*   Description  :  Extended Short DST simulation a0e1 205 , RAL
*---
*   Comments     : in total 5997 events in 12 files time stamp: Sun Aug  4 15:13:30 2002
*---
*
*
*
*
*
FILE = /castor/cern.ch/delphi/MCprod/ral/hzha03pyth6156/va0e/205/hzha03pyth6156_hwqqqqqq_205_120.0_105001.xsdst ! RUN = 105001 ! NEVT = 500
FILE = /castor/cern.ch/delphi/MCprod/ral/hzha03pyth6156/va0e/205/hzha03pyth6156_hwqqqqqq_205_120.0_105002.xsdst ! RUN = 105002 ! NEVT = 500
FILE = /castor/cern.ch/delphi/MCprod/ral/hzha03pyth6156/va0e/205/hzha03pyth6156_hwqqqqqq_205_120.0_105004.xsdst ! RUN = 105004 ! NEVT = 500
FILE = /castor/cern.ch/delphi/MCprod/ral/hzha03pyth6156/va0e/205/hzha03pyth6156_hwqqqqqq_205_120.0_105005.xsdst ! RUN = 105005 ! NEVT = 500
FILE = /castor/cern.ch/delphi/MCprod/ral/hzha03pyth6156/va0e/205/hzha03pyth6156_hwqqqqqq_205_120.0_105006.xsdst ! RUN = 105006 ! NEVT = 499
FILE = /castor/cern.ch/delphi/MCprod/ral/hzha03pyth6156/va0e/205/hzha03pyth6156_hwqqqqqq_205_120.0_105007.xsdst ! RUN = 105007 ! NEVT = 500
FILE = /castor/cern.ch/delphi/MCprod/ral/hzha03pyth6156/va0e/205/hzha03pyth6156_hwqqqqqq_205_120.0_105008.xsdst ! RUN = 105008 ! NEVT = 500
FILE = /castor/cern.ch/delphi/MCprod/ral/hzha03pyth6156/va0e/205/hzha03pyth6156_hwqqqqqq_205_120.0_105009.xsdst ! RUN = 105009 ! NEVT = 500
FILE = /castor/cern.ch/delphi/MCprod/ral/hzha03pyth6156/va0e/205/hzha03pyth6156_hwqqqqqq_205_120.0_105011.xsdst ! RUN = 105011 ! NEVT = 500
FILE = /castor/cern.ch/delphi/MCprod/ral/hzha03pyth6156/va0e/205/hzha03pyth6156_hwqqqqqq_205_120.0_105012.xsdst ! RUN = 105012 ! NEVT = 499
FILE = /castor/cern.ch/delphi/MCprod/ral/hzha03pyth6156/va0e/205/hzha03pyth6156_hwqqqqqq_205_120.0_105013.xsdst ! RUN = 105013 ! NEVT = 500
FILE = /castor/cern.ch/delphi/MCprod/ral/hzha03pyth6156/va0e/205/hzha03pyth6156_hwqqqqqq_205_120.0_105015.xsdst ! RUN = 105015 ! NEVT = 499
