*
*   Nickname     : xs_pyth6156hpphmmr_e205.0_m100_ca0_1l_e1
*   Generic Name : //CERN/DELPHI/P02_SIMD/XSDST/PYTH6156HPPHMMR/E205.0/CERN/SUMT/C001-1
*   Description  :  Extended Short DST simulation a0_e1 done at ecms=205.0 , CERN
*---
*   Comments     : in total 1000 events in 1 files time stamp: Mon Oct 15 11:07:51 2001
*---
*
*
*
*
*
FILE = /castor/cern.ch/delphi/MCprod/cern/pyth6156/va0e/205.0/pyth6156_hpphmm_r_205.0_100_666100.xsdst ! RUN = 666100 ! NEVT = 1000
