*
*   Nickname     : xs_pyth6156hpphmml_e206.7_m90_ca0_1l_e1
*   Generic Name : //CERN/DELPHI/P02_SIMD/XSDST/PYTH6156HPPHMML/E206.7/CERN/SUMT/C001-1
*   Description  :  Extended Short DST simulation a0_e1 done at ecms=206.7 , CERN
*---
*   Comments     : in total 1000 events in 1 files time stamp: Mon Oct 15 11:07:27 2001
*---
*
*
*
*
*
FILE = /castor/cern.ch/delphi/MCprod/cern/pyth6156/va0e/206.7/pyth6156_hpphmm_l_206.7_90_66690.xsdst ! RUN = 66690 ! NEVT = 1000
