*
*   Nickname     : xs_hzha03pyth6156hzee_e195.5_m12_c99_1l_e1
*   Generic Name : //CERN/DELPHI/P02_SIMD/XSDST/HZHA03PYTH6156HZEE/E195.5/CERN/SUMT/C001-10
*   Description  : XShortDst HZHA03  e+e- --> HZ (H ->  any  Z-> e+e-)(HZ+interference+fusion) Extended Short DST simulation 99_e1 done at ecms=195.5 , CERN
*---
*   Comments     : in total 4994 events in 10 files time stamp: Sat Sep  8 15:23:23 2001
*---
*
*
*
*
*
FILE = /castor/cern.ch/delphi/MCprod/cern/hzha03pyth6156/v99e/195.5/hzha03pyth6156_hzee_195.5_12_31421.xsdst ! RUN = 31421 ! NEVT = 497
FILE = /castor/cern.ch/delphi/MCprod/cern/hzha03pyth6156/v99e/195.5/hzha03pyth6156_hzee_195.5_12_31422.xsdst ! RUN = 31422 ! NEVT = 498
FILE = /castor/cern.ch/delphi/MCprod/cern/hzha03pyth6156/v99e/195.5/hzha03pyth6156_hzee_195.5_12_31423.xsdst ! RUN = 31423 ! NEVT = 500
FILE = /castor/cern.ch/delphi/MCprod/cern/hzha03pyth6156/v99e/195.5/hzha03pyth6156_hzee_195.5_12_31424.xsdst ! RUN = 31424 ! NEVT = 500
FILE = /castor/cern.ch/delphi/MCprod/cern/hzha03pyth6156/v99e/195.5/hzha03pyth6156_hzee_195.5_12_31425.xsdst ! RUN = 31425 ! NEVT = 500
FILE = /castor/cern.ch/delphi/MCprod/cern/hzha03pyth6156/v99e/195.5/hzha03pyth6156_hzee_195.5_12_31426.xsdst ! RUN = 31426 ! NEVT = 500
FILE = /castor/cern.ch/delphi/MCprod/cern/hzha03pyth6156/v99e/195.5/hzha03pyth6156_hzee_195.5_12_31427.xsdst ! RUN = 31427 ! NEVT = 500
FILE = /castor/cern.ch/delphi/MCprod/cern/hzha03pyth6156/v99e/195.5/hzha03pyth6156_hzee_195.5_12_31428.xsdst ! RUN = 31428 ! NEVT = 500
FILE = /castor/cern.ch/delphi/MCprod/cern/hzha03pyth6156/v99e/195.5/hzha03pyth6156_hzee_195.5_12_31429.xsdst ! RUN = 31429 ! NEVT = 499
FILE = /castor/cern.ch/delphi/MCprod/cern/hzha03pyth6156/v99e/195.5/hzha03pyth6156_hzee_195.5_12_31430.xsdst ! RUN = 31430 ! NEVT = 500
