*
*   Nickname     : xs_hzha03pyth6156hzmu_e195.5_m115_c99_1l_e1
*   Generic Name : //CERN/DELPHI/P02_SIMD/XSDST/HZHA03PYTH6156HZMU/E195.5/CERN/SUMT/C001-10
*   Description  : XShortDst HZHA03  e+e- --> HZ (H ->  any  Z -> mu+mu-) Extended Short DST simulation 99_e1 done at ecms=195.5 , CERN
*---
*   Comments     : in total 5000 events in 10 files time stamp: Mon Sep 10 01:37:57 2001
*---
*
*
*
*
*
FILE = /castor/cern.ch/delphi/MCprod/cern/hzha03pyth6156/v99e/195.5/hzha03pyth6156_hzmu_195.5_115_41731.xsdst ! RUN = 41731 ! NEVT = 500
FILE = /castor/cern.ch/delphi/MCprod/cern/hzha03pyth6156/v99e/195.5/hzha03pyth6156_hzmu_195.5_115_41732.xsdst ! RUN = 41732 ! NEVT = 500
FILE = /castor/cern.ch/delphi/MCprod/cern/hzha03pyth6156/v99e/195.5/hzha03pyth6156_hzmu_195.5_115_41733.xsdst ! RUN = 41733 ! NEVT = 500
FILE = /castor/cern.ch/delphi/MCprod/cern/hzha03pyth6156/v99e/195.5/hzha03pyth6156_hzmu_195.5_115_41734.xsdst ! RUN = 41734 ! NEVT = 500
FILE = /castor/cern.ch/delphi/MCprod/cern/hzha03pyth6156/v99e/195.5/hzha03pyth6156_hzmu_195.5_115_41735.xsdst ! RUN = 41735 ! NEVT = 500
FILE = /castor/cern.ch/delphi/MCprod/cern/hzha03pyth6156/v99e/195.5/hzha03pyth6156_hzmu_195.5_115_41736.xsdst ! RUN = 41736 ! NEVT = 500
FILE = /castor/cern.ch/delphi/MCprod/cern/hzha03pyth6156/v99e/195.5/hzha03pyth6156_hzmu_195.5_115_41737.xsdst ! RUN = 41737 ! NEVT = 500
FILE = /castor/cern.ch/delphi/MCprod/cern/hzha03pyth6156/v99e/195.5/hzha03pyth6156_hzmu_195.5_115_41738.xsdst ! RUN = 41738 ! NEVT = 500
FILE = /castor/cern.ch/delphi/MCprod/cern/hzha03pyth6156/v99e/195.5/hzha03pyth6156_hzmu_195.5_115_41739.xsdst ! RUN = 41739 ! NEVT = 500
FILE = /castor/cern.ch/delphi/MCprod/cern/hzha03pyth6156/v99e/195.5/hzha03pyth6156_hzmu_195.5_115_41740.xsdst ! RUN = 41740 ! NEVT = 500
