*
*   Nickname     : xs_bhwide101_e91.25_la0_1l_e1
*   Generic Name : //CERN/DELPHI/P01_SIMD/XSDST/BHWIDE101/E91.25/LYON/SUMT/C001-109
*   Description  :  Extended Short DST simulation a0_e1 done at ecms=91.25 , Lyon
*---
*   Comments     : in total 108968 events in 109 files time stamp: Wed Jul 25 15:10:06 2001
*---
*
*
*
*
*
FILE = /castor/cern.ch/delphi/MCprod/lyon/bhwide101/va0e/91.25/bhwide101_91.25_1001.xsdst ! RUN = 1001 ! NEVT = 1000
FILE = /castor/cern.ch/delphi/MCprod/lyon/bhwide101/va0e/91.25/bhwide101_91.25_1002.xsdst ! RUN = 1002 ! NEVT = 1000
FILE = /castor/cern.ch/delphi/MCprod/lyon/bhwide101/va0e/91.25/bhwide101_91.25_1003.xsdst ! RUN = 1003 ! NEVT = 1000
FILE = /castor/cern.ch/delphi/MCprod/lyon/bhwide101/va0e/91.25/bhwide101_91.25_1004.xsdst ! RUN = 1004 ! NEVT = 1000
FILE = /castor/cern.ch/delphi/MCprod/lyon/bhwide101/va0e/91.25/bhwide101_91.25_1005.xsdst ! RUN = 1005 ! NEVT = 999
FILE = /castor/cern.ch/delphi/MCprod/lyon/bhwide101/va0e/91.25/bhwide101_91.25_1006.xsdst ! RUN = 1006 ! NEVT = 1000
FILE = /castor/cern.ch/delphi/MCprod/lyon/bhwide101/va0e/91.25/bhwide101_91.25_1007.xsdst ! RUN = 1007 ! NEVT = 1000
FILE = /castor/cern.ch/delphi/MCprod/lyon/bhwide101/va0e/91.25/bhwide101_91.25_1008.xsdst ! RUN = 1008 ! NEVT = 1000
FILE = /castor/cern.ch/delphi/MCprod/lyon/bhwide101/va0e/91.25/bhwide101_91.25_1009.xsdst ! RUN = 1009 ! NEVT = 1000
FILE = /castor/cern.ch/delphi/MCprod/lyon/bhwide101/va0e/91.25/bhwide101_91.25_1010.xsdst ! RUN = 1010 ! NEVT = 1000
FILE = /castor/cern.ch/delphi/MCprod/lyon/bhwide101/va0e/91.25/bhwide101_91.25_1011.xsdst ! RUN = 1011 ! NEVT = 1000
FILE = /castor/cern.ch/delphi/MCprod/lyon/bhwide101/va0e/91.25/bhwide101_91.25_1012.xsdst ! RUN = 1012 ! NEVT = 1000
FILE = /castor/cern.ch/delphi/MCprod/lyon/bhwide101/va0e/91.25/bhwide101_91.25_1013.xsdst ! RUN = 1013 ! NEVT = 1000
FILE = /castor/cern.ch/delphi/MCprod/lyon/bhwide101/va0e/91.25/bhwide101_91.25_1014.xsdst ! RUN = 1014 ! NEVT = 999
FILE = /castor/cern.ch/delphi/MCprod/lyon/bhwide101/va0e/91.25/bhwide101_91.25_1015.xsdst ! RUN = 1015 ! NEVT = 1000
FILE = /castor/cern.ch/delphi/MCprod/lyon/bhwide101/va0e/91.25/bhwide101_91.25_1016.xsdst ! RUN = 1016 ! NEVT = 999
FILE = /castor/cern.ch/delphi/MCprod/lyon/bhwide101/va0e/91.25/bhwide101_91.25_1017.xsdst ! RUN = 1017 ! NEVT = 1000
FILE = /castor/cern.ch/delphi/MCprod/lyon/bhwide101/va0e/91.25/bhwide101_91.25_1018.xsdst ! RUN = 1018 ! NEVT = 1000
FILE = /castor/cern.ch/delphi/MCprod/lyon/bhwide101/va0e/91.25/bhwide101_91.25_1019.xsdst ! RUN = 1019 ! NEVT = 999
FILE = /castor/cern.ch/delphi/MCprod/lyon/bhwide101/va0e/91.25/bhwide101_91.25_1020.xsdst ! RUN = 1020 ! NEVT = 1000
FILE = /castor/cern.ch/delphi/MCprod/lyon/bhwide101/va0e/91.25/bhwide101_91.25_1021.xsdst ! RUN = 1021 ! NEVT = 1000
FILE = /castor/cern.ch/delphi/MCprod/lyon/bhwide101/va0e/91.25/bhwide101_91.25_1022.xsdst ! RUN = 1022 ! NEVT = 1000
FILE = /castor/cern.ch/delphi/MCprod/lyon/bhwide101/va0e/91.25/bhwide101_91.25_1023.xsdst ! RUN = 1023 ! NEVT = 999
FILE = /castor/cern.ch/delphi/MCprod/lyon/bhwide101/va0e/91.25/bhwide101_91.25_1024.xsdst ! RUN = 1024 ! NEVT = 1000
FILE = /castor/cern.ch/delphi/MCprod/lyon/bhwide101/va0e/91.25/bhwide101_91.25_1025.xsdst ! RUN = 1025 ! NEVT = 1000
FILE = /castor/cern.ch/delphi/MCprod/lyon/bhwide101/va0e/91.25/bhwide101_91.25_1026.xsdst ! RUN = 1026 ! NEVT = 999
FILE = /castor/cern.ch/delphi/MCprod/lyon/bhwide101/va0e/91.25/bhwide101_91.25_1027.xsdst ! RUN = 1027 ! NEVT = 1000
FILE = /castor/cern.ch/delphi/MCprod/lyon/bhwide101/va0e/91.25/bhwide101_91.25_1028.xsdst ! RUN = 1028 ! NEVT = 1000
FILE = /castor/cern.ch/delphi/MCprod/lyon/bhwide101/va0e/91.25/bhwide101_91.25_1029.xsdst ! RUN = 1029 ! NEVT = 1000
FILE = /castor/cern.ch/delphi/MCprod/lyon/bhwide101/va0e/91.25/bhwide101_91.25_1030.xsdst ! RUN = 1030 ! NEVT = 999
FILE = /castor/cern.ch/delphi/MCprod/lyon/bhwide101/va0e/91.25/bhwide101_91.25_1031.xsdst ! RUN = 1031 ! NEVT = 1000
FILE = /castor/cern.ch/delphi/MCprod/lyon/bhwide101/va0e/91.25/bhwide101_91.25_1032.xsdst ! RUN = 1032 ! NEVT = 999
FILE = /castor/cern.ch/delphi/MCprod/lyon/bhwide101/va0e/91.25/bhwide101_91.25_1033.xsdst ! RUN = 1033 ! NEVT = 998
FILE = /castor/cern.ch/delphi/MCprod/lyon/bhwide101/va0e/91.25/bhwide101_91.25_1034.xsdst ! RUN = 1034 ! NEVT = 1000
FILE = /castor/cern.ch/delphi/MCprod/lyon/bhwide101/va0e/91.25/bhwide101_91.25_1035.xsdst ! RUN = 1035 ! NEVT = 1000
FILE = /castor/cern.ch/delphi/MCprod/lyon/bhwide101/va0e/91.25/bhwide101_91.25_1036.xsdst ! RUN = 1036 ! NEVT = 998
FILE = /castor/cern.ch/delphi/MCprod/lyon/bhwide101/va0e/91.25/bhwide101_91.25_1037.xsdst ! RUN = 1037 ! NEVT = 1000
FILE = /castor/cern.ch/delphi/MCprod/lyon/bhwide101/va0e/91.25/bhwide101_91.25_1038.xsdst ! RUN = 1038 ! NEVT = 999
FILE = /castor/cern.ch/delphi/MCprod/lyon/bhwide101/va0e/91.25/bhwide101_91.25_1039.xsdst ! RUN = 1039 ! NEVT = 1000
FILE = /castor/cern.ch/delphi/MCprod/lyon/bhwide101/va0e/91.25/bhwide101_91.25_1040.xsdst ! RUN = 1040 ! NEVT = 1000
FILE = /castor/cern.ch/delphi/MCprod/lyon/bhwide101/va0e/91.25/bhwide101_91.25_1041.xsdst ! RUN = 1041 ! NEVT = 999
FILE = /castor/cern.ch/delphi/MCprod/lyon/bhwide101/va0e/91.25/bhwide101_91.25_1042.xsdst ! RUN = 1042 ! NEVT = 1000
FILE = /castor/cern.ch/delphi/MCprod/lyon/bhwide101/va0e/91.25/bhwide101_91.25_1043.xsdst ! RUN = 1043 ! NEVT = 1000
FILE = /castor/cern.ch/delphi/MCprod/lyon/bhwide101/va0e/91.25/bhwide101_91.25_1044.xsdst ! RUN = 1044 ! NEVT = 998
FILE = /castor/cern.ch/delphi/MCprod/lyon/bhwide101/va0e/91.25/bhwide101_91.25_1045.xsdst ! RUN = 1045 ! NEVT = 1000
FILE = /castor/cern.ch/delphi/MCprod/lyon/bhwide101/va0e/91.25/bhwide101_91.25_1046.xsdst ! RUN = 1046 ! NEVT = 1000
FILE = /castor/cern.ch/delphi/MCprod/lyon/bhwide101/va0e/91.25/bhwide101_91.25_1047.xsdst ! RUN = 1047 ! NEVT = 1000
FILE = /castor/cern.ch/delphi/MCprod/lyon/bhwide101/va0e/91.25/bhwide101_91.25_1048.xsdst ! RUN = 1048 ! NEVT = 999
FILE = /castor/cern.ch/delphi/MCprod/lyon/bhwide101/va0e/91.25/bhwide101_91.25_1049.xsdst ! RUN = 1049 ! NEVT = 1000
FILE = /castor/cern.ch/delphi/MCprod/lyon/bhwide101/va0e/91.25/bhwide101_91.25_1050.xsdst ! RUN = 1050 ! NEVT = 1000
FILE = /castor/cern.ch/delphi/MCprod/lyon/bhwide101/va0e/91.25/bhwide101_91.25_1051.xsdst ! RUN = 1051 ! NEVT = 1000
FILE = /castor/cern.ch/delphi/MCprod/lyon/bhwide101/va0e/91.25/bhwide101_91.25_1052.xsdst ! RUN = 1052 ! NEVT = 1000
FILE = /castor/cern.ch/delphi/MCprod/lyon/bhwide101/va0e/91.25/bhwide101_91.25_1053.xsdst ! RUN = 1053 ! NEVT = 1000
FILE = /castor/cern.ch/delphi/MCprod/lyon/bhwide101/va0e/91.25/bhwide101_91.25_1054.xsdst ! RUN = 1054 ! NEVT = 1000
FILE = /castor/cern.ch/delphi/MCprod/lyon/bhwide101/va0e/91.25/bhwide101_91.25_1055.xsdst ! RUN = 1055 ! NEVT = 1000
FILE = /castor/cern.ch/delphi/MCprod/lyon/bhwide101/va0e/91.25/bhwide101_91.25_1056.xsdst ! RUN = 1056 ! NEVT = 1000
FILE = /castor/cern.ch/delphi/MCprod/lyon/bhwide101/va0e/91.25/bhwide101_91.25_1057.xsdst ! RUN = 1057 ! NEVT = 1000
FILE = /castor/cern.ch/delphi/MCprod/lyon/bhwide101/va0e/91.25/bhwide101_91.25_1058.xsdst ! RUN = 1058 ! NEVT = 1000
FILE = /castor/cern.ch/delphi/MCprod/lyon/bhwide101/va0e/91.25/bhwide101_91.25_1059.xsdst ! RUN = 1059 ! NEVT = 999
FILE = /castor/cern.ch/delphi/MCprod/lyon/bhwide101/va0e/91.25/bhwide101_91.25_1060.xsdst ! RUN = 1060 ! NEVT = 999
FILE = /castor/cern.ch/delphi/MCprod/lyon/bhwide101/va0e/91.25/bhwide101_91.25_1061.xsdst ! RUN = 1061 ! NEVT = 1000
FILE = /castor/cern.ch/delphi/MCprod/lyon/bhwide101/va0e/91.25/bhwide101_91.25_1062.xsdst ! RUN = 1062 ! NEVT = 1000
FILE = /castor/cern.ch/delphi/MCprod/lyon/bhwide101/va0e/91.25/bhwide101_91.25_1063.xsdst ! RUN = 1063 ! NEVT = 1000
FILE = /castor/cern.ch/delphi/MCprod/lyon/bhwide101/va0e/91.25/bhwide101_91.25_1064.xsdst ! RUN = 1064 ! NEVT = 1000
FILE = /castor/cern.ch/delphi/MCprod/lyon/bhwide101/va0e/91.25/bhwide101_91.25_1065.xsdst ! RUN = 1065 ! NEVT = 1000
FILE = /castor/cern.ch/delphi/MCprod/lyon/bhwide101/va0e/91.25/bhwide101_91.25_1067.xsdst ! RUN = 1067 ! NEVT = 999
FILE = /castor/cern.ch/delphi/MCprod/lyon/bhwide101/va0e/91.25/bhwide101_91.25_1068.xsdst ! RUN = 1068 ! NEVT = 1000
FILE = /castor/cern.ch/delphi/MCprod/lyon/bhwide101/va0e/91.25/bhwide101_91.25_1069.xsdst ! RUN = 1069 ! NEVT = 999
FILE = /castor/cern.ch/delphi/MCprod/lyon/bhwide101/va0e/91.25/bhwide101_91.25_1070.xsdst ! RUN = 1070 ! NEVT = 998
FILE = /castor/cern.ch/delphi/MCprod/lyon/bhwide101/va0e/91.25/bhwide101_91.25_1071.xsdst ! RUN = 1071 ! NEVT = 999
FILE = /castor/cern.ch/delphi/MCprod/lyon/bhwide101/va0e/91.25/bhwide101_91.25_1072.xsdst ! RUN = 1072 ! NEVT = 999
FILE = /castor/cern.ch/delphi/MCprod/lyon/bhwide101/va0e/91.25/bhwide101_91.25_1073.xsdst ! RUN = 1073 ! NEVT = 1000
FILE = /castor/cern.ch/delphi/MCprod/lyon/bhwide101/va0e/91.25/bhwide101_91.25_1074.xsdst ! RUN = 1074 ! NEVT = 998
FILE = /castor/cern.ch/delphi/MCprod/lyon/bhwide101/va0e/91.25/bhwide101_91.25_1075.xsdst ! RUN = 1075 ! NEVT = 1000
FILE = /castor/cern.ch/delphi/MCprod/lyon/bhwide101/va0e/91.25/bhwide101_91.25_1076.xsdst ! RUN = 1076 ! NEVT = 1000
FILE = /castor/cern.ch/delphi/MCprod/lyon/bhwide101/va0e/91.25/bhwide101_91.25_1077.xsdst ! RUN = 1077 ! NEVT = 1000
FILE = /castor/cern.ch/delphi/MCprod/lyon/bhwide101/va0e/91.25/bhwide101_91.25_1078.xsdst ! RUN = 1078 ! NEVT = 1000
FILE = /castor/cern.ch/delphi/MCprod/lyon/bhwide101/va0e/91.25/bhwide101_91.25_1079.xsdst ! RUN = 1079 ! NEVT = 1000
FILE = /castor/cern.ch/delphi/MCprod/lyon/bhwide101/va0e/91.25/bhwide101_91.25_1080.xsdst ! RUN = 1080 ! NEVT = 999
FILE = /castor/cern.ch/delphi/MCprod/lyon/bhwide101/va0e/91.25/bhwide101_91.25_1081.xsdst ! RUN = 1081 ! NEVT = 999
FILE = /castor/cern.ch/delphi/MCprod/lyon/bhwide101/va0e/91.25/bhwide101_91.25_1082.xsdst ! RUN = 1082 ! NEVT = 999
FILE = /castor/cern.ch/delphi/MCprod/lyon/bhwide101/va0e/91.25/bhwide101_91.25_1083.xsdst ! RUN = 1083 ! NEVT = 1000
FILE = /castor/cern.ch/delphi/MCprod/lyon/bhwide101/va0e/91.25/bhwide101_91.25_1084.xsdst ! RUN = 1084 ! NEVT = 1000
FILE = /castor/cern.ch/delphi/MCprod/lyon/bhwide101/va0e/91.25/bhwide101_91.25_1085.xsdst ! RUN = 1085 ! NEVT = 1000
FILE = /castor/cern.ch/delphi/MCprod/lyon/bhwide101/va0e/91.25/bhwide101_91.25_1086.xsdst ! RUN = 1086 ! NEVT = 1000
FILE = /castor/cern.ch/delphi/MCprod/lyon/bhwide101/va0e/91.25/bhwide101_91.25_1087.xsdst ! RUN = 1087 ! NEVT = 1000
FILE = /castor/cern.ch/delphi/MCprod/lyon/bhwide101/va0e/91.25/bhwide101_91.25_1088.xsdst ! RUN = 1088 ! NEVT = 1000
FILE = /castor/cern.ch/delphi/MCprod/lyon/bhwide101/va0e/91.25/bhwide101_91.25_1089.xsdst ! RUN = 1089 ! NEVT = 1000
FILE = /castor/cern.ch/delphi/MCprod/lyon/bhwide101/va0e/91.25/bhwide101_91.25_1090.xsdst ! RUN = 1090 ! NEVT = 999
FILE = /castor/cern.ch/delphi/MCprod/lyon/bhwide101/va0e/91.25/bhwide101_91.25_1091.xsdst ! RUN = 1091 ! NEVT = 1000
FILE = /castor/cern.ch/delphi/MCprod/lyon/bhwide101/va0e/91.25/bhwide101_91.25_1092.xsdst ! RUN = 1092 ! NEVT = 1000
FILE = /castor/cern.ch/delphi/MCprod/lyon/bhwide101/va0e/91.25/bhwide101_91.25_1093.xsdst ! RUN = 1093 ! NEVT = 1000
FILE = /castor/cern.ch/delphi/MCprod/lyon/bhwide101/va0e/91.25/bhwide101_91.25_1094.xsdst ! RUN = 1094 ! NEVT = 1000
FILE = /castor/cern.ch/delphi/MCprod/lyon/bhwide101/va0e/91.25/bhwide101_91.25_1095.xsdst ! RUN = 1095 ! NEVT = 1000
FILE = /castor/cern.ch/delphi/MCprod/lyon/bhwide101/va0e/91.25/bhwide101_91.25_1096.xsdst ! RUN = 1096 ! NEVT = 1000
FILE = /castor/cern.ch/delphi/MCprod/lyon/bhwide101/va0e/91.25/bhwide101_91.25_1097.xsdst ! RUN = 1097 ! NEVT = 1000
FILE = /castor/cern.ch/delphi/MCprod/lyon/bhwide101/va0e/91.25/bhwide101_91.25_1098.xsdst ! RUN = 1098 ! NEVT = 1000
FILE = /castor/cern.ch/delphi/MCprod/lyon/bhwide101/va0e/91.25/bhwide101_91.25_1099.xsdst ! RUN = 1099 ! NEVT = 1000
FILE = /castor/cern.ch/delphi/MCprod/lyon/bhwide101/va0e/91.25/bhwide101_91.25_1100.xsdst ! RUN = 1100 ! NEVT = 1000
FILE = /castor/cern.ch/delphi/MCprod/lyon/bhwide101/va0e/91.25/bhwide101_91.25_1101.xsdst ! RUN = 1101 ! NEVT = 999
FILE = /castor/cern.ch/delphi/MCprod/lyon/bhwide101/va0e/91.25/bhwide101_91.25_1102.xsdst ! RUN = 1102 ! NEVT = 1000
FILE = /castor/cern.ch/delphi/MCprod/lyon/bhwide101/va0e/91.25/bhwide101_91.25_1103.xsdst ! RUN = 1103 ! NEVT = 1000
FILE = /castor/cern.ch/delphi/MCprod/lyon/bhwide101/va0e/91.25/bhwide101_91.25_1104.xsdst ! RUN = 1104 ! NEVT = 1000
FILE = /castor/cern.ch/delphi/MCprod/lyon/bhwide101/va0e/91.25/bhwide101_91.25_1105.xsdst ! RUN = 1105 ! NEVT = 1000
FILE = /castor/cern.ch/delphi/MCprod/lyon/bhwide101/va0e/91.25/bhwide101_91.25_1106.xsdst ! RUN = 1106 ! NEVT = 1000
FILE = /castor/cern.ch/delphi/MCprod/lyon/bhwide101/va0e/91.25/bhwide101_91.25_1107.xsdst ! RUN = 1107 ! NEVT = 1000
FILE = /castor/cern.ch/delphi/MCprod/lyon/bhwide101/va0e/91.25/bhwide101_91.25_1108.xsdst ! RUN = 1108 ! NEVT = 1000
FILE = /castor/cern.ch/delphi/MCprod/lyon/bhwide101/va0e/91.25/bhwide101_91.25_1109.xsdst ! RUN = 1109 ! NEVT = 1000
FILE = /castor/cern.ch/delphi/MCprod/lyon/bhwide101/va0e/91.25/bhwide101_91.25_1110.xsdst ! RUN = 1110 ! NEVT = 1000
