*
*   Nickname     : xs_kk2f4143mumu_e206.5_ca0_1l_e2
*   Generic Name : //CERN/DELPHI/P02_SIMD/XSDST/KK2F4143MUMU/E206.5/CERN/SUMT/C001-1
*   Description  :  Extended Short DST simulation a0_e2 done at ecms=206.5 , CERN
*---
*   Comments     : in total 99998 events in 1 files time stamp: Fri Jul  5 10:18:41 2002
*---
*
*
*
*
*
FILE = /castor/cern.ch/delphi/MCprod/cern/kk2f4143/va0e/206.5/x2/kk2f4143_mumu_206.5_10021:10030.xsdst ! RUN =  -10021 -10022 -10023 -10024 -10025 -10026 -10027 -10028 -10029 -10030 ! NEVT =   99998
