*
*   Nickname     : xs_kk2f4143qqstrip_e205_ca0_1l_e1
*   Generic Name : //CERN/DELPHI/P02_SIMD/XSDST/KK2F4143QQSTRIP/SUMT
*   Description  :  Extended Short DST simulation a0_e1 205 
*---
*   Comments     :  time stamp: Thu Jan 31 17:44:45 2002
*---
*
*  Comments     : same events as xs_kk2f4143qq_e205_ca0_1l_e1 with empty events stripped
*
*
* found 985097 events in 100 files
FILE = /castor/cern.ch/delphi/MCprod/cern/kk2f4143/va0e/205/x1/stripkkkk2f4143_qqstrip_205_1.xsdst ! RUN =  -15001 -15002 -15003 -15004 -15005 -15006 -15007 -15008 -15009 -15010      0      0      0      0      0      0      0      0      0      0! NEVT =    9938
FILE = /castor/cern.ch/delphi/MCprod/cern/kk2f4143/va0e/205/x1/stripkkkk2f4143_qqstrip_205_2.xsdst ! RUN =  -15011 -15012 -15013 -15014 -15015 -15016 -15017 -15018 -15019 -15020      0      0      0      0      0      0      0      0      0      0! NEVT =    9932
FILE = /castor/cern.ch/delphi/MCprod/cern/kk2f4143/va0e/205/x1/stripkkkk2f4143_qqstrip_205_3.xsdst ! RUN =  -15021 -15022 -15023 -15024 -15025 -15026 -15027 -15028 -15029 -15030      0      0      0      0      0      0      0      0      0      0! NEVT =    9400
FILE = /castor/cern.ch/delphi/MCprod/cern/kk2f4143/va0e/205/x1/stripkkkk2f4143_qqstrip_205_4.xsdst ! RUN =  -15031 -15032 -15033 -15034 -15035 -15036 -15037 -15038 -15039 -15040      0      0      0      0      0      0      0      0      0      0! NEVT =    9934
FILE = /castor/cern.ch/delphi/MCprod/cern/kk2f4143/va0e/205/x1/stripkkkk2f4143_qqstrip_205_5.xsdst ! RUN =  -15041 -15042 -15043 -15044 -15045 -15046 -15047 -15048 -15049 -15050      0      0      0      0      0      0      0      0      0      0! NEVT =    9928
FILE = /castor/cern.ch/delphi/MCprod/cern/kk2f4143/va0e/205/x1/stripkkkk2f4143_qqstrip_205_6.xsdst ! RUN =  -15051 -15052 -15053 -15054 -15055 -15056 -15057 -15058 -15059 -15060      0      0      0      0      0      0      0      0      0      0! NEVT =    9924
FILE = /castor/cern.ch/delphi/MCprod/cern/kk2f4143/va0e/205/x1/stripkkkk2f4143_qqstrip_205_7.xsdst ! RUN =  -15061 -15062 -15063 -15064 -15065 -15066 -15067 -15068 -15069 -15070      0      0      0      0      0      0      0      0      0      0! NEVT =    9932
FILE = /castor/cern.ch/delphi/MCprod/cern/kk2f4143/va0e/205/x1/stripkkkk2f4143_qqstrip_205_8.xsdst ! RUN =  -15071 -15072 -15073 -15074 -15075 -15076 -15077 -15078 -15079 -15080      0      0      0      0      0      0      0      0      0      0! NEVT =    9919
FILE = /castor/cern.ch/delphi/MCprod/cern/kk2f4143/va0e/205/x1/stripkkkk2f4143_qqstrip_205_9.xsdst ! RUN =  -15081 -15082 -15083 -15084 -15085 -15086 -15087 -15088 -15089 -15090      0      0      0      0      0      0      0      0      0      0! NEVT =    9922
FILE = /castor/cern.ch/delphi/MCprod/cern/kk2f4143/va0e/205/x1/stripkkkk2f4143_qqstrip_205_10.xsdst ! RUN =  -15091 -15092 -15093 -15094 -15095 -15096 -15097 -15098 -15099 -15100      0      0      0      0      0      0      0      0      0      0! NEVT =    9930
FILE = /castor/cern.ch/delphi/MCprod/cern/kk2f4143/va0e/205/x1/stripkkkk2f4143_qqstrip_205_11.xsdst ! RUN =  -15101 -15102 -15103 -15104 -15105 -15106 -15107 -15108 -15109 -15110      0      0      0      0      0      0      0      0      0      0! NEVT =    9918
FILE = /castor/cern.ch/delphi/MCprod/cern/kk2f4143/va0e/205/x1/stripkkkk2f4143_qqstrip_205_12.xsdst ! RUN =  -15111 -15112 -15113 -15114 -15115 -15116 -15117 -15118 -15119 -15120      0      0      0      0      0      0      0      0      0      0! NEVT =    9931
FILE = /castor/cern.ch/delphi/MCprod/cern/kk2f4143/va0e/205/x1/stripkkkk2f4143_qqstrip_205_13.xsdst ! RUN =  -15121 -15122 -15123 -15124 -15125 -15126 -15127 -15128 -15129 -15130      0      0      0      0      0      0      0      0      0      0! NEVT =    9902
FILE = /castor/cern.ch/delphi/MCprod/cern/kk2f4143/va0e/205/x1/stripkkkk2f4143_qqstrip_205_14.xsdst ! RUN =  -15131 -15132 -15133 -15134 -15135 -15136 -15137 -15138 -15139 -15140      0      0      0      0      0      0      0      0      0      0! NEVT =    9929
FILE = /castor/cern.ch/delphi/MCprod/cern/kk2f4143/va0e/205/x1/stripkkkk2f4143_qqstrip_205_15.xsdst ! RUN =  -15141 -15142 -15143 -15144 -15145 -15146 -15147 -15148 -15149 -15150      0      0      0      0      0      0      0      0      0      0! NEVT =    9933
FILE = /castor/cern.ch/delphi/MCprod/cern/kk2f4143/va0e/205/x1/stripkkkk2f4143_qqstrip_205_16.xsdst ! RUN =  -15151 -15152 -15153 -15154 -15155 -15156 -15157 -15158 -15159 -15160      0      0      0      0      0      0      0      0      0      0! NEVT =    9937
FILE = /castor/cern.ch/delphi/MCprod/cern/kk2f4143/va0e/205/x1/stripkkkk2f4143_qqstrip_205_17.xsdst ! RUN =  -15161 -15162 -15163 -15164 -15165 -15166 -15167 -15168 -15169 -15170      0      0      0      0      0      0      0      0      0      0! NEVT =    9048
FILE = /castor/cern.ch/delphi/MCprod/cern/kk2f4143/va0e/205/x1/stripkkkk2f4143_qqstrip_205_18.xsdst ! RUN =  -15171 -15172 -15173 -15174 -15175 -15176 -15177 -15178 -15179 -15180      0      0      0      0      0      0      0      0      0      0! NEVT =    9923
FILE = /castor/cern.ch/delphi/MCprod/cern/kk2f4143/va0e/205/x1/stripkkkk2f4143_qqstrip_205_19.xsdst ! RUN =  -15181 -15182 -15183 -15184 -15185 -15186 -15187 -15188 -15189 -15190      0      0      0      0      0      0      0      0      0      0! NEVT =    9920
FILE = /castor/cern.ch/delphi/MCprod/cern/kk2f4143/va0e/205/x1/stripkkkk2f4143_qqstrip_205_20.xsdst ! RUN =  -15191 -15192 -15193 -15194 -15195 -15196 -15197 -15198 -15199 -15200      0      0      0      0      0      0      0      0      0      0! NEVT =    9904
FILE = /castor/cern.ch/delphi/MCprod/cern/kk2f4143/va0e/205/x1/stripkkkk2f4143_qqstrip_205_21.xsdst ! RUN =  -15201 -15202 -15203 -15204 -15205 -15206 -15207 -15208 -15209 -15210      0      0      0      0      0      0      0      0      0      0! NEVT =    9922
FILE = /castor/cern.ch/delphi/MCprod/cern/kk2f4143/va0e/205/x1/stripkkkk2f4143_qqstrip_205_22.xsdst ! RUN =  -15211 -15212 -15213 -15214 -15215 -15216 -15217 -15218 -15219 -15220      0      0      0      0      0      0      0      0      0      0! NEVT =    9910
FILE = /castor/cern.ch/delphi/MCprod/cern/kk2f4143/va0e/205/x1/stripkkkk2f4143_qqstrip_205_23.xsdst ! RUN =  -15221 -15222 -15223 -15224 -15225 -15226 -15227 -15228 -15229 -15230      0      0      0      0      0      0      0      0      0      0! NEVT =    9927
FILE = /castor/cern.ch/delphi/MCprod/cern/kk2f4143/va0e/205/x1/stripkkkk2f4143_qqstrip_205_24.xsdst ! RUN =  -15231 -15232 -15233 -15234 -15235 -15236 -15237 -15238 -15239 -15240      0      0      0      0      0      0      0      0      0      0! NEVT =    9593
FILE = /castor/cern.ch/delphi/MCprod/cern/kk2f4143/va0e/205/x1/stripkkkk2f4143_qqstrip_205_25.xsdst ! RUN =  -15241 -15242 -15243 -15244 -15245 -15246 -15247 -15248 -15249 -15250      0      0      0      0      0      0      0      0      0      0! NEVT =    9914
FILE = /castor/cern.ch/delphi/MCprod/cern/kk2f4143/va0e/205/x1/stripkkkk2f4143_qqstrip_205_26.xsdst ! RUN =  -15251 -15252 -15253 -15254 -15255 -15256 -15257 -15258 -15259 -15260      0      0      0      0      0      0      0      0      0      0! NEVT =    9916
FILE = /castor/cern.ch/delphi/MCprod/cern/kk2f4143/va0e/205/x1/stripkkkk2f4143_qqstrip_205_27.xsdst ! RUN =  -15261 -15262 -15263 -15264 -15265 -15266 -15267 -15268 -15269 -15270      0      0      0      0      0      0      0      0      0      0! NEVT =    9935
FILE = /castor/cern.ch/delphi/MCprod/cern/kk2f4143/va0e/205/x1/stripkkkk2f4143_qqstrip_205_28.xsdst ! RUN =  -15271 -15272 -15273 -15274 -15275 -15276 -15277 -15278 -15279 -15280      0      0      0      0      0      0      0      0      0      0! NEVT =    9937
FILE = /castor/cern.ch/delphi/MCprod/cern/kk2f4143/va0e/205/x1/stripkkkk2f4143_qqstrip_205_29.xsdst ! RUN =  -15281 -15282 -15283 -15284 -15285 -15286 -15287 -15288 -15289 -15290      0      0      0      0      0      0      0      0      0      0! NEVT =    9915
FILE = /castor/cern.ch/delphi/MCprod/cern/kk2f4143/va0e/205/x1/stripkkkk2f4143_qqstrip_205_30.xsdst ! RUN =  -15291 -15292 -15293 -15294 -15295 -15296 -15297 -15298 -15299 -15300      0      0      0      0      0      0      0      0      0      0! NEVT =    9933
FILE = /castor/cern.ch/delphi/MCprod/cern/kk2f4143/va0e/205/x1/stripkkkk2f4143_qqstrip_205_31.xsdst ! RUN =  -15301 -15302 -15303 -15304 -15305 -15306 -15307 -15308 -15309 -15310      0      0      0      0      0      0      0      0      0      0! NEVT =    9936
FILE = /castor/cern.ch/delphi/MCprod/cern/kk2f4143/va0e/205/x1/stripkkkk2f4143_qqstrip_205_32.xsdst ! RUN =  -15311 -15312 -15313 -15314 -15315 -15316 -15317 -15318 -15319 -15320      0      0      0      0      0      0      0      0      0      0! NEVT =    9922
FILE = /castor/cern.ch/delphi/MCprod/cern/kk2f4143/va0e/205/x1/stripkkkk2f4143_qqstrip_205_33.xsdst ! RUN =  -15321 -15322 -15323 -15324 -15325 -15326 -15327 -15328 -15329 -15330      0      0      0      0      0      0      0      0      0      0! NEVT =    9925
FILE = /castor/cern.ch/delphi/MCprod/cern/kk2f4143/va0e/205/x1/stripkkkk2f4143_qqstrip_205_34.xsdst ! RUN =  -15331 -15332 -15333 -15334 -15335 -15336 -15337 -15338 -15339 -15340      0      0      0      0      0      0      0      0      0      0! NEVT =    9923
FILE = /castor/cern.ch/delphi/MCprod/cern/kk2f4143/va0e/205/x1/stripkkkk2f4143_qqstrip_205_35.xsdst ! RUN =  -15341 -15342 -15343 -15344 -15345 -15346 -15347 -15348 -15349 -15350      0      0      0      0      0      0      0      0      0      0! NEVT =    9924
FILE = /castor/cern.ch/delphi/MCprod/cern/kk2f4143/va0e/205/x1/stripkkkk2f4143_qqstrip_205_36.xsdst ! RUN =  -15351 -15352 -15353 -15354 -15355 -15356 -15357 -15358 -15359 -15360      0      0      0      0      0      0      0      0      0      0! NEVT =    9924
FILE = /castor/cern.ch/delphi/MCprod/cern/kk2f4143/va0e/205/x1/stripkkkk2f4143_qqstrip_205_37.xsdst ! RUN =  -15361 -15362 -15363 -15364 -15365 -15366 -15367 -15368 -15369 -15370      0      0      0      0      0      0      0      0      0      0! NEVT =    9919
FILE = /castor/cern.ch/delphi/MCprod/cern/kk2f4143/va0e/205/x1/stripkkkk2f4143_qqstrip_205_38.xsdst ! RUN =  -15371 -15372 -15373 -15374 -15375 -15376 -15377 -15378 -15379 -15380      0      0      0      0      0      0      0      0      0      0! NEVT =    9925
FILE = /castor/cern.ch/delphi/MCprod/cern/kk2f4143/va0e/205/x1/stripkkkk2f4143_qqstrip_205_39.xsdst ! RUN =  -15381 -15382 -15383 -15384 -15385 -15386 -15387 -15388 -15389 -15390      0      0      0      0      0      0      0      0      0      0! NEVT =    9932
FILE = /castor/cern.ch/delphi/MCprod/cern/kk2f4143/va0e/205/x1/stripkkkk2f4143_qqstrip_205_40.xsdst ! RUN =  -15391 -15392 -15393 -15394 -15395 -15396 -15397 -15398 -15399 -15400      0      0      0      0      0      0      0      0      0      0! NEVT =    9928
FILE = /castor/cern.ch/delphi/MCprod/cern/kk2f4143/va0e/205/x1/stripkkkk2f4143_qqstrip_205_41.xsdst ! RUN =  -15401 -15402 -15403 -15404 -15405 -15406 -15407 -15408 -15409 -15410      0      0      0      0      0      0      0      0      0      0! NEVT =    9922
FILE = /castor/cern.ch/delphi/MCprod/cern/kk2f4143/va0e/205/x1/stripkkkk2f4143_qqstrip_205_42.xsdst ! RUN =  -15411 -15412 -15413 -15414 -15415 -15416 -15417 -15418 -15419 -15420      0      0      0      0      0      0      0      0      0      0! NEVT =    9920
FILE = /castor/cern.ch/delphi/MCprod/cern/kk2f4143/va0e/205/x1/stripkkkk2f4143_qqstrip_205_43.xsdst ! RUN =  -15421 -15422 -15423 -15424 -15425 -15426 -15427 -15428 -15429 -15430      0      0      0      0      0      0      0      0      0      0! NEVT =    9274
FILE = /castor/cern.ch/delphi/MCprod/cern/kk2f4143/va0e/205/x1/stripkkkk2f4143_qqstrip_205_44.xsdst ! RUN =  -15431 -15432 -15433 -15434 -15435 -15436 -15437 -15438 -15439 -15440      0      0      0      0      0      0      0      0      0      0! NEVT =    9925
FILE = /castor/cern.ch/delphi/MCprod/cern/kk2f4143/va0e/205/x1/stripkkkk2f4143_qqstrip_205_45.xsdst ! RUN =  -15441 -15442 -15443 -15444 -15445 -15446 -15447 -15448 -15449 -15450      0      0      0      0      0      0      0      0      0      0! NEVT =    9933
FILE = /castor/cern.ch/delphi/MCprod/cern/kk2f4143/va0e/205/x1/stripkkkk2f4143_qqstrip_205_46.xsdst ! RUN =  -15451 -15452 -15453 -15454 -15455 -15456 -15457 -15458 -15459 -15460      0      0      0      0      0      0      0      0      0      0! NEVT =    9933
FILE = /castor/cern.ch/delphi/MCprod/cern/kk2f4143/va0e/205/x1/stripkkkk2f4143_qqstrip_205_47.xsdst ! RUN =  -15461 -15462 -15463 -15464 -15465 -15466 -15467 -15468 -15469 -15470      0      0      0      0      0      0      0      0      0      0! NEVT =    9916
FILE = /castor/cern.ch/delphi/MCprod/cern/kk2f4143/va0e/205/x1/stripkkkk2f4143_qqstrip_205_48.xsdst ! RUN =  -15471 -15472 -15473 -15474 -15475 -15476 -15477 -15478 -15479 -15480      0      0      0      0      0      0      0      0      0      0! NEVT =    9937
FILE = /castor/cern.ch/delphi/MCprod/cern/kk2f4143/va0e/205/x1/stripkkkk2f4143_qqstrip_205_49.xsdst ! RUN =  -15481 -15482 -15483 -15484 -15485 -15486 -15487 -15488 -15489 -15490      0      0      0      0      0      0      0      0      0      0! NEVT =    9924
FILE = /castor/cern.ch/delphi/MCprod/cern/kk2f4143/va0e/205/x1/stripkkkk2f4143_qqstrip_205_50.xsdst ! RUN =  -15491 -15492 -15493 -15494 -15495 -15496 -15497 -15498 -15499 -15500      0      0      0      0      0      0      0      0      0      0! NEVT =    9932
FILE = /castor/cern.ch/delphi/MCprod/cern/kk2f4143/va0e/205/x1/stripkkkk2f4143_qqstrip_205_51.xsdst ! RUN =  -15501 -15502 -15503 -15504 -15505 -15506 -15507 -15508 -15509 -15510      0      0      0      0      0      0      0      0      0      0! NEVT =    9921
FILE = /castor/cern.ch/delphi/MCprod/cern/kk2f4143/va0e/205/x1/stripkkkk2f4143_qqstrip_205_52.xsdst ! RUN =  -15511 -15512 -15513 -15514 -15515 -15516 -15517 -15518 -15519 -15520      0      0      0      0      0      0      0      0      0      0! NEVT =    9922
FILE = /castor/cern.ch/delphi/MCprod/cern/kk2f4143/va0e/205/x1/stripkkkk2f4143_qqstrip_205_53.xsdst ! RUN =  -15521 -15522 -15523 -15524 -15525 -15526 -15527 -15528 -15529 -15530      0      0      0      0      0      0      0      0      0      0! NEVT =    9946
FILE = /castor/cern.ch/delphi/MCprod/cern/kk2f4143/va0e/205/x1/stripkkkk2f4143_qqstrip_205_54.xsdst ! RUN =  -15531 -15532 -15533 -15534 -15535 -15536 -15537 -15538 -15539 -15540      0      0      0      0      0      0      0      0      0      0! NEVT =    9919
FILE = /castor/cern.ch/delphi/MCprod/cern/kk2f4143/va0e/205/x1/stripkkkk2f4143_qqstrip_205_55.xsdst ! RUN =  -15541 -15542 -15543 -15544 -15545 -15546 -15547 -15548 -15549 -15550      0      0      0      0      0      0      0      0      0      0! NEVT =    9938
FILE = /castor/cern.ch/delphi/MCprod/cern/kk2f4143/va0e/205/x1/stripkkkk2f4143_qqstrip_205_56.xsdst ! RUN =  -15551 -15552 -15553 -15554 -15555 -15556 -15557 -15558 -15559 -15560      0      0      0      0      0      0      0      0      0      0! NEVT =    9127
FILE = /castor/cern.ch/delphi/MCprod/cern/kk2f4143/va0e/205/x1/stripkkkk2f4143_qqstrip_205_57.xsdst ! RUN =  -15561 -15562 -15563 -15564 -15565 -15566 -15567 -15568 -15569 -15570      0      0      0      0      0      0      0      0      0      0! NEVT =    9935
FILE = /castor/cern.ch/delphi/MCprod/cern/kk2f4143/va0e/205/x1/stripkkkk2f4143_qqstrip_205_58.xsdst ! RUN =  -15571 -15572 -15573 -15574 -15575 -15576 -15577 -15578 -15579 -15580      0      0      0      0      0      0      0      0      0      0! NEVT =    9927
FILE = /castor/cern.ch/delphi/MCprod/cern/kk2f4143/va0e/205/x1/stripkkkk2f4143_qqstrip_205_59.xsdst ! RUN =  -15581 -15582 -15583 -15584 -15585 -15586 -15587 -15588 -15589 -15590      0      0      0      0      0      0      0      0      0      0! NEVT =    9929
FILE = /castor/cern.ch/delphi/MCprod/cern/kk2f4143/va0e/205/x1/stripkkkk2f4143_qqstrip_205_60.xsdst ! RUN =  -15591 -15592 -15593 -15594 -15595 -15596 -15597 -15598 -15599 -15600      0      0      0      0      0      0      0      0      0      0! NEVT =    9928
FILE = /castor/cern.ch/delphi/MCprod/cern/kk2f4143/va0e/205/x1/stripkkkk2f4143_qqstrip_205_61.xsdst ! RUN =  -15601 -15602 -15603 -15604 -15605 -15606 -15607 -15608 -15609 -15610      0      0      0      0      0      0      0      0      0      0! NEVT =    9066
FILE = /castor/cern.ch/delphi/MCprod/cern/kk2f4143/va0e/205/x1/stripkkkk2f4143_qqstrip_205_62.xsdst ! RUN =  -15611 -15612 -15613 -15614 -15615 -15616 -15617 -15618 -15619 -15620      0      0      0      0      0      0      0      0      0      0! NEVT =    9920
FILE = /castor/cern.ch/delphi/MCprod/cern/kk2f4143/va0e/205/x1/stripkkkk2f4143_qqstrip_205_63.xsdst ! RUN =  -15621 -15622 -15623 -15624 -15625 -15626 -15627 -15628 -15629 -15630      0      0      0      0      0      0      0      0      0      0! NEVT =    9929
FILE = /castor/cern.ch/delphi/MCprod/cern/kk2f4143/va0e/205/x1/stripkkkk2f4143_qqstrip_205_64.xsdst ! RUN =  -15631 -15632 -15633 -15634 -15635 -15636 -15637 -15638 -15639 -15640      0      0      0      0      0      0      0      0      0      0! NEVT =    9937
FILE = /castor/cern.ch/delphi/MCprod/cern/kk2f4143/va0e/205/x1/stripkkkk2f4143_qqstrip_205_65.xsdst ! RUN =  -15641 -15642 -15643 -15644 -15645 -15646 -15647 -15648 -15649 -15650      0      0      0      0      0      0      0      0      0      0! NEVT =    9923
FILE = /castor/cern.ch/delphi/MCprod/cern/kk2f4143/va0e/205/x1/stripkkkk2f4143_qqstrip_205_66.xsdst ! RUN =  -15651 -15652 -15653 -15654 -15655 -15656 -15657 -15658 -15659 -15660      0      0      0      0      0      0      0      0      0      0! NEVT =    9158
FILE = /castor/cern.ch/delphi/MCprod/cern/kk2f4143/va0e/205/x1/stripkkkk2f4143_qqstrip_205_67.xsdst ! RUN =  -15661 -15662 -15663 -15664 -15665 -15666 -15667 -15668 -15669 -15670      0      0      0      0      0      0      0      0      0      0! NEVT =    9444
FILE = /castor/cern.ch/delphi/MCprod/cern/kk2f4143/va0e/205/x1/stripkkkk2f4143_qqstrip_205_68.xsdst ! RUN =  -15671 -15672 -15673 -15674 -15675 -15676 -15677 -15678 -15679 -15680      0      0      0      0      0      0      0      0      0      0! NEVT =    9287
FILE = /castor/cern.ch/delphi/MCprod/cern/kk2f4143/va0e/205/x1/stripkkkk2f4143_qqstrip_205_69.xsdst ! RUN =  -15681 -15682 -15683 -15684 -15685 -15686 -15687 -15688 -15689 -15690      0      0      0      0      0      0      0      0      0      0! NEVT =    9925
FILE = /castor/cern.ch/delphi/MCprod/cern/kk2f4143/va0e/205/x1/stripkkkk2f4143_qqstrip_205_70.xsdst ! RUN =  -15691 -15692 -15693 -15694 -15695 -15696 -15697 -15698 -15699 -15700      0      0      0      0      0      0      0      0      0      0! NEVT =    9935
FILE = /castor/cern.ch/delphi/MCprod/cern/kk2f4143/va0e/205/x1/stripkkkk2f4143_qqstrip_205_71.xsdst ! RUN =  -15701 -15702 -15703 -15704 -15705 -15706 -15707 -15708 -15709 -15710      0      0      0      0      0      0      0      0      0      0! NEVT =    9932
FILE = /castor/cern.ch/delphi/MCprod/cern/kk2f4143/va0e/205/x1/stripkkkk2f4143_qqstrip_205_72.xsdst ! RUN =  -15711 -15712 -15713 -15714 -15715 -15716 -15717 -15718 -15719 -15720      0      0      0      0      0      0      0      0      0      0! NEVT =    9917
FILE = /castor/cern.ch/delphi/MCprod/cern/kk2f4143/va0e/205/x1/stripkkkk2f4143_qqstrip_205_73.xsdst ! RUN =  -15721 -15722 -15723 -15724 -15725 -15726 -15727 -15728 -15729 -15730      0      0      0      0      0      0      0      0      0      0! NEVT =    9928
FILE = /castor/cern.ch/delphi/MCprod/cern/kk2f4143/va0e/205/x1/stripkkkk2f4143_qqstrip_205_74.xsdst ! RUN =  -15731 -15732 -15733 -15734 -15735 -15736 -15737 -15738 -15739 -15740      0      0      0      0      0      0      0      0      0      0! NEVT =    9127
FILE = /castor/cern.ch/delphi/MCprod/cern/kk2f4143/va0e/205/x1/stripkkkk2f4143_qqstrip_205_75.xsdst ! RUN =  -15741 -15742 -15743 -15744 -15745 -15746 -15747 -15748 -15749 -15750      0      0      0      0      0      0      0      0      0      0! NEVT =    9931
FILE = /castor/cern.ch/delphi/MCprod/cern/kk2f4143/va0e/205/x1/stripkkkk2f4143_qqstrip_205_76.xsdst ! RUN =  -15751 -15752 -15753 -15754 -15755 -15756 -15757 -15758 -15759 -15760      0      0      0      0      0      0      0      0      0      0! NEVT =    9925
FILE = /castor/cern.ch/delphi/MCprod/cern/kk2f4143/va0e/205/x1/stripkkkk2f4143_qqstrip_205_77.xsdst ! RUN =  -15761 -15762 -15763 -15764 -15765 -15766 -15767 -15768 -15769 -15770      0      0      0      0      0      0      0      0      0      0! NEVT =    9931
FILE = /castor/cern.ch/delphi/MCprod/cern/kk2f4143/va0e/205/x1/stripkkkk2f4143_qqstrip_205_78.xsdst ! RUN =  -15771 -15772 -15773 -15774 -15775 -15776 -15777 -15778 -15779 -15780      0      0      0      0      0      0      0      0      0      0! NEVT =    9919
FILE = /castor/cern.ch/delphi/MCprod/cern/kk2f4143/va0e/205/x1/stripkkkk2f4143_qqstrip_205_79.xsdst ! RUN =  -15781 -15782 -15783 -15784 -15785 -15786 -15787 -15788 -15789 -15790      0      0      0      0      0      0      0      0      0      0! NEVT =    9950
FILE = /castor/cern.ch/delphi/MCprod/cern/kk2f4143/va0e/205/x1/stripkkkk2f4143_qqstrip_205_80.xsdst ! RUN =  -15791 -15792 -15793 -15794 -15795 -15796 -15797 -15798 -15799 -15800      0      0      0      0      0      0      0      0      0      0! NEVT =    9929
FILE = /castor/cern.ch/delphi/MCprod/cern/kk2f4143/va0e/205/x1/stripkkkk2f4143_qqstrip_205_81.xsdst ! RUN =  -15801 -15802 -15803 -15804 -15805 -15806 -15807 -15808 -15809 -15810      0      0      0      0      0      0      0      0      0      0! NEVT =    9919
FILE = /castor/cern.ch/delphi/MCprod/cern/kk2f4143/va0e/205/x1/stripkkkk2f4143_qqstrip_205_82.xsdst ! RUN =  -15811 -15812 -15813 -15814 -15815 -15816 -15817 -15818 -15819 -15820      0      0      0      0      0      0      0      0      0      0! NEVT =    9913
FILE = /castor/cern.ch/delphi/MCprod/cern/kk2f4143/va0e/205/x1/stripkkkk2f4143_qqstrip_205_83.xsdst ! RUN =  -15821 -15822 -15823 -15824 -15825 -15826 -15827 -15828 -15829 -15830      0      0      0      0      0      0      0      0      0      0! NEVT =    9925
FILE = /castor/cern.ch/delphi/MCprod/cern/kk2f4143/va0e/205/x1/stripkkkk2f4143_qqstrip_205_84.xsdst ! RUN =  -15831 -15832 -15833 -15834 -15835 -15836 -15837 -15838 -15839 -15840      0      0      0      0      0      0      0      0      0      0! NEVT =    9926
FILE = /castor/cern.ch/delphi/MCprod/cern/kk2f4143/va0e/205/x1/stripkkkk2f4143_qqstrip_205_85.xsdst ! RUN =  -15841 -15842 -15843 -15844 -15845 -15846 -15847 -15848 -15849 -15850      0      0      0      0      0      0      0      0      0      0! NEVT =    9921
FILE = /castor/cern.ch/delphi/MCprod/cern/kk2f4143/va0e/205/x1/stripkkkk2f4143_qqstrip_205_86.xsdst ! RUN =  -15851 -15852 -15853 -15854 -15855 -15856 -15857 -15858 -15859 -15860      0      0      0      0      0      0      0      0      0      0! NEVT =    9489
FILE = /castor/cern.ch/delphi/MCprod/cern/kk2f4143/va0e/205/x1/stripkkkk2f4143_qqstrip_205_87.xsdst ! RUN =  -15861 -15862 -15863 -15864 -15865 -15866 -15867 -15868 -15869 -15870      0      0      0      0      0      0      0      0      0      0! NEVT =    9928
FILE = /castor/cern.ch/delphi/MCprod/cern/kk2f4143/va0e/205/x1/stripkkkk2f4143_qqstrip_205_88.xsdst ! RUN =  -15871 -15872 -15873 -15874 -15875 -15876 -15877 -15878 -15879 -15880      0      0      0      0      0      0      0      0      0      0! NEVT =    9912
FILE = /castor/cern.ch/delphi/MCprod/cern/kk2f4143/va0e/205/x1/stripkkkk2f4143_qqstrip_205_89.xsdst ! RUN =  -15881 -15882 -15883 -15884 -15885 -15886 -15887 -15888 -15889 -15890      0      0      0      0      0      0      0      0      0      0! NEVT =    9913
FILE = /castor/cern.ch/delphi/MCprod/cern/kk2f4143/va0e/205/x1/stripkkkk2f4143_qqstrip_205_90.xsdst ! RUN =  -15891 -15892 -15893 -15894 -15895 -15896 -15897 -15898 -15899 -15900      0      0      0      0      0      0      0      0      0      0! NEVT =    9910
FILE = /castor/cern.ch/delphi/MCprod/cern/kk2f4143/va0e/205/x1/stripkkkk2f4143_qqstrip_205_91.xsdst ! RUN =  -15901 -15902 -15903 -15904 -15905 -15906 -15907 -15908 -15909 -15910      0      0      0      0      0      0      0      0      0      0! NEVT =    9935
FILE = /castor/cern.ch/delphi/MCprod/cern/kk2f4143/va0e/205/x1/stripkkkk2f4143_qqstrip_205_92.xsdst ! RUN =  -15911 -15912 -15913 -15914 -15915 -15916 -15917 -15918 -15919 -15920      0      0      0      0      0      0      0      0      0      0! NEVT =    9656
FILE = /castor/cern.ch/delphi/MCprod/cern/kk2f4143/va0e/205/x1/stripkkkk2f4143_qqstrip_205_93.xsdst ! RUN =  -15921 -15922 -15923 -15924 -15925 -15926 -15927 -15928 -15929 -15930      0      0      0      0      0      0      0      0      0      0! NEVT =    9908
FILE = /castor/cern.ch/delphi/MCprod/cern/kk2f4143/va0e/205/x1/stripkkkk2f4143_qqstrip_205_94.xsdst ! RUN =  -15931 -15932 -15933 -15934 -15935 -15936 -15937 -15938 -15939 -15940      0      0      0      0      0      0      0      0      0      0! NEVT =    9920
FILE = /castor/cern.ch/delphi/MCprod/cern/kk2f4143/va0e/205/x1/stripkkkk2f4143_qqstrip_205_95.xsdst ! RUN =  -15941 -15942 -15943 -15944 -15945 -15946 -15947 -15948 -15949 -15950      0      0      0      0      0      0      0      0      0      0! NEVT =    9927
FILE = /castor/cern.ch/delphi/MCprod/cern/kk2f4143/va0e/205/x1/stripkkkk2f4143_qqstrip_205_96.xsdst ! RUN =  -15951 -15952 -15953 -15954 -15955 -15956 -15957 -15958 -15959 -15960      0      0      0      0      0      0      0      0      0      0! NEVT =    9929
FILE = /castor/cern.ch/delphi/MCprod/cern/kk2f4143/va0e/205/x1/stripkkkk2f4143_qqstrip_205_97.xsdst ! RUN =  -15961 -15962 -15963 -15964 -15965 -15966 -15967 -15968 -15969 -15970      0      0      0      0      0      0      0      0      0      0! NEVT =    9916
FILE = /castor/cern.ch/delphi/MCprod/cern/kk2f4143/va0e/205/x1/stripkkkk2f4143_qqstrip_205_98.xsdst ! RUN =  -15971 -15972 -15973 -15974 -15975 -15976 -15977 -15978 -15979 -15980      0      0      0      0      0      0      0      0      0      0! NEVT =    9920
FILE = /castor/cern.ch/delphi/MCprod/cern/kk2f4143/va0e/205/x1/stripkkkk2f4143_qqstrip_205_99.xsdst ! RUN =  -15981 -15982 -15983 -15984 -15985 -15986 -15987 -15988 -15989 -15990      0      0      0      0      0      0      0      0      0      0! NEVT =    9920
FILE = /castor/cern.ch/delphi/MCprod/cern/kk2f4143/va0e/205/x1/stripkkkk2f4143_qqstrip_205_100.xsdst ! RUN =  -15991 -15992 -15993 -15994 -15995 -15996 -15997 -15998 -15999 -16000      0      0      0      0      0      0      0      0      0      0! NEVT =    9925
